{"count":58808,"next":"http://129.241.150.113:8000/books/?languages=en&page=1797","previous":"http://129.241.150.113:8000/books/?languages=en&page=1795","results":[{"id":69289,"title":"Little comrade: a tale of the great war","authors":[{"name":"Stevenson, Burton Egbert","birth_year":1872,"death_year":1962}],"translators":[],"subjects":["Alsace (France) -- Fiction","War stories","World War, 1914-1918 -- Fiction"],"bookshelves":[],"languages":["en"],"copyright":false,"media_type":"Text","formats":{"text/html":"https://www.gutenberg.org/ebooks/69289.html.images","application/epub+zip":"https://www.gutenberg.org/ebooks/69289.epub3.images","application/x-mobipocket-ebook":"https://www.gutenberg.org/ebooks/69289.kf8.images","text/plain; charset=us-ascii":"https://www.gutenberg.org/ebooks/69289.txt.utf-8","application/rdf+xml":"https://www.gutenberg.org/ebooks/69289.rdf","image/jpeg":"https://www.gutenberg.org/cache/epub/69289/pg69289.cover.medium.jpg","application/octet-stream":"https://www.gutenberg.org/files/69289/69289-0.zip"},"download_count":13},{"id":69290,"title":"American slavery, and the means of its abolition","authors":[{"name":"Ward, Jonathan","birth_year":1769,"death_year":1860}],"translators":[],"subjects":["Slavery -- United States"],"bookshelves":[],"languages":["en"],"copyright":false,"media_type":"Text","formats":{"text/html":"https://www.gutenberg.org/ebooks/69290.html.images","application/epub+zip":"https://www.gutenberg.org/ebooks/69290.epub3.images","application/x-mobipocket-ebook":"https://www.gutenberg.org/ebooks/69290.kf8.images","text/plain; charset=us-ascii":"https://www.gutenberg.org/ebooks/69290.txt.utf-8","application/rdf+xml":"https://www.gutenberg.org/ebooks/69290.rdf","image/jpeg":"https://www.gutenberg.org/cache/epub/69290/pg69290.cover.medium.jpg","application/octet-stream":"https://www.gutenberg.org/files/69290/69290-0.zip"},"download_count":13},{"id":69335,"title":"Christmas eve at Mulligan's","authors":[{"name":"Irish, Marie","birth_year":null,"death_year":null}],"translators":[],"subjects":["Christmas plays"],"bookshelves":[],"languages":["en"],"copyright":false,"media_type":"Text","formats":{"text/html":"https://www.gutenberg.org/ebooks/69335.html.images","application/epub+zip":"https://www.gutenberg.org/ebooks/69335.epub3.images","application/x-mobipocket-ebook":"https://www.gutenberg.org/ebooks/69335.kf8.images","text/plain; charset=us-ascii":"https://www.gutenberg.org/ebooks/69335.txt.utf-8","application/rdf+xml":"https://www.gutenberg.org/ebooks/69335.rdf","image/jpeg":"https://www.gutenberg.org/cache/epub/69335/pg69335.cover.medium.jpg","application/octet-stream":"https://www.gutenberg.org/files/69335/69335-0.zip"},"download_count":13},{"id":69376,"title":"Anti-slavery catechism","authors":[{"name":"Child, Lydia Maria","birth_year":1802,"death_year":1880}],"translators":[],"subjects":["Slavery -- United States"],"bookshelves":[],"languages":["en"],"copyright":false,"media_type":"Text","formats":{"text/html":"https://www.gutenberg.org/ebooks/69376.html.images","application/epub+zip":"https://www.gutenberg.org/ebooks/69376.epub3.images","application/x-mobipocket-ebook":"https://www.gutenberg.org/ebooks/69376.kf8.images","text/plain; charset=us-ascii":"https://www.gutenberg.org/ebooks/69376.txt.utf-8","application/rdf+xml":"https://www.gutenberg.org/ebooks/69376.rdf","image/jpeg":"https://www.gutenberg.org/cache/epub/69376/pg69376.cover.medium.jpg","application/octet-stream":"https://www.gutenberg.org/files/69376/69376-0.zip"},"download_count":13},{"id":69387,"title":"The southern literary messenger, Vol. II., No. 7, June, 1836","authors":[{"name":"Various","birth_year":null,"death_year":null}],"translators":[],"subjects":["American literature -- 19th century -- Periodicals"],"bookshelves":[],"languages":["en"],"copyright":false,"media_type":"Text","formats":{"text/html":"https://www.gutenberg.org/ebooks/69387.html.images","application/epub+zip":"https://www.gutenberg.org/ebooks/69387.epub3.images","application/x-mobipocket-ebook":"https://www.gutenberg.org/ebooks/69387.kf8.images","text/plain; charset=us-ascii":"https://www.gutenberg.org/ebooks/69387.txt.utf-8","application/rdf+xml":"https://www.gutenberg.org/ebooks/69387.rdf","image/jpeg":"https://www.gutenberg.org/cache/epub/69387/pg69387.cover.medium.jpg","application/octet-stream":"https://www.gutenberg.org/files/69387/69387-0.zip"},"download_count":13},{"id":69434,"title":"Herder's conception of \"das Volk\"","authors":[{"name":"Simpson, Georgiana Rose","birth_year":1865,"death_year":1944}],"translators":[],"subjects":["German language -- Etymology","German language -- Semantics","Herder, Johann Gottfried, 1744-1803","Thesis (Ph. D.)"],"bookshelves":[],"languages":["en"],"copyright":false,"media_type":"Text","formats":{"text/html":"https://www.gutenberg.org/ebooks/69434.html.images","application/epub+zip":"https://www.gutenberg.org/ebooks/69434.epub3.images","application/x-mobipocket-ebook":"https://www.gutenberg.org/ebooks/69434.kf8.images","text/plain; charset=us-ascii":"https://www.gutenberg.org/ebooks/69434.txt.utf-8","application/rdf+xml":"https://www.gutenberg.org/ebooks/69434.rdf","image/jpeg":"https://www.gutenberg.org/cache/epub/69434/pg69434.cover.medium.jpg","application/octet-stream":"https://www.gutenberg.org/files/69434/69434-0.zip"},"download_count":13},{"id":69504,"title":"The northern whale-fishery","authors":[{"name":"Scoresby, William","birth_year":1789,"death_year":1857}],"translators":[],"subjects":["Whaling -- Arctic regions"],"bookshelves":[],"languages":["en"],"copyright":false,"media_type":"Text","formats":{"text/html":"https://www.gutenberg.org/ebooks/69504.html.images","application/epub+zip":"https://www.gutenberg.org/ebooks/69504.epub3.images","application/x-mobipocket-ebook":"https://www.gutenberg.org/ebooks/69504.kf8.images","text/plain; charset=us-ascii":"https://www.gutenberg.org/ebooks/69504.txt.utf-8","application/rdf+xml":"https://www.gutenberg.org/ebooks/69504.rdf","image/jpeg":"https://www.gutenberg.org/cache/epub/69504/pg69504.cover.medium.jpg","application/octet-stream":"https://www.gutenberg.org/files/69504/69504-0.zip"},"download_count":13},{"id":69515,"title":"In the tiger's lair","authors":[{"name":"Miller, Leo E. (Leo Edward)","birth_year":1887,"death_year":1952}],"translators":[],"subjects":["Adventure stories","Peru -- Juvenile fiction","Treasure troves -- Juvenile fiction"],"bookshelves":[],"languages":["en"],"copyright":false,"media_type":"Text","formats":{"text/html":"https://www.gutenberg.org/ebooks/69515.html.images","application/epub+zip":"https://www.gutenberg.org/ebooks/69515.epub3.images","application/x-mobipocket-ebook":"https://www.gutenberg.org/ebooks/69515.kf8.images","text/plain; charset=us-ascii":"https://www.gutenberg.org/ebooks/69515.txt.utf-8","application/rdf+xml":"https://www.gutenberg.org/ebooks/69515.rdf","image/jpeg":"https://www.gutenberg.org/cache/epub/69515/pg69515.cover.medium.jpg","application/octet-stream":"https://www.gutenberg.org/files/69515/69515-0.zip"},"download_count":13},{"id":69534,"title":"The doctor, &c., vol. 2 (of 7)","authors":[{"name":"Southey, Robert","birth_year":1774,"death_year":1843}],"translators":[],"subjects":["English literature -- 19th century"],"bookshelves":[],"languages":["en"],"copyright":false,"media_type":"Text","formats":{"text/html":"https://www.gutenberg.org/ebooks/69534.html.images","application/epub+zip":"https://www.gutenberg.org/ebooks/69534.epub3.images","application/x-mobipocket-ebook":"https://www.gutenberg.org/ebooks/69534.kf8.images","text/plain; charset=us-ascii":"https://www.gutenberg.org/ebooks/69534.txt.utf-8","application/rdf+xml":"https://www.gutenberg.org/ebooks/69534.rdf","image/jpeg":"https://www.gutenberg.org/cache/epub/69534/pg69534.cover.medium.jpg","application/octet-stream":"https://www.gutenberg.org/files/69534/69534-0.zip"},"download_count":13},{"id":69649,"title":"The Ranch Girls and the silver arrow","authors":[{"name":"Vandercook, Margaret","birth_year":1876,"death_year":1958}],"translators":[],"subjects":["Ranch life -- Juvenile fiction","Western stories","Wyoming -- Juvenile fiction","Young women -- Juvenile fiction"],"bookshelves":[],"languages":["en"],"copyright":false,"media_type":"Text","formats":{"text/html":"https://www.gutenberg.org/ebooks/69649.html.images","application/epub+zip":"https://www.gutenberg.org/ebooks/69649.epub3.images","application/x-mobipocket-ebook":"https://www.gutenberg.org/ebooks/69649.kf8.images","text/plain; charset=us-ascii":"https://www.gutenberg.org/ebooks/69649.txt.utf-8","application/rdf+xml":"https://www.gutenberg.org/ebooks/69649.rdf","image/jpeg":"https://www.gutenberg.org/cache/epub/69649/pg69649.cover.medium.jpg","application/octet-stream":"https://www.gutenberg.org/files/69649/69649-0.zip"},"download_count":13},{"id":69806,"title":"The Circe of the deserts","authors":[{"name":"Henry-Bordeaux, Paule","birth_year":1903,"death_year":1999}],"translators":[],"subjects":["Middle East -- Description and travel","Stanhope, Hester, Lady, 1776-1839"],"bookshelves":[],"languages":["en"],"copyright":false,"media_type":"Text","formats":{"text/html":"https://www.gutenberg.org/ebooks/69806.html.images","application/epub+zip":"https://www.gutenberg.org/ebooks/69806.epub3.images","application/x-mobipocket-ebook":"https://www.gutenberg.org/ebooks/69806.kf8.images","text/plain; charset=us-ascii":"https://www.gutenberg.org/ebooks/69806.txt.utf-8","application/rdf+xml":"https://www.gutenberg.org/ebooks/69806.rdf","image/jpeg":"https://www.gutenberg.org/cache/epub/69806/pg69806.cover.medium.jpg","application/octet-stream":"https://www.gutenberg.org/files/69806/69806-0.zip"},"download_count":13},{"id":69869,"title":"Harriet Beecher Stowe: a biography for girls","authors":[{"name":"Crow, Martha Foote","birth_year":1854,"death_year":1924}],"translators":[],"subjects":["Stowe, Harriet Beecher, 1811-1896 -- Juvenile literature"],"bookshelves":[],"languages":["en"],"copyright":false,"media_type":"Text","formats":{"text/html":"https://www.gutenberg.org/ebooks/69869.html.images","application/epub+zip":"https://www.gutenberg.org/ebooks/69869.epub3.images","application/x-mobipocket-ebook":"https://www.gutenberg.org/ebooks/69869.kf8.images","text/plain; charset=us-ascii":"https://www.gutenberg.org/ebooks/69869.txt.utf-8","application/rdf+xml":"https://www.gutenberg.org/ebooks/69869.rdf","image/jpeg":"https://www.gutenberg.org/cache/epub/69869/pg69869.cover.medium.jpg","application/octet-stream":"https://www.gutenberg.org/files/69869/69869-0.zip"},"download_count":13},{"id":70062,"title":"Coloured engravings of heaths; vol. 3","authors":[{"name":"Andrews, Henry Cranke, active 1799-1828","birth_year":null,"death_year":null}],"translators":[],"subjects":["Ericas","Ericas -- Pictorial works"],"bookshelves":[],"languages":["en"],"copyright":false,"media_type":"Text","formats":{"text/html":"https://www.gutenberg.org/ebooks/70062.html.images","application/epub+zip":"https://www.gutenberg.org/ebooks/70062.epub3.images","application/x-mobipocket-ebook":"https://www.gutenberg.org/ebooks/70062.kf8.images","text/plain; charset=us-ascii":"https://www.gutenberg.org/ebooks/70062.txt.utf-8","application/rdf+xml":"https://www.gutenberg.org/ebooks/70062.rdf","image/jpeg":"https://www.gutenberg.org/cache/epub/70062/pg70062.cover.medium.jpg","application/octet-stream":"https://www.gutenberg.org/files/70062/70062-0.zip"},"download_count":13},{"id":70099,"title":"Petition and memorial of David Quinn, asking for the re-establishment of Negro slavery in the United States","authors":[{"name":"Quinn, David, active 1850-1869","birth_year":null,"death_year":null}],"translators":[],"subjects":["Slavery -- United States -- Justification"],"bookshelves":[],"languages":["en"],"copyright":false,"media_type":"Text","formats":{"text/html":"https://www.gutenberg.org/ebooks/70099.html.images","application/epub+zip":"https://www.gutenberg.org/ebooks/70099.epub3.images","application/x-mobipocket-ebook":"https://www.gutenberg.org/ebooks/70099.kf8.images","text/plain; charset=us-ascii":"https://www.gutenberg.org/ebooks/70099.txt.utf-8","application/rdf+xml":"https://www.gutenberg.org/ebooks/70099.rdf","image/jpeg":"https://www.gutenberg.org/cache/epub/70099/pg70099.cover.medium.jpg","application/octet-stream":"https://www.gutenberg.org/files/70099/70099-0.zip"},"download_count":13},{"id":70154,"title":"Murderer's chain","authors":[{"name":"Brown, Wenzell","birth_year":1911,"death_year":1981}],"translators":[],"subjects":["Jewelry -- Fiction","Martians -- Fiction","Mothers-in-law -- Fiction","Murderers -- Fiction","Science fiction","Short stories"],"bookshelves":[],"languages":["en"],"copyright":false,"media_type":"Text","formats":{"text/html":"https://www.gutenberg.org/ebooks/70154.html.images","application/epub+zip":"https://www.gutenberg.org/ebooks/70154.epub3.images","application/x-mobipocket-ebook":"https://www.gutenberg.org/ebooks/70154.kf8.images","text/plain; charset=us-ascii":"https://www.gutenberg.org/ebooks/70154.txt.utf-8","application/rdf+xml":"https://www.gutenberg.org/ebooks/70154.rdf","image/jpeg":"https://www.gutenberg.org/cache/epub/70154/pg70154.cover.medium.jpg","application/octet-stream":"https://www.gutenberg.org/files/70154/70154-0.zip"},"download_count":13},{"id":70174,"title":"Madam Constantia : $b The romance of a prisoner of war in the revolution (South Carolina)","authors":[{"name":"Carter, Jefferson","birth_year":null,"death_year":null}],"translators":[],"subjects":["South Carolina -- History -- Revolution, 1775-1783 -- Fiction","United States -- History -- Revolution, 1775-1783 -- Fiction"],"bookshelves":[],"languages":["en"],"copyright":false,"media_type":"Text","formats":{"text/html":"https://www.gutenberg.org/ebooks/70174.html.images","application/epub+zip":"https://www.gutenberg.org/ebooks/70174.epub3.images","application/x-mobipocket-ebook":"https://www.gutenberg.org/ebooks/70174.kf8.images","text/plain; charset=us-ascii":"https://www.gutenberg.org/ebooks/70174.txt.utf-8","application/rdf+xml":"https://www.gutenberg.org/ebooks/70174.rdf","image/jpeg":"https://www.gutenberg.org/cache/epub/70174/pg70174.cover.medium.jpg","application/octet-stream":"https://www.gutenberg.org/files/70174/70174-0.zip"},"download_count":13},{"id":70279,"title":"Bertha Weisser's wish : $b A Christmas story","authors":[{"name":"Bissell, Mary L.","birth_year":null,"death_year":null}],"translators":[],"subjects":["Children -- Conduct of life -- Juvenile fiction","Christmas stories","Christmas trees -- Juvenile fiction","Conduct of life -- Juvenile fiction","Germans -- United States -- Juvenile fiction","Orphans -- Juvenile fiction","Physicians -- Juvenile fiction","Poverty -- Juvenile fiction","Ragpickers -- Juvnile fiction","Temptation -- Juvenile fiction"],"bookshelves":[],"languages":["en"],"copyright":false,"media_type":"Text","formats":{"text/html":"https://www.gutenberg.org/ebooks/70279.html.images","application/epub+zip":"https://www.gutenberg.org/ebooks/70279.epub3.images","application/x-mobipocket-ebook":"https://www.gutenberg.org/ebooks/70279.kf8.images","text/plain; charset=us-ascii":"https://www.gutenberg.org/ebooks/70279.txt.utf-8","application/rdf+xml":"https://www.gutenberg.org/ebooks/70279.rdf","image/jpeg":"https://www.gutenberg.org/cache/epub/70279/pg70279.cover.medium.jpg","application/octet-stream":"https://www.gutenberg.org/files/70279/70279-0.zip"},"download_count":13},{"id":70294,"title":"The First Church's Christmas barrel","authors":[{"name":"Stanley, Caroline Abbot","birth_year":1849,"death_year":1919}],"translators":[],"subjects":["Charity -- Fiction","Christmas stories","Missionaries -- Fiction","West (U.S.) -- Fiction"],"bookshelves":[],"languages":["en"],"copyright":false,"media_type":"Text","formats":{"text/html":"https://www.gutenberg.org/ebooks/70294.html.images","application/epub+zip":"https://www.gutenberg.org/ebooks/70294.epub3.images","application/x-mobipocket-ebook":"https://www.gutenberg.org/ebooks/70294.kf8.images","text/plain; charset=us-ascii":"https://www.gutenberg.org/ebooks/70294.txt.utf-8","application/rdf+xml":"https://www.gutenberg.org/ebooks/70294.rdf","image/jpeg":"https://www.gutenberg.org/cache/epub/70294/pg70294.cover.medium.jpg","application/octet-stream":"https://www.gutenberg.org/files/70294/70294-0.zip"},"download_count":13},{"id":70325,"title":"Mary Christmas","authors":[{"name":"Chase, Mary Ellen","birth_year":1887,"death_year":1973}],"translators":[],"subjects":["Armenian Americans -- Juvenile fiction","Families -- Juvenile fiction","Maine -- Juvenile fiction","Peddlers -- Juvenile fiction"],"bookshelves":[],"languages":["en"],"copyright":false,"media_type":"Text","formats":{"text/html":"https://www.gutenberg.org/ebooks/70325.html.images","application/epub+zip":"https://www.gutenberg.org/ebooks/70325.epub3.images","application/x-mobipocket-ebook":"https://www.gutenberg.org/ebooks/70325.kf8.images","text/plain; charset=us-ascii":"https://www.gutenberg.org/ebooks/70325.txt.utf-8","application/rdf+xml":"https://www.gutenberg.org/ebooks/70325.rdf","image/jpeg":"https://www.gutenberg.org/cache/epub/70325/pg70325.cover.medium.jpg","application/octet-stream":"https://www.gutenberg.org/files/70325/70325-0.zip"},"download_count":13},{"id":70400,"title":"The cheerful blackguard","authors":[{"name":"Pocock, Roger","birth_year":1865,"death_year":1941}],"translators":[],"subjects":["Canada -- Fiction","North West Mounted Police (Canada) -- Fiction"],"bookshelves":[],"languages":["en"],"copyright":false,"media_type":"Text","formats":{"text/html":"https://www.gutenberg.org/ebooks/70400.html.images","application/epub+zip":"https://www.gutenberg.org/ebooks/70400.epub3.images","application/x-mobipocket-ebook":"https://www.gutenberg.org/ebooks/70400.kf8.images","text/plain; charset=us-ascii":"https://www.gutenberg.org/ebooks/70400.txt.utf-8","application/rdf+xml":"https://www.gutenberg.org/ebooks/70400.rdf","image/jpeg":"https://www.gutenberg.org/cache/epub/70400/pg70400.cover.medium.jpg","application/octet-stream":"https://www.gutenberg.org/files/70400/70400-0.zip"},"download_count":13},{"id":70460,"title":"Docas : $b The Indian boy of Santa Clara","authors":[{"name":"Snedden, Genevra Sisson","birth_year":1873,"death_year":null}],"translators":[],"subjects":["California -- History -- Juvenile fiction","Indians of North America -- California -- Juvenile fiction","Santa Clara Mission -- Juvenile fiction"],"bookshelves":[],"languages":["en"],"copyright":false,"media_type":"Text","formats":{"text/html":"https://www.gutenberg.org/ebooks/70460.html.images","application/epub+zip":"https://www.gutenberg.org/ebooks/70460.epub3.images","application/x-mobipocket-ebook":"https://www.gutenberg.org/ebooks/70460.kf8.images","text/plain; charset=us-ascii":"https://www.gutenberg.org/ebooks/70460.txt.utf-8","application/rdf+xml":"https://www.gutenberg.org/ebooks/70460.rdf","image/jpeg":"https://www.gutenberg.org/cache/epub/70460/pg70460.cover.medium.jpg","application/octet-stream":"https://www.gutenberg.org/files/70460/70460-0.zip"},"download_count":13},{"id":70594,"title":"The Engadine","authors":[{"name":"Musson, Spencer C.","birth_year":null,"death_year":null}],"translators":[],"subjects":["Engadine (Switzerland) -- Description and travel"],"bookshelves":[],"languages":["en"],"copyright":false,"media_type":"Text","formats":{"text/html":"https://www.gutenberg.org/ebooks/70594.html.images","application/epub+zip":"https://www.gutenberg.org/ebooks/70594.epub3.images","application/x-mobipocket-ebook":"https://www.gutenberg.org/ebooks/70594.kf8.images","text/plain; charset=us-ascii":"https://www.gutenberg.org/ebooks/70594.txt.utf-8","application/rdf+xml":"https://www.gutenberg.org/ebooks/70594.rdf","image/jpeg":"https://www.gutenberg.org/cache/epub/70594/pg70594.cover.medium.jpg","application/octet-stream":"https://www.gutenberg.org/files/70594/70594-0.zip"},"download_count":13},{"id":70640,"title":"Third Base Thatcher","authors":[{"name":"Scott, Everett","birth_year":1892,"death_year":1960}],"translators":[],"subjects":["Baseball -- Juvenile fiction","Baseball stories","Schools -- Juvenile fiction","Teenage boys -- Juvenile fiction"],"bookshelves":[],"languages":["en"],"copyright":false,"media_type":"Text","formats":{"text/html":"https://www.gutenberg.org/ebooks/70640.html.images","application/epub+zip":"https://www.gutenberg.org/ebooks/70640.epub3.images","application/x-mobipocket-ebook":"https://www.gutenberg.org/ebooks/70640.kf8.images","text/plain; charset=us-ascii":"https://www.gutenberg.org/ebooks/70640.txt.utf-8","application/rdf+xml":"https://www.gutenberg.org/ebooks/70640.rdf","image/jpeg":"https://www.gutenberg.org/cache/epub/70640/pg70640.cover.medium.jpg","application/octet-stream":"https://www.gutenberg.org/files/70640/70640-0.zip"},"download_count":13},{"id":70651,"title":"Passion fruit","authors":[{"name":"Stacpoole, H. De Vere (Henry De Vere)","birth_year":1863,"death_year":1951}],"translators":[],"subjects":["Man-woman relationships -- Fiction","New Caledonia -- Fiction","Short stories","Sisters -- Fiction","Triangles (Interpersonal relations) -- Fiction","Twins -- Fiction"],"bookshelves":[],"languages":["en"],"copyright":false,"media_type":"Text","formats":{"text/html":"https://www.gutenberg.org/ebooks/70651.html.images","application/epub+zip":"https://www.gutenberg.org/ebooks/70651.epub3.images","application/x-mobipocket-ebook":"https://www.gutenberg.org/ebooks/70651.kf8.images","text/plain; charset=us-ascii":"https://www.gutenberg.org/ebooks/70651.txt.utf-8","application/rdf+xml":"https://www.gutenberg.org/ebooks/70651.rdf","image/jpeg":"https://www.gutenberg.org/cache/epub/70651/pg70651.cover.medium.jpg","application/octet-stream":"https://www.gutenberg.org/files/70651/70651-0.zip"},"download_count":13},{"id":70738,"title":"Dramatics in the home","authors":[{"name":"Forbush, William Byron","birth_year":1868,"death_year":1927}],"translators":[],"subjects":["Games","Play"],"bookshelves":[],"languages":["en"],"copyright":false,"media_type":"Text","formats":{"text/html":"https://www.gutenberg.org/ebooks/70738.html.images","application/epub+zip":"https://www.gutenberg.org/ebooks/70738.epub3.images","application/x-mobipocket-ebook":"https://www.gutenberg.org/ebooks/70738.kf8.images","text/plain; charset=us-ascii":"https://www.gutenberg.org/ebooks/70738.txt.utf-8","application/rdf+xml":"https://www.gutenberg.org/ebooks/70738.rdf","image/jpeg":"https://www.gutenberg.org/cache/epub/70738/pg70738.cover.medium.jpg","application/octet-stream":"https://www.gutenberg.org/files/70738/70738-0.zip"},"download_count":13},{"id":70827,"title":"The Tallants of Barton, vol. 3 (of 3) : $b A tale of fortune and finance","authors":[{"name":"Hatton, Joseph","birth_year":1841,"death_year":1907}],"translators":[],"subjects":["English fiction -- 19th century"],"bookshelves":[],"languages":["en"],"copyright":false,"media_type":"Text","formats":{"text/html":"https://www.gutenberg.org/ebooks/70827.html.images","application/epub+zip":"https://www.gutenberg.org/ebooks/70827.epub3.images","application/x-mobipocket-ebook":"https://www.gutenberg.org/ebooks/70827.kf8.images","text/plain; charset=us-ascii":"https://www.gutenberg.org/ebooks/70827.txt.utf-8","application/rdf+xml":"https://www.gutenberg.org/ebooks/70827.rdf","image/jpeg":"https://www.gutenberg.org/cache/epub/70827/pg70827.cover.medium.jpg","application/octet-stream":"https://www.gutenberg.org/files/70827/70827-0.zip"},"download_count":13},{"id":70919,"title":"Miles Murchison","authors":[{"name":"Giberne, Agnes","birth_year":1845,"death_year":1939}],"translators":[],"subjects":["Accident victims -- Family relationships -- Juvenile fiction","Christian life -- Juvenile fiction","Conduct of life -- Juvenile fiction","England -- Juvenile fiction","Household employees -- Juvenile fiction","Teenage boys -- Juvenile fiction"],"bookshelves":[],"languages":["en"],"copyright":false,"media_type":"Text","formats":{"text/html":"https://www.gutenberg.org/ebooks/70919.html.images","application/epub+zip":"https://www.gutenberg.org/ebooks/70919.epub3.images","application/x-mobipocket-ebook":"https://www.gutenberg.org/ebooks/70919.kf8.images","text/plain; charset=us-ascii":"https://www.gutenberg.org/ebooks/70919.txt.utf-8","application/rdf+xml":"https://www.gutenberg.org/ebooks/70919.rdf","image/jpeg":"https://www.gutenberg.org/cache/epub/70919/pg70919.cover.medium.jpg","application/octet-stream":"https://www.gutenberg.org/files/70919/70919-0.zip"},"download_count":13},{"id":71396,"title":"Lady Maclairn, the victim of villany : $b A novel, volume 3 (of 4)","authors":[{"name":"Hunter, Mrs. (Rachel)","birth_year":1754,"death_year":1813}],"translators":[],"subjects":["English fiction"],"bookshelves":[],"languages":["en"],"copyright":false,"media_type":"Text","formats":{"text/html":"https://www.gutenberg.org/ebooks/71396.html.images","application/epub+zip":"https://www.gutenberg.org/ebooks/71396.epub3.images","application/x-mobipocket-ebook":"https://www.gutenberg.org/ebooks/71396.kf8.images","text/plain; charset=us-ascii":"https://www.gutenberg.org/ebooks/71396.txt.utf-8","application/rdf+xml":"https://www.gutenberg.org/ebooks/71396.rdf","image/jpeg":"https://www.gutenberg.org/cache/epub/71396/pg71396.cover.medium.jpg","application/octet-stream":"https://www.gutenberg.org/files/71396/71396-h.zip"},"download_count":13},{"id":900,"title":"History of the Decline and Fall of the Roman Empire — Volume 3 — Folio format","authors":[{"name":"Gibbon, Edward","birth_year":1737,"death_year":1794}],"translators":[],"subjects":["Byzantine Empire -- History -- To 527","Rome -- History -- Empire, 30 B.C.-476 A.D."],"bookshelves":[],"languages":["en"],"copyright":false,"media_type":"Text","formats":{"application/x-mobipocket-ebook":"https://www.gutenberg.org/ebooks/900.kindle.noimages","application/octet-stream":"https://www.gutenberg.org/files/900/900-n.nfo","application/rdf+xml":"https://www.gutenberg.org/ebooks/900.rdf"},"download_count":12},{"id":1781,"title":"The Merry Wives of Windsor","authors":[{"name":"Shakespeare, William","birth_year":1564,"death_year":1616}],"translators":[],"subjects":["Comedies","Falstaff, John, Sir (Fictitious character) -- Drama","Married women -- Drama","Windsor (Berkshire, England) -- Drama"],"bookshelves":[],"languages":["en"],"copyright":false,"media_type":"Text","formats":{"text/html":"https://www.gutenberg.org/ebooks/1781.html.images","application/epub+zip":"https://www.gutenberg.org/ebooks/1781.epub3.images","application/x-mobipocket-ebook":"https://www.gutenberg.org/ebooks/1781.kf8.images","text/plain; charset=us-ascii":"https://www.gutenberg.org/ebooks/1781.txt.utf-8","application/rdf+xml":"https://www.gutenberg.org/ebooks/1781.rdf","image/jpeg":"https://www.gutenberg.org/cache/epub/1781/pg1781.cover.medium.jpg","application/octet-stream":"https://www.gutenberg.org/cache/epub/1781/pg1781-h.zip"},"download_count":12},{"id":1783,"title":"Much Ado about Nothing","authors":[{"name":"Shakespeare, William","birth_year":1564,"death_year":1616}],"translators":[],"subjects":["Comedies","Conspiracies -- Drama","Courtship -- Drama","Messina (Italy) -- Drama","Rejection (Psychology) -- Drama"],"bookshelves":[],"languages":["en"],"copyright":false,"media_type":"Text","formats":{"text/html":"https://www.gutenberg.org/ebooks/1783.html.images","application/epub+zip":"https://www.gutenberg.org/ebooks/1783.epub3.images","application/x-mobipocket-ebook":"https://www.gutenberg.org/ebooks/1783.kf8.images","text/plain; charset=us-ascii":"https://www.gutenberg.org/ebooks/1783.txt.utf-8","application/rdf+xml":"https://www.gutenberg.org/ebooks/1783.rdf","image/jpeg":"https://www.gutenberg.org/cache/epub/1783/pg1783.cover.medium.jpg","application/octet-stream":"https://www.gutenberg.org/cache/epub/1783/pg1783-h.zip"},"download_count":12},{"id":2222,"title":"Human Genome Project, rough draft, Chromosome Number 22","authors":[{"name":"Human Genome Project","birth_year":null,"death_year":null}],"translators":[],"subjects":["Human Genome Project","Human gene mapping","Human genetics","Nucleotide sequence"],"bookshelves":[],"languages":["en"],"copyright":false,"media_type":"Dataset","formats":{"text/plain; charset=us-ascii":"https://www.gutenberg.org/files/2222/2222.zip","application/rdf+xml":"https://www.gutenberg.org/ebooks/2222.rdf"},"download_count":12}]}