{"count":58808,"next":"http://129.241.150.113:8000/books/?languages=en&page=958","previous":"http://129.241.150.113:8000/books/?languages=en&page=956","results":[{"id":7842,"title":"The Rise of Iskander","authors":[{"name":"Disraeli, Benjamin, Earl of Beaconsfield","birth_year":1804,"death_year":1881}],"translators":[],"subjects":["Fiction"],"bookshelves":[],"languages":["en"],"copyright":false,"media_type":"Text","formats":{"text/html":"https://www.gutenberg.org/ebooks/7842.html.images","text/html; charset=utf-8":"https://www.gutenberg.org/files/7842/7842-h/7842-h.htm","application/epub+zip":"https://www.gutenberg.org/ebooks/7842.epub3.images","application/x-mobipocket-ebook":"https://www.gutenberg.org/ebooks/7842.kf8.images","text/plain; charset=us-ascii":"https://www.gutenberg.org/ebooks/7842.txt.utf-8","text/plain; charset=utf-8":"https://www.gutenberg.org/files/7842/7842-0.txt","text/plain; charset=iso-8859-1":"https://www.gutenberg.org/files/7842/7842-8.txt","application/rdf+xml":"https://www.gutenberg.org/ebooks/7842.rdf","image/jpeg":"https://www.gutenberg.org/cache/epub/7842/pg7842.cover.medium.jpg","application/octet-stream":"https://www.gutenberg.org/cache/epub/7842/pg7842-h.zip"},"download_count":37},{"id":7927,"title":"The Celibates","authors":[{"name":"Balzac, Honoré de","birth_year":1799,"death_year":1850}],"translators":[{"name":"Wormeley, Katharine Prescott","birth_year":1830,"death_year":1908}],"subjects":["Celibacy -- Fiction","France -- Fiction"],"bookshelves":[],"languages":["en"],"copyright":false,"media_type":"Text","formats":{"text/html":"https://www.gutenberg.org/ebooks/7927.html.images","application/epub+zip":"https://www.gutenberg.org/ebooks/7927.epub3.images","application/x-mobipocket-ebook":"https://www.gutenberg.org/ebooks/7927.kf8.images","text/plain; charset=us-ascii":"https://www.gutenberg.org/ebooks/7927.txt.utf-8","application/rdf+xml":"https://www.gutenberg.org/ebooks/7927.rdf","image/jpeg":"https://www.gutenberg.org/cache/epub/7927/pg7927.cover.medium.jpg","application/octet-stream":"https://www.gutenberg.org/cache/epub/7927/pg7927-h.zip"},"download_count":37},{"id":7995,"title":"The Reconciliation of Races and Religions","authors":[{"name":"Cheyne, T. K. (Thomas Kelly)","birth_year":1841,"death_year":1915}],"translators":[],"subjects":["Bahais"],"bookshelves":[],"languages":["en"],"copyright":false,"media_type":"Text","formats":{"text/html":"https://www.gutenberg.org/ebooks/7995.html.images","application/epub+zip":"https://www.gutenberg.org/ebooks/7995.epub3.images","application/x-mobipocket-ebook":"https://www.gutenberg.org/ebooks/7995.kf8.images","text/plain; charset=us-ascii":"https://www.gutenberg.org/ebooks/7995.txt.utf-8","text/plain; charset=utf-8":"https://www.gutenberg.org/files/7995/7995-0.txt","text/plain; charset=iso-8859-1":"https://www.gutenberg.org/files/7995/7995-8.txt","application/rdf+xml":"https://www.gutenberg.org/ebooks/7995.rdf","image/jpeg":"https://www.gutenberg.org/cache/epub/7995/pg7995.cover.medium.jpg","application/octet-stream":"https://www.gutenberg.org/cache/epub/7995/pg7995-h.zip"},"download_count":37},{"id":8081,"title":"Louisa Pallant","authors":[{"name":"James, Henry","birth_year":1843,"death_year":1916}],"translators":[],"subjects":["Americans -- Europe -- Fiction","Man-woman relationships -- Fiction"],"bookshelves":[],"languages":["en"],"copyright":false,"media_type":"Text","formats":{"text/html":"https://www.gutenberg.org/ebooks/8081.html.images","text/html; charset=us-ascii":"https://www.gutenberg.org/files/8081/8081-h/8081-h.htm","application/epub+zip":"https://www.gutenberg.org/ebooks/8081.epub3.images","application/x-mobipocket-ebook":"https://www.gutenberg.org/ebooks/8081.kf8.images","text/plain; charset=us-ascii":"https://www.gutenberg.org/ebooks/8081.txt.utf-8","application/rdf+xml":"https://www.gutenberg.org/ebooks/8081.rdf","image/jpeg":"https://www.gutenberg.org/cache/epub/8081/pg8081.cover.medium.jpg","application/octet-stream":"https://www.gutenberg.org/cache/epub/8081/pg8081-h.zip"},"download_count":37},{"id":8518,"title":"Fritiofs Saga","authors":[{"name":"Tegnér, Esaias","birth_year":1782,"death_year":1846}],"translators":[],"subjects":["Sagas"],"bookshelves":[],"languages":["en","sv"],"copyright":false,"media_type":"Text","formats":{"text/html":"https://www.gutenberg.org/ebooks/8518.html.images","application/epub+zip":"https://www.gutenberg.org/ebooks/8518.epub3.images","application/x-mobipocket-ebook":"https://www.gutenberg.org/ebooks/8518.kf8.images","text/plain; charset=us-ascii":"https://www.gutenberg.org/ebooks/8518.txt.utf-8","text/plain; charset=iso-8859-1":"https://www.gutenberg.org/files/8518/8518-8.txt","application/rdf+xml":"https://www.gutenberg.org/ebooks/8518.rdf","image/jpeg":"https://www.gutenberg.org/cache/epub/8518/pg8518.cover.medium.jpg","application/octet-stream":"https://www.gutenberg.org/cache/epub/8518/pg8518-h.zip"},"download_count":37},{"id":8624,"title":"The Adventures of Sherlock Holmes","authors":[{"name":"Doyle, Arthur Conan","birth_year":1859,"death_year":1930}],"translators":[],"subjects":["Detective and mystery stories, English","Holmes, Sherlock (Fictitious character) -- Fiction","Private investigators -- England -- Fiction"],"bookshelves":[],"languages":["en"],"copyright":true,"media_type":"Sound","formats":{"text/plain; charset=us-ascii":"https://www.gutenberg.org/files/8624/8624-readme.txt","text/html; charset=iso-8859-1":"https://www.gutenberg.org/files/8624/8624-index.htm","audio/mpeg":"https://www.gutenberg.org/files/8624/mp3/8624-000.mp3","application/rdf+xml":"https://www.gutenberg.org/ebooks/8624.rdf","application/octet-stream":"https://www.gutenberg.org/files/8624/8624-mp3.zip"},"download_count":37},{"id":8734,"title":"East of Paris: Sketches in the Gâtinais, Bourbonnais, and Champagne","authors":[{"name":"Betham-Edwards, Matilda","birth_year":1836,"death_year":1919}],"translators":[],"subjects":["France -- Description and travel"],"bookshelves":[],"languages":["en"],"copyright":false,"media_type":"Text","formats":{"text/html":"https://www.gutenberg.org/ebooks/8734.html.images","text/html; charset=utf-8":"https://www.gutenberg.org/files/8734/8734-h/8734-h.htm","application/epub+zip":"https://www.gutenberg.org/ebooks/8734.epub3.images","application/x-mobipocket-ebook":"https://www.gutenberg.org/ebooks/8734.kf8.images","text/plain; charset=us-ascii":"https://www.gutenberg.org/ebooks/8734.txt.utf-8","text/plain; charset=utf-8":"https://www.gutenberg.org/files/8734/8734-0.txt","text/plain; charset=iso-8859-1":"https://www.gutenberg.org/files/8734/8734-8.txt","application/rdf+xml":"https://www.gutenberg.org/ebooks/8734.rdf","image/jpeg":"https://www.gutenberg.org/cache/epub/8734/pg8734.cover.medium.jpg","application/octet-stream":"https://www.gutenberg.org/cache/epub/8734/pg8734-h.zip"},"download_count":37},{"id":8747,"title":"Wordsworth","authors":[{"name":"Myers, F. W. H. (Frederic William Henry)","birth_year":1843,"death_year":1901}],"translators":[],"subjects":["Poets, English -- 19th century -- Biography","Wordsworth, William, 1770-1850"],"bookshelves":[],"languages":["en"],"copyright":false,"media_type":"Text","formats":{"text/html":"https://www.gutenberg.org/ebooks/8747.html.images","application/epub+zip":"https://www.gutenberg.org/ebooks/8747.epub3.images","application/x-mobipocket-ebook":"https://www.gutenberg.org/ebooks/8747.kf8.images","text/plain; charset=us-ascii":"https://www.gutenberg.org/ebooks/8747.txt.utf-8","text/plain; charset=iso-8859-1":"https://www.gutenberg.org/files/8747/8747-8.txt","application/rdf+xml":"https://www.gutenberg.org/ebooks/8747.rdf","image/jpeg":"https://www.gutenberg.org/cache/epub/8747/pg8747.cover.medium.jpg","application/octet-stream":"https://www.gutenberg.org/cache/epub/8747/pg8747-h.zip"},"download_count":37},{"id":8754,"title":"The Son of Tarzan","authors":[{"name":"Burroughs, Edgar Rice","birth_year":1875,"death_year":1950}],"translators":[],"subjects":["Adventure stories","Fantasy fiction","Tarzan (Fictitious character) -- Fiction"],"bookshelves":["Adventure","Movie Books"],"languages":["en"],"copyright":true,"media_type":"Sound","formats":{"text/plain; charset=us-ascii":"https://www.gutenberg.org/files/8754/8754-readme.txt","text/html; charset=iso-8859-1":"https://www.gutenberg.org/files/8754/8754-index.htm","audio/mpeg":"https://www.gutenberg.org/files/8754/mp3/8754-000.mp3","application/rdf+xml":"https://www.gutenberg.org/ebooks/8754.rdf","application/octet-stream":"https://www.gutenberg.org/files/8754/8754-mp3.zip"},"download_count":37},{"id":8766,"title":"The Chessmen of Mars","authors":[{"name":"Burroughs, Edgar Rice","birth_year":1875,"death_year":1950}],"translators":[],"subjects":["Mars (Planet) -- Fiction","Science fiction"],"bookshelves":["Science Fiction"],"languages":["en"],"copyright":true,"media_type":"Sound","formats":{"text/plain; charset=us-ascii":"https://www.gutenberg.org/files/8766/8766-readme.txt","text/html; charset=iso-8859-1":"https://www.gutenberg.org/files/8766/8766-index.htm","audio/mpeg":"https://www.gutenberg.org/files/8766/mp3/8766-000.mp3","application/rdf+xml":"https://www.gutenberg.org/ebooks/8766.rdf","application/octet-stream":"https://www.gutenberg.org/files/8766/8766-mp3.zip"},"download_count":37},{"id":8794,"title":"The Divine Comedy by Dante, Illustrated, Purgatory, Volume 5","authors":[{"name":"Dante Alighieri","birth_year":1265,"death_year":1321}],"translators":[{"name":"Cary, Henry Francis","birth_year":1772,"death_year":1844}],"subjects":["Epic poetry, Italian -- Translations into English","Italian poetry -- To 1400 -- Translations into English"],"bookshelves":[],"languages":["en"],"copyright":false,"media_type":"Text","formats":{"text/html":"https://www.gutenberg.org/ebooks/8794.html.images","text/html; charset=iso-8859-1":"https://www.gutenberg.org/files/8794/8794-h/8794-h.htm","application/epub+zip":"https://www.gutenberg.org/ebooks/8794.epub3.images","application/x-mobipocket-ebook":"https://www.gutenberg.org/ebooks/8794.kf8.images","text/plain; charset=us-ascii":"https://www.gutenberg.org/ebooks/8794.txt.utf-8","application/rdf+xml":"https://www.gutenberg.org/ebooks/8794.rdf","image/jpeg":"https://www.gutenberg.org/cache/epub/8794/pg8794.cover.medium.jpg","application/octet-stream":"https://www.gutenberg.org/cache/epub/8794/pg8794-h.zip"},"download_count":37},{"id":8796,"title":"The Divine Comedy by Dante, Illustrated, Paradise, Volume 1","authors":[{"name":"Dante Alighieri","birth_year":1265,"death_year":1321}],"translators":[{"name":"Cary, Henry Francis","birth_year":1772,"death_year":1844}],"subjects":["Epic poetry, Italian -- Translations into English","Italian poetry -- To 1400 -- Translations into English"],"bookshelves":[],"languages":["en"],"copyright":false,"media_type":"Text","formats":{"text/html":"https://www.gutenberg.org/ebooks/8796.html.images","text/html; charset=iso-8859-1":"https://www.gutenberg.org/files/8796/8796-h/8796-h.htm","application/epub+zip":"https://www.gutenberg.org/ebooks/8796.epub3.images","application/x-mobipocket-ebook":"https://www.gutenberg.org/ebooks/8796.kf8.images","text/plain; charset=us-ascii":"https://www.gutenberg.org/ebooks/8796.txt.utf-8","application/rdf+xml":"https://www.gutenberg.org/ebooks/8796.rdf","image/jpeg":"https://www.gutenberg.org/cache/epub/8796/pg8796.cover.medium.jpg","application/octet-stream":"https://www.gutenberg.org/cache/epub/8796/pg8796-h.zip"},"download_count":37},{"id":8810,"title":"Ben-Hur: A tale of the Christ","authors":[{"name":"Wallace, Lew","birth_year":1827,"death_year":1905}],"translators":[],"subjects":["Bible. New Testament -- History of Biblical events -- Fiction","Christian fiction","Historical fiction","Jesus Christ -- Fiction","Rome -- History -- Tiberius, 14-37 -- Fiction","Tiberius, Emperor of Rome 42 B.C.-37 A.D. -- Fiction"],"bookshelves":["Historical Fiction","Movie Books"],"languages":["en"],"copyright":true,"media_type":"Sound","formats":{"text/plain; charset=us-ascii":"https://www.gutenberg.org/files/8810/8810-readme.txt","text/html; charset=iso-8859-1":"https://www.gutenberg.org/files/8810/8810-index.htm","audio/mpeg":"https://www.gutenberg.org/files/8810/mp3/8810-000.mp3","application/rdf+xml":"https://www.gutenberg.org/ebooks/8810.rdf","application/octet-stream":"https://www.gutenberg.org/files/8810/8810-mp3.zip"},"download_count":37},{"id":9042,"title":"Extracts from Adam's Diary","authors":[{"name":"Twain, Mark","birth_year":1835,"death_year":1910}],"translators":[],"subjects":["Adam (Biblical figure) -- Fiction","Bible. Genesis -- History of Biblical events -- Fiction","Diary fiction","Humorous stories"],"bookshelves":[],"languages":["en"],"copyright":true,"media_type":"Sound","formats":{"text/plain; charset=us-ascii":"https://www.gutenberg.org/files/9042/9042-readme.txt","text/html; charset=iso-8859-1":"https://www.gutenberg.org/files/9042/9042-index.htm","audio/mpeg":"https://www.gutenberg.org/files/9042/mp3/9042-000.mp3","application/rdf+xml":"https://www.gutenberg.org/ebooks/9042.rdf","application/octet-stream":"https://www.gutenberg.org/files/9042/9042-mp3.zip"},"download_count":37},{"id":9161,"title":"Comedy of Marriage and Other Tales","authors":[{"name":"Maupassant, Guy de","birth_year":1850,"death_year":1893}],"translators":[],"subjects":["French drama -- Translations into English","Short stories, French -- Translations into English"],"bookshelves":[],"languages":["en"],"copyright":false,"media_type":"Text","formats":{"text/html":"https://www.gutenberg.org/ebooks/9161.html.images","text/html; charset=utf-8":"https://www.gutenberg.org/files/9161/9161-h/9161-h.htm","application/epub+zip":"https://www.gutenberg.org/ebooks/9161.epub3.images","application/x-mobipocket-ebook":"https://www.gutenberg.org/ebooks/9161.kf8.images","text/plain; charset=us-ascii":"https://www.gutenberg.org/ebooks/9161.txt.utf-8","text/plain; charset=utf-8":"https://www.gutenberg.org/files/9161/9161-0.txt","application/rdf+xml":"https://www.gutenberg.org/ebooks/9161.rdf","image/jpeg":"https://www.gutenberg.org/cache/epub/9161/pg9161.cover.medium.jpg","application/octet-stream":"https://www.gutenberg.org/cache/epub/9161/pg9161-h.zip"},"download_count":37},{"id":9331,"title":"The Hunted Outlaw, or, Donald Morrison, the Canadian Rob Roy","authors":[{"name":"Anonymous","birth_year":null,"death_year":null}],"translators":[],"subjects":["Morrison, Donald, 1858-1894 -- Fiction"],"bookshelves":[],"languages":["en"],"copyright":false,"media_type":"Text","formats":{"text/html":"https://www.gutenberg.org/ebooks/9331.html.images","text/html; charset=iso-8859-1":"https://www.gutenberg.org/files/9331/9331-h/9331-h.htm","application/epub+zip":"https://www.gutenberg.org/ebooks/9331.epub3.images","application/x-mobipocket-ebook":"https://www.gutenberg.org/ebooks/9331.kf8.images","text/plain; charset=us-ascii":"https://www.gutenberg.org/ebooks/9331.txt.utf-8","text/plain; charset=iso-8859-1":"https://www.gutenberg.org/files/9331/9331-8.txt","application/rdf+xml":"https://www.gutenberg.org/ebooks/9331.rdf","image/jpeg":"https://www.gutenberg.org/cache/epub/9331/pg9331.cover.medium.jpg","application/octet-stream":"https://www.gutenberg.org/cache/epub/9331/pg9331-h.zip"},"download_count":37},{"id":9350,"title":"The Shadow Line","authors":[{"name":"Conrad, Joseph","birth_year":1857,"death_year":1924}],"translators":[],"subjects":["Sea stories","Ship captains -- Fiction"],"bookshelves":[],"languages":["en"],"copyright":true,"media_type":"Sound","formats":{"text/plain; charset=us-ascii":"https://www.gutenberg.org/files/9350/9350-readme.txt","text/html; charset=iso-8859-1":"https://www.gutenberg.org/files/9350/9350-index.htm","audio/mpeg":"https://www.gutenberg.org/files/9350/mp3/9350-000.mp3","application/rdf+xml":"https://www.gutenberg.org/ebooks/9350.rdf","application/octet-stream":"https://www.gutenberg.org/files/9350/9350-mp3.zip"},"download_count":37},{"id":9392,"title":"Prelude in E Minor, Op. 28, No. 4","authors":[{"name":"Chopin, Frédéric","birth_year":1810,"death_year":1849}],"translators":[],"subjects":["Piano music"],"bookshelves":[],"languages":["en"],"copyright":false,"media_type":"Image","formats":{"application/octet-stream":"https://www.gutenberg.org/files/9392/music/fc28410m.mus","text/plain; charset=us-ascii":"https://www.gutenberg.org/files/9392/9392.txt","application/rdf+xml":"https://www.gutenberg.org/ebooks/9392.rdf"},"download_count":37},{"id":9406,"title":"Government by the Brewers?","authors":[{"name":"Keitel, Adolph","birth_year":null,"death_year":null}],"translators":[],"subjects":["Beer","Brewing industry -- United States","United States Brewers' Association"],"bookshelves":[],"languages":["en"],"copyright":false,"media_type":"Text","formats":{"text/html":"https://www.gutenberg.org/ebooks/9406.html.images","text/html; charset=iso-8859-1":"https://www.gutenberg.org/files/9406/9406-h/9406-h.htm","application/epub+zip":"https://www.gutenberg.org/ebooks/9406.epub3.images","application/x-mobipocket-ebook":"https://www.gutenberg.org/ebooks/9406.kf8.images","text/plain; charset=us-ascii":"https://www.gutenberg.org/ebooks/9406.txt.utf-8","application/rdf+xml":"https://www.gutenberg.org/ebooks/9406.rdf","image/jpeg":"https://www.gutenberg.org/cache/epub/9406/pg9406.cover.medium.jpg","application/octet-stream":"https://www.gutenberg.org/cache/epub/9406/pg9406-h.zip"},"download_count":37},{"id":9456,"title":"Opera Stories from Wagner","authors":[{"name":"Akin, Florence","birth_year":1878,"death_year":1962}],"translators":[],"subjects":["Operas -- Stories, plots, etc.","Wagner, Richard, 1813-1883 -- Stories, plots, etc."],"bookshelves":["Opera"],"languages":["en"],"copyright":false,"media_type":"Text","formats":{"text/html":"https://www.gutenberg.org/ebooks/9456.html.images","text/html; charset=iso-8859-1":"https://www.gutenberg.org/files/9456/9456-h/9456-h.htm","application/epub+zip":"https://www.gutenberg.org/ebooks/9456.epub3.images","application/x-mobipocket-ebook":"https://www.gutenberg.org/ebooks/9456.kf8.images","text/plain; charset=us-ascii":"https://www.gutenberg.org/ebooks/9456.txt.utf-8","application/rdf+xml":"https://www.gutenberg.org/ebooks/9456.rdf","image/jpeg":"https://www.gutenberg.org/cache/epub/9456/pg9456.cover.medium.jpg","application/octet-stream":"https://www.gutenberg.org/cache/epub/9456/pg9456-h.zip"},"download_count":37},{"id":9464,"title":"Bohemian San Francisco: Its restaurants and their most famous recipes—The elegant art of dining.","authors":[{"name":"Edwords, Clarence E. (Clarence Edgar)","birth_year":1856,"death_year":null}],"translators":[],"subjects":["Cooking","Hotels -- California -- San Francisco"],"bookshelves":[],"languages":["en"],"copyright":false,"media_type":"Text","formats":{"text/html":"https://www.gutenberg.org/ebooks/9464.html.images","application/epub+zip":"https://www.gutenberg.org/ebooks/9464.epub3.images","application/x-mobipocket-ebook":"https://www.gutenberg.org/ebooks/9464.kf8.images","text/plain; charset=us-ascii":"https://www.gutenberg.org/ebooks/9464.txt.utf-8","application/rdf+xml":"https://www.gutenberg.org/ebooks/9464.rdf","image/jpeg":"https://www.gutenberg.org/cache/epub/9464/pg9464.cover.medium.jpg","application/octet-stream":"https://www.gutenberg.org/cache/epub/9464/pg9464-h.zip"},"download_count":37},{"id":9590,"title":"Margaret Smith's Journal, and Tales and Sketches, Complete: Volume V of The Works of John Greenleaf Whittier","authors":[{"name":"Whittier, John Greenleaf","birth_year":1807,"death_year":1892}],"translators":[],"subjects":["American literature","Massachusetts Bay Company -- Fiction","United States -- History -- Colonial period, ca. 1600-1775 -- Fiction","Women -- Massachusetts -- Fiction"],"bookshelves":[],"languages":["en"],"copyright":false,"media_type":"Text","formats":{"text/html":"https://www.gutenberg.org/ebooks/9590.html.images","text/html; charset=us-ascii":"https://www.gutenberg.org/files/9590/9590-h/9590-h.htm","application/epub+zip":"https://www.gutenberg.org/ebooks/9590.epub3.images","application/x-mobipocket-ebook":"https://www.gutenberg.org/ebooks/9590.kf8.images","text/plain; charset=us-ascii":"https://www.gutenberg.org/ebooks/9590.txt.utf-8","application/rdf+xml":"https://www.gutenberg.org/ebooks/9590.rdf","image/jpeg":"https://www.gutenberg.org/cache/epub/9590/pg9590.cover.medium.jpg","application/octet-stream":"https://www.gutenberg.org/cache/epub/9590/pg9590-h.zip"},"download_count":37},{"id":9695,"title":"Bleak House","authors":[{"name":"Dickens, Charles","birth_year":1812,"death_year":1870}],"translators":[],"subjects":["Bildungsromans","Domestic fiction","Guardian and ward -- Fiction","Illegitimate children -- Fiction","Inheritance and succession -- Fiction","Legal stories","London (England) -- Fiction","Young women -- Fiction"],"bookshelves":[],"languages":["en"],"copyright":true,"media_type":"Sound","formats":{"text/plain; charset=us-ascii":"https://www.gutenberg.org/files/9695/9695-readme.txt","text/html; charset=iso-8859-1":"https://www.gutenberg.org/files/9695/9695-index.htm","audio/mpeg":"https://www.gutenberg.org/files/9695/mp3/9695-000.mp3","application/rdf+xml":"https://www.gutenberg.org/ebooks/9695.rdf","application/octet-stream":"https://www.gutenberg.org/files/9695/9695-mp3.zip"},"download_count":37},{"id":9761,"title":"Leila or, the Siege of Granada, Complete","authors":[{"name":"Lytton, Edward Bulwer Lytton, Baron","birth_year":1803,"death_year":1873}],"translators":[],"subjects":["Granada (Spain) -- History -- Siege, 1491-1492 -- Fiction","Sieges -- Fiction"],"bookshelves":["Historical Fiction"],"languages":["en"],"copyright":false,"media_type":"Text","formats":{"text/html":"https://www.gutenberg.org/ebooks/9761.html.images","text/html; charset=utf-8":"https://www.gutenberg.org/files/9761/9761-h/9761-h.htm","application/epub+zip":"https://www.gutenberg.org/ebooks/9761.epub3.images","application/x-mobipocket-ebook":"https://www.gutenberg.org/ebooks/9761.kf8.images","text/plain; charset=us-ascii":"https://www.gutenberg.org/ebooks/9761.txt.utf-8","text/plain; charset=utf-8":"https://www.gutenberg.org/files/9761/9761-0.txt","application/rdf+xml":"https://www.gutenberg.org/ebooks/9761.rdf","image/jpeg":"https://www.gutenberg.org/cache/epub/9761/pg9761.cover.medium.jpg","application/octet-stream":"https://www.gutenberg.org/cache/epub/9761/pg9761-h.zip"},"download_count":37},{"id":9793,"title":"Josephus","authors":[{"name":"Bentwich, Norman","birth_year":1883,"death_year":1971}],"translators":[],"subjects":["Jewish historians -- Biography","Josephus, Flavius"],"bookshelves":["Judaism"],"languages":["en"],"copyright":false,"media_type":"Text","formats":{"text/html":"https://www.gutenberg.org/ebooks/9793.html.images","application/epub+zip":"https://www.gutenberg.org/ebooks/9793.epub3.images","application/x-mobipocket-ebook":"https://www.gutenberg.org/ebooks/9793.kf8.images","text/plain; charset=us-ascii":"https://www.gutenberg.org/ebooks/9793.txt.utf-8","text/plain; charset=iso-8859-1":"https://www.gutenberg.org/files/9793/9793-8.txt","application/rdf+xml":"https://www.gutenberg.org/ebooks/9793.rdf","image/jpeg":"https://www.gutenberg.org/cache/epub/9793/pg9793.cover.medium.jpg","application/octet-stream":"https://www.gutenberg.org/cache/epub/9793/pg9793-h.zip"},"download_count":37},{"id":9820,"title":"A Writer's Recollections — Volume 1","authors":[{"name":"Ward, Humphry, Mrs.","birth_year":1851,"death_year":1920}],"translators":[],"subjects":["Novelists, English -- 19th century -- Biography","Novelists, English -- 20th century -- Biography","Ward, Humphry, Mrs., 1851-1920"],"bookshelves":[],"languages":["en"],"copyright":false,"media_type":"Text","formats":{"text/html":"https://www.gutenberg.org/ebooks/9820.html.images","text/html; charset=iso-8859-1":"https://www.gutenberg.org/files/9820/9820-h/9820-h.htm","application/epub+zip":"https://www.gutenberg.org/ebooks/9820.epub3.images","application/x-mobipocket-ebook":"https://www.gutenberg.org/ebooks/9820.kf8.images","text/plain; charset=us-ascii":"https://www.gutenberg.org/ebooks/9820.txt.utf-8","text/plain; charset=iso-8859-1":"https://www.gutenberg.org/files/9820/9820-8.txt","application/rdf+xml":"https://www.gutenberg.org/ebooks/9820.rdf","image/jpeg":"https://www.gutenberg.org/cache/epub/9820/pg9820.cover.medium.jpg","application/octet-stream":"https://www.gutenberg.org/cache/epub/9820/pg9820-h.zip"},"download_count":37},{"id":9838,"title":"Strong Hearts","authors":[{"name":"Cable, George Washington","birth_year":1844,"death_year":1925}],"translators":[],"subjects":["Fiction","Short stories"],"bookshelves":[],"languages":["en"],"copyright":false,"media_type":"Text","formats":{"text/html":"https://www.gutenberg.org/ebooks/9838.html.images","application/epub+zip":"https://www.gutenberg.org/ebooks/9838.epub3.images","application/x-mobipocket-ebook":"https://www.gutenberg.org/ebooks/9838.kf8.images","text/plain; charset=us-ascii":"https://www.gutenberg.org/ebooks/9838.txt.utf-8","application/rdf+xml":"https://www.gutenberg.org/ebooks/9838.rdf","image/jpeg":"https://www.gutenberg.org/cache/epub/9838/pg9838.cover.medium.jpg","application/octet-stream":"https://www.gutenberg.org/cache/epub/9838/pg9838-h.zip"},"download_count":37},{"id":9940,"title":"Life in London : $b or, The pitfalls of a great city","authors":[{"name":"Hodder, Edwin","birth_year":1837,"death_year":1904}],"translators":[],"subjects":["Christian life -- Fiction","Conduct of life -- Fiction","London (England) -- History -- 19th century -- Fiction","Mothers and sons -- Fiction","Young men -- Fiction"],"bookshelves":[],"languages":["en"],"copyright":false,"media_type":"Text","formats":{"text/html":"https://www.gutenberg.org/ebooks/9940.html.images","text/html; charset=iso-8859-1":"https://www.gutenberg.org/files/9940/9940-h/9940-h.htm","application/epub+zip":"https://www.gutenberg.org/ebooks/9940.epub3.images","application/x-mobipocket-ebook":"https://www.gutenberg.org/ebooks/9940.kf8.images","text/plain; charset=us-ascii":"https://www.gutenberg.org/ebooks/9940.txt.utf-8","text/plain; charset=iso-8859-1":"https://www.gutenberg.org/files/9940/9940-8.txt","application/rdf+xml":"https://www.gutenberg.org/ebooks/9940.rdf","image/jpeg":"https://www.gutenberg.org/cache/epub/9940/pg9940.cover.medium.jpg","application/octet-stream":"https://www.gutenberg.org/cache/epub/9940/pg9940-h.zip"},"download_count":37},{"id":10021,"title":"Tenterhooks","authors":[{"name":"Leverson, Ada","birth_year":1862,"death_year":1933}],"translators":[],"subjects":["London (England) -- Social life and customs -- 20th century -- Fiction","Man-woman relationships -- Fiction"],"bookshelves":[],"languages":["en"],"copyright":false,"media_type":"Text","formats":{"text/html":"https://www.gutenberg.org/ebooks/10021.html.images","application/epub+zip":"https://www.gutenberg.org/ebooks/10021.epub3.images","application/x-mobipocket-ebook":"https://www.gutenberg.org/ebooks/10021.kf8.images","text/plain; charset=us-ascii":"https://www.gutenberg.org/ebooks/10021.txt.utf-8","text/plain; charset=iso-8859-1":"https://www.gutenberg.org/files/10021/10021-8.txt","application/rdf+xml":"https://www.gutenberg.org/ebooks/10021.rdf","image/jpeg":"https://www.gutenberg.org/cache/epub/10021/pg10021.cover.medium.jpg","application/octet-stream":"https://www.gutenberg.org/cache/epub/10021/pg10021-h.zip"},"download_count":37},{"id":10049,"title":"Old Lady Mary: A Story of the Seen and the Unseen","authors":[{"name":"Oliphant, Mrs. (Margaret)","birth_year":1828,"death_year":1897}],"translators":[],"subjects":["Death -- Fiction","Inheritance and succession -- Fiction"],"bookshelves":[],"languages":["en"],"copyright":false,"media_type":"Text","formats":{"text/html":"https://www.gutenberg.org/ebooks/10049.html.images","application/epub+zip":"https://www.gutenberg.org/ebooks/10049.epub3.images","application/x-mobipocket-ebook":"https://www.gutenberg.org/ebooks/10049.kf8.images","text/plain; charset=us-ascii":"https://www.gutenberg.org/ebooks/10049.txt.utf-8","application/rdf+xml":"https://www.gutenberg.org/ebooks/10049.rdf","image/jpeg":"https://www.gutenberg.org/cache/epub/10049/pg10049.cover.medium.jpg","application/octet-stream":"https://www.gutenberg.org/cache/epub/10049/pg10049-h.zip"},"download_count":37},{"id":10198,"title":"Barbara Allen","authors":[],"translators":[],"subjects":["Folk songs, English -- United States","Old-time music"],"bookshelves":[],"languages":["en"],"copyright":false,"media_type":"Sound","formats":{"text/plain; charset=us-ascii":"https://www.gutenberg.org/files/10198/10198-m/10198-m-readme.txt","audio/mpeg":"https://www.gutenberg.org/files/10198/10198-m/10198-m-001.mp3","application/rdf+xml":"https://www.gutenberg.org/ebooks/10198.rdf"},"download_count":37},{"id":10286,"title":"Arbucklenian Polka","authors":[],"translators":[],"subjects":["Cornet and piano music","Polkas"],"bookshelves":[],"languages":["en"],"copyright":false,"media_type":"Sound","formats":{"text/plain; charset=us-ascii":"https://www.gutenberg.org/files/10286/10286-m/10286-m-readme.txt","audio/mpeg":"https://www.gutenberg.org/files/10286/10286-m/10286-m-001.mp3","application/rdf+xml":"https://www.gutenberg.org/ebooks/10286.rdf"},"download_count":37}]}