{"count":58808,"next":"http://129.241.150.113:8000/books/?languages=en&page=1425","previous":"http://129.241.150.113:8000/books/?languages=en&page=1423","results":[{"id":8566,"title":"The Origin and Permanent Value of the Old Testament","authors":[{"name":"Kent, Charles Foster","birth_year":1867,"death_year":1925}],"translators":[],"subjects":["Bible. New Testament -- Criticism, interpretation, etc.","Bible. New Testament -- History","Bible. Old Testament -- Introductions"],"bookshelves":["Judaism"],"languages":["en"],"copyright":false,"media_type":"Text","formats":{"text/html":"https://www.gutenberg.org/ebooks/8566.html.images","application/epub+zip":"https://www.gutenberg.org/ebooks/8566.epub3.images","application/x-mobipocket-ebook":"https://www.gutenberg.org/ebooks/8566.kf8.images","text/plain; charset=us-ascii":"https://www.gutenberg.org/ebooks/8566.txt.utf-8","text/plain; charset=iso-8859-1":"https://www.gutenberg.org/files/8566/8566-8.txt","application/rdf+xml":"https://www.gutenberg.org/ebooks/8566.rdf","image/jpeg":"https://www.gutenberg.org/cache/epub/8566/pg8566.cover.medium.jpg","application/octet-stream":"https://www.gutenberg.org/cache/epub/8566/pg8566-h.zip"},"download_count":25},{"id":8585,"title":"Roughing It, Part 4.","authors":[{"name":"Twain, Mark","birth_year":1835,"death_year":1910}],"translators":[],"subjects":["Authors, American -- Homes and haunts -- West (U.S.)","Hawaii -- Description and travel","Twain, Mark, 1835-1910 -- Travel -- West (U.S.)","West (U.S.) -- Description and travel","West (U.S.) -- Intellectual life -- 19th century"],"bookshelves":[],"languages":["en"],"copyright":false,"media_type":"Text","formats":{"text/html":"https://www.gutenberg.org/ebooks/8585.html.images","text/html; charset=iso-8859-1":"https://www.gutenberg.org/files/8585/8585-h/8585-h.htm","application/epub+zip":"https://www.gutenberg.org/ebooks/8585.epub3.images","application/x-mobipocket-ebook":"https://www.gutenberg.org/ebooks/8585.kf8.images","text/plain; charset=us-ascii":"https://www.gutenberg.org/ebooks/8585.txt.utf-8","application/rdf+xml":"https://www.gutenberg.org/ebooks/8585.rdf","image/jpeg":"https://www.gutenberg.org/cache/epub/8585/pg8585.cover.medium.jpg","application/octet-stream":"https://www.gutenberg.org/cache/epub/8585/pg8585-h.zip"},"download_count":25},{"id":8626,"title":"The Adventure of Wisteria Lodge","authors":[{"name":"Doyle, Arthur Conan","birth_year":1859,"death_year":1930}],"translators":[],"subjects":["Detective and mystery stories","Holmes, Sherlock (Fictitious character) -- Fiction","Private investigators -- England -- Fiction"],"bookshelves":[],"languages":["en"],"copyright":true,"media_type":"Sound","formats":{"text/plain; charset=us-ascii":"https://www.gutenberg.org/files/8626/8626-readme.txt","text/html; charset=iso-8859-1":"https://www.gutenberg.org/files/8626/8626-index.htm","audio/mpeg":"https://www.gutenberg.org/files/8626/mp3/8626-000.mp3","application/rdf+xml":"https://www.gutenberg.org/ebooks/8626.rdf","application/octet-stream":"https://www.gutenberg.org/files/8626/8626-mp3.zip"},"download_count":25},{"id":8715,"title":"Gallantry: Dizain des Fetes Galantes","authors":[{"name":"Cabell, James Branch","birth_year":1879,"death_year":1958}],"translators":[],"subjects":["Fiction","Short stories"],"bookshelves":["Fantasy"],"languages":["en"],"copyright":false,"media_type":"Text","formats":{"text/html":"https://www.gutenberg.org/ebooks/8715.html.images","application/epub+zip":"https://www.gutenberg.org/ebooks/8715.epub3.images","application/x-mobipocket-ebook":"https://www.gutenberg.org/ebooks/8715.kf8.images","text/plain; charset=us-ascii":"https://www.gutenberg.org/ebooks/8715.txt.utf-8","text/plain; charset=iso-8859-1":"https://www.gutenberg.org/files/8715/8715-8.txt","application/rdf+xml":"https://www.gutenberg.org/ebooks/8715.rdf","image/jpeg":"https://www.gutenberg.org/cache/epub/8715/pg8715.cover.medium.jpg","application/octet-stream":"https://www.gutenberg.org/cache/epub/8715/pg8715-h.zip"},"download_count":25},{"id":8728,"title":"The Winning of Canada: a Chronicle of Wolfe","authors":[{"name":"Wood, William","birth_year":1864,"death_year":1947}],"translators":[],"subjects":["United States -- History -- French and Indian War, 1754-1763","Wolfe, James, 1727-1759"],"bookshelves":[],"languages":["en"],"copyright":false,"media_type":"Text","formats":{"text/html":"https://www.gutenberg.org/ebooks/8728.html.images","text/html; charset=us-ascii":"https://www.gutenberg.org/files/8728/8728-h/8728-h.htm","application/epub+zip":"https://www.gutenberg.org/ebooks/8728.epub3.images","application/x-mobipocket-ebook":"https://www.gutenberg.org/ebooks/8728.kf8.images","text/plain; charset=us-ascii":"https://www.gutenberg.org/ebooks/8728.txt.utf-8","application/rdf+xml":"https://www.gutenberg.org/ebooks/8728.rdf","image/jpeg":"https://www.gutenberg.org/cache/epub/8728/pg8728.cover.medium.jpg","application/octet-stream":"https://www.gutenberg.org/cache/epub/8728/pg8728-h.zip"},"download_count":25},{"id":8762,"title":"The Outlaw of Torn","authors":[{"name":"Burroughs, Edgar Rice","birth_year":1875,"death_year":1950}],"translators":[],"subjects":["Great Britain -- History -- Henry III, 1216-1272 -- Fiction","Historical fiction","Outlaws -- Fiction"],"bookshelves":["Science Fiction"],"languages":["en"],"copyright":true,"media_type":"Sound","formats":{"text/plain; charset=us-ascii":"https://www.gutenberg.org/files/8762/8762-readme.txt","text/html; charset=iso-8859-1":"https://www.gutenberg.org/files/8762/8762-index.htm","audio/mpeg":"https://www.gutenberg.org/files/8762/mp3/8762-000.mp3","application/rdf+xml":"https://www.gutenberg.org/ebooks/8762.rdf","application/octet-stream":"https://www.gutenberg.org/files/8762/8762-mp3.zip"},"download_count":25},{"id":8773,"title":"Birth Control: A Statement of Christian Doctrine against the Neo-Malthusians","authors":[{"name":"Sutherland, Halliday","birth_year":1882,"death_year":1960}],"translators":[],"subjects":["Birth control","Malthusianism"],"bookshelves":[],"languages":["en"],"copyright":false,"media_type":"Text","formats":{"text/html":"https://www.gutenberg.org/ebooks/8773.html.images","application/epub+zip":"https://www.gutenberg.org/ebooks/8773.epub3.images","application/x-mobipocket-ebook":"https://www.gutenberg.org/ebooks/8773.kf8.images","text/plain; charset=us-ascii":"https://www.gutenberg.org/ebooks/8773.txt.utf-8","text/plain; charset=iso-8859-1":"https://www.gutenberg.org/files/8773/8773-8.txt","application/rdf+xml":"https://www.gutenberg.org/ebooks/8773.rdf","image/jpeg":"https://www.gutenberg.org/cache/epub/8773/pg8773.cover.medium.jpg","application/octet-stream":"https://www.gutenberg.org/cache/epub/8773/pg8773-h.zip"},"download_count":25},{"id":8782,"title":"The Divine Comedy by Dante, Illustrated, Hell, Volume 04","authors":[{"name":"Dante Alighieri","birth_year":1265,"death_year":1321}],"translators":[{"name":"Cary, Henry Francis","birth_year":1772,"death_year":1844}],"subjects":["Epic poetry, Italian -- Translations into English","Hell -- Poetry","Italian poetry -- To 1400 -- Translations into English"],"bookshelves":[],"languages":["en"],"copyright":false,"media_type":"Text","formats":{"text/html":"https://www.gutenberg.org/ebooks/8782.html.images","text/html; charset=iso-8859-1":"https://www.gutenberg.org/files/8782/8782-h/8782-h.htm","application/epub+zip":"https://www.gutenberg.org/ebooks/8782.epub3.images","application/x-mobipocket-ebook":"https://www.gutenberg.org/ebooks/8782.kf8.images","text/plain; charset=us-ascii":"https://www.gutenberg.org/ebooks/8782.txt.utf-8","application/rdf+xml":"https://www.gutenberg.org/ebooks/8782.rdf","image/jpeg":"https://www.gutenberg.org/cache/epub/8782/pg8782.cover.medium.jpg","application/octet-stream":"https://www.gutenberg.org/cache/epub/8782/pg8782-h.zip"},"download_count":25},{"id":8792,"title":"The Divine Comedy by Dante, Illustrated, Purgatory, Volume 3","authors":[{"name":"Dante Alighieri","birth_year":1265,"death_year":1321}],"translators":[{"name":"Cary, Henry Francis","birth_year":1772,"death_year":1844}],"subjects":["Epic poetry, Italian -- Translations into English","Italian poetry -- To 1400 -- Translations into English"],"bookshelves":[],"languages":["en"],"copyright":false,"media_type":"Text","formats":{"text/html":"https://www.gutenberg.org/ebooks/8792.html.images","text/html; charset=iso-8859-1":"https://www.gutenberg.org/files/8792/8792-h/8792-h.htm","application/epub+zip":"https://www.gutenberg.org/ebooks/8792.epub3.images","application/x-mobipocket-ebook":"https://www.gutenberg.org/ebooks/8792.kf8.images","text/plain; charset=us-ascii":"https://www.gutenberg.org/ebooks/8792.txt.utf-8","application/rdf+xml":"https://www.gutenberg.org/ebooks/8792.rdf","image/jpeg":"https://www.gutenberg.org/cache/epub/8792/pg8792.cover.medium.jpg","application/octet-stream":"https://www.gutenberg.org/cache/epub/8792/pg8792-h.zip"},"download_count":25},{"id":8894,"title":"Latin Literature","authors":[{"name":"Mackail, J. W. (John William)","birth_year":1859,"death_year":1945}],"translators":[],"subjects":["Latin literature -- History and criticism"],"bookshelves":[],"languages":["en"],"copyright":false,"media_type":"Text","formats":{"text/html":"https://www.gutenberg.org/ebooks/8894.html.images","application/epub+zip":"https://www.gutenberg.org/ebooks/8894.epub3.images","application/x-mobipocket-ebook":"https://www.gutenberg.org/ebooks/8894.kf8.images","text/plain; charset=us-ascii":"https://www.gutenberg.org/ebooks/8894.txt.utf-8","text/plain; charset=iso-8859-1":"https://www.gutenberg.org/files/8894/8894-8.txt","application/rdf+xml":"https://www.gutenberg.org/ebooks/8894.rdf","image/jpeg":"https://www.gutenberg.org/cache/epub/8894/pg8894.cover.medium.jpg","application/octet-stream":"https://www.gutenberg.org/cache/epub/8894/pg8894-h.zip"},"download_count":25},{"id":8932,"title":"Lessons in Life; A Series of Familiar Essays","authors":[{"name":"Holland, J. G. (Josiah Gilbert)","birth_year":1819,"death_year":1881}],"translators":[],"subjects":["Conduct of life"],"bookshelves":[],"languages":["en"],"copyright":false,"media_type":"Text","formats":{"text/html":"https://www.gutenberg.org/ebooks/8932.html.images","application/epub+zip":"https://www.gutenberg.org/ebooks/8932.epub3.images","application/x-mobipocket-ebook":"https://www.gutenberg.org/ebooks/8932.kf8.images","text/plain; charset=us-ascii":"https://www.gutenberg.org/ebooks/8932.txt.utf-8","application/rdf+xml":"https://www.gutenberg.org/ebooks/8932.rdf","image/jpeg":"https://www.gutenberg.org/cache/epub/8932/pg8932.cover.medium.jpg","application/octet-stream":"https://www.gutenberg.org/cache/epub/8932/pg8932-h.zip"},"download_count":25},{"id":9006,"title":"The Man That Corrupted Hadleyburg","authors":[{"name":"Twain, Mark","birth_year":1835,"death_year":1910}],"translators":[],"subjects":["Humorous stories, American","Short stories"],"bookshelves":[],"languages":["en"],"copyright":true,"media_type":"Sound","formats":{"text/plain; charset=us-ascii":"https://www.gutenberg.org/files/9006/9006-readme.txt","text/html; charset=iso-8859-1":"https://www.gutenberg.org/files/9006/9006-index.htm","audio/mpeg":"https://www.gutenberg.org/files/9006/mp3/9006-000.mp3","application/rdf+xml":"https://www.gutenberg.org/ebooks/9006.rdf","application/octet-stream":"https://www.gutenberg.org/files/9006/9006-mp3.zip"},"download_count":25},{"id":9087,"title":"Eleanor","authors":[{"name":"Ward, Humphry, Mrs.","birth_year":1851,"death_year":1920}],"translators":[],"subjects":["Fiction"],"bookshelves":[],"languages":["en"],"copyright":false,"media_type":"Text","formats":{"text/html":"https://www.gutenberg.org/ebooks/9087.html.images","application/epub+zip":"https://www.gutenberg.org/ebooks/9087.epub3.images","application/x-mobipocket-ebook":"https://www.gutenberg.org/ebooks/9087.kf8.images","text/plain; charset=us-ascii":"https://www.gutenberg.org/ebooks/9087.txt.utf-8","text/plain; charset=iso-8859-1":"https://www.gutenberg.org/files/9087/9087-8.txt","application/rdf+xml":"https://www.gutenberg.org/ebooks/9087.rdf","image/jpeg":"https://www.gutenberg.org/cache/epub/9087/pg9087.cover.medium.jpg","application/octet-stream":"https://www.gutenberg.org/cache/epub/9087/pg9087-h.zip"},"download_count":25},{"id":9112,"title":"The Dare Boys of 1776","authors":[{"name":"Cox, Stephen Angus Douglas","birth_year":1863,"death_year":1944}],"translators":[],"subjects":["Spy stories","Teenage boys -- Juvenile fiction","United States -- History -- Revolution, 1775-1783 -- Juvenile fiction"],"bookshelves":[],"languages":["en"],"copyright":false,"media_type":"Text","formats":{"text/html":"https://www.gutenberg.org/ebooks/9112.html.images","text/html; charset=utf-8":"https://www.gutenberg.org/files/9112/9112-h/9112-h.htm","application/epub+zip":"https://www.gutenberg.org/ebooks/9112.epub3.images","application/x-mobipocket-ebook":"https://www.gutenberg.org/ebooks/9112.kf8.images","text/plain; charset=us-ascii":"https://www.gutenberg.org/ebooks/9112.txt.utf-8","application/rdf+xml":"https://www.gutenberg.org/ebooks/9112.rdf","image/jpeg":"https://www.gutenberg.org/cache/epub/9112/pg9112.cover.medium.jpg","application/octet-stream":"https://www.gutenberg.org/cache/epub/9112/pg9112-h.zip"},"download_count":25},{"id":9226,"title":"The Hall of Fantasy (From \"Mosses from an Old Manse\")","authors":[{"name":"Hawthorne, Nathaniel","birth_year":1804,"death_year":1864}],"translators":[],"subjects":["New England -- Social life and customs -- Fiction","Short stories"],"bookshelves":[],"languages":["en"],"copyright":false,"media_type":"Text","formats":{"text/html":"https://www.gutenberg.org/ebooks/9226.html.images","application/epub+zip":"https://www.gutenberg.org/ebooks/9226.epub3.images","application/x-mobipocket-ebook":"https://www.gutenberg.org/ebooks/9226.kf8.images","text/plain; charset=us-ascii":"https://www.gutenberg.org/ebooks/9226.txt.utf-8","application/rdf+xml":"https://www.gutenberg.org/ebooks/9226.rdf","image/jpeg":"https://www.gutenberg.org/cache/epub/9226/pg9226.cover.medium.jpg","application/octet-stream":"https://www.gutenberg.org/files/9226/9226-0.zip"},"download_count":25},{"id":9242,"title":"Old Ticonderoga, a Picture of the Past: (From: \"The Snow Image and Other Twice-Told Tales\")","authors":[{"name":"Hawthorne, Nathaniel","birth_year":1804,"death_year":1864}],"translators":[],"subjects":["Historical fiction, American","New England -- Social life and customs -- Fiction","Short stories"],"bookshelves":[],"languages":["en"],"copyright":false,"media_type":"Text","formats":{"text/html":"https://www.gutenberg.org/ebooks/9242.html.images","application/epub+zip":"https://www.gutenberg.org/ebooks/9242.epub3.images","application/x-mobipocket-ebook":"https://www.gutenberg.org/ebooks/9242.kf8.images","text/plain; charset=us-ascii":"https://www.gutenberg.org/ebooks/9242.txt.utf-8","application/rdf+xml":"https://www.gutenberg.org/ebooks/9242.rdf","image/jpeg":"https://www.gutenberg.org/cache/epub/9242/pg9242.cover.medium.jpg","application/octet-stream":"https://www.gutenberg.org/files/9242/9242-0.zip"},"download_count":25},{"id":9276,"title":"Three Sermons, Three Prayers","authors":[{"name":"Swift, Jonathan","birth_year":1667,"death_year":1745}],"translators":[],"subjects":["Satire, English"],"bookshelves":["Christianity"],"languages":["en"],"copyright":true,"media_type":"Sound","formats":{"text/plain; charset=us-ascii":"https://www.gutenberg.org/files/9276/9276-readme.txt","text/html; charset=iso-8859-1":"https://www.gutenberg.org/files/9276/9276-index.htm","audio/mpeg":"https://www.gutenberg.org/files/9276/mp3/9276-000.mp3","application/rdf+xml":"https://www.gutenberg.org/ebooks/9276.rdf","application/octet-stream":"https://www.gutenberg.org/files/9276/9276-mp3.zip"},"download_count":25},{"id":9338,"title":"The Secret Agent","authors":[{"name":"Conrad, Joseph","birth_year":1857,"death_year":1924}],"translators":[],"subjects":["Anarchists -- Fiction","Bombings -- Fiction","Conspiracies -- Fiction","London (England) -- Fiction","Political fiction"],"bookshelves":[],"languages":["en"],"copyright":true,"media_type":"Sound","formats":{"text/plain; charset=us-ascii":"https://www.gutenberg.org/files/9338/9338-readme.txt","text/html; charset=iso-8859-1":"https://www.gutenberg.org/files/9338/9338-index.htm","audio/mpeg":"https://www.gutenberg.org/files/9338/mp3/9338-000.mp3","application/rdf+xml":"https://www.gutenberg.org/ebooks/9338.rdf","application/octet-stream":"https://www.gutenberg.org/files/9338/9338-mp3.zip"},"download_count":25},{"id":9356,"title":"'Twixt Land and Sea","authors":[{"name":"Conrad, Joseph","birth_year":1857,"death_year":1924}],"translators":[],"subjects":["Fiction"],"bookshelves":[],"languages":["en"],"copyright":true,"media_type":"Sound","formats":{"text/plain; charset=us-ascii":"https://www.gutenberg.org/files/9356/9356-readme.txt","text/html; charset=iso-8859-1":"https://www.gutenberg.org/files/9356/9356-index.htm","audio/mpeg":"https://www.gutenberg.org/files/9356/mp3/9356-000.mp3","application/rdf+xml":"https://www.gutenberg.org/ebooks/9356.rdf","application/octet-stream":"https://www.gutenberg.org/files/9356/9356-mp3.zip"},"download_count":25},{"id":9469,"title":"The Call of the Twentieth Century, an Address to Young Men","authors":[{"name":"Jordan, David Starr","birth_year":1851,"death_year":1931}],"translators":[],"subjects":["Conduct of life","Young men"],"bookshelves":[],"languages":["en"],"copyright":false,"media_type":"Text","formats":{"text/html":"https://www.gutenberg.org/ebooks/9469.html.images","text/html; charset=iso-8859-1":"https://www.gutenberg.org/files/9469/9469-h/9469-h.htm","application/epub+zip":"https://www.gutenberg.org/ebooks/9469.epub3.images","application/x-mobipocket-ebook":"https://www.gutenberg.org/ebooks/9469.kf8.images","text/plain; charset=us-ascii":"https://www.gutenberg.org/ebooks/9469.txt.utf-8","text/plain; charset=iso-8859-1":"https://www.gutenberg.org/files/9469/9469-8.txt","application/rdf+xml":"https://www.gutenberg.org/ebooks/9469.rdf","image/jpeg":"https://www.gutenberg.org/cache/epub/9469/pg9469.cover.medium.jpg","application/octet-stream":"https://www.gutenberg.org/cache/epub/9469/pg9469-h.zip"},"download_count":25},{"id":9547,"title":"The Cruise of the Dry Dock","authors":[{"name":"Stribling, T. S. (Thomas Sigismund)","birth_year":1881,"death_year":1965}],"translators":[],"subjects":["Sailors -- Fiction","Sargasso Sea -- Fiction","World War, 1914-1918 -- Fiction"],"bookshelves":[],"languages":["en"],"copyright":false,"media_type":"Text","formats":{"text/html":"https://www.gutenberg.org/ebooks/9547.html.images","text/html; charset=us-ascii":"https://www.gutenberg.org/files/9547/9547-h/9547-h.htm","application/epub+zip":"https://www.gutenberg.org/ebooks/9547.epub3.images","application/x-mobipocket-ebook":"https://www.gutenberg.org/ebooks/9547.kf8.images","text/plain; charset=us-ascii":"https://www.gutenberg.org/ebooks/9547.txt.utf-8","application/rdf+xml":"https://www.gutenberg.org/ebooks/9547.rdf","image/jpeg":"https://www.gutenberg.org/cache/epub/9547/pg9547.cover.medium.jpg","application/octet-stream":"https://www.gutenberg.org/cache/epub/9547/pg9547-h.zip"},"download_count":25},{"id":9548,"title":"Honore de Balzac, His Life and Writings","authors":[{"name":"Sandars, Mary Frances","birth_year":1864,"death_year":null}],"translators":[],"subjects":["Balzac, Honoré de, 1799-1850","Novelists, French -- 19th century -- Biography"],"bookshelves":[],"languages":["en"],"copyright":false,"media_type":"Text","formats":{"text/html":"https://www.gutenberg.org/ebooks/9548.html.images","application/epub+zip":"https://www.gutenberg.org/ebooks/9548.epub3.images","application/x-mobipocket-ebook":"https://www.gutenberg.org/ebooks/9548.kf8.images","text/plain; charset=us-ascii":"https://www.gutenberg.org/ebooks/9548.txt.utf-8","application/rdf+xml":"https://www.gutenberg.org/ebooks/9548.rdf","image/jpeg":"https://www.gutenberg.org/cache/epub/9548/pg9548.cover.medium.jpg","application/octet-stream":"https://www.gutenberg.org/cache/epub/9548/pg9548-h.zip"},"download_count":25},{"id":9661,"title":"Mormon Settlement in Arizona: A Record of Peaceful Conquest of the Desert","authors":[{"name":"McClintock, James H.","birth_year":1864,"death_year":1934}],"translators":[],"subjects":["Arizona -- History -- To 1950","Mormons -- Arizona -- History"],"bookshelves":["Latter Day Saints"],"languages":["en"],"copyright":false,"media_type":"Text","formats":{"text/html":"https://www.gutenberg.org/ebooks/9661.html.images","application/epub+zip":"https://www.gutenberg.org/ebooks/9661.epub3.images","application/x-mobipocket-ebook":"https://www.gutenberg.org/ebooks/9661.kf8.images","text/plain; charset=us-ascii":"https://www.gutenberg.org/ebooks/9661.txt.utf-8","application/rdf+xml":"https://www.gutenberg.org/ebooks/9661.rdf","image/jpeg":"https://www.gutenberg.org/cache/epub/9661/pg9661.cover.medium.jpg","application/octet-stream":"https://www.gutenberg.org/cache/epub/9661/pg9661-h.zip"},"download_count":25},{"id":9684,"title":"From London to Land's End","authors":[{"name":"Defoe, Daniel","birth_year":null,"death_year":1731}],"translators":[],"subjects":["England -- Description and travel -- Early works to 1800"],"bookshelves":[],"languages":["en"],"copyright":true,"media_type":"Sound","formats":{"text/plain; charset=us-ascii":"https://www.gutenberg.org/files/9684/9684-readme.txt","text/html; charset=iso-8859-1":"https://www.gutenberg.org/files/9684/9684-index.htm","audio/mpeg":"https://www.gutenberg.org/files/9684/mp3/9684-000.mp3","application/rdf+xml":"https://www.gutenberg.org/ebooks/9684.rdf","application/octet-stream":"https://www.gutenberg.org/files/9684/9684-mp3.zip"},"download_count":25},{"id":9694,"title":"The Battle of Life","authors":[{"name":"Dickens, Charles","birth_year":1812,"death_year":1870}],"translators":[],"subjects":["Christmas stories, English","England -- Social life and customs -- 19th century -- Fiction"],"bookshelves":[],"languages":["en"],"copyright":true,"media_type":"Sound","formats":{"text/plain; charset=us-ascii":"https://www.gutenberg.org/files/9694/9694-readme.txt","text/html; charset=iso-8859-1":"https://www.gutenberg.org/files/9694/9694-index.htm","audio/mpeg":"https://www.gutenberg.org/files/9694/mp3/9694-000.mp3","application/rdf+xml":"https://www.gutenberg.org/ebooks/9694.rdf","application/octet-stream":"https://www.gutenberg.org/files/9694/9694-mp3.zip"},"download_count":25},{"id":9702,"title":"The Old Curiosity Shop","authors":[{"name":"Dickens, Charles","birth_year":1812,"death_year":1870}],"translators":[],"subjects":["Antique dealers -- Fiction","Didactic fiction","Domestic fiction","England -- Fiction","Gamblers -- Fiction","Girls -- Fiction","Grandfathers -- Fiction","Grandparent and child -- Fiction"],"bookshelves":[],"languages":["en"],"copyright":true,"media_type":"Sound","formats":{"text/plain; charset=us-ascii":"https://www.gutenberg.org/files/9702/9702-readme.txt","text/html; charset=iso-8859-1":"https://www.gutenberg.org/files/9702/9702-index.htm","audio/mpeg":"https://www.gutenberg.org/files/9702/mp3/9702-000.mp3","application/rdf+xml":"https://www.gutenberg.org/ebooks/9702.rdf","application/octet-stream":"https://www.gutenberg.org/files/9702/9702-mp3.zip"},"download_count":25},{"id":9712,"title":"Hunted Down","authors":[{"name":"Dickens, Charles","birth_year":1812,"death_year":1870}],"translators":[],"subjects":["Detective and mystery stories, English"],"bookshelves":["Detective Fiction"],"languages":["en"],"copyright":true,"media_type":"Sound","formats":{"text/plain; charset=us-ascii":"https://www.gutenberg.org/files/9712/9712-readme.txt","text/html; charset=iso-8859-1":"https://www.gutenberg.org/files/9712/9712-index.htm","audio/mpeg":"https://www.gutenberg.org/files/9712/mp3/9712-000.mp3","application/rdf+xml":"https://www.gutenberg.org/ebooks/9712.rdf","application/octet-stream":"https://www.gutenberg.org/files/9712/9712-mp3.zip"},"download_count":25},{"id":9832,"title":"The Crimson Blind","authors":[{"name":"White, Fred M. (Fred Merrick)","birth_year":1859,"death_year":1935}],"translators":[],"subjects":["Mystery fiction"],"bookshelves":[],"languages":["en"],"copyright":false,"media_type":"Text","formats":{"text/html":"https://www.gutenberg.org/ebooks/9832.html.images","application/epub+zip":"https://www.gutenberg.org/ebooks/9832.epub3.images","application/x-mobipocket-ebook":"https://www.gutenberg.org/ebooks/9832.kf8.images","text/plain; charset=us-ascii":"https://www.gutenberg.org/ebooks/9832.txt.utf-8","text/plain; charset=iso-8859-1":"https://www.gutenberg.org/files/9832/9832-8.txt","application/rdf+xml":"https://www.gutenberg.org/ebooks/9832.rdf","image/jpeg":"https://www.gutenberg.org/cache/epub/9832/pg9832.cover.medium.jpg","application/octet-stream":"https://www.gutenberg.org/cache/epub/9832/pg9832-h.zip"},"download_count":25},{"id":9854,"title":"Frank Roscoe's Secret; Or, the Darewell Chums in the Woods","authors":[{"name":"Chapman, Allen","birth_year":null,"death_year":null}],"translators":[],"subjects":["High school students -- Juvenile fiction"],"bookshelves":[],"languages":["en"],"copyright":false,"media_type":"Text","formats":{"text/html":"https://www.gutenberg.org/ebooks/9854.html.images","text/html; charset=iso-8859-1":"https://www.gutenberg.org/files/9854/9854-h/9854-h.htm","application/epub+zip":"https://www.gutenberg.org/ebooks/9854.epub3.images","application/x-mobipocket-ebook":"https://www.gutenberg.org/ebooks/9854.kf8.images","text/plain; charset=us-ascii":"https://www.gutenberg.org/ebooks/9854.txt.utf-8","application/rdf+xml":"https://www.gutenberg.org/ebooks/9854.rdf","image/jpeg":"https://www.gutenberg.org/cache/epub/9854/pg9854.cover.medium.jpg","application/octet-stream":"https://www.gutenberg.org/cache/epub/9854/pg9854-h.zip"},"download_count":25},{"id":9923,"title":"The Box with Broken Seals","authors":[{"name":"Oppenheim, E. Phillips (Edward Phillips)","birth_year":1866,"death_year":1946}],"translators":[],"subjects":["Detective and mystery stories"],"bookshelves":[],"languages":["en"],"copyright":false,"media_type":"Text","formats":{"text/html":"https://www.gutenberg.org/ebooks/9923.html.images","application/epub+zip":"https://www.gutenberg.org/ebooks/9923.epub3.images","application/x-mobipocket-ebook":"https://www.gutenberg.org/ebooks/9923.kf8.images","text/plain; charset=us-ascii":"https://www.gutenberg.org/ebooks/9923.txt.utf-8","text/plain; charset=iso-8859-1":"https://www.gutenberg.org/files/9923/9923-8.txt","application/rdf+xml":"https://www.gutenberg.org/ebooks/9923.rdf","image/jpeg":"https://www.gutenberg.org/cache/epub/9923/pg9923.cover.medium.jpg","application/octet-stream":"https://www.gutenberg.org/cache/epub/9923/pg9923-h.zip"},"download_count":25},{"id":10004,"title":"The Warriors","authors":[{"name":"Lindsay, Anna Robertson Brown","birth_year":1864,"death_year":1948}],"translators":[],"subjects":["Christianity"],"bookshelves":[],"languages":["en"],"copyright":false,"media_type":"Text","formats":{"text/html":"https://www.gutenberg.org/ebooks/10004.html.images","application/epub+zip":"https://www.gutenberg.org/ebooks/10004.epub3.images","application/x-mobipocket-ebook":"https://www.gutenberg.org/ebooks/10004.kf8.images","text/plain; charset=us-ascii":"https://www.gutenberg.org/ebooks/10004.txt.utf-8","text/plain; charset=iso-8859-1":"https://www.gutenberg.org/files/10004/10004-8.txt","application/rdf+xml":"https://www.gutenberg.org/ebooks/10004.rdf","image/jpeg":"https://www.gutenberg.org/cache/epub/10004/pg10004.cover.medium.jpg","application/octet-stream":"https://www.gutenberg.org/cache/epub/10004/pg10004-h.zip"},"download_count":25},{"id":10024,"title":"Beneath the Banner: Being Narratives of Noble Lives and Brave Deeds","authors":[{"name":"Cross, F. J. (Frederick J.)","birth_year":null,"death_year":null}],"translators":[],"subjects":["Biography -- Juvenile literature"],"bookshelves":[],"languages":["en"],"copyright":false,"media_type":"Text","formats":{"text/html":"https://www.gutenberg.org/ebooks/10024.html.images","application/epub+zip":"https://www.gutenberg.org/ebooks/10024.epub3.images","application/x-mobipocket-ebook":"https://www.gutenberg.org/ebooks/10024.kf8.images","text/plain; charset=us-ascii":"https://www.gutenberg.org/ebooks/10024.txt.utf-8","text/plain; charset=iso-8859-1":"https://www.gutenberg.org/files/10024/10024-8.txt","application/rdf+xml":"https://www.gutenberg.org/ebooks/10024.rdf","image/jpeg":"https://www.gutenberg.org/cache/epub/10024/pg10024.cover.medium.jpg","application/octet-stream":"https://www.gutenberg.org/cache/epub/10024/pg10024-h.zip"},"download_count":25}]}