{"count":58808,"next":"http://129.241.150.113:8000/books/?languages=en&page=1290","previous":"http://129.241.150.113:8000/books/?languages=en&page=1288","results":[{"id":67176,"title":"Legend Land, Vol. 4: Being a Further Collection of Some of the Old Tales Told in Those Nearer Western Parts of Britain Served by the Great Western Railway","authors":[{"name":"Barham, G. Basil (George Basil)","birth_year":null,"death_year":null}],"translators":[],"subjects":["Folk literature, English","Folklore -- England","Tales -- England"],"bookshelves":[],"languages":["en"],"copyright":false,"media_type":"Text","formats":{"text/html":"https://www.gutenberg.org/ebooks/67176.html.images","application/epub+zip":"https://www.gutenberg.org/ebooks/67176.epub3.images","application/x-mobipocket-ebook":"https://www.gutenberg.org/ebooks/67176.kf8.images","text/plain; charset=us-ascii":"https://www.gutenberg.org/ebooks/67176.txt.utf-8","application/rdf+xml":"https://www.gutenberg.org/ebooks/67176.rdf","image/jpeg":"https://www.gutenberg.org/cache/epub/67176/pg67176.cover.medium.jpg","application/octet-stream":"https://www.gutenberg.org/files/67176/67176-0.zip"},"download_count":29},{"id":67187,"title":"The Gates of Morning","authors":[{"name":"Stacpoole, H. De Vere (Henry De Vere)","birth_year":1863,"death_year":1951}],"translators":[],"subjects":["Islands -- Fiction","Oceania -- Fiction"],"bookshelves":[],"languages":["en"],"copyright":false,"media_type":"Text","formats":{"text/html":"https://www.gutenberg.org/ebooks/67187.html.images","application/epub+zip":"https://www.gutenberg.org/ebooks/67187.epub3.images","application/x-mobipocket-ebook":"https://www.gutenberg.org/ebooks/67187.kf8.images","text/plain; charset=us-ascii":"https://www.gutenberg.org/ebooks/67187.txt.utf-8","application/rdf+xml":"https://www.gutenberg.org/ebooks/67187.rdf","image/jpeg":"https://www.gutenberg.org/cache/epub/67187/pg67187.cover.medium.jpg","application/octet-stream":"https://www.gutenberg.org/files/67187/67187-0.zip"},"download_count":29},{"id":67284,"title":"Bee-Keeping","authors":[{"name":"Cumming, John","birth_year":1807,"death_year":1881}],"translators":[],"subjects":["Bee culture","Bees"],"bookshelves":[],"languages":["en"],"copyright":false,"media_type":"Text","formats":{"text/html":"https://www.gutenberg.org/ebooks/67284.html.images","application/epub+zip":"https://www.gutenberg.org/ebooks/67284.epub3.images","application/x-mobipocket-ebook":"https://www.gutenberg.org/ebooks/67284.kf8.images","text/plain; charset=us-ascii":"https://www.gutenberg.org/ebooks/67284.txt.utf-8","application/rdf+xml":"https://www.gutenberg.org/ebooks/67284.rdf","image/jpeg":"https://www.gutenberg.org/cache/epub/67284/pg67284.cover.medium.jpg","application/octet-stream":"https://www.gutenberg.org/files/67284/67284-0.zip"},"download_count":29},{"id":67391,"title":"Gilbert Weather Bureau (Meteorology) for Boys","authors":[{"name":"Gilbert, A. C. (Alfred Carlton)","birth_year":1884,"death_year":1961}],"translators":[],"subjects":["Meteorology -- Juvenile literature","Meteorology -- Problems, exercises, etc.","Weather -- Juvenile literature"],"bookshelves":[],"languages":["en"],"copyright":false,"media_type":"Text","formats":{"text/html":"https://www.gutenberg.org/ebooks/67391.html.images","application/epub+zip":"https://www.gutenberg.org/ebooks/67391.epub3.images","application/x-mobipocket-ebook":"https://www.gutenberg.org/ebooks/67391.kf8.images","text/plain; charset=us-ascii":"https://www.gutenberg.org/ebooks/67391.txt.utf-8","application/rdf+xml":"https://www.gutenberg.org/ebooks/67391.rdf","image/jpeg":"https://www.gutenberg.org/cache/epub/67391/pg67391.cover.medium.jpg","application/octet-stream":"https://www.gutenberg.org/files/67391/67391-0.zip"},"download_count":29},{"id":67392,"title":"Phantom Duel","authors":[{"name":"McCormack, Ford","birth_year":null,"death_year":null}],"translators":[],"subjects":["Adventure stories","Science fiction"],"bookshelves":[],"languages":["en"],"copyright":false,"media_type":"Text","formats":{"text/html":"https://www.gutenberg.org/ebooks/67392.html.images","application/epub+zip":"https://www.gutenberg.org/ebooks/67392.epub3.images","application/x-mobipocket-ebook":"https://www.gutenberg.org/ebooks/67392.kf8.images","text/plain; charset=us-ascii":"https://www.gutenberg.org/ebooks/67392.txt.utf-8","application/rdf+xml":"https://www.gutenberg.org/ebooks/67392.rdf","image/jpeg":"https://www.gutenberg.org/cache/epub/67392/pg67392.cover.medium.jpg","application/octet-stream":"https://www.gutenberg.org/files/67392/67392-0.zip"},"download_count":29},{"id":67396,"title":"Determination of the Atomic Weight of Cadmium and the Preparation of Certain of Its Sub-Compounds","authors":[{"name":"Jones, Harry C. (Harry Clary)","birth_year":1865,"death_year":1916}],"translators":[],"subjects":["Atomic weights","Cadmium","Thesis (Ph. D.)"],"bookshelves":[],"languages":["en"],"copyright":false,"media_type":"Text","formats":{"text/html":"https://www.gutenberg.org/ebooks/67396.html.images","application/epub+zip":"https://www.gutenberg.org/ebooks/67396.epub3.images","application/x-mobipocket-ebook":"https://www.gutenberg.org/ebooks/67396.kf8.images","text/plain; charset=us-ascii":"https://www.gutenberg.org/ebooks/67396.txt.utf-8","application/rdf+xml":"https://www.gutenberg.org/ebooks/67396.rdf","image/jpeg":"https://www.gutenberg.org/cache/epub/67396/pg67396.cover.medium.jpg","application/octet-stream":"https://www.gutenberg.org/files/67396/67396-0.zip"},"download_count":29},{"id":67421,"title":"Grist","authors":[{"name":"Leinster, Murray","birth_year":1896,"death_year":1975}],"translators":[],"subjects":["Dogs -- Fiction","Gold mines and mining -- Alaska -- Fiction","Murder -- Investigation -- Fiction","Short stories"],"bookshelves":[],"languages":["en"],"copyright":false,"media_type":"Text","formats":{"text/html":"https://www.gutenberg.org/ebooks/67421.html.images","application/epub+zip":"https://www.gutenberg.org/ebooks/67421.epub3.images","application/x-mobipocket-ebook":"https://www.gutenberg.org/ebooks/67421.kf8.images","text/plain; charset=us-ascii":"https://www.gutenberg.org/ebooks/67421.txt.utf-8","application/rdf+xml":"https://www.gutenberg.org/ebooks/67421.rdf","image/jpeg":"https://www.gutenberg.org/cache/epub/67421/pg67421.cover.medium.jpg","application/octet-stream":"https://www.gutenberg.org/files/67421/67421-0.zip"},"download_count":29},{"id":67431,"title":"The Buckaroo of Blue Wells","authors":[{"name":"Tuttle, W. C. (Wilbur C.)","birth_year":1883,"death_year":1969}],"translators":[],"subjects":["Cowboys -- Fiction","Hartley, Hashknife (Fictitious character) -- Fiction","Robbery -- Fiction","Stevens, Sleepy (Fictitious character) -- Fiction","Western stories"],"bookshelves":[],"languages":["en"],"copyright":false,"media_type":"Text","formats":{"text/html":"https://www.gutenberg.org/ebooks/67431.html.images","application/epub+zip":"https://www.gutenberg.org/ebooks/67431.epub3.images","application/x-mobipocket-ebook":"https://www.gutenberg.org/ebooks/67431.kf8.images","text/plain; charset=us-ascii":"https://www.gutenberg.org/ebooks/67431.txt.utf-8","application/rdf+xml":"https://www.gutenberg.org/ebooks/67431.rdf","image/jpeg":"https://www.gutenberg.org/cache/epub/67431/pg67431.cover.medium.jpg","application/octet-stream":"https://www.gutenberg.org/files/67431/67431-0.zip"},"download_count":29},{"id":67532,"title":"The Confessions of the Celebrated Countess of Lichtenau, Late Mrs. Rietz: Now Confined in the Fortress of Gloglau as a State-prisoner","authors":[{"name":"Husen, Heinrich","birth_year":null,"death_year":null}],"translators":[{"name":"B--t--n, Richard","birth_year":null,"death_year":null}],"subjects":["Lichtenau, Wilhelmine Enke, Gräfin Lichtenau, 1752-1820","Prussia (Germany) -- History -- Frederick William II, 1786-1797 -- Biography"],"bookshelves":[],"languages":["en"],"copyright":false,"media_type":"Text","formats":{"text/html":"https://www.gutenberg.org/ebooks/67532.html.images","application/epub+zip":"https://www.gutenberg.org/ebooks/67532.epub3.images","application/x-mobipocket-ebook":"https://www.gutenberg.org/ebooks/67532.kf8.images","text/plain; charset=us-ascii":"https://www.gutenberg.org/ebooks/67532.txt.utf-8","application/rdf+xml":"https://www.gutenberg.org/ebooks/67532.rdf","image/jpeg":"https://www.gutenberg.org/cache/epub/67532/pg67532.cover.medium.jpg","application/octet-stream":"https://www.gutenberg.org/files/67532/67532-0.zip"},"download_count":29},{"id":67545,"title":"Music in Medicine","authors":[{"name":"Licht, Sidney","birth_year":1907,"death_year":1979}],"translators":[],"subjects":["Music -- Physiological effect","Music, Influence of"],"bookshelves":[],"languages":["en"],"copyright":false,"media_type":"Text","formats":{"text/html":"https://www.gutenberg.org/ebooks/67545.html.images","application/epub+zip":"https://www.gutenberg.org/ebooks/67545.epub3.images","application/x-mobipocket-ebook":"https://www.gutenberg.org/ebooks/67545.kf8.images","text/plain; charset=us-ascii":"https://www.gutenberg.org/ebooks/67545.txt.utf-8","application/rdf+xml":"https://www.gutenberg.org/ebooks/67545.rdf","image/jpeg":"https://www.gutenberg.org/cache/epub/67545/pg67545.cover.medium.jpg","application/octet-stream":"https://www.gutenberg.org/files/67545/67545-0.zip"},"download_count":29},{"id":67608,"title":"Betty Alden: The first-born daughter of the Pilgrims","authors":[{"name":"Austin, Jane G. (Jane Goodwin)","birth_year":1831,"death_year":1894}],"translators":[],"subjects":["United States -- History -- Colonial period, ca. 1600-1775 -- Fiction"],"bookshelves":[],"languages":["en"],"copyright":false,"media_type":"Text","formats":{"text/html":"https://www.gutenberg.org/ebooks/67608.html.images","application/epub+zip":"https://www.gutenberg.org/ebooks/67608.epub3.images","application/x-mobipocket-ebook":"https://www.gutenberg.org/ebooks/67608.kf8.images","text/plain; charset=us-ascii":"https://www.gutenberg.org/ebooks/67608.txt.utf-8","application/rdf+xml":"https://www.gutenberg.org/ebooks/67608.rdf","image/jpeg":"https://www.gutenberg.org/cache/epub/67608/pg67608.cover.medium.jpg","application/octet-stream":"https://www.gutenberg.org/files/67608/67608-0.zip"},"download_count":29},{"id":67621,"title":"Hilda's Home: A Story of Woman's Emancipation","authors":[{"name":"Graul, Rosa","birth_year":null,"death_year":null}],"translators":[],"subjects":["Free love -- Fiction","Women -- Fiction","Women's rights -- Fiction"],"bookshelves":[],"languages":["en"],"copyright":false,"media_type":"Text","formats":{"text/html":"https://www.gutenberg.org/ebooks/67621.html.images","application/epub+zip":"https://www.gutenberg.org/ebooks/67621.epub3.images","application/x-mobipocket-ebook":"https://www.gutenberg.org/ebooks/67621.kf8.images","text/plain; charset=us-ascii":"https://www.gutenberg.org/ebooks/67621.txt.utf-8","application/rdf+xml":"https://www.gutenberg.org/ebooks/67621.rdf","image/jpeg":"https://www.gutenberg.org/cache/epub/67621/pg67621.cover.medium.jpg","application/octet-stream":"https://www.gutenberg.org/files/67621/67621-0.zip"},"download_count":29},{"id":67710,"title":"Russia in 1916","authors":[{"name":"Graham, Stephen","birth_year":1884,"death_year":1975}],"translators":[],"subjects":["Russia -- Description and travel","Russia -- Social life and customs"],"bookshelves":[],"languages":["en"],"copyright":false,"media_type":"Text","formats":{"text/html":"https://www.gutenberg.org/ebooks/67710.html.images","application/epub+zip":"https://www.gutenberg.org/ebooks/67710.epub3.images","application/x-mobipocket-ebook":"https://www.gutenberg.org/ebooks/67710.kf8.images","text/plain; charset=us-ascii":"https://www.gutenberg.org/ebooks/67710.txt.utf-8","application/rdf+xml":"https://www.gutenberg.org/ebooks/67710.rdf","image/jpeg":"https://www.gutenberg.org/cache/epub/67710/pg67710.cover.medium.jpg","application/octet-stream":"https://www.gutenberg.org/files/67710/67710-0.zip"},"download_count":29},{"id":67732,"title":"The Overman","authors":[{"name":"Sinclair, Upton","birth_year":1878,"death_year":1968}],"translators":[],"subjects":["Brothers -- Fiction","Castaways -- Fiction","Islands -- Fiction","Musicians -- Fiction","Paranormal fiction","Solitude -- Fiction"],"bookshelves":[],"languages":["en"],"copyright":false,"media_type":"Text","formats":{"text/html":"https://www.gutenberg.org/ebooks/67732.html.images","application/epub+zip":"https://www.gutenberg.org/ebooks/67732.epub3.images","application/x-mobipocket-ebook":"https://www.gutenberg.org/ebooks/67732.kf8.images","text/plain; charset=us-ascii":"https://www.gutenberg.org/ebooks/67732.txt.utf-8","application/rdf+xml":"https://www.gutenberg.org/ebooks/67732.rdf","image/jpeg":"https://www.gutenberg.org/cache/epub/67732/pg67732.cover.medium.jpg","application/octet-stream":"https://www.gutenberg.org/files/67732/67732-0.zip"},"download_count":29},{"id":67750,"title":"Wilderness Honey","authors":[{"name":"Pollock, Frank Lillie","birth_year":1876,"death_year":1957}],"translators":[],"subjects":["Bee culture -- Fiction","Canada -- Fiction","Ontario -- Fiction","Orphans -- Fiction","Siblings -- Fiction","Teenagers -- Fiction"],"bookshelves":[],"languages":["en"],"copyright":false,"media_type":"Text","formats":{"text/html":"https://www.gutenberg.org/ebooks/67750.html.images","application/epub+zip":"https://www.gutenberg.org/ebooks/67750.epub3.images","application/x-mobipocket-ebook":"https://www.gutenberg.org/ebooks/67750.kf8.images","text/plain; charset=us-ascii":"https://www.gutenberg.org/ebooks/67750.txt.utf-8","application/rdf+xml":"https://www.gutenberg.org/ebooks/67750.rdf","image/jpeg":"https://www.gutenberg.org/cache/epub/67750/pg67750.cover.medium.jpg","application/octet-stream":"https://www.gutenberg.org/files/67750/67750-0.zip"},"download_count":29},{"id":67823,"title":"The Lone Trail","authors":[{"name":"Allan, Luke","birth_year":1877,"death_year":1962}],"translators":[],"subjects":["Canada, Western -- Fiction","Cattle stealing -- Fiction","Newspaper editors -- Fiction","North West Mounted Police (Canada) -- Fiction"],"bookshelves":[],"languages":["en"],"copyright":false,"media_type":"Text","formats":{"text/html":"https://www.gutenberg.org/ebooks/67823.html.images","application/epub+zip":"https://www.gutenberg.org/ebooks/67823.epub3.images","application/x-mobipocket-ebook":"https://www.gutenberg.org/ebooks/67823.kf8.images","text/plain; charset=us-ascii":"https://www.gutenberg.org/ebooks/67823.txt.utf-8","application/rdf+xml":"https://www.gutenberg.org/ebooks/67823.rdf","image/jpeg":"https://www.gutenberg.org/cache/epub/67823/pg67823.cover.medium.jpg","application/octet-stream":"https://www.gutenberg.org/files/67823/67823-0.zip"},"download_count":29},{"id":67827,"title":"Life of Haydn","authors":[{"name":"Nohl, Ludwig","birth_year":1831,"death_year":1885}],"translators":[{"name":"Upton, George P. (George Putnam)","birth_year":1834,"death_year":1919}],"subjects":["Haydn, Joseph, 1732-1809"],"bookshelves":[],"languages":["en"],"copyright":false,"media_type":"Text","formats":{"text/html":"https://www.gutenberg.org/ebooks/67827.html.images","application/epub+zip":"https://www.gutenberg.org/ebooks/67827.epub3.images","application/x-mobipocket-ebook":"https://www.gutenberg.org/ebooks/67827.kf8.images","text/plain; charset=us-ascii":"https://www.gutenberg.org/ebooks/67827.txt.utf-8","application/rdf+xml":"https://www.gutenberg.org/ebooks/67827.rdf","image/jpeg":"https://www.gutenberg.org/cache/epub/67827/pg67827.cover.medium.jpg","application/octet-stream":"https://www.gutenberg.org/files/67827/67827-0.zip"},"download_count":29},{"id":67906,"title":"A Hermit's Wild Friends; or, Eighteen Years in the Woods","authors":[{"name":"Walton, Mason Augustus","birth_year":1838,"death_year":null}],"translators":[],"subjects":["Animal behavior","Zoology"],"bookshelves":[],"languages":["en"],"copyright":false,"media_type":"Text","formats":{"text/html":"https://www.gutenberg.org/ebooks/67906.html.images","application/epub+zip":"https://www.gutenberg.org/ebooks/67906.epub3.images","application/x-mobipocket-ebook":"https://www.gutenberg.org/ebooks/67906.kf8.images","text/plain; charset=us-ascii":"https://www.gutenberg.org/ebooks/67906.txt.utf-8","application/rdf+xml":"https://www.gutenberg.org/ebooks/67906.rdf","image/jpeg":"https://www.gutenberg.org/cache/epub/67906/pg67906.cover.medium.jpg","application/octet-stream":"https://www.gutenberg.org/files/67906/67906-0.zip"},"download_count":29},{"id":67914,"title":"Gerald Eversley's Friendship: A Study in Real Life","authors":[{"name":"Welldon, J. E. C. (James Edward Cowell)","birth_year":1854,"death_year":1937}],"translators":[],"subjects":["Endowed public schools (Great Britain) -- Fiction","Friendship in youth -- Fiction"],"bookshelves":[],"languages":["en"],"copyright":false,"media_type":"Text","formats":{"text/html":"https://www.gutenberg.org/ebooks/67914.html.images","application/epub+zip":"https://www.gutenberg.org/ebooks/67914.epub3.images","application/x-mobipocket-ebook":"https://www.gutenberg.org/ebooks/67914.kf8.images","text/plain; charset=us-ascii":"https://www.gutenberg.org/ebooks/67914.txt.utf-8","application/rdf+xml":"https://www.gutenberg.org/ebooks/67914.rdf","image/jpeg":"https://www.gutenberg.org/cache/epub/67914/pg67914.cover.medium.jpg","application/octet-stream":"https://www.gutenberg.org/files/67914/67914-0.zip"},"download_count":29},{"id":68016,"title":"The Girl Avenger; or, The Beautiful Terror of the Maumee","authors":[{"name":"Harbaugh, T. C. (Thomas Chalmers)","birth_year":1849,"death_year":1924}],"translators":[],"subjects":["Adventure stories","Dime novels","Frontier and pioneer life -- Fiction","Ohio -- Fiction"],"bookshelves":[],"languages":["en"],"copyright":false,"media_type":"Text","formats":{"text/html":"https://www.gutenberg.org/ebooks/68016.html.images","application/epub+zip":"https://www.gutenberg.org/ebooks/68016.epub3.images","application/x-mobipocket-ebook":"https://www.gutenberg.org/ebooks/68016.kf8.images","text/plain; charset=us-ascii":"https://www.gutenberg.org/ebooks/68016.txt.utf-8","application/rdf+xml":"https://www.gutenberg.org/ebooks/68016.rdf","image/jpeg":"https://www.gutenberg.org/cache/epub/68016/pg68016.cover.medium.jpg","application/octet-stream":"https://www.gutenberg.org/files/68016/68016-0.zip"},"download_count":29},{"id":68047,"title":"Off the Beam","authors":[{"name":"Smith, George O. (George Oliver)","birth_year":1911,"death_year":1981}],"translators":[],"subjects":["Communication -- Fiction","Science fiction","Space ships -- Fiction","Space stations -- Fiction"],"bookshelves":[],"languages":["en"],"copyright":false,"media_type":"Text","formats":{"text/html":"https://www.gutenberg.org/ebooks/68047.html.images","application/epub+zip":"https://www.gutenberg.org/ebooks/68047.epub3.images","application/x-mobipocket-ebook":"https://www.gutenberg.org/ebooks/68047.kf8.images","text/plain; charset=us-ascii":"https://www.gutenberg.org/ebooks/68047.txt.utf-8","application/rdf+xml":"https://www.gutenberg.org/ebooks/68047.rdf","image/jpeg":"https://www.gutenberg.org/cache/epub/68047/pg68047.cover.medium.jpg","application/octet-stream":"https://www.gutenberg.org/files/68047/68047-0.zip"},"download_count":29},{"id":68052,"title":"Address of President Roosevelt on the Occasion of the Laying of the Corner Stone of the Pilgrim Memorial Monument, Provincetown, Massachusetts, August 20, 1907","authors":[{"name":"Roosevelt, Theodore","birth_year":1858,"death_year":1919}],"translators":[],"subjects":["Pilgrims (New Plymouth Colony)","Provincetown (Mass.) -- Pilgrim monument","Speeches, addresses, etc."],"bookshelves":[],"languages":["en"],"copyright":false,"media_type":"Text","formats":{"text/html":"https://www.gutenberg.org/ebooks/68052.html.images","application/epub+zip":"https://www.gutenberg.org/ebooks/68052.epub3.images","application/x-mobipocket-ebook":"https://www.gutenberg.org/ebooks/68052.kf8.images","text/plain; charset=us-ascii":"https://www.gutenberg.org/ebooks/68052.txt.utf-8","application/rdf+xml":"https://www.gutenberg.org/ebooks/68052.rdf","image/jpeg":"https://www.gutenberg.org/cache/epub/68052/pg68052.cover.medium.jpg","application/octet-stream":"https://www.gutenberg.org/files/68052/68052-0.zip"},"download_count":29},{"id":68113,"title":"Jingles","authors":[{"name":"Stoner, Winifred Sackville","birth_year":1902,"death_year":1983}],"translators":[],"subjects":["American poetry -- 20th century"],"bookshelves":[],"languages":["en"],"copyright":false,"media_type":"Text","formats":{"text/html":"https://www.gutenberg.org/ebooks/68113.html.images","application/epub+zip":"https://www.gutenberg.org/ebooks/68113.epub3.images","application/x-mobipocket-ebook":"https://www.gutenberg.org/ebooks/68113.kf8.images","text/plain; charset=us-ascii":"https://www.gutenberg.org/ebooks/68113.txt.utf-8","application/rdf+xml":"https://www.gutenberg.org/ebooks/68113.rdf","image/jpeg":"https://www.gutenberg.org/cache/epub/68113/pg68113.cover.medium.jpg","application/octet-stream":"https://www.gutenberg.org/files/68113/68113-0.zip"},"download_count":29},{"id":68184,"title":"Dark Dawn","authors":[{"name":"Kuttner, Henry","birth_year":1915,"death_year":1958}],"translators":[],"subjects":["Blind -- Fiction","Nuclear weapons -- Testing -- Fiction","Science fiction","Short stories"],"bookshelves":[],"languages":["en"],"copyright":false,"media_type":"Text","formats":{"text/html":"https://www.gutenberg.org/ebooks/68184.html.images","application/epub+zip":"https://www.gutenberg.org/ebooks/68184.epub3.images","application/x-mobipocket-ebook":"https://www.gutenberg.org/ebooks/68184.kf8.images","text/plain; charset=us-ascii":"https://www.gutenberg.org/ebooks/68184.txt.utf-8","application/rdf+xml":"https://www.gutenberg.org/ebooks/68184.rdf","image/jpeg":"https://www.gutenberg.org/cache/epub/68184/pg68184.cover.medium.jpg","application/octet-stream":"https://www.gutenberg.org/files/68184/68184-0.zip"},"download_count":29},{"id":68226,"title":"Concerning Women","authors":[{"name":"La Follette, Suzanne","birth_year":1893,"death_year":1983}],"translators":[],"subjects":["Marriage","Women -- Social and moral questions"],"bookshelves":[],"languages":["en"],"copyright":false,"media_type":"Text","formats":{"text/html":"https://www.gutenberg.org/ebooks/68226.html.images","application/epub+zip":"https://www.gutenberg.org/ebooks/68226.epub3.images","application/x-mobipocket-ebook":"https://www.gutenberg.org/ebooks/68226.kf8.images","text/plain; charset=us-ascii":"https://www.gutenberg.org/ebooks/68226.txt.utf-8","application/rdf+xml":"https://www.gutenberg.org/ebooks/68226.rdf","image/jpeg":"https://www.gutenberg.org/cache/epub/68226/pg68226.cover.medium.jpg","application/octet-stream":"https://www.gutenberg.org/files/68226/68226-0.zip"},"download_count":29},{"id":68257,"title":"Women wanted: The story written in blood red letters on the horizon of the Great World War","authors":[{"name":"Daggett, Mabel Potter","birth_year":1871,"death_year":1927}],"translators":[],"subjects":["Women -- Employment","World War, 1914-1918 -- Women"],"bookshelves":[],"languages":["en"],"copyright":false,"media_type":"Text","formats":{"text/html":"https://www.gutenberg.org/ebooks/68257.html.images","application/epub+zip":"https://www.gutenberg.org/ebooks/68257.epub3.images","application/x-mobipocket-ebook":"https://www.gutenberg.org/ebooks/68257.kf8.images","text/plain; charset=us-ascii":"https://www.gutenberg.org/ebooks/68257.txt.utf-8","application/rdf+xml":"https://www.gutenberg.org/ebooks/68257.rdf","image/jpeg":"https://www.gutenberg.org/cache/epub/68257/pg68257.cover.medium.jpg","application/octet-stream":"https://www.gutenberg.org/files/68257/68257-0.zip"},"download_count":29},{"id":68302,"title":"History for ready reference, Volume 3, Greece to Nibelungen","authors":[{"name":"Larned, J. N. (Josephus Nelson)","birth_year":1836,"death_year":1913}],"translators":[],"subjects":["History -- Dictionaries"],"bookshelves":[],"languages":["en"],"copyright":false,"media_type":"Text","formats":{"text/html":"https://www.gutenberg.org/ebooks/68302.html.images","application/epub+zip":"https://www.gutenberg.org/ebooks/68302.epub3.images","application/x-mobipocket-ebook":"https://www.gutenberg.org/ebooks/68302.kf8.images","text/plain; charset=us-ascii":"https://www.gutenberg.org/ebooks/68302.txt.utf-8","application/rdf+xml":"https://www.gutenberg.org/ebooks/68302.rdf","image/jpeg":"https://www.gutenberg.org/cache/epub/68302/pg68302.cover.medium.jpg","application/octet-stream":"https://www.gutenberg.org/files/68302/68302-0.zip"},"download_count":29},{"id":68304,"title":"The Catspaw","authors":[{"name":"Smith, George O. (George Oliver)","birth_year":1911,"death_year":1981}],"translators":[],"subjects":["Communication -- Fiction","Dreams -- Fiction","Human-alien encounters -- Fiction","Science fiction","Space ships -- Fiction","Technology -- Fiction"],"bookshelves":[],"languages":["en"],"copyright":false,"media_type":"Text","formats":{"text/html":"https://www.gutenberg.org/ebooks/68304.html.images","application/epub+zip":"https://www.gutenberg.org/ebooks/68304.epub3.images","application/x-mobipocket-ebook":"https://www.gutenberg.org/ebooks/68304.kf8.images","text/plain; charset=us-ascii":"https://www.gutenberg.org/ebooks/68304.txt.utf-8","application/rdf+xml":"https://www.gutenberg.org/ebooks/68304.rdf","image/jpeg":"https://www.gutenberg.org/cache/epub/68304/pg68304.cover.medium.jpg","application/octet-stream":"https://www.gutenberg.org/files/68304/68304-0.zip"},"download_count":29},{"id":68336,"title":"A history of Canada, 1763-1812","authors":[{"name":"Lucas, Charles Prestwood, Sir","birth_year":1853,"death_year":1931}],"translators":[],"subjects":["Canada -- History -- 1763-1867"],"bookshelves":[],"languages":["en"],"copyright":false,"media_type":"Text","formats":{"text/html":"https://www.gutenberg.org/ebooks/68336.html.images","application/epub+zip":"https://www.gutenberg.org/ebooks/68336.epub3.images","application/x-mobipocket-ebook":"https://www.gutenberg.org/ebooks/68336.kf8.images","text/plain; charset=us-ascii":"https://www.gutenberg.org/ebooks/68336.txt.utf-8","application/rdf+xml":"https://www.gutenberg.org/ebooks/68336.rdf","image/jpeg":"https://www.gutenberg.org/cache/epub/68336/pg68336.cover.medium.jpg","application/octet-stream":"https://www.gutenberg.org/files/68336/68336-0.zip"},"download_count":29},{"id":68366,"title":"\"Strictly Business\"","authors":[{"name":"Howard, F. Morton (Francis Morton)","birth_year":1880,"death_year":null}],"translators":[],"subjects":["England -- Fiction","Humorous stories"],"bookshelves":[],"languages":["en"],"copyright":false,"media_type":"Text","formats":{"text/html":"https://www.gutenberg.org/ebooks/68366.html.images","application/epub+zip":"https://www.gutenberg.org/ebooks/68366.epub3.images","application/x-mobipocket-ebook":"https://www.gutenberg.org/ebooks/68366.kf8.images","text/plain; charset=us-ascii":"https://www.gutenberg.org/ebooks/68366.txt.utf-8","application/rdf+xml":"https://www.gutenberg.org/ebooks/68366.rdf","image/jpeg":"https://www.gutenberg.org/cache/epub/68366/pg68366.cover.medium.jpg","application/octet-stream":"https://www.gutenberg.org/files/68366/68366-0.zip"},"download_count":29},{"id":68370,"title":"The Philistine : $b a periodical of protest (Vol. I, No. 1, June 1895)","authors":[{"name":"Various","birth_year":null,"death_year":null}],"translators":[],"subjects":["American literature -- Periodicals","American periodicals","Society of the Philistines (East Aurora, N.Y.) -- Periodicals"],"bookshelves":[],"languages":["en"],"copyright":false,"media_type":"Text","formats":{"text/html":"https://www.gutenberg.org/ebooks/68370.html.images","application/epub+zip":"https://www.gutenberg.org/ebooks/68370.epub3.images","application/x-mobipocket-ebook":"https://www.gutenberg.org/ebooks/68370.kf8.images","text/plain; charset=us-ascii":"https://www.gutenberg.org/ebooks/68370.txt.utf-8","application/rdf+xml":"https://www.gutenberg.org/ebooks/68370.rdf","image/jpeg":"https://www.gutenberg.org/cache/epub/68370/pg68370.cover.medium.jpg","application/octet-stream":"https://www.gutenberg.org/files/68370/68370-0.zip"},"download_count":29},{"id":68396,"title":"Dr. Courtney's guide to happy marriage","authors":[{"name":"Courtney, A. B.","birth_year":null,"death_year":null}],"translators":[],"subjects":["Interpersonal relations","Marriage"],"bookshelves":[],"languages":["en"],"copyright":false,"media_type":"Text","formats":{"text/html":"https://www.gutenberg.org/ebooks/68396.html.images","application/epub+zip":"https://www.gutenberg.org/ebooks/68396.epub3.images","application/x-mobipocket-ebook":"https://www.gutenberg.org/ebooks/68396.kf8.images","text/plain; charset=us-ascii":"https://www.gutenberg.org/ebooks/68396.txt.utf-8","application/rdf+xml":"https://www.gutenberg.org/ebooks/68396.rdf","image/jpeg":"https://www.gutenberg.org/cache/epub/68396/pg68396.cover.medium.jpg","application/octet-stream":"https://www.gutenberg.org/files/68396/68396-0.zip"},"download_count":29}]}