{"count":58808,"next":"http://129.241.150.113:8000/books/?languages=en&page=1649","previous":"http://129.241.150.113:8000/books/?languages=en&page=1647","results":[{"id":5437,"title":"An Original Belle","authors":[{"name":"Roe, Edward Payson","birth_year":1838,"death_year":1888}],"translators":[],"subjects":["Love stories","United States -- History -- Civil War, 1861-1865 -- Fiction"],"bookshelves":["US Civil War"],"languages":["en"],"copyright":false,"media_type":"Text","formats":{"text/html":"https://www.gutenberg.org/ebooks/5437.html.images","application/epub+zip":"https://www.gutenberg.org/ebooks/5437.epub3.images","application/x-mobipocket-ebook":"https://www.gutenberg.org/ebooks/5437.kf8.images","text/plain; charset=us-ascii":"https://www.gutenberg.org/ebooks/5437.txt.utf-8","application/rdf+xml":"https://www.gutenberg.org/ebooks/5437.rdf","image/jpeg":"https://www.gutenberg.org/cache/epub/5437/pg5437.cover.medium.jpg","application/octet-stream":"https://www.gutenberg.org/cache/epub/5437/pg5437-h.zip"},"download_count":19},{"id":5444,"title":"Uarda : a Romance of Ancient Egypt — Volume 06","authors":[{"name":"Ebers, Georg","birth_year":1837,"death_year":1898}],"translators":[{"name":"Bell, Clara","birth_year":1834,"death_year":1927}],"subjects":["Egypt -- History -- To 332 B.C. -- Fiction","German fiction -- Translations into English"],"bookshelves":["Historical Fiction"],"languages":["en"],"copyright":false,"media_type":"Text","formats":{"text/html":"https://www.gutenberg.org/ebooks/5444.html.images","application/epub+zip":"https://www.gutenberg.org/ebooks/5444.epub3.images","application/x-mobipocket-ebook":"https://www.gutenberg.org/ebooks/5444.kf8.images","text/plain; charset=us-ascii":"https://www.gutenberg.org/ebooks/5444.txt.utf-8","application/rdf+xml":"https://www.gutenberg.org/ebooks/5444.rdf","image/jpeg":"https://www.gutenberg.org/cache/epub/5444/pg5444.cover.medium.jpg","application/octet-stream":"https://www.gutenberg.org/cache/epub/5444/pg5444-h.zip"},"download_count":19},{"id":5446,"title":"Uarda : a Romance of Ancient Egypt — Volume 08","authors":[{"name":"Ebers, Georg","birth_year":1837,"death_year":1898}],"translators":[{"name":"Bell, Clara","birth_year":1834,"death_year":1927}],"subjects":["Egypt -- History -- To 332 B.C. -- Fiction","German fiction -- Translations into English"],"bookshelves":["Historical Fiction"],"languages":["en"],"copyright":false,"media_type":"Text","formats":{"text/html":"https://www.gutenberg.org/ebooks/5446.html.images","application/epub+zip":"https://www.gutenberg.org/ebooks/5446.epub3.images","application/x-mobipocket-ebook":"https://www.gutenberg.org/ebooks/5446.kf8.images","text/plain; charset=us-ascii":"https://www.gutenberg.org/ebooks/5446.txt.utf-8","application/rdf+xml":"https://www.gutenberg.org/ebooks/5446.rdf","image/jpeg":"https://www.gutenberg.org/cache/epub/5446/pg5446.cover.medium.jpg","application/octet-stream":"https://www.gutenberg.org/cache/epub/5446/pg5446-h.zip"},"download_count":19},{"id":5447,"title":"Uarda : a Romance of Ancient Egypt — Volume 09","authors":[{"name":"Ebers, Georg","birth_year":1837,"death_year":1898}],"translators":[{"name":"Bell, Clara","birth_year":1834,"death_year":1927}],"subjects":["Egypt -- History -- To 332 B.C. -- Fiction","German fiction -- Translations into English"],"bookshelves":["Historical Fiction"],"languages":["en"],"copyright":false,"media_type":"Text","formats":{"text/html":"https://www.gutenberg.org/ebooks/5447.html.images","application/epub+zip":"https://www.gutenberg.org/ebooks/5447.epub3.images","application/x-mobipocket-ebook":"https://www.gutenberg.org/ebooks/5447.kf8.images","text/plain; charset=us-ascii":"https://www.gutenberg.org/ebooks/5447.txt.utf-8","application/rdf+xml":"https://www.gutenberg.org/ebooks/5447.rdf","image/jpeg":"https://www.gutenberg.org/cache/epub/5447/pg5447.cover.medium.jpg","application/octet-stream":"https://www.gutenberg.org/cache/epub/5447/pg5447-h.zip"},"download_count":19},{"id":5455,"title":"An Egyptian Princess — Volume 06","authors":[{"name":"Ebers, Georg","birth_year":1837,"death_year":1898}],"translators":[{"name":"Grove, Eleanor","birth_year":null,"death_year":null}],"subjects":["Egypt -- History -- To 332 B.C. -- Fiction","German fiction -- Translations into English"],"bookshelves":["Historical Fiction"],"languages":["en"],"copyright":false,"media_type":"Text","formats":{"text/html":"https://www.gutenberg.org/ebooks/5455.html.images","application/epub+zip":"https://www.gutenberg.org/ebooks/5455.epub3.images","application/x-mobipocket-ebook":"https://www.gutenberg.org/ebooks/5455.kf8.images","text/plain; charset=us-ascii":"https://www.gutenberg.org/ebooks/5455.txt.utf-8","application/rdf+xml":"https://www.gutenberg.org/ebooks/5455.rdf","image/jpeg":"https://www.gutenberg.org/cache/epub/5455/pg5455.cover.medium.jpg","application/octet-stream":"https://www.gutenberg.org/cache/epub/5455/pg5455-h.zip"},"download_count":19},{"id":5533,"title":"A Thorny Path — Volume 04","authors":[{"name":"Ebers, Georg","birth_year":1837,"death_year":1898}],"translators":[{"name":"Bell, Clara","birth_year":1834,"death_year":1927}],"subjects":["Egypt -- History -- 30 B.C.-640 A.D. -- Fiction","German fiction -- Translations into English"],"bookshelves":[],"languages":["en"],"copyright":false,"media_type":"Text","formats":{"text/html":"https://www.gutenberg.org/ebooks/5533.html.images","application/epub+zip":"https://www.gutenberg.org/ebooks/5533.epub3.images","application/x-mobipocket-ebook":"https://www.gutenberg.org/ebooks/5533.kf8.images","text/plain; charset=us-ascii":"https://www.gutenberg.org/ebooks/5533.txt.utf-8","application/rdf+xml":"https://www.gutenberg.org/ebooks/5533.rdf","image/jpeg":"https://www.gutenberg.org/cache/epub/5533/pg5533.cover.medium.jpg","application/octet-stream":"https://www.gutenberg.org/cache/epub/5533/pg5533-h.zip"},"download_count":19},{"id":5562,"title":"Barbara Blomberg — Volume 02","authors":[{"name":"Ebers, Georg","birth_year":1837,"death_year":1898}],"translators":[{"name":"Safford, Mary J.","birth_year":null,"death_year":null}],"subjects":["German fiction -- Translations into English","Holy Roman Empire -- History -- Charles V, 1519-1556 -- Fiction"],"bookshelves":["Historical Fiction"],"languages":["en"],"copyright":false,"media_type":"Text","formats":{"text/html":"https://www.gutenberg.org/ebooks/5562.html.images","application/epub+zip":"https://www.gutenberg.org/ebooks/5562.epub3.images","application/x-mobipocket-ebook":"https://www.gutenberg.org/ebooks/5562.kf8.images","text/plain; charset=us-ascii":"https://www.gutenberg.org/ebooks/5562.txt.utf-8","application/rdf+xml":"https://www.gutenberg.org/ebooks/5562.rdf","image/jpeg":"https://www.gutenberg.org/cache/epub/5562/pg5562.cover.medium.jpg","application/octet-stream":"https://www.gutenberg.org/cache/epub/5562/pg5562-h.zip"},"download_count":19},{"id":5649,"title":"Sketches by Seymour — Volume 05","authors":[{"name":"Seymour, Robert","birth_year":1798,"death_year":1836}],"translators":[],"subjects":["Caricatures and cartoons -- Great Britain"],"bookshelves":[],"languages":["en"],"copyright":false,"media_type":"Text","formats":{"text/html":"https://www.gutenberg.org/ebooks/5649.html.images","application/epub+zip":"https://www.gutenberg.org/ebooks/5649.epub3.images","application/x-mobipocket-ebook":"https://www.gutenberg.org/ebooks/5649.kf8.images","text/plain; charset=us-ascii":"https://www.gutenberg.org/ebooks/5649.txt.utf-8","application/rdf+xml":"https://www.gutenberg.org/ebooks/5649.rdf","image/jpeg":"https://www.gutenberg.org/cache/epub/5649/pg5649.cover.medium.jpg","application/octet-stream":"https://www.gutenberg.org/cache/epub/5649/pg5649-h.zip"},"download_count":19},{"id":5751,"title":"St. George and St. Michael, Volume 2","authors":[{"name":"MacDonald, George","birth_year":1824,"death_year":1905}],"translators":[],"subjects":["Great Britain -- History -- Civil War, 1642-1649 -- Fiction"],"bookshelves":[],"languages":["en"],"copyright":false,"media_type":"Text","formats":{"text/html":"https://www.gutenberg.org/ebooks/5751.html.images","application/epub+zip":"https://www.gutenberg.org/ebooks/5751.epub3.images","application/x-mobipocket-ebook":"https://www.gutenberg.org/ebooks/5751.kf8.images","text/plain; charset=us-ascii":"https://www.gutenberg.org/ebooks/5751.txt.utf-8","application/rdf+xml":"https://www.gutenberg.org/ebooks/5751.rdf","image/jpeg":"https://www.gutenberg.org/cache/epub/5751/pg5751.cover.medium.jpg","application/octet-stream":"https://www.gutenberg.org/cache/epub/5751/pg5751-h.zip"},"download_count":19},{"id":5839,"title":"Sketches New and Old, Part 4.","authors":[{"name":"Twain, Mark","birth_year":1835,"death_year":1910}],"translators":[],"subjects":["Humorous stories, American","United States -- Social life and customs -- Fiction"],"bookshelves":[],"languages":["en"],"copyright":false,"media_type":"Text","formats":{"text/html":"https://www.gutenberg.org/ebooks/5839.html.images","text/html; charset=iso-8859-1":"https://www.gutenberg.org/files/5839/5839-h/5839-h.htm","application/epub+zip":"https://www.gutenberg.org/ebooks/5839.epub3.images","application/x-mobipocket-ebook":"https://www.gutenberg.org/ebooks/5839.kf8.images","text/plain; charset=us-ascii":"https://www.gutenberg.org/ebooks/5839.txt.utf-8","application/rdf+xml":"https://www.gutenberg.org/ebooks/5839.rdf","image/jpeg":"https://www.gutenberg.org/cache/epub/5839/pg5839.cover.medium.jpg","application/octet-stream":"https://www.gutenberg.org/cache/epub/5839/pg5839-h.zip"},"download_count":19},{"id":5864,"title":"Personal Memoirs of U. S. Grant, Part 5.","authors":[{"name":"Grant, Ulysses S. (Ulysses Simpson)","birth_year":1822,"death_year":1885}],"translators":[],"subjects":["Generals -- United States -- Biography","Grant, Ulysses S. (Ulysses Simpson), 1822-1885","Mexican War, 1846-1848 -- Personal narratives","United States -- History -- Civil War, 1861-1865 -- Campaigns","United States -- History -- Civil War, 1861-1865 -- Personal narratives","United States. Army -- Biography"],"bookshelves":["US Civil War"],"languages":["en"],"copyright":false,"media_type":"Text","formats":{"text/html":"https://www.gutenberg.org/ebooks/5864.html.images","text/html; charset=iso-8859-1":"https://www.gutenberg.org/files/5864/5864-h/5864-h.htm","application/epub+zip":"https://www.gutenberg.org/ebooks/5864.epub3.images","application/x-mobipocket-ebook":"https://www.gutenberg.org/ebooks/5864.kf8.images","text/plain; charset=us-ascii":"https://www.gutenberg.org/ebooks/5864.txt.utf-8","application/rdf+xml":"https://www.gutenberg.org/ebooks/5864.rdf","image/jpeg":"https://www.gutenberg.org/cache/epub/5864/pg5864.cover.medium.jpg","application/octet-stream":"https://www.gutenberg.org/cache/epub/5864/pg5864-h.zip"},"download_count":19},{"id":5882,"title":"A District Messenger Boy, and A Necktie Party","authors":[{"name":"Otis, James","birth_year":1848,"death_year":1912}],"translators":[],"subjects":["Adventure stories","Boys -- Juvenile fiction"],"bookshelves":[],"languages":["en"],"copyright":false,"media_type":"Text","formats":{"text/html":"https://www.gutenberg.org/ebooks/5882.html.images","application/epub+zip":"https://www.gutenberg.org/ebooks/5882.epub3.images","application/x-mobipocket-ebook":"https://www.gutenberg.org/ebooks/5882.kf8.images","text/plain; charset=us-ascii":"https://www.gutenberg.org/ebooks/5882.txt.utf-8","application/rdf+xml":"https://www.gutenberg.org/ebooks/5882.rdf","image/jpeg":"https://www.gutenberg.org/cache/epub/5882/pg5882.cover.medium.jpg","application/octet-stream":"https://www.gutenberg.org/cache/epub/5882/pg5882-h.zip"},"download_count":19},{"id":5939,"title":"The History of Don Quixote, Volume 2, Part 36","authors":[{"name":"Cervantes Saavedra, Miguel de","birth_year":1547,"death_year":1616}],"translators":[{"name":"Ormsby, John","birth_year":1829,"death_year":1895}],"subjects":["Knights and knighthood -- Spain -- Fiction","Picaresque literature","Romances","Spain -- Social life and customs -- 16th century -- Fiction"],"bookshelves":[],"languages":["en"],"copyright":false,"media_type":"Text","formats":{"text/html":"https://www.gutenberg.org/ebooks/5939.html.images","text/html; charset=iso-8859-1":"https://www.gutenberg.org/files/5939/5939-h/5939-h.htm","application/epub+zip":"https://www.gutenberg.org/ebooks/5939.epub3.images","application/x-mobipocket-ebook":"https://www.gutenberg.org/ebooks/5939.kf8.images","text/plain; charset=us-ascii":"https://www.gutenberg.org/ebooks/5939.txt.utf-8","application/rdf+xml":"https://www.gutenberg.org/ebooks/5939.rdf","image/jpeg":"https://www.gutenberg.org/cache/epub/5939/pg5939.cover.medium.jpg","application/octet-stream":"https://www.gutenberg.org/cache/epub/5939/pg5939-h.zip"},"download_count":19},{"id":5965,"title":"The Devolutionist and the Emancipatrix","authors":[{"name":"Flint, Homer Eon","birth_year":1888,"death_year":1924}],"translators":[],"subjects":["Life on other planets -- Fiction","Science fiction"],"bookshelves":["Science Fiction"],"languages":["en"],"copyright":false,"media_type":"Text","formats":{"text/html":"https://www.gutenberg.org/ebooks/5965.html.images","application/epub+zip":"https://www.gutenberg.org/ebooks/5965.epub3.images","application/x-mobipocket-ebook":"https://www.gutenberg.org/ebooks/5965.kf8.images","text/plain; charset=us-ascii":"https://www.gutenberg.org/ebooks/5965.txt.utf-8","application/rdf+xml":"https://www.gutenberg.org/ebooks/5965.rdf","image/jpeg":"https://www.gutenberg.org/cache/epub/5965/pg5965.cover.medium.jpg","application/octet-stream":"https://www.gutenberg.org/cache/epub/5965/pg5965-h.zip"},"download_count":19},{"id":5973,"title":"Thomas Wingfold, Curate V1","authors":[{"name":"MacDonald, George","birth_year":1824,"death_year":1905}],"translators":[],"subjects":["Christian fiction","Wingfold, Thomas (Fictitious character) -- Fiction"],"bookshelves":[],"languages":["en"],"copyright":false,"media_type":"Text","formats":{"text/html":"https://www.gutenberg.org/ebooks/5973.html.images","application/epub+zip":"https://www.gutenberg.org/ebooks/5973.epub3.images","application/x-mobipocket-ebook":"https://www.gutenberg.org/ebooks/5973.kf8.images","text/plain; charset=us-ascii":"https://www.gutenberg.org/ebooks/5973.txt.utf-8","text/plain; charset=iso-8859-1":"https://www.gutenberg.org/files/5973/5973-8.txt","application/rdf+xml":"https://www.gutenberg.org/ebooks/5973.rdf","image/jpeg":"https://www.gutenberg.org/cache/epub/5973/pg5973.cover.medium.jpg","application/octet-stream":"https://www.gutenberg.org/cache/epub/5973/pg5973-h.zip"},"download_count":19},{"id":5974,"title":"Thomas Wingfold, Curate V2","authors":[{"name":"MacDonald, George","birth_year":1824,"death_year":1905}],"translators":[],"subjects":["Christian fiction","Wingfold, Thomas (Fictitious character) -- Fiction"],"bookshelves":[],"languages":["en"],"copyright":false,"media_type":"Text","formats":{"text/html":"https://www.gutenberg.org/ebooks/5974.html.images","application/epub+zip":"https://www.gutenberg.org/ebooks/5974.epub3.images","application/x-mobipocket-ebook":"https://www.gutenberg.org/ebooks/5974.kf8.images","text/plain; charset=us-ascii":"https://www.gutenberg.org/ebooks/5974.txt.utf-8","application/rdf+xml":"https://www.gutenberg.org/ebooks/5974.rdf","image/jpeg":"https://www.gutenberg.org/cache/epub/5974/pg5974.cover.medium.jpg","application/octet-stream":"https://www.gutenberg.org/cache/epub/5974/pg5974-h.zip"},"download_count":19},{"id":6023,"title":"Catharine Furze","authors":[{"name":"White, William Hale","birth_year":1831,"death_year":1913}],"translators":[],"subjects":["Religious fiction"],"bookshelves":[],"languages":["en"],"copyright":false,"media_type":"Text","formats":{"text/html":"https://www.gutenberg.org/ebooks/6023.html.images","application/epub+zip":"https://www.gutenberg.org/ebooks/6023.epub3.images","application/x-mobipocket-ebook":"https://www.gutenberg.org/ebooks/6023.kf8.images","text/plain; charset=us-ascii":"https://www.gutenberg.org/ebooks/6023.txt.utf-8","application/rdf+xml":"https://www.gutenberg.org/ebooks/6023.rdf","image/jpeg":"https://www.gutenberg.org/cache/epub/6023/pg6023.cover.medium.jpg","application/octet-stream":"https://www.gutenberg.org/cache/epub/6023/pg6023-h.zip"},"download_count":19},{"id":6102,"title":"From Jest to Earnest","authors":[{"name":"Roe, Edward Payson","birth_year":1838,"death_year":1888}],"translators":[],"subjects":["Fiction"],"bookshelves":[],"languages":["en"],"copyright":false,"media_type":"Text","formats":{"text/html":"https://www.gutenberg.org/ebooks/6102.html.images","application/epub+zip":"https://www.gutenberg.org/ebooks/6102.epub3.images","application/x-mobipocket-ebook":"https://www.gutenberg.org/ebooks/6102.kf8.images","text/plain; charset=us-ascii":"https://www.gutenberg.org/ebooks/6102.txt.utf-8","application/rdf+xml":"https://www.gutenberg.org/ebooks/6102.rdf","image/jpeg":"https://www.gutenberg.org/cache/epub/6102/pg6102.cover.medium.jpg","application/octet-stream":"https://www.gutenberg.org/cache/epub/6102/pg6102-h.zip"},"download_count":19},{"id":6108,"title":"Boy Scouts in a Submarine; Or, Searching an Ocean Floor","authors":[{"name":"Ralphson, G. Harvey (George Harvey)","birth_year":1879,"death_year":1940}],"translators":[],"subjects":["Boy Scouts of America -- Juvenile fiction","Salvage -- Juvenile fiction","Submarines (Ships) -- Juvenile fiction","United States. Secret Service -- Juvenile fiction"],"bookshelves":["Children's Book Series"],"languages":["en"],"copyright":false,"media_type":"Text","formats":{"text/html":"https://www.gutenberg.org/ebooks/6108.html.images","application/epub+zip":"https://www.gutenberg.org/ebooks/6108.epub3.images","application/x-mobipocket-ebook":"https://www.gutenberg.org/ebooks/6108.kf8.images","text/plain; charset=us-ascii":"https://www.gutenberg.org/ebooks/6108.txt.utf-8","application/rdf+xml":"https://www.gutenberg.org/ebooks/6108.rdf","image/jpeg":"https://www.gutenberg.org/cache/epub/6108/pg6108.cover.medium.jpg","application/octet-stream":"https://www.gutenberg.org/cache/epub/6108/pg6108-h.zip"},"download_count":19},{"id":6152,"title":"Athens: Its Rise and Fall, Book II","authors":[{"name":"Lytton, Edward Bulwer Lytton, Baron","birth_year":1803,"death_year":1873}],"translators":[],"subjects":["Athens (Greece) -- History"],"bookshelves":[],"languages":["en"],"copyright":false,"media_type":"Text","formats":{"text/html":"https://www.gutenberg.org/ebooks/6152.html.images","application/epub+zip":"https://www.gutenberg.org/ebooks/6152.epub3.images","application/x-mobipocket-ebook":"https://www.gutenberg.org/ebooks/6152.kf8.images","text/plain; charset=us-ascii":"https://www.gutenberg.org/ebooks/6152.txt.utf-8","application/rdf+xml":"https://www.gutenberg.org/ebooks/6152.rdf","image/jpeg":"https://www.gutenberg.org/cache/epub/6152/pg6152.cover.medium.jpg","application/octet-stream":"https://www.gutenberg.org/cache/epub/6152/pg6152-h.zip"},"download_count":19},{"id":6177,"title":"Pierre and His People: Tales of the Far North. Volume 4.","authors":[{"name":"Parker, Gilbert","birth_year":1862,"death_year":1932}],"translators":[],"subjects":["Canada, Northern -- Fiction","Short stories, Canadian"],"bookshelves":[],"languages":["en"],"copyright":false,"media_type":"Text","formats":{"text/html":"https://www.gutenberg.org/ebooks/6177.html.images","application/epub+zip":"https://www.gutenberg.org/ebooks/6177.epub3.images","application/x-mobipocket-ebook":"https://www.gutenberg.org/ebooks/6177.kf8.images","text/plain; charset=us-ascii":"https://www.gutenberg.org/ebooks/6177.txt.utf-8","application/rdf+xml":"https://www.gutenberg.org/ebooks/6177.rdf","image/jpeg":"https://www.gutenberg.org/cache/epub/6177/pg6177.cover.medium.jpg","application/octet-stream":"https://www.gutenberg.org/cache/epub/6177/pg6177-h.zip"},"download_count":19},{"id":6186,"title":"Northern Lights, Volume 1.","authors":[{"name":"Parker, Gilbert","birth_year":1862,"death_year":1932}],"translators":[],"subjects":["Canada, Northern -- Fiction","Short stories, Canadian"],"bookshelves":[],"languages":["en"],"copyright":false,"media_type":"Text","formats":{"text/html":"https://www.gutenberg.org/ebooks/6186.html.images","application/epub+zip":"https://www.gutenberg.org/ebooks/6186.epub3.images","application/x-mobipocket-ebook":"https://www.gutenberg.org/ebooks/6186.kf8.images","text/plain; charset=us-ascii":"https://www.gutenberg.org/ebooks/6186.txt.utf-8","application/rdf+xml":"https://www.gutenberg.org/ebooks/6186.rdf","image/jpeg":"https://www.gutenberg.org/cache/epub/6186/pg6186.cover.medium.jpg","application/octet-stream":"https://www.gutenberg.org/cache/epub/6186/pg6186-h.zip"},"download_count":19},{"id":6190,"title":"Northern Lights, Volume 5.","authors":[{"name":"Parker, Gilbert","birth_year":1862,"death_year":1932}],"translators":[],"subjects":["Canada, Northern -- Fiction","Short stories, Canadian"],"bookshelves":[],"languages":["en"],"copyright":false,"media_type":"Text","formats":{"text/html":"https://www.gutenberg.org/ebooks/6190.html.images","application/epub+zip":"https://www.gutenberg.org/ebooks/6190.epub3.images","application/x-mobipocket-ebook":"https://www.gutenberg.org/ebooks/6190.kf8.images","text/plain; charset=us-ascii":"https://www.gutenberg.org/ebooks/6190.txt.utf-8","application/rdf+xml":"https://www.gutenberg.org/ebooks/6190.rdf","image/jpeg":"https://www.gutenberg.org/cache/epub/6190/pg6190.cover.medium.jpg","application/octet-stream":"https://www.gutenberg.org/cache/epub/6190/pg6190-h.zip"},"download_count":19},{"id":6198,"title":"Cumner's Son and Other South Sea Folk — Volume 04","authors":[{"name":"Parker, Gilbert","birth_year":1862,"death_year":1932}],"translators":[],"subjects":["Oceania -- Fiction"],"bookshelves":[],"languages":["en"],"copyright":false,"media_type":"Text","formats":{"text/html":"https://www.gutenberg.org/ebooks/6198.html.images","application/epub+zip":"https://www.gutenberg.org/ebooks/6198.epub3.images","application/x-mobipocket-ebook":"https://www.gutenberg.org/ebooks/6198.kf8.images","text/plain; charset=us-ascii":"https://www.gutenberg.org/ebooks/6198.txt.utf-8","application/rdf+xml":"https://www.gutenberg.org/ebooks/6198.rdf","image/jpeg":"https://www.gutenberg.org/cache/epub/6198/pg6198.cover.medium.jpg","application/octet-stream":"https://www.gutenberg.org/cache/epub/6198/pg6198-h.zip"},"download_count":19},{"id":6223,"title":"The March of the White Guard","authors":[{"name":"Parker, Gilbert","birth_year":1862,"death_year":1932}],"translators":[],"subjects":["Canadian fiction"],"bookshelves":[],"languages":["en"],"copyright":false,"media_type":"Text","formats":{"text/html":"https://www.gutenberg.org/ebooks/6223.html.images","text/html; charset=utf-8":"https://www.gutenberg.org/files/6223/6223-h/6223-h.htm","application/epub+zip":"https://www.gutenberg.org/ebooks/6223.epub3.images","application/x-mobipocket-ebook":"https://www.gutenberg.org/ebooks/6223.kf8.images","text/plain; charset=us-ascii":"https://www.gutenberg.org/ebooks/6223.txt.utf-8","text/plain; charset=utf-8":"https://www.gutenberg.org/files/6223/6223-0.txt","application/rdf+xml":"https://www.gutenberg.org/ebooks/6223.rdf","image/jpeg":"https://www.gutenberg.org/cache/epub/6223/pg6223.cover.medium.jpg","application/octet-stream":"https://www.gutenberg.org/cache/epub/6223/pg6223-h.zip"},"download_count":19},{"id":6245,"title":"The Right of Way — Volume 03","authors":[{"name":"Parker, Gilbert","birth_year":1862,"death_year":1932}],"translators":[],"subjects":["Canadian fiction"],"bookshelves":["Bestsellers, American, 1895-1923"],"languages":["en"],"copyright":false,"media_type":"Text","formats":{"text/html":"https://www.gutenberg.org/ebooks/6245.html.images","application/epub+zip":"https://www.gutenberg.org/ebooks/6245.epub3.images","application/x-mobipocket-ebook":"https://www.gutenberg.org/ebooks/6245.kf8.images","text/plain; charset=us-ascii":"https://www.gutenberg.org/ebooks/6245.txt.utf-8","application/rdf+xml":"https://www.gutenberg.org/ebooks/6245.rdf","image/jpeg":"https://www.gutenberg.org/cache/epub/6245/pg6245.cover.medium.jpg","application/octet-stream":"https://www.gutenberg.org/cache/epub/6245/pg6245-h.zip"},"download_count":19},{"id":6258,"title":"Donovan Pasha, and Some People of Egypt — Volume 3","authors":[{"name":"Parker, Gilbert","birth_year":1862,"death_year":1932}],"translators":[],"subjects":["Egypt -- Fiction","Short stories"],"bookshelves":[],"languages":["en"],"copyright":false,"media_type":"Text","formats":{"text/html":"https://www.gutenberg.org/ebooks/6258.html.images","application/epub+zip":"https://www.gutenberg.org/ebooks/6258.epub3.images","application/x-mobipocket-ebook":"https://www.gutenberg.org/ebooks/6258.kf8.images","text/plain; charset=us-ascii":"https://www.gutenberg.org/ebooks/6258.txt.utf-8","application/rdf+xml":"https://www.gutenberg.org/ebooks/6258.rdf","image/jpeg":"https://www.gutenberg.org/cache/epub/6258/pg6258.cover.medium.jpg","application/octet-stream":"https://www.gutenberg.org/cache/epub/6258/pg6258-h.zip"},"download_count":19},{"id":6286,"title":"You Never Know Your Luck; being the story of a matrimonial deserter. Volume 2.","authors":[{"name":"Parker, Gilbert","birth_year":1862,"death_year":1932}],"translators":[],"subjects":["Canadian fiction -- 20th century"],"bookshelves":[],"languages":["en"],"copyright":false,"media_type":"Text","formats":{"text/html":"https://www.gutenberg.org/ebooks/6286.html.images","application/epub+zip":"https://www.gutenberg.org/ebooks/6286.epub3.images","application/x-mobipocket-ebook":"https://www.gutenberg.org/ebooks/6286.kf8.images","text/plain; charset=us-ascii":"https://www.gutenberg.org/ebooks/6286.txt.utf-8","application/rdf+xml":"https://www.gutenberg.org/ebooks/6286.rdf","image/jpeg":"https://www.gutenberg.org/cache/epub/6286/pg6286.cover.medium.jpg","application/octet-stream":"https://www.gutenberg.org/cache/epub/6286/pg6286-h.zip"},"download_count":19},{"id":6289,"title":"Wild Youth, Volume 1.","authors":[{"name":"Parker, Gilbert","birth_year":1862,"death_year":1932}],"translators":[],"subjects":["Canadian fiction -- 20th century"],"bookshelves":[],"languages":["en"],"copyright":false,"media_type":"Text","formats":{"text/html":"https://www.gutenberg.org/ebooks/6289.html.images","application/epub+zip":"https://www.gutenberg.org/ebooks/6289.epub3.images","application/x-mobipocket-ebook":"https://www.gutenberg.org/ebooks/6289.kf8.images","text/plain; charset=us-ascii":"https://www.gutenberg.org/ebooks/6289.txt.utf-8","application/rdf+xml":"https://www.gutenberg.org/ebooks/6289.rdf","image/jpeg":"https://www.gutenberg.org/cache/epub/6289/pg6289.cover.medium.jpg","application/octet-stream":"https://www.gutenberg.org/cache/epub/6289/pg6289-h.zip"},"download_count":19},{"id":6303,"title":"The Duel Between France and Germany","authors":[{"name":"Sumner, Charles","birth_year":1811,"death_year":1874}],"translators":[],"subjects":["Franco-Prussian War, 1870-1871"],"bookshelves":["Germany"],"languages":["en"],"copyright":false,"media_type":"Text","formats":{"text/html":"https://www.gutenberg.org/ebooks/6303.html.images","application/epub+zip":"https://www.gutenberg.org/ebooks/6303.epub3.images","application/x-mobipocket-ebook":"https://www.gutenberg.org/ebooks/6303.kf8.images","text/plain; charset=us-ascii":"https://www.gutenberg.org/ebooks/6303.txt.utf-8","application/rdf+xml":"https://www.gutenberg.org/ebooks/6303.rdf","image/jpeg":"https://www.gutenberg.org/cache/epub/6303/pg6303.cover.medium.jpg","application/octet-stream":"https://www.gutenberg.org/cache/epub/6303/pg6303-h.zip"},"download_count":19},{"id":6432,"title":"Betty Wales, Sophomore: A Story for Girls","authors":[{"name":"Dunton, Edith K. (Edith Kellogg)","birth_year":1875,"death_year":1944}],"translators":[],"subjects":["Friendship -- Juvenile fiction","Universities and colleges -- Juvenile fiction","Wales, Betty (Fictitious character) -- Juvenile fiction","Women college students -- Juvenile fiction"],"bookshelves":[],"languages":["en"],"copyright":false,"media_type":"Text","formats":{"text/html":"https://www.gutenberg.org/ebooks/6432.html.images","application/epub+zip":"https://www.gutenberg.org/ebooks/6432.epub3.images","application/x-mobipocket-ebook":"https://www.gutenberg.org/ebooks/6432.kf8.images","text/plain; charset=us-ascii":"https://www.gutenberg.org/ebooks/6432.txt.utf-8","application/rdf+xml":"https://www.gutenberg.org/ebooks/6432.rdf","image/jpeg":"https://www.gutenberg.org/cache/epub/6432/pg6432.cover.medium.jpg","application/octet-stream":"https://www.gutenberg.org/cache/epub/6432/pg6432-h.zip"},"download_count":19},{"id":6443,"title":"The Wagner Story Book: Firelight Tales of the Great Music Dramas","authors":[{"name":"Frost, William Henry","birth_year":1863,"death_year":1902}],"translators":[],"subjects":["Operas -- Stories, plots, etc.","Wagner, Richard, 1813-1883 -- Stories, plots, etc."],"bookshelves":[],"languages":["en"],"copyright":false,"media_type":"Text","formats":{"text/html":"https://www.gutenberg.org/ebooks/6443.html.images","application/epub+zip":"https://www.gutenberg.org/ebooks/6443.epub3.images","application/x-mobipocket-ebook":"https://www.gutenberg.org/ebooks/6443.kf8.images","text/plain; charset=us-ascii":"https://www.gutenberg.org/ebooks/6443.txt.utf-8","application/rdf+xml":"https://www.gutenberg.org/ebooks/6443.rdf","image/jpeg":"https://www.gutenberg.org/cache/epub/6443/pg6443.cover.medium.jpg","application/octet-stream":"https://www.gutenberg.org/cache/epub/6443/pg6443-h.zip"},"download_count":19}]}