{"count":58808,"next":"http://129.241.150.113:8000/books/?languages=en&page=1771","previous":"http://129.241.150.113:8000/books/?languages=en&page=1769","results":[{"id":6209,"title":"The Trail of the Sword, Volume 4","authors":[{"name":"Parker, Gilbert","birth_year":1862,"death_year":1932}],"translators":[],"subjects":["Canada -- History -- To 1763 (New France) -- Fiction"],"bookshelves":[],"languages":["en"],"copyright":false,"media_type":"Text","formats":{"text/html":"https://www.gutenberg.org/ebooks/6209.html.images","application/epub+zip":"https://www.gutenberg.org/ebooks/6209.epub3.images","application/x-mobipocket-ebook":"https://www.gutenberg.org/ebooks/6209.kf8.images","text/plain; charset=us-ascii":"https://www.gutenberg.org/ebooks/6209.txt.utf-8","application/rdf+xml":"https://www.gutenberg.org/ebooks/6209.rdf","image/jpeg":"https://www.gutenberg.org/cache/epub/6209/pg6209.cover.medium.jpg","application/octet-stream":"https://www.gutenberg.org/cache/epub/6209/pg6209-h.zip"},"download_count":14},{"id":6228,"title":"The Seats of the Mighty, Volume 5","authors":[{"name":"Parker, Gilbert","birth_year":1862,"death_year":1932}],"translators":[],"subjects":["Canada -- History -- To 1763 (New France) -- Fiction","United States -- History -- French and Indian War, 1754-1763 -- Fiction"],"bookshelves":["Bestsellers, American, 1895-1923"],"languages":["en"],"copyright":false,"media_type":"Text","formats":{"text/html":"https://www.gutenberg.org/ebooks/6228.html.images","application/epub+zip":"https://www.gutenberg.org/ebooks/6228.epub3.images","application/x-mobipocket-ebook":"https://www.gutenberg.org/ebooks/6228.kf8.images","text/plain; charset=us-ascii":"https://www.gutenberg.org/ebooks/6228.txt.utf-8","application/rdf+xml":"https://www.gutenberg.org/ebooks/6228.rdf","image/jpeg":"https://www.gutenberg.org/cache/epub/6228/pg6228.cover.medium.jpg","application/octet-stream":"https://www.gutenberg.org/cache/epub/6228/pg6228-h.zip"},"download_count":14},{"id":6348,"title":"Copyright Renewals 1953","authors":[{"name":"Library of Congress. Copyright Office","birth_year":null,"death_year":null}],"translators":[],"subjects":["Copyright -- United States -- Catalogs"],"bookshelves":[],"languages":["en"],"copyright":false,"media_type":"Text","formats":{"text/html":"https://www.gutenberg.org/ebooks/6348.html.images","application/epub+zip":"https://www.gutenberg.org/ebooks/6348.epub3.images","application/x-mobipocket-ebook":"https://www.gutenberg.org/ebooks/6348.kf8.images","text/plain; charset=us-ascii":"https://www.gutenberg.org/ebooks/6348.txt.utf-8","application/rdf+xml":"https://www.gutenberg.org/ebooks/6348.rdf","image/jpeg":"https://www.gutenberg.org/cache/epub/6348/pg6348.cover.medium.jpg","application/octet-stream":"https://www.gutenberg.org/cache/epub/6348/pg6348-h.zip"},"download_count":14},{"id":6419,"title":"Copyright Renewals 1959","authors":[{"name":"Library of Congress. Copyright Office","birth_year":null,"death_year":null}],"translators":[],"subjects":["Copyright -- United States -- Catalogs"],"bookshelves":[],"languages":["en"],"copyright":false,"media_type":"Text","formats":{"text/html":"https://www.gutenberg.org/ebooks/6419.html.images","application/epub+zip":"https://www.gutenberg.org/ebooks/6419.epub3.images","application/x-mobipocket-ebook":"https://www.gutenberg.org/ebooks/6419.kf8.images","text/plain; charset=us-ascii":"https://www.gutenberg.org/ebooks/6419.txt.utf-8","application/rdf+xml":"https://www.gutenberg.org/ebooks/6419.rdf","image/jpeg":"https://www.gutenberg.org/cache/epub/6419/pg6419.cover.medium.jpg","application/octet-stream":"https://www.gutenberg.org/cache/epub/6419/pg6419-h.zip"},"download_count":14},{"id":6452,"title":"Right Royal","authors":[{"name":"Masefield, John","birth_year":1878,"death_year":1967}],"translators":[],"subjects":["Poetry"],"bookshelves":[],"languages":["en"],"copyright":false,"media_type":"Text","formats":{"text/html":"https://www.gutenberg.org/ebooks/6452.html.images","application/epub+zip":"https://www.gutenberg.org/ebooks/6452.epub3.images","application/x-mobipocket-ebook":"https://www.gutenberg.org/ebooks/6452.kf8.images","text/plain; charset=us-ascii":"https://www.gutenberg.org/ebooks/6452.txt.utf-8","application/rdf+xml":"https://www.gutenberg.org/ebooks/6452.rdf","image/jpeg":"https://www.gutenberg.org/cache/epub/6452/pg6452.cover.medium.jpg","application/octet-stream":"https://www.gutenberg.org/cache/epub/6452/pg6452-h.zip"},"download_count":14},{"id":6584,"title":"Princess Polly's Gay Winter","authors":[{"name":"Brooks, Amy","birth_year":null,"death_year":null}],"translators":[],"subjects":["Elementary schools -- Juvenile fiction","Friendship -- Juvenile fiction","Girls -- Juvenile fiction","Students -- Juvenile fiction"],"bookshelves":["Children's Book Series"],"languages":["en"],"copyright":false,"media_type":"Text","formats":{"text/html":"https://www.gutenberg.org/ebooks/6584.html.images","application/epub+zip":"https://www.gutenberg.org/ebooks/6584.epub3.images","application/x-mobipocket-ebook":"https://www.gutenberg.org/ebooks/6584.kf8.images","text/plain; charset=us-ascii":"https://www.gutenberg.org/ebooks/6584.txt.utf-8","application/rdf+xml":"https://www.gutenberg.org/ebooks/6584.rdf","image/jpeg":"https://www.gutenberg.org/cache/epub/6584/pg6584.cover.medium.jpg","application/octet-stream":"https://www.gutenberg.org/cache/epub/6584/pg6584-h.zip"},"download_count":14},{"id":6601,"title":"Verses and Rhymes By the Way","authors":[{"name":"Norah","birth_year":1826,"death_year":1898}],"translators":[],"subjects":["Canadian poetry -- 19th century"],"bookshelves":[],"languages":["en"],"copyright":false,"media_type":"Text","formats":{"text/html":"https://www.gutenberg.org/ebooks/6601.html.images","application/epub+zip":"https://www.gutenberg.org/ebooks/6601.epub3.images","application/x-mobipocket-ebook":"https://www.gutenberg.org/ebooks/6601.kf8.images","text/plain; charset=us-ascii":"https://www.gutenberg.org/ebooks/6601.txt.utf-8","application/rdf+xml":"https://www.gutenberg.org/ebooks/6601.rdf","image/jpeg":"https://www.gutenberg.org/cache/epub/6601/pg6601.cover.medium.jpg","application/octet-stream":"https://www.gutenberg.org/cache/epub/6601/pg6601-h.zip"},"download_count":14},{"id":6607,"title":"Myths and Legends of Our Own Land — Volume 02 : the Isle of Manhattoes and nearby","authors":[{"name":"Skinner, Charles M. (Charles Montgomery)","birth_year":1852,"death_year":1907}],"translators":[],"subjects":["Folklore -- United States"],"bookshelves":[],"languages":["en"],"copyright":false,"media_type":"Text","formats":{"text/html":"https://www.gutenberg.org/ebooks/6607.html.images","application/epub+zip":"https://www.gutenberg.org/ebooks/6607.epub3.images","application/x-mobipocket-ebook":"https://www.gutenberg.org/ebooks/6607.kf8.images","text/plain; charset=us-ascii":"https://www.gutenberg.org/ebooks/6607.txt.utf-8","application/rdf+xml":"https://www.gutenberg.org/ebooks/6607.rdf","image/jpeg":"https://www.gutenberg.org/cache/epub/6607/pg6607.cover.medium.jpg","application/octet-stream":"https://www.gutenberg.org/cache/epub/6607/pg6607-h.zip"},"download_count":14},{"id":6899,"title":"The Children's Pilgrimage","authors":[{"name":"Meade, L. T.","birth_year":1854,"death_year":1914}],"translators":[],"subjects":["Family life -- Juvenile fiction","Voyages and travels -- Juvenile fiction"],"bookshelves":["Children's Fiction"],"languages":["en"],"copyright":false,"media_type":"Text","formats":{"text/html":"https://www.gutenberg.org/ebooks/6899.html.images","text/html; charset=iso-8859-1":"https://www.gutenberg.org/files/6899/6899-h/6899-h.htm","application/epub+zip":"https://www.gutenberg.org/ebooks/6899.epub3.images","application/x-mobipocket-ebook":"https://www.gutenberg.org/ebooks/6899.kf8.images","text/plain; charset=us-ascii":"https://www.gutenberg.org/ebooks/6899.txt.utf-8","application/rdf+xml":"https://www.gutenberg.org/ebooks/6899.rdf","image/jpeg":"https://www.gutenberg.org/cache/epub/6899/pg6899.cover.medium.jpg","application/octet-stream":"https://www.gutenberg.org/cache/epub/6899/pg6899-h.zip"},"download_count":14},{"id":6945,"title":"Marguerite Verne; Or, Scenes from Canadian Life","authors":[{"name":"Armour, Rebecca Agatha","birth_year":1845,"death_year":1891}],"translators":[],"subjects":["New Brunswick -- Social life and customs -- 19th century -- Fiction","Young women -- Fiction"],"bookshelves":[],"languages":["en"],"copyright":false,"media_type":"Text","formats":{"text/html":"https://www.gutenberg.org/ebooks/6945.html.images","application/epub+zip":"https://www.gutenberg.org/ebooks/6945.epub3.images","application/x-mobipocket-ebook":"https://www.gutenberg.org/ebooks/6945.kf8.images","text/plain; charset=us-ascii":"https://www.gutenberg.org/ebooks/6945.txt.utf-8","application/rdf+xml":"https://www.gutenberg.org/ebooks/6945.rdf","image/jpeg":"https://www.gutenberg.org/cache/epub/6945/pg6945.cover.medium.jpg","application/octet-stream":"https://www.gutenberg.org/cache/epub/6945/pg6945-h.zip"},"download_count":14},{"id":6956,"title":"In Divers Tones","authors":[{"name":"Roberts, Charles G. D., Sir","birth_year":1860,"death_year":1943}],"translators":[],"subjects":["Poetry"],"bookshelves":[],"languages":["en"],"copyright":false,"media_type":"Text","formats":{"text/html":"https://www.gutenberg.org/ebooks/6956.html.images","application/epub+zip":"https://www.gutenberg.org/ebooks/6956.epub3.images","application/x-mobipocket-ebook":"https://www.gutenberg.org/ebooks/6956.kf8.images","text/plain; charset=us-ascii":"https://www.gutenberg.org/ebooks/6956.txt.utf-8","text/plain; charset=iso-8859-1":"https://www.gutenberg.org/files/6956/6956.txt","application/rdf+xml":"https://www.gutenberg.org/ebooks/6956.rdf","image/jpeg":"https://www.gutenberg.org/cache/epub/6956/pg6956.cover.medium.jpg","application/octet-stream":"https://www.gutenberg.org/cache/epub/6956/pg6956-h.zip"},"download_count":14},{"id":7192,"title":"Charles Philip Yorke, Fourth Earl of Hardwicke, Vice-Admiral R.N. — a Memoir","authors":[{"name":"Biddulph, Elizabeth Philippa, Baroness","birth_year":1834,"death_year":1916}],"translators":[],"subjects":["Hardwicke, Charles Philip Yorke, Earl of, 1799-1873"],"bookshelves":[],"languages":["en"],"copyright":false,"media_type":"Text","formats":{"text/html":"https://www.gutenberg.org/ebooks/7192.html.images","application/epub+zip":"https://www.gutenberg.org/ebooks/7192.epub3.images","application/x-mobipocket-ebook":"https://www.gutenberg.org/ebooks/7192.kf8.images","text/plain; charset=us-ascii":"https://www.gutenberg.org/ebooks/7192.txt.utf-8","text/plain; charset=utf-8":"https://www.gutenberg.org/files/7192/7192-0.txt","application/rdf+xml":"https://www.gutenberg.org/ebooks/7192.rdf","image/jpeg":"https://www.gutenberg.org/cache/epub/7192/pg7192.cover.medium.jpg","application/octet-stream":"https://www.gutenberg.org/cache/epub/7192/pg7192-h.zip"},"download_count":14},{"id":7246,"title":"A Connecticut Yankee in King Arthur's Court, Part 5.","authors":[{"name":"Twain, Mark","birth_year":1835,"death_year":1910}],"translators":[],"subjects":["Americans -- Great Britain -- Fiction","Arthurian romances -- Adaptations","Britons -- Fiction","Fantasy fiction","Kings and rulers -- Fiction","Knights and knighthood -- Fiction","Satire","Time travel -- Fiction"],"bookshelves":["Precursors of Science Fiction"],"languages":["en"],"copyright":false,"media_type":"Text","formats":{"text/html":"https://www.gutenberg.org/ebooks/7246.html.images","text/html; charset=iso-8859-1":"https://www.gutenberg.org/files/7246/7246-h/7246-h.htm","application/epub+zip":"https://www.gutenberg.org/ebooks/7246.epub3.images","application/x-mobipocket-ebook":"https://www.gutenberg.org/ebooks/7246.kf8.images","text/plain; charset=us-ascii":"https://www.gutenberg.org/ebooks/7246.txt.utf-8","application/rdf+xml":"https://www.gutenberg.org/ebooks/7246.rdf","image/jpeg":"https://www.gutenberg.org/cache/epub/7246/pg7246.cover.medium.jpg","application/octet-stream":"https://www.gutenberg.org/cache/epub/7246/pg7246-h.zip"},"download_count":14},{"id":7574,"title":"Widger's Quotes and Images from Cinq Mars by Alfred de Vigny: The French Immortals: Quotes and Images","authors":[{"name":"Vigny, Alfred de","birth_year":1797,"death_year":1863}],"translators":[],"subjects":["Quotations, French -- Translations into English"],"bookshelves":[],"languages":["en"],"copyright":false,"media_type":"Text","formats":{"text/html":"https://www.gutenberg.org/ebooks/7574.html.images","text/html; charset=us-ascii":"https://www.gutenberg.org/files/7574/7574-h/7574-h.htm","application/epub+zip":"https://www.gutenberg.org/ebooks/7574.epub3.images","application/x-mobipocket-ebook":"https://www.gutenberg.org/ebooks/7574.kf8.images","text/plain; charset=us-ascii":"https://www.gutenberg.org/ebooks/7574.txt.utf-8","application/rdf+xml":"https://www.gutenberg.org/ebooks/7574.rdf","image/jpeg":"https://www.gutenberg.org/cache/epub/7574/pg7574.cover.medium.jpg","application/octet-stream":"https://www.gutenberg.org/cache/epub/7574/pg7574-h.zip"},"download_count":14},{"id":7577,"title":"Widger's Quotes and Images from The Red Lily by Anatole France: The French Immortals: Quotes and Images","authors":[{"name":"France, Anatole","birth_year":1844,"death_year":1924}],"translators":[],"subjects":["Quotations, French -- Translations into English"],"bookshelves":[],"languages":["en"],"copyright":false,"media_type":"Text","formats":{"text/html":"https://www.gutenberg.org/ebooks/7577.html.images","text/html; charset=us-ascii":"https://www.gutenberg.org/files/7577/7577-h/7577-h.htm","application/epub+zip":"https://www.gutenberg.org/ebooks/7577.epub3.images","application/x-mobipocket-ebook":"https://www.gutenberg.org/ebooks/7577.kf8.images","text/plain; charset=us-ascii":"https://www.gutenberg.org/ebooks/7577.txt.utf-8","application/rdf+xml":"https://www.gutenberg.org/ebooks/7577.rdf","image/jpeg":"https://www.gutenberg.org/cache/epub/7577/pg7577.cover.medium.jpg","application/octet-stream":"https://www.gutenberg.org/cache/epub/7577/pg7577-h.zip"},"download_count":14},{"id":7597,"title":"The Caxtons: A Family Picture — Volume 12","authors":[{"name":"Lytton, Edward Bulwer Lytton, Baron","birth_year":1803,"death_year":1873}],"translators":[],"subjects":["English fiction -- 19th century","Families -- Fiction"],"bookshelves":[],"languages":["en"],"copyright":false,"media_type":"Text","formats":{"text/html":"https://www.gutenberg.org/ebooks/7597.html.images","application/epub+zip":"https://www.gutenberg.org/ebooks/7597.epub3.images","application/x-mobipocket-ebook":"https://www.gutenberg.org/ebooks/7597.kf8.images","text/plain; charset=us-ascii":"https://www.gutenberg.org/ebooks/7597.txt.utf-8","application/rdf+xml":"https://www.gutenberg.org/ebooks/7597.rdf","image/jpeg":"https://www.gutenberg.org/cache/epub/7597/pg7597.cover.medium.jpg","application/octet-stream":"https://www.gutenberg.org/cache/epub/7597/pg7597-h.zip"},"download_count":14},{"id":7609,"title":"Eugene Aram — Volume 01","authors":[{"name":"Lytton, Edward Bulwer Lytton, Baron","birth_year":1803,"death_year":1873}],"translators":[],"subjects":["Aram, Eugene, 1704-1759 -- Fiction"],"bookshelves":[],"languages":["en"],"copyright":false,"media_type":"Text","formats":{"text/html":"https://www.gutenberg.org/ebooks/7609.html.images","application/epub+zip":"https://www.gutenberg.org/ebooks/7609.epub3.images","application/x-mobipocket-ebook":"https://www.gutenberg.org/ebooks/7609.kf8.images","text/plain; charset=us-ascii":"https://www.gutenberg.org/ebooks/7609.txt.utf-8","application/rdf+xml":"https://www.gutenberg.org/ebooks/7609.rdf","image/jpeg":"https://www.gutenberg.org/cache/epub/7609/pg7609.cover.medium.jpg","application/octet-stream":"https://www.gutenberg.org/cache/epub/7609/pg7609-h.zip"},"download_count":14},{"id":7613,"title":"Eugene Aram — Volume 05","authors":[{"name":"Lytton, Edward Bulwer Lytton, Baron","birth_year":1803,"death_year":1873}],"translators":[],"subjects":["Aram, Eugene, 1704-1759 -- Fiction"],"bookshelves":[],"languages":["en"],"copyright":false,"media_type":"Text","formats":{"text/html":"https://www.gutenberg.org/ebooks/7613.html.images","application/epub+zip":"https://www.gutenberg.org/ebooks/7613.epub3.images","application/x-mobipocket-ebook":"https://www.gutenberg.org/ebooks/7613.kf8.images","text/plain; charset=us-ascii":"https://www.gutenberg.org/ebooks/7613.txt.utf-8","application/rdf+xml":"https://www.gutenberg.org/ebooks/7613.rdf","image/jpeg":"https://www.gutenberg.org/cache/epub/7613/pg7613.cover.medium.jpg","application/octet-stream":"https://www.gutenberg.org/cache/epub/7613/pg7613-h.zip"},"download_count":14},{"id":7616,"title":"Pelham — Volume 02","authors":[{"name":"Lytton, Edward Bulwer Lytton, Baron","birth_year":1803,"death_year":1873}],"translators":[],"subjects":["Adventure stories","English fiction -- 19th century","Great Britain -- History -- 19th century -- Fiction"],"bookshelves":[],"languages":["en"],"copyright":false,"media_type":"Text","formats":{"text/html":"https://www.gutenberg.org/ebooks/7616.html.images","application/epub+zip":"https://www.gutenberg.org/ebooks/7616.epub3.images","application/x-mobipocket-ebook":"https://www.gutenberg.org/ebooks/7616.kf8.images","text/plain; charset=us-ascii":"https://www.gutenberg.org/ebooks/7616.txt.utf-8","application/rdf+xml":"https://www.gutenberg.org/ebooks/7616.rdf","image/jpeg":"https://www.gutenberg.org/cache/epub/7616/pg7616.cover.medium.jpg","application/octet-stream":"https://www.gutenberg.org/cache/epub/7616/pg7616-h.zip"},"download_count":14},{"id":7643,"title":"Ernest Maltravers — Volume 04","authors":[{"name":"Lytton, Edward Bulwer Lytton, Baron","birth_year":1803,"death_year":1873}],"translators":[],"subjects":["English fiction -- 19th century"],"bookshelves":[],"languages":["en"],"copyright":false,"media_type":"Text","formats":{"text/html":"https://www.gutenberg.org/ebooks/7643.html.images","application/epub+zip":"https://www.gutenberg.org/ebooks/7643.epub3.images","application/x-mobipocket-ebook":"https://www.gutenberg.org/ebooks/7643.kf8.images","text/plain; charset=us-ascii":"https://www.gutenberg.org/ebooks/7643.txt.utf-8","application/rdf+xml":"https://www.gutenberg.org/ebooks/7643.rdf","image/jpeg":"https://www.gutenberg.org/cache/epub/7643/pg7643.cover.medium.jpg","application/octet-stream":"https://www.gutenberg.org/cache/epub/7643/pg7643-h.zip"},"download_count":14},{"id":7665,"title":"What Will He Do with It? — Volume 07","authors":[{"name":"Lytton, Edward Bulwer Lytton, Baron","birth_year":1803,"death_year":1873}],"translators":[],"subjects":["English fiction -- 19th century"],"bookshelves":[],"languages":["en"],"copyright":false,"media_type":"Text","formats":{"text/html":"https://www.gutenberg.org/ebooks/7665.html.images","application/epub+zip":"https://www.gutenberg.org/ebooks/7665.epub3.images","application/x-mobipocket-ebook":"https://www.gutenberg.org/ebooks/7665.kf8.images","text/plain; charset=us-ascii":"https://www.gutenberg.org/ebooks/7665.txt.utf-8","application/rdf+xml":"https://www.gutenberg.org/ebooks/7665.rdf","image/jpeg":"https://www.gutenberg.org/cache/epub/7665/pg7665.cover.medium.jpg","application/octet-stream":"https://www.gutenberg.org/cache/epub/7665/pg7665-h.zip"},"download_count":14},{"id":7681,"title":"Harold : the Last of the Saxon Kings — Volume 10","authors":[{"name":"Lytton, Edward Bulwer Lytton, Baron","birth_year":1803,"death_year":1873}],"translators":[],"subjects":["Anglo-Saxons -- Kings and rulers -- Fiction","Biographical fiction","Great Britain -- History -- Edward, the Confessor, 1042-1066 -- Fiction","Great Britain -- Kings and rulers -- Fiction","Harold, King of England, 1022?-1066 -- Fiction","William I, King of England, 1027 or 8-1087 -- Fiction"],"bookshelves":["Historical Fiction"],"languages":["en"],"copyright":false,"media_type":"Text","formats":{"text/html":"https://www.gutenberg.org/ebooks/7681.html.images","application/epub+zip":"https://www.gutenberg.org/ebooks/7681.epub3.images","application/x-mobipocket-ebook":"https://www.gutenberg.org/ebooks/7681.kf8.images","text/plain; charset=us-ascii":"https://www.gutenberg.org/ebooks/7681.txt.utf-8","application/rdf+xml":"https://www.gutenberg.org/ebooks/7681.rdf","image/jpeg":"https://www.gutenberg.org/cache/epub/7681/pg7681.cover.medium.jpg","application/octet-stream":"https://www.gutenberg.org/cache/epub/7681/pg7681-h.zip"},"download_count":14},{"id":7702,"title":"\"My Novel\" — Volume 01","authors":[{"name":"Lytton, Edward Bulwer Lytton, Baron","birth_year":1803,"death_year":1873}],"translators":[],"subjects":["Death -- Fiction","Domestic fiction","England -- Fiction","Germany -- Fiction","Inventors -- Fiction","Poets -- Fiction","Rhine River -- Fiction"],"bookshelves":[],"languages":["en"],"copyright":false,"media_type":"Text","formats":{"text/html":"https://www.gutenberg.org/ebooks/7702.html.images","application/epub+zip":"https://www.gutenberg.org/ebooks/7702.epub3.images","application/x-mobipocket-ebook":"https://www.gutenberg.org/ebooks/7702.kf8.images","text/plain; charset=us-ascii":"https://www.gutenberg.org/ebooks/7702.txt.utf-8","application/rdf+xml":"https://www.gutenberg.org/ebooks/7702.rdf","image/jpeg":"https://www.gutenberg.org/cache/epub/7702/pg7702.cover.medium.jpg","application/octet-stream":"https://www.gutenberg.org/cache/epub/7702/pg7702-h.zip"},"download_count":14},{"id":7704,"title":"\"My Novel\" — Volume 03","authors":[{"name":"Lytton, Edward Bulwer Lytton, Baron","birth_year":1803,"death_year":1873}],"translators":[],"subjects":["Death -- Fiction","Domestic fiction","England -- Fiction","Germany -- Fiction","Inventors -- Fiction","Poets -- Fiction","Rhine River -- Fiction"],"bookshelves":[],"languages":["en"],"copyright":false,"media_type":"Text","formats":{"text/html":"https://www.gutenberg.org/ebooks/7704.html.images","application/epub+zip":"https://www.gutenberg.org/ebooks/7704.epub3.images","application/x-mobipocket-ebook":"https://www.gutenberg.org/ebooks/7704.kf8.images","text/plain; charset=us-ascii":"https://www.gutenberg.org/ebooks/7704.txt.utf-8","application/rdf+xml":"https://www.gutenberg.org/ebooks/7704.rdf","image/jpeg":"https://www.gutenberg.org/cache/epub/7704/pg7704.cover.medium.jpg","application/octet-stream":"https://www.gutenberg.org/cache/epub/7704/pg7704-h.zip"},"download_count":14},{"id":8012,"title":"The Bible, King James version, Book 12: 2 Kings","authors":[{"name":"Anonymous","birth_year":null,"death_year":null}],"translators":[],"subjects":["Bible. Kings, 2nd"],"bookshelves":["Judaism"],"languages":["en"],"copyright":false,"media_type":"Text","formats":{"text/html":"https://www.gutenberg.org/ebooks/8012.html.images","application/epub+zip":"https://www.gutenberg.org/ebooks/8012.epub3.images","application/x-mobipocket-ebook":"https://www.gutenberg.org/ebooks/8012.kf8.images","text/plain; charset=us-ascii":"https://www.gutenberg.org/ebooks/8012.txt.utf-8","application/rdf+xml":"https://www.gutenberg.org/ebooks/8012.rdf","image/jpeg":"https://www.gutenberg.org/cache/epub/8012/pg8012.cover.medium.jpg","application/octet-stream":"https://www.gutenberg.org/cache/epub/8012/pg8012-h.zip"},"download_count":14},{"id":8028,"title":"The Bible, King James version, Book 28: Hosea","authors":[{"name":"Anonymous","birth_year":null,"death_year":null}],"translators":[],"subjects":["Bible. Hosea"],"bookshelves":["Judaism"],"languages":["en"],"copyright":false,"media_type":"Text","formats":{"text/html":"https://www.gutenberg.org/ebooks/8028.html.images","application/epub+zip":"https://www.gutenberg.org/ebooks/8028.epub3.images","application/x-mobipocket-ebook":"https://www.gutenberg.org/ebooks/8028.kf8.images","text/plain; charset=us-ascii":"https://www.gutenberg.org/ebooks/8028.txt.utf-8","application/rdf+xml":"https://www.gutenberg.org/ebooks/8028.rdf","image/jpeg":"https://www.gutenberg.org/cache/epub/8028/pg8028.cover.medium.jpg","application/octet-stream":"https://www.gutenberg.org/cache/epub/8028/pg8028-h.zip"},"download_count":14},{"id":8039,"title":"The Bible, King James version, Book 39: Malachi","authors":[{"name":"Anonymous","birth_year":null,"death_year":null}],"translators":[],"subjects":["Bible. Malachi"],"bookshelves":["Judaism"],"languages":["en"],"copyright":false,"media_type":"Text","formats":{"text/html":"https://www.gutenberg.org/ebooks/8039.html.images","application/epub+zip":"https://www.gutenberg.org/ebooks/8039.epub3.images","application/x-mobipocket-ebook":"https://www.gutenberg.org/ebooks/8039.kf8.images","text/plain; charset=us-ascii":"https://www.gutenberg.org/ebooks/8039.txt.utf-8","application/rdf+xml":"https://www.gutenberg.org/ebooks/8039.rdf","image/jpeg":"https://www.gutenberg.org/cache/epub/8039/pg8039.cover.medium.jpg","application/octet-stream":"https://www.gutenberg.org/cache/epub/8039/pg8039-h.zip"},"download_count":14},{"id":8063,"title":"The Bible, King James version, Book 63: 2 John","authors":[{"name":"Anonymous","birth_year":null,"death_year":null}],"translators":[],"subjects":["Bible. Epistle of John, 2nd"],"bookshelves":[],"languages":["en"],"copyright":false,"media_type":"Text","formats":{"text/html":"https://www.gutenberg.org/ebooks/8063.html.images","application/epub+zip":"https://www.gutenberg.org/ebooks/8063.epub3.images","application/x-mobipocket-ebook":"https://www.gutenberg.org/ebooks/8063.kf8.images","text/plain; charset=us-ascii":"https://www.gutenberg.org/ebooks/8063.txt.utf-8","application/rdf+xml":"https://www.gutenberg.org/ebooks/8063.rdf","image/jpeg":"https://www.gutenberg.org/cache/epub/8063/pg8063.cover.medium.jpg","application/octet-stream":"https://www.gutenberg.org/cache/epub/8063/pg8063-h.zip"},"download_count":14},{"id":8065,"title":"The Bible, King James version, Book 65: Jude","authors":[{"name":"Anonymous","birth_year":null,"death_year":null}],"translators":[],"subjects":["Bible. Jude"],"bookshelves":[],"languages":["en"],"copyright":false,"media_type":"Text","formats":{"text/html":"https://www.gutenberg.org/ebooks/8065.html.images","application/epub+zip":"https://www.gutenberg.org/ebooks/8065.epub3.images","application/x-mobipocket-ebook":"https://www.gutenberg.org/ebooks/8065.kf8.images","text/plain; charset=us-ascii":"https://www.gutenberg.org/ebooks/8065.txt.utf-8","application/rdf+xml":"https://www.gutenberg.org/ebooks/8065.rdf","image/jpeg":"https://www.gutenberg.org/cache/epub/8065/pg8065.cover.medium.jpg","application/octet-stream":"https://www.gutenberg.org/cache/epub/8065/pg8065-h.zip"},"download_count":14},{"id":8110,"title":"Lincoln Letters","authors":[{"name":"Lincoln, Abraham","birth_year":1809,"death_year":1865}],"translators":[],"subjects":["Lincoln, Abraham, 1809-1865 -- Correspondence"],"bookshelves":["US Civil War"],"languages":["en"],"copyright":false,"media_type":"Text","formats":{"text/html":"https://www.gutenberg.org/ebooks/8110.html.images","text/html; charset=us-ascii":"https://www.gutenberg.org/files/8110/8110-h/8110-h.htm","application/epub+zip":"https://www.gutenberg.org/ebooks/8110.epub3.images","application/x-mobipocket-ebook":"https://www.gutenberg.org/ebooks/8110.kf8.images","text/plain; charset=us-ascii":"https://www.gutenberg.org/ebooks/8110.txt.utf-8","application/rdf+xml":"https://www.gutenberg.org/ebooks/8110.rdf","image/jpeg":"https://www.gutenberg.org/cache/epub/8110/pg8110.cover.medium.jpg","application/octet-stream":"https://www.gutenberg.org/cache/epub/8110/pg8110-h.zip"},"download_count":14},{"id":8229,"title":"The World English Bible (WEB): Exodus","authors":[{"name":"Anonymous","birth_year":null,"death_year":null}],"translators":[],"subjects":["Bible. Exodus"],"bookshelves":[],"languages":["en"],"copyright":false,"media_type":"Text","formats":{"text/html":"https://www.gutenberg.org/ebooks/8229.html.images","application/epub+zip":"https://www.gutenberg.org/ebooks/8229.epub3.images","application/x-mobipocket-ebook":"https://www.gutenberg.org/ebooks/8229.kf8.images","text/plain; charset=us-ascii":"https://www.gutenberg.org/ebooks/8229.txt.utf-8","application/rdf+xml":"https://www.gutenberg.org/ebooks/8229.rdf","image/jpeg":"https://www.gutenberg.org/cache/epub/8229/pg8229.cover.medium.jpg","application/octet-stream":"https://www.gutenberg.org/cache/epub/8229/pg8229-h.zip"},"download_count":14},{"id":8232,"title":"The World English Bible (WEB): Deuteronomy","authors":[{"name":"Anonymous","birth_year":null,"death_year":null}],"translators":[],"subjects":["Bible. Deuteronomy"],"bookshelves":[],"languages":["en"],"copyright":false,"media_type":"Text","formats":{"text/html":"https://www.gutenberg.org/ebooks/8232.html.images","application/epub+zip":"https://www.gutenberg.org/ebooks/8232.epub3.images","application/x-mobipocket-ebook":"https://www.gutenberg.org/ebooks/8232.kf8.images","text/plain; charset=us-ascii":"https://www.gutenberg.org/ebooks/8232.txt.utf-8","application/rdf+xml":"https://www.gutenberg.org/ebooks/8232.rdf","image/jpeg":"https://www.gutenberg.org/cache/epub/8232/pg8232.cover.medium.jpg","application/octet-stream":"https://www.gutenberg.org/cache/epub/8232/pg8232-h.zip"},"download_count":14}]}