{"count":58808,"next":"http://129.241.150.113:8000/books/?languages=en&page=1644","previous":"http://129.241.150.113:8000/books/?languages=en&page=1642","results":[{"id":68309,"title":"Address of President Roosevelt at Chautauqua, New York, August 11, 1905","authors":[{"name":"Roosevelt, Theodore","birth_year":1858,"death_year":1919}],"translators":[],"subjects":["Corporation law -- United States","Finance -- Dominican Republic","Monroe doctrine","Speeches, addresses, etc."],"bookshelves":[],"languages":["en"],"copyright":false,"media_type":"Text","formats":{"text/html":"https://www.gutenberg.org/ebooks/68309.html.images","application/epub+zip":"https://www.gutenberg.org/ebooks/68309.epub3.images","application/x-mobipocket-ebook":"https://www.gutenberg.org/ebooks/68309.kf8.images","text/plain; charset=us-ascii":"https://www.gutenberg.org/ebooks/68309.txt.utf-8","application/rdf+xml":"https://www.gutenberg.org/ebooks/68309.rdf","image/jpeg":"https://www.gutenberg.org/cache/epub/68309/pg68309.cover.medium.jpg","application/octet-stream":"https://www.gutenberg.org/files/68309/68309-0.zip"},"download_count":20},{"id":68345,"title":"On the Anzac trail: Being extracts from the diary of a New Zealand sapper","authors":[{"name":"Anzac","birth_year":null,"death_year":null}],"translators":[],"subjects":["World War, 1914-1918 -- Personal narratives, New Zealand"],"bookshelves":[],"languages":["en"],"copyright":false,"media_type":"Text","formats":{"text/html":"https://www.gutenberg.org/ebooks/68345.html.images","application/epub+zip":"https://www.gutenberg.org/ebooks/68345.epub3.images","application/x-mobipocket-ebook":"https://www.gutenberg.org/ebooks/68345.kf8.images","text/plain; charset=us-ascii":"https://www.gutenberg.org/ebooks/68345.txt.utf-8","application/rdf+xml":"https://www.gutenberg.org/ebooks/68345.rdf","image/jpeg":"https://www.gutenberg.org/cache/epub/68345/pg68345.cover.medium.jpg","application/octet-stream":"https://www.gutenberg.org/files/68345/68345-0.zip"},"download_count":20},{"id":68384,"title":"The Philistine : $b a periodical of protest (Vol. I, No. 4, September 1895)","authors":[{"name":"Various","birth_year":null,"death_year":null}],"translators":[],"subjects":["American literature -- Periodicals","American periodicals","Society of the Philistines (East Aurora, N.Y.) -- Periodicals"],"bookshelves":[],"languages":["en"],"copyright":false,"media_type":"Text","formats":{"text/html":"https://www.gutenberg.org/ebooks/68384.html.images","application/epub+zip":"https://www.gutenberg.org/ebooks/68384.epub3.images","application/x-mobipocket-ebook":"https://www.gutenberg.org/ebooks/68384.kf8.images","text/plain; charset=us-ascii":"https://www.gutenberg.org/ebooks/68384.txt.utf-8","application/rdf+xml":"https://www.gutenberg.org/ebooks/68384.rdf","image/jpeg":"https://www.gutenberg.org/cache/epub/68384/pg68384.cover.medium.jpg","application/octet-stream":"https://www.gutenberg.org/files/68384/68384-0.zip"},"download_count":20},{"id":68392,"title":"Reminiscences of the Civil War, 1861-1865","authors":[{"name":"Ledford, Preston Lafayette","birth_year":1837,"death_year":1922}],"translators":[],"subjects":["Confederate States of America. Army. North Carolina Infantry Regiment, 14th (1861 Nov.-1865)","United States -- History -- Civil War, 1861-1865 -- Personal narratives, Confederate"],"bookshelves":[],"languages":["en"],"copyright":false,"media_type":"Text","formats":{"text/html":"https://www.gutenberg.org/ebooks/68392.html.images","application/epub+zip":"https://www.gutenberg.org/ebooks/68392.epub3.images","application/x-mobipocket-ebook":"https://www.gutenberg.org/ebooks/68392.kf8.images","text/plain; charset=us-ascii":"https://www.gutenberg.org/ebooks/68392.txt.utf-8","application/rdf+xml":"https://www.gutenberg.org/ebooks/68392.rdf","image/jpeg":"https://www.gutenberg.org/cache/epub/68392/pg68392.cover.medium.jpg","application/octet-stream":"https://www.gutenberg.org/files/68392/68392-0.zip"},"download_count":20},{"id":68517,"title":"Auld lang syne","authors":[{"name":"Müller, F. Max (Friedrich Max)","birth_year":1823,"death_year":1900}],"translators":[],"subjects":["Müller, F. Max (Friedrich Max), 1823-1900"],"bookshelves":[],"languages":["en"],"copyright":false,"media_type":"Text","formats":{"text/html":"https://www.gutenberg.org/ebooks/68517.html.images","application/epub+zip":"https://www.gutenberg.org/ebooks/68517.epub3.images","application/x-mobipocket-ebook":"https://www.gutenberg.org/ebooks/68517.kf8.images","text/plain; charset=us-ascii":"https://www.gutenberg.org/ebooks/68517.txt.utf-8","application/rdf+xml":"https://www.gutenberg.org/ebooks/68517.rdf","image/jpeg":"https://www.gutenberg.org/cache/epub/68517/pg68517.cover.medium.jpg","application/octet-stream":"https://www.gutenberg.org/files/68517/68517-0.zip"},"download_count":20},{"id":68559,"title":"Sequel","authors":[{"name":"Smith, Ben","birth_year":null,"death_year":null}],"translators":[],"subjects":["Engineers -- Fiction","Mutiny -- Fiction","Science fiction","Short stories","Space ships -- Fiction"],"bookshelves":[],"languages":["en"],"copyright":false,"media_type":"Text","formats":{"text/html":"https://www.gutenberg.org/ebooks/68559.html.images","application/epub+zip":"https://www.gutenberg.org/ebooks/68559.epub3.images","application/x-mobipocket-ebook":"https://www.gutenberg.org/ebooks/68559.kf8.images","text/plain; charset=us-ascii":"https://www.gutenberg.org/ebooks/68559.txt.utf-8","application/rdf+xml":"https://www.gutenberg.org/ebooks/68559.rdf","image/jpeg":"https://www.gutenberg.org/cache/epub/68559/pg68559.cover.medium.jpg","application/octet-stream":"https://www.gutenberg.org/files/68559/68559-0.zip"},"download_count":20},{"id":68564,"title":"Barrier beaches of the Atlantic coast","authors":[{"name":"Merrill, Frederick J. H. (Frederick James Hamilton)","birth_year":1861,"death_year":1916}],"translators":[],"subjects":["Barrier islands","Beaches -- New Jersey"],"bookshelves":[],"languages":["en"],"copyright":false,"media_type":"Text","formats":{"text/html":"https://www.gutenberg.org/ebooks/68564.html.images","application/epub+zip":"https://www.gutenberg.org/ebooks/68564.epub3.images","application/x-mobipocket-ebook":"https://www.gutenberg.org/ebooks/68564.kf8.images","text/plain; charset=us-ascii":"https://www.gutenberg.org/ebooks/68564.txt.utf-8","application/rdf+xml":"https://www.gutenberg.org/ebooks/68564.rdf","image/jpeg":"https://www.gutenberg.org/cache/epub/68564/pg68564.cover.medium.jpg","application/octet-stream":"https://www.gutenberg.org/files/68564/68564-0.zip"},"download_count":20},{"id":68579,"title":"A spray of lilac, and other poems and songs","authors":[{"name":"Hedderwick-Browne, M. (Marie)","birth_year":null,"death_year":null}],"translators":[],"subjects":["English poetry -- 19th century"],"bookshelves":[],"languages":["en"],"copyright":false,"media_type":"Text","formats":{"text/html":"https://www.gutenberg.org/ebooks/68579.html.images","application/epub+zip":"https://www.gutenberg.org/ebooks/68579.epub3.images","application/x-mobipocket-ebook":"https://www.gutenberg.org/ebooks/68579.kf8.images","text/plain; charset=us-ascii":"https://www.gutenberg.org/ebooks/68579.txt.utf-8","application/rdf+xml":"https://www.gutenberg.org/ebooks/68579.rdf","image/jpeg":"https://www.gutenberg.org/cache/epub/68579/pg68579.cover.medium.jpg","application/octet-stream":"https://www.gutenberg.org/files/68579/68579-0.zip"},"download_count":20},{"id":68605,"title":"A corner in corn; or, How a Chicago boy did the trick","authors":[{"name":"Self-made man","birth_year":1853,"death_year":1915}],"translators":[],"subjects":["Chicago (Ill.) -- Fiction","Dime novels","Success -- Fiction"],"bookshelves":[],"languages":["en"],"copyright":false,"media_type":"Text","formats":{"text/html":"https://www.gutenberg.org/ebooks/68605.html.images","application/epub+zip":"https://www.gutenberg.org/ebooks/68605.epub3.images","application/x-mobipocket-ebook":"https://www.gutenberg.org/ebooks/68605.kf8.images","text/plain; charset=us-ascii":"https://www.gutenberg.org/ebooks/68605.txt.utf-8","application/rdf+xml":"https://www.gutenberg.org/ebooks/68605.rdf","image/jpeg":"https://www.gutenberg.org/cache/epub/68605/pg68605.cover.medium.jpg","application/octet-stream":"https://www.gutenberg.org/files/68605/68605-0.zip"},"download_count":20},{"id":68683,"title":"American literary masters","authors":[{"name":"Vincent, Leon H. (Leon Henry)","birth_year":1859,"death_year":1941}],"translators":[],"subjects":["American literature -- History and criticism","Authors, American"],"bookshelves":[],"languages":["en"],"copyright":false,"media_type":"Text","formats":{"text/html":"https://www.gutenberg.org/ebooks/68683.html.images","application/epub+zip":"https://www.gutenberg.org/ebooks/68683.epub3.images","application/x-mobipocket-ebook":"https://www.gutenberg.org/ebooks/68683.kf8.images","text/plain; charset=us-ascii":"https://www.gutenberg.org/ebooks/68683.txt.utf-8","application/rdf+xml":"https://www.gutenberg.org/ebooks/68683.rdf","image/jpeg":"https://www.gutenberg.org/cache/epub/68683/pg68683.cover.medium.jpg","application/octet-stream":"https://www.gutenberg.org/files/68683/68683-0.zip"},"download_count":20},{"id":68709,"title":"The buccaneer book: Songs of the black flag","authors":[{"name":"Noble, Alden Charles","birth_year":1880,"death_year":1942}],"translators":[],"subjects":["Buccaneers -- Poetry"],"bookshelves":[],"languages":["en"],"copyright":false,"media_type":"Text","formats":{"text/html":"https://www.gutenberg.org/ebooks/68709.html.images","application/epub+zip":"https://www.gutenberg.org/ebooks/68709.epub3.images","application/x-mobipocket-ebook":"https://www.gutenberg.org/ebooks/68709.kf8.images","text/plain; charset=us-ascii":"https://www.gutenberg.org/ebooks/68709.txt.utf-8","application/rdf+xml":"https://www.gutenberg.org/ebooks/68709.rdf","image/jpeg":"https://www.gutenberg.org/cache/epub/68709/pg68709.cover.medium.jpg","application/octet-stream":"https://www.gutenberg.org/files/68709/68709-0.zip"},"download_count":20},{"id":68805,"title":"Water and power for San Francisco from Hetch-Hetchy Valley in Yosemite National Park","authors":[{"name":"Vilas, Martin Samuel","birth_year":1870,"death_year":1953}],"translators":[],"subjects":["Hetch Hetchy Valley (Calif.)","Water-supply -- California -- San Francisco"],"bookshelves":[],"languages":["en"],"copyright":false,"media_type":"Text","formats":{"text/html":"https://www.gutenberg.org/ebooks/68805.html.images","application/epub+zip":"https://www.gutenberg.org/ebooks/68805.epub3.images","application/x-mobipocket-ebook":"https://www.gutenberg.org/ebooks/68805.kf8.images","text/plain; charset=us-ascii":"https://www.gutenberg.org/ebooks/68805.txt.utf-8","application/rdf+xml":"https://www.gutenberg.org/ebooks/68805.rdf","image/jpeg":"https://www.gutenberg.org/cache/epub/68805/pg68805.cover.medium.jpg","application/octet-stream":"https://www.gutenberg.org/files/68805/68805-0.zip"},"download_count":20},{"id":68837,"title":"Elsie Lindtner: A sequel to \"The Dangerous Age\"","authors":[{"name":"Michaëlis, Karin","birth_year":1872,"death_year":1950}],"translators":[{"name":"Marshall, Beatrice","birth_year":1861,"death_year":1944}],"subjects":["Adoptive parents -- Fiction","Epistolary fiction","Middle-aged women -- Fiction"],"bookshelves":[],"languages":["en"],"copyright":false,"media_type":"Text","formats":{"text/html":"https://www.gutenberg.org/ebooks/68837.html.images","application/epub+zip":"https://www.gutenberg.org/ebooks/68837.epub3.images","application/x-mobipocket-ebook":"https://www.gutenberg.org/ebooks/68837.kf8.images","text/plain; charset=us-ascii":"https://www.gutenberg.org/ebooks/68837.txt.utf-8","application/rdf+xml":"https://www.gutenberg.org/ebooks/68837.rdf","image/jpeg":"https://www.gutenberg.org/cache/epub/68837/pg68837.cover.medium.jpg","application/octet-stream":"https://www.gutenberg.org/files/68837/68837-0.zip"},"download_count":20},{"id":68847,"title":"The hollow lens","authors":[{"name":"Leverage, Henry","birth_year":1885,"death_year":1931}],"translators":[],"subjects":["California -- Fiction","Criminals -- Fiction","Fay, Chester (Fictitious character) -- Fiction","Safes -- Fiction","Short stories"],"bookshelves":[],"languages":["en"],"copyright":false,"media_type":"Text","formats":{"text/html":"https://www.gutenberg.org/ebooks/68847.html.images","application/epub+zip":"https://www.gutenberg.org/ebooks/68847.epub3.images","application/x-mobipocket-ebook":"https://www.gutenberg.org/ebooks/68847.kf8.images","text/plain; charset=us-ascii":"https://www.gutenberg.org/ebooks/68847.txt.utf-8","application/rdf+xml":"https://www.gutenberg.org/ebooks/68847.rdf","image/jpeg":"https://www.gutenberg.org/cache/epub/68847/pg68847.cover.medium.jpg","application/octet-stream":"https://www.gutenberg.org/files/68847/68847-0.zip"},"download_count":20},{"id":68899,"title":"Sparrow the tramp: A fable for children","authors":[{"name":"Wesselhoeft, Lily F.","birth_year":1840,"death_year":1919}],"translators":[],"subjects":["Cats -- Juvenile fiction","Children -- Conduct of life -- Juvenile fiction","Children's stories","Conduct of life -- Juvenile fiction","Families -- Juvenile fiction","Human-animal relationships -- Juvenile fiction","Parrots -- Juvenile fiction","Pets -- Juvenile fiction","Rats -- Juvenile fiction","Siblings -- Juvenile fiction","Sparrows -- Juvenile fiction","Theft -- Juvenile fiction"],"bookshelves":[],"languages":["en"],"copyright":false,"media_type":"Text","formats":{"text/html":"https://www.gutenberg.org/ebooks/68899.html.images","application/epub+zip":"https://www.gutenberg.org/ebooks/68899.epub3.images","application/x-mobipocket-ebook":"https://www.gutenberg.org/ebooks/68899.kf8.images","text/plain; charset=us-ascii":"https://www.gutenberg.org/ebooks/68899.txt.utf-8","application/rdf+xml":"https://www.gutenberg.org/ebooks/68899.rdf","image/jpeg":"https://www.gutenberg.org/cache/epub/68899/pg68899.cover.medium.jpg","application/octet-stream":"https://www.gutenberg.org/files/68899/68899-0.zip"},"download_count":20},{"id":69014,"title":"The prey of the strongest","authors":[{"name":"Roberts, Morley","birth_year":1857,"death_year":1942}],"translators":[],"subjects":["British Columbia -- Fiction","Man-woman relationships -- Fiction","Revenge -- Fiction","Sawmills -- Fiction"],"bookshelves":[],"languages":["en"],"copyright":false,"media_type":"Text","formats":{"text/html":"https://www.gutenberg.org/ebooks/69014.html.images","application/epub+zip":"https://www.gutenberg.org/ebooks/69014.epub3.images","application/x-mobipocket-ebook":"https://www.gutenberg.org/ebooks/69014.kf8.images","text/plain; charset=us-ascii":"https://www.gutenberg.org/ebooks/69014.txt.utf-8","application/rdf+xml":"https://www.gutenberg.org/ebooks/69014.rdf","image/jpeg":"https://www.gutenberg.org/cache/epub/69014/pg69014.cover.medium.jpg","application/octet-stream":"https://www.gutenberg.org/files/69014/69014-0.zip"},"download_count":20},{"id":69021,"title":"Women and economic evolution: or, The effects of industrial changes upon the status of women","authors":[{"name":"McMahon, Theresa Schmid","birth_year":1878,"death_year":1961}],"translators":[],"subjects":["Thesis (Ph. D.)","Women -- Employment","Women -- Social and moral questions","Women -- Social conditions"],"bookshelves":[],"languages":["en"],"copyright":false,"media_type":"Text","formats":{"text/html":"https://www.gutenberg.org/ebooks/69021.html.images","application/epub+zip":"https://www.gutenberg.org/ebooks/69021.epub3.images","application/x-mobipocket-ebook":"https://www.gutenberg.org/ebooks/69021.kf8.images","text/plain; charset=us-ascii":"https://www.gutenberg.org/ebooks/69021.txt.utf-8","application/rdf+xml":"https://www.gutenberg.org/ebooks/69021.rdf","image/jpeg":"https://www.gutenberg.org/cache/epub/69021/pg69021.cover.medium.jpg","application/octet-stream":"https://www.gutenberg.org/files/69021/69021-0.zip"},"download_count":20},{"id":69030,"title":"The girl in the crowd","authors":[{"name":"Terhune, Albert Payson","birth_year":1872,"death_year":1942}],"translators":[],"subjects":["Eavesdropping -- Fiction","Man-woman relationships -- Fiction","New York (N.Y.) -- Fiction","Short stories","Telephone operators -- Fiction","Triangles (Interpersonal relations) -- Fiction","Young women -- Fiction"],"bookshelves":[],"languages":["en"],"copyright":false,"media_type":"Text","formats":{"text/html":"https://www.gutenberg.org/ebooks/69030.html.images","application/epub+zip":"https://www.gutenberg.org/ebooks/69030.epub3.images","application/x-mobipocket-ebook":"https://www.gutenberg.org/ebooks/69030.kf8.images","text/plain; charset=us-ascii":"https://www.gutenberg.org/ebooks/69030.txt.utf-8","application/rdf+xml":"https://www.gutenberg.org/ebooks/69030.rdf","image/jpeg":"https://www.gutenberg.org/cache/epub/69030/pg69030.cover.medium.jpg","application/octet-stream":"https://www.gutenberg.org/files/69030/69030-0.zip"},"download_count":20},{"id":69141,"title":"On adipocire, and its formation","authors":[{"name":"Wetherill, Charles Mayer","birth_year":1825,"death_year":1871}],"translators":[],"subjects":["Adipocere","Fatty acids","Postmortem changes"],"bookshelves":[],"languages":["en"],"copyright":false,"media_type":"Text","formats":{"text/html":"https://www.gutenberg.org/ebooks/69141.html.images","application/epub+zip":"https://www.gutenberg.org/ebooks/69141.epub3.images","application/x-mobipocket-ebook":"https://www.gutenberg.org/ebooks/69141.kf8.images","text/plain; charset=us-ascii":"https://www.gutenberg.org/ebooks/69141.txt.utf-8","application/rdf+xml":"https://www.gutenberg.org/ebooks/69141.rdf","image/jpeg":"https://www.gutenberg.org/cache/epub/69141/pg69141.cover.medium.jpg","application/octet-stream":"https://www.gutenberg.org/files/69141/69141-0.zip"},"download_count":20},{"id":69152,"title":"A journal containing an accurate and interesting account of the hardships, sufferings, battles, defeat, and captivity of those heroic Kentucky volunteers and regulars, commanded by General Winchester, in the year 1812-13: Also, two narratives, by men that were wounded in the battles on the River Raisin, and taken captive by the Indians","authors":[{"name":"Darnell, Elias","birth_year":null,"death_year":1861}],"translators":[],"subjects":["Kentucky. Militia","United States -- History -- War of 1812 -- Personal narratives"],"bookshelves":[],"languages":["en"],"copyright":false,"media_type":"Text","formats":{"text/html":"https://www.gutenberg.org/ebooks/69152.html.images","application/epub+zip":"https://www.gutenberg.org/ebooks/69152.epub3.images","application/x-mobipocket-ebook":"https://www.gutenberg.org/ebooks/69152.kf8.images","text/plain; charset=us-ascii":"https://www.gutenberg.org/ebooks/69152.txt.utf-8","application/rdf+xml":"https://www.gutenberg.org/ebooks/69152.rdf","image/jpeg":"https://www.gutenberg.org/cache/epub/69152/pg69152.cover.medium.jpg","application/octet-stream":"https://www.gutenberg.org/files/69152/69152-0.zip"},"download_count":20},{"id":69193,"title":"Children of destiny","authors":[{"name":"Seawell, Molly Elliot","birth_year":1860,"death_year":1916}],"translators":[],"subjects":["Historical fiction","Rich people -- Fiction","Virginia -- Social life and customs -- 19th century -- Fiction"],"bookshelves":[],"languages":["en"],"copyright":false,"media_type":"Text","formats":{"text/html":"https://www.gutenberg.org/ebooks/69193.html.images","application/epub+zip":"https://www.gutenberg.org/ebooks/69193.epub3.images","application/x-mobipocket-ebook":"https://www.gutenberg.org/ebooks/69193.kf8.images","text/plain; charset=us-ascii":"https://www.gutenberg.org/ebooks/69193.txt.utf-8","application/rdf+xml":"https://www.gutenberg.org/ebooks/69193.rdf","image/jpeg":"https://www.gutenberg.org/cache/epub/69193/pg69193.cover.medium.jpg","application/octet-stream":"https://www.gutenberg.org/files/69193/69193-0.zip"},"download_count":20},{"id":69246,"title":"\"Broken Music\"","authors":[{"name":"Bottome, Phyllis","birth_year":1882,"death_year":1963}],"translators":[],"subjects":["Musicians -- Fiction","Paris (France) -- Fiction","Young men -- Fiction"],"bookshelves":[],"languages":["en"],"copyright":false,"media_type":"Text","formats":{"text/html":"https://www.gutenberg.org/ebooks/69246.html.images","application/epub+zip":"https://www.gutenberg.org/ebooks/69246.epub3.images","application/x-mobipocket-ebook":"https://www.gutenberg.org/ebooks/69246.kf8.images","text/plain; charset=us-ascii":"https://www.gutenberg.org/ebooks/69246.txt.utf-8","application/rdf+xml":"https://www.gutenberg.org/ebooks/69246.rdf","image/jpeg":"https://www.gutenberg.org/cache/epub/69246/pg69246.cover.medium.jpg","application/octet-stream":"https://www.gutenberg.org/files/69246/69246-0.zip"},"download_count":20},{"id":69373,"title":"The ragged edge: A tale of ward life & politics","authors":[{"name":"McIntyre, John T. (John Thomas)","birth_year":1871,"death_year":1951}],"translators":[],"subjects":["Political fiction","United States -- Social life and customs -- Fiction"],"bookshelves":[],"languages":["en"],"copyright":false,"media_type":"Text","formats":{"text/html":"https://www.gutenberg.org/ebooks/69373.html.images","application/epub+zip":"https://www.gutenberg.org/ebooks/69373.epub3.images","application/x-mobipocket-ebook":"https://www.gutenberg.org/ebooks/69373.kf8.images","text/plain; charset=us-ascii":"https://www.gutenberg.org/ebooks/69373.txt.utf-8","application/rdf+xml":"https://www.gutenberg.org/ebooks/69373.rdf","image/jpeg":"https://www.gutenberg.org/cache/epub/69373/pg69373.cover.medium.jpg","application/octet-stream":"https://www.gutenberg.org/files/69373/69373-0.zip"},"download_count":20},{"id":69430,"title":"Madame Margot: A grotesque legend of old Charleston","authors":[{"name":"Bennett, John","birth_year":1865,"death_year":1956}],"translators":[],"subjects":["Charleston (S.C.) -- Fiction","Fantasy fiction","Happiness -- Fiction","Mothers and daughters -- Fiction","Soul -- Fiction"],"bookshelves":[],"languages":["en"],"copyright":false,"media_type":"Text","formats":{"text/html":"https://www.gutenberg.org/ebooks/69430.html.images","application/epub+zip":"https://www.gutenberg.org/ebooks/69430.epub3.images","application/x-mobipocket-ebook":"https://www.gutenberg.org/ebooks/69430.kf8.images","text/plain; charset=us-ascii":"https://www.gutenberg.org/ebooks/69430.txt.utf-8","application/rdf+xml":"https://www.gutenberg.org/ebooks/69430.rdf","image/jpeg":"https://www.gutenberg.org/cache/epub/69430/pg69430.cover.medium.jpg","application/octet-stream":"https://www.gutenberg.org/files/69430/69430-0.zip"},"download_count":20},{"id":69532,"title":"What luck! A study in opposites","authors":[{"name":"Brown, Abbie Farwell","birth_year":1871,"death_year":1927}],"translators":[],"subjects":["Massachusetts Eye and Ear Infirmary -- Juvenile fiction","Sick children -- Juvenile fiction"],"bookshelves":[],"languages":["en"],"copyright":false,"media_type":"Text","formats":{"text/html":"https://www.gutenberg.org/ebooks/69532.html.images","application/epub+zip":"https://www.gutenberg.org/ebooks/69532.epub3.images","application/x-mobipocket-ebook":"https://www.gutenberg.org/ebooks/69532.kf8.images","text/plain; charset=us-ascii":"https://www.gutenberg.org/ebooks/69532.txt.utf-8","application/rdf+xml":"https://www.gutenberg.org/ebooks/69532.rdf","image/jpeg":"https://www.gutenberg.org/cache/epub/69532/pg69532.cover.medium.jpg","application/octet-stream":"https://www.gutenberg.org/files/69532/69532-0.zip"},"download_count":20},{"id":69554,"title":"The boy explorers in darkest New Guinea","authors":[{"name":"Miller, Warren H. (Warren Hastings)","birth_year":1876,"death_year":1960}],"translators":[],"subjects":["New Guinea -- Juvenile fiction"],"bookshelves":[],"languages":["en"],"copyright":false,"media_type":"Text","formats":{"text/html":"https://www.gutenberg.org/ebooks/69554.html.images","application/epub+zip":"https://www.gutenberg.org/ebooks/69554.epub3.images","application/x-mobipocket-ebook":"https://www.gutenberg.org/ebooks/69554.kf8.images","text/plain; charset=us-ascii":"https://www.gutenberg.org/ebooks/69554.txt.utf-8","application/rdf+xml":"https://www.gutenberg.org/ebooks/69554.rdf","image/jpeg":"https://www.gutenberg.org/cache/epub/69554/pg69554.cover.medium.jpg","application/octet-stream":"https://www.gutenberg.org/files/69554/69554-0.zip"},"download_count":20},{"id":69563,"title":"Everyday birds: Elementary studies","authors":[{"name":"Torrey, Bradford","birth_year":1843,"death_year":1912}],"translators":[],"subjects":["Birds -- Popular works"],"bookshelves":[],"languages":["en"],"copyright":false,"media_type":"Text","formats":{"text/html":"https://www.gutenberg.org/ebooks/69563.html.images","application/epub+zip":"https://www.gutenberg.org/ebooks/69563.epub3.images","application/x-mobipocket-ebook":"https://www.gutenberg.org/ebooks/69563.kf8.images","text/plain; charset=us-ascii":"https://www.gutenberg.org/ebooks/69563.txt.utf-8","application/rdf+xml":"https://www.gutenberg.org/ebooks/69563.rdf","image/jpeg":"https://www.gutenberg.org/cache/epub/69563/pg69563.cover.medium.jpg","application/octet-stream":"https://www.gutenberg.org/files/69563/69563-0.zip"},"download_count":20},{"id":69569,"title":"The wooing of Leola","authors":[{"name":"Miller, Alex. McVeigh, Mrs.","birth_year":1850,"death_year":1937}],"translators":[],"subjects":["Dime novels","Romance fiction"],"bookshelves":[],"languages":["en"],"copyright":false,"media_type":"Text","formats":{"text/html":"https://www.gutenberg.org/ebooks/69569.html.images","application/epub+zip":"https://www.gutenberg.org/ebooks/69569.epub3.images","application/x-mobipocket-ebook":"https://www.gutenberg.org/ebooks/69569.kf8.images","text/plain; charset=us-ascii":"https://www.gutenberg.org/ebooks/69569.txt.utf-8","application/rdf+xml":"https://www.gutenberg.org/ebooks/69569.rdf","image/jpeg":"https://www.gutenberg.org/cache/epub/69569/pg69569.cover.medium.jpg","application/octet-stream":"https://www.gutenberg.org/files/69569/69569-0.zip"},"download_count":20},{"id":69609,"title":"Martin of old London","authors":[{"name":"Strang, Herbert","birth_year":null,"death_year":null}],"translators":[],"subjects":["Adventure stories","Great Britain -- History -- Charles II, 1660-1685 -- Juvenile fiction","London (England) -- Juvenile fiction","Mystery fiction","Orphans -- Juvenile fiction","Teenage boys -- Juvenile fiction"],"bookshelves":[],"languages":["en"],"copyright":false,"media_type":"Text","formats":{"text/html":"https://www.gutenberg.org/ebooks/69609.html.images","application/epub+zip":"https://www.gutenberg.org/ebooks/69609.epub3.images","application/x-mobipocket-ebook":"https://www.gutenberg.org/ebooks/69609.kf8.images","text/plain; charset=us-ascii":"https://www.gutenberg.org/ebooks/69609.txt.utf-8","application/rdf+xml":"https://www.gutenberg.org/ebooks/69609.rdf","image/jpeg":"https://www.gutenberg.org/cache/epub/69609/pg69609.cover.medium.jpg","application/octet-stream":"https://www.gutenberg.org/files/69609/69609-0.zip"},"download_count":20},{"id":69639,"title":"The heathery; or, A monograph of the genus Erica. vol. 1","authors":[{"name":"Andrews, Henry Cranke, active 1799-1828","birth_year":null,"death_year":null}],"translators":[],"subjects":["Ericas","Ericas -- Pictorial works"],"bookshelves":[],"languages":["en"],"copyright":false,"media_type":"Text","formats":{"text/html":"https://www.gutenberg.org/ebooks/69639.html.images","application/epub+zip":"https://www.gutenberg.org/ebooks/69639.epub3.images","application/x-mobipocket-ebook":"https://www.gutenberg.org/ebooks/69639.kf8.images","text/plain; charset=us-ascii":"https://www.gutenberg.org/ebooks/69639.txt.utf-8","application/rdf+xml":"https://www.gutenberg.org/ebooks/69639.rdf","image/jpeg":"https://www.gutenberg.org/cache/epub/69639/pg69639.cover.medium.jpg","application/octet-stream":"https://www.gutenberg.org/files/69639/69639-0.zip"},"download_count":20},{"id":69672,"title":"The Summers readers: manual, first lessons in reading","authors":[{"name":"Summers, Maud","birth_year":null,"death_year":null}],"translators":[],"subjects":["Reading (Elementary)"],"bookshelves":[],"languages":["en"],"copyright":false,"media_type":"Text","formats":{"text/html":"https://www.gutenberg.org/ebooks/69672.html.images","application/epub+zip":"https://www.gutenberg.org/ebooks/69672.epub3.images","application/x-mobipocket-ebook":"https://www.gutenberg.org/ebooks/69672.kf8.images","text/plain; charset=us-ascii":"https://www.gutenberg.org/ebooks/69672.txt.utf-8","application/rdf+xml":"https://www.gutenberg.org/ebooks/69672.rdf","image/jpeg":"https://www.gutenberg.org/cache/epub/69672/pg69672.cover.medium.jpg","application/octet-stream":"https://www.gutenberg.org/files/69672/69672-0.zip"},"download_count":20},{"id":69699,"title":"Supplement to the catalogue of seals and whales in the British Museum","authors":[{"name":"Gray, John Edward","birth_year":1800,"death_year":1875}],"translators":[],"subjects":["Seals (Animals)","Whales"],"bookshelves":[],"languages":["en"],"copyright":false,"media_type":"Text","formats":{"text/html":"https://www.gutenberg.org/ebooks/69699.html.images","application/epub+zip":"https://www.gutenberg.org/ebooks/69699.epub3.images","application/x-mobipocket-ebook":"https://www.gutenberg.org/ebooks/69699.kf8.images","text/plain; charset=us-ascii":"https://www.gutenberg.org/ebooks/69699.txt.utf-8","application/rdf+xml":"https://www.gutenberg.org/ebooks/69699.rdf","image/jpeg":"https://www.gutenberg.org/cache/epub/69699/pg69699.cover.medium.jpg","application/octet-stream":"https://www.gutenberg.org/files/69699/69699-0.zip"},"download_count":20}]}