{"count":58808,"next":"http://129.241.150.113:8000/books/?languages=en&page=1206","previous":"http://129.241.150.113:8000/books/?languages=en&page=1204","results":[{"id":66353,"title":"The American National Red Cross Bulletin, Vol. I, No. 1, January, 1906","authors":[{"name":"American National Red Cross","birth_year":null,"death_year":null}],"translators":[],"subjects":["American National Red Cross -- Periodicals","Red Cross and Red Crescent -- Periodicals"],"bookshelves":[],"languages":["en"],"copyright":false,"media_type":"Text","formats":{"text/html":"https://www.gutenberg.org/ebooks/66353.html.images","application/epub+zip":"https://www.gutenberg.org/ebooks/66353.epub3.images","application/x-mobipocket-ebook":"https://www.gutenberg.org/ebooks/66353.kf8.images","text/plain; charset=us-ascii":"https://www.gutenberg.org/ebooks/66353.txt.utf-8","application/rdf+xml":"https://www.gutenberg.org/ebooks/66353.rdf","image/jpeg":"https://www.gutenberg.org/cache/epub/66353/pg66353.cover.medium.jpg","application/octet-stream":"https://www.gutenberg.org/files/66353/66353-0.zip"},"download_count":31},{"id":66395,"title":"The Queen of Space","authors":[{"name":"Slotkin, Joseph","birth_year":null,"death_year":null}],"translators":[],"subjects":["Science fiction","Short stories","Stripteasers -- Fiction"],"bookshelves":[],"languages":["en"],"copyright":false,"media_type":"Text","formats":{"text/html":"https://www.gutenberg.org/ebooks/66395.html.images","application/epub+zip":"https://www.gutenberg.org/ebooks/66395.epub3.images","application/x-mobipocket-ebook":"https://www.gutenberg.org/ebooks/66395.kf8.images","text/plain; charset=us-ascii":"https://www.gutenberg.org/ebooks/66395.txt.utf-8","application/rdf+xml":"https://www.gutenberg.org/ebooks/66395.rdf","image/jpeg":"https://www.gutenberg.org/cache/epub/66395/pg66395.cover.medium.jpg","application/octet-stream":"https://www.gutenberg.org/files/66395/66395-0.zip"},"download_count":31},{"id":66463,"title":"Don't Panic!","authors":[{"name":"Krepps, Robert W.","birth_year":1919,"death_year":1980}],"translators":[],"subjects":["Earth (Planet) -- Fiction","Human-alien encounters -- Fiction","Science fiction","War stories"],"bookshelves":[],"languages":["en"],"copyright":false,"media_type":"Text","formats":{"text/html":"https://www.gutenberg.org/ebooks/66463.html.images","application/epub+zip":"https://www.gutenberg.org/ebooks/66463.epub3.images","application/x-mobipocket-ebook":"https://www.gutenberg.org/ebooks/66463.kf8.images","text/plain; charset=us-ascii":"https://www.gutenberg.org/ebooks/66463.txt.utf-8","application/rdf+xml":"https://www.gutenberg.org/ebooks/66463.rdf","image/jpeg":"https://www.gutenberg.org/cache/epub/66463/pg66463.cover.medium.jpg","application/octet-stream":"https://www.gutenberg.org/files/66463/66463-0.zip"},"download_count":31},{"id":66464,"title":"The American National Red Cross Bulletin, Vol. I, No. 2, April, 1906","authors":[{"name":"American National Red Cross","birth_year":null,"death_year":null}],"translators":[],"subjects":["American National Red Cross -- Periodicals","Red Cross and Red Crescent -- Periodicals"],"bookshelves":[],"languages":["en"],"copyright":false,"media_type":"Text","formats":{"text/html":"https://www.gutenberg.org/ebooks/66464.html.images","application/epub+zip":"https://www.gutenberg.org/ebooks/66464.epub3.images","application/x-mobipocket-ebook":"https://www.gutenberg.org/ebooks/66464.kf8.images","text/plain; charset=us-ascii":"https://www.gutenberg.org/ebooks/66464.txt.utf-8","application/rdf+xml":"https://www.gutenberg.org/ebooks/66464.rdf","image/jpeg":"https://www.gutenberg.org/cache/epub/66464/pg66464.cover.medium.jpg","application/octet-stream":"https://www.gutenberg.org/files/66464/66464-0.zip"},"download_count":31},{"id":66503,"title":"With Sword and Crucifix: Being an Account of the Strange Adventures of Count Louis Sancerre, Companion of Sieur LaSalle, on the Lower Mississippi, in the Year of Grace 1682","authors":[{"name":"Van Zile, Edward S. (Edward Sims)","birth_year":1863,"death_year":1931}],"translators":[],"subjects":["Discoveries in geography -- Fiction","Explorers -- Fiction","La Salle, Robert Cavelier, sieur de, 1643-1687 -- Fiction","Mississippi River -- Fiction"],"bookshelves":[],"languages":["en"],"copyright":false,"media_type":"Text","formats":{"text/html":"https://www.gutenberg.org/ebooks/66503.html.images","application/epub+zip":"https://www.gutenberg.org/ebooks/66503.epub3.images","application/x-mobipocket-ebook":"https://www.gutenberg.org/ebooks/66503.kf8.images","text/plain; charset=us-ascii":"https://www.gutenberg.org/ebooks/66503.txt.utf-8","application/rdf+xml":"https://www.gutenberg.org/ebooks/66503.rdf","image/jpeg":"https://www.gutenberg.org/cache/epub/66503/pg66503.cover.medium.jpg","application/octet-stream":"https://www.gutenberg.org/files/66503/66503-0.zip"},"download_count":31},{"id":66518,"title":"Labour and the Popular Welfare","authors":[{"name":"Mallock, W. H. (William Hurrell)","birth_year":1849,"death_year":1923}],"translators":[],"subjects":["Labor","Labor movement","Socialism","Working class"],"bookshelves":[],"languages":["en"],"copyright":false,"media_type":"Text","formats":{"text/html":"https://www.gutenberg.org/ebooks/66518.html.images","application/epub+zip":"https://www.gutenberg.org/ebooks/66518.epub3.images","application/x-mobipocket-ebook":"https://www.gutenberg.org/ebooks/66518.kf8.images","text/plain; charset=us-ascii":"https://www.gutenberg.org/ebooks/66518.txt.utf-8","application/rdf+xml":"https://www.gutenberg.org/ebooks/66518.rdf","image/jpeg":"https://www.gutenberg.org/cache/epub/66518/pg66518.cover.medium.jpg","application/octet-stream":"https://www.gutenberg.org/files/66518/66518-0.zip"},"download_count":31},{"id":66522,"title":"Learning and Other Essays","authors":[{"name":"Chapman, John Jay","birth_year":1862,"death_year":1933}],"translators":[],"subjects":["American essays"],"bookshelves":[],"languages":["en"],"copyright":false,"media_type":"Text","formats":{"text/html":"https://www.gutenberg.org/ebooks/66522.html.images","application/epub+zip":"https://www.gutenberg.org/ebooks/66522.epub3.images","application/x-mobipocket-ebook":"https://www.gutenberg.org/ebooks/66522.kf8.images","text/plain; charset=us-ascii":"https://www.gutenberg.org/ebooks/66522.txt.utf-8","application/rdf+xml":"https://www.gutenberg.org/ebooks/66522.rdf","image/jpeg":"https://www.gutenberg.org/cache/epub/66522/pg66522.cover.medium.jpg","application/octet-stream":"https://www.gutenberg.org/files/66522/66522-0.zip"},"download_count":31},{"id":66565,"title":"Child Life and Sex Hygiene: A Remarkable Message","authors":[{"name":"Smith, Otterbein Oscar","birth_year":1858,"death_year":null}],"translators":[],"subjects":["Sexual ethics"],"bookshelves":[],"languages":["en"],"copyright":false,"media_type":"Text","formats":{"text/html":"https://www.gutenberg.org/ebooks/66565.html.images","application/epub+zip":"https://www.gutenberg.org/ebooks/66565.epub3.images","application/x-mobipocket-ebook":"https://www.gutenberg.org/ebooks/66565.kf8.images","text/plain; charset=us-ascii":"https://www.gutenberg.org/ebooks/66565.txt.utf-8","application/rdf+xml":"https://www.gutenberg.org/ebooks/66565.rdf","image/jpeg":"https://www.gutenberg.org/cache/epub/66565/pg66565.cover.medium.jpg","application/octet-stream":"https://www.gutenberg.org/files/66565/66565-0.zip"},"download_count":31},{"id":66610,"title":"Practical Agitation","authors":[{"name":"Chapman, John Jay","birth_year":1862,"death_year":1933}],"translators":[],"subjects":["Political ethics","Politics, Practical -- United States","United States -- Politics and government"],"bookshelves":[],"languages":["en"],"copyright":false,"media_type":"Text","formats":{"text/html":"https://www.gutenberg.org/ebooks/66610.html.images","application/epub+zip":"https://www.gutenberg.org/ebooks/66610.epub3.images","application/x-mobipocket-ebook":"https://www.gutenberg.org/ebooks/66610.kf8.images","text/plain; charset=us-ascii":"https://www.gutenberg.org/ebooks/66610.txt.utf-8","application/rdf+xml":"https://www.gutenberg.org/ebooks/66610.rdf","image/jpeg":"https://www.gutenberg.org/cache/epub/66610/pg66610.cover.medium.jpg","application/octet-stream":"https://www.gutenberg.org/files/66610/66610-0.zip"},"download_count":31},{"id":66617,"title":"Lord Alistair's Rebellion","authors":[{"name":"Upward, Allen","birth_year":1863,"death_year":1926}],"translators":[],"subjects":["Fiction"],"bookshelves":[],"languages":["en"],"copyright":false,"media_type":"Text","formats":{"text/html":"https://www.gutenberg.org/ebooks/66617.html.images","application/epub+zip":"https://www.gutenberg.org/ebooks/66617.epub3.images","application/x-mobipocket-ebook":"https://www.gutenberg.org/ebooks/66617.kf8.images","text/plain; charset=us-ascii":"https://www.gutenberg.org/ebooks/66617.txt.utf-8","application/rdf+xml":"https://www.gutenberg.org/ebooks/66617.rdf","image/jpeg":"https://www.gutenberg.org/cache/epub/66617/pg66617.cover.medium.jpg","application/octet-stream":"https://www.gutenberg.org/files/66617/66617-0.zip"},"download_count":31},{"id":66636,"title":"The Story of André Cornélis","authors":[{"name":"Bourget, Paul","birth_year":1852,"death_year":1935}],"translators":[{"name":"Monkshood, G. F.","birth_year":1872,"death_year":null}],"subjects":["French fiction -- Translations into English"],"bookshelves":[],"languages":["en"],"copyright":false,"media_type":"Text","formats":{"text/html":"https://www.gutenberg.org/ebooks/66636.html.images","application/epub+zip":"https://www.gutenberg.org/ebooks/66636.epub3.images","application/x-mobipocket-ebook":"https://www.gutenberg.org/ebooks/66636.kf8.images","text/plain; charset=us-ascii":"https://www.gutenberg.org/ebooks/66636.txt.utf-8","application/rdf+xml":"https://www.gutenberg.org/ebooks/66636.rdf","image/jpeg":"https://www.gutenberg.org/cache/epub/66636/pg66636.cover.medium.jpg","application/octet-stream":"https://www.gutenberg.org/files/66636/66636-0.zip"},"download_count":31},{"id":66720,"title":"In Kentucky with Daniel Boone","authors":[{"name":"McIntyre, John T. (John Thomas)","birth_year":1871,"death_year":1951}],"translators":[],"subjects":["Boone, Daniel, 1734-1820 -- Fiction"],"bookshelves":[],"languages":["en"],"copyright":false,"media_type":"Text","formats":{"text/html":"https://www.gutenberg.org/ebooks/66720.html.images","application/epub+zip":"https://www.gutenberg.org/ebooks/66720.epub3.images","application/x-mobipocket-ebook":"https://www.gutenberg.org/ebooks/66720.kf8.images","text/plain; charset=us-ascii":"https://www.gutenberg.org/ebooks/66720.txt.utf-8","application/rdf+xml":"https://www.gutenberg.org/ebooks/66720.rdf","image/jpeg":"https://www.gutenberg.org/cache/epub/66720/pg66720.cover.medium.jpg","application/octet-stream":"https://www.gutenberg.org/files/66720/66720-0.zip"},"download_count":31},{"id":66724,"title":"The Four-Fingered Glove; Or, The Cost of a Lie","authors":[{"name":"Carter, Nicholas (House name)","birth_year":null,"death_year":null}],"translators":[],"subjects":["American fiction","Detective and mystery stories","Dime novels"],"bookshelves":[],"languages":["en"],"copyright":false,"media_type":"Text","formats":{"text/html":"https://www.gutenberg.org/ebooks/66724.html.images","application/epub+zip":"https://www.gutenberg.org/ebooks/66724.epub3.images","application/x-mobipocket-ebook":"https://www.gutenberg.org/ebooks/66724.kf8.images","text/plain; charset=us-ascii":"https://www.gutenberg.org/ebooks/66724.txt.utf-8","application/rdf+xml":"https://www.gutenberg.org/ebooks/66724.rdf","image/jpeg":"https://www.gutenberg.org/cache/epub/66724/pg66724.cover.medium.jpg","application/octet-stream":"https://www.gutenberg.org/files/66724/66724-0.zip"},"download_count":31},{"id":66731,"title":"Planet of Doom","authors":[{"name":"Marlowe, Stephen","birth_year":1928,"death_year":2008}],"translators":[],"subjects":["Human-alien encounters -- Fiction","Journalists -- Fiction","Life on other planets -- Fiction","Science fiction","Short stories"],"bookshelves":[],"languages":["en"],"copyright":false,"media_type":"Text","formats":{"text/html":"https://www.gutenberg.org/ebooks/66731.html.images","application/epub+zip":"https://www.gutenberg.org/ebooks/66731.epub3.images","application/x-mobipocket-ebook":"https://www.gutenberg.org/ebooks/66731.kf8.images","text/plain; charset=us-ascii":"https://www.gutenberg.org/ebooks/66731.txt.utf-8","application/rdf+xml":"https://www.gutenberg.org/ebooks/66731.rdf","image/jpeg":"https://www.gutenberg.org/cache/epub/66731/pg66731.cover.medium.jpg","application/octet-stream":"https://www.gutenberg.org/files/66731/66731-0.zip"},"download_count":31},{"id":66767,"title":"Irritability: A Physiological Analysis of the General Effect of Stimuli in Living Substance","authors":[{"name":"Verworn, Max","birth_year":1863,"death_year":1921}],"translators":[],"subjects":["Irritability"],"bookshelves":[],"languages":["en"],"copyright":false,"media_type":"Text","formats":{"text/html":"https://www.gutenberg.org/ebooks/66767.html.images","application/epub+zip":"https://www.gutenberg.org/ebooks/66767.epub3.images","application/x-mobipocket-ebook":"https://www.gutenberg.org/ebooks/66767.kf8.images","text/plain; charset=us-ascii":"https://www.gutenberg.org/ebooks/66767.txt.utf-8","application/rdf+xml":"https://www.gutenberg.org/ebooks/66767.rdf","image/jpeg":"https://www.gutenberg.org/cache/epub/66767/pg66767.cover.medium.jpg","application/octet-stream":"https://www.gutenberg.org/files/66767/66767-0.zip"},"download_count":31},{"id":66788,"title":"In and About Drury Lane, and Other Papers Vol. 1 (of 2): Reprinted from the pages of the 'Temple Bar' Magazine","authors":[{"name":"Doran, Dr. (John)","birth_year":1807,"death_year":1878}],"translators":[],"subjects":["London (England) -- Social life and customs -- 19th century","Theater -- England -- London -- Anecdotes"],"bookshelves":[],"languages":["en"],"copyright":false,"media_type":"Text","formats":{"text/html":"https://www.gutenberg.org/ebooks/66788.html.images","application/epub+zip":"https://www.gutenberg.org/ebooks/66788.epub3.images","application/x-mobipocket-ebook":"https://www.gutenberg.org/ebooks/66788.kf8.images","text/plain; charset=us-ascii":"https://www.gutenberg.org/ebooks/66788.txt.utf-8","application/rdf+xml":"https://www.gutenberg.org/ebooks/66788.rdf","image/jpeg":"https://www.gutenberg.org/cache/epub/66788/pg66788.cover.medium.jpg","application/octet-stream":"https://www.gutenberg.org/files/66788/66788-0.zip"},"download_count":31},{"id":66808,"title":"Laura Everingham; or, The Highlanders of Glen Ora","authors":[{"name":"Grant, James","birth_year":1822,"death_year":1887}],"translators":[],"subjects":["Fiction"],"bookshelves":[],"languages":["en"],"copyright":false,"media_type":"Text","formats":{"text/html":"https://www.gutenberg.org/ebooks/66808.html.images","application/epub+zip":"https://www.gutenberg.org/ebooks/66808.epub3.images","application/x-mobipocket-ebook":"https://www.gutenberg.org/ebooks/66808.kf8.images","text/plain; charset=us-ascii":"https://www.gutenberg.org/ebooks/66808.txt.utf-8","application/rdf+xml":"https://www.gutenberg.org/ebooks/66808.rdf","image/jpeg":"https://www.gutenberg.org/cache/epub/66808/pg66808.cover.medium.jpg","application/octet-stream":"https://www.gutenberg.org/files/66808/66808-0.zip"},"download_count":31},{"id":67004,"title":"The Young Continentals at Lexington","authors":[{"name":"McIntyre, John T. (John Thomas)","birth_year":1871,"death_year":1951}],"translators":[],"subjects":["Historical fiction","Lexington, Battle of, Lexington, Mass., 1775 -- Juvenile fiction","United States -- History -- Revolution, 1775-1783 -- Juvenile fiction"],"bookshelves":[],"languages":["en"],"copyright":false,"media_type":"Text","formats":{"text/html":"https://www.gutenberg.org/ebooks/67004.html.images","application/epub+zip":"https://www.gutenberg.org/ebooks/67004.epub3.images","application/x-mobipocket-ebook":"https://www.gutenberg.org/ebooks/67004.kf8.images","text/plain; charset=us-ascii":"https://www.gutenberg.org/ebooks/67004.txt.utf-8","application/rdf+xml":"https://www.gutenberg.org/ebooks/67004.rdf","image/jpeg":"https://www.gutenberg.org/cache/epub/67004/pg67004.cover.medium.jpg","application/octet-stream":"https://www.gutenberg.org/files/67004/67004-0.zip"},"download_count":31},{"id":67027,"title":"Turquois mosaic art in ancient Mexico","authors":[{"name":"Saville, Marshall H. (Marshall Howard)","birth_year":1867,"death_year":1935}],"translators":[],"subjects":["Mexico -- Antiquities","Mexico -- History -- Conquest, 1519-1540","Mosaics","Turquoise"],"bookshelves":[],"languages":["en"],"copyright":false,"media_type":"Text","formats":{"text/html":"https://www.gutenberg.org/ebooks/67027.html.images","application/epub+zip":"https://www.gutenberg.org/ebooks/67027.epub3.images","application/x-mobipocket-ebook":"https://www.gutenberg.org/ebooks/67027.kf8.images","text/plain; charset=us-ascii":"https://www.gutenberg.org/ebooks/67027.txt.utf-8","application/rdf+xml":"https://www.gutenberg.org/ebooks/67027.rdf","image/jpeg":"https://www.gutenberg.org/cache/epub/67027/pg67027.cover.medium.jpg","application/octet-stream":"https://www.gutenberg.org/files/67027/67027-0.zip"},"download_count":31},{"id":67058,"title":"Mildred's Married Life, and a Winter with Elsie Dinsmore: A sequel to Mildred and Elsie","authors":[{"name":"Finley, Martha","birth_year":1828,"death_year":1909}],"translators":[],"subjects":["Christian life -- Juvenile fiction","Conduct of life -- Juvenile fiction","Dinsmore, Elsie (Fictitious character) -- Juvenile fiction","Girls -- Conduct of life -- Juvenile fiction","Keith, Mildred (Fictitious character) -- Juvenile fiction","Marriage -- Juvenile fiction","United States -- Social life and customs -- 19th century -- Juvenile fiction"],"bookshelves":[],"languages":["en"],"copyright":false,"media_type":"Text","formats":{"text/html":"https://www.gutenberg.org/ebooks/67058.html.images","application/epub+zip":"https://www.gutenberg.org/ebooks/67058.epub3.images","application/x-mobipocket-ebook":"https://www.gutenberg.org/ebooks/67058.kf8.images","text/plain; charset=us-ascii":"https://www.gutenberg.org/ebooks/67058.txt.utf-8","application/rdf+xml":"https://www.gutenberg.org/ebooks/67058.rdf","image/jpeg":"https://www.gutenberg.org/cache/epub/67058/pg67058.cover.medium.jpg","application/octet-stream":"https://www.gutenberg.org/files/67058/67058-0.zip"},"download_count":31},{"id":67165,"title":"In the Garden of the Gods","authors":[{"name":"Raine, William MacLeod","birth_year":1871,"death_year":1954}],"translators":[],"subjects":["Businessmen -- Fiction","Children of the rich -- Fiction","Colorado -- Fiction","Mate selection -- Fiction","Short stories"],"bookshelves":[],"languages":["en"],"copyright":false,"media_type":"Text","formats":{"text/html":"https://www.gutenberg.org/ebooks/67165.html.images","application/epub+zip":"https://www.gutenberg.org/ebooks/67165.epub3.images","application/x-mobipocket-ebook":"https://www.gutenberg.org/ebooks/67165.kf8.images","text/plain; charset=us-ascii":"https://www.gutenberg.org/ebooks/67165.txt.utf-8","application/rdf+xml":"https://www.gutenberg.org/ebooks/67165.rdf","image/jpeg":"https://www.gutenberg.org/cache/epub/67165/pg67165.cover.medium.jpg","application/octet-stream":"https://www.gutenberg.org/files/67165/67165-0.zip"},"download_count":31},{"id":67222,"title":"Harvard Psychological Studies, Volume 2","authors":[],"translators":[],"subjects":["Psychology, Experimental"],"bookshelves":[],"languages":["en"],"copyright":false,"media_type":"Text","formats":{"text/html":"https://www.gutenberg.org/ebooks/67222.html.images","application/epub+zip":"https://www.gutenberg.org/ebooks/67222.epub3.images","application/x-mobipocket-ebook":"https://www.gutenberg.org/ebooks/67222.kf8.images","text/plain; charset=us-ascii":"https://www.gutenberg.org/ebooks/67222.txt.utf-8","application/rdf+xml":"https://www.gutenberg.org/ebooks/67222.rdf","image/jpeg":"https://www.gutenberg.org/cache/epub/67222/pg67222.cover.medium.jpg","application/octet-stream":"https://www.gutenberg.org/files/67222/67222-0.zip"},"download_count":31},{"id":67268,"title":"The Life of Jesus Christ for the Young, Vol. 4: And His Life Depicted in a Gallery of Eighty Paintings","authors":[{"name":"Newton, Richard","birth_year":1813,"death_year":1887}],"translators":[],"subjects":["Jesus Christ -- Art","Jesus Christ -- Biography -- Juvenile literature"],"bookshelves":[],"languages":["en"],"copyright":false,"media_type":"Text","formats":{"text/html":"https://www.gutenberg.org/ebooks/67268.html.images","application/epub+zip":"https://www.gutenberg.org/ebooks/67268.epub3.images","application/x-mobipocket-ebook":"https://www.gutenberg.org/ebooks/67268.kf8.images","text/plain; charset=us-ascii":"https://www.gutenberg.org/ebooks/67268.txt.utf-8","application/rdf+xml":"https://www.gutenberg.org/ebooks/67268.rdf","image/jpeg":"https://www.gutenberg.org/cache/epub/67268/pg67268.cover.medium.jpg","application/octet-stream":"https://www.gutenberg.org/files/67268/67268-0.zip"},"download_count":31},{"id":67319,"title":"The Ghost in the Red Shirt","authors":[{"name":"Bower, B. M.","birth_year":1871,"death_year":1940}],"translators":[],"subjects":["Ghost stories","Man-woman relationships -- Fiction","Short stories"],"bookshelves":[],"languages":["en"],"copyright":false,"media_type":"Text","formats":{"text/html":"https://www.gutenberg.org/ebooks/67319.html.images","application/epub+zip":"https://www.gutenberg.org/ebooks/67319.epub3.images","application/x-mobipocket-ebook":"https://www.gutenberg.org/ebooks/67319.kf8.images","text/plain; charset=us-ascii":"https://www.gutenberg.org/ebooks/67319.txt.utf-8","application/rdf+xml":"https://www.gutenberg.org/ebooks/67319.rdf","image/jpeg":"https://www.gutenberg.org/cache/epub/67319/pg67319.cover.medium.jpg","application/octet-stream":"https://www.gutenberg.org/files/67319/67319-0.zip"},"download_count":31},{"id":67323,"title":"The Best of Fences","authors":[{"name":"Garrett, Randall","birth_year":1927,"death_year":1987}],"translators":[],"subjects":["Human-alien encounters -- Fiction","Science fiction","Short stories"],"bookshelves":[],"languages":["en"],"copyright":false,"media_type":"Text","formats":{"text/html":"https://www.gutenberg.org/ebooks/67323.html.images","application/epub+zip":"https://www.gutenberg.org/ebooks/67323.epub3.images","application/x-mobipocket-ebook":"https://www.gutenberg.org/ebooks/67323.kf8.images","text/plain; charset=us-ascii":"https://www.gutenberg.org/ebooks/67323.txt.utf-8","application/rdf+xml":"https://www.gutenberg.org/ebooks/67323.rdf","image/jpeg":"https://www.gutenberg.org/cache/epub/67323/pg67323.cover.medium.jpg","application/octet-stream":"https://www.gutenberg.org/files/67323/67323-0.zip"},"download_count":31},{"id":67336,"title":"A Parody on \"Mary's Ghost;\" or, The Doctors and Body-snatchers.: A Pathetic Tale, With Numerous Additions.","authors":[{"name":"Hood, Thomas","birth_year":1799,"death_year":1845}],"translators":[],"subjects":["Body snatching -- Poetry","Ghosts -- Poetry"],"bookshelves":[],"languages":["en"],"copyright":false,"media_type":"Text","formats":{"text/html":"https://www.gutenberg.org/ebooks/67336.html.images","application/epub+zip":"https://www.gutenberg.org/ebooks/67336.epub3.images","application/x-mobipocket-ebook":"https://www.gutenberg.org/ebooks/67336.kf8.images","text/plain; charset=us-ascii":"https://www.gutenberg.org/ebooks/67336.txt.utf-8","application/rdf+xml":"https://www.gutenberg.org/ebooks/67336.rdf","image/jpeg":"https://www.gutenberg.org/cache/epub/67336/pg67336.cover.medium.jpg","application/octet-stream":"https://www.gutenberg.org/files/67336/67336-0.zip"},"download_count":31},{"id":67373,"title":"The Worst Joke in the World","authors":[{"name":"Holding, Elisabeth Sanxay","birth_year":1889,"death_year":1955}],"translators":[],"subjects":["Families -- Fiction","Mothers-in-law -- Fiction","United States -- Social life and customs -- 20th century -- Fiction"],"bookshelves":[],"languages":["en"],"copyright":false,"media_type":"Text","formats":{"text/html":"https://www.gutenberg.org/ebooks/67373.html.images","application/epub+zip":"https://www.gutenberg.org/ebooks/67373.epub3.images","application/x-mobipocket-ebook":"https://www.gutenberg.org/ebooks/67373.kf8.images","text/plain; charset=us-ascii":"https://www.gutenberg.org/ebooks/67373.txt.utf-8","application/rdf+xml":"https://www.gutenberg.org/ebooks/67373.rdf","image/jpeg":"https://www.gutenberg.org/cache/epub/67373/pg67373.cover.medium.jpg","application/octet-stream":"https://www.gutenberg.org/files/67373/67373-0.zip"},"download_count":31},{"id":67479,"title":"The Day of Resis","authors":[{"name":"Mentor, Lillian Frances","birth_year":null,"death_year":null}],"translators":[],"subjects":["Adventure stories","Americans -- Africa -- Fiction","Explorers -- Fiction","Imaginary places -- Fiction"],"bookshelves":[],"languages":["en"],"copyright":false,"media_type":"Text","formats":{"text/html":"https://www.gutenberg.org/ebooks/67479.html.images","application/epub+zip":"https://www.gutenberg.org/ebooks/67479.epub3.images","application/x-mobipocket-ebook":"https://www.gutenberg.org/ebooks/67479.kf8.images","text/plain; charset=us-ascii":"https://www.gutenberg.org/ebooks/67479.txt.utf-8","application/rdf+xml":"https://www.gutenberg.org/ebooks/67479.rdf","image/jpeg":"https://www.gutenberg.org/cache/epub/67479/pg67479.cover.medium.jpg","application/octet-stream":"https://www.gutenberg.org/files/67479/67479-0.zip"},"download_count":31},{"id":67518,"title":"The Art of Home Furnishing and Decoration","authors":[{"name":"Calkins, Kathleen Clinch","birth_year":null,"death_year":null},{"name":"Parsons, Frank Alvah","birth_year":1868,"death_year":1930},{"name":"Armstrong Cork Company","birth_year":null,"death_year":null}],"translators":[],"subjects":["Furniture","Interior decoration","Linoleum"],"bookshelves":[],"languages":["en"],"copyright":false,"media_type":"Text","formats":{"text/html":"https://www.gutenberg.org/ebooks/67518.html.images","application/epub+zip":"https://www.gutenberg.org/ebooks/67518.epub3.images","application/x-mobipocket-ebook":"https://www.gutenberg.org/ebooks/67518.kf8.images","text/plain; charset=us-ascii":"https://www.gutenberg.org/ebooks/67518.txt.utf-8","application/rdf+xml":"https://www.gutenberg.org/ebooks/67518.rdf","image/jpeg":"https://www.gutenberg.org/cache/epub/67518/pg67518.cover.medium.jpg","application/octet-stream":"https://www.gutenberg.org/files/67518/67518-0.zip"},"download_count":31},{"id":67576,"title":"Thistledown: A Book of Scotch Humour, Character, Folk-lore, Story & Anecdote","authors":[{"name":"Ford, Robert","birth_year":1846,"death_year":1905}],"translators":[],"subjects":["National characteristics, Scottish","Scotland -- Social life and customs","Scottish wit and humor"],"bookshelves":[],"languages":["en"],"copyright":false,"media_type":"Text","formats":{"text/html":"https://www.gutenberg.org/ebooks/67576.html.images","application/epub+zip":"https://www.gutenberg.org/ebooks/67576.epub3.images","application/x-mobipocket-ebook":"https://www.gutenberg.org/ebooks/67576.kf8.images","text/plain; charset=us-ascii":"https://www.gutenberg.org/ebooks/67576.txt.utf-8","application/rdf+xml":"https://www.gutenberg.org/ebooks/67576.rdf","image/jpeg":"https://www.gutenberg.org/cache/epub/67576/pg67576.cover.medium.jpg","application/octet-stream":"https://www.gutenberg.org/files/67576/67576-0.zip"},"download_count":31},{"id":67615,"title":"Nick Carter Stories No. 148, July 10, 1915; The Mark of Cain; or, Nick Carter's Air-line Case","authors":[{"name":"Carter, Nicholas (House name)","birth_year":null,"death_year":null},{"name":"Boston, Ralph","birth_year":null,"death_year":null}],"translators":[],"subjects":["Detective and mystery stories, American -- Periodicals","Popular literature -- Periodicals"],"bookshelves":[],"languages":["en"],"copyright":false,"media_type":"Text","formats":{"text/html":"https://www.gutenberg.org/ebooks/67615.html.images","application/epub+zip":"https://www.gutenberg.org/ebooks/67615.epub3.images","application/x-mobipocket-ebook":"https://www.gutenberg.org/ebooks/67615.kf8.images","text/plain; charset=us-ascii":"https://www.gutenberg.org/ebooks/67615.txt.utf-8","application/rdf+xml":"https://www.gutenberg.org/ebooks/67615.rdf","image/jpeg":"https://www.gutenberg.org/cache/epub/67615/pg67615.cover.medium.jpg","application/octet-stream":"https://www.gutenberg.org/files/67615/67615-0.zip"},"download_count":31},{"id":67661,"title":"Gallipoli Diary","authors":[{"name":"Gillam, John Graham","birth_year":1884,"death_year":1965}],"translators":[],"subjects":["World War, 1914-1918 -- Campaigns -- Turkey -- Gallipoli Peninsula"],"bookshelves":[],"languages":["en"],"copyright":false,"media_type":"Text","formats":{"text/html":"https://www.gutenberg.org/ebooks/67661.html.images","application/epub+zip":"https://www.gutenberg.org/ebooks/67661.epub3.images","application/x-mobipocket-ebook":"https://www.gutenberg.org/ebooks/67661.kf8.images","text/plain; charset=us-ascii":"https://www.gutenberg.org/ebooks/67661.txt.utf-8","application/rdf+xml":"https://www.gutenberg.org/ebooks/67661.rdf","image/jpeg":"https://www.gutenberg.org/cache/epub/67661/pg67661.cover.medium.jpg","application/octet-stream":"https://www.gutenberg.org/files/67661/67661-0.zip"},"download_count":31}]}