{"count":58808,"next":"http://129.241.150.113:8000/books/?languages=en&page=1419","previous":"http://129.241.150.113:8000/books/?languages=en&page=1417","results":[{"id":68812,"title":"The schoolmaster's trunk, containing papers on home-life in Tweenit","authors":[{"name":"Diaz, Abby Morton","birth_year":1821,"death_year":1904}],"translators":[],"subjects":["Country life -- Juvenile fiction"],"bookshelves":[],"languages":["en"],"copyright":false,"media_type":"Text","formats":{"text/html":"https://www.gutenberg.org/ebooks/68812.html.images","application/epub+zip":"https://www.gutenberg.org/ebooks/68812.epub3.images","application/x-mobipocket-ebook":"https://www.gutenberg.org/ebooks/68812.kf8.images","text/plain; charset=us-ascii":"https://www.gutenberg.org/ebooks/68812.txt.utf-8","application/rdf+xml":"https://www.gutenberg.org/ebooks/68812.rdf","image/jpeg":"https://www.gutenberg.org/cache/epub/68812/pg68812.cover.medium.jpg","application/octet-stream":"https://www.gutenberg.org/files/68812/68812-0.zip"},"download_count":26},{"id":68875,"title":"The lion's share","authors":[{"name":"Thanet, Octave","birth_year":1850,"death_year":1934}],"translators":[],"subjects":["Adventure stories","Kidnapping -- Fiction","Mystery fiction","Revenge -- Fiction","San Francisco (Calif.) -- Fiction","San Francisco Earthquake and Fire, Calif., 1906 -- Fiction"],"bookshelves":[],"languages":["en"],"copyright":false,"media_type":"Text","formats":{"text/html":"https://www.gutenberg.org/ebooks/68875.html.images","application/epub+zip":"https://www.gutenberg.org/ebooks/68875.epub3.images","application/x-mobipocket-ebook":"https://www.gutenberg.org/ebooks/68875.kf8.images","text/plain; charset=us-ascii":"https://www.gutenberg.org/ebooks/68875.txt.utf-8","application/rdf+xml":"https://www.gutenberg.org/ebooks/68875.rdf","image/jpeg":"https://www.gutenberg.org/cache/epub/68875/pg68875.cover.medium.jpg","application/octet-stream":"https://www.gutenberg.org/files/68875/68875-0.zip"},"download_count":26},{"id":68915,"title":"Modern literature: a novel, Volume 1 (of 3)","authors":[{"name":"Bisset, Robert","birth_year":1759,"death_year":1805}],"translators":[],"subjects":["England -- Social life and customs -- 18th century -- Fiction"],"bookshelves":[],"languages":["en"],"copyright":false,"media_type":"Text","formats":{"text/html":"https://www.gutenberg.org/ebooks/68915.html.images","application/epub+zip":"https://www.gutenberg.org/ebooks/68915.epub3.images","application/x-mobipocket-ebook":"https://www.gutenberg.org/ebooks/68915.kf8.images","text/plain; charset=us-ascii":"https://www.gutenberg.org/ebooks/68915.txt.utf-8","application/rdf+xml":"https://www.gutenberg.org/ebooks/68915.rdf","image/jpeg":"https://www.gutenberg.org/cache/epub/68915/pg68915.cover.medium.jpg","application/octet-stream":"https://www.gutenberg.org/files/68915/68915-0.zip"},"download_count":26},{"id":69062,"title":"A bacteriological study of ham souring","authors":[{"name":"McBryde, Charles Neil","birth_year":1872,"death_year":null}],"translators":[],"subjects":["Ham -- Microbiology"],"bookshelves":[],"languages":["en"],"copyright":false,"media_type":"Text","formats":{"text/html":"https://www.gutenberg.org/ebooks/69062.html.images","application/epub+zip":"https://www.gutenberg.org/ebooks/69062.epub3.images","application/x-mobipocket-ebook":"https://www.gutenberg.org/ebooks/69062.kf8.images","text/plain; charset=us-ascii":"https://www.gutenberg.org/ebooks/69062.txt.utf-8","application/rdf+xml":"https://www.gutenberg.org/ebooks/69062.rdf","image/jpeg":"https://www.gutenberg.org/cache/epub/69062/pg69062.cover.medium.jpg","application/octet-stream":"https://www.gutenberg.org/files/69062/69062-0.zip"},"download_count":26},{"id":69115,"title":"Arne and the Christmas star: A story of Norway","authors":[{"name":"Seymour, Alta Halverson","birth_year":1893,"death_year":null}],"translators":[],"subjects":["Christmas stories","Norway -- Juvenile fiction"],"bookshelves":[],"languages":["en"],"copyright":false,"media_type":"Text","formats":{"text/html":"https://www.gutenberg.org/ebooks/69115.html.images","application/epub+zip":"https://www.gutenberg.org/ebooks/69115.epub3.images","application/x-mobipocket-ebook":"https://www.gutenberg.org/ebooks/69115.kf8.images","text/plain; charset=us-ascii":"https://www.gutenberg.org/ebooks/69115.txt.utf-8","application/rdf+xml":"https://www.gutenberg.org/ebooks/69115.rdf","image/jpeg":"https://www.gutenberg.org/cache/epub/69115/pg69115.cover.medium.jpg","application/octet-stream":"https://www.gutenberg.org/files/69115/69115-0.zip"},"download_count":26},{"id":69208,"title":"Sir Lawrence Alma Tadema","authors":[{"name":"Zimmern, Helen","birth_year":1846,"death_year":1934}],"translators":[],"subjects":["Alma-Tadema, Lawrence, 1836-1912 -- Criticism and interpretation"],"bookshelves":[],"languages":["en"],"copyright":false,"media_type":"Text","formats":{"text/html":"https://www.gutenberg.org/ebooks/69208.html.images","application/epub+zip":"https://www.gutenberg.org/ebooks/69208.epub3.images","application/x-mobipocket-ebook":"https://www.gutenberg.org/ebooks/69208.kf8.images","text/plain; charset=us-ascii":"https://www.gutenberg.org/ebooks/69208.txt.utf-8","application/rdf+xml":"https://www.gutenberg.org/ebooks/69208.rdf","image/jpeg":"https://www.gutenberg.org/cache/epub/69208/pg69208.cover.medium.jpg","application/octet-stream":"https://www.gutenberg.org/files/69208/69208-0.zip"},"download_count":26},{"id":69237,"title":"Hop O' My Thumb","authors":[{"name":"Samachson, Joseph","birth_year":1906,"death_year":1980}],"translators":[],"subjects":["Diplomats -- Fiction","Human-alien encounters -- Fiction","Science fiction","Short stories"],"bookshelves":[],"languages":["en"],"copyright":false,"media_type":"Text","formats":{"text/html":"https://www.gutenberg.org/ebooks/69237.html.images","application/epub+zip":"https://www.gutenberg.org/ebooks/69237.epub3.images","application/x-mobipocket-ebook":"https://www.gutenberg.org/ebooks/69237.kf8.images","text/plain; charset=us-ascii":"https://www.gutenberg.org/ebooks/69237.txt.utf-8","application/rdf+xml":"https://www.gutenberg.org/ebooks/69237.rdf","image/jpeg":"https://www.gutenberg.org/cache/epub/69237/pg69237.cover.medium.jpg","application/octet-stream":"https://www.gutenberg.org/files/69237/69237-0.zip"},"download_count":26},{"id":69302,"title":"Land of play: Verses, rhymes, stories","authors":[],"translators":[],"subjects":["Children's literature","Children's poetry","Counting-out rhymes","Nursery rhymes"],"bookshelves":[],"languages":["en"],"copyright":false,"media_type":"Text","formats":{"text/html":"https://www.gutenberg.org/ebooks/69302.html.images","application/epub+zip":"https://www.gutenberg.org/ebooks/69302.epub3.images","application/x-mobipocket-ebook":"https://www.gutenberg.org/ebooks/69302.kf8.images","text/plain; charset=us-ascii":"https://www.gutenberg.org/ebooks/69302.txt.utf-8","application/rdf+xml":"https://www.gutenberg.org/ebooks/69302.rdf","image/jpeg":"https://www.gutenberg.org/cache/epub/69302/pg69302.cover.medium.jpg","application/octet-stream":"https://www.gutenberg.org/files/69302/69302-0.zip"},"download_count":26},{"id":69336,"title":"The shipwreck","authors":[{"name":"Falconer, William","birth_year":1732,"death_year":1769}],"translators":[],"subjects":["Shipwrecks -- Poetry"],"bookshelves":[],"languages":["en"],"copyright":false,"media_type":"Text","formats":{"text/html":"https://www.gutenberg.org/ebooks/69336.html.images","application/epub+zip":"https://www.gutenberg.org/ebooks/69336.epub3.images","application/x-mobipocket-ebook":"https://www.gutenberg.org/ebooks/69336.kf8.images","text/plain; charset=us-ascii":"https://www.gutenberg.org/ebooks/69336.txt.utf-8","application/rdf+xml":"https://www.gutenberg.org/ebooks/69336.rdf","image/jpeg":"https://www.gutenberg.org/cache/epub/69336/pg69336.cover.medium.jpg","application/octet-stream":"https://www.gutenberg.org/files/69336/69336-0.zip"},"download_count":26},{"id":69337,"title":"Music as a human need: A plea for free national instruction in music","authors":[{"name":"Powell, Alma Webster Hall","birth_year":1869,"death_year":1930}],"translators":[],"subjects":["Music and state","Music, Influence of","National music","Thesis (Ph. D.)"],"bookshelves":[],"languages":["en"],"copyright":false,"media_type":"Text","formats":{"text/html":"https://www.gutenberg.org/ebooks/69337.html.images","application/epub+zip":"https://www.gutenberg.org/ebooks/69337.epub3.images","application/x-mobipocket-ebook":"https://www.gutenberg.org/ebooks/69337.kf8.images","text/plain; charset=us-ascii":"https://www.gutenberg.org/ebooks/69337.txt.utf-8","application/rdf+xml":"https://www.gutenberg.org/ebooks/69337.rdf","image/jpeg":"https://www.gutenberg.org/cache/epub/69337/pg69337.cover.medium.jpg","application/octet-stream":"https://www.gutenberg.org/files/69337/69337-0.zip"},"download_count":26},{"id":69395,"title":"The quilt of happiness; Creeping Jenny; and other New England stories","authors":[{"name":"Wiggin, Kate Douglas Smith","birth_year":1856,"death_year":1923}],"translators":[],"subjects":["New England -- Social life and customs -- Fiction","Short stories, American"],"bookshelves":[],"languages":["en"],"copyright":false,"media_type":"Text","formats":{"text/html":"https://www.gutenberg.org/ebooks/69395.html.images","application/epub+zip":"https://www.gutenberg.org/ebooks/69395.epub3.images","application/x-mobipocket-ebook":"https://www.gutenberg.org/ebooks/69395.kf8.images","text/plain; charset=us-ascii":"https://www.gutenberg.org/ebooks/69395.txt.utf-8","application/rdf+xml":"https://www.gutenberg.org/ebooks/69395.rdf","image/jpeg":"https://www.gutenberg.org/cache/epub/69395/pg69395.cover.medium.jpg","application/octet-stream":"https://www.gutenberg.org/files/69395/69395-0.zip"},"download_count":26},{"id":69413,"title":"Pamela Pounce: A tale of tempestuous petticoats","authors":[{"name":"Castle, Egerton","birth_year":1858,"death_year":1920},{"name":"Castle, Agnes","birth_year":1860,"death_year":1922}],"translators":[],"subjects":["Great Britain -- History -- George III, 1760-1820 -- Fiction","London (England) -- Fiction","Romance fiction"],"bookshelves":[],"languages":["en"],"copyright":false,"media_type":"Text","formats":{"text/html":"https://www.gutenberg.org/ebooks/69413.html.images","application/epub+zip":"https://www.gutenberg.org/ebooks/69413.epub3.images","application/x-mobipocket-ebook":"https://www.gutenberg.org/ebooks/69413.kf8.images","text/plain; charset=us-ascii":"https://www.gutenberg.org/ebooks/69413.txt.utf-8","application/rdf+xml":"https://www.gutenberg.org/ebooks/69413.rdf","image/jpeg":"https://www.gutenberg.org/cache/epub/69413/pg69413.cover.medium.jpg","application/octet-stream":"https://www.gutenberg.org/files/69413/69413-0.zip"},"download_count":26},{"id":69551,"title":"The natural and artificial disintegration of the elements: An address by Professor Sir Ernest Rutherford","authors":[{"name":"Rutherford, Ernest","birth_year":1871,"death_year":1937}],"translators":[],"subjects":["Atoms","Chemical elements","Radioactivity"],"bookshelves":[],"languages":["en"],"copyright":false,"media_type":"Text","formats":{"text/html":"https://www.gutenberg.org/ebooks/69551.html.images","application/epub+zip":"https://www.gutenberg.org/ebooks/69551.epub3.images","application/x-mobipocket-ebook":"https://www.gutenberg.org/ebooks/69551.kf8.images","text/plain; charset=us-ascii":"https://www.gutenberg.org/ebooks/69551.txt.utf-8","application/rdf+xml":"https://www.gutenberg.org/ebooks/69551.rdf","image/jpeg":"https://www.gutenberg.org/cache/epub/69551/pg69551.cover.medium.jpg","application/octet-stream":"https://www.gutenberg.org/files/69551/69551-0.zip"},"download_count":26},{"id":69560,"title":"Leisure hours among the gems","authors":[{"name":"Hamlin, Augustus C. (Augustus Choate)","birth_year":1829,"death_year":1905}],"translators":[],"subjects":["Gems","Precious stones"],"bookshelves":[],"languages":["en"],"copyright":false,"media_type":"Text","formats":{"text/html":"https://www.gutenberg.org/ebooks/69560.html.images","application/epub+zip":"https://www.gutenberg.org/ebooks/69560.epub3.images","application/x-mobipocket-ebook":"https://www.gutenberg.org/ebooks/69560.kf8.images","text/plain; charset=us-ascii":"https://www.gutenberg.org/ebooks/69560.txt.utf-8","application/rdf+xml":"https://www.gutenberg.org/ebooks/69560.rdf","image/jpeg":"https://www.gutenberg.org/cache/epub/69560/pg69560.cover.medium.jpg","application/octet-stream":"https://www.gutenberg.org/files/69560/69560-0.zip"},"download_count":26},{"id":69610,"title":"Robin","authors":[{"name":"Bruce, Mary Grant","birth_year":1878,"death_year":1958}],"translators":[],"subjects":["Australia -- Juvenile fiction","Boarding schools -- Juvenile fiction","Country life -- Juvenile fiction","Teenage girls -- Juvenile fiction"],"bookshelves":[],"languages":["en"],"copyright":false,"media_type":"Text","formats":{"text/html":"https://www.gutenberg.org/ebooks/69610.html.images","application/epub+zip":"https://www.gutenberg.org/ebooks/69610.epub3.images","application/x-mobipocket-ebook":"https://www.gutenberg.org/ebooks/69610.kf8.images","text/plain; charset=us-ascii":"https://www.gutenberg.org/ebooks/69610.txt.utf-8","application/rdf+xml":"https://www.gutenberg.org/ebooks/69610.rdf","image/jpeg":"https://www.gutenberg.org/cache/epub/69610/pg69610.cover.medium.jpg","application/octet-stream":"https://www.gutenberg.org/files/69610/69610-0.zip"},"download_count":26},{"id":69721,"title":"The flame-gatherers","authors":[{"name":"Potter, Margaret Horton","birth_year":1881,"death_year":1911}],"translators":[],"subjects":["India -- History -- 1000-1526 -- Fiction","Man-woman relationships -- Fiction","Reincarnation -- Fiction"],"bookshelves":[],"languages":["en"],"copyright":false,"media_type":"Text","formats":{"text/html":"https://www.gutenberg.org/ebooks/69721.html.images","application/epub+zip":"https://www.gutenberg.org/ebooks/69721.epub3.images","application/x-mobipocket-ebook":"https://www.gutenberg.org/ebooks/69721.kf8.images","text/plain; charset=us-ascii":"https://www.gutenberg.org/ebooks/69721.txt.utf-8","application/rdf+xml":"https://www.gutenberg.org/ebooks/69721.rdf","image/jpeg":"https://www.gutenberg.org/cache/epub/69721/pg69721.cover.medium.jpg","application/octet-stream":"https://www.gutenberg.org/files/69721/69721-0.zip"},"download_count":26},{"id":69727,"title":"The land of gold; or, Three years in California","authors":[{"name":"Colton, Walter","birth_year":1797,"death_year":1851}],"translators":[],"subjects":["California -- Gold discoveries","California -- History -- 1846-1850"],"bookshelves":[],"languages":["en"],"copyright":false,"media_type":"Text","formats":{"text/html":"https://www.gutenberg.org/ebooks/69727.html.images","application/epub+zip":"https://www.gutenberg.org/ebooks/69727.epub3.images","application/x-mobipocket-ebook":"https://www.gutenberg.org/ebooks/69727.kf8.images","text/plain; charset=us-ascii":"https://www.gutenberg.org/ebooks/69727.txt.utf-8","application/rdf+xml":"https://www.gutenberg.org/ebooks/69727.rdf","image/jpeg":"https://www.gutenberg.org/cache/epub/69727/pg69727.cover.medium.jpg","application/octet-stream":"https://www.gutenberg.org/files/69727/69727-0.zip"},"download_count":26},{"id":69773,"title":"The long patrol","authors":[{"name":"Treynor, Albert M.","birth_year":null,"death_year":null}],"translators":[],"subjects":["Adventure stories","Canada -- Fiction","Mystery fiction","Royal Canadian Mounted Police -- Fiction"],"bookshelves":[],"languages":["en"],"copyright":false,"media_type":"Text","formats":{"text/html":"https://www.gutenberg.org/ebooks/69773.html.images","application/epub+zip":"https://www.gutenberg.org/ebooks/69773.epub3.images","application/x-mobipocket-ebook":"https://www.gutenberg.org/ebooks/69773.kf8.images","text/plain; charset=us-ascii":"https://www.gutenberg.org/ebooks/69773.txt.utf-8","application/rdf+xml":"https://www.gutenberg.org/ebooks/69773.rdf","image/jpeg":"https://www.gutenberg.org/cache/epub/69773/pg69773.cover.medium.jpg","application/octet-stream":"https://www.gutenberg.org/files/69773/69773-0.zip"},"download_count":26},{"id":69833,"title":"Ahead of his time","authors":[{"name":"Cummings, Ray","birth_year":1887,"death_year":1957}],"translators":[],"subjects":["Mutation (Biology) -- Fiction","Psychic ability -- Fiction","Science fiction"],"bookshelves":[],"languages":["en"],"copyright":false,"media_type":"Text","formats":{"text/html":"https://www.gutenberg.org/ebooks/69833.html.images","application/epub+zip":"https://www.gutenberg.org/ebooks/69833.epub3.images","application/x-mobipocket-ebook":"https://www.gutenberg.org/ebooks/69833.kf8.images","text/plain; charset=us-ascii":"https://www.gutenberg.org/ebooks/69833.txt.utf-8","application/rdf+xml":"https://www.gutenberg.org/ebooks/69833.rdf","image/jpeg":"https://www.gutenberg.org/cache/epub/69833/pg69833.cover.medium.jpg","application/octet-stream":"https://www.gutenberg.org/files/69833/69833-0.zip"},"download_count":26},{"id":69843,"title":"Gloriana; or, the revolution of 1900","authors":[{"name":"Dixie, Florence, Lady","birth_year":1855,"death_year":1905}],"translators":[],"subjects":["Speculative fiction","Utopias -- Fiction","Women's rights -- Fiction"],"bookshelves":[],"languages":["en"],"copyright":false,"media_type":"Text","formats":{"text/html":"https://www.gutenberg.org/ebooks/69843.html.images","application/epub+zip":"https://www.gutenberg.org/ebooks/69843.epub3.images","application/x-mobipocket-ebook":"https://www.gutenberg.org/ebooks/69843.kf8.images","text/plain; charset=us-ascii":"https://www.gutenberg.org/ebooks/69843.txt.utf-8","application/rdf+xml":"https://www.gutenberg.org/ebooks/69843.rdf","image/jpeg":"https://www.gutenberg.org/cache/epub/69843/pg69843.cover.medium.jpg","application/octet-stream":"https://www.gutenberg.org/files/69843/69843-0.zip"},"download_count":26},{"id":69847,"title":"Travels through Central Africa to Timbuctoo and across the Great Desert to Morocco performed in the year 1824-1828, in Two Volumes, Vol. I","authors":[{"name":"Caillié, René","birth_year":1799,"death_year":1838}],"translators":[],"subjects":["Sahara -- Description and travel","Sudan (Region) -- Description and travel"],"bookshelves":[],"languages":["en"],"copyright":false,"media_type":"Text","formats":{"text/html":"https://www.gutenberg.org/ebooks/69847.html.images","application/epub+zip":"https://www.gutenberg.org/ebooks/69847.epub3.images","application/x-mobipocket-ebook":"https://www.gutenberg.org/ebooks/69847.kf8.images","text/plain; charset=us-ascii":"https://www.gutenberg.org/ebooks/69847.txt.utf-8","application/rdf+xml":"https://www.gutenberg.org/ebooks/69847.rdf","image/jpeg":"https://www.gutenberg.org/cache/epub/69847/pg69847.cover.medium.jpg","application/octet-stream":"https://www.gutenberg.org/files/69847/69847-0.zip"},"download_count":26},{"id":69932,"title":"A horse on me","authors":[{"name":"Loomis, Noel M.","birth_year":1905,"death_year":1969}],"translators":[],"subjects":["Journalists -- Fiction","Robots -- Fiction","Science fiction","Short stories","Time travel -- Fiction"],"bookshelves":[],"languages":["en"],"copyright":false,"media_type":"Text","formats":{"text/html":"https://www.gutenberg.org/ebooks/69932.html.images","application/epub+zip":"https://www.gutenberg.org/ebooks/69932.epub3.images","application/x-mobipocket-ebook":"https://www.gutenberg.org/ebooks/69932.kf8.images","text/plain; charset=us-ascii":"https://www.gutenberg.org/ebooks/69932.txt.utf-8","application/rdf+xml":"https://www.gutenberg.org/ebooks/69932.rdf","image/jpeg":"https://www.gutenberg.org/cache/epub/69932/pg69932.cover.medium.jpg","application/octet-stream":"https://www.gutenberg.org/files/69932/69932-0.zip"},"download_count":26},{"id":69964,"title":"History of the war in the Peninsula and in the south of France from the year 1807 to the year 1814, vol. 6","authors":[{"name":"Napier, William Francis Patrick","birth_year":1785,"death_year":1860}],"translators":[],"subjects":["Peninsular War, 1807-1814"],"bookshelves":[],"languages":["en"],"copyright":false,"media_type":"Text","formats":{"text/html":"https://www.gutenberg.org/ebooks/69964.html.images","application/epub+zip":"https://www.gutenberg.org/ebooks/69964.epub3.images","application/x-mobipocket-ebook":"https://www.gutenberg.org/ebooks/69964.kf8.images","text/plain; charset=us-ascii":"https://www.gutenberg.org/ebooks/69964.txt.utf-8","application/rdf+xml":"https://www.gutenberg.org/ebooks/69964.rdf","image/jpeg":"https://www.gutenberg.org/cache/epub/69964/pg69964.cover.medium.jpg","application/octet-stream":"https://www.gutenberg.org/files/69964/69964-0.zip"},"download_count":26},{"id":69968,"title":"Frank Allen at Gold Fork; or, Locating the lost claim","authors":[{"name":"Forbes, Graham B.","birth_year":null,"death_year":null}],"translators":[],"subjects":["Gold mines and mining -- Juvenile fiction"],"bookshelves":[],"languages":["en"],"copyright":false,"media_type":"Text","formats":{"text/html":"https://www.gutenberg.org/ebooks/69968.html.images","application/epub+zip":"https://www.gutenberg.org/ebooks/69968.epub3.images","application/x-mobipocket-ebook":"https://www.gutenberg.org/ebooks/69968.kf8.images","text/plain; charset=us-ascii":"https://www.gutenberg.org/ebooks/69968.txt.utf-8","application/rdf+xml":"https://www.gutenberg.org/ebooks/69968.rdf","image/jpeg":"https://www.gutenberg.org/cache/epub/69968/pg69968.cover.medium.jpg","application/octet-stream":"https://www.gutenberg.org/files/69968/69968-0.zip"},"download_count":26},{"id":69972,"title":"The changed brides","authors":[{"name":"Southworth, Emma Dorothy Eliza Nevitte","birth_year":1819,"death_year":1899}],"translators":[],"subjects":["American fiction -- 19th century"],"bookshelves":[],"languages":["en"],"copyright":false,"media_type":"Text","formats":{"text/html":"https://www.gutenberg.org/ebooks/69972.html.images","application/epub+zip":"https://www.gutenberg.org/ebooks/69972.epub3.images","application/x-mobipocket-ebook":"https://www.gutenberg.org/ebooks/69972.kf8.images","text/plain; charset=us-ascii":"https://www.gutenberg.org/ebooks/69972.txt.utf-8","application/rdf+xml":"https://www.gutenberg.org/ebooks/69972.rdf","image/jpeg":"https://www.gutenberg.org/cache/epub/69972/pg69972.cover.medium.jpg","application/octet-stream":"https://www.gutenberg.org/files/69972/69972-0.zip"},"download_count":26},{"id":70113,"title":"Thirty years in Madagascar","authors":[{"name":"Matthews, Thomas T.","birth_year":null,"death_year":null}],"translators":[],"subjects":["Missions -- Madagascar"],"bookshelves":[],"languages":["en"],"copyright":false,"media_type":"Text","formats":{"text/html":"https://www.gutenberg.org/ebooks/70113.html.images","application/epub+zip":"https://www.gutenberg.org/ebooks/70113.epub3.images","application/x-mobipocket-ebook":"https://www.gutenberg.org/ebooks/70113.kf8.images","text/plain; charset=us-ascii":"https://www.gutenberg.org/ebooks/70113.txt.utf-8","application/rdf+xml":"https://www.gutenberg.org/ebooks/70113.rdf","image/jpeg":"https://www.gutenberg.org/cache/epub/70113/pg70113.cover.medium.jpg","application/octet-stream":"https://www.gutenberg.org/files/70113/70113-0.zip"},"download_count":26},{"id":70155,"title":"Sibling","authors":[{"name":"Waltham, Leslie","birth_year":null,"death_year":null}],"translators":[],"subjects":["Families -- Fiction","Life on other planets -- Fiction","Science fiction","Short stories","Telepathy -- Fiction","Venus (Planet) -- Fiction"],"bookshelves":[],"languages":["en"],"copyright":false,"media_type":"Text","formats":{"text/html":"https://www.gutenberg.org/ebooks/70155.html.images","application/epub+zip":"https://www.gutenberg.org/ebooks/70155.epub3.images","application/x-mobipocket-ebook":"https://www.gutenberg.org/ebooks/70155.kf8.images","text/plain; charset=us-ascii":"https://www.gutenberg.org/ebooks/70155.txt.utf-8","application/rdf+xml":"https://www.gutenberg.org/ebooks/70155.rdf","image/jpeg":"https://www.gutenberg.org/cache/epub/70155/pg70155.cover.medium.jpg","application/octet-stream":"https://www.gutenberg.org/files/70155/70155-0.zip"},"download_count":26},{"id":70158,"title":"Beast of prey","authors":[{"name":"Williams, Jay","birth_year":1914,"death_year":1978}],"translators":[],"subjects":["Human-alien encounters -- Fiction","Life on other planets -- Fiction","Outer space -- Exploration -- Fiction","Science fiction","Short stories"],"bookshelves":[],"languages":["en"],"copyright":false,"media_type":"Text","formats":{"text/html":"https://www.gutenberg.org/ebooks/70158.html.images","application/epub+zip":"https://www.gutenberg.org/ebooks/70158.epub3.images","application/x-mobipocket-ebook":"https://www.gutenberg.org/ebooks/70158.kf8.images","text/plain; charset=us-ascii":"https://www.gutenberg.org/ebooks/70158.txt.utf-8","application/rdf+xml":"https://www.gutenberg.org/ebooks/70158.rdf","image/jpeg":"https://www.gutenberg.org/cache/epub/70158/pg70158.cover.medium.jpg","application/octet-stream":"https://www.gutenberg.org/files/70158/70158-0.zip"},"download_count":26},{"id":70169,"title":"Harness making","authors":[],"translators":[],"subjects":["Harness making and trade","Harnesses","Horses -- Equipment and supplies"],"bookshelves":[],"languages":["en"],"copyright":false,"media_type":"Text","formats":{"text/html":"https://www.gutenberg.org/ebooks/70169.html.images","application/epub+zip":"https://www.gutenberg.org/ebooks/70169.epub3.images","application/x-mobipocket-ebook":"https://www.gutenberg.org/ebooks/70169.kf8.images","text/plain; charset=us-ascii":"https://www.gutenberg.org/ebooks/70169.txt.utf-8","application/rdf+xml":"https://www.gutenberg.org/ebooks/70169.rdf","image/jpeg":"https://www.gutenberg.org/cache/epub/70169/pg70169.cover.medium.jpg","application/octet-stream":"https://www.gutenberg.org/files/70169/70169-0.zip"},"download_count":26},{"id":70196,"title":"Evil eye in the western Highlands","authors":[{"name":"Maclagan, Robert Craig","birth_year":1839,"death_year":1919}],"translators":[],"subjects":["Evil eye","Folklore","Superstition"],"bookshelves":[],"languages":["en"],"copyright":false,"media_type":"Text","formats":{"text/html":"https://www.gutenberg.org/ebooks/70196.html.images","application/epub+zip":"https://www.gutenberg.org/ebooks/70196.epub3.images","application/x-mobipocket-ebook":"https://www.gutenberg.org/ebooks/70196.kf8.images","text/plain; charset=us-ascii":"https://www.gutenberg.org/ebooks/70196.txt.utf-8","application/rdf+xml":"https://www.gutenberg.org/ebooks/70196.rdf","image/jpeg":"https://www.gutenberg.org/cache/epub/70196/pg70196.cover.medium.jpg","application/octet-stream":"https://www.gutenberg.org/files/70196/70196-0.zip"},"download_count":26},{"id":70249,"title":"Uncle Jo's Old Coat","authors":[{"name":"Stooke, Eleanora H.","birth_year":null,"death_year":null}],"translators":[],"subjects":["Children -- Conduct of life -- Juvenile fiction","Cousins -- Juvenile fiction","Families -- Juvenile fiction"],"bookshelves":[],"languages":["en"],"copyright":false,"media_type":"Text","formats":{"text/html":"https://www.gutenberg.org/ebooks/70249.html.images","application/epub+zip":"https://www.gutenberg.org/ebooks/70249.epub3.images","application/x-mobipocket-ebook":"https://www.gutenberg.org/ebooks/70249.kf8.images","text/plain; charset=us-ascii":"https://www.gutenberg.org/ebooks/70249.txt.utf-8","application/rdf+xml":"https://www.gutenberg.org/ebooks/70249.rdf","image/jpeg":"https://www.gutenberg.org/cache/epub/70249/pg70249.cover.medium.jpg","application/octet-stream":"https://www.gutenberg.org/files/70249/70249-0.zip"},"download_count":26},{"id":70262,"title":"The tithe","authors":[{"name":"Stewart, Elmer Bryan","birth_year":1865,"death_year":null}],"translators":[],"subjects":["Tithes"],"bookshelves":[],"languages":["en"],"copyright":false,"media_type":"Text","formats":{"text/html":"https://www.gutenberg.org/ebooks/70262.html.images","application/epub+zip":"https://www.gutenberg.org/ebooks/70262.epub3.images","application/x-mobipocket-ebook":"https://www.gutenberg.org/ebooks/70262.kf8.images","text/plain; charset=us-ascii":"https://www.gutenberg.org/ebooks/70262.txt.utf-8","application/rdf+xml":"https://www.gutenberg.org/ebooks/70262.rdf","image/jpeg":"https://www.gutenberg.org/cache/epub/70262/pg70262.cover.medium.jpg","application/octet-stream":"https://www.gutenberg.org/files/70262/70262-0.zip"},"download_count":26}]}