{"count":58808,"next":"http://129.241.150.113:8000/books/?languages=en&page=1787","previous":"http://129.241.150.113:8000/books/?languages=en&page=1785","results":[{"id":6741,"title":"Memoirs of the Life of the Rt. Hon. Richard Brinsley Sheridan — Volume 01","authors":[{"name":"Moore, Thomas","birth_year":1779,"death_year":1852}],"translators":[],"subjects":["Dramatists, English -- 18th century -- Biography","Great Britain -- Politics and government -- 1760-1820","Legislators -- Great Britain -- Biography","Sheridan, Richard Brinsley, 1751-1816","Theatrical managers -- Great Britain -- Biography"],"bookshelves":[],"languages":["en"],"copyright":false,"media_type":"Text","formats":{"text/html":"https://www.gutenberg.org/ebooks/6741.html.images","application/epub+zip":"https://www.gutenberg.org/ebooks/6741.epub3.images","application/x-mobipocket-ebook":"https://www.gutenberg.org/ebooks/6741.kf8.images","text/plain; charset=us-ascii":"https://www.gutenberg.org/ebooks/6741.txt.utf-8","application/rdf+xml":"https://www.gutenberg.org/ebooks/6741.rdf","image/jpeg":"https://www.gutenberg.org/cache/epub/6741/pg6741.cover.medium.jpg","application/octet-stream":"https://www.gutenberg.org/cache/epub/6741/pg6741-h.zip"},"download_count":13},{"id":6907,"title":"From Wealth to Poverty; Or, the Tricks of the Traffic. A Story of the Drink Curse","authors":[{"name":"Potter, Austin","birth_year":1842,"death_year":1913}],"translators":[],"subjects":["Temperance -- Fiction"],"bookshelves":[],"languages":["en"],"copyright":false,"media_type":"Text","formats":{"text/html":"https://www.gutenberg.org/ebooks/6907.html.images","application/epub+zip":"https://www.gutenberg.org/ebooks/6907.epub3.images","application/x-mobipocket-ebook":"https://www.gutenberg.org/ebooks/6907.kf8.images","text/plain; charset=us-ascii":"https://www.gutenberg.org/ebooks/6907.txt.utf-8","text/plain; charset=utf-8":"https://www.gutenberg.org/files/6907/6907-0.txt","application/rdf+xml":"https://www.gutenberg.org/ebooks/6907.rdf","image/jpeg":"https://www.gutenberg.org/cache/epub/6907/pg6907.cover.medium.jpg","application/octet-stream":"https://www.gutenberg.org/cache/epub/6907/pg6907-h.zip"},"download_count":13},{"id":6957,"title":"Canada and Other Poems","authors":[{"name":"Young, T. F. (Thomas Frederick)","birth_year":null,"death_year":1940}],"translators":[],"subjects":["Canadian poetry"],"bookshelves":[],"languages":["en"],"copyright":false,"media_type":"Text","formats":{"text/html":"https://www.gutenberg.org/ebooks/6957.html.images","application/epub+zip":"https://www.gutenberg.org/ebooks/6957.epub3.images","application/x-mobipocket-ebook":"https://www.gutenberg.org/ebooks/6957.kf8.images","text/plain; charset=us-ascii":"https://www.gutenberg.org/ebooks/6957.txt.utf-8","application/rdf+xml":"https://www.gutenberg.org/ebooks/6957.rdf","image/jpeg":"https://www.gutenberg.org/cache/epub/6957/pg6957.cover.medium.jpg","application/octet-stream":"https://www.gutenberg.org/files/6957/6957.zip"},"download_count":13},{"id":6976,"title":"Metlakahtla and the North Pacific Mission of the Church Missionary Society","authors":[{"name":"Stock, Eugene","birth_year":1836,"death_year":1928}],"translators":[],"subjects":["British Columbia -- Discovery and exploration","Indians of North America -- British Columbia","Indians of North America -- Missions","Metlakatla (B.C.) -- History","Missions -- British Columbia"],"bookshelves":[],"languages":["en"],"copyright":false,"media_type":"Text","formats":{"text/html":"https://www.gutenberg.org/ebooks/6976.html.images","application/epub+zip":"https://www.gutenberg.org/ebooks/6976.epub3.images","application/x-mobipocket-ebook":"https://www.gutenberg.org/ebooks/6976.kf8.images","text/plain; charset=us-ascii":"https://www.gutenberg.org/ebooks/6976.txt.utf-8","application/rdf+xml":"https://www.gutenberg.org/ebooks/6976.rdf","image/jpeg":"https://www.gutenberg.org/cache/epub/6976/pg6976.cover.medium.jpg","application/octet-stream":"https://www.gutenberg.org/cache/epub/6976/pg6976-h.zip"},"download_count":13},{"id":6979,"title":"The Little Regiment, and Other Episodes of the American Civil War","authors":[{"name":"Crane, Stephen","birth_year":1871,"death_year":1900}],"translators":[],"subjects":["United States -- History -- Civil War, 1861-1865 -- Fiction","War stories, American"],"bookshelves":["US Civil War"],"languages":["en"],"copyright":false,"media_type":"Text","formats":{"text/html":"https://www.gutenberg.org/ebooks/6979.html.images","application/epub+zip":"https://www.gutenberg.org/ebooks/6979.epub3.images","application/x-mobipocket-ebook":"https://www.gutenberg.org/ebooks/6979.kf8.images","text/plain; charset=us-ascii":"https://www.gutenberg.org/ebooks/6979.txt.utf-8","application/rdf+xml":"https://www.gutenberg.org/ebooks/6979.rdf","image/jpeg":"https://www.gutenberg.org/cache/epub/6979/pg6979.cover.medium.jpg","application/octet-stream":"https://www.gutenberg.org/cache/epub/6979/pg6979-h.zip"},"download_count":13},{"id":7038,"title":"Personal Experiences of S. O. Susag","authors":[{"name":"Susag, S. O.","birth_year":1862,"death_year":1952}],"translators":[],"subjects":["Evangelists -- Biography"],"bookshelves":[],"languages":["en"],"copyright":false,"media_type":"Text","formats":{"text/html":"https://www.gutenberg.org/ebooks/7038.html.images","application/epub+zip":"https://www.gutenberg.org/ebooks/7038.epub3.images","application/x-mobipocket-ebook":"https://www.gutenberg.org/ebooks/7038.kf8.images","text/plain; charset=us-ascii":"https://www.gutenberg.org/ebooks/7038.txt.utf-8","application/rdf+xml":"https://www.gutenberg.org/ebooks/7038.rdf","image/jpeg":"https://www.gutenberg.org/cache/epub/7038/pg7038.cover.medium.jpg","application/octet-stream":"https://www.gutenberg.org/cache/epub/7038/pg7038-h.zip"},"download_count":13},{"id":7117,"title":"Memoirs of Sir Wemyss Reid 1842-1885","authors":[{"name":"Reid, T. Wemyss (Thomas Wemyss)","birth_year":1842,"death_year":1905}],"translators":[],"subjects":["Journalists -- Great Britain -- Biography","Reid, T. Wemyss (Thomas Wemyss), 1842-1905"],"bookshelves":[],"languages":["en"],"copyright":false,"media_type":"Text","formats":{"text/html":"https://www.gutenberg.org/ebooks/7117.html.images","application/epub+zip":"https://www.gutenberg.org/ebooks/7117.epub3.images","application/x-mobipocket-ebook":"https://www.gutenberg.org/ebooks/7117.kf8.images","text/plain; charset=us-ascii":"https://www.gutenberg.org/ebooks/7117.txt.utf-8","text/plain; charset=iso-8859-1":"https://www.gutenberg.org/files/7117/7117-8.txt","application/rdf+xml":"https://www.gutenberg.org/ebooks/7117.rdf","image/jpeg":"https://www.gutenberg.org/cache/epub/7117/pg7117.cover.medium.jpg","application/octet-stream":"https://www.gutenberg.org/cache/epub/7117/pg7117-h.zip"},"download_count":13},{"id":7231,"title":"Light O' the Morning: The Story of an Irish Girl","authors":[{"name":"Meade, L. T.","birth_year":1854,"death_year":1914}],"translators":[],"subjects":["Aristocracy (Social class) -- Ireland -- Juvenile fiction","Girls -- Ireland -- Juvenile fiction","Ireland -- Juvenile fiction"],"bookshelves":["Children's Fiction"],"languages":["en"],"copyright":false,"media_type":"Text","formats":{"text/html":"https://www.gutenberg.org/ebooks/7231.html.images","text/html; charset=utf-8":"https://www.gutenberg.org/files/7231/7231-h/7231-h.htm","application/epub+zip":"https://www.gutenberg.org/ebooks/7231.epub3.images","application/x-mobipocket-ebook":"https://www.gutenberg.org/ebooks/7231.kf8.images","text/plain; charset=us-ascii":"https://www.gutenberg.org/ebooks/7231.txt.utf-8","text/plain; charset=utf-8":"https://www.gutenberg.org/files/7231/7231-0.txt","text/plain; charset=iso-8859-1":"https://www.gutenberg.org/files/7231/7231-8.txt","application/rdf+xml":"https://www.gutenberg.org/ebooks/7231.rdf","image/jpeg":"https://www.gutenberg.org/cache/epub/7231/pg7231.cover.medium.jpg","application/octet-stream":"https://www.gutenberg.org/cache/epub/7231/pg7231-h.zip"},"download_count":13},{"id":7397,"title":"The Poetical Works of Oliver Wendell Holmes — Volume 10: Before the Curfew","authors":[{"name":"Holmes, Oliver Wendell","birth_year":1809,"death_year":1894}],"translators":[],"subjects":["American poetry"],"bookshelves":[],"languages":["en"],"copyright":false,"media_type":"Text","formats":{"text/html":"https://www.gutenberg.org/ebooks/7397.html.images","application/epub+zip":"https://www.gutenberg.org/ebooks/7397.epub3.images","application/x-mobipocket-ebook":"https://www.gutenberg.org/ebooks/7397.kf8.images","text/plain; charset=us-ascii":"https://www.gutenberg.org/ebooks/7397.txt.utf-8","application/rdf+xml":"https://www.gutenberg.org/ebooks/7397.rdf","image/jpeg":"https://www.gutenberg.org/cache/epub/7397/pg7397.cover.medium.jpg","application/octet-stream":"https://www.gutenberg.org/cache/epub/7397/pg7397-h.zip"},"download_count":13},{"id":7519,"title":"The Nomad of the Nine Lives","authors":[{"name":"Friebe, A. Frances (Abby Frances)","birth_year":1861,"death_year":null}],"translators":[],"subjects":["Cats -- Juvenile fiction"],"bookshelves":[],"languages":["en"],"copyright":false,"media_type":"Text","formats":{"text/html":"https://www.gutenberg.org/ebooks/7519.html.images","text/html; charset=us-ascii":"https://www.gutenberg.org/files/7519/7519-h/7519-h.htm","application/epub+zip":"https://www.gutenberg.org/ebooks/7519.epub3.images","application/x-mobipocket-ebook":"https://www.gutenberg.org/ebooks/7519.kf8.images","text/plain; charset=us-ascii":"https://www.gutenberg.org/ebooks/7519.txt.utf-8","application/rdf+xml":"https://www.gutenberg.org/ebooks/7519.rdf","image/jpeg":"https://www.gutenberg.org/cache/epub/7519/pg7519.cover.medium.jpg","application/octet-stream":"https://www.gutenberg.org/cache/epub/7519/pg7519-h.zip"},"download_count":13},{"id":7586,"title":"The Caxtons: A Family Picture — Volume 01","authors":[{"name":"Lytton, Edward Bulwer Lytton, Baron","birth_year":1803,"death_year":1873}],"translators":[],"subjects":["English fiction -- 19th century","Families -- Fiction"],"bookshelves":[],"languages":["en"],"copyright":false,"media_type":"Text","formats":{"text/html":"https://www.gutenberg.org/ebooks/7586.html.images","application/epub+zip":"https://www.gutenberg.org/ebooks/7586.epub3.images","application/x-mobipocket-ebook":"https://www.gutenberg.org/ebooks/7586.kf8.images","text/plain; charset=us-ascii":"https://www.gutenberg.org/ebooks/7586.txt.utf-8","application/rdf+xml":"https://www.gutenberg.org/ebooks/7586.rdf","image/jpeg":"https://www.gutenberg.org/cache/epub/7586/pg7586.cover.medium.jpg","application/octet-stream":"https://www.gutenberg.org/cache/epub/7586/pg7586-h.zip"},"download_count":13},{"id":7588,"title":"The Caxtons: A Family Picture — Volume 03","authors":[{"name":"Lytton, Edward Bulwer Lytton, Baron","birth_year":1803,"death_year":1873}],"translators":[],"subjects":["English fiction -- 19th century","Families -- Fiction"],"bookshelves":[],"languages":["en"],"copyright":false,"media_type":"Text","formats":{"text/html":"https://www.gutenberg.org/ebooks/7588.html.images","application/epub+zip":"https://www.gutenberg.org/ebooks/7588.epub3.images","application/x-mobipocket-ebook":"https://www.gutenberg.org/ebooks/7588.kf8.images","text/plain; charset=us-ascii":"https://www.gutenberg.org/ebooks/7588.txt.utf-8","application/rdf+xml":"https://www.gutenberg.org/ebooks/7588.rdf","image/jpeg":"https://www.gutenberg.org/cache/epub/7588/pg7588.cover.medium.jpg","application/octet-stream":"https://www.gutenberg.org/cache/epub/7588/pg7588-h.zip"},"download_count":13},{"id":7626,"title":"Devereux — Volume 03","authors":[{"name":"Lytton, Edward Bulwer Lytton, Baron","birth_year":1803,"death_year":1873}],"translators":[],"subjects":["Great Britain -- History -- Anne, 1702-1714 -- Fiction"],"bookshelves":["Historical Fiction"],"languages":["en"],"copyright":false,"media_type":"Text","formats":{"text/html":"https://www.gutenberg.org/ebooks/7626.html.images","application/epub+zip":"https://www.gutenberg.org/ebooks/7626.epub3.images","application/x-mobipocket-ebook":"https://www.gutenberg.org/ebooks/7626.kf8.images","text/plain; charset=us-ascii":"https://www.gutenberg.org/ebooks/7626.txt.utf-8","application/rdf+xml":"https://www.gutenberg.org/ebooks/7626.rdf","image/jpeg":"https://www.gutenberg.org/cache/epub/7626/pg7626.cover.medium.jpg","application/octet-stream":"https://www.gutenberg.org/cache/epub/7626/pg7626-h.zip"},"download_count":13},{"id":7629,"title":"Devereux — Volume 06","authors":[{"name":"Lytton, Edward Bulwer Lytton, Baron","birth_year":1803,"death_year":1873}],"translators":[],"subjects":["Great Britain -- History -- Anne, 1702-1714 -- Fiction"],"bookshelves":["Historical Fiction"],"languages":["en"],"copyright":false,"media_type":"Text","formats":{"text/html":"https://www.gutenberg.org/ebooks/7629.html.images","application/epub+zip":"https://www.gutenberg.org/ebooks/7629.epub3.images","application/x-mobipocket-ebook":"https://www.gutenberg.org/ebooks/7629.kf8.images","text/plain; charset=us-ascii":"https://www.gutenberg.org/ebooks/7629.txt.utf-8","application/rdf+xml":"https://www.gutenberg.org/ebooks/7629.rdf","image/jpeg":"https://www.gutenberg.org/cache/epub/7629/pg7629.cover.medium.jpg","application/octet-stream":"https://www.gutenberg.org/cache/epub/7629/pg7629-h.zip"},"download_count":13},{"id":7634,"title":"The Disowned — Volume 04","authors":[{"name":"Lytton, Edward Bulwer Lytton, Baron","birth_year":1803,"death_year":1873}],"translators":[],"subjects":["English fiction -- 19th century"],"bookshelves":[],"languages":["en"],"copyright":false,"media_type":"Text","formats":{"text/html":"https://www.gutenberg.org/ebooks/7634.html.images","application/epub+zip":"https://www.gutenberg.org/ebooks/7634.epub3.images","application/x-mobipocket-ebook":"https://www.gutenberg.org/ebooks/7634.kf8.images","text/plain; charset=us-ascii":"https://www.gutenberg.org/ebooks/7634.txt.utf-8","application/rdf+xml":"https://www.gutenberg.org/ebooks/7634.rdf","image/jpeg":"https://www.gutenberg.org/cache/epub/7634/pg7634.cover.medium.jpg","application/octet-stream":"https://www.gutenberg.org/cache/epub/7634/pg7634-h.zip"},"download_count":13},{"id":7676,"title":"Harold : the Last of the Saxon Kings — Volume 05","authors":[{"name":"Lytton, Edward Bulwer Lytton, Baron","birth_year":1803,"death_year":1873}],"translators":[],"subjects":["Anglo-Saxons -- Kings and rulers -- Fiction","Biographical fiction","Great Britain -- History -- Edward, the Confessor, 1042-1066 -- Fiction","Great Britain -- Kings and rulers -- Fiction","Harold, King of England, 1022?-1066 -- Fiction","William I, King of England, 1027 or 8-1087 -- Fiction"],"bookshelves":["Historical Fiction"],"languages":["en"],"copyright":false,"media_type":"Text","formats":{"text/html":"https://www.gutenberg.org/ebooks/7676.html.images","application/epub+zip":"https://www.gutenberg.org/ebooks/7676.epub3.images","application/x-mobipocket-ebook":"https://www.gutenberg.org/ebooks/7676.kf8.images","text/plain; charset=us-ascii":"https://www.gutenberg.org/ebooks/7676.txt.utf-8","application/rdf+xml":"https://www.gutenberg.org/ebooks/7676.rdf","image/jpeg":"https://www.gutenberg.org/cache/epub/7676/pg7676.cover.medium.jpg","application/octet-stream":"https://www.gutenberg.org/cache/epub/7676/pg7676-h.zip"},"download_count":13},{"id":7686,"title":"Lucretia — Volume 02","authors":[{"name":"Lytton, Edward Bulwer Lytton, Baron","birth_year":1803,"death_year":1873}],"translators":[],"subjects":["Crime -- Fiction","Detective and mystery stories, English","English fiction -- 19th century","London (England) -- Fiction"],"bookshelves":[],"languages":["en"],"copyright":false,"media_type":"Text","formats":{"text/html":"https://www.gutenberg.org/ebooks/7686.html.images","application/epub+zip":"https://www.gutenberg.org/ebooks/7686.epub3.images","application/x-mobipocket-ebook":"https://www.gutenberg.org/ebooks/7686.kf8.images","text/plain; charset=us-ascii":"https://www.gutenberg.org/ebooks/7686.txt.utf-8","application/rdf+xml":"https://www.gutenberg.org/ebooks/7686.rdf","image/jpeg":"https://www.gutenberg.org/cache/epub/7686/pg7686.cover.medium.jpg","application/octet-stream":"https://www.gutenberg.org/cache/epub/7686/pg7686-h.zip"},"download_count":13},{"id":7709,"title":"\"My Novel\" — Volume 08","authors":[{"name":"Lytton, Edward Bulwer Lytton, Baron","birth_year":1803,"death_year":1873}],"translators":[],"subjects":["Death -- Fiction","Domestic fiction","England -- Fiction","Germany -- Fiction","Inventors -- Fiction","Poets -- Fiction","Rhine River -- Fiction"],"bookshelves":[],"languages":["en"],"copyright":false,"media_type":"Text","formats":{"text/html":"https://www.gutenberg.org/ebooks/7709.html.images","application/epub+zip":"https://www.gutenberg.org/ebooks/7709.epub3.images","application/x-mobipocket-ebook":"https://www.gutenberg.org/ebooks/7709.kf8.images","text/plain; charset=us-ascii":"https://www.gutenberg.org/ebooks/7709.txt.utf-8","application/rdf+xml":"https://www.gutenberg.org/ebooks/7709.rdf","image/jpeg":"https://www.gutenberg.org/cache/epub/7709/pg7709.cover.medium.jpg","application/octet-stream":"https://www.gutenberg.org/cache/epub/7709/pg7709-h.zip"},"download_count":13},{"id":7710,"title":"\"My Novel\" — Volume 09","authors":[{"name":"Lytton, Edward Bulwer Lytton, Baron","birth_year":1803,"death_year":1873}],"translators":[],"subjects":["Death -- Fiction","Domestic fiction","England -- Fiction","Germany -- Fiction","Inventors -- Fiction","Poets -- Fiction","Rhine River -- Fiction"],"bookshelves":[],"languages":["en"],"copyright":false,"media_type":"Text","formats":{"text/html":"https://www.gutenberg.org/ebooks/7710.html.images","application/epub+zip":"https://www.gutenberg.org/ebooks/7710.epub3.images","application/x-mobipocket-ebook":"https://www.gutenberg.org/ebooks/7710.kf8.images","text/plain; charset=us-ascii":"https://www.gutenberg.org/ebooks/7710.txt.utf-8","application/rdf+xml":"https://www.gutenberg.org/ebooks/7710.rdf","image/jpeg":"https://www.gutenberg.org/cache/epub/7710/pg7710.cover.medium.jpg","application/octet-stream":"https://www.gutenberg.org/cache/epub/7710/pg7710-h.zip"},"download_count":13},{"id":7758,"title":"Falkland, Book 2.","authors":[{"name":"Lytton, Edward Bulwer Lytton, Baron","birth_year":1803,"death_year":1873}],"translators":[],"subjects":["Fiction"],"bookshelves":[],"languages":["en"],"copyright":false,"media_type":"Text","formats":{"text/html":"https://www.gutenberg.org/ebooks/7758.html.images","application/epub+zip":"https://www.gutenberg.org/ebooks/7758.epub3.images","application/x-mobipocket-ebook":"https://www.gutenberg.org/ebooks/7758.kf8.images","text/plain; charset=us-ascii":"https://www.gutenberg.org/ebooks/7758.txt.utf-8","application/rdf+xml":"https://www.gutenberg.org/ebooks/7758.rdf","image/jpeg":"https://www.gutenberg.org/cache/epub/7758/pg7758.cover.medium.jpg","application/octet-stream":"https://www.gutenberg.org/cache/epub/7758/pg7758-h.zip"},"download_count":13},{"id":7783,"title":"Birch Bark Legends of Niagara","authors":[{"name":"Owahyah","birth_year":null,"death_year":null}],"translators":[],"subjects":["Indians of North America -- Folklore","Iroquois Indians -- Folklore"],"bookshelves":["Folklore","Native America"],"languages":["en"],"copyright":false,"media_type":"Text","formats":{"text/html":"https://www.gutenberg.org/ebooks/7783.html.images","application/epub+zip":"https://www.gutenberg.org/ebooks/7783.epub3.images","application/x-mobipocket-ebook":"https://www.gutenberg.org/ebooks/7783.kf8.images","text/plain; charset=us-ascii":"https://www.gutenberg.org/ebooks/7783.txt.utf-8","application/rdf+xml":"https://www.gutenberg.org/ebooks/7783.rdf","image/jpeg":"https://www.gutenberg.org/cache/epub/7783/pg7783.cover.medium.jpg","application/octet-stream":"https://www.gutenberg.org/cache/epub/7783/pg7783-h.zip"},"download_count":13},{"id":7801,"title":"Five Little Friends","authors":[{"name":"Adams, Sherred Willcox","birth_year":null,"death_year":null}],"translators":[],"subjects":["Friendship -- Juvenile fiction"],"bookshelves":[],"languages":["en"],"copyright":false,"media_type":"Text","formats":{"text/html":"https://www.gutenberg.org/ebooks/7801.html.images","text/html; charset=iso-8859-1":"https://www.gutenberg.org/files/7801/7801-h/7801-h.htm","application/epub+zip":"https://www.gutenberg.org/ebooks/7801.epub3.images","application/x-mobipocket-ebook":"https://www.gutenberg.org/ebooks/7801.kf8.images","text/plain; charset=us-ascii":"https://www.gutenberg.org/ebooks/7801.txt.utf-8","application/rdf+xml":"https://www.gutenberg.org/ebooks/7801.rdf","image/jpeg":"https://www.gutenberg.org/cache/epub/7801/pg7801.cover.medium.jpg","application/octet-stream":"https://www.gutenberg.org/cache/epub/7801/pg7801-h.zip"},"download_count":13},{"id":7856,"title":"The Cheerful Cricket and Others","authors":[{"name":"Marks, Jeannette Augustus","birth_year":1875,"death_year":1964}],"translators":[],"subjects":["Children's stories","Conduct of life -- Juvenile fiction"],"bookshelves":[],"languages":["en"],"copyright":false,"media_type":"Text","formats":{"text/html":"https://www.gutenberg.org/ebooks/7856.html.images","application/epub+zip":"https://www.gutenberg.org/ebooks/7856.epub3.images","application/x-mobipocket-ebook":"https://www.gutenberg.org/ebooks/7856.kf8.images","text/plain; charset=us-ascii":"https://www.gutenberg.org/ebooks/7856.txt.utf-8","application/rdf+xml":"https://www.gutenberg.org/ebooks/7856.rdf","image/jpeg":"https://www.gutenberg.org/cache/epub/7856/pg7856.cover.medium.jpg","application/octet-stream":"https://www.gutenberg.org/cache/epub/7856/pg7856-h.zip"},"download_count":13},{"id":7911,"title":"American Historical and Literary Curiosities, Part 11.: Second Series","authors":[{"name":"Smith, J. Jay (John Jay)","birth_year":1798,"death_year":1881}],"translators":[],"subjects":["Autographs -- United States -- Facsimiles","United States -- History -- Revolution, 1775-1783 -- Sources"],"bookshelves":[],"languages":["en"],"copyright":false,"media_type":"Text","formats":{"text/html":"https://www.gutenberg.org/ebooks/7911.html.images","text/html; charset=iso-8859-1":"https://www.gutenberg.org/files/7911/7911-h/7911-h.htm","application/epub+zip":"https://www.gutenberg.org/ebooks/7911.epub3.images","application/x-mobipocket-ebook":"https://www.gutenberg.org/ebooks/7911.kf8.images","text/plain; charset=us-ascii":"https://www.gutenberg.org/ebooks/7911.txt.utf-8","text/plain; charset=iso-8859-1":"https://www.gutenberg.org/files/7911/7911.txt","application/rdf+xml":"https://www.gutenberg.org/ebooks/7911.rdf","image/jpeg":"https://www.gutenberg.org/cache/epub/7911/pg7911.cover.medium.jpg","application/octet-stream":"https://www.gutenberg.org/cache/epub/7911/pg7911-h.zip"},"download_count":13},{"id":8010,"title":"The Bible, King James version, Book 10: 2 Samuel","authors":[{"name":"Anonymous","birth_year":null,"death_year":null}],"translators":[],"subjects":["Bible. Samuel, 2nd"],"bookshelves":["Judaism"],"languages":["en"],"copyright":false,"media_type":"Text","formats":{"text/html":"https://www.gutenberg.org/ebooks/8010.html.images","application/epub+zip":"https://www.gutenberg.org/ebooks/8010.epub3.images","application/x-mobipocket-ebook":"https://www.gutenberg.org/ebooks/8010.kf8.images","text/plain; charset=us-ascii":"https://www.gutenberg.org/ebooks/8010.txt.utf-8","application/rdf+xml":"https://www.gutenberg.org/ebooks/8010.rdf","image/jpeg":"https://www.gutenberg.org/cache/epub/8010/pg8010.cover.medium.jpg","application/octet-stream":"https://www.gutenberg.org/cache/epub/8010/pg8010-h.zip"},"download_count":13},{"id":8015,"title":"The Bible, King James version, Book 15: Ezra","authors":[{"name":"Anonymous","birth_year":null,"death_year":null}],"translators":[],"subjects":["Bible. Ezra"],"bookshelves":["Judaism"],"languages":["en"],"copyright":false,"media_type":"Text","formats":{"text/html":"https://www.gutenberg.org/ebooks/8015.html.images","application/epub+zip":"https://www.gutenberg.org/ebooks/8015.epub3.images","application/x-mobipocket-ebook":"https://www.gutenberg.org/ebooks/8015.kf8.images","text/plain; charset=us-ascii":"https://www.gutenberg.org/ebooks/8015.txt.utf-8","application/rdf+xml":"https://www.gutenberg.org/ebooks/8015.rdf","image/jpeg":"https://www.gutenberg.org/cache/epub/8015/pg8015.cover.medium.jpg","application/octet-stream":"https://www.gutenberg.org/cache/epub/8015/pg8015-h.zip"},"download_count":13},{"id":8030,"title":"The Bible, King James version, Book 30: Amos","authors":[{"name":"Anonymous","birth_year":null,"death_year":null}],"translators":[],"subjects":["Bible. Amos"],"bookshelves":["Judaism"],"languages":["en"],"copyright":false,"media_type":"Text","formats":{"text/html":"https://www.gutenberg.org/ebooks/8030.html.images","application/epub+zip":"https://www.gutenberg.org/ebooks/8030.epub3.images","application/x-mobipocket-ebook":"https://www.gutenberg.org/ebooks/8030.kf8.images","text/plain; charset=us-ascii":"https://www.gutenberg.org/ebooks/8030.txt.utf-8","application/rdf+xml":"https://www.gutenberg.org/ebooks/8030.rdf","image/jpeg":"https://www.gutenberg.org/cache/epub/8030/pg8030.cover.medium.jpg","application/octet-stream":"https://www.gutenberg.org/cache/epub/8030/pg8030-h.zip"},"download_count":13},{"id":8034,"title":"The Bible, King James version, Book 34: Nahum","authors":[{"name":"Anonymous","birth_year":null,"death_year":null}],"translators":[],"subjects":["Bible. Nahum"],"bookshelves":["Judaism"],"languages":["en"],"copyright":false,"media_type":"Text","formats":{"text/html":"https://www.gutenberg.org/ebooks/8034.html.images","application/epub+zip":"https://www.gutenberg.org/ebooks/8034.epub3.images","application/x-mobipocket-ebook":"https://www.gutenberg.org/ebooks/8034.kf8.images","text/plain; charset=us-ascii":"https://www.gutenberg.org/ebooks/8034.txt.utf-8","application/rdf+xml":"https://www.gutenberg.org/ebooks/8034.rdf","image/jpeg":"https://www.gutenberg.org/cache/epub/8034/pg8034.cover.medium.jpg","application/octet-stream":"https://www.gutenberg.org/cache/epub/8034/pg8034-h.zip"},"download_count":13},{"id":8055,"title":"The Bible, King James version, Book 55: 2 Timothy","authors":[{"name":"Anonymous","birth_year":null,"death_year":null}],"translators":[],"subjects":["Bible. Timothy, 2nd"],"bookshelves":[],"languages":["en"],"copyright":false,"media_type":"Text","formats":{"text/html":"https://www.gutenberg.org/ebooks/8055.html.images","application/epub+zip":"https://www.gutenberg.org/ebooks/8055.epub3.images","application/x-mobipocket-ebook":"https://www.gutenberg.org/ebooks/8055.kf8.images","text/plain; charset=us-ascii":"https://www.gutenberg.org/ebooks/8055.txt.utf-8","application/rdf+xml":"https://www.gutenberg.org/ebooks/8055.rdf","image/jpeg":"https://www.gutenberg.org/cache/epub/8055/pg8055.cover.medium.jpg","application/octet-stream":"https://www.gutenberg.org/cache/epub/8055/pg8055-h.zip"},"download_count":13},{"id":8114,"title":"Personal Recollections: Abridged, Chiefly in Parts Pertaining to Political and Other Controversies Prevalent at the Time in Great Britain","authors":[{"name":"Charlotte Elizabeth","birth_year":1790,"death_year":1846}],"translators":[],"subjects":["Authors, English -- 19th century -- Biography","Charlotte Elizabeth, 1790-1846"],"bookshelves":[],"languages":["en"],"copyright":false,"media_type":"Text","formats":{"text/html":"https://www.gutenberg.org/ebooks/8114.html.images","application/epub+zip":"https://www.gutenberg.org/ebooks/8114.epub3.images","application/x-mobipocket-ebook":"https://www.gutenberg.org/ebooks/8114.kf8.images","text/plain; charset=us-ascii":"https://www.gutenberg.org/ebooks/8114.txt.utf-8","text/plain; charset=iso-8859-1":"https://www.gutenberg.org/files/8114/8114-8.txt","application/rdf+xml":"https://www.gutenberg.org/ebooks/8114.rdf","image/jpeg":"https://www.gutenberg.org/cache/epub/8114/pg8114.cover.medium.jpg","application/octet-stream":"https://www.gutenberg.org/cache/epub/8114/pg8114-h.zip"},"download_count":13},{"id":8189,"title":"The Bride","authors":[{"name":"Rowlands, Samuel","birth_year":null,"death_year":null}],"translators":[],"subjects":["English poetry"],"bookshelves":[],"languages":["en"],"copyright":false,"media_type":"Text","formats":{"text/html":"https://www.gutenberg.org/ebooks/8189.html.images","application/epub+zip":"https://www.gutenberg.org/ebooks/8189.epub3.images","application/x-mobipocket-ebook":"https://www.gutenberg.org/ebooks/8189.kf8.images","text/plain; charset=us-ascii":"https://www.gutenberg.org/ebooks/8189.txt.utf-8","application/rdf+xml":"https://www.gutenberg.org/ebooks/8189.rdf","image/jpeg":"https://www.gutenberg.org/cache/epub/8189/pg8189.cover.medium.jpg","application/octet-stream":"https://www.gutenberg.org/cache/epub/8189/pg8189-h.zip"},"download_count":13},{"id":8249,"title":"The World English Bible (WEB): Song of Solomon","authors":[{"name":"Anonymous","birth_year":null,"death_year":null}],"translators":[],"subjects":["Bible. Song of Solomon"],"bookshelves":[],"languages":["en"],"copyright":false,"media_type":"Text","formats":{"text/html":"https://www.gutenberg.org/ebooks/8249.html.images","application/epub+zip":"https://www.gutenberg.org/ebooks/8249.epub3.images","application/x-mobipocket-ebook":"https://www.gutenberg.org/ebooks/8249.kf8.images","text/plain; charset=us-ascii":"https://www.gutenberg.org/ebooks/8249.txt.utf-8","application/rdf+xml":"https://www.gutenberg.org/ebooks/8249.rdf","image/jpeg":"https://www.gutenberg.org/cache/epub/8249/pg8249.cover.medium.jpg","application/octet-stream":"https://www.gutenberg.org/cache/epub/8249/pg8249-h.zip"},"download_count":13}]}