{"count":58808,"next":"http://129.241.150.113:8000/books/?languages=en&page=1753","previous":"http://129.241.150.113:8000/books/?languages=en&page=1751","results":[{"id":5469,"title":"Joshua — Volume 3","authors":[{"name":"Ebers, Georg","birth_year":1837,"death_year":1898}],"translators":[{"name":"Safford, Mary J.","birth_year":null,"death_year":null}],"subjects":["German fiction -- Translations into English","Palestine -- History -- Fiction"],"bookshelves":[],"languages":["en"],"copyright":false,"media_type":"Text","formats":{"text/html":"https://www.gutenberg.org/ebooks/5469.html.images","application/epub+zip":"https://www.gutenberg.org/ebooks/5469.epub3.images","application/x-mobipocket-ebook":"https://www.gutenberg.org/ebooks/5469.kf8.images","text/plain; charset=us-ascii":"https://www.gutenberg.org/ebooks/5469.txt.utf-8","application/rdf+xml":"https://www.gutenberg.org/ebooks/5469.rdf","image/jpeg":"https://www.gutenberg.org/cache/epub/5469/pg5469.cover.medium.jpg","application/octet-stream":"https://www.gutenberg.org/cache/epub/5469/pg5469-h.zip"},"download_count":15},{"id":5474,"title":"Cleopatra — Volume 02","authors":[{"name":"Ebers, Georg","birth_year":1837,"death_year":1898}],"translators":[{"name":"Safford, Mary J.","birth_year":null,"death_year":null}],"subjects":["Biographical fiction","Cleopatra, Queen of Egypt, -30 B.C. -- Fiction","Egypt -- History -- 332-30 B.C. -- Fiction","German fiction -- Translations into English","Queens -- Egypt -- Fiction"],"bookshelves":["Historical Fiction"],"languages":["en"],"copyright":false,"media_type":"Text","formats":{"text/html":"https://www.gutenberg.org/ebooks/5474.html.images","application/epub+zip":"https://www.gutenberg.org/ebooks/5474.epub3.images","application/x-mobipocket-ebook":"https://www.gutenberg.org/ebooks/5474.kf8.images","text/plain; charset=us-ascii":"https://www.gutenberg.org/ebooks/5474.txt.utf-8","application/rdf+xml":"https://www.gutenberg.org/ebooks/5474.rdf","image/jpeg":"https://www.gutenberg.org/cache/epub/5474/pg5474.cover.medium.jpg","application/octet-stream":"https://www.gutenberg.org/cache/epub/5474/pg5474-h.zip"},"download_count":15},{"id":5488,"title":"The Emperor — Volume 06","authors":[{"name":"Ebers, Georg","birth_year":1837,"death_year":1898}],"translators":[{"name":"Bell, Clara","birth_year":1834,"death_year":1927}],"subjects":["Egypt -- History -- 30 B.C.-640 A.D. -- Fiction","German fiction -- Translations into English","Hadrian, Emperor of Rome, 76-138 -- Fiction"],"bookshelves":[],"languages":["en"],"copyright":false,"media_type":"Text","formats":{"text/html":"https://www.gutenberg.org/ebooks/5488.html.images","application/epub+zip":"https://www.gutenberg.org/ebooks/5488.epub3.images","application/x-mobipocket-ebook":"https://www.gutenberg.org/ebooks/5488.kf8.images","text/plain; charset=us-ascii":"https://www.gutenberg.org/ebooks/5488.txt.utf-8","application/rdf+xml":"https://www.gutenberg.org/ebooks/5488.rdf","image/jpeg":"https://www.gutenberg.org/cache/epub/5488/pg5488.cover.medium.jpg","application/octet-stream":"https://www.gutenberg.org/cache/epub/5488/pg5488-h.zip"},"download_count":15},{"id":5491,"title":"The Emperor — Volume 09","authors":[{"name":"Ebers, Georg","birth_year":1837,"death_year":1898}],"translators":[{"name":"Bell, Clara","birth_year":1834,"death_year":1927}],"subjects":["Egypt -- History -- 30 B.C.-640 A.D. -- Fiction","German fiction -- Translations into English","Hadrian, Emperor of Rome, 76-138 -- Fiction"],"bookshelves":[],"languages":["en"],"copyright":false,"media_type":"Text","formats":{"text/html":"https://www.gutenberg.org/ebooks/5491.html.images","application/epub+zip":"https://www.gutenberg.org/ebooks/5491.epub3.images","application/x-mobipocket-ebook":"https://www.gutenberg.org/ebooks/5491.kf8.images","text/plain; charset=us-ascii":"https://www.gutenberg.org/ebooks/5491.txt.utf-8","application/rdf+xml":"https://www.gutenberg.org/ebooks/5491.rdf","image/jpeg":"https://www.gutenberg.org/cache/epub/5491/pg5491.cover.medium.jpg","application/octet-stream":"https://www.gutenberg.org/cache/epub/5491/pg5491-h.zip"},"download_count":15},{"id":5509,"title":"Arachne — Volume 02","authors":[{"name":"Ebers, Georg","birth_year":1837,"death_year":1898}],"translators":[{"name":"Safford, Mary J.","birth_year":null,"death_year":null}],"subjects":["Egypt -- History -- 332-30 B.C. -- Fiction","German fiction -- Translations into English"],"bookshelves":[],"languages":["en"],"copyright":false,"media_type":"Text","formats":{"text/html":"https://www.gutenberg.org/ebooks/5509.html.images","application/epub+zip":"https://www.gutenberg.org/ebooks/5509.epub3.images","application/x-mobipocket-ebook":"https://www.gutenberg.org/ebooks/5509.kf8.images","text/plain; charset=us-ascii":"https://www.gutenberg.org/ebooks/5509.txt.utf-8","application/rdf+xml":"https://www.gutenberg.org/ebooks/5509.rdf","image/jpeg":"https://www.gutenberg.org/cache/epub/5509/pg5509.cover.medium.jpg","application/octet-stream":"https://www.gutenberg.org/cache/epub/5509/pg5509-h.zip"},"download_count":15},{"id":5517,"title":"The Bride of the Nile — Volume 01","authors":[{"name":"Ebers, Georg","birth_year":1837,"death_year":1898}],"translators":[{"name":"Bell, Clara","birth_year":1834,"death_year":1927}],"subjects":["Egypt -- History -- Fiction","German fiction -- Translations into English"],"bookshelves":["Historical Fiction"],"languages":["en"],"copyright":false,"media_type":"Text","formats":{"text/html":"https://www.gutenberg.org/ebooks/5517.html.images","application/epub+zip":"https://www.gutenberg.org/ebooks/5517.epub3.images","application/x-mobipocket-ebook":"https://www.gutenberg.org/ebooks/5517.kf8.images","text/plain; charset=us-ascii":"https://www.gutenberg.org/ebooks/5517.txt.utf-8","application/rdf+xml":"https://www.gutenberg.org/ebooks/5517.rdf","image/jpeg":"https://www.gutenberg.org/cache/epub/5517/pg5517.cover.medium.jpg","application/octet-stream":"https://www.gutenberg.org/cache/epub/5517/pg5517-h.zip"},"download_count":15},{"id":5523,"title":"The Bride of the Nile — Volume 07","authors":[{"name":"Ebers, Georg","birth_year":1837,"death_year":1898}],"translators":[{"name":"Bell, Clara","birth_year":1834,"death_year":1927}],"subjects":["Egypt -- History -- Fiction","German fiction -- Translations into English"],"bookshelves":["Historical Fiction"],"languages":["en"],"copyright":false,"media_type":"Text","formats":{"text/html":"https://www.gutenberg.org/ebooks/5523.html.images","application/epub+zip":"https://www.gutenberg.org/ebooks/5523.epub3.images","application/x-mobipocket-ebook":"https://www.gutenberg.org/ebooks/5523.kf8.images","text/plain; charset=us-ascii":"https://www.gutenberg.org/ebooks/5523.txt.utf-8","application/rdf+xml":"https://www.gutenberg.org/ebooks/5523.rdf","image/jpeg":"https://www.gutenberg.org/cache/epub/5523/pg5523.cover.medium.jpg","application/octet-stream":"https://www.gutenberg.org/cache/epub/5523/pg5523-h.zip"},"download_count":15},{"id":5639,"title":"The Progressive Democracy of James M. Cox","authors":[{"name":"Morris, Charles E. (Charles Eugene)","birth_year":1884,"death_year":null}],"translators":[],"subjects":["Cox, James M. (James Middleton), 1870-1957","Legislators -- United States -- Biography","Politicians -- United States -- Biography","United States -- Politics and government -- 1913-1921"],"bookshelves":[],"languages":["en"],"copyright":false,"media_type":"Text","formats":{"text/html":"https://www.gutenberg.org/ebooks/5639.html.images","application/epub+zip":"https://www.gutenberg.org/ebooks/5639.epub3.images","application/x-mobipocket-ebook":"https://www.gutenberg.org/ebooks/5639.kf8.images","text/plain; charset=us-ascii":"https://www.gutenberg.org/ebooks/5639.txt.utf-8","application/rdf+xml":"https://www.gutenberg.org/ebooks/5639.rdf","image/jpeg":"https://www.gutenberg.org/cache/epub/5639/pg5639.cover.medium.jpg","application/octet-stream":"https://www.gutenberg.org/cache/epub/5639/pg5639-h.zip"},"download_count":15},{"id":5705,"title":"The Queen of Sheba, and My Cousin the Colonel","authors":[{"name":"Aldrich, Thomas Bailey","birth_year":1836,"death_year":1907}],"translators":[],"subjects":["Fiction"],"bookshelves":[],"languages":["en"],"copyright":false,"media_type":"Text","formats":{"text/html":"https://www.gutenberg.org/ebooks/5705.html.images","application/epub+zip":"https://www.gutenberg.org/ebooks/5705.epub3.images","application/x-mobipocket-ebook":"https://www.gutenberg.org/ebooks/5705.kf8.images","text/plain; charset=us-ascii":"https://www.gutenberg.org/ebooks/5705.txt.utf-8","application/rdf+xml":"https://www.gutenberg.org/ebooks/5705.rdf","image/jpeg":"https://www.gutenberg.org/cache/epub/5705/pg5705.cover.medium.jpg","application/octet-stream":"https://www.gutenberg.org/cache/epub/5705/pg5705-h.zip"},"download_count":15},{"id":5823,"title":"The Gilded Age, Part 6.","authors":[{"name":"Twain, Mark","birth_year":1835,"death_year":1910},{"name":"Warner, Charles Dudley","birth_year":1829,"death_year":1900}],"translators":[],"subjects":["Businessmen -- Fiction","Legislators -- Fiction","Political corruption -- Fiction","Political fiction","Satire","Speculation -- Fiction","Washington (D.C.) -- Fiction"],"bookshelves":[],"languages":["en"],"copyright":false,"media_type":"Text","formats":{"text/html":"https://www.gutenberg.org/ebooks/5823.html.images","text/html; charset=iso-8859-1":"https://www.gutenberg.org/files/5823/5823-h/5823-h.htm","application/epub+zip":"https://www.gutenberg.org/ebooks/5823.epub3.images","application/x-mobipocket-ebook":"https://www.gutenberg.org/ebooks/5823.kf8.images","text/plain; charset=us-ascii":"https://www.gutenberg.org/ebooks/5823.txt.utf-8","application/rdf+xml":"https://www.gutenberg.org/ebooks/5823.rdf","image/jpeg":"https://www.gutenberg.org/cache/epub/5823/pg5823.cover.medium.jpg","application/octet-stream":"https://www.gutenberg.org/cache/epub/5823/pg5823-h.zip"},"download_count":15},{"id":5857,"title":"Personal Memoirs of P. H. Sheridan, Volume 2, Part 4","authors":[{"name":"Sheridan, Philip Henry","birth_year":1831,"death_year":1888}],"translators":[],"subjects":["Generals -- United States -- Biography","Indians of North America -- Wars -- 1866-1895","Sheridan, Philip Henry, 1831-1888","United States -- History -- Civil War, 1861-1865 -- Campaigns","United States -- History -- Civil War, 1861-1865 -- Personal narratives","United States. Army -- Biography"],"bookshelves":["US Civil War"],"languages":["en"],"copyright":false,"media_type":"Text","formats":{"text/html":"https://www.gutenberg.org/ebooks/5857.html.images","text/html; charset=iso-8859-1":"https://www.gutenberg.org/files/5857/5857-h/5857-h.htm","application/epub+zip":"https://www.gutenberg.org/ebooks/5857.epub3.images","application/x-mobipocket-ebook":"https://www.gutenberg.org/ebooks/5857.kf8.images","text/plain; charset=us-ascii":"https://www.gutenberg.org/ebooks/5857.txt.utf-8","application/rdf+xml":"https://www.gutenberg.org/ebooks/5857.rdf","image/jpeg":"https://www.gutenberg.org/cache/epub/5857/pg5857.cover.medium.jpg","application/octet-stream":"https://www.gutenberg.org/cache/epub/5857/pg5857-h.zip"},"download_count":15},{"id":5934,"title":"The History of Don Quixote, Volume 2, Part 31","authors":[{"name":"Cervantes Saavedra, Miguel de","birth_year":1547,"death_year":1616}],"translators":[{"name":"Ormsby, John","birth_year":1829,"death_year":1895}],"subjects":["Knights and knighthood -- Spain -- Fiction","Picaresque literature","Romances","Spain -- Social life and customs -- 16th century -- Fiction"],"bookshelves":[],"languages":["en"],"copyright":false,"media_type":"Text","formats":{"text/html":"https://www.gutenberg.org/ebooks/5934.html.images","text/html; charset=iso-8859-1":"https://www.gutenberg.org/files/5934/5934-h/5934-h.htm","application/epub+zip":"https://www.gutenberg.org/ebooks/5934.epub3.images","application/x-mobipocket-ebook":"https://www.gutenberg.org/ebooks/5934.kf8.images","text/plain; charset=us-ascii":"https://www.gutenberg.org/ebooks/5934.txt.utf-8","application/rdf+xml":"https://www.gutenberg.org/ebooks/5934.rdf","image/jpeg":"https://www.gutenberg.org/cache/epub/5934/pg5934.cover.medium.jpg","application/octet-stream":"https://www.gutenberg.org/cache/epub/5934/pg5934-h.zip"},"download_count":15},{"id":5935,"title":"The History of Don Quixote, Volume 2, Part 32","authors":[{"name":"Cervantes Saavedra, Miguel de","birth_year":1547,"death_year":1616}],"translators":[{"name":"Ormsby, John","birth_year":1829,"death_year":1895}],"subjects":["Knights and knighthood -- Spain -- Fiction","Picaresque literature","Romances","Spain -- Social life and customs -- 16th century -- Fiction"],"bookshelves":[],"languages":["en"],"copyright":false,"media_type":"Text","formats":{"text/html":"https://www.gutenberg.org/ebooks/5935.html.images","text/html; charset=iso-8859-1":"https://www.gutenberg.org/files/5935/5935-h/5935-h.htm","application/epub+zip":"https://www.gutenberg.org/ebooks/5935.epub3.images","application/x-mobipocket-ebook":"https://www.gutenberg.org/ebooks/5935.kf8.images","text/plain; charset=us-ascii":"https://www.gutenberg.org/ebooks/5935.txt.utf-8","application/rdf+xml":"https://www.gutenberg.org/ebooks/5935.rdf","image/jpeg":"https://www.gutenberg.org/cache/epub/5935/pg5935.cover.medium.jpg","application/octet-stream":"https://www.gutenberg.org/cache/epub/5935/pg5935-h.zip"},"download_count":15},{"id":5968,"title":"What's Mine's Mine — Volume 3","authors":[{"name":"MacDonald, George","birth_year":1824,"death_year":1905}],"translators":[],"subjects":["Christian fiction","Highlands (Scotland) -- Fiction"],"bookshelves":[],"languages":["en"],"copyright":false,"media_type":"Text","formats":{"text/html":"https://www.gutenberg.org/ebooks/5968.html.images","application/epub+zip":"https://www.gutenberg.org/ebooks/5968.epub3.images","application/x-mobipocket-ebook":"https://www.gutenberg.org/ebooks/5968.kf8.images","text/plain; charset=us-ascii":"https://www.gutenberg.org/ebooks/5968.txt.utf-8","application/rdf+xml":"https://www.gutenberg.org/ebooks/5968.rdf","image/jpeg":"https://www.gutenberg.org/cache/epub/5968/pg5968.cover.medium.jpg","application/octet-stream":"https://www.gutenberg.org/cache/epub/5968/pg5968-h.zip"},"download_count":15},{"id":5981,"title":"The Boy Scouts in Front of Warsaw; Or, In the Wake of War","authors":[{"name":"Durston, George","birth_year":null,"death_year":null}],"translators":[],"subjects":["Boy Scouts -- Juvenile fiction","World War, 1914-1918 -- Juvenile fiction"],"bookshelves":["Children's Book Series"],"languages":["en"],"copyright":false,"media_type":"Text","formats":{"text/html":"https://www.gutenberg.org/ebooks/5981.html.images","application/epub+zip":"https://www.gutenberg.org/ebooks/5981.epub3.images","application/x-mobipocket-ebook":"https://www.gutenberg.org/ebooks/5981.kf8.images","text/plain; charset=us-ascii":"https://www.gutenberg.org/ebooks/5981.txt.utf-8","application/rdf+xml":"https://www.gutenberg.org/ebooks/5981.rdf","image/jpeg":"https://www.gutenberg.org/cache/epub/5981/pg5981.cover.medium.jpg","application/octet-stream":"https://www.gutenberg.org/cache/epub/5981/pg5981-h.zip"},"download_count":15},{"id":5984,"title":"The British North America Act, 1867","authors":[{"name":"Anonymous","birth_year":null,"death_year":null}],"translators":[],"subjects":["Constitutional law -- Canada"],"bookshelves":[],"languages":["en"],"copyright":false,"media_type":"Text","formats":{"text/html":"https://www.gutenberg.org/ebooks/5984.html.images","application/epub+zip":"https://www.gutenberg.org/ebooks/5984.epub3.images","application/x-mobipocket-ebook":"https://www.gutenberg.org/ebooks/5984.kf8.images","text/plain; charset=us-ascii":"https://www.gutenberg.org/ebooks/5984.txt.utf-8","application/rdf+xml":"https://www.gutenberg.org/ebooks/5984.rdf","image/jpeg":"https://www.gutenberg.org/cache/epub/5984/pg5984.cover.medium.jpg","application/octet-stream":"https://www.gutenberg.org/cache/epub/5984/pg5984-h.zip"},"download_count":15},{"id":6024,"title":"The Duke of Gandia","authors":[{"name":"Swinburne, Algernon Charles","birth_year":1837,"death_year":1909}],"translators":[],"subjects":["Alexander VI, Pope, 1431-1503 -- Drama","Borgia family -- Drama","Borgia, Cesare, 1476?-1507 -- Drama","Borgia, Lucrezia, 1480-1519 -- Drama","English drama","Italy -- History -- Drama"],"bookshelves":[],"languages":["en"],"copyright":false,"media_type":"Text","formats":{"text/html":"https://www.gutenberg.org/ebooks/6024.html.images","application/epub+zip":"https://www.gutenberg.org/ebooks/6024.epub3.images","application/x-mobipocket-ebook":"https://www.gutenberg.org/ebooks/6024.kf8.images","text/plain; charset=us-ascii":"https://www.gutenberg.org/ebooks/6024.txt.utf-8","text/plain; charset=utf-8":"https://www.gutenberg.org/files/6024/6024-0.txt","application/rdf+xml":"https://www.gutenberg.org/ebooks/6024.rdf","image/jpeg":"https://www.gutenberg.org/cache/epub/6024/pg6024.cover.medium.jpg","application/octet-stream":"https://www.gutenberg.org/cache/epub/6024/pg6024-h.zip"},"download_count":15},{"id":6090,"title":"What Can She Do?","authors":[{"name":"Roe, Edward Payson","birth_year":1838,"death_year":1888}],"translators":[],"subjects":["Girls -- Fiction"],"bookshelves":[],"languages":["en"],"copyright":false,"media_type":"Text","formats":{"text/html":"https://www.gutenberg.org/ebooks/6090.html.images","application/epub+zip":"https://www.gutenberg.org/ebooks/6090.epub3.images","application/x-mobipocket-ebook":"https://www.gutenberg.org/ebooks/6090.kf8.images","text/plain; charset=us-ascii":"https://www.gutenberg.org/ebooks/6090.txt.utf-8","application/rdf+xml":"https://www.gutenberg.org/ebooks/6090.rdf","image/jpeg":"https://www.gutenberg.org/cache/epub/6090/pg6090.cover.medium.jpg","application/octet-stream":"https://www.gutenberg.org/cache/epub/6090/pg6090-h.zip"},"download_count":15},{"id":6140,"title":"Army Boys on German Soil: Our Doughboys Quelling the Mobs","authors":[{"name":"Randall, Homer","birth_year":null,"death_year":null}],"translators":[],"subjects":["World War, 1914-1918 -- Juvenile fiction"],"bookshelves":["World War I"],"languages":["en"],"copyright":false,"media_type":"Text","formats":{"text/html":"https://www.gutenberg.org/ebooks/6140.html.images","application/epub+zip":"https://www.gutenberg.org/ebooks/6140.epub3.images","application/x-mobipocket-ebook":"https://www.gutenberg.org/ebooks/6140.kf8.images","text/plain; charset=us-ascii":"https://www.gutenberg.org/ebooks/6140.txt.utf-8","application/rdf+xml":"https://www.gutenberg.org/ebooks/6140.rdf","image/jpeg":"https://www.gutenberg.org/cache/epub/6140/pg6140.cover.medium.jpg","application/octet-stream":"https://www.gutenberg.org/cache/epub/6140/pg6140-h.zip"},"download_count":15},{"id":6149,"title":"The Boy Aviators' Treasure Quest; Or, The Golden Galleon","authors":[{"name":"Goldfrap, John Henry","birth_year":1879,"death_year":1917}],"translators":[],"subjects":["Aeronautics -- Juvenile fiction","Treasure troves -- Juvenile fiction"],"bookshelves":["Children's Book Series"],"languages":["en"],"copyright":false,"media_type":"Text","formats":{"text/html":"https://www.gutenberg.org/ebooks/6149.html.images","application/epub+zip":"https://www.gutenberg.org/ebooks/6149.epub3.images","application/x-mobipocket-ebook":"https://www.gutenberg.org/ebooks/6149.kf8.images","text/plain; charset=us-ascii":"https://www.gutenberg.org/ebooks/6149.txt.utf-8","application/rdf+xml":"https://www.gutenberg.org/ebooks/6149.rdf","image/jpeg":"https://www.gutenberg.org/cache/epub/6149/pg6149.cover.medium.jpg","application/octet-stream":"https://www.gutenberg.org/cache/epub/6149/pg6149-h.zip"},"download_count":15},{"id":6189,"title":"Northern Lights, Volume 4.","authors":[{"name":"Parker, Gilbert","birth_year":1862,"death_year":1932}],"translators":[],"subjects":["Canada, Northern -- Fiction","Short stories, Canadian"],"bookshelves":[],"languages":["en"],"copyright":false,"media_type":"Text","formats":{"text/html":"https://www.gutenberg.org/ebooks/6189.html.images","application/epub+zip":"https://www.gutenberg.org/ebooks/6189.epub3.images","application/x-mobipocket-ebook":"https://www.gutenberg.org/ebooks/6189.kf8.images","text/plain; charset=us-ascii":"https://www.gutenberg.org/ebooks/6189.txt.utf-8","application/rdf+xml":"https://www.gutenberg.org/ebooks/6189.rdf","image/jpeg":"https://www.gutenberg.org/cache/epub/6189/pg6189.cover.medium.jpg","application/octet-stream":"https://www.gutenberg.org/cache/epub/6189/pg6189-h.zip"},"download_count":15},{"id":6215,"title":"The Pomp of the Lavilettes, Volume 1","authors":[{"name":"Parker, Gilbert","birth_year":1862,"death_year":1932}],"translators":[],"subjects":["Canadian fiction"],"bookshelves":[],"languages":["en"],"copyright":false,"media_type":"Text","formats":{"text/html":"https://www.gutenberg.org/ebooks/6215.html.images","application/epub+zip":"https://www.gutenberg.org/ebooks/6215.epub3.images","application/x-mobipocket-ebook":"https://www.gutenberg.org/ebooks/6215.kf8.images","text/plain; charset=us-ascii":"https://www.gutenberg.org/ebooks/6215.txt.utf-8","application/rdf+xml":"https://www.gutenberg.org/ebooks/6215.rdf","image/jpeg":"https://www.gutenberg.org/cache/epub/6215/pg6215.cover.medium.jpg","application/octet-stream":"https://www.gutenberg.org/cache/epub/6215/pg6215-h.zip"},"download_count":15},{"id":6227,"title":"The Seats of the Mighty, Volume 4","authors":[{"name":"Parker, Gilbert","birth_year":1862,"death_year":1932}],"translators":[],"subjects":["Canada -- History -- To 1763 (New France) -- Fiction","United States -- History -- French and Indian War, 1754-1763 -- Fiction"],"bookshelves":["Bestsellers, American, 1895-1923"],"languages":["en"],"copyright":false,"media_type":"Text","formats":{"text/html":"https://www.gutenberg.org/ebooks/6227.html.images","application/epub+zip":"https://www.gutenberg.org/ebooks/6227.epub3.images","application/x-mobipocket-ebook":"https://www.gutenberg.org/ebooks/6227.kf8.images","text/plain; charset=us-ascii":"https://www.gutenberg.org/ebooks/6227.txt.utf-8","application/rdf+xml":"https://www.gutenberg.org/ebooks/6227.rdf","image/jpeg":"https://www.gutenberg.org/cache/epub/6227/pg6227.cover.medium.jpg","application/octet-stream":"https://www.gutenberg.org/cache/epub/6227/pg6227-h.zip"},"download_count":15},{"id":6261,"title":"The Weavers: a tale of England and Egypt of fifty years ago - Volume 1","authors":[{"name":"Parker, Gilbert","birth_year":1862,"death_year":1932}],"translators":[],"subjects":["Society of Friends -- Fiction"],"bookshelves":["Bestsellers, American, 1895-1923"],"languages":["en"],"copyright":false,"media_type":"Text","formats":{"text/html":"https://www.gutenberg.org/ebooks/6261.html.images","application/epub+zip":"https://www.gutenberg.org/ebooks/6261.epub3.images","application/x-mobipocket-ebook":"https://www.gutenberg.org/ebooks/6261.kf8.images","text/plain; charset=us-ascii":"https://www.gutenberg.org/ebooks/6261.txt.utf-8","application/rdf+xml":"https://www.gutenberg.org/ebooks/6261.rdf","image/jpeg":"https://www.gutenberg.org/cache/epub/6261/pg6261.cover.medium.jpg","application/octet-stream":"https://www.gutenberg.org/cache/epub/6261/pg6261-h.zip"},"download_count":15},{"id":6278,"title":"The Money Master, Volume 4.","authors":[{"name":"Parker, Gilbert","birth_year":1862,"death_year":1932}],"translators":[],"subjects":["Québec (Province) -- Fiction"],"bookshelves":[],"languages":["en"],"copyright":false,"media_type":"Text","formats":{"text/html":"https://www.gutenberg.org/ebooks/6278.html.images","application/epub+zip":"https://www.gutenberg.org/ebooks/6278.epub3.images","application/x-mobipocket-ebook":"https://www.gutenberg.org/ebooks/6278.kf8.images","text/plain; charset=us-ascii":"https://www.gutenberg.org/ebooks/6278.txt.utf-8","application/rdf+xml":"https://www.gutenberg.org/ebooks/6278.rdf","image/jpeg":"https://www.gutenberg.org/cache/epub/6278/pg6278.cover.medium.jpg","application/octet-stream":"https://www.gutenberg.org/cache/epub/6278/pg6278-h.zip"},"download_count":15},{"id":6292,"title":"No Defense, Volume 1.","authors":[{"name":"Parker, Gilbert","birth_year":1862,"death_year":1932}],"translators":[],"subjects":["Fiction"],"bookshelves":[],"languages":["en"],"copyright":false,"media_type":"Text","formats":{"text/html":"https://www.gutenberg.org/ebooks/6292.html.images","application/epub+zip":"https://www.gutenberg.org/ebooks/6292.epub3.images","application/x-mobipocket-ebook":"https://www.gutenberg.org/ebooks/6292.kf8.images","text/plain; charset=us-ascii":"https://www.gutenberg.org/ebooks/6292.txt.utf-8","application/rdf+xml":"https://www.gutenberg.org/ebooks/6292.rdf","image/jpeg":"https://www.gutenberg.org/cache/epub/6292/pg6292.cover.medium.jpg","application/octet-stream":"https://www.gutenberg.org/cache/epub/6292/pg6292-h.zip"},"download_count":15},{"id":6305,"title":"A Fool There Was","authors":[{"name":"Browne, Porter Emerson","birth_year":1879,"death_year":1934}],"translators":[],"subjects":["Femmes fatales -- Fiction"],"bookshelves":[],"languages":["en"],"copyright":false,"media_type":"Text","formats":{"text/html":"https://www.gutenberg.org/ebooks/6305.html.images","application/epub+zip":"https://www.gutenberg.org/ebooks/6305.epub3.images","application/x-mobipocket-ebook":"https://www.gutenberg.org/ebooks/6305.kf8.images","text/plain; charset=us-ascii":"https://www.gutenberg.org/ebooks/6305.txt.utf-8","application/rdf+xml":"https://www.gutenberg.org/ebooks/6305.rdf","image/jpeg":"https://www.gutenberg.org/cache/epub/6305/pg6305.cover.medium.jpg","application/octet-stream":"https://www.gutenberg.org/cache/epub/6305/pg6305-h.zip"},"download_count":15},{"id":6310,"title":"The Pastor's Son","authors":[{"name":"Walter, William W.","birth_year":1869,"death_year":null}],"translators":[],"subjects":["Christian Science -- Fiction","Religious fiction"],"bookshelves":[],"languages":["en"],"copyright":false,"media_type":"Text","formats":{"text/html":"https://www.gutenberg.org/ebooks/6310.html.images","application/epub+zip":"https://www.gutenberg.org/ebooks/6310.epub3.images","application/x-mobipocket-ebook":"https://www.gutenberg.org/ebooks/6310.kf8.images","text/plain; charset=us-ascii":"https://www.gutenberg.org/ebooks/6310.txt.utf-8","application/rdf+xml":"https://www.gutenberg.org/ebooks/6310.rdf","image/jpeg":"https://www.gutenberg.org/cache/epub/6310/pg6310.cover.medium.jpg","application/octet-stream":"https://www.gutenberg.org/cache/epub/6310/pg6310-h.zip"},"download_count":15},{"id":6339,"title":"The Boy Scouts on a Submarine","authors":[{"name":"Blaine, John","birth_year":null,"death_year":null}],"translators":[],"subjects":["Boy Scouts -- Juvenile fiction","Submarines (Ships) -- Juvenile fiction"],"bookshelves":["Children's Book Series"],"languages":["en"],"copyright":false,"media_type":"Text","formats":{"text/html":"https://www.gutenberg.org/ebooks/6339.html.images","application/epub+zip":"https://www.gutenberg.org/ebooks/6339.epub3.images","application/x-mobipocket-ebook":"https://www.gutenberg.org/ebooks/6339.kf8.images","text/plain; charset=us-ascii":"https://www.gutenberg.org/ebooks/6339.txt.utf-8","application/rdf+xml":"https://www.gutenberg.org/ebooks/6339.rdf","image/jpeg":"https://www.gutenberg.org/cache/epub/6339/pg6339.cover.medium.jpg","application/octet-stream":"https://www.gutenberg.org/cache/epub/6339/pg6339-h.zip"},"download_count":15},{"id":6454,"title":"George Leatrim","authors":[{"name":"Moodie, Susanna","birth_year":1803,"death_year":1885}],"translators":[],"subjects":["Religious fiction"],"bookshelves":[],"languages":["en"],"copyright":false,"media_type":"Text","formats":{"text/html":"https://www.gutenberg.org/ebooks/6454.html.images","application/epub+zip":"https://www.gutenberg.org/ebooks/6454.epub3.images","application/x-mobipocket-ebook":"https://www.gutenberg.org/ebooks/6454.kf8.images","text/plain; charset=us-ascii":"https://www.gutenberg.org/ebooks/6454.txt.utf-8","application/rdf+xml":"https://www.gutenberg.org/ebooks/6454.rdf","image/jpeg":"https://www.gutenberg.org/cache/epub/6454/pg6454.cover.medium.jpg","application/octet-stream":"https://www.gutenberg.org/cache/epub/6454/pg6454-h.zip"},"download_count":15},{"id":6508,"title":"The suppressed Gospels and Epistles of the original New Testament of Jesus the Christ, Volume 2, the Protevanglion","authors":[{"name":"Wake, William","birth_year":1657,"death_year":1737}],"translators":[],"subjects":["Apocryphal books (New Testament)"],"bookshelves":[],"languages":["en"],"copyright":false,"media_type":"Text","formats":{"text/html":"https://www.gutenberg.org/ebooks/6508.html.images","application/epub+zip":"https://www.gutenberg.org/ebooks/6508.epub3.images","application/x-mobipocket-ebook":"https://www.gutenberg.org/ebooks/6508.kf8.images","text/plain; charset=us-ascii":"https://www.gutenberg.org/ebooks/6508.txt.utf-8","application/rdf+xml":"https://www.gutenberg.org/ebooks/6508.rdf","image/jpeg":"https://www.gutenberg.org/cache/epub/6508/pg6508.cover.medium.jpg","application/octet-stream":"https://www.gutenberg.org/cache/epub/6508/pg6508-h.zip"},"download_count":15},{"id":6545,"title":"Frederick Douglass on Reconstruction","authors":[{"name":"Douglass, Frederick","birth_year":1818,"death_year":1895}],"translators":[],"subjects":["Reconstruction (U.S. history, 1865-1877)"],"bookshelves":["African American Writers"],"languages":["en"],"copyright":true,"media_type":"Sound","formats":{"text/html":"https://www.gutenberg.org/files/6545/6545-h/6545-h.htm","text/plain; charset=us-ascii":"https://www.gutenberg.org/files/6545/6545-0.txt","application/rdf+xml":"https://www.gutenberg.org/ebooks/6545.rdf","application/octet-stream":"https://www.gutenberg.org/files/6545/6545-0.zip"},"download_count":15}]}