{"count":58808,"next":"http://129.241.150.113:8000/books/?languages=en&page=1334","previous":"http://129.241.150.113:8000/books/?languages=en&page=1332","results":[{"id":69388,"title":"The official chaperon","authors":[{"name":"Lincoln, Natalie Sumner","birth_year":1881,"death_year":1935}],"translators":[],"subjects":["Mystery fiction","Theft -- Fiction","Washington (D.C.) -- Social life and customs -- Fiction","Young women -- Fiction"],"bookshelves":[],"languages":["en"],"copyright":false,"media_type":"Text","formats":{"text/html":"https://www.gutenberg.org/ebooks/69388.html.images","application/epub+zip":"https://www.gutenberg.org/ebooks/69388.epub3.images","application/x-mobipocket-ebook":"https://www.gutenberg.org/ebooks/69388.kf8.images","text/plain; charset=us-ascii":"https://www.gutenberg.org/ebooks/69388.txt.utf-8","application/rdf+xml":"https://www.gutenberg.org/ebooks/69388.rdf","image/jpeg":"https://www.gutenberg.org/cache/epub/69388/pg69388.cover.medium.jpg","application/octet-stream":"https://www.gutenberg.org/files/69388/69388-0.zip"},"download_count":28},{"id":69389,"title":"The Arctic regions and the northern whale-fishery","authors":[{"name":"Scoresby, William","birth_year":1789,"death_year":1857}],"translators":[],"subjects":["Arctic regions","Whaling -- Arctic regions"],"bookshelves":[],"languages":["en"],"copyright":false,"media_type":"Text","formats":{"text/html":"https://www.gutenberg.org/ebooks/69389.html.images","application/epub+zip":"https://www.gutenberg.org/ebooks/69389.epub3.images","application/x-mobipocket-ebook":"https://www.gutenberg.org/ebooks/69389.kf8.images","text/plain; charset=us-ascii":"https://www.gutenberg.org/ebooks/69389.txt.utf-8","application/rdf+xml":"https://www.gutenberg.org/ebooks/69389.rdf","image/jpeg":"https://www.gutenberg.org/cache/epub/69389/pg69389.cover.medium.jpg","application/octet-stream":"https://www.gutenberg.org/files/69389/69389-0.zip"},"download_count":28},{"id":69463,"title":"The Rover Boys winning a fortune; or, Strenuous days ashore and afloat","authors":[{"name":"Stratemeyer, Edward","birth_year":1862,"death_year":1930}],"translators":[],"subjects":["Detective and mystery stories","Mexico, Gulf of -- Juvenile fiction","Sea stories","Securities industry -- Juvenile fiction","Treasure troves -- Juvenile fiction"],"bookshelves":[],"languages":["en"],"copyright":false,"media_type":"Text","formats":{"text/html":"https://www.gutenberg.org/ebooks/69463.html.images","application/epub+zip":"https://www.gutenberg.org/ebooks/69463.epub3.images","application/x-mobipocket-ebook":"https://www.gutenberg.org/ebooks/69463.kf8.images","text/plain; charset=us-ascii":"https://www.gutenberg.org/ebooks/69463.txt.utf-8","application/rdf+xml":"https://www.gutenberg.org/ebooks/69463.rdf","image/jpeg":"https://www.gutenberg.org/cache/epub/69463/pg69463.cover.medium.jpg","application/octet-stream":"https://www.gutenberg.org/files/69463/69463-0.zip"},"download_count":28},{"id":69500,"title":"The Queen's cadet, and other tales","authors":[{"name":"Grant, James","birth_year":1822,"death_year":1887}],"translators":[],"subjects":["Fiction","Short stories"],"bookshelves":[],"languages":["en"],"copyright":false,"media_type":"Text","formats":{"text/html":"https://www.gutenberg.org/ebooks/69500.html.images","application/epub+zip":"https://www.gutenberg.org/ebooks/69500.epub3.images","application/x-mobipocket-ebook":"https://www.gutenberg.org/ebooks/69500.kf8.images","text/plain; charset=us-ascii":"https://www.gutenberg.org/ebooks/69500.txt.utf-8","application/rdf+xml":"https://www.gutenberg.org/ebooks/69500.rdf","image/jpeg":"https://www.gutenberg.org/cache/epub/69500/pg69500.cover.medium.jpg","application/octet-stream":"https://www.gutenberg.org/files/69500/69500-0.zip"},"download_count":28},{"id":69612,"title":"The Sea Scouts of the Kestrel: The story of a cruise of adventure & pluck in a small yacht on the English Channel","authors":[{"name":"Westerman, Percy F. (Percy Francis)","birth_year":1876,"death_year":1959}],"translators":[],"subjects":["Adventure stories","Sea Scouts -- Juvenile fiction","Sea stories","Yachts -- Juvenile fiction"],"bookshelves":[],"languages":["en"],"copyright":false,"media_type":"Text","formats":{"text/html":"https://www.gutenberg.org/ebooks/69612.html.images","application/epub+zip":"https://www.gutenberg.org/ebooks/69612.epub3.images","application/x-mobipocket-ebook":"https://www.gutenberg.org/ebooks/69612.kf8.images","text/plain; charset=us-ascii":"https://www.gutenberg.org/ebooks/69612.txt.utf-8","application/rdf+xml":"https://www.gutenberg.org/ebooks/69612.rdf","image/jpeg":"https://www.gutenberg.org/cache/epub/69612/pg69612.cover.medium.jpg","application/octet-stream":"https://www.gutenberg.org/files/69612/69612-0.zip"},"download_count":28},{"id":69696,"title":"The Star of India","authors":[{"name":"Ellis, Edward Sylvester","birth_year":1840,"death_year":1916}],"translators":[],"subjects":["India -- Juvenile fiction"],"bookshelves":[],"languages":["en"],"copyright":false,"media_type":"Text","formats":{"text/html":"https://www.gutenberg.org/ebooks/69696.html.images","application/epub+zip":"https://www.gutenberg.org/ebooks/69696.epub3.images","application/x-mobipocket-ebook":"https://www.gutenberg.org/ebooks/69696.kf8.images","text/plain; charset=us-ascii":"https://www.gutenberg.org/ebooks/69696.txt.utf-8","application/rdf+xml":"https://www.gutenberg.org/ebooks/69696.rdf","image/jpeg":"https://www.gutenberg.org/cache/epub/69696/pg69696.cover.medium.jpg","application/octet-stream":"https://www.gutenberg.org/files/69696/69696-0.zip"},"download_count":28},{"id":69706,"title":"Proceedings [of the] fourth National Conservation Congress [at] Indianapolis, October 1-4, 1912","authors":[{"name":"United States. National Conservation Congress","birth_year":null,"death_year":null}],"translators":[],"subjects":["Conference papers and proceedings","Natural resources -- Congresses","United States -- Economic conditions -- Congresses"],"bookshelves":[],"languages":["en"],"copyright":false,"media_type":"Text","formats":{"text/html":"https://www.gutenberg.org/ebooks/69706.html.images","application/epub+zip":"https://www.gutenberg.org/ebooks/69706.epub3.images","application/x-mobipocket-ebook":"https://www.gutenberg.org/ebooks/69706.kf8.images","text/plain; charset=us-ascii":"https://www.gutenberg.org/ebooks/69706.txt.utf-8","application/rdf+xml":"https://www.gutenberg.org/ebooks/69706.rdf","image/jpeg":"https://www.gutenberg.org/cache/epub/69706/pg69706.cover.medium.jpg","application/octet-stream":"https://www.gutenberg.org/files/69706/69706-0.zip"},"download_count":28},{"id":69750,"title":"Under the periscope","authors":[{"name":"Bennett, Mark Herbert Joseph","birth_year":1892,"death_year":null}],"translators":[],"subjects":["World War, 1914-1918 -- Naval operations -- Submarine","World War, 1914-1918 -- Personal narratives, British"],"bookshelves":[],"languages":["en"],"copyright":false,"media_type":"Text","formats":{"text/html":"https://www.gutenberg.org/ebooks/69750.html.images","application/epub+zip":"https://www.gutenberg.org/ebooks/69750.epub3.images","application/x-mobipocket-ebook":"https://www.gutenberg.org/ebooks/69750.kf8.images","text/plain; charset=us-ascii":"https://www.gutenberg.org/ebooks/69750.txt.utf-8","application/rdf+xml":"https://www.gutenberg.org/ebooks/69750.rdf","image/jpeg":"https://www.gutenberg.org/cache/epub/69750/pg69750.cover.medium.jpg","application/octet-stream":"https://www.gutenberg.org/files/69750/69750-0.zip"},"download_count":28},{"id":69777,"title":"The rat-trap","authors":[{"name":"Wyllarde, Dolf","birth_year":1871,"death_year":1950}],"translators":[],"subjects":["Great Britain -- Colonies -- Fiction","Imaginary places -- Fiction","Islands -- Fiction","Man-woman relationships -- Fiction","Spouses -- Fiction","Triangles (Interpersonal relations) -- Fiction"],"bookshelves":[],"languages":["en"],"copyright":false,"media_type":"Text","formats":{"text/html":"https://www.gutenberg.org/ebooks/69777.html.images","application/epub+zip":"https://www.gutenberg.org/ebooks/69777.epub3.images","application/x-mobipocket-ebook":"https://www.gutenberg.org/ebooks/69777.kf8.images","text/plain; charset=us-ascii":"https://www.gutenberg.org/ebooks/69777.txt.utf-8","application/rdf+xml":"https://www.gutenberg.org/ebooks/69777.rdf","image/jpeg":"https://www.gutenberg.org/cache/epub/69777/pg69777.cover.medium.jpg","application/octet-stream":"https://www.gutenberg.org/files/69777/69777-0.zip"},"download_count":28},{"id":69778,"title":"The sleeper is a rebel","authors":[{"name":"Walton, Bryce","birth_year":1918,"death_year":1988}],"translators":[],"subjects":["Cryptobiosis -- Fiction","Dystopias -- Fiction","Science fiction"],"bookshelves":[],"languages":["en"],"copyright":false,"media_type":"Text","formats":{"text/html":"https://www.gutenberg.org/ebooks/69778.html.images","application/epub+zip":"https://www.gutenberg.org/ebooks/69778.epub3.images","application/x-mobipocket-ebook":"https://www.gutenberg.org/ebooks/69778.kf8.images","text/plain; charset=us-ascii":"https://www.gutenberg.org/ebooks/69778.txt.utf-8","application/rdf+xml":"https://www.gutenberg.org/ebooks/69778.rdf","image/jpeg":"https://www.gutenberg.org/cache/epub/69778/pg69778.cover.medium.jpg","application/octet-stream":"https://www.gutenberg.org/files/69778/69778-0.zip"},"download_count":28},{"id":69925,"title":"The new northland","authors":[{"name":"Gratacap, L. P. (Louis Pope)","birth_year":1851,"death_year":1917}],"translators":[],"subjects":["Arctic regions -- Fiction","Lost tribes of Israel -- Fiction","Utopias -- Fiction"],"bookshelves":[],"languages":["en"],"copyright":false,"media_type":"Text","formats":{"text/html":"https://www.gutenberg.org/ebooks/69925.html.images","application/epub+zip":"https://www.gutenberg.org/ebooks/69925.epub3.images","application/x-mobipocket-ebook":"https://www.gutenberg.org/ebooks/69925.kf8.images","text/plain; charset=us-ascii":"https://www.gutenberg.org/ebooks/69925.txt.utf-8","application/rdf+xml":"https://www.gutenberg.org/ebooks/69925.rdf","image/jpeg":"https://www.gutenberg.org/cache/epub/69925/pg69925.cover.medium.jpg","application/octet-stream":"https://www.gutenberg.org/files/69925/69925-0.zip"},"download_count":28},{"id":69926,"title":"Papa knows best","authors":[{"name":"Umphrey, Wallace","birth_year":null,"death_year":null}],"translators":[],"subjects":["Apocalyptic fiction","Artificial intelligence -- Fiction","Science fiction","Short stories"],"bookshelves":[],"languages":["en"],"copyright":false,"media_type":"Text","formats":{"text/html":"https://www.gutenberg.org/ebooks/69926.html.images","application/epub+zip":"https://www.gutenberg.org/ebooks/69926.epub3.images","application/x-mobipocket-ebook":"https://www.gutenberg.org/ebooks/69926.kf8.images","text/plain; charset=us-ascii":"https://www.gutenberg.org/ebooks/69926.txt.utf-8","application/rdf+xml":"https://www.gutenberg.org/ebooks/69926.rdf","image/jpeg":"https://www.gutenberg.org/cache/epub/69926/pg69926.cover.medium.jpg","application/octet-stream":"https://www.gutenberg.org/files/69926/69926-0.zip"},"download_count":28},{"id":70017,"title":"Uncle Wiggily on roller skates: $b Or, What happened when the Skillery Skallery Alligator gave chase; and, Uncle Wiggily is snowballed by the Fox and Wolf; also, Uncle Wiggily plays a joke on the Wolf","authors":[{"name":"Garis, Howard Roger","birth_year":1873,"death_year":1962}],"translators":[],"subjects":["Animals -- Juvenile fiction","Children's stories","Rabbits -- Juvenile fiction","Roller skates -- Juvenile fiction","Snowballs -- Juvenile fiction","Uncle Wiggily (Fictitious character) -- Juvenile fiction","Wit and humor, Juvenile"],"bookshelves":[],"languages":["en"],"copyright":false,"media_type":"Text","formats":{"text/html":"https://www.gutenberg.org/ebooks/70017.html.images","application/epub+zip":"https://www.gutenberg.org/ebooks/70017.epub3.images","application/x-mobipocket-ebook":"https://www.gutenberg.org/ebooks/70017.kf8.images","text/plain; charset=us-ascii":"https://www.gutenberg.org/ebooks/70017.txt.utf-8","application/rdf+xml":"https://www.gutenberg.org/ebooks/70017.rdf","image/jpeg":"https://www.gutenberg.org/cache/epub/70017/pg70017.cover.medium.jpg","application/octet-stream":"https://www.gutenberg.org/files/70017/70017-0.zip"},"download_count":28},{"id":70031,"title":"The women of the Mayflower and women of Plymouth colony","authors":[{"name":"Noyes, Ethel J. R. C. (Ethel Jane Russell Chesebrough)","birth_year":null,"death_year":null}],"translators":[],"subjects":["Massachusetts -- History -- Colonial period, ca. 1600-1775","Massachusetts -- History -- New Plymouth, 1620-1691","Mayflower (Ship)","Women -- Massachusetts"],"bookshelves":[],"languages":["en"],"copyright":false,"media_type":"Text","formats":{"text/html":"https://www.gutenberg.org/ebooks/70031.html.images","application/epub+zip":"https://www.gutenberg.org/ebooks/70031.epub3.images","application/x-mobipocket-ebook":"https://www.gutenberg.org/ebooks/70031.kf8.images","text/plain; charset=us-ascii":"https://www.gutenberg.org/ebooks/70031.txt.utf-8","application/rdf+xml":"https://www.gutenberg.org/ebooks/70031.rdf","image/jpeg":"https://www.gutenberg.org/cache/epub/70031/pg70031.cover.medium.jpg","application/octet-stream":"https://www.gutenberg.org/files/70031/70031-0.zip"},"download_count":28},{"id":70107,"title":"The \"free press\" : $b portrait of a monopoly","authors":[{"name":"Marion, George","birth_year":1905,"death_year":1955}],"translators":[],"subjects":["Press -- United States"],"bookshelves":[],"languages":["en"],"copyright":false,"media_type":"Text","formats":{"text/html":"https://www.gutenberg.org/ebooks/70107.html.images","application/epub+zip":"https://www.gutenberg.org/ebooks/70107.epub3.images","application/x-mobipocket-ebook":"https://www.gutenberg.org/ebooks/70107.kf8.images","text/plain; charset=us-ascii":"https://www.gutenberg.org/ebooks/70107.txt.utf-8","application/rdf+xml":"https://www.gutenberg.org/ebooks/70107.rdf","image/jpeg":"https://www.gutenberg.org/cache/epub/70107/pg70107.cover.medium.jpg","application/octet-stream":"https://www.gutenberg.org/files/70107/70107-0.zip"},"download_count":28},{"id":70265,"title":"The pot of basil","authors":[{"name":"Capes, Bernard","birth_year":1854,"death_year":1918}],"translators":[],"subjects":["Italy -- History -- 1559-1789 -- Fiction"],"bookshelves":[],"languages":["en"],"copyright":false,"media_type":"Text","formats":{"text/html":"https://www.gutenberg.org/ebooks/70265.html.images","application/epub+zip":"https://www.gutenberg.org/ebooks/70265.epub3.images","application/x-mobipocket-ebook":"https://www.gutenberg.org/ebooks/70265.kf8.images","text/plain; charset=us-ascii":"https://www.gutenberg.org/ebooks/70265.txt.utf-8","application/rdf+xml":"https://www.gutenberg.org/ebooks/70265.rdf","image/jpeg":"https://www.gutenberg.org/cache/epub/70265/pg70265.cover.medium.jpg","application/octet-stream":"https://www.gutenberg.org/files/70265/70265-0.zip"},"download_count":28},{"id":70326,"title":"The art of preserving health: A poem","authors":[{"name":"Armstrong, John","birth_year":1709,"death_year":1779}],"translators":[],"subjects":["Health -- Early works to 1800","Health -- Poetry","Hygiene -- Early works to 1800","Hygiene -- Poetry"],"bookshelves":[],"languages":["en"],"copyright":false,"media_type":"Text","formats":{"text/html":"https://www.gutenberg.org/ebooks/70326.html.images","application/epub+zip":"https://www.gutenberg.org/ebooks/70326.epub3.images","application/x-mobipocket-ebook":"https://www.gutenberg.org/ebooks/70326.kf8.images","text/plain; charset=us-ascii":"https://www.gutenberg.org/ebooks/70326.txt.utf-8","application/rdf+xml":"https://www.gutenberg.org/ebooks/70326.rdf","image/jpeg":"https://www.gutenberg.org/cache/epub/70326/pg70326.cover.medium.jpg","application/octet-stream":"https://www.gutenberg.org/files/70326/70326-0.zip"},"download_count":28},{"id":70394,"title":"Travels in the Upper Egyptian deserts","authors":[{"name":"Weigall, Arthur E. P. Brome (Arthur Edward Pearse Brome)","birth_year":1880,"death_year":1934}],"translators":[],"subjects":["Egypt -- Antiquities","Egypt -- Description and travel"],"bookshelves":[],"languages":["en"],"copyright":false,"media_type":"Text","formats":{"text/html":"https://www.gutenberg.org/ebooks/70394.html.images","application/epub+zip":"https://www.gutenberg.org/ebooks/70394.epub3.images","application/x-mobipocket-ebook":"https://www.gutenberg.org/ebooks/70394.kf8.images","text/plain; charset=us-ascii":"https://www.gutenberg.org/ebooks/70394.txt.utf-8","application/rdf+xml":"https://www.gutenberg.org/ebooks/70394.rdf","image/jpeg":"https://www.gutenberg.org/cache/epub/70394/pg70394.cover.medium.jpg","application/octet-stream":"https://www.gutenberg.org/files/70394/70394-0.zip"},"download_count":28},{"id":70398,"title":"A bibliography of the writings of D. H. Lawrence","authors":[{"name":"McDonald, Edward D.","birth_year":null,"death_year":null}],"translators":[],"subjects":["Lawrence, D. H. (David Herbert), 1885-1930 -- Bibliography"],"bookshelves":[],"languages":["en"],"copyright":false,"media_type":"Text","formats":{"text/html":"https://www.gutenberg.org/ebooks/70398.html.images","application/epub+zip":"https://www.gutenberg.org/ebooks/70398.epub3.images","application/x-mobipocket-ebook":"https://www.gutenberg.org/ebooks/70398.kf8.images","text/plain; charset=us-ascii":"https://www.gutenberg.org/ebooks/70398.txt.utf-8","application/rdf+xml":"https://www.gutenberg.org/ebooks/70398.rdf","image/jpeg":"https://www.gutenberg.org/cache/epub/70398/pg70398.cover.medium.jpg","application/octet-stream":"https://www.gutenberg.org/files/70398/70398-0.zip"},"download_count":28},{"id":70416,"title":"Emmanuel Burden, merchant, of Thames St., in the city of London, exporter of hardware : $b A record of his lineage, speculations, last days and death","authors":[{"name":"Belloc, Hilaire","birth_year":1870,"death_year":1953}],"translators":[],"subjects":["Capitalists and financiers -- Fiction","London (England) -- Fiction","Merchants -- Fiction","Satire"],"bookshelves":[],"languages":["en"],"copyright":false,"media_type":"Text","formats":{"text/html":"https://www.gutenberg.org/ebooks/70416.html.images","application/epub+zip":"https://www.gutenberg.org/ebooks/70416.epub3.images","application/x-mobipocket-ebook":"https://www.gutenberg.org/ebooks/70416.kf8.images","text/plain; charset=us-ascii":"https://www.gutenberg.org/ebooks/70416.txt.utf-8","application/rdf+xml":"https://www.gutenberg.org/ebooks/70416.rdf","image/jpeg":"https://www.gutenberg.org/cache/epub/70416/pg70416.cover.medium.jpg","application/octet-stream":"https://www.gutenberg.org/files/70416/70416-0.zip"},"download_count":28},{"id":70513,"title":"The non-stop stowaway : $b The story of a long distance flight","authors":[{"name":"Knight, Clayton","birth_year":1891,"death_year":1969}],"translators":[],"subjects":["Aeronautics -- Juvenile fiction","Airplanes -- Juvenile fiction"],"bookshelves":[],"languages":["en"],"copyright":false,"media_type":"Text","formats":{"text/html":"https://www.gutenberg.org/ebooks/70513.html.images","application/epub+zip":"https://www.gutenberg.org/ebooks/70513.epub3.images","application/x-mobipocket-ebook":"https://www.gutenberg.org/ebooks/70513.kf8.images","text/plain; charset=us-ascii":"https://www.gutenberg.org/ebooks/70513.txt.utf-8","application/rdf+xml":"https://www.gutenberg.org/ebooks/70513.rdf","image/jpeg":"https://www.gutenberg.org/cache/epub/70513/pg70513.cover.medium.jpg","application/octet-stream":"https://www.gutenberg.org/files/70513/70513-0.zip"},"download_count":28},{"id":70555,"title":"The feather symbol in ancient Hopi designs","authors":[{"name":"Fewkes, Jesse Walter","birth_year":1850,"death_year":1930}],"translators":[],"subjects":["Feathers in art","Hopi Indians -- Antiquities","Hopi Indians -- Religion","Hopi Indians -- Rites and ceremonies","Hopi art"],"bookshelves":[],"languages":["en"],"copyright":false,"media_type":"Text","formats":{"text/html":"https://www.gutenberg.org/ebooks/70555.html.images","application/epub+zip":"https://www.gutenberg.org/ebooks/70555.epub3.images","application/x-mobipocket-ebook":"https://www.gutenberg.org/ebooks/70555.kf8.images","text/plain; charset=us-ascii":"https://www.gutenberg.org/ebooks/70555.txt.utf-8","application/rdf+xml":"https://www.gutenberg.org/ebooks/70555.rdf","image/jpeg":"https://www.gutenberg.org/cache/epub/70555/pg70555.cover.medium.jpg","application/octet-stream":"https://www.gutenberg.org/files/70555/70555-0.zip"},"download_count":28},{"id":70608,"title":"Chambers's Journal of Popular Literature, Science, and Art, fifth series, no. 126, vol. III, May 29, 1886","authors":[{"name":"Various","birth_year":null,"death_year":null}],"translators":[],"subjects":["Periodicals"],"bookshelves":[],"languages":["en"],"copyright":false,"media_type":"Text","formats":{"text/html":"https://www.gutenberg.org/ebooks/70608.html.images","application/epub+zip":"https://www.gutenberg.org/ebooks/70608.epub3.images","application/x-mobipocket-ebook":"https://www.gutenberg.org/ebooks/70608.kf8.images","text/plain; charset=us-ascii":"https://www.gutenberg.org/ebooks/70608.txt.utf-8","application/rdf+xml":"https://www.gutenberg.org/ebooks/70608.rdf","image/jpeg":"https://www.gutenberg.org/cache/epub/70608/pg70608.cover.medium.jpg","application/octet-stream":"https://www.gutenberg.org/files/70608/70608-0.zip"},"download_count":28},{"id":70655,"title":"The Hermit's Cave : $b or, Theodore and Jack","authors":[{"name":"Stooke, Eleanora H.","birth_year":null,"death_year":null}],"translators":[],"subjects":["Boys -- Conduct of life -- Juvenile fiction","Christian life -- Juvenile fiction","Stepbrothers -- Juvenile fiction","Stepfamilies -- Juvenile fiction"],"bookshelves":[],"languages":["en"],"copyright":false,"media_type":"Text","formats":{"text/html":"https://www.gutenberg.org/ebooks/70655.html.images","application/epub+zip":"https://www.gutenberg.org/ebooks/70655.epub3.images","application/x-mobipocket-ebook":"https://www.gutenberg.org/ebooks/70655.kf8.images","text/plain; charset=us-ascii":"https://www.gutenberg.org/ebooks/70655.txt.utf-8","application/rdf+xml":"https://www.gutenberg.org/ebooks/70655.rdf","image/jpeg":"https://www.gutenberg.org/cache/epub/70655/pg70655.cover.medium.jpg","application/octet-stream":"https://www.gutenberg.org/files/70655/70655-0.zip"},"download_count":28},{"id":70721,"title":"The cairn : $b A gathering of precious stones from many hands","authors":[{"name":"Nicolas, Sarah Davison, Lady","birth_year":null,"death_year":null}],"translators":[],"subjects":["Literature -- Collections"],"bookshelves":[],"languages":["en"],"copyright":false,"media_type":"Text","formats":{"text/html":"https://www.gutenberg.org/ebooks/70721.html.images","application/epub+zip":"https://www.gutenberg.org/ebooks/70721.epub3.images","application/x-mobipocket-ebook":"https://www.gutenberg.org/ebooks/70721.kf8.images","text/plain; charset=us-ascii":"https://www.gutenberg.org/ebooks/70721.txt.utf-8","application/rdf+xml":"https://www.gutenberg.org/ebooks/70721.rdf","image/jpeg":"https://www.gutenberg.org/cache/epub/70721/pg70721.cover.medium.jpg","application/octet-stream":"https://www.gutenberg.org/files/70721/70721-0.zip"},"download_count":28},{"id":70758,"title":"An account of some kjoekkenmoeddings, or shell-heaps, in Maine and Massachusetts","authors":[{"name":"Wyman, Jeffries","birth_year":1814,"death_year":1874}],"translators":[],"subjects":["Kitchen-middens -- Maine","Kitchen-middens -- Massachusetts"],"bookshelves":[],"languages":["en"],"copyright":false,"media_type":"Text","formats":{"text/html":"https://www.gutenberg.org/ebooks/70758.html.images","application/epub+zip":"https://www.gutenberg.org/ebooks/70758.epub3.images","application/x-mobipocket-ebook":"https://www.gutenberg.org/ebooks/70758.kf8.images","text/plain; charset=us-ascii":"https://www.gutenberg.org/ebooks/70758.txt.utf-8","application/rdf+xml":"https://www.gutenberg.org/ebooks/70758.rdf","image/jpeg":"https://www.gutenberg.org/cache/epub/70758/pg70758.cover.medium.jpg","application/octet-stream":"https://www.gutenberg.org/files/70758/70758-0.zip"},"download_count":28},{"id":70765,"title":"The Kansas University Quarterly : $b Vol. I, No. 4, April 1893","authors":[{"name":"Various","birth_year":null,"death_year":null}],"translators":[],"subjects":["Natural history -- Periodicals","Science -- Periodicals"],"bookshelves":[],"languages":["en"],"copyright":false,"media_type":"Text","formats":{"text/html":"https://www.gutenberg.org/ebooks/70765.html.images","application/epub+zip":"https://www.gutenberg.org/ebooks/70765.epub3.images","application/x-mobipocket-ebook":"https://www.gutenberg.org/ebooks/70765.kf8.images","text/plain; charset=us-ascii":"https://www.gutenberg.org/ebooks/70765.txt.utf-8","application/rdf+xml":"https://www.gutenberg.org/ebooks/70765.rdf","image/jpeg":"https://www.gutenberg.org/cache/epub/70765/pg70765.cover.medium.jpg","application/octet-stream":"https://www.gutenberg.org/files/70765/70765-0.zip"},"download_count":28},{"id":70781,"title":"The saddle boys on the plains : $b or, after a treasure of gold","authors":[{"name":"Carson, James, Captain","birth_year":null,"death_year":null}],"translators":[],"subjects":["Arizona -- Juvenile fiction","Cowboys -- Juvenile fiction","Gold -- Juvenile fiction","Horsemanship -- Juvenile fiction","Western stories"],"bookshelves":[],"languages":["en"],"copyright":false,"media_type":"Text","formats":{"text/html":"https://www.gutenberg.org/ebooks/70781.html.images","application/epub+zip":"https://www.gutenberg.org/ebooks/70781.epub3.images","application/x-mobipocket-ebook":"https://www.gutenberg.org/ebooks/70781.kf8.images","text/plain; charset=us-ascii":"https://www.gutenberg.org/ebooks/70781.txt.utf-8","application/rdf+xml":"https://www.gutenberg.org/ebooks/70781.rdf","image/jpeg":"https://www.gutenberg.org/cache/epub/70781/pg70781.cover.medium.jpg","application/octet-stream":"https://www.gutenberg.org/files/70781/70781-0.zip"},"download_count":28},{"id":70812,"title":"The dramatic instinct in children","authors":[{"name":"American Institute of Child Life","birth_year":null,"death_year":null}],"translators":[],"subjects":["Child development","Child psychology","Play"],"bookshelves":[],"languages":["en"],"copyright":false,"media_type":"Text","formats":{"text/html":"https://www.gutenberg.org/ebooks/70812.html.images","application/epub+zip":"https://www.gutenberg.org/ebooks/70812.epub3.images","application/x-mobipocket-ebook":"https://www.gutenberg.org/ebooks/70812.kf8.images","text/plain; charset=us-ascii":"https://www.gutenberg.org/ebooks/70812.txt.utf-8","application/rdf+xml":"https://www.gutenberg.org/ebooks/70812.rdf","image/jpeg":"https://www.gutenberg.org/cache/epub/70812/pg70812.cover.medium.jpg","application/octet-stream":"https://www.gutenberg.org/files/70812/70812-0.zip"},"download_count":28},{"id":70826,"title":"Young Peggy McQueen","authors":[{"name":"Stables, Gordon","birth_year":1840,"death_year":1910}],"translators":[],"subjects":["Adventure stories","Girls -- Juvenile fiction","Islands of the Pacific -- Juvenile fiction","Shipwreck survival -- Juvenile fiction","Traveling theater -- Juvenile fiction"],"bookshelves":[],"languages":["en"],"copyright":false,"media_type":"Text","formats":{"text/html":"https://www.gutenberg.org/ebooks/70826.html.images","application/epub+zip":"https://www.gutenberg.org/ebooks/70826.epub3.images","application/x-mobipocket-ebook":"https://www.gutenberg.org/ebooks/70826.kf8.images","text/plain; charset=us-ascii":"https://www.gutenberg.org/ebooks/70826.txt.utf-8","application/rdf+xml":"https://www.gutenberg.org/ebooks/70826.rdf","image/jpeg":"https://www.gutenberg.org/cache/epub/70826/pg70826.cover.medium.jpg","application/octet-stream":"https://www.gutenberg.org/files/70826/70826-0.zip"},"download_count":28},{"id":70829,"title":"For the good of the team","authors":[{"name":"Barbour, Ralph Henry","birth_year":1870,"death_year":1944}],"translators":[],"subjects":["Boarding schools -- Juvenile fiction","Connecticut -- Juvenile fiction","Football -- Juvenile fiction","Football stories","Teenage boys -- Juvenile fiction"],"bookshelves":[],"languages":["en"],"copyright":false,"media_type":"Text","formats":{"text/html":"https://www.gutenberg.org/ebooks/70829.html.images","application/epub+zip":"https://www.gutenberg.org/ebooks/70829.epub3.images","application/x-mobipocket-ebook":"https://www.gutenberg.org/ebooks/70829.kf8.images","text/plain; charset=us-ascii":"https://www.gutenberg.org/ebooks/70829.txt.utf-8","application/rdf+xml":"https://www.gutenberg.org/ebooks/70829.rdf","image/jpeg":"https://www.gutenberg.org/cache/epub/70829/pg70829.cover.medium.jpg","application/octet-stream":"https://www.gutenberg.org/files/70829/70829-0.zip"},"download_count":28},{"id":70831,"title":"Great bands of America","authors":[{"name":"Graham, Alberta Powell","birth_year":1875,"death_year":1955}],"translators":[],"subjects":["Band directors -- United States","Bands (Music) -- United States"],"bookshelves":[],"languages":["en"],"copyright":false,"media_type":"Text","formats":{"text/html":"https://www.gutenberg.org/ebooks/70831.html.images","application/epub+zip":"https://www.gutenberg.org/ebooks/70831.epub3.images","application/x-mobipocket-ebook":"https://www.gutenberg.org/ebooks/70831.kf8.images","text/plain; charset=us-ascii":"https://www.gutenberg.org/ebooks/70831.txt.utf-8","application/rdf+xml":"https://www.gutenberg.org/ebooks/70831.rdf","image/jpeg":"https://www.gutenberg.org/cache/epub/70831/pg70831.cover.medium.jpg","application/octet-stream":"https://www.gutenberg.org/files/70831/70831-0.zip"},"download_count":28}]}