{"count":58808,"next":"http://129.241.150.113:8000/books/?languages=en&page=1091","previous":"http://129.241.150.113:8000/books/?languages=en&page=1089","results":[{"id":71804,"title":"The romance of Isabel Lady Burton : $b The story of her life. Volume I","authors":[{"name":"Burton, Isabel, Lady","birth_year":1831,"death_year":1896},{"name":"Wilkins, W. H. (William Henry)","birth_year":1860,"death_year":1905}],"translators":[],"subjects":["Adventure and adventurers","Burton, Isabel, Lady, 1831-1896","Burton, Richard Francis, Sir, 1821-1890","Wives -- Great Britain -- Biography"],"bookshelves":[],"languages":["en"],"copyright":false,"media_type":"Text","formats":{"text/html":"https://www.gutenberg.org/ebooks/71804.html.images","application/epub+zip":"https://www.gutenberg.org/ebooks/71804.epub3.images","application/x-mobipocket-ebook":"https://www.gutenberg.org/ebooks/71804.kf8.images","text/plain; charset=us-ascii":"https://www.gutenberg.org/ebooks/71804.txt.utf-8","application/rdf+xml":"https://www.gutenberg.org/ebooks/71804.rdf","image/jpeg":"https://www.gutenberg.org/cache/epub/71804/pg71804.cover.medium.jpg","application/octet-stream":"https://www.gutenberg.org/cache/epub/71804/pg71804-h.zip"},"download_count":34},{"id":71907,"title":"Arthur Glyn : $b and other stories","authors":[{"name":"Lamb, Ruth","birth_year":1829,"death_year":1916}],"translators":[],"subjects":["Children's stories","Christian life -- Juvenile fiction","Christmas -- Juvenile fiction"],"bookshelves":[],"languages":["en"],"copyright":false,"media_type":"Text","formats":{"text/html":"https://www.gutenberg.org/ebooks/71907.html.images","application/epub+zip":"https://www.gutenberg.org/ebooks/71907.epub3.images","application/x-mobipocket-ebook":"https://www.gutenberg.org/ebooks/71907.kf8.images","text/plain; charset=us-ascii":"https://www.gutenberg.org/ebooks/71907.txt.utf-8","application/rdf+xml":"https://www.gutenberg.org/ebooks/71907.rdf","image/jpeg":"https://www.gutenberg.org/cache/epub/71907/pg71907.cover.medium.jpg","application/octet-stream":"https://www.gutenberg.org/cache/epub/71907/pg71907-h.zip"},"download_count":34},{"id":71949,"title":"Geoff's little sister","authors":[{"name":"Garratt, Evelyn R.","birth_year":1854,"death_year":null}],"translators":[],"subjects":["Children -- Conduct of life -- Juvenile fiction","Children and death -- Juvenile fiction","Christian life -- Juvenile fiction","England -- Juvenile fiction","Motherless families -- Juvenile fiction","Siblings -- Juvenile fiction"],"bookshelves":[],"languages":["en"],"copyright":false,"media_type":"Text","formats":{"text/html":"https://www.gutenberg.org/ebooks/71949.html.images","application/epub+zip":"https://www.gutenberg.org/ebooks/71949.epub3.images","application/x-mobipocket-ebook":"https://www.gutenberg.org/ebooks/71949.kf8.images","text/plain; charset=us-ascii":"https://www.gutenberg.org/ebooks/71949.txt.utf-8","application/rdf+xml":"https://www.gutenberg.org/ebooks/71949.rdf","image/jpeg":"https://www.gutenberg.org/cache/epub/71949/pg71949.cover.medium.jpg","application/octet-stream":"https://www.gutenberg.org/cache/epub/71949/pg71949-h.zip"},"download_count":34},{"id":72076,"title":"A rolling stone","authors":[{"name":"Croker, B. M. (Bithia Mary)","birth_year":1848,"death_year":1920}],"translators":[],"subjects":["England -- Social life and customs -- 20th century -- Fiction","Household employees -- Fiction","Young men -- Fiction"],"bookshelves":[],"languages":["en"],"copyright":false,"media_type":"Text","formats":{"text/html":"https://www.gutenberg.org/ebooks/72076.html.images","application/epub+zip":"https://www.gutenberg.org/ebooks/72076.epub3.images","application/x-mobipocket-ebook":"https://www.gutenberg.org/ebooks/72076.kf8.images","text/plain; charset=us-ascii":"https://www.gutenberg.org/ebooks/72076.txt.utf-8","application/rdf+xml":"https://www.gutenberg.org/ebooks/72076.rdf","image/jpeg":"https://www.gutenberg.org/cache/epub/72076/pg72076.cover.medium.jpg","application/octet-stream":"https://www.gutenberg.org/cache/epub/72076/pg72076-h.zip"},"download_count":34},{"id":72105,"title":"Interference : $b A novel, Vol. 2 (of 3)","authors":[{"name":"Croker, B. M. (Bithia Mary)","birth_year":1848,"death_year":1920}],"translators":[],"subjects":["Ireland -- Fiction"],"bookshelves":[],"languages":["en"],"copyright":false,"media_type":"Text","formats":{"text/html":"https://www.gutenberg.org/ebooks/72105.html.images","application/epub+zip":"https://www.gutenberg.org/ebooks/72105.epub3.images","application/x-mobipocket-ebook":"https://www.gutenberg.org/ebooks/72105.kf8.images","text/plain; charset=us-ascii":"https://www.gutenberg.org/ebooks/72105.txt.utf-8","application/rdf+xml":"https://www.gutenberg.org/ebooks/72105.rdf","image/jpeg":"https://www.gutenberg.org/cache/epub/72105/pg72105.cover.medium.jpg","application/octet-stream":"https://www.gutenberg.org/cache/epub/72105/pg72105-h.zip"},"download_count":34},{"id":72121,"title":"The doctor, &c., vol. 5 (of 7)","authors":[{"name":"Southey, Robert","birth_year":1774,"death_year":1843}],"translators":[],"subjects":["English literature -- 19th century"],"bookshelves":[],"languages":["en"],"copyright":false,"media_type":"Text","formats":{"text/html":"https://www.gutenberg.org/ebooks/72121.html.images","application/epub+zip":"https://www.gutenberg.org/ebooks/72121.epub3.images","application/x-mobipocket-ebook":"https://www.gutenberg.org/ebooks/72121.kf8.images","text/plain; charset=us-ascii":"https://www.gutenberg.org/ebooks/72121.txt.utf-8","application/rdf+xml":"https://www.gutenberg.org/ebooks/72121.rdf","image/jpeg":"https://www.gutenberg.org/cache/epub/72121/pg72121.cover.medium.jpg","application/octet-stream":"https://www.gutenberg.org/cache/epub/72121/pg72121-h.zip"},"download_count":34},{"id":72188,"title":"How old are fossils?","authors":[{"name":"Roy, Sharat Kumar","birth_year":1897,"death_year":1962}],"translators":[],"subjects":["Fossils","Paleontology"],"bookshelves":[],"languages":["en"],"copyright":false,"media_type":"Text","formats":{"text/html":"https://www.gutenberg.org/ebooks/72188.html.images","application/epub+zip":"https://www.gutenberg.org/ebooks/72188.epub3.images","application/x-mobipocket-ebook":"https://www.gutenberg.org/ebooks/72188.kf8.images","text/plain; charset=us-ascii":"https://www.gutenberg.org/ebooks/72188.txt.utf-8","application/rdf+xml":"https://www.gutenberg.org/ebooks/72188.rdf","image/jpeg":"https://www.gutenberg.org/cache/epub/72188/pg72188.cover.medium.jpg","application/octet-stream":"https://www.gutenberg.org/cache/epub/72188/pg72188-h.zip"},"download_count":34},{"id":72210,"title":"Interference : $b A novel, Vol. 3 (of 3)","authors":[{"name":"Croker, B. M. (Bithia Mary)","birth_year":1848,"death_year":1920}],"translators":[],"subjects":["Ireland -- Fiction"],"bookshelves":[],"languages":["en"],"copyright":false,"media_type":"Text","formats":{"text/html":"https://www.gutenberg.org/ebooks/72210.html.images","application/epub+zip":"https://www.gutenberg.org/ebooks/72210.epub3.images","application/x-mobipocket-ebook":"https://www.gutenberg.org/ebooks/72210.kf8.images","text/plain; charset=us-ascii":"https://www.gutenberg.org/ebooks/72210.txt.utf-8","application/rdf+xml":"https://www.gutenberg.org/ebooks/72210.rdf","image/jpeg":"https://www.gutenberg.org/cache/epub/72210/pg72210.cover.medium.jpg","application/octet-stream":"https://www.gutenberg.org/cache/epub/72210/pg72210-h.zip"},"download_count":34},{"id":72265,"title":"The land of the Bey : $b Being impressions of Tunis under the French","authors":[{"name":"Reid, T. Wemyss (Thomas Wemyss)","birth_year":1842,"death_year":1905}],"translators":[],"subjects":["Tunis (Tunisia) -- Description and travel"],"bookshelves":[],"languages":["en"],"copyright":false,"media_type":"Text","formats":{"text/html":"https://www.gutenberg.org/ebooks/72265.html.images","application/epub+zip":"https://www.gutenberg.org/ebooks/72265.epub3.images","application/x-mobipocket-ebook":"https://www.gutenberg.org/ebooks/72265.kf8.images","text/plain; charset=us-ascii":"https://www.gutenberg.org/ebooks/72265.txt.utf-8","application/rdf+xml":"https://www.gutenberg.org/ebooks/72265.rdf","image/jpeg":"https://www.gutenberg.org/cache/epub/72265/pg72265.cover.medium.jpg","application/octet-stream":"https://www.gutenberg.org/cache/epub/72265/pg72265-h.zip"},"download_count":34},{"id":240,"title":"Stories from the Old Attic","authors":[{"name":"Harris, Robert A. (Robert Alan)","birth_year":1950,"death_year":null}],"translators":[],"subjects":["Fables","Fiction","Short stories"],"bookshelves":[],"languages":["en"],"copyright":true,"media_type":"Text","formats":{"text/html":"https://www.gutenberg.org/ebooks/240.html.images","application/epub+zip":"https://www.gutenberg.org/ebooks/240.epub3.images","application/x-mobipocket-ebook":"https://www.gutenberg.org/ebooks/240.kf8.images","text/plain; charset=us-ascii":"https://www.gutenberg.org/ebooks/240.txt.utf-8","application/rdf+xml":"https://www.gutenberg.org/ebooks/240.rdf","image/jpeg":"https://www.gutenberg.org/cache/epub/240/pg240.cover.medium.jpg","application/octet-stream":"https://www.gutenberg.org/cache/epub/240/pg240-h.zip"},"download_count":33},{"id":431,"title":"The Fortune Hunter","authors":[{"name":"Phillips, David Graham","birth_year":1867,"death_year":1911}],"translators":[],"subjects":["Man-woman relationships -- Fiction","Mystery fiction"],"bookshelves":[],"languages":["en"],"copyright":false,"media_type":"Text","formats":{"text/html":"https://www.gutenberg.org/ebooks/431.html.images","text/html; charset=iso-8859-1":"https://www.gutenberg.org/files/431/431-h/431-h.htm","application/epub+zip":"https://www.gutenberg.org/ebooks/431.epub3.images","application/x-mobipocket-ebook":"https://www.gutenberg.org/ebooks/431.kf8.images","text/plain; charset=us-ascii":"https://www.gutenberg.org/ebooks/431.txt.utf-8","application/rdf+xml":"https://www.gutenberg.org/ebooks/431.rdf","image/jpeg":"https://www.gutenberg.org/cache/epub/431/pg431.cover.medium.jpg","application/octet-stream":"https://www.gutenberg.org/cache/epub/431/pg431-h.zip"},"download_count":33},{"id":542,"title":"The Life of Me: An Autobiography","authors":[{"name":"Johnson, Clarence Edgar","birth_year":1906,"death_year":1994}],"translators":[],"subjects":["Fisher County (Tex.) -- Biography","Fisher County (Tex.) -- History","Johnson family","Johnson, Clarence Edgar, 1906-1994"],"bookshelves":["Biographies"],"languages":["en"],"copyright":true,"media_type":"Text","formats":{"text/html":"https://www.gutenberg.org/ebooks/542.html.images","application/epub+zip":"https://www.gutenberg.org/ebooks/542.epub3.images","application/x-mobipocket-ebook":"https://www.gutenberg.org/ebooks/542.kf8.images","text/plain; charset=us-ascii":"https://www.gutenberg.org/ebooks/542.txt.utf-8","application/rdf+xml":"https://www.gutenberg.org/ebooks/542.rdf","image/jpeg":"https://www.gutenberg.org/cache/epub/542/pg542.cover.medium.jpg","application/octet-stream":"https://www.gutenberg.org/cache/epub/542/pg542-h.zip"},"download_count":33},{"id":617,"title":"Poems","authors":[{"name":"Seeger, Alan","birth_year":1888,"death_year":1916}],"translators":[],"subjects":["American poetry","World War, 1914-1918 -- Poetry"],"bookshelves":["Bestsellers, American, 1895-1923"],"languages":["en"],"copyright":false,"media_type":"Text","formats":{"text/html":"https://www.gutenberg.org/ebooks/617.html.images","application/epub+zip":"https://www.gutenberg.org/ebooks/617.epub3.images","application/x-mobipocket-ebook":"https://www.gutenberg.org/ebooks/617.kf8.images","text/plain; charset=us-ascii":"https://www.gutenberg.org/ebooks/617.txt.utf-8","application/rdf+xml":"https://www.gutenberg.org/ebooks/617.rdf","image/jpeg":"https://www.gutenberg.org/cache/epub/617/pg617.cover.medium.jpg","application/octet-stream":"https://www.gutenberg.org/cache/epub/617/pg617-h.zip"},"download_count":33},{"id":679,"title":"Poems","authors":[{"name":"Harper, Frances Ellen Watkins","birth_year":1825,"death_year":1911}],"translators":[],"subjects":["Poetry"],"bookshelves":[],"languages":["en"],"copyright":false,"media_type":"Text","formats":{"text/html":"https://www.gutenberg.org/ebooks/679.html.images","application/epub+zip":"https://www.gutenberg.org/ebooks/679.epub3.images","application/x-mobipocket-ebook":"https://www.gutenberg.org/ebooks/679.kf8.images","text/plain; charset=us-ascii":"https://www.gutenberg.org/ebooks/679.txt.utf-8","text/plain; charset=iso-8859-1":"https://www.gutenberg.org/files/679/679-8.txt","application/rdf+xml":"https://www.gutenberg.org/ebooks/679.rdf","image/jpeg":"https://www.gutenberg.org/cache/epub/679/pg679.cover.medium.jpg","application/octet-stream":"https://www.gutenberg.org/cache/epub/679/pg679-h.zip"},"download_count":33},{"id":719,"title":"The Plays of W. E. Henley and R. L. Stevenson","authors":[{"name":"Stevenson, Robert Louis","birth_year":1850,"death_year":1894},{"name":"Henley, William Ernest","birth_year":1849,"death_year":1903}],"translators":[],"subjects":["Drama"],"bookshelves":[],"languages":["en"],"copyright":false,"media_type":"Text","formats":{"text/html":"https://www.gutenberg.org/ebooks/719.html.images","application/epub+zip":"https://www.gutenberg.org/ebooks/719.epub3.images","application/x-mobipocket-ebook":"https://www.gutenberg.org/ebooks/719.kf8.images","text/plain; charset=us-ascii":"https://www.gutenberg.org/ebooks/719.txt.utf-8","text/plain; charset=utf-8":"https://www.gutenberg.org/files/719/719-0.txt","application/rdf+xml":"https://www.gutenberg.org/ebooks/719.rdf","image/jpeg":"https://www.gutenberg.org/cache/epub/719/pg719.cover.medium.jpg","application/octet-stream":"https://www.gutenberg.org/cache/epub/719/pg719-h.zip"},"download_count":33},{"id":744,"title":"The Golden Mean","authors":[{"name":"Bonnell, Jerry T.","birth_year":null,"death_year":null},{"name":"Nemiroff, Robert J.","birth_year":null,"death_year":null}],"translators":[],"subjects":["Mathematics"],"bookshelves":["Mathematics"],"languages":["en"],"copyright":false,"media_type":"Text","formats":{"text/html":"https://www.gutenberg.org/ebooks/744.html.images","application/epub+zip":"https://www.gutenberg.org/ebooks/744.epub3.images","application/x-mobipocket-ebook":"https://www.gutenberg.org/ebooks/744.kf8.images","text/plain; charset=us-ascii":"https://www.gutenberg.org/ebooks/744.txt.utf-8","application/rdf+xml":"https://www.gutenberg.org/ebooks/744.rdf","image/jpeg":"https://www.gutenberg.org/cache/epub/744/pg744.cover.medium.jpg","application/octet-stream":"https://www.gutenberg.org/cache/epub/744/pg744-h.zip"},"download_count":33},{"id":857,"title":"Evergreens","authors":[{"name":"Jerome, Jerome K. (Jerome Klapka)","birth_year":1859,"death_year":1927}],"translators":[],"subjects":["Bulldog","Essays"],"bookshelves":[],"languages":["en"],"copyright":false,"media_type":"Text","formats":{"text/html":"https://www.gutenberg.org/ebooks/857.html.images","text/html; charset=us-ascii":"https://www.gutenberg.org/files/857/857-h/857-h.htm","application/epub+zip":"https://www.gutenberg.org/ebooks/857.epub3.images","application/x-mobipocket-ebook":"https://www.gutenberg.org/ebooks/857.kf8.images","text/plain; charset=us-ascii":"https://www.gutenberg.org/ebooks/857.txt.utf-8","application/rdf+xml":"https://www.gutenberg.org/ebooks/857.rdf","image/jpeg":"https://www.gutenberg.org/cache/epub/857/pg857.cover.medium.jpg","application/octet-stream":"https://www.gutenberg.org/cache/epub/857/pg857-h.zip"},"download_count":33},{"id":1123,"title":"Twelfth Night; Or, What You Will","authors":[{"name":"Shakespeare, William","birth_year":1564,"death_year":1616}],"translators":[],"subjects":["Comedies","Illyria -- Drama","Mistaken identity -- Drama","Shipwreck survival -- Drama","Siblings -- Drama","Twins -- Drama"],"bookshelves":[],"languages":["en"],"copyright":false,"media_type":"Text","formats":{"text/html":"https://www.gutenberg.org/ebooks/1123.html.images","application/epub+zip":"https://www.gutenberg.org/ebooks/1123.epub3.images","application/x-mobipocket-ebook":"https://www.gutenberg.org/ebooks/1123.kf8.images","text/plain; charset=us-ascii":"https://www.gutenberg.org/ebooks/1123.txt.utf-8","application/rdf+xml":"https://www.gutenberg.org/ebooks/1123.rdf","image/jpeg":"https://www.gutenberg.org/cache/epub/1123/pg1123.cover.medium.jpg","application/octet-stream":"https://www.gutenberg.org/files/1123/1123.zip"},"download_count":33},{"id":1273,"title":"The Autobiography of a Slander","authors":[{"name":"Lyall, Edna","birth_year":1857,"death_year":1903}],"translators":[],"subjects":["Fiction"],"bookshelves":[],"languages":["en"],"copyright":false,"media_type":"Text","formats":{"text/html":"https://www.gutenberg.org/ebooks/1273.html.images","application/epub+zip":"https://www.gutenberg.org/ebooks/1273.epub3.images","application/x-mobipocket-ebook":"https://www.gutenberg.org/ebooks/1273.kf8.images","text/plain; charset=us-ascii":"https://www.gutenberg.org/ebooks/1273.txt.utf-8","application/rdf+xml":"https://www.gutenberg.org/ebooks/1273.rdf","image/jpeg":"https://www.gutenberg.org/cache/epub/1273/pg1273.cover.medium.jpg","application/octet-stream":"https://www.gutenberg.org/cache/epub/1273/pg1273-h.zip"},"download_count":33},{"id":1308,"title":"A Florentine Tragedy; La Sainte Courtisane","authors":[{"name":"Wilde, Oscar","birth_year":1854,"death_year":1900}],"translators":[],"subjects":["Drama"],"bookshelves":[],"languages":["en"],"copyright":false,"media_type":"Text","formats":{"text/html":"https://www.gutenberg.org/ebooks/1308.html.images","application/epub+zip":"https://www.gutenberg.org/ebooks/1308.epub3.images","application/x-mobipocket-ebook":"https://www.gutenberg.org/ebooks/1308.kf8.images","text/plain; charset=us-ascii":"https://www.gutenberg.org/ebooks/1308.txt.utf-8","text/plain; charset=utf-8":"https://www.gutenberg.org/files/1308/1308-0.txt","application/rdf+xml":"https://www.gutenberg.org/ebooks/1308.rdf","image/jpeg":"https://www.gutenberg.org/cache/epub/1308/pg1308.cover.medium.jpg","application/octet-stream":"https://www.gutenberg.org/cache/epub/1308/pg1308-h.zip"},"download_count":33},{"id":1746,"title":"New Collected Rhymes","authors":[{"name":"Lang, Andrew","birth_year":1844,"death_year":1912}],"translators":[],"subjects":["English poetry"],"bookshelves":[],"languages":["en"],"copyright":false,"media_type":"Text","formats":{"text/html":"https://www.gutenberg.org/ebooks/1746.html.images","application/epub+zip":"https://www.gutenberg.org/ebooks/1746.epub3.images","application/x-mobipocket-ebook":"https://www.gutenberg.org/ebooks/1746.kf8.images","text/plain; charset=us-ascii":"https://www.gutenberg.org/ebooks/1746.txt.utf-8","text/plain; charset=utf-8":"https://www.gutenberg.org/files/1746/1746-0.txt","application/rdf+xml":"https://www.gutenberg.org/ebooks/1746.rdf","image/jpeg":"https://www.gutenberg.org/cache/epub/1746/pg1746.cover.medium.jpg","application/octet-stream":"https://www.gutenberg.org/cache/epub/1746/pg1746-h.zip"},"download_count":33},{"id":1796,"title":"Antony and Cleopatra","authors":[{"name":"Shakespeare, William","birth_year":1564,"death_year":1616}],"translators":[],"subjects":["Antonius, Marcus, 83 B.C.?-30 B.C. -- Drama","Cleopatra, Queen of Egypt, -30 B.C. -- Drama","Egypt -- History -- 332-30 B.C. -- Drama","Generals -- Rome -- Drama","Queens -- Egypt -- Drama","Romans -- Egypt -- Drama","Rome -- History -- Civil War, 43-31 B.C. -- Drama","Tragedies"],"bookshelves":[],"languages":["en"],"copyright":false,"media_type":"Text","formats":{"text/html":"https://www.gutenberg.org/ebooks/1796.html.images","application/epub+zip":"https://www.gutenberg.org/ebooks/1796.epub3.images","application/x-mobipocket-ebook":"https://www.gutenberg.org/ebooks/1796.kf8.images","text/plain; charset=us-ascii":"https://www.gutenberg.org/ebooks/1796.txt.utf-8","application/rdf+xml":"https://www.gutenberg.org/ebooks/1796.rdf","image/jpeg":"https://www.gutenberg.org/cache/epub/1796/pg1796.cover.medium.jpg","application/octet-stream":"https://www.gutenberg.org/cache/epub/1796/pg1796-h.zip"},"download_count":33},{"id":1868,"title":"Penelope's Postscripts","authors":[{"name":"Wiggin, Kate Douglas Smith","birth_year":1856,"death_year":1923}],"translators":[],"subjects":["Americans -- Europe -- Juvenile fiction","Europe -- Description and travel -- Juvenile fiction","Europe -- Social life and customs -- 20th century -- Juvenile fiction","Young women -- Travel -- Europe -- Juvenile fiction"],"bookshelves":["Children's Literature"],"languages":["en"],"copyright":false,"media_type":"Text","formats":{"text/html":"https://www.gutenberg.org/ebooks/1868.html.images","application/epub+zip":"https://www.gutenberg.org/ebooks/1868.epub3.images","application/x-mobipocket-ebook":"https://www.gutenberg.org/ebooks/1868.kf8.images","text/plain; charset=us-ascii":"https://www.gutenberg.org/ebooks/1868.txt.utf-8","text/plain; charset=utf-8":"https://www.gutenberg.org/files/1868/1868-0.txt","application/rdf+xml":"https://www.gutenberg.org/ebooks/1868.rdf","image/jpeg":"https://www.gutenberg.org/cache/epub/1868/pg1868.cover.medium.jpg","application/octet-stream":"https://www.gutenberg.org/cache/epub/1868/pg1868-h.zip"},"download_count":33},{"id":1902,"title":"The Old Peabody Pew: A Christmas Romance of a Country Church","authors":[{"name":"Wiggin, Kate Douglas Smith","birth_year":1856,"death_year":1923}],"translators":[],"subjects":["Christian fiction","Christmas stories","Church buildings -- Fiction","Country life -- Fiction"],"bookshelves":["Christmas"],"languages":["en"],"copyright":false,"media_type":"Text","formats":{"text/html":"https://www.gutenberg.org/ebooks/1902.html.images","application/epub+zip":"https://www.gutenberg.org/ebooks/1902.epub3.images","application/x-mobipocket-ebook":"https://www.gutenberg.org/ebooks/1902.kf8.images","text/plain; charset=us-ascii":"https://www.gutenberg.org/ebooks/1902.txt.utf-8","application/rdf+xml":"https://www.gutenberg.org/ebooks/1902.rdf","image/jpeg":"https://www.gutenberg.org/cache/epub/1902/pg1902.cover.medium.jpg","application/octet-stream":"https://www.gutenberg.org/cache/epub/1902/pg1902-h.zip"},"download_count":33},{"id":1933,"title":"The History of Samuel Titmarsh and the Great Hoggarty Diamond","authors":[{"name":"Thackeray, William Makepeace","birth_year":1811,"death_year":1863}],"translators":[],"subjects":["English fiction -- 19th century","Great Britain -- Social life and customs -- Fiction"],"bookshelves":[],"languages":["en"],"copyright":false,"media_type":"Text","formats":{"text/html":"https://www.gutenberg.org/ebooks/1933.html.images","application/epub+zip":"https://www.gutenberg.org/ebooks/1933.epub3.images","application/x-mobipocket-ebook":"https://www.gutenberg.org/ebooks/1933.kf8.images","text/plain; charset=us-ascii":"https://www.gutenberg.org/ebooks/1933.txt.utf-8","application/rdf+xml":"https://www.gutenberg.org/ebooks/1933.rdf","image/jpeg":"https://www.gutenberg.org/cache/epub/1933/pg1933.cover.medium.jpg","application/octet-stream":"https://www.gutenberg.org/cache/epub/1933/pg1933-h.zip"},"download_count":33},{"id":1994,"title":"Adventures Among Books","authors":[{"name":"Lang, Andrew","birth_year":1844,"death_year":1912}],"translators":[],"subjects":["English literature -- History and criticism"],"bookshelves":[],"languages":["en"],"copyright":false,"media_type":"Text","formats":{"text/html":"https://www.gutenberg.org/ebooks/1994.html.images","application/epub+zip":"https://www.gutenberg.org/ebooks/1994.epub3.images","application/x-mobipocket-ebook":"https://www.gutenberg.org/ebooks/1994.kf8.images","text/plain; charset=us-ascii":"https://www.gutenberg.org/ebooks/1994.txt.utf-8","application/rdf+xml":"https://www.gutenberg.org/ebooks/1994.rdf","image/jpeg":"https://www.gutenberg.org/cache/epub/1994/pg1994.cover.medium.jpg","application/octet-stream":"https://www.gutenberg.org/cache/epub/1994/pg1994-h.zip"},"download_count":33},{"id":2136,"title":"The Tale of Balen","authors":[{"name":"Swinburne, Algernon Charles","birth_year":1837,"death_year":1909}],"translators":[],"subjects":["English poetry -- 19th century"],"bookshelves":[],"languages":["en"],"copyright":false,"media_type":"Text","formats":{"text/html":"https://www.gutenberg.org/ebooks/2136.html.images","application/epub+zip":"https://www.gutenberg.org/ebooks/2136.epub3.images","application/x-mobipocket-ebook":"https://www.gutenberg.org/ebooks/2136.kf8.images","text/plain; charset=us-ascii":"https://www.gutenberg.org/ebooks/2136.txt.utf-8","text/plain; charset=utf-8":"https://www.gutenberg.org/files/2136/2136-0.txt","application/rdf+xml":"https://www.gutenberg.org/ebooks/2136.rdf","image/jpeg":"https://www.gutenberg.org/cache/epub/2136/pg2136.cover.medium.jpg","application/octet-stream":"https://www.gutenberg.org/cache/epub/2136/pg2136-h.zip"},"download_count":33},{"id":2137,"title":"Rosamund, Queen of the Lombards: A Tragedy","authors":[{"name":"Swinburne, Algernon Charles","birth_year":1837,"death_year":1909}],"translators":[],"subjects":["English drama","Tragedies"],"bookshelves":["Banned Books from Anne Haight's list"],"languages":["en"],"copyright":false,"media_type":"Text","formats":{"text/html":"https://www.gutenberg.org/ebooks/2137.html.images","application/epub+zip":"https://www.gutenberg.org/ebooks/2137.epub3.images","application/x-mobipocket-ebook":"https://www.gutenberg.org/ebooks/2137.kf8.images","text/plain; charset=us-ascii":"https://www.gutenberg.org/ebooks/2137.txt.utf-8","text/plain; charset=utf-8":"https://www.gutenberg.org/files/2137/2137-0.txt","application/rdf+xml":"https://www.gutenberg.org/ebooks/2137.rdf","image/jpeg":"https://www.gutenberg.org/cache/epub/2137/pg2137.cover.medium.jpg","application/octet-stream":"https://www.gutenberg.org/cache/epub/2137/pg2137-h.zip"},"download_count":33},{"id":2244,"title":"As You Like It","authors":[{"name":"Shakespeare, William","birth_year":1564,"death_year":1616}],"translators":[],"subjects":["Comedies","Exiles -- Drama","Fathers and daughters -- Drama","Pastoral drama"],"bookshelves":[],"languages":["en"],"copyright":false,"media_type":"Text","formats":{"text/html":"https://www.gutenberg.org/ebooks/2244.html.images","application/epub+zip":"https://www.gutenberg.org/ebooks/2244.epub3.images","application/x-mobipocket-ebook":"https://www.gutenberg.org/ebooks/2244.kf8.images","text/plain; charset=us-ascii":"https://www.gutenberg.org/ebooks/2244.txt.utf-8","application/rdf+xml":"https://www.gutenberg.org/ebooks/2244.rdf","image/jpeg":"https://www.gutenberg.org/cache/epub/2244/pg2244.cover.medium.jpg","application/octet-stream":"https://www.gutenberg.org/cache/epub/2244/pg2244-h.zip"},"download_count":33},{"id":2245,"title":"The Taming of the Shrew","authors":[{"name":"Shakespeare, William","birth_year":1564,"death_year":1616}],"translators":[],"subjects":["Comedies","Man-woman relationships -- Drama","Married people -- Drama","Padua (Italy) -- Drama","Sex role -- Drama"],"bookshelves":[],"languages":["en"],"copyright":false,"media_type":"Text","formats":{"text/html":"https://www.gutenberg.org/ebooks/2245.html.images","application/epub+zip":"https://www.gutenberg.org/ebooks/2245.epub3.images","application/x-mobipocket-ebook":"https://www.gutenberg.org/ebooks/2245.kf8.images","text/plain; charset=us-ascii":"https://www.gutenberg.org/ebooks/2245.txt.utf-8","application/rdf+xml":"https://www.gutenberg.org/ebooks/2245.rdf","image/jpeg":"https://www.gutenberg.org/cache/epub/2245/pg2245.cover.medium.jpg","application/octet-stream":"https://www.gutenberg.org/cache/epub/2245/pg2245-h.zip"},"download_count":33},{"id":2359,"title":"Stories By English Authors: France (Selected by Scribners)","authors":[],"translators":[],"subjects":["France -- Fiction","Short stories, English"],"bookshelves":["Short Stories"],"languages":["en"],"copyright":false,"media_type":"Text","formats":{"text/html":"https://www.gutenberg.org/ebooks/2359.html.images","text/html; charset=utf-8":"https://www.gutenberg.org/files/2359/2359-h/2359-h.htm","application/epub+zip":"https://www.gutenberg.org/ebooks/2359.epub3.images","application/x-mobipocket-ebook":"https://www.gutenberg.org/ebooks/2359.kf8.images","text/plain; charset=us-ascii":"https://www.gutenberg.org/ebooks/2359.txt.utf-8","text/plain; charset=utf-8":"https://www.gutenberg.org/files/2359/2359-0.txt","application/rdf+xml":"https://www.gutenberg.org/ebooks/2359.rdf","image/jpeg":"https://www.gutenberg.org/cache/epub/2359/pg2359.cover.medium.jpg","application/octet-stream":"https://www.gutenberg.org/cache/epub/2359/pg2359-h.zip"},"download_count":33},{"id":2471,"title":"The Crusade of the Excelsior","authors":[{"name":"Harte, Bret","birth_year":1836,"death_year":1902}],"translators":[],"subjects":["California -- Social life and customs -- Fiction","Western stories"],"bookshelves":[],"languages":["en"],"copyright":false,"media_type":"Text","formats":{"text/html":"https://www.gutenberg.org/ebooks/2471.html.images","text/html; charset=us-ascii":"https://www.gutenberg.org/files/2471/2471-h/2471-h.htm","application/epub+zip":"https://www.gutenberg.org/ebooks/2471.epub3.images","application/x-mobipocket-ebook":"https://www.gutenberg.org/ebooks/2471.kf8.images","text/plain; charset=us-ascii":"https://www.gutenberg.org/ebooks/2471.txt.utf-8","application/rdf+xml":"https://www.gutenberg.org/ebooks/2471.rdf","image/jpeg":"https://www.gutenberg.org/cache/epub/2471/pg2471.cover.medium.jpg","application/octet-stream":"https://www.gutenberg.org/cache/epub/2471/pg2471-h.zip"},"download_count":33}]}