{"count":58808,"next":"http://129.241.150.113:8000/books/?languages=en&page=1617","previous":"http://129.241.150.113:8000/books/?languages=en&page=1615","results":[{"id":7624,"title":"Devereux — Volume 01","authors":[{"name":"Lytton, Edward Bulwer Lytton, Baron","birth_year":1803,"death_year":1873}],"translators":[],"subjects":["Great Britain -- History -- Anne, 1702-1714 -- Fiction"],"bookshelves":["Historical Fiction"],"languages":["en"],"copyright":false,"media_type":"Text","formats":{"text/html":"https://www.gutenberg.org/ebooks/7624.html.images","application/epub+zip":"https://www.gutenberg.org/ebooks/7624.epub3.images","application/x-mobipocket-ebook":"https://www.gutenberg.org/ebooks/7624.kf8.images","text/plain; charset=us-ascii":"https://www.gutenberg.org/ebooks/7624.txt.utf-8","application/rdf+xml":"https://www.gutenberg.org/ebooks/7624.rdf","image/jpeg":"https://www.gutenberg.org/cache/epub/7624/pg7624.cover.medium.jpg","application/octet-stream":"https://www.gutenberg.org/cache/epub/7624/pg7624-h.zip"},"download_count":20},{"id":7646,"title":"Ernest Maltravers — Volume 07","authors":[{"name":"Lytton, Edward Bulwer Lytton, Baron","birth_year":1803,"death_year":1873}],"translators":[],"subjects":["English fiction -- 19th century"],"bookshelves":[],"languages":["en"],"copyright":false,"media_type":"Text","formats":{"text/html":"https://www.gutenberg.org/ebooks/7646.html.images","application/epub+zip":"https://www.gutenberg.org/ebooks/7646.epub3.images","application/x-mobipocket-ebook":"https://www.gutenberg.org/ebooks/7646.kf8.images","text/plain; charset=us-ascii":"https://www.gutenberg.org/ebooks/7646.txt.utf-8","application/rdf+xml":"https://www.gutenberg.org/ebooks/7646.rdf","image/jpeg":"https://www.gutenberg.org/cache/epub/7646/pg7646.cover.medium.jpg","application/octet-stream":"https://www.gutenberg.org/cache/epub/7646/pg7646-h.zip"},"download_count":20},{"id":7653,"title":"Kenelm Chillingly — Volume 04","authors":[{"name":"Lytton, Edward Bulwer Lytton, Baron","birth_year":1803,"death_year":1873}],"translators":[],"subjects":["English fiction -- 19th century"],"bookshelves":[],"languages":["en"],"copyright":false,"media_type":"Text","formats":{"text/html":"https://www.gutenberg.org/ebooks/7653.html.images","application/epub+zip":"https://www.gutenberg.org/ebooks/7653.epub3.images","application/x-mobipocket-ebook":"https://www.gutenberg.org/ebooks/7653.kf8.images","text/plain; charset=us-ascii":"https://www.gutenberg.org/ebooks/7653.txt.utf-8","application/rdf+xml":"https://www.gutenberg.org/ebooks/7653.rdf","image/jpeg":"https://www.gutenberg.org/cache/epub/7653/pg7653.cover.medium.jpg","application/octet-stream":"https://www.gutenberg.org/cache/epub/7653/pg7653-h.zip"},"download_count":20},{"id":7729,"title":"Paul Clifford — Volume 02","authors":[{"name":"Lytton, Edward Bulwer Lytton, Baron","birth_year":1803,"death_year":1873}],"translators":[],"subjects":["Brigands and robbers -- Fiction"],"bookshelves":[],"languages":["en"],"copyright":false,"media_type":"Text","formats":{"text/html":"https://www.gutenberg.org/ebooks/7729.html.images","application/epub+zip":"https://www.gutenberg.org/ebooks/7729.epub3.images","application/x-mobipocket-ebook":"https://www.gutenberg.org/ebooks/7729.kf8.images","text/plain; charset=us-ascii":"https://www.gutenberg.org/ebooks/7729.txt.utf-8","application/rdf+xml":"https://www.gutenberg.org/ebooks/7729.rdf","image/jpeg":"https://www.gutenberg.org/cache/epub/7729/pg7729.cover.medium.jpg","application/octet-stream":"https://www.gutenberg.org/cache/epub/7729/pg7729-h.zip"},"download_count":20},{"id":7730,"title":"Paul Clifford — Volume 03","authors":[{"name":"Lytton, Edward Bulwer Lytton, Baron","birth_year":1803,"death_year":1873}],"translators":[],"subjects":["Brigands and robbers -- Fiction"],"bookshelves":[],"languages":["en"],"copyright":false,"media_type":"Text","formats":{"text/html":"https://www.gutenberg.org/ebooks/7730.html.images","application/epub+zip":"https://www.gutenberg.org/ebooks/7730.epub3.images","application/x-mobipocket-ebook":"https://www.gutenberg.org/ebooks/7730.kf8.images","text/plain; charset=us-ascii":"https://www.gutenberg.org/ebooks/7730.txt.utf-8","application/rdf+xml":"https://www.gutenberg.org/ebooks/7730.rdf","image/jpeg":"https://www.gutenberg.org/cache/epub/7730/pg7730.cover.medium.jpg","application/octet-stream":"https://www.gutenberg.org/cache/epub/7730/pg7730-h.zip"},"download_count":20},{"id":7731,"title":"Paul Clifford — Volume 04","authors":[{"name":"Lytton, Edward Bulwer Lytton, Baron","birth_year":1803,"death_year":1873}],"translators":[],"subjects":["Brigands and robbers -- Fiction"],"bookshelves":[],"languages":["en"],"copyright":false,"media_type":"Text","formats":{"text/html":"https://www.gutenberg.org/ebooks/7731.html.images","application/epub+zip":"https://www.gutenberg.org/ebooks/7731.epub3.images","application/x-mobipocket-ebook":"https://www.gutenberg.org/ebooks/7731.kf8.images","text/plain; charset=us-ascii":"https://www.gutenberg.org/ebooks/7731.txt.utf-8","application/rdf+xml":"https://www.gutenberg.org/ebooks/7731.rdf","image/jpeg":"https://www.gutenberg.org/cache/epub/7731/pg7731.cover.medium.jpg","application/octet-stream":"https://www.gutenberg.org/cache/epub/7731/pg7731-h.zip"},"download_count":20},{"id":7737,"title":"The Parisians — Volume 01","authors":[{"name":"Lytton, Edward Bulwer Lytton, Baron","birth_year":1803,"death_year":1873}],"translators":[],"subjects":["English fiction -- 19th century","Paris (France) -- Social life and customs -- 19th century -- Fiction"],"bookshelves":["Historical Fiction"],"languages":["en"],"copyright":false,"media_type":"Text","formats":{"text/html":"https://www.gutenberg.org/ebooks/7737.html.images","application/epub+zip":"https://www.gutenberg.org/ebooks/7737.epub3.images","application/x-mobipocket-ebook":"https://www.gutenberg.org/ebooks/7737.kf8.images","text/plain; charset=us-ascii":"https://www.gutenberg.org/ebooks/7737.txt.utf-8","application/rdf+xml":"https://www.gutenberg.org/ebooks/7737.rdf","image/jpeg":"https://www.gutenberg.org/cache/epub/7737/pg7737.cover.medium.jpg","application/octet-stream":"https://www.gutenberg.org/cache/epub/7737/pg7737-h.zip"},"download_count":20},{"id":7738,"title":"The Parisians — Volume 02","authors":[{"name":"Lytton, Edward Bulwer Lytton, Baron","birth_year":1803,"death_year":1873}],"translators":[],"subjects":["English fiction -- 19th century","Paris (France) -- Social life and customs -- 19th century -- Fiction"],"bookshelves":["Historical Fiction"],"languages":["en"],"copyright":false,"media_type":"Text","formats":{"text/html":"https://www.gutenberg.org/ebooks/7738.html.images","application/epub+zip":"https://www.gutenberg.org/ebooks/7738.epub3.images","application/x-mobipocket-ebook":"https://www.gutenberg.org/ebooks/7738.kf8.images","text/plain; charset=us-ascii":"https://www.gutenberg.org/ebooks/7738.txt.utf-8","application/rdf+xml":"https://www.gutenberg.org/ebooks/7738.rdf","image/jpeg":"https://www.gutenberg.org/cache/epub/7738/pg7738.cover.medium.jpg","application/octet-stream":"https://www.gutenberg.org/cache/epub/7738/pg7738-h.zip"},"download_count":20},{"id":7773,"title":"Diamond Dust","authors":[{"name":"Shearin, K. Kay","birth_year":null,"death_year":null}],"translators":[],"subjects":["Whistle blowing -- Delaware"],"bookshelves":[],"languages":["en"],"copyright":true,"media_type":"Text","formats":{"text/html":"https://www.gutenberg.org/ebooks/7773.html.images","application/epub+zip":"https://www.gutenberg.org/ebooks/7773.epub3.images","text/rtf":"https://www.gutenberg.org/files/7773/7773-r.rtf","application/x-mobipocket-ebook":"https://www.gutenberg.org/ebooks/7773.kf8.images","text/plain; charset=us-ascii":"https://www.gutenberg.org/ebooks/7773.txt.utf-8","application/rdf+xml":"https://www.gutenberg.org/ebooks/7773.rdf","image/jpeg":"https://www.gutenberg.org/cache/epub/7773/pg7773.cover.medium.jpg","application/octet-stream":"https://www.gutenberg.org/files/7773/7773-r.zip"},"download_count":20},{"id":7775,"title":"Memoirs of the Life of the Rt. Hon. Richard Brinsley Sheridan — Volume 02","authors":[{"name":"Moore, Thomas","birth_year":1779,"death_year":1852}],"translators":[],"subjects":["Dramatists, English -- 18th century -- Biography","Great Britain -- Politics and government -- 1760-1820","Legislators -- Great Britain -- Biography","Sheridan, Richard Brinsley, 1751-1816","Theatrical managers -- Great Britain -- Biography"],"bookshelves":[],"languages":["en"],"copyright":false,"media_type":"Text","formats":{"text/html":"https://www.gutenberg.org/ebooks/7775.html.images","application/epub+zip":"https://www.gutenberg.org/ebooks/7775.epub3.images","application/x-mobipocket-ebook":"https://www.gutenberg.org/ebooks/7775.kf8.images","text/plain; charset=us-ascii":"https://www.gutenberg.org/ebooks/7775.txt.utf-8","text/plain; charset=iso-8859-1":"https://www.gutenberg.org/files/7775/7775-8.txt","application/rdf+xml":"https://www.gutenberg.org/ebooks/7775.rdf","image/jpeg":"https://www.gutenberg.org/cache/epub/7775/pg7775.cover.medium.jpg","application/octet-stream":"https://www.gutenberg.org/cache/epub/7775/pg7775-h.zip"},"download_count":20},{"id":7794,"title":"Pelle the Conqueror — Volume 04","authors":[{"name":"Andersen Nexø, Martin","birth_year":1869,"death_year":1954}],"translators":[{"name":"Muir, Jessie","birth_year":null,"death_year":null}],"subjects":["Fathers and sons -- Fiction","Immigrants -- Denmark -- Fiction"],"bookshelves":[],"languages":["en"],"copyright":false,"media_type":"Text","formats":{"text/html":"https://www.gutenberg.org/ebooks/7794.html.images","application/epub+zip":"https://www.gutenberg.org/ebooks/7794.epub3.images","application/x-mobipocket-ebook":"https://www.gutenberg.org/ebooks/7794.kf8.images","text/plain; charset=us-ascii":"https://www.gutenberg.org/ebooks/7794.txt.utf-8","text/plain; charset=utf-8":"https://www.gutenberg.org/files/7794/7794-0.txt","application/rdf+xml":"https://www.gutenberg.org/ebooks/7794.rdf","image/jpeg":"https://www.gutenberg.org/cache/epub/7794/pg7794.cover.medium.jpg","application/octet-stream":"https://www.gutenberg.org/cache/epub/7794/pg7794-h.zip"},"download_count":20},{"id":7807,"title":"Georgina of the Rainbows","authors":[{"name":"Johnston, Annie F. (Annie Fellows)","birth_year":1863,"death_year":1931}],"translators":[],"subjects":["Girls -- Juvenile fiction","New England -- Juvenile fiction"],"bookshelves":[],"languages":["en"],"copyright":false,"media_type":"Text","formats":{"text/html":"https://www.gutenberg.org/ebooks/7807.html.images","text/html; charset=us-ascii":"https://www.gutenberg.org/files/7807/7807-h/7807-h.htm","application/epub+zip":"https://www.gutenberg.org/ebooks/7807.epub3.images","application/x-mobipocket-ebook":"https://www.gutenberg.org/ebooks/7807.kf8.images","text/plain; charset=us-ascii":"https://www.gutenberg.org/ebooks/7807.txt.utf-8","application/rdf+xml":"https://www.gutenberg.org/ebooks/7807.rdf","image/jpeg":"https://www.gutenberg.org/cache/epub/7807/pg7807.cover.medium.jpg","application/octet-stream":"https://www.gutenberg.org/cache/epub/7807/pg7807-h.zip"},"download_count":20},{"id":7828,"title":"The Web of Life","authors":[{"name":"Herrick, Robert","birth_year":1868,"death_year":1938}],"translators":[],"subjects":["Chicago (Ill.) -- Fiction","Surgeons -- Fiction","Triangles (Interpersonal relations) -- Fiction"],"bookshelves":[],"languages":["en"],"copyright":false,"media_type":"Text","formats":{"text/html":"https://www.gutenberg.org/ebooks/7828.html.images","application/epub+zip":"https://www.gutenberg.org/ebooks/7828.epub3.images","application/x-mobipocket-ebook":"https://www.gutenberg.org/ebooks/7828.kf8.images","text/plain; charset=us-ascii":"https://www.gutenberg.org/ebooks/7828.txt.utf-8","application/rdf+xml":"https://www.gutenberg.org/ebooks/7828.rdf","image/jpeg":"https://www.gutenberg.org/cache/epub/7828/pg7828.cover.medium.jpg","application/octet-stream":"https://www.gutenberg.org/cache/epub/7828/pg7828-h.zip"},"download_count":20},{"id":7850,"title":"Memoirs of Aaron Burr, Volume 1.","authors":[{"name":"Burr, Aaron","birth_year":1756,"death_year":1836}],"translators":[],"subjects":["Burr, Aaron, 1756-1836","New York (State) -- Politics and government -- 1775-1865","United States -- History -- Revolution, 1775-1783 -- Personal narratives","United States -- Politics and government -- 1789-1809","Vice-Presidents -- United States -- Biography"],"bookshelves":[],"languages":["en"],"copyright":false,"media_type":"Text","formats":{"text/html":"https://www.gutenberg.org/ebooks/7850.html.images","application/epub+zip":"https://www.gutenberg.org/ebooks/7850.epub3.images","application/x-mobipocket-ebook":"https://www.gutenberg.org/ebooks/7850.kf8.images","text/plain; charset=us-ascii":"https://www.gutenberg.org/ebooks/7850.txt.utf-8","text/plain; charset=iso-8859-1":"https://www.gutenberg.org/files/7850/7850-8.txt","application/rdf+xml":"https://www.gutenberg.org/ebooks/7850.rdf","image/jpeg":"https://www.gutenberg.org/cache/epub/7850/pg7850.cover.medium.jpg","application/octet-stream":"https://www.gutenberg.org/cache/epub/7850/pg7850-h.zip"},"download_count":20},{"id":7903,"title":"American Historical and Literary Curiosities, Part 03","authors":[{"name":"Smith, J. Jay (John Jay)","birth_year":1798,"death_year":1881},{"name":"Watson, John F. (John Fanning)","birth_year":1779,"death_year":1860}],"translators":[],"subjects":["Autographs -- United States -- Facsimiles","United States -- History -- Revolution, 1775-1783 -- Sources"],"bookshelves":[],"languages":["en"],"copyright":false,"media_type":"Text","formats":{"text/html":"https://www.gutenberg.org/ebooks/7903.html.images","text/html; charset=iso-8859-1":"https://www.gutenberg.org/files/7903/7903-h/7903-h.htm","application/epub+zip":"https://www.gutenberg.org/ebooks/7903.epub3.images","application/x-mobipocket-ebook":"https://www.gutenberg.org/ebooks/7903.kf8.images","text/plain; charset=us-ascii":"https://www.gutenberg.org/ebooks/7903.txt.utf-8","text/plain; charset=iso-8859-1":"https://www.gutenberg.org/files/7903/7903.txt","application/rdf+xml":"https://www.gutenberg.org/ebooks/7903.rdf","image/jpeg":"https://www.gutenberg.org/cache/epub/7903/pg7903.cover.medium.jpg","application/octet-stream":"https://www.gutenberg.org/cache/epub/7903/pg7903-h.zip"},"download_count":20},{"id":7957,"title":"Out of the Fog: A Story of the Sea","authors":[{"name":"Ober, Charles K. (Charles Kellogg)","birth_year":1856,"death_year":null}],"translators":[],"subjects":["Conversion"],"bookshelves":[],"languages":["en"],"copyright":false,"media_type":"Text","formats":{"text/html":"https://www.gutenberg.org/ebooks/7957.html.images","text/html; charset=iso-8859-1":"https://www.gutenberg.org/files/7957/7957-h/7957-h.htm","application/epub+zip":"https://www.gutenberg.org/ebooks/7957.epub3.images","application/x-mobipocket-ebook":"https://www.gutenberg.org/ebooks/7957.kf8.images","text/plain; charset=us-ascii":"https://www.gutenberg.org/ebooks/7957.txt.utf-8","application/rdf+xml":"https://www.gutenberg.org/ebooks/7957.rdf","image/jpeg":"https://www.gutenberg.org/cache/epub/7957/pg7957.cover.medium.jpg","application/octet-stream":"https://www.gutenberg.org/cache/epub/7957/pg7957-h.zip"},"download_count":20},{"id":8004,"title":"The Bible, King James version, Book 4: Numbers","authors":[{"name":"Anonymous","birth_year":null,"death_year":null}],"translators":[],"subjects":["Bible. Numbers"],"bookshelves":["Judaism"],"languages":["en"],"copyright":false,"media_type":"Text","formats":{"text/html":"https://www.gutenberg.org/ebooks/8004.html.images","application/epub+zip":"https://www.gutenberg.org/ebooks/8004.epub3.images","application/x-mobipocket-ebook":"https://www.gutenberg.org/ebooks/8004.kf8.images","text/plain; charset=us-ascii":"https://www.gutenberg.org/ebooks/8004.txt.utf-8","application/rdf+xml":"https://www.gutenberg.org/ebooks/8004.rdf","image/jpeg":"https://www.gutenberg.org/cache/epub/8004/pg8004.cover.medium.jpg","application/octet-stream":"https://www.gutenberg.org/cache/epub/8004/pg8004-h.zip"},"download_count":20},{"id":8017,"title":"The Bible, King James version, Book 17: Esther","authors":[{"name":"Anonymous","birth_year":null,"death_year":null}],"translators":[],"subjects":["Bible. Esther"],"bookshelves":["Judaism"],"languages":["en"],"copyright":false,"media_type":"Text","formats":{"text/html":"https://www.gutenberg.org/ebooks/8017.html.images","application/epub+zip":"https://www.gutenberg.org/ebooks/8017.epub3.images","application/x-mobipocket-ebook":"https://www.gutenberg.org/ebooks/8017.kf8.images","text/plain; charset=us-ascii":"https://www.gutenberg.org/ebooks/8017.txt.utf-8","application/rdf+xml":"https://www.gutenberg.org/ebooks/8017.rdf","image/jpeg":"https://www.gutenberg.org/cache/epub/8017/pg8017.cover.medium.jpg","application/octet-stream":"https://www.gutenberg.org/cache/epub/8017/pg8017-h.zip"},"download_count":20},{"id":8038,"title":"The Bible, King James version, Book 38: Zechariah","authors":[{"name":"Anonymous","birth_year":null,"death_year":null}],"translators":[],"subjects":["Bible. Zechariah"],"bookshelves":["Judaism"],"languages":["en"],"copyright":false,"media_type":"Text","formats":{"text/html":"https://www.gutenberg.org/ebooks/8038.html.images","application/epub+zip":"https://www.gutenberg.org/ebooks/8038.epub3.images","application/x-mobipocket-ebook":"https://www.gutenberg.org/ebooks/8038.kf8.images","text/plain; charset=us-ascii":"https://www.gutenberg.org/ebooks/8038.txt.utf-8","application/rdf+xml":"https://www.gutenberg.org/ebooks/8038.rdf","image/jpeg":"https://www.gutenberg.org/cache/epub/8038/pg8038.cover.medium.jpg","application/octet-stream":"https://www.gutenberg.org/cache/epub/8038/pg8038-h.zip"},"download_count":20},{"id":8042,"title":"The Bible, King James version, Book 42: Luke","authors":[{"name":"Anonymous","birth_year":null,"death_year":null}],"translators":[],"subjects":["Bible. Luke"],"bookshelves":["Harvard Classics"],"languages":["en"],"copyright":false,"media_type":"Text","formats":{"text/html":"https://www.gutenberg.org/ebooks/8042.html.images","application/epub+zip":"https://www.gutenberg.org/ebooks/8042.epub3.images","application/x-mobipocket-ebook":"https://www.gutenberg.org/ebooks/8042.kf8.images","text/plain; charset=us-ascii":"https://www.gutenberg.org/ebooks/8042.txt.utf-8","application/rdf+xml":"https://www.gutenberg.org/ebooks/8042.rdf","image/jpeg":"https://www.gutenberg.org/cache/epub/8042/pg8042.cover.medium.jpg","application/octet-stream":"https://www.gutenberg.org/cache/epub/8042/pg8042-h.zip"},"download_count":20},{"id":8059,"title":"The Bible, King James version, Book 59: James","authors":[{"name":"Anonymous","birth_year":null,"death_year":null}],"translators":[],"subjects":["Bible. James"],"bookshelves":[],"languages":["en"],"copyright":false,"media_type":"Text","formats":{"text/html":"https://www.gutenberg.org/ebooks/8059.html.images","application/epub+zip":"https://www.gutenberg.org/ebooks/8059.epub3.images","application/x-mobipocket-ebook":"https://www.gutenberg.org/ebooks/8059.kf8.images","text/plain; charset=us-ascii":"https://www.gutenberg.org/ebooks/8059.txt.utf-8","application/rdf+xml":"https://www.gutenberg.org/ebooks/8059.rdf","image/jpeg":"https://www.gutenberg.org/cache/epub/8059/pg8059.cover.medium.jpg","application/octet-stream":"https://www.gutenberg.org/cache/epub/8059/pg8059-h.zip"},"download_count":20},{"id":8134,"title":"Together","authors":[{"name":"Herrick, Robert","birth_year":1868,"death_year":1938}],"translators":[],"subjects":["Marriage -- Fiction","United States -- Social life and customs -- 20th century -- Fiction"],"bookshelves":[],"languages":["en"],"copyright":false,"media_type":"Text","formats":{"text/html":"https://www.gutenberg.org/ebooks/8134.html.images","application/epub+zip":"https://www.gutenberg.org/ebooks/8134.epub3.images","application/x-mobipocket-ebook":"https://www.gutenberg.org/ebooks/8134.kf8.images","text/plain; charset=us-ascii":"https://www.gutenberg.org/ebooks/8134.txt.utf-8","application/rdf+xml":"https://www.gutenberg.org/ebooks/8134.rdf","image/jpeg":"https://www.gutenberg.org/cache/epub/8134/pg8134.cover.medium.jpg","application/octet-stream":"https://www.gutenberg.org/cache/epub/8134/pg8134-h.zip"},"download_count":20},{"id":8193,"title":"The Sceptics of the Old Testament: Job - Koheleth - Agur","authors":[{"name":"Dillon, Emile Joseph","birth_year":1855,"death_year":1933}],"translators":[],"subjects":["Bible. Ecclesiastes -- Criticism, interpretation, etc.","Bible. Job -- Criticism, interpretation, etc.","Bible. Proverbs -- Criticism, interpretation, etc."],"bookshelves":[],"languages":["en"],"copyright":false,"media_type":"Text","formats":{"text/html":"https://www.gutenberg.org/ebooks/8193.html.images","application/epub+zip":"https://www.gutenberg.org/ebooks/8193.epub3.images","application/x-mobipocket-ebook":"https://www.gutenberg.org/ebooks/8193.kf8.images","text/plain; charset=us-ascii":"https://www.gutenberg.org/ebooks/8193.txt.utf-8","text/plain; charset=iso-8859-1":"https://www.gutenberg.org/files/8193/8193-8.txt","application/rdf+xml":"https://www.gutenberg.org/ebooks/8193.rdf","image/jpeg":"https://www.gutenberg.org/cache/epub/8193/pg8193.cover.medium.jpg","application/octet-stream":"https://www.gutenberg.org/cache/epub/8193/pg8193-h.zip"},"download_count":20},{"id":8304,"title":"The Bible, Douay-Rheims, Book 04: Numbers: The Challoner Revision","authors":[],"translators":[],"subjects":["Bible. Numbers"],"bookshelves":[],"languages":["en"],"copyright":false,"media_type":"Text","formats":{"text/html":"https://www.gutenberg.org/ebooks/8304.html.images","application/epub+zip":"https://www.gutenberg.org/ebooks/8304.epub3.images","application/x-mobipocket-ebook":"https://www.gutenberg.org/ebooks/8304.kf8.images","text/plain; charset=us-ascii":"https://www.gutenberg.org/ebooks/8304.txt.utf-8","application/rdf+xml":"https://www.gutenberg.org/ebooks/8304.rdf","image/jpeg":"https://www.gutenberg.org/cache/epub/8304/pg8304.cover.medium.jpg","application/octet-stream":"https://www.gutenberg.org/cache/epub/8304/pg8304-h.zip"},"download_count":20},{"id":8320,"title":"The Bible, Douay-Rheims, Book 20: Job: The Challoner Revision","authors":[],"translators":[],"subjects":["Bible. Job"],"bookshelves":["Best Books Ever Listings"],"languages":["en"],"copyright":false,"media_type":"Text","formats":{"text/html":"https://www.gutenberg.org/ebooks/8320.html.images","application/epub+zip":"https://www.gutenberg.org/ebooks/8320.epub3.images","application/x-mobipocket-ebook":"https://www.gutenberg.org/ebooks/8320.kf8.images","text/plain; charset=us-ascii":"https://www.gutenberg.org/ebooks/8320.txt.utf-8","application/rdf+xml":"https://www.gutenberg.org/ebooks/8320.rdf","image/jpeg":"https://www.gutenberg.org/cache/epub/8320/pg8320.cover.medium.jpg","application/octet-stream":"https://www.gutenberg.org/cache/epub/8320/pg8320-h.zip"},"download_count":20},{"id":8386,"title":"Ptomaine Street: The Tale of Warble Petticoat","authors":[{"name":"Wells, Carolyn","birth_year":1862,"death_year":1942}],"translators":[],"subjects":["Fiction","Lewis, Sinclair, 1885-1951 -- Parodies, imitations, etc."],"bookshelves":[],"languages":["en"],"copyright":false,"media_type":"Text","formats":{"text/html":"https://www.gutenberg.org/ebooks/8386.html.images","text/html; charset=utf-8":"https://www.gutenberg.org/files/8386/8386-h/8386-h.htm","application/epub+zip":"https://www.gutenberg.org/ebooks/8386.epub3.images","application/x-mobipocket-ebook":"https://www.gutenberg.org/ebooks/8386.kf8.images","text/plain; charset=us-ascii":"https://www.gutenberg.org/ebooks/8386.txt.utf-8","text/plain; charset=utf-8":"https://www.gutenberg.org/files/8386/8386-0.txt","text/plain; charset=iso-8859-1":"https://www.gutenberg.org/files/8386/8386-8.txt","application/rdf+xml":"https://www.gutenberg.org/ebooks/8386.rdf","image/jpeg":"https://www.gutenberg.org/cache/epub/8386/pg8386.cover.medium.jpg","application/octet-stream":"https://www.gutenberg.org/cache/epub/8386/pg8386-h.zip"},"download_count":20},{"id":8398,"title":"The Sign at Six","authors":[{"name":"White, Stewart Edward","birth_year":1873,"death_year":1946}],"translators":[],"subjects":["Detective and mystery stories","Science fiction"],"bookshelves":[],"languages":["en"],"copyright":false,"media_type":"Text","formats":{"text/html":"https://www.gutenberg.org/ebooks/8398.html.images","application/epub+zip":"https://www.gutenberg.org/ebooks/8398.epub3.images","application/x-mobipocket-ebook":"https://www.gutenberg.org/ebooks/8398.kf8.images","text/plain; charset=us-ascii":"https://www.gutenberg.org/ebooks/8398.txt.utf-8","application/rdf+xml":"https://www.gutenberg.org/ebooks/8398.rdf","image/jpeg":"https://www.gutenberg.org/cache/epub/8398/pg8398.cover.medium.jpg","application/octet-stream":"https://www.gutenberg.org/cache/epub/8398/pg8398-h.zip"},"download_count":20},{"id":8482,"title":"Life on the Mississippi, Part 12.","authors":[{"name":"Twain, Mark","birth_year":1835,"death_year":1910}],"translators":[],"subjects":["Authors, American -- 19th century -- Biography","Mississippi River -- Description and travel","Mississippi River Valley -- Social life and customs -- 19th century","Pilots and pilotage -- Mississippi River","Twain, Mark, 1835-1910 -- Travel -- Mississippi River"],"bookshelves":[],"languages":["en"],"copyright":false,"media_type":"Text","formats":{"text/html":"https://www.gutenberg.org/ebooks/8482.html.images","text/html; charset=iso-8859-1":"https://www.gutenberg.org/files/8482/8482-h/8482-h.htm","application/epub+zip":"https://www.gutenberg.org/ebooks/8482.epub3.images","application/x-mobipocket-ebook":"https://www.gutenberg.org/ebooks/8482.kf8.images","text/plain; charset=us-ascii":"https://www.gutenberg.org/ebooks/8482.txt.utf-8","application/rdf+xml":"https://www.gutenberg.org/ebooks/8482.rdf","image/jpeg":"https://www.gutenberg.org/cache/epub/8482/pg8482.cover.medium.jpg","application/octet-stream":"https://www.gutenberg.org/cache/epub/8482/pg8482-h.zip"},"download_count":20},{"id":8553,"title":"The Seaboard Parish Volume 3","authors":[{"name":"MacDonald, George","birth_year":1824,"death_year":1905}],"translators":[],"subjects":["Christian fiction","Neighborhoods -- Scotland -- Fiction"],"bookshelves":[],"languages":["en"],"copyright":false,"media_type":"Text","formats":{"text/html":"https://www.gutenberg.org/ebooks/8553.html.images","text/html; charset=iso-8859-1":"https://www.gutenberg.org/files/8553/8553-h/8553-h.htm","application/epub+zip":"https://www.gutenberg.org/ebooks/8553.epub3.images","application/x-mobipocket-ebook":"https://www.gutenberg.org/ebooks/8553.kf8.images","text/plain; charset=us-ascii":"https://www.gutenberg.org/ebooks/8553.txt.utf-8","text/plain; charset=iso-8859-1":"https://www.gutenberg.org/files/8553/8553-8.txt","application/rdf+xml":"https://www.gutenberg.org/ebooks/8553.rdf","image/jpeg":"https://www.gutenberg.org/cache/epub/8553/pg8553.cover.medium.jpg","application/octet-stream":"https://www.gutenberg.org/cache/epub/8553/pg8553-h.zip"},"download_count":20},{"id":8594,"title":"Normandy: The Scenery & Romance of Its Ancient Towns, Part 2","authors":[{"name":"Home, Gordon","birth_year":1878,"death_year":1969}],"translators":[],"subjects":["Normandy (France) -- Description and travel"],"bookshelves":[],"languages":["en"],"copyright":false,"media_type":"Text","formats":{"text/html":"https://www.gutenberg.org/ebooks/8594.html.images","text/html; charset=iso-8859-1":"https://www.gutenberg.org/files/8594/8594-h/8594-h.htm","application/epub+zip":"https://www.gutenberg.org/ebooks/8594.epub3.images","application/x-mobipocket-ebook":"https://www.gutenberg.org/ebooks/8594.kf8.images","text/plain; charset=us-ascii":"https://www.gutenberg.org/ebooks/8594.txt.utf-8","text/plain; charset=iso-8859-1":"https://www.gutenberg.org/files/8594/8594-8.txt","application/rdf+xml":"https://www.gutenberg.org/ebooks/8594.rdf","image/jpeg":"https://www.gutenberg.org/cache/epub/8594/pg8594.cover.medium.jpg","application/octet-stream":"https://www.gutenberg.org/cache/epub/8594/pg8594-h.zip"},"download_count":20},{"id":8622,"title":"The New Revelation","authors":[{"name":"Doyle, Arthur Conan","birth_year":1859,"death_year":1930}],"translators":[],"subjects":["Spiritualism"],"bookshelves":[],"languages":["en"],"copyright":true,"media_type":"Sound","formats":{"text/plain; charset=us-ascii":"https://www.gutenberg.org/files/8622/8622-readme.txt","text/html; charset=iso-8859-1":"https://www.gutenberg.org/files/8622/8622-index.htm","audio/mpeg":"https://www.gutenberg.org/files/8622/mp3/8622-000.mp3","application/rdf+xml":"https://www.gutenberg.org/ebooks/8622.rdf","application/octet-stream":"https://www.gutenberg.org/files/8622/8622-mp3.zip"},"download_count":20},{"id":8704,"title":"The Doré Bible Gallery, Volume 4","authors":[],"translators":[],"subjects":["Bible -- Illustrations"],"bookshelves":[],"languages":["en"],"copyright":false,"media_type":"Text","formats":{"text/html":"https://www.gutenberg.org/ebooks/8704.html.images","text/html; charset=iso-8859-1":"https://www.gutenberg.org/files/8704/8704-h/8704-h.htm","application/epub+zip":"https://www.gutenberg.org/ebooks/8704.epub3.images","application/x-mobipocket-ebook":"https://www.gutenberg.org/ebooks/8704.kf8.images","text/plain; charset=us-ascii":"https://www.gutenberg.org/ebooks/8704.txt.utf-8","application/rdf+xml":"https://www.gutenberg.org/ebooks/8704.rdf","image/jpeg":"https://www.gutenberg.org/cache/epub/8704/pg8704.cover.medium.jpg","application/octet-stream":"https://www.gutenberg.org/cache/epub/8704/pg8704-h.zip"},"download_count":20}]}