{"count":58808,"next":"http://129.241.150.113:8000/books/?languages=en&page=1782","previous":"http://129.241.150.113:8000/books/?languages=en&page=1780","results":[{"id":65345,"title":"Under Three Flags: A Story of Mystery","authors":[{"name":"Taylor, Bert Leston","birth_year":1866,"death_year":1921},{"name":"Thoits, Alvin T.","birth_year":null,"death_year":null}],"translators":[],"subjects":["Detective and mystery stories","Elopement -- Fiction","Men -- Conduct of life -- Fiction","Murder -- Investigation -- Fiction"],"bookshelves":[],"languages":["en"],"copyright":false,"media_type":"Text","formats":{"text/html":"https://www.gutenberg.org/ebooks/65345.html.images","text/html; charset=utf-8":"https://www.gutenberg.org/files/65345/65345-h/65345-h.htm","application/epub+zip":"https://www.gutenberg.org/ebooks/65345.epub3.images","application/x-mobipocket-ebook":"https://www.gutenberg.org/ebooks/65345.kf8.images","text/plain; charset=us-ascii":"https://www.gutenberg.org/ebooks/65345.txt.utf-8","text/plain; charset=utf-8":"https://www.gutenberg.org/files/65345/65345-0.txt","application/rdf+xml":"https://www.gutenberg.org/ebooks/65345.rdf","image/jpeg":"https://www.gutenberg.org/cache/epub/65345/pg65345.cover.medium.jpg","application/octet-stream":"https://www.gutenberg.org/cache/epub/65345/pg65345-h.zip"},"download_count":14},{"id":65437,"title":"Beware, the Usurpers!","authors":[{"name":"Krepps, Robert W.","birth_year":1919,"death_year":1980}],"translators":[],"subjects":["England -- Fiction","Human-alien encounters -- Fiction","Science fiction","Vision -- Fiction"],"bookshelves":[],"languages":["en"],"copyright":false,"media_type":"Text","formats":{"text/html":"https://www.gutenberg.org/ebooks/65437.html.images","text/html; charset=utf-8":"https://www.gutenberg.org/files/65437/65437-h/65437-h.htm","application/epub+zip":"https://www.gutenberg.org/ebooks/65437.epub3.images","application/x-mobipocket-ebook":"https://www.gutenberg.org/ebooks/65437.kf8.images","text/plain; charset=us-ascii":"https://www.gutenberg.org/ebooks/65437.txt.utf-8","text/plain; charset=utf-8":"https://www.gutenberg.org/files/65437/65437-0.txt","application/rdf+xml":"https://www.gutenberg.org/ebooks/65437.rdf","image/jpeg":"https://www.gutenberg.org/cache/epub/65437/pg65437.cover.medium.jpg","application/octet-stream":"https://www.gutenberg.org/cache/epub/65437/pg65437-h.zip"},"download_count":14},{"id":65617,"title":"The Master of Aberfeldie, Volume 3 (of 3)","authors":[{"name":"Grant, James","birth_year":1822,"death_year":1887}],"translators":[],"subjects":["Fiction"],"bookshelves":[],"languages":["en"],"copyright":false,"media_type":"Text","formats":{"text/html":"https://www.gutenberg.org/ebooks/65617.html.images","text/html; charset=utf-8":"https://www.gutenberg.org/files/65617/65617-h/65617-h.htm","application/epub+zip":"https://www.gutenberg.org/ebooks/65617.epub3.images","application/x-mobipocket-ebook":"https://www.gutenberg.org/ebooks/65617.kf8.images","text/plain; charset=us-ascii":"https://www.gutenberg.org/ebooks/65617.txt.utf-8","text/plain; charset=utf-8":"https://www.gutenberg.org/files/65617/65617-0.txt","application/rdf+xml":"https://www.gutenberg.org/ebooks/65617.rdf","image/jpeg":"https://www.gutenberg.org/cache/epub/65617/pg65617.cover.medium.jpg","application/octet-stream":"https://www.gutenberg.org/cache/epub/65617/pg65617-h.zip"},"download_count":14},{"id":65710,"title":"A Synopsis of the British Mosses: Containing Descriptions of All the Genera and Species, (With Localities of the Rarer Ones) Found in Great Britain and Ireland, Based Upon Wilson's \"Bryologia Britannica,\" Schimper's \"Synopsis,\" Etc.","authors":[{"name":"Hobkirk, Charles C. P. (Charles Codrington Pressick)","birth_year":1837,"death_year":1902}],"translators":[],"subjects":["Mosses -- Great Britain"],"bookshelves":[],"languages":["en"],"copyright":false,"media_type":"Text","formats":{"text/html":"https://www.gutenberg.org/ebooks/65710.html.images","text/html; charset=utf-8":"https://www.gutenberg.org/files/65710/65710-h/65710-h.htm","application/epub+zip":"https://www.gutenberg.org/ebooks/65710.epub3.images","application/x-mobipocket-ebook":"https://www.gutenberg.org/ebooks/65710.kf8.images","text/plain; charset=us-ascii":"https://www.gutenberg.org/ebooks/65710.txt.utf-8","text/plain; charset=utf-8":"https://www.gutenberg.org/files/65710/65710-0.txt","application/rdf+xml":"https://www.gutenberg.org/ebooks/65710.rdf","image/jpeg":"https://www.gutenberg.org/cache/epub/65710/pg65710.cover.medium.jpg","application/octet-stream":"https://www.gutenberg.org/cache/epub/65710/pg65710-h.zip"},"download_count":14},{"id":65876,"title":"Theft","authors":[{"name":"Venable, Bill","birth_year":null,"death_year":null}],"translators":[],"subjects":["Authorship -- Fiction","Science fiction","Short stories"],"bookshelves":[],"languages":["en"],"copyright":false,"media_type":"Text","formats":{"text/html":"https://www.gutenberg.org/ebooks/65876.html.images","application/epub+zip":"https://www.gutenberg.org/ebooks/65876.epub3.images","application/x-mobipocket-ebook":"https://www.gutenberg.org/ebooks/65876.kf8.images","text/plain; charset=us-ascii":"https://www.gutenberg.org/ebooks/65876.txt.utf-8","text/plain; charset=utf-8":"https://www.gutenberg.org/files/65876/65876-0.txt","application/rdf+xml":"https://www.gutenberg.org/ebooks/65876.rdf","image/jpeg":"https://www.gutenberg.org/cache/epub/65876/pg65876.cover.medium.jpg","application/octet-stream":"https://www.gutenberg.org/cache/epub/65876/pg65876-h.zip"},"download_count":14},{"id":65970,"title":"Which Shall Live—Men or Animals?","authors":[{"name":"Baynes, Ernest Harold","birth_year":1868,"death_year":1925}],"translators":[],"subjects":["Vivisection"],"bookshelves":[],"languages":["en"],"copyright":false,"media_type":"Text","formats":{"text/html":"https://www.gutenberg.org/ebooks/65970.html.images","application/epub+zip":"https://www.gutenberg.org/ebooks/65970.epub3.images","application/x-mobipocket-ebook":"https://www.gutenberg.org/ebooks/65970.kf8.images","text/plain; charset=us-ascii":"https://www.gutenberg.org/ebooks/65970.txt.utf-8","text/plain; charset=utf-8":"https://www.gutenberg.org/files/65970/65970-0.txt","application/rdf+xml":"https://www.gutenberg.org/ebooks/65970.rdf","image/jpeg":"https://www.gutenberg.org/cache/epub/65970/pg65970.cover.medium.jpg","application/octet-stream":"https://www.gutenberg.org/cache/epub/65970/pg65970-h.zip"},"download_count":14},{"id":66198,"title":"Notes and Queries, Number 200, August 27, 1853: A Medium of Inter-communication for Literary Men, Artists, Antiquaries, Geneologists, etc.","authors":[{"name":"Various","birth_year":null,"death_year":null}],"translators":[],"subjects":["Questions and answers -- Periodicals"],"bookshelves":[],"languages":["en"],"copyright":false,"media_type":"Text","formats":{"text/html":"https://www.gutenberg.org/ebooks/66198.html.images","application/epub+zip":"https://www.gutenberg.org/ebooks/66198.epub3.images","application/x-mobipocket-ebook":"https://www.gutenberg.org/ebooks/66198.kf8.images","text/plain; charset=us-ascii":"https://www.gutenberg.org/ebooks/66198.txt.utf-8","application/octet-stream":"https://www.gutenberg.org/files/66198/66198-page-images.zip","application/rdf+xml":"https://www.gutenberg.org/ebooks/66198.rdf","image/jpeg":"https://www.gutenberg.org/cache/epub/66198/pg66198.cover.medium.jpg"},"download_count":14},{"id":66362,"title":"Gloucestershire Friends: Poems From a German Prison Camp","authors":[{"name":"Harvey, F. W. (Frederick William)","birth_year":1888,"death_year":1957}],"translators":[],"subjects":["Gloucestershire (England) -- Poetry","World War, 1914-1918 -- Poetry"],"bookshelves":[],"languages":["en"],"copyright":false,"media_type":"Text","formats":{"text/html":"https://www.gutenberg.org/ebooks/66362.html.images","application/epub+zip":"https://www.gutenberg.org/ebooks/66362.epub3.images","application/x-mobipocket-ebook":"https://www.gutenberg.org/ebooks/66362.kf8.images","text/plain; charset=us-ascii":"https://www.gutenberg.org/ebooks/66362.txt.utf-8","application/rdf+xml":"https://www.gutenberg.org/ebooks/66362.rdf","image/jpeg":"https://www.gutenberg.org/cache/epub/66362/pg66362.cover.medium.jpg","application/octet-stream":"https://www.gutenberg.org/files/66362/66362-0.zip"},"download_count":14},{"id":66404,"title":"Historic Litchfield: address delivered at the bi-centennial celebration of the town of Litchfield, August 1, 1920","authors":[{"name":"Seymour, M. W. (Morris Woodruff)","birth_year":1842,"death_year":1920}],"translators":[],"subjects":["Litchfield (Conn.) -- History"],"bookshelves":[],"languages":["en"],"copyright":false,"media_type":"Text","formats":{"text/html":"https://www.gutenberg.org/ebooks/66404.html.images","application/epub+zip":"https://www.gutenberg.org/ebooks/66404.epub3.images","application/x-mobipocket-ebook":"https://www.gutenberg.org/ebooks/66404.kf8.images","text/plain; charset=us-ascii":"https://www.gutenberg.org/ebooks/66404.txt.utf-8","application/rdf+xml":"https://www.gutenberg.org/ebooks/66404.rdf","image/jpeg":"https://www.gutenberg.org/cache/epub/66404/pg66404.cover.medium.jpg","application/octet-stream":"https://www.gutenberg.org/files/66404/66404-0.zip"},"download_count":14},{"id":66474,"title":"The Little Review, September 1915 (Vol. 2, No. 6)","authors":[{"name":"Various","birth_year":null,"death_year":null}],"translators":[],"subjects":["Literature, Modern -- 20th century -- Periodicals"],"bookshelves":[],"languages":["en"],"copyright":false,"media_type":"Text","formats":{"text/html":"https://www.gutenberg.org/ebooks/66474.html.images","application/epub+zip":"https://www.gutenberg.org/ebooks/66474.epub3.images","application/x-mobipocket-ebook":"https://www.gutenberg.org/ebooks/66474.kf8.images","text/plain; charset=us-ascii":"https://www.gutenberg.org/ebooks/66474.txt.utf-8","application/rdf+xml":"https://www.gutenberg.org/ebooks/66474.rdf","image/jpeg":"https://www.gutenberg.org/cache/epub/66474/pg66474.cover.medium.jpg","application/octet-stream":"https://www.gutenberg.org/files/66474/66474-0.zip"},"download_count":14},{"id":66582,"title":"Colville of the Guards, Volume 3 (of 3)","authors":[{"name":"Grant, James","birth_year":1822,"death_year":1887}],"translators":[],"subjects":["British -- Afghanistan -- Fiction","Soldiers -- Fiction"],"bookshelves":[],"languages":["en"],"copyright":false,"media_type":"Text","formats":{"text/html":"https://www.gutenberg.org/ebooks/66582.html.images","application/epub+zip":"https://www.gutenberg.org/ebooks/66582.epub3.images","application/x-mobipocket-ebook":"https://www.gutenberg.org/ebooks/66582.kf8.images","text/plain; charset=us-ascii":"https://www.gutenberg.org/ebooks/66582.txt.utf-8","application/rdf+xml":"https://www.gutenberg.org/ebooks/66582.rdf","image/jpeg":"https://www.gutenberg.org/cache/epub/66582/pg66582.cover.medium.jpg","application/octet-stream":"https://www.gutenberg.org/files/66582/66582-0.zip"},"download_count":14},{"id":66711,"title":"The Almond in California","authors":[{"name":"Taylor, R. H. (Ralph Hawley)","birth_year":1884,"death_year":1979}],"translators":[],"subjects":["Almond -- California"],"bookshelves":[],"languages":["en"],"copyright":false,"media_type":"Text","formats":{"text/html":"https://www.gutenberg.org/ebooks/66711.html.images","application/epub+zip":"https://www.gutenberg.org/ebooks/66711.epub3.images","application/x-mobipocket-ebook":"https://www.gutenberg.org/ebooks/66711.kf8.images","text/plain; charset=us-ascii":"https://www.gutenberg.org/ebooks/66711.txt.utf-8","application/rdf+xml":"https://www.gutenberg.org/ebooks/66711.rdf","image/jpeg":"https://www.gutenberg.org/cache/epub/66711/pg66711.cover.medium.jpg","application/octet-stream":"https://www.gutenberg.org/files/66711/66711-0.zip"},"download_count":14},{"id":66806,"title":"The Young Continentals at Trenton","authors":[{"name":"McIntyre, John T. (John Thomas)","birth_year":1871,"death_year":1951}],"translators":[],"subjects":["Historical fiction","New York (N.Y.) -- History -- Juvenile fiction","Soldiers -- Juvenile fiction","United States -- History -- Revolution, 1775-1783 -- Juvenile fiction","War stories"],"bookshelves":[],"languages":["en"],"copyright":false,"media_type":"Text","formats":{"text/html":"https://www.gutenberg.org/ebooks/66806.html.images","application/epub+zip":"https://www.gutenberg.org/ebooks/66806.epub3.images","application/x-mobipocket-ebook":"https://www.gutenberg.org/ebooks/66806.kf8.images","text/plain; charset=us-ascii":"https://www.gutenberg.org/ebooks/66806.txt.utf-8","application/rdf+xml":"https://www.gutenberg.org/ebooks/66806.rdf","image/jpeg":"https://www.gutenberg.org/cache/epub/66806/pg66806.cover.medium.jpg","application/octet-stream":"https://www.gutenberg.org/files/66806/66806-0.zip"},"download_count":14},{"id":66872,"title":"The Beneficent Burglar","authors":[{"name":"Buck, Charles Neville","birth_year":1879,"death_year":1957}],"translators":[],"subjects":["Elopement -- Fiction","United States -- Fiction"],"bookshelves":[],"languages":["en"],"copyright":false,"media_type":"Text","formats":{"text/html":"https://www.gutenberg.org/ebooks/66872.html.images","application/epub+zip":"https://www.gutenberg.org/ebooks/66872.epub3.images","application/x-mobipocket-ebook":"https://www.gutenberg.org/ebooks/66872.kf8.images","text/plain; charset=us-ascii":"https://www.gutenberg.org/ebooks/66872.txt.utf-8","application/rdf+xml":"https://www.gutenberg.org/ebooks/66872.rdf","image/jpeg":"https://www.gutenberg.org/cache/epub/66872/pg66872.cover.medium.jpg","application/octet-stream":"https://www.gutenberg.org/files/66872/66872-0.zip"},"download_count":14},{"id":67164,"title":"The Crime of Henry Vane: A Study with a Moral","authors":[{"name":"Stimson, Frederic Jesup","birth_year":1855,"death_year":1943}],"translators":[],"subjects":["Man-woman relationships -- Fiction","New York (N.Y.) -- Fiction","Single men -- Fiction"],"bookshelves":[],"languages":["en"],"copyright":false,"media_type":"Text","formats":{"text/html":"https://www.gutenberg.org/ebooks/67164.html.images","application/epub+zip":"https://www.gutenberg.org/ebooks/67164.epub3.images","application/x-mobipocket-ebook":"https://www.gutenberg.org/ebooks/67164.kf8.images","text/plain; charset=us-ascii":"https://www.gutenberg.org/ebooks/67164.txt.utf-8","application/rdf+xml":"https://www.gutenberg.org/ebooks/67164.rdf","image/jpeg":"https://www.gutenberg.org/cache/epub/67164/pg67164.cover.medium.jpg","application/octet-stream":"https://www.gutenberg.org/files/67164/67164-0.zip"},"download_count":14},{"id":67337,"title":"The Two Dianas, Volume 1 (of 3)","authors":[{"name":"Meurice, Paul","birth_year":1820,"death_year":1905}],"translators":[],"subjects":["France -- History -- Henry II, 1547-1559 -- Fiction","Montgomery, Gabriel, comte de, 1530-1574 -- Fiction"],"bookshelves":[],"languages":["en"],"copyright":false,"media_type":"Text","formats":{"text/html":"https://www.gutenberg.org/ebooks/67337.html.images","application/epub+zip":"https://www.gutenberg.org/ebooks/67337.epub3.images","application/x-mobipocket-ebook":"https://www.gutenberg.org/ebooks/67337.kf8.images","text/plain; charset=us-ascii":"https://www.gutenberg.org/ebooks/67337.txt.utf-8","application/rdf+xml":"https://www.gutenberg.org/ebooks/67337.rdf","image/jpeg":"https://www.gutenberg.org/cache/epub/67337/pg67337.cover.medium.jpg","application/octet-stream":"https://www.gutenberg.org/files/67337/67337-0.zip"},"download_count":14},{"id":67359,"title":"Comparison of Woods for Butter Boxes","authors":[{"name":"Turnbow, Grover Dean","birth_year":1892,"death_year":1971}],"translators":[],"subjects":["Butter -- Packaging","Butter -- Preservation","Wooden boxes"],"bookshelves":[],"languages":["en"],"copyright":false,"media_type":"Text","formats":{"text/html":"https://www.gutenberg.org/ebooks/67359.html.images","application/epub+zip":"https://www.gutenberg.org/ebooks/67359.epub3.images","application/x-mobipocket-ebook":"https://www.gutenberg.org/ebooks/67359.kf8.images","text/plain; charset=us-ascii":"https://www.gutenberg.org/ebooks/67359.txt.utf-8","application/rdf+xml":"https://www.gutenberg.org/ebooks/67359.rdf","image/jpeg":"https://www.gutenberg.org/cache/epub/67359/pg67359.cover.medium.jpg","application/octet-stream":"https://www.gutenberg.org/files/67359/67359-0.zip"},"download_count":14},{"id":67364,"title":"A Likely Story","authors":[{"name":"Knight, Damon","birth_year":1922,"death_year":2002}],"translators":[],"subjects":["Inventions -- Fiction","Science fiction","Science fiction -- Authorship -- Fiction","Short stories"],"bookshelves":[],"languages":["en"],"copyright":false,"media_type":"Text","formats":{"text/html":"https://www.gutenberg.org/ebooks/67364.html.images","application/epub+zip":"https://www.gutenberg.org/ebooks/67364.epub3.images","application/x-mobipocket-ebook":"https://www.gutenberg.org/ebooks/67364.kf8.images","text/plain; charset=us-ascii":"https://www.gutenberg.org/ebooks/67364.txt.utf-8","application/rdf+xml":"https://www.gutenberg.org/ebooks/67364.rdf","image/jpeg":"https://www.gutenberg.org/cache/epub/67364/pg67364.cover.medium.jpg","application/octet-stream":"https://www.gutenberg.org/files/67364/67364-0.zip"},"download_count":14},{"id":67432,"title":"An Experiment in Altruism","authors":[{"name":"Sherwood, Margaret Pollock","birth_year":1864,"death_year":1955}],"translators":[],"subjects":["Social settlements -- Fiction"],"bookshelves":[],"languages":["en"],"copyright":false,"media_type":"Text","formats":{"text/html":"https://www.gutenberg.org/ebooks/67432.html.images","application/epub+zip":"https://www.gutenberg.org/ebooks/67432.epub3.images","application/x-mobipocket-ebook":"https://www.gutenberg.org/ebooks/67432.kf8.images","text/plain; charset=us-ascii":"https://www.gutenberg.org/ebooks/67432.txt.utf-8","application/rdf+xml":"https://www.gutenberg.org/ebooks/67432.rdf","image/jpeg":"https://www.gutenberg.org/cache/epub/67432/pg67432.cover.medium.jpg","application/octet-stream":"https://www.gutenberg.org/files/67432/67432-0.zip"},"download_count":14},{"id":67549,"title":"Perfection City","authors":[{"name":"Orpen, Adela E. (Adela Elizabeth Richards)","birth_year":1855,"death_year":1927}],"translators":[],"subjects":["Communal living -- Fiction","Kansas -- Fiction","Utopias -- Fiction"],"bookshelves":[],"languages":["en"],"copyright":false,"media_type":"Text","formats":{"text/html":"https://www.gutenberg.org/ebooks/67549.html.images","application/epub+zip":"https://www.gutenberg.org/ebooks/67549.epub3.images","application/x-mobipocket-ebook":"https://www.gutenberg.org/ebooks/67549.kf8.images","text/plain; charset=us-ascii":"https://www.gutenberg.org/ebooks/67549.txt.utf-8","application/rdf+xml":"https://www.gutenberg.org/ebooks/67549.rdf","image/jpeg":"https://www.gutenberg.org/cache/epub/67549/pg67549.cover.medium.jpg","application/octet-stream":"https://www.gutenberg.org/files/67549/67549-0.zip"},"download_count":14},{"id":67601,"title":"Cousin Lucy at Study: By the Author of the Rollo Books","authors":[{"name":"Abbott, Jacob","birth_year":1803,"death_year":1879}],"translators":[],"subjects":["Children with disabilities -- Juvenile fiction","Country life -- Juvenile fiction","Families -- Juvenile fiction","Money -- Juvenile fiction","Parent and child -- Juvenile fiction","Siblings -- Juvenile fiction"],"bookshelves":[],"languages":["en"],"copyright":false,"media_type":"Text","formats":{"text/html":"https://www.gutenberg.org/ebooks/67601.html.images","application/epub+zip":"https://www.gutenberg.org/ebooks/67601.epub3.images","application/x-mobipocket-ebook":"https://www.gutenberg.org/ebooks/67601.kf8.images","text/plain; charset=us-ascii":"https://www.gutenberg.org/ebooks/67601.txt.utf-8","application/rdf+xml":"https://www.gutenberg.org/ebooks/67601.rdf","image/jpeg":"https://www.gutenberg.org/cache/epub/67601/pg67601.cover.medium.jpg","application/octet-stream":"https://www.gutenberg.org/files/67601/67601-0.zip"},"download_count":14},{"id":67695,"title":"Buds and Blossoms; or, Stories for Real Children","authors":[{"name":"Lady, active 19th century","birth_year":null,"death_year":null}],"translators":[],"subjects":["Children's stories"],"bookshelves":[],"languages":["en"],"copyright":false,"media_type":"Text","formats":{"text/html":"https://www.gutenberg.org/ebooks/67695.html.images","application/epub+zip":"https://www.gutenberg.org/ebooks/67695.epub3.images","application/x-mobipocket-ebook":"https://www.gutenberg.org/ebooks/67695.kf8.images","text/plain; charset=us-ascii":"https://www.gutenberg.org/ebooks/67695.txt.utf-8","application/rdf+xml":"https://www.gutenberg.org/ebooks/67695.rdf","image/jpeg":"https://www.gutenberg.org/cache/epub/67695/pg67695.cover.medium.jpg","application/octet-stream":"https://www.gutenberg.org/files/67695/67695-0.zip"},"download_count":14},{"id":67731,"title":"A Courier of Fortune","authors":[{"name":"Marchmont, Arthur W.","birth_year":1852,"death_year":1923}],"translators":[],"subjects":["Adventure stories","France -- History -- Fiction"],"bookshelves":[],"languages":["en"],"copyright":false,"media_type":"Text","formats":{"text/html":"https://www.gutenberg.org/ebooks/67731.html.images","application/epub+zip":"https://www.gutenberg.org/ebooks/67731.epub3.images","application/x-mobipocket-ebook":"https://www.gutenberg.org/ebooks/67731.kf8.images","text/plain; charset=us-ascii":"https://www.gutenberg.org/ebooks/67731.txt.utf-8","application/rdf+xml":"https://www.gutenberg.org/ebooks/67731.rdf","image/jpeg":"https://www.gutenberg.org/cache/epub/67731/pg67731.cover.medium.jpg","application/octet-stream":"https://www.gutenberg.org/files/67731/67731-0.zip"},"download_count":14},{"id":67801,"title":"In the Name of the People","authors":[{"name":"Marchmont, Arthur W.","birth_year":1852,"death_year":1923}],"translators":[],"subjects":["Adventure stories","British -- Portugal -- Fiction","Lisbon (Portugal) -- Fiction","Love stories"],"bookshelves":[],"languages":["en"],"copyright":false,"media_type":"Text","formats":{"text/html":"https://www.gutenberg.org/ebooks/67801.html.images","application/epub+zip":"https://www.gutenberg.org/ebooks/67801.epub3.images","application/x-mobipocket-ebook":"https://www.gutenberg.org/ebooks/67801.kf8.images","text/plain; charset=us-ascii":"https://www.gutenberg.org/ebooks/67801.txt.utf-8","application/rdf+xml":"https://www.gutenberg.org/ebooks/67801.rdf","image/jpeg":"https://www.gutenberg.org/cache/epub/67801/pg67801.cover.medium.jpg","application/octet-stream":"https://www.gutenberg.org/files/67801/67801-0.zip"},"download_count":14},{"id":67810,"title":"Friends on the Shelf","authors":[{"name":"Torrey, Bradford","birth_year":1843,"death_year":1912}],"translators":[],"subjects":["FitzGerald, Edward, 1809-1883","France, Anatole, 1844-1924","Hazlitt, William, 1778-1830","Keats, John, 1795-1821","Literature, Modern -- 19th century -- History and criticism","Readability (Literary style)","Stevenson, Robert Louis, 1850-1894","Thoreau, Henry David, 1817-1862"],"bookshelves":[],"languages":["en"],"copyright":false,"media_type":"Text","formats":{"text/html":"https://www.gutenberg.org/ebooks/67810.html.images","application/epub+zip":"https://www.gutenberg.org/ebooks/67810.epub3.images","application/x-mobipocket-ebook":"https://www.gutenberg.org/ebooks/67810.kf8.images","text/plain; charset=us-ascii":"https://www.gutenberg.org/ebooks/67810.txt.utf-8","application/rdf+xml":"https://www.gutenberg.org/ebooks/67810.rdf","image/jpeg":"https://www.gutenberg.org/cache/epub/67810/pg67810.cover.medium.jpg","application/octet-stream":"https://www.gutenberg.org/files/67810/67810-0.zip"},"download_count":14},{"id":67869,"title":"Love conquers pride; or, Where peace dwelt","authors":[{"name":"Miller, Alex. McVeigh, Mrs.","birth_year":1850,"death_year":1937}],"translators":[],"subjects":["Fiction"],"bookshelves":[],"languages":["en"],"copyright":false,"media_type":"Text","formats":{"text/html":"https://www.gutenberg.org/ebooks/67869.html.images","application/epub+zip":"https://www.gutenberg.org/ebooks/67869.epub3.images","application/x-mobipocket-ebook":"https://www.gutenberg.org/ebooks/67869.kf8.images","text/plain; charset=us-ascii":"https://www.gutenberg.org/ebooks/67869.txt.utf-8","application/rdf+xml":"https://www.gutenberg.org/ebooks/67869.rdf","image/jpeg":"https://www.gutenberg.org/cache/epub/67869/pg67869.cover.medium.jpg","application/octet-stream":"https://www.gutenberg.org/files/67869/67869-0.zip"},"download_count":14},{"id":67880,"title":"With Perry on Lake Erie : $b a tale of 1812","authors":[{"name":"Otis, James","birth_year":1848,"death_year":1912}],"translators":[],"subjects":["United States -- History -- War of 1812 -- Juvenile fiction"],"bookshelves":[],"languages":["en"],"copyright":false,"media_type":"Text","formats":{"text/html":"https://www.gutenberg.org/ebooks/67880.html.images","application/epub+zip":"https://www.gutenberg.org/ebooks/67880.epub3.images","application/x-mobipocket-ebook":"https://www.gutenberg.org/ebooks/67880.kf8.images","text/plain; charset=us-ascii":"https://www.gutenberg.org/ebooks/67880.txt.utf-8","application/rdf+xml":"https://www.gutenberg.org/ebooks/67880.rdf","image/jpeg":"https://www.gutenberg.org/cache/epub/67880/pg67880.cover.medium.jpg","application/octet-stream":"https://www.gutenberg.org/files/67880/67880-0.zip"},"download_count":14},{"id":67898,"title":"The Bungalow Boys on the Great Lakes","authors":[{"name":"Goldfrap, John Henry","birth_year":1879,"death_year":1917}],"translators":[],"subjects":["Great Lakes Region (North America) -- Juvenile fiction"],"bookshelves":[],"languages":["en"],"copyright":false,"media_type":"Text","formats":{"text/html":"https://www.gutenberg.org/ebooks/67898.html.images","application/epub+zip":"https://www.gutenberg.org/ebooks/67898.epub3.images","application/x-mobipocket-ebook":"https://www.gutenberg.org/ebooks/67898.kf8.images","text/plain; charset=us-ascii":"https://www.gutenberg.org/ebooks/67898.txt.utf-8","application/rdf+xml":"https://www.gutenberg.org/ebooks/67898.rdf","image/jpeg":"https://www.gutenberg.org/cache/epub/67898/pg67898.cover.medium.jpg","application/octet-stream":"https://www.gutenberg.org/files/67898/67898-0.zip"},"download_count":14},{"id":67946,"title":"Trotwood's Monthly, Vol. I, No. 2, November 1905","authors":[{"name":"Various","birth_year":null,"death_year":null}],"translators":[],"subjects":["Agriculture -- Southern States -- Periodicals","Horses -- Periodicals","Southern States -- Periodicals"],"bookshelves":[],"languages":["en"],"copyright":false,"media_type":"Text","formats":{"text/html":"https://www.gutenberg.org/ebooks/67946.html.images","application/epub+zip":"https://www.gutenberg.org/ebooks/67946.epub3.images","application/x-mobipocket-ebook":"https://www.gutenberg.org/ebooks/67946.kf8.images","text/plain; charset=us-ascii":"https://www.gutenberg.org/ebooks/67946.txt.utf-8","application/rdf+xml":"https://www.gutenberg.org/ebooks/67946.rdf","image/jpeg":"https://www.gutenberg.org/cache/epub/67946/pg67946.cover.medium.jpg","application/octet-stream":"https://www.gutenberg.org/files/67946/67946-0.zip"},"download_count":14},{"id":67962,"title":"Graham's Magazine, Vol. XXI, No. 1, July 1842","authors":[{"name":"Various","birth_year":null,"death_year":null}],"translators":[],"subjects":["Literature -- Periodicals","Literature, Modern -- 19th century -- Periodicals"],"bookshelves":[],"languages":["en"],"copyright":false,"media_type":"Text","formats":{"text/html":"https://www.gutenberg.org/ebooks/67962.html.images","application/epub+zip":"https://www.gutenberg.org/ebooks/67962.epub3.images","application/x-mobipocket-ebook":"https://www.gutenberg.org/ebooks/67962.kf8.images","text/plain; charset=us-ascii":"https://www.gutenberg.org/ebooks/67962.txt.utf-8","application/rdf+xml":"https://www.gutenberg.org/ebooks/67962.rdf","image/jpeg":"https://www.gutenberg.org/cache/epub/67962/pg67962.cover.medium.jpg","application/octet-stream":"https://www.gutenberg.org/files/67962/67962-0.zip"},"download_count":14},{"id":67983,"title":"Graham's Magazine, Vol. XXI, No. 3, September 1842","authors":[{"name":"Various","birth_year":null,"death_year":null}],"translators":[],"subjects":["Literature -- Periodicals","Literature, Modern -- 19th century -- Periodicals"],"bookshelves":[],"languages":["en"],"copyright":false,"media_type":"Text","formats":{"text/html":"https://www.gutenberg.org/ebooks/67983.html.images","application/epub+zip":"https://www.gutenberg.org/ebooks/67983.epub3.images","application/x-mobipocket-ebook":"https://www.gutenberg.org/ebooks/67983.kf8.images","text/plain; charset=us-ascii":"https://www.gutenberg.org/ebooks/67983.txt.utf-8","application/rdf+xml":"https://www.gutenberg.org/ebooks/67983.rdf","image/jpeg":"https://www.gutenberg.org/cache/epub/67983/pg67983.cover.medium.jpg","application/octet-stream":"https://www.gutenberg.org/files/67983/67983-0.zip"},"download_count":14},{"id":68014,"title":"Graham's Magazine, Vol. XXI, No. 5, November 1842","authors":[{"name":"Various","birth_year":null,"death_year":null}],"translators":[],"subjects":["Literature -- Periodicals","Literature, Modern -- 19th century -- Periodicals"],"bookshelves":[],"languages":["en"],"copyright":false,"media_type":"Text","formats":{"text/html":"https://www.gutenberg.org/ebooks/68014.html.images","application/epub+zip":"https://www.gutenberg.org/ebooks/68014.epub3.images","application/x-mobipocket-ebook":"https://www.gutenberg.org/ebooks/68014.kf8.images","text/plain; charset=us-ascii":"https://www.gutenberg.org/ebooks/68014.txt.utf-8","application/rdf+xml":"https://www.gutenberg.org/ebooks/68014.rdf","image/jpeg":"https://www.gutenberg.org/cache/epub/68014/pg68014.cover.medium.jpg","application/octet-stream":"https://www.gutenberg.org/files/68014/68014-0.zip"},"download_count":14}]}