{"count":58808,"next":"http://129.241.150.113:8000/books/?languages=en&page=1461","previous":"http://129.241.150.113:8000/books/?languages=en&page=1459","results":[{"id":69368,"title":"The motion picture comrades aboard a submarine: or, Searching for treasure under the sea","authors":[{"name":"Barnes, Elmer Tracey","birth_year":null,"death_year":null}],"translators":[],"subjects":["Motion pictures -- Production and direction -- Juvenile fiction","Submarines (Ships) -- Juvenile fiction"],"bookshelves":[],"languages":["en"],"copyright":false,"media_type":"Text","formats":{"text/html":"https://www.gutenberg.org/ebooks/69368.html.images","application/epub+zip":"https://www.gutenberg.org/ebooks/69368.epub3.images","application/x-mobipocket-ebook":"https://www.gutenberg.org/ebooks/69368.kf8.images","text/plain; charset=us-ascii":"https://www.gutenberg.org/ebooks/69368.txt.utf-8","application/rdf+xml":"https://www.gutenberg.org/ebooks/69368.rdf","image/jpeg":"https://www.gutenberg.org/cache/epub/69368/pg69368.cover.medium.jpg","application/octet-stream":"https://www.gutenberg.org/files/69368/69368-0.zip"},"download_count":25},{"id":69382,"title":"Quaker idyls","authors":[{"name":"Gardner, Sarah M. H.","birth_year":null,"death_year":null}],"translators":[],"subjects":["Quakers -- Fiction","United States -- Social life and customs -- 19th century -- Fiction"],"bookshelves":[],"languages":["en"],"copyright":false,"media_type":"Text","formats":{"text/html":"https://www.gutenberg.org/ebooks/69382.html.images","application/epub+zip":"https://www.gutenberg.org/ebooks/69382.epub3.images","application/x-mobipocket-ebook":"https://www.gutenberg.org/ebooks/69382.kf8.images","text/plain; charset=us-ascii":"https://www.gutenberg.org/ebooks/69382.txt.utf-8","application/rdf+xml":"https://www.gutenberg.org/ebooks/69382.rdf","image/jpeg":"https://www.gutenberg.org/cache/epub/69382/pg69382.cover.medium.jpg","application/octet-stream":"https://www.gutenberg.org/files/69382/69382-0.zip"},"download_count":25},{"id":69409,"title":"Straight America, a call to national service","authors":[{"name":"Kellor, Frances","birth_year":1873,"death_year":1952}],"translators":[],"subjects":["National service -- United States","United States -- Defenses"],"bookshelves":[],"languages":["en"],"copyright":false,"media_type":"Text","formats":{"text/html":"https://www.gutenberg.org/ebooks/69409.html.images","application/epub+zip":"https://www.gutenberg.org/ebooks/69409.epub3.images","application/x-mobipocket-ebook":"https://www.gutenberg.org/ebooks/69409.kf8.images","text/plain; charset=us-ascii":"https://www.gutenberg.org/ebooks/69409.txt.utf-8","application/rdf+xml":"https://www.gutenberg.org/ebooks/69409.rdf","image/jpeg":"https://www.gutenberg.org/cache/epub/69409/pg69409.cover.medium.jpg","application/octet-stream":"https://www.gutenberg.org/files/69409/69409-0.zip"},"download_count":25},{"id":69426,"title":"History of a literary radical, and other essays","authors":[{"name":"Bourne, Randolph Silliman","birth_year":1886,"death_year":1918}],"translators":[],"subjects":["American essays -- 20th century"],"bookshelves":[],"languages":["en"],"copyright":false,"media_type":"Text","formats":{"text/html":"https://www.gutenberg.org/ebooks/69426.html.images","application/epub+zip":"https://www.gutenberg.org/ebooks/69426.epub3.images","application/x-mobipocket-ebook":"https://www.gutenberg.org/ebooks/69426.kf8.images","text/plain; charset=us-ascii":"https://www.gutenberg.org/ebooks/69426.txt.utf-8","application/rdf+xml":"https://www.gutenberg.org/ebooks/69426.rdf","image/jpeg":"https://www.gutenberg.org/cache/epub/69426/pg69426.cover.medium.jpg","application/octet-stream":"https://www.gutenberg.org/files/69426/69426-0.zip"},"download_count":25},{"id":69440,"title":"Letters to a daughter","authors":[{"name":"Bland, Hubert","birth_year":1856,"death_year":1914}],"translators":[],"subjects":["Bland, Hubert, 1856-1914. Correspondence","Fathers and daughters","Young women -- Conduct of life"],"bookshelves":[],"languages":["en"],"copyright":false,"media_type":"Text","formats":{"text/html":"https://www.gutenberg.org/ebooks/69440.html.images","application/epub+zip":"https://www.gutenberg.org/ebooks/69440.epub3.images","application/x-mobipocket-ebook":"https://www.gutenberg.org/ebooks/69440.kf8.images","text/plain; charset=us-ascii":"https://www.gutenberg.org/ebooks/69440.txt.utf-8","application/rdf+xml":"https://www.gutenberg.org/ebooks/69440.rdf","image/jpeg":"https://www.gutenberg.org/cache/epub/69440/pg69440.cover.medium.jpg","application/octet-stream":"https://www.gutenberg.org/files/69440/69440-0.zip"},"download_count":25},{"id":69499,"title":"Anne Hyde, Duchess of York","authors":[{"name":"Henslowe, J. R.","birth_year":null,"death_year":null}],"translators":[],"subjects":["Great Britain -- Court and courtiers -- History -- 17th century","Nobility -- Great Britain -- Biography","York, Anne Hyde, Duchess of, 1637-1671"],"bookshelves":[],"languages":["en"],"copyright":false,"media_type":"Text","formats":{"text/html":"https://www.gutenberg.org/ebooks/69499.html.images","application/epub+zip":"https://www.gutenberg.org/ebooks/69499.epub3.images","application/x-mobipocket-ebook":"https://www.gutenberg.org/ebooks/69499.kf8.images","text/plain; charset=us-ascii":"https://www.gutenberg.org/ebooks/69499.txt.utf-8","application/rdf+xml":"https://www.gutenberg.org/ebooks/69499.rdf","image/jpeg":"https://www.gutenberg.org/cache/epub/69499/pg69499.cover.medium.jpg","application/octet-stream":"https://www.gutenberg.org/files/69499/69499-0.zip"},"download_count":25},{"id":69537,"title":"The holy war \"made in Germany\"","authors":[{"name":"Snouck Hurgronje, C. (Christiaan)","birth_year":1857,"death_year":1936}],"translators":[{"name":"Gillet, Joseph E. (Joseph Eugene)","birth_year":1888,"death_year":1958}],"subjects":["Eastern question","Germany -- Foreign relations -- Turkey","Jihad","Panislamism","Turkey -- Foreign relations -- Germany"],"bookshelves":[],"languages":["en"],"copyright":false,"media_type":"Text","formats":{"text/html":"https://www.gutenberg.org/ebooks/69537.html.images","application/epub+zip":"https://www.gutenberg.org/ebooks/69537.epub3.images","application/x-mobipocket-ebook":"https://www.gutenberg.org/ebooks/69537.kf8.images","text/plain; charset=us-ascii":"https://www.gutenberg.org/ebooks/69537.txt.utf-8","application/rdf+xml":"https://www.gutenberg.org/ebooks/69537.rdf","image/jpeg":"https://www.gutenberg.org/cache/epub/69537/pg69537.cover.medium.jpg","application/octet-stream":"https://www.gutenberg.org/files/69537/69537-0.zip"},"download_count":25},{"id":69655,"title":"Gay Lawless","authors":[{"name":"Mathers, Helen","birth_year":1853,"death_year":1920},{"name":"Reeves, Phil","birth_year":null,"death_year":null}],"translators":[],"subjects":["Harness racing -- Fiction","Horse racing -- Fiction","Mate selection -- Fiction","Young women -- Fiction"],"bookshelves":[],"languages":["en"],"copyright":false,"media_type":"Text","formats":{"text/html":"https://www.gutenberg.org/ebooks/69655.html.images","application/epub+zip":"https://www.gutenberg.org/ebooks/69655.epub3.images","application/x-mobipocket-ebook":"https://www.gutenberg.org/ebooks/69655.kf8.images","text/plain; charset=us-ascii":"https://www.gutenberg.org/ebooks/69655.txt.utf-8","application/rdf+xml":"https://www.gutenberg.org/ebooks/69655.rdf","image/jpeg":"https://www.gutenberg.org/cache/epub/69655/pg69655.cover.medium.jpg","application/octet-stream":"https://www.gutenberg.org/files/69655/69655-0.zip"},"download_count":25},{"id":69685,"title":"Just sweethearts: A Christmas love story","authors":[{"name":"Edwards, Harry Stillwell","birth_year":1855,"death_year":1938}],"translators":[],"subjects":["Christmas stories","Love stories"],"bookshelves":[],"languages":["en"],"copyright":false,"media_type":"Text","formats":{"text/html":"https://www.gutenberg.org/ebooks/69685.html.images","application/epub+zip":"https://www.gutenberg.org/ebooks/69685.epub3.images","application/x-mobipocket-ebook":"https://www.gutenberg.org/ebooks/69685.kf8.images","text/plain; charset=us-ascii":"https://www.gutenberg.org/ebooks/69685.txt.utf-8","application/rdf+xml":"https://www.gutenberg.org/ebooks/69685.rdf","image/jpeg":"https://www.gutenberg.org/cache/epub/69685/pg69685.cover.medium.jpg","application/octet-stream":"https://www.gutenberg.org/files/69685/69685-0.zip"},"download_count":25},{"id":69715,"title":"The scarlet car; The Princess Aline","authors":[{"name":"Davis, Richard Harding","birth_year":1864,"death_year":1916}],"translators":[],"subjects":["Automobile driving -- Fiction","Automobiles -- Fiction","Humorous stories","Love stories","Man-woman relationships -- Fiction","Princesses -- Fiction"],"bookshelves":[],"languages":["en"],"copyright":false,"media_type":"Text","formats":{"text/html":"https://www.gutenberg.org/ebooks/69715.html.images","application/epub+zip":"https://www.gutenberg.org/ebooks/69715.epub3.images","application/x-mobipocket-ebook":"https://www.gutenberg.org/ebooks/69715.kf8.images","text/plain; charset=us-ascii":"https://www.gutenberg.org/ebooks/69715.txt.utf-8","application/rdf+xml":"https://www.gutenberg.org/ebooks/69715.rdf","image/jpeg":"https://www.gutenberg.org/cache/epub/69715/pg69715.cover.medium.jpg","application/octet-stream":"https://www.gutenberg.org/files/69715/69715-0.zip"},"download_count":25},{"id":69745,"title":"The Grip cartoons: vols. I & II, May 1873 to May 1874","authors":[{"name":"Bengough, J. W. (John Wilson)","birth_year":1851,"death_year":1923}],"translators":[],"subjects":["Canada -- Politics and government -- 1867-1914 -- Caricatures and cartoons","Canadian wit and humor, Pictorial"],"bookshelves":[],"languages":["en"],"copyright":false,"media_type":"Text","formats":{"text/html":"https://www.gutenberg.org/ebooks/69745.html.images","application/epub+zip":"https://www.gutenberg.org/ebooks/69745.epub3.images","application/x-mobipocket-ebook":"https://www.gutenberg.org/ebooks/69745.kf8.images","text/plain; charset=us-ascii":"https://www.gutenberg.org/ebooks/69745.txt.utf-8","application/rdf+xml":"https://www.gutenberg.org/ebooks/69745.rdf","image/jpeg":"https://www.gutenberg.org/cache/epub/69745/pg69745.cover.medium.jpg","application/octet-stream":"https://www.gutenberg.org/files/69745/69745-0.zip"},"download_count":25},{"id":69820,"title":"Climate—Incorporated","authors":[{"name":"Smith, George O. (George Oliver)","birth_year":1911,"death_year":1981}],"translators":[],"subjects":["Inventions -- Fiction","Man-woman relationships -- Fiction","Minnesota -- Fiction","Political fiction","Science fiction"],"bookshelves":[],"languages":["en"],"copyright":false,"media_type":"Text","formats":{"text/html":"https://www.gutenberg.org/ebooks/69820.html.images","application/epub+zip":"https://www.gutenberg.org/ebooks/69820.epub3.images","application/x-mobipocket-ebook":"https://www.gutenberg.org/ebooks/69820.kf8.images","text/plain; charset=us-ascii":"https://www.gutenberg.org/ebooks/69820.txt.utf-8","application/rdf+xml":"https://www.gutenberg.org/ebooks/69820.rdf","image/jpeg":"https://www.gutenberg.org/cache/epub/69820/pg69820.cover.medium.jpg","application/octet-stream":"https://www.gutenberg.org/files/69820/69820-0.zip"},"download_count":25},{"id":69896,"title":"The book of the child: An attempt to set down what is in the mind of children","authors":[{"name":"How, F. D. (Frederick Douglas)","birth_year":1853,"death_year":1936}],"translators":[],"subjects":["Child psychology"],"bookshelves":[],"languages":["en"],"copyright":false,"media_type":"Text","formats":{"text/html":"https://www.gutenberg.org/ebooks/69896.html.images","application/epub+zip":"https://www.gutenberg.org/ebooks/69896.epub3.images","application/x-mobipocket-ebook":"https://www.gutenberg.org/ebooks/69896.kf8.images","text/plain; charset=us-ascii":"https://www.gutenberg.org/ebooks/69896.txt.utf-8","application/rdf+xml":"https://www.gutenberg.org/ebooks/69896.rdf","image/jpeg":"https://www.gutenberg.org/cache/epub/69896/pg69896.cover.medium.jpg","application/octet-stream":"https://www.gutenberg.org/files/69896/69896-0.zip"},"download_count":25},{"id":70029,"title":"Biography and bibliography of Jesse Walter Fewkes","authors":[],"translators":[],"subjects":["Fewkes, Jesse Walter, 1850-1930 -- Bibliography"],"bookshelves":[],"languages":["en"],"copyright":false,"media_type":"Text","formats":{"text/html":"https://www.gutenberg.org/ebooks/70029.html.images","application/epub+zip":"https://www.gutenberg.org/ebooks/70029.epub3.images","application/x-mobipocket-ebook":"https://www.gutenberg.org/ebooks/70029.kf8.images","text/plain; charset=us-ascii":"https://www.gutenberg.org/ebooks/70029.txt.utf-8","application/rdf+xml":"https://www.gutenberg.org/ebooks/70029.rdf","image/jpeg":"https://www.gutenberg.org/cache/epub/70029/pg70029.cover.medium.jpg","application/octet-stream":"https://www.gutenberg.org/files/70029/70029-0.zip"},"download_count":25},{"id":70157,"title":"The Vinegar Saint","authors":[{"name":"Mearns, Hughes","birth_year":1875,"death_year":1965}],"translators":[],"subjects":["Man-woman relationships -- Fiction"],"bookshelves":[],"languages":["en"],"copyright":false,"media_type":"Text","formats":{"text/html":"https://www.gutenberg.org/ebooks/70157.html.images","application/epub+zip":"https://www.gutenberg.org/ebooks/70157.epub3.images","application/x-mobipocket-ebook":"https://www.gutenberg.org/ebooks/70157.kf8.images","text/plain; charset=us-ascii":"https://www.gutenberg.org/ebooks/70157.txt.utf-8","application/rdf+xml":"https://www.gutenberg.org/ebooks/70157.rdf","image/jpeg":"https://www.gutenberg.org/cache/epub/70157/pg70157.cover.medium.jpg","application/octet-stream":"https://www.gutenberg.org/files/70157/70157-0.zip"},"download_count":25},{"id":70237,"title":"The unlit lamp : $b A study in inter-actions","authors":[{"name":"Holding, Elisabeth Sanxay","birth_year":1889,"death_year":1955}],"translators":[],"subjects":["Domestic fiction","Man-woman relationships -- Fiction","Marriage -- Fiction","Mothers-in-law -- Fiction","Women -- Conduct of life -- Fiction"],"bookshelves":[],"languages":["en"],"copyright":false,"media_type":"Text","formats":{"text/html":"https://www.gutenberg.org/ebooks/70237.html.images","application/epub+zip":"https://www.gutenberg.org/ebooks/70237.epub3.images","application/x-mobipocket-ebook":"https://www.gutenberg.org/ebooks/70237.kf8.images","text/plain; charset=us-ascii":"https://www.gutenberg.org/ebooks/70237.txt.utf-8","application/rdf+xml":"https://www.gutenberg.org/ebooks/70237.rdf","image/jpeg":"https://www.gutenberg.org/cache/epub/70237/pg70237.cover.medium.jpg","application/octet-stream":"https://www.gutenberg.org/files/70237/70237-0.zip"},"download_count":25},{"id":70257,"title":"Mr. Zytztz goes to Mars","authors":[{"name":"Loomis, Noel M.","birth_year":1905,"death_year":1969}],"translators":[],"subjects":["Human-alien encounters -- Fiction","Lost continents -- Fiction","Martians -- Fiction","Science fiction","Space flight to Mars -- Fiction","Space travelers -- Fiction"],"bookshelves":[],"languages":["en"],"copyright":false,"media_type":"Text","formats":{"text/html":"https://www.gutenberg.org/ebooks/70257.html.images","application/epub+zip":"https://www.gutenberg.org/ebooks/70257.epub3.images","application/x-mobipocket-ebook":"https://www.gutenberg.org/ebooks/70257.kf8.images","text/plain; charset=us-ascii":"https://www.gutenberg.org/ebooks/70257.txt.utf-8","application/rdf+xml":"https://www.gutenberg.org/ebooks/70257.rdf","image/jpeg":"https://www.gutenberg.org/cache/epub/70257/pg70257.cover.medium.jpg","application/octet-stream":"https://www.gutenberg.org/files/70257/70257-0.zip"},"download_count":25},{"id":70264,"title":"Women as army surgeons : $b Being the history of the Women's Hospital Corps in Paris, Wimereux and Endell Street, September 1914-October 1919","authors":[{"name":"Murray, Flora","birth_year":1869,"death_year":1923}],"translators":[],"subjects":["Women in medicine -- History","Women surgeons -- Great Britain -- 20th century","Women's Hospital Corps -- History","World War, 1914-1918 -- Medical care -- Women -- History"],"bookshelves":[],"languages":["en"],"copyright":false,"media_type":"Text","formats":{"text/html":"https://www.gutenberg.org/ebooks/70264.html.images","application/epub+zip":"https://www.gutenberg.org/ebooks/70264.epub3.images","application/x-mobipocket-ebook":"https://www.gutenberg.org/ebooks/70264.kf8.images","text/plain; charset=us-ascii":"https://www.gutenberg.org/ebooks/70264.txt.utf-8","application/rdf+xml":"https://www.gutenberg.org/ebooks/70264.rdf","image/jpeg":"https://www.gutenberg.org/cache/epub/70264/pg70264.cover.medium.jpg","application/octet-stream":"https://www.gutenberg.org/files/70264/70264-0.zip"},"download_count":25},{"id":70291,"title":"X-mas sketches from the Dartmouth Literary Monthly","authors":[],"translators":[],"subjects":["Christmas stories","College students' writings, American -- New Hampshire -- Hanover"],"bookshelves":[],"languages":["en"],"copyright":false,"media_type":"Text","formats":{"text/html":"https://www.gutenberg.org/ebooks/70291.html.images","application/epub+zip":"https://www.gutenberg.org/ebooks/70291.epub3.images","application/x-mobipocket-ebook":"https://www.gutenberg.org/ebooks/70291.kf8.images","text/plain; charset=us-ascii":"https://www.gutenberg.org/ebooks/70291.txt.utf-8","application/rdf+xml":"https://www.gutenberg.org/ebooks/70291.rdf","image/jpeg":"https://www.gutenberg.org/cache/epub/70291/pg70291.cover.medium.jpg","application/octet-stream":"https://www.gutenberg.org/files/70291/70291-0.zip"},"download_count":25},{"id":70387,"title":"Parking, unlimited","authors":[{"name":"Loomis, Noel M.","birth_year":1905,"death_year":1969}],"translators":[],"subjects":["Inventions -- Fiction","Parking garages -- Fiction","Science fiction","Short stories"],"bookshelves":[],"languages":["en"],"copyright":false,"media_type":"Text","formats":{"text/html":"https://www.gutenberg.org/ebooks/70387.html.images","application/epub+zip":"https://www.gutenberg.org/ebooks/70387.epub3.images","application/x-mobipocket-ebook":"https://www.gutenberg.org/ebooks/70387.kf8.images","text/plain; charset=us-ascii":"https://www.gutenberg.org/ebooks/70387.txt.utf-8","application/rdf+xml":"https://www.gutenberg.org/ebooks/70387.rdf","image/jpeg":"https://www.gutenberg.org/cache/epub/70387/pg70387.cover.medium.jpg","application/octet-stream":"https://www.gutenberg.org/files/70387/70387-0.zip"},"download_count":25},{"id":70401,"title":"By-paths in Hebraic bookland","authors":[{"name":"Abrahams, Israel","birth_year":1858,"death_year":1925}],"translators":[],"subjects":["Hebrew literature -- History and criticism","Jewish literature -- History and criticism","Jews in literature"],"bookshelves":[],"languages":["en"],"copyright":false,"media_type":"Text","formats":{"text/html":"https://www.gutenberg.org/ebooks/70401.html.images","application/epub+zip":"https://www.gutenberg.org/ebooks/70401.epub3.images","application/x-mobipocket-ebook":"https://www.gutenberg.org/ebooks/70401.kf8.images","text/plain; charset=us-ascii":"https://www.gutenberg.org/ebooks/70401.txt.utf-8","application/rdf+xml":"https://www.gutenberg.org/ebooks/70401.rdf","image/jpeg":"https://www.gutenberg.org/cache/epub/70401/pg70401.cover.medium.jpg","application/octet-stream":"https://www.gutenberg.org/files/70401/70401-0.zip"},"download_count":25},{"id":70403,"title":"The miniature menace","authors":[{"name":"Long, Frank Belknap","birth_year":1903,"death_year":1994}],"translators":[],"subjects":["Human-alien encounters -- Fiction","Psychic ability -- Fiction","Science fiction","Spouses -- Fiction"],"bookshelves":[],"languages":["en"],"copyright":false,"media_type":"Text","formats":{"text/html":"https://www.gutenberg.org/ebooks/70403.html.images","application/epub+zip":"https://www.gutenberg.org/ebooks/70403.epub3.images","application/x-mobipocket-ebook":"https://www.gutenberg.org/ebooks/70403.kf8.images","text/plain; charset=us-ascii":"https://www.gutenberg.org/ebooks/70403.txt.utf-8","application/rdf+xml":"https://www.gutenberg.org/ebooks/70403.rdf","image/jpeg":"https://www.gutenberg.org/cache/epub/70403/pg70403.cover.medium.jpg","application/octet-stream":"https://www.gutenberg.org/files/70403/70403-0.zip"},"download_count":25},{"id":70438,"title":"Women compositors : $b A guide to the composing room","authors":[{"name":"H. G. B.","birth_year":null,"death_year":null}],"translators":[],"subjects":["Typesetting","Women printers"],"bookshelves":[],"languages":["en"],"copyright":false,"media_type":"Text","formats":{"text/html":"https://www.gutenberg.org/ebooks/70438.html.images","application/epub+zip":"https://www.gutenberg.org/ebooks/70438.epub3.images","application/x-mobipocket-ebook":"https://www.gutenberg.org/ebooks/70438.kf8.images","text/plain; charset=us-ascii":"https://www.gutenberg.org/ebooks/70438.txt.utf-8","application/rdf+xml":"https://www.gutenberg.org/ebooks/70438.rdf","image/jpeg":"https://www.gutenberg.org/cache/epub/70438/pg70438.cover.medium.jpg","application/octet-stream":"https://www.gutenberg.org/files/70438/70438-0.zip"},"download_count":25},{"id":70443,"title":"Governor Bradford's first dialogue : $b A dialogue, or the sum of a conference between some young men born in New England and sundry ancient men that came out of Holland and old England, anno Domini 1648.","authors":[{"name":"Bradford, William","birth_year":1590,"death_year":1657}],"translators":[],"subjects":["Pilgrims (New Plymouth Colony) -- Early works to 1800","Separatists"],"bookshelves":[],"languages":["en"],"copyright":false,"media_type":"Text","formats":{"text/html":"https://www.gutenberg.org/ebooks/70443.html.images","application/epub+zip":"https://www.gutenberg.org/ebooks/70443.epub3.images","application/x-mobipocket-ebook":"https://www.gutenberg.org/ebooks/70443.kf8.images","text/plain; charset=us-ascii":"https://www.gutenberg.org/ebooks/70443.txt.utf-8","application/rdf+xml":"https://www.gutenberg.org/ebooks/70443.rdf","image/jpeg":"https://www.gutenberg.org/cache/epub/70443/pg70443.cover.medium.jpg","application/octet-stream":"https://www.gutenberg.org/files/70443/70443-0.zip"},"download_count":25},{"id":70503,"title":"Washington, its sights and insights [1903]","authors":[{"name":"Monroe, Harriet Earhart","birth_year":1842,"death_year":1927}],"translators":[],"subjects":["Washington (D.C.) -- Description and travel"],"bookshelves":[],"languages":["en"],"copyright":false,"media_type":"Text","formats":{"text/html":"https://www.gutenberg.org/ebooks/70503.html.images","application/epub+zip":"https://www.gutenberg.org/ebooks/70503.epub3.images","application/x-mobipocket-ebook":"https://www.gutenberg.org/ebooks/70503.kf8.images","text/plain; charset=us-ascii":"https://www.gutenberg.org/ebooks/70503.txt.utf-8","application/rdf+xml":"https://www.gutenberg.org/ebooks/70503.rdf","image/jpeg":"https://www.gutenberg.org/cache/epub/70503/pg70503.cover.medium.jpg","application/octet-stream":"https://www.gutenberg.org/files/70503/70503-0.zip"},"download_count":25},{"id":70541,"title":"Star bright","authors":[{"name":"Walton, Bryce","birth_year":1918,"death_year":1988}],"translators":[],"subjects":["Mass media -- Audiences -- Fiction","Science fiction","Short stories","Space flight to the moon -- Fiction","Stowaways -- Fiction"],"bookshelves":[],"languages":["en"],"copyright":false,"media_type":"Text","formats":{"text/html":"https://www.gutenberg.org/ebooks/70541.html.images","application/epub+zip":"https://www.gutenberg.org/ebooks/70541.epub3.images","application/x-mobipocket-ebook":"https://www.gutenberg.org/ebooks/70541.kf8.images","text/plain; charset=us-ascii":"https://www.gutenberg.org/ebooks/70541.txt.utf-8","application/rdf+xml":"https://www.gutenberg.org/ebooks/70541.rdf","image/jpeg":"https://www.gutenberg.org/cache/epub/70541/pg70541.cover.medium.jpg","application/octet-stream":"https://www.gutenberg.org/files/70541/70541-0.zip"},"download_count":25},{"id":70626,"title":"The tragedy of Monomoy Beach : $b The graveyard of the Atlantic","authors":[{"name":"Bearse, Clarkson P.","birth_year":null,"death_year":null}],"translators":[],"subjects":["Lifesaving stations -- Cape Cod","Monomoy Island (Mass.) -- History","Monomoy Life-Saving Station (U.S.)","Shipwrecks -- Cape Cod"],"bookshelves":[],"languages":["en"],"copyright":false,"media_type":"Text","formats":{"text/html":"https://www.gutenberg.org/ebooks/70626.html.images","application/epub+zip":"https://www.gutenberg.org/ebooks/70626.epub3.images","application/x-mobipocket-ebook":"https://www.gutenberg.org/ebooks/70626.kf8.images","text/plain; charset=us-ascii":"https://www.gutenberg.org/ebooks/70626.txt.utf-8","application/rdf+xml":"https://www.gutenberg.org/ebooks/70626.rdf","image/jpeg":"https://www.gutenberg.org/cache/epub/70626/pg70626.cover.medium.jpg","application/octet-stream":"https://www.gutenberg.org/files/70626/70626-0.zip"},"download_count":25},{"id":70630,"title":"Public opinion and the teaching of history in the United States","authors":[{"name":"Pierce, Bessie Louise","birth_year":1888,"death_year":1974}],"translators":[],"subjects":["Educational law and legislation -- United States","History -- Study and teaching -- United States","Thesis (Ph. D.)","United States -- History -- Study and teaching"],"bookshelves":[],"languages":["en"],"copyright":false,"media_type":"Text","formats":{"text/html":"https://www.gutenberg.org/ebooks/70630.html.images","application/epub+zip":"https://www.gutenberg.org/ebooks/70630.epub3.images","application/x-mobipocket-ebook":"https://www.gutenberg.org/ebooks/70630.kf8.images","text/plain; charset=us-ascii":"https://www.gutenberg.org/ebooks/70630.txt.utf-8","application/rdf+xml":"https://www.gutenberg.org/ebooks/70630.rdf","image/jpeg":"https://www.gutenberg.org/cache/epub/70630/pg70630.cover.medium.jpg","application/octet-stream":"https://www.gutenberg.org/files/70630/70630-0.zip"},"download_count":25},{"id":70674,"title":"The glamour of prospecting : $b wanderings of a South African prospector in search of copper, gold, emeralds, and diamonds","authors":[{"name":"Cornell, Fred C. (Frederick Carruthers)","birth_year":1867,"death_year":1921}],"translators":[],"subjects":["Mines and mineral resources -- South Africa","Prospecting","South Africa -- Description and travel"],"bookshelves":[],"languages":["en"],"copyright":false,"media_type":"Text","formats":{"text/html":"https://www.gutenberg.org/ebooks/70674.html.images","application/epub+zip":"https://www.gutenberg.org/ebooks/70674.epub3.images","application/x-mobipocket-ebook":"https://www.gutenberg.org/ebooks/70674.kf8.images","text/plain; charset=us-ascii":"https://www.gutenberg.org/ebooks/70674.txt.utf-8","application/rdf+xml":"https://www.gutenberg.org/ebooks/70674.rdf","image/jpeg":"https://www.gutenberg.org/cache/epub/70674/pg70674.cover.medium.jpg","application/octet-stream":"https://www.gutenberg.org/files/70674/70674-0.zip"},"download_count":25},{"id":70684,"title":"The Collected Works of Henrik Ibsen, Vol. 09 (of 11)","authors":[{"name":"Ibsen, Henrik","birth_year":1828,"death_year":1906}],"translators":[],"subjects":["Ibsen, Henrik, 1828-1906 -- Translations into English","Norwegian drama -- Translations into English"],"bookshelves":[],"languages":["en"],"copyright":false,"media_type":"Text","formats":{"text/html":"https://www.gutenberg.org/ebooks/70684.html.images","application/epub+zip":"https://www.gutenberg.org/ebooks/70684.epub3.images","application/x-mobipocket-ebook":"https://www.gutenberg.org/ebooks/70684.kf8.images","text/plain; charset=us-ascii":"https://www.gutenberg.org/ebooks/70684.txt.utf-8","application/rdf+xml":"https://www.gutenberg.org/ebooks/70684.rdf","image/jpeg":"https://www.gutenberg.org/cache/epub/70684/pg70684.cover.medium.jpg","application/octet-stream":"https://www.gutenberg.org/files/70684/70684-0.zip"},"download_count":25},{"id":70751,"title":"Archeological investigations in New Mexico, Colorado, and Utah","authors":[{"name":"Fewkes, Jesse Walter","birth_year":1850,"death_year":1930}],"translators":[],"subjects":["Colorado -- Antiquities","Indians of North America -- Antiquities","New Mexico -- Antiquities","Utah -- Antiquities"],"bookshelves":[],"languages":["en"],"copyright":false,"media_type":"Text","formats":{"text/html":"https://www.gutenberg.org/ebooks/70751.html.images","application/epub+zip":"https://www.gutenberg.org/ebooks/70751.epub3.images","application/x-mobipocket-ebook":"https://www.gutenberg.org/ebooks/70751.kf8.images","text/plain; charset=us-ascii":"https://www.gutenberg.org/ebooks/70751.txt.utf-8","application/rdf+xml":"https://www.gutenberg.org/ebooks/70751.rdf","image/jpeg":"https://www.gutenberg.org/cache/epub/70751/pg70751.cover.medium.jpg","application/octet-stream":"https://www.gutenberg.org/files/70751/70751-0.zip"},"download_count":25},{"id":70776,"title":"The curse of Clifton : $b or, the widowed bride","authors":[{"name":"Southworth, Emma Dorothy Eliza Nevitte","birth_year":1819,"death_year":1899}],"translators":[],"subjects":["American fiction -- 19th century","Man-woman relationships -- Fiction"],"bookshelves":[],"languages":["en"],"copyright":false,"media_type":"Text","formats":{"text/html":"https://www.gutenberg.org/ebooks/70776.html.images","application/epub+zip":"https://www.gutenberg.org/ebooks/70776.epub3.images","application/x-mobipocket-ebook":"https://www.gutenberg.org/ebooks/70776.kf8.images","text/plain; charset=us-ascii":"https://www.gutenberg.org/ebooks/70776.txt.utf-8","application/rdf+xml":"https://www.gutenberg.org/ebooks/70776.rdf","image/jpeg":"https://www.gutenberg.org/cache/epub/70776/pg70776.cover.medium.jpg","application/octet-stream":"https://www.gutenberg.org/files/70776/70776-0.zip"},"download_count":25}]}