{"count":58808,"next":"http://129.241.150.113:8000/books/?languages=en&page=1501","previous":"http://129.241.150.113:8000/books/?languages=en&page=1499","results":[{"id":70021,"title":"Edna Browning; $b or, the Leighton homestead. A novel","authors":[{"name":"Holmes, Mary Jane","birth_year":1825,"death_year":1907}],"translators":[],"subjects":["American fiction -- 19th century"],"bookshelves":[],"languages":["en"],"copyright":false,"media_type":"Text","formats":{"text/html":"https://www.gutenberg.org/ebooks/70021.html.images","application/epub+zip":"https://www.gutenberg.org/ebooks/70021.epub3.images","application/x-mobipocket-ebook":"https://www.gutenberg.org/ebooks/70021.kf8.images","text/plain; charset=us-ascii":"https://www.gutenberg.org/ebooks/70021.txt.utf-8","application/rdf+xml":"https://www.gutenberg.org/ebooks/70021.rdf","image/jpeg":"https://www.gutenberg.org/cache/epub/70021/pg70021.cover.medium.jpg","application/octet-stream":"https://www.gutenberg.org/files/70021/70021-0.zip"},"download_count":24},{"id":70026,"title":"A world of green hills : $b Observations of nature and human nature in the Blue Ridge","authors":[{"name":"Torrey, Bradford","birth_year":1843,"death_year":1912}],"translators":[],"subjects":["Bird watching","Blue Ridge Mountains -- Description and travel","Natural history -- Outdoor books"],"bookshelves":[],"languages":["en"],"copyright":false,"media_type":"Text","formats":{"text/html":"https://www.gutenberg.org/ebooks/70026.html.images","application/epub+zip":"https://www.gutenberg.org/ebooks/70026.epub3.images","application/x-mobipocket-ebook":"https://www.gutenberg.org/ebooks/70026.kf8.images","text/plain; charset=us-ascii":"https://www.gutenberg.org/ebooks/70026.txt.utf-8","application/rdf+xml":"https://www.gutenberg.org/ebooks/70026.rdf","image/jpeg":"https://www.gutenberg.org/cache/epub/70026/pg70026.cover.medium.jpg","application/octet-stream":"https://www.gutenberg.org/files/70026/70026-0.zip"},"download_count":24},{"id":70045,"title":"Coloured engravings of heaths; vol. 2","authors":[{"name":"Andrews, Henry Cranke, active 1799-1828","birth_year":null,"death_year":null}],"translators":[],"subjects":["Ericas","Ericas -- Pictorial works"],"bookshelves":[],"languages":["en"],"copyright":false,"media_type":"Text","formats":{"text/html":"https://www.gutenberg.org/ebooks/70045.html.images","application/epub+zip":"https://www.gutenberg.org/ebooks/70045.epub3.images","application/x-mobipocket-ebook":"https://www.gutenberg.org/ebooks/70045.kf8.images","text/plain; charset=us-ascii":"https://www.gutenberg.org/ebooks/70045.txt.utf-8","application/rdf+xml":"https://www.gutenberg.org/ebooks/70045.rdf","image/jpeg":"https://www.gutenberg.org/cache/epub/70045/pg70045.cover.medium.jpg","application/octet-stream":"https://www.gutenberg.org/files/70045/70045-0.zip"},"download_count":24},{"id":70140,"title":"The early English cotton industry","authors":[{"name":"Daniels, George W. (George William)","birth_year":1878,"death_year":1937}],"translators":[],"subjects":["Cotton machinery","Cotton trade -- Great Britain"],"bookshelves":[],"languages":["en"],"copyright":false,"media_type":"Text","formats":{"text/html":"https://www.gutenberg.org/ebooks/70140.html.images","application/epub+zip":"https://www.gutenberg.org/ebooks/70140.epub3.images","application/x-mobipocket-ebook":"https://www.gutenberg.org/ebooks/70140.kf8.images","text/plain; charset=us-ascii":"https://www.gutenberg.org/ebooks/70140.txt.utf-8","application/rdf+xml":"https://www.gutenberg.org/ebooks/70140.rdf","image/jpeg":"https://www.gutenberg.org/cache/epub/70140/pg70140.cover.medium.jpg","application/octet-stream":"https://www.gutenberg.org/files/70140/70140-0.zip"},"download_count":24},{"id":70220,"title":"Mary Derwent : $b a tale of Wyoming and Mohawk Valleys in 1778","authors":[{"name":"Stephens, Ann S. (Ann Sophia)","birth_year":1810,"death_year":1886}],"translators":[],"subjects":["Frontier and pioneer life -- Pennsylvania -- Fiction","Historical fiction","Shawnee Indians -- Fiction","Wyoming Valley (Pa.) -- Fiction"],"bookshelves":[],"languages":["en"],"copyright":false,"media_type":"Text","formats":{"text/html":"https://www.gutenberg.org/ebooks/70220.html.images","application/epub+zip":"https://www.gutenberg.org/ebooks/70220.epub3.images","application/x-mobipocket-ebook":"https://www.gutenberg.org/ebooks/70220.kf8.images","text/plain; charset=us-ascii":"https://www.gutenberg.org/ebooks/70220.txt.utf-8","application/rdf+xml":"https://www.gutenberg.org/ebooks/70220.rdf","image/jpeg":"https://www.gutenberg.org/cache/epub/70220/pg70220.cover.medium.jpg","application/octet-stream":"https://www.gutenberg.org/files/70220/70220-0.zip"},"download_count":24},{"id":70232,"title":"Aristocracy in America. From the sketch-book of a German nobleman. vol. 2 (of 2)","authors":[{"name":"Grund, Francis J. (Francis Joseph)","birth_year":1804,"death_year":1863}],"translators":[],"subjects":["Boston (Mass.) -- Social life and customs","New York (N.Y.) -- Social life and customs -- 19th century","Philadelphia (Pa.) -- Social life and customs","United States -- Social life and customs -- 1783-1865","Washington (D.C.) -- Social life and customs"],"bookshelves":[],"languages":["en"],"copyright":false,"media_type":"Text","formats":{"text/html":"https://www.gutenberg.org/ebooks/70232.html.images","application/epub+zip":"https://www.gutenberg.org/ebooks/70232.epub3.images","application/x-mobipocket-ebook":"https://www.gutenberg.org/ebooks/70232.kf8.images","text/plain; charset=us-ascii":"https://www.gutenberg.org/ebooks/70232.txt.utf-8","application/rdf+xml":"https://www.gutenberg.org/ebooks/70232.rdf","image/jpeg":"https://www.gutenberg.org/cache/epub/70232/pg70232.cover.medium.jpg","application/octet-stream":"https://www.gutenberg.org/files/70232/70232-0.zip"},"download_count":24},{"id":70274,"title":"Inger Johanne's lively doings","authors":[{"name":"Zwilgmeyer, Dikken","birth_year":1853,"death_year":1913}],"translators":[{"name":"Poulsson, Emilie","birth_year":1853,"death_year":1939}],"subjects":["Girls -- Juvenile fiction","Norway -- Juvenile fiction"],"bookshelves":[],"languages":["en"],"copyright":false,"media_type":"Text","formats":{"text/html":"https://www.gutenberg.org/ebooks/70274.html.images","application/epub+zip":"https://www.gutenberg.org/ebooks/70274.epub3.images","application/x-mobipocket-ebook":"https://www.gutenberg.org/ebooks/70274.kf8.images","text/plain; charset=us-ascii":"https://www.gutenberg.org/ebooks/70274.txt.utf-8","application/rdf+xml":"https://www.gutenberg.org/ebooks/70274.rdf","image/jpeg":"https://www.gutenberg.org/cache/epub/70274/pg70274.cover.medium.jpg","application/octet-stream":"https://www.gutenberg.org/files/70274/70274-0.zip"},"download_count":24},{"id":70283,"title":"Is it I? A book for every man.","authors":[{"name":"Storer, Horatio Robinson","birth_year":1830,"death_year":1922}],"translators":[],"subjects":["Sexual ethics"],"bookshelves":[],"languages":["en"],"copyright":false,"media_type":"Text","formats":{"text/html":"https://www.gutenberg.org/ebooks/70283.html.images","application/epub+zip":"https://www.gutenberg.org/ebooks/70283.epub3.images","application/x-mobipocket-ebook":"https://www.gutenberg.org/ebooks/70283.kf8.images","text/plain; charset=us-ascii":"https://www.gutenberg.org/ebooks/70283.txt.utf-8","application/rdf+xml":"https://www.gutenberg.org/ebooks/70283.rdf","image/jpeg":"https://www.gutenberg.org/cache/epub/70283/pg70283.cover.medium.jpg","application/octet-stream":"https://www.gutenberg.org/files/70283/70283-0.zip"},"download_count":24},{"id":70346,"title":"The Alósaka cult of the Hopi Indians","authors":[{"name":"Fewkes, Jesse Walter","birth_year":1850,"death_year":1930}],"translators":[],"subjects":["Hopi Indians -- Religion"],"bookshelves":[],"languages":["en"],"copyright":false,"media_type":"Text","formats":{"text/html":"https://www.gutenberg.org/ebooks/70346.html.images","application/epub+zip":"https://www.gutenberg.org/ebooks/70346.epub3.images","application/x-mobipocket-ebook":"https://www.gutenberg.org/ebooks/70346.kf8.images","text/plain; charset=us-ascii":"https://www.gutenberg.org/ebooks/70346.txt.utf-8","application/rdf+xml":"https://www.gutenberg.org/ebooks/70346.rdf","image/jpeg":"https://www.gutenberg.org/cache/epub/70346/pg70346.cover.medium.jpg","application/octet-stream":"https://www.gutenberg.org/files/70346/70346-0.zip"},"download_count":24},{"id":70365,"title":"Chambers's Journal of Popular Literature, Science, and Art, fifth series, no. 121, vol. III, April 24, 1886","authors":[{"name":"Various","birth_year":null,"death_year":null}],"translators":[],"subjects":["Periodicals"],"bookshelves":[],"languages":["en"],"copyright":false,"media_type":"Text","formats":{"text/html":"https://www.gutenberg.org/ebooks/70365.html.images","application/epub+zip":"https://www.gutenberg.org/ebooks/70365.epub3.images","application/x-mobipocket-ebook":"https://www.gutenberg.org/ebooks/70365.kf8.images","text/plain; charset=us-ascii":"https://www.gutenberg.org/ebooks/70365.txt.utf-8","application/rdf+xml":"https://www.gutenberg.org/ebooks/70365.rdf","image/jpeg":"https://www.gutenberg.org/cache/epub/70365/pg70365.cover.medium.jpg","application/octet-stream":"https://www.gutenberg.org/files/70365/70365-0.zip"},"download_count":24},{"id":70384,"title":"Arthur : $b A tragedy","authors":[{"name":"Binyon, Laurence","birth_year":1869,"death_year":1943}],"translators":[],"subjects":["Arthur, King -- Drama","Arthurian romances -- Adaptations","Tragedies"],"bookshelves":[],"languages":["en"],"copyright":false,"media_type":"Text","formats":{"text/html":"https://www.gutenberg.org/ebooks/70384.html.images","application/epub+zip":"https://www.gutenberg.org/ebooks/70384.epub3.images","application/x-mobipocket-ebook":"https://www.gutenberg.org/ebooks/70384.kf8.images","text/plain; charset=us-ascii":"https://www.gutenberg.org/ebooks/70384.txt.utf-8","application/rdf+xml":"https://www.gutenberg.org/ebooks/70384.rdf","image/jpeg":"https://www.gutenberg.org/cache/epub/70384/pg70384.cover.medium.jpg","application/octet-stream":"https://www.gutenberg.org/files/70384/70384-0.zip"},"download_count":24},{"id":70386,"title":"Chambers's Journal of Popular Literature, Science, and Art, fifth series, no. 123, vol. III, May 8, 1886","authors":[{"name":"Various","birth_year":null,"death_year":null}],"translators":[],"subjects":["Periodicals"],"bookshelves":[],"languages":["en"],"copyright":false,"media_type":"Text","formats":{"text/html":"https://www.gutenberg.org/ebooks/70386.html.images","application/epub+zip":"https://www.gutenberg.org/ebooks/70386.epub3.images","application/x-mobipocket-ebook":"https://www.gutenberg.org/ebooks/70386.kf8.images","text/plain; charset=us-ascii":"https://www.gutenberg.org/ebooks/70386.txt.utf-8","application/rdf+xml":"https://www.gutenberg.org/ebooks/70386.rdf","image/jpeg":"https://www.gutenberg.org/cache/epub/70386/pg70386.cover.medium.jpg","application/octet-stream":"https://www.gutenberg.org/files/70386/70386-0.zip"},"download_count":24},{"id":70388,"title":"Remember the 4th!","authors":[{"name":"Loomis, Noel M.","birth_year":1905,"death_year":1969}],"translators":[],"subjects":["Inventions -- Fiction","Private investigators -- Fiction","Science fiction","Short stories","Trials (Divorce) -- Fiction"],"bookshelves":[],"languages":["en"],"copyright":false,"media_type":"Text","formats":{"text/html":"https://www.gutenberg.org/ebooks/70388.html.images","application/epub+zip":"https://www.gutenberg.org/ebooks/70388.epub3.images","application/x-mobipocket-ebook":"https://www.gutenberg.org/ebooks/70388.kf8.images","text/plain; charset=us-ascii":"https://www.gutenberg.org/ebooks/70388.txt.utf-8","application/rdf+xml":"https://www.gutenberg.org/ebooks/70388.rdf","image/jpeg":"https://www.gutenberg.org/cache/epub/70388/pg70388.cover.medium.jpg","application/octet-stream":"https://www.gutenberg.org/files/70388/70388-0.zip"},"download_count":24},{"id":70442,"title":"The Barnum & Bailey Greatest Show on Earth songster","authors":[{"name":"Various","birth_year":null,"death_year":null}],"translators":[],"subjects":["Songs, English -- United States -- Texts","Songsters"],"bookshelves":[],"languages":["en"],"copyright":false,"media_type":"Text","formats":{"text/html":"https://www.gutenberg.org/ebooks/70442.html.images","application/epub+zip":"https://www.gutenberg.org/ebooks/70442.epub3.images","application/x-mobipocket-ebook":"https://www.gutenberg.org/ebooks/70442.kf8.images","text/plain; charset=us-ascii":"https://www.gutenberg.org/ebooks/70442.txt.utf-8","application/rdf+xml":"https://www.gutenberg.org/ebooks/70442.rdf","image/jpeg":"https://www.gutenberg.org/cache/epub/70442/pg70442.cover.medium.jpg","application/octet-stream":"https://www.gutenberg.org/files/70442/70442-0.zip"},"download_count":24},{"id":70450,"title":"The boys in white : $b The experience of a hospital agent in and around Washington","authors":[{"name":"Wheelock, Julia S. (Julia Susan)","birth_year":1833,"death_year":1900}],"translators":[],"subjects":["United States -- History -- Civil War, 1861-1865 -- Hospitals"],"bookshelves":[],"languages":["en"],"copyright":false,"media_type":"Text","formats":{"text/html":"https://www.gutenberg.org/ebooks/70450.html.images","application/epub+zip":"https://www.gutenberg.org/ebooks/70450.epub3.images","application/x-mobipocket-ebook":"https://www.gutenberg.org/ebooks/70450.kf8.images","text/plain; charset=us-ascii":"https://www.gutenberg.org/ebooks/70450.txt.utf-8","application/rdf+xml":"https://www.gutenberg.org/ebooks/70450.rdf","image/jpeg":"https://www.gutenberg.org/cache/epub/70450/pg70450.cover.medium.jpg","application/octet-stream":"https://www.gutenberg.org/files/70450/70450-0.zip"},"download_count":24},{"id":70451,"title":"Haeckel : $b his life and work","authors":[{"name":"Bölsche, Wilhelm","birth_year":1861,"death_year":1939}],"translators":[{"name":"McCabe, Joseph","birth_year":1867,"death_year":1955}],"subjects":["Evolution (Biology) -- History","Haeckel, Ernst, 1834-1919"],"bookshelves":[],"languages":["en"],"copyright":false,"media_type":"Text","formats":{"text/html":"https://www.gutenberg.org/ebooks/70451.html.images","application/epub+zip":"https://www.gutenberg.org/ebooks/70451.epub3.images","application/x-mobipocket-ebook":"https://www.gutenberg.org/ebooks/70451.kf8.images","text/plain; charset=us-ascii":"https://www.gutenberg.org/ebooks/70451.txt.utf-8","application/rdf+xml":"https://www.gutenberg.org/ebooks/70451.rdf","image/jpeg":"https://www.gutenberg.org/cache/epub/70451/pg70451.cover.medium.jpg","application/octet-stream":"https://www.gutenberg.org/files/70451/70451-0.zip"},"download_count":24},{"id":70469,"title":"Papa Bouchard","authors":[{"name":"Seawell, Molly Elliot","birth_year":1860,"death_year":1916}],"translators":[],"subjects":["Amusements -- Fiction","Bachelors -- Fiction","Birds -- Fiction","Household employees -- Fiction","Humorous stories","Paris (France) -- Social life and customs -- Fiction","Siblings -- Fiction","Spouses -- Fiction"],"bookshelves":[],"languages":["en"],"copyright":false,"media_type":"Text","formats":{"text/html":"https://www.gutenberg.org/ebooks/70469.html.images","application/epub+zip":"https://www.gutenberg.org/ebooks/70469.epub3.images","application/x-mobipocket-ebook":"https://www.gutenberg.org/ebooks/70469.kf8.images","text/plain; charset=us-ascii":"https://www.gutenberg.org/ebooks/70469.txt.utf-8","application/rdf+xml":"https://www.gutenberg.org/ebooks/70469.rdf","image/jpeg":"https://www.gutenberg.org/cache/epub/70469/pg70469.cover.medium.jpg","application/octet-stream":"https://www.gutenberg.org/files/70469/70469-0.zip"},"download_count":24},{"id":70491,"title":"Elfin Land","authors":[{"name":"Pollard, Josephine","birth_year":1834,"death_year":1892}],"translators":[],"subjects":["Animals -- Juvenile poetry","Children -- Conduct of life -- Juvenile poetry","Children's poetry, American","Conduct of life -- Juvenile poetry","Elves -- Juvenile poetry"],"bookshelves":[],"languages":["en"],"copyright":false,"media_type":"Text","formats":{"text/html":"https://www.gutenberg.org/ebooks/70491.html.images","application/epub+zip":"https://www.gutenberg.org/ebooks/70491.epub3.images","application/x-mobipocket-ebook":"https://www.gutenberg.org/ebooks/70491.kf8.images","text/plain; charset=us-ascii":"https://www.gutenberg.org/ebooks/70491.txt.utf-8","application/rdf+xml":"https://www.gutenberg.org/ebooks/70491.rdf","image/jpeg":"https://www.gutenberg.org/cache/epub/70491/pg70491.cover.medium.jpg","application/octet-stream":"https://www.gutenberg.org/files/70491/70491-0.zip"},"download_count":24},{"id":70496,"title":"Turn backward, o time!","authors":[{"name":"Kubilius, Walter","birth_year":1918,"death_year":1993}],"translators":[],"subjects":["Science fiction","Science fiction -- Authorship -- Fiction","Short stories","Time travel -- Fiction"],"bookshelves":[],"languages":["en"],"copyright":false,"media_type":"Text","formats":{"text/html":"https://www.gutenberg.org/ebooks/70496.html.images","application/epub+zip":"https://www.gutenberg.org/ebooks/70496.epub3.images","application/x-mobipocket-ebook":"https://www.gutenberg.org/ebooks/70496.kf8.images","text/plain; charset=us-ascii":"https://www.gutenberg.org/ebooks/70496.txt.utf-8","application/rdf+xml":"https://www.gutenberg.org/ebooks/70496.rdf","image/jpeg":"https://www.gutenberg.org/cache/epub/70496/pg70496.cover.medium.jpg","application/octet-stream":"https://www.gutenberg.org/files/70496/70496-0.zip"},"download_count":24},{"id":70520,"title":"Naomi : $b or the last days of Jerusalem","authors":[{"name":"Webb, J. B., Mrs. (Annie)","birth_year":1806,"death_year":1880}],"translators":[],"subjects":["Historical fiction","Jerusalem -- History -- Siege, 70 A.D. -- Fiction","Sieges -- Fiction"],"bookshelves":[],"languages":["en"],"copyright":false,"media_type":"Text","formats":{"text/html":"https://www.gutenberg.org/ebooks/70520.html.images","application/epub+zip":"https://www.gutenberg.org/ebooks/70520.epub3.images","application/x-mobipocket-ebook":"https://www.gutenberg.org/ebooks/70520.kf8.images","text/plain; charset=us-ascii":"https://www.gutenberg.org/ebooks/70520.txt.utf-8","application/rdf+xml":"https://www.gutenberg.org/ebooks/70520.rdf","image/jpeg":"https://www.gutenberg.org/cache/epub/70520/pg70520.cover.medium.jpg","application/octet-stream":"https://www.gutenberg.org/files/70520/70520-0.zip"},"download_count":24},{"id":70526,"title":"The Canterbury pilgrims : $b A comedy","authors":[{"name":"MacKaye, Percy","birth_year":1875,"death_year":1956}],"translators":[],"subjects":["American drama -- 20th century","Chaucer, Geoffrey, -1400 -- Drama","Christian pilgrims and pilgrimages -- Drama"],"bookshelves":[],"languages":["en"],"copyright":false,"media_type":"Text","formats":{"text/html":"https://www.gutenberg.org/ebooks/70526.html.images","application/epub+zip":"https://www.gutenberg.org/ebooks/70526.epub3.images","application/x-mobipocket-ebook":"https://www.gutenberg.org/ebooks/70526.kf8.images","text/plain; charset=us-ascii":"https://www.gutenberg.org/ebooks/70526.txt.utf-8","application/rdf+xml":"https://www.gutenberg.org/ebooks/70526.rdf","image/jpeg":"https://www.gutenberg.org/cache/epub/70526/pg70526.cover.medium.jpg","application/octet-stream":"https://www.gutenberg.org/files/70526/70526-0.zip"},"download_count":24},{"id":70552,"title":"Righteous plague","authors":[{"name":"Abernathy, Robert","birth_year":1924,"death_year":1990}],"translators":[],"subjects":["Biological weapons -- Fiction","Dictators -- Fiction","Epidemics -- Fiction","Science fiction","Scientists -- Fiction","Short stories"],"bookshelves":[],"languages":["en"],"copyright":false,"media_type":"Text","formats":{"text/html":"https://www.gutenberg.org/ebooks/70552.html.images","application/epub+zip":"https://www.gutenberg.org/ebooks/70552.epub3.images","application/x-mobipocket-ebook":"https://www.gutenberg.org/ebooks/70552.kf8.images","text/plain; charset=us-ascii":"https://www.gutenberg.org/ebooks/70552.txt.utf-8","application/rdf+xml":"https://www.gutenberg.org/ebooks/70552.rdf","image/jpeg":"https://www.gutenberg.org/cache/epub/70552/pg70552.cover.medium.jpg","application/octet-stream":"https://www.gutenberg.org/files/70552/70552-0.zip"},"download_count":24},{"id":70587,"title":"Terry","authors":[{"name":"Hilton, James","birth_year":1900,"death_year":1954}],"translators":[],"subjects":["English fiction -- 20th century"],"bookshelves":[],"languages":["en"],"copyright":false,"media_type":"Text","formats":{"text/html":"https://www.gutenberg.org/ebooks/70587.html.images","application/epub+zip":"https://www.gutenberg.org/ebooks/70587.epub3.images","application/x-mobipocket-ebook":"https://www.gutenberg.org/ebooks/70587.kf8.images","text/plain; charset=us-ascii":"https://www.gutenberg.org/ebooks/70587.txt.utf-8","application/rdf+xml":"https://www.gutenberg.org/ebooks/70587.rdf","image/jpeg":"https://www.gutenberg.org/cache/epub/70587/pg70587.cover.medium.jpg","application/octet-stream":"https://www.gutenberg.org/files/70587/70587-0.zip"},"download_count":24},{"id":70642,"title":"Historical vignettes, 1st series","authors":[{"name":"Capes, Bernard","birth_year":1854,"death_year":1918}],"translators":[],"subjects":["Historical fiction","Short stories, English"],"bookshelves":[],"languages":["en"],"copyright":false,"media_type":"Text","formats":{"text/html":"https://www.gutenberg.org/ebooks/70642.html.images","application/epub+zip":"https://www.gutenberg.org/ebooks/70642.epub3.images","application/x-mobipocket-ebook":"https://www.gutenberg.org/ebooks/70642.kf8.images","text/plain; charset=us-ascii":"https://www.gutenberg.org/ebooks/70642.txt.utf-8","application/rdf+xml":"https://www.gutenberg.org/ebooks/70642.rdf","image/jpeg":"https://www.gutenberg.org/cache/epub/70642/pg70642.cover.medium.jpg","application/octet-stream":"https://www.gutenberg.org/files/70642/70642-0.zip"},"download_count":24},{"id":70681,"title":"Slavery: letters and speeches","authors":[{"name":"Mann, Horace","birth_year":1796,"death_year":1859}],"translators":[],"subjects":["Slavery -- United States","United States -- Politics and government -- 1849-1853"],"bookshelves":[],"languages":["en"],"copyright":false,"media_type":"Text","formats":{"text/html":"https://www.gutenberg.org/ebooks/70681.html.images","application/epub+zip":"https://www.gutenberg.org/ebooks/70681.epub3.images","application/x-mobipocket-ebook":"https://www.gutenberg.org/ebooks/70681.kf8.images","text/plain; charset=us-ascii":"https://www.gutenberg.org/ebooks/70681.txt.utf-8","application/rdf+xml":"https://www.gutenberg.org/ebooks/70681.rdf","image/jpeg":"https://www.gutenberg.org/cache/epub/70681/pg70681.cover.medium.jpg","application/octet-stream":"https://www.gutenberg.org/files/70681/70681-0.zip"},"download_count":24},{"id":70705,"title":"The Collected Works of Henrik Ibsen, Vol. 06 (of 11)","authors":[{"name":"Ibsen, Henrik","birth_year":1828,"death_year":1906}],"translators":[],"subjects":["Ibsen, Henrik, 1828-1906 -- Translations into English","Norwegian drama -- Translations into English"],"bookshelves":[],"languages":["en"],"copyright":false,"media_type":"Text","formats":{"text/html":"https://www.gutenberg.org/ebooks/70705.html.images","application/epub+zip":"https://www.gutenberg.org/ebooks/70705.epub3.images","application/x-mobipocket-ebook":"https://www.gutenberg.org/ebooks/70705.kf8.images","text/plain; charset=us-ascii":"https://www.gutenberg.org/ebooks/70705.txt.utf-8","application/rdf+xml":"https://www.gutenberg.org/ebooks/70705.rdf","image/jpeg":"https://www.gutenberg.org/cache/epub/70705/pg70705.cover.medium.jpg","application/octet-stream":"https://www.gutenberg.org/files/70705/70705-0.zip"},"download_count":24},{"id":70828,"title":"The early Plantagenets","authors":[{"name":"Stubbs, William","birth_year":1825,"death_year":1901}],"translators":[],"subjects":["Great Britain -- History -- Plantagenets, 1154-1399","Plantagenet, House of"],"bookshelves":[],"languages":["en"],"copyright":false,"media_type":"Text","formats":{"text/html":"https://www.gutenberg.org/ebooks/70828.html.images","application/epub+zip":"https://www.gutenberg.org/ebooks/70828.epub3.images","application/x-mobipocket-ebook":"https://www.gutenberg.org/ebooks/70828.kf8.images","text/plain; charset=us-ascii":"https://www.gutenberg.org/ebooks/70828.txt.utf-8","application/rdf+xml":"https://www.gutenberg.org/ebooks/70828.rdf","image/jpeg":"https://www.gutenberg.org/cache/epub/70828/pg70828.cover.medium.jpg","application/octet-stream":"https://www.gutenberg.org/files/70828/70828-0.zip"},"download_count":24},{"id":70888,"title":"On the relative motion of the earth and the luminiferous æther","authors":[{"name":"Michelson, Albert A. (Albert Abraham)","birth_year":1852,"death_year":1931},{"name":"Morley, Edward Williams","birth_year":1838,"death_year":1923}],"translators":[],"subjects":["Ether (Space)","Light -- Speed","Standards of length","Wave theory of light"],"bookshelves":[],"languages":["en"],"copyright":false,"media_type":"Text","formats":{"text/html":"https://www.gutenberg.org/ebooks/70888.html.images","application/epub+zip":"https://www.gutenberg.org/ebooks/70888.epub3.images","application/x-mobipocket-ebook":"https://www.gutenberg.org/ebooks/70888.kf8.images","application/rdf+xml":"https://www.gutenberg.org/ebooks/70888.rdf","image/jpeg":"https://www.gutenberg.org/cache/epub/70888/pg70888.cover.medium.jpg","application/octet-stream":"https://www.gutenberg.org/files/70888/70888-h.zip"},"download_count":24},{"id":70930,"title":"A memoir of Miss Hannah Adams","authors":[{"name":"Lee, Hannah Farnham Sawyer","birth_year":1780,"death_year":1865},{"name":"Adams, Hannah","birth_year":1755,"death_year":1831}],"translators":[],"subjects":["Adams, Hannah, 1755-1831","Authors, American -- 19th century -- Biography"],"bookshelves":[],"languages":["en"],"copyright":false,"media_type":"Text","formats":{"text/html":"https://www.gutenberg.org/ebooks/70930.html.images","application/epub+zip":"https://www.gutenberg.org/ebooks/70930.epub3.images","application/x-mobipocket-ebook":"https://www.gutenberg.org/ebooks/70930.kf8.images","text/plain; charset=us-ascii":"https://www.gutenberg.org/ebooks/70930.txt.utf-8","application/rdf+xml":"https://www.gutenberg.org/ebooks/70930.rdf","image/jpeg":"https://www.gutenberg.org/cache/epub/70930/pg70930.cover.medium.jpg","application/octet-stream":"https://www.gutenberg.org/files/70930/70930-0.zip"},"download_count":24},{"id":71009,"title":"The Ainu group at the Saint Louis Exposition","authors":[{"name":"Starr, Frederick","birth_year":1858,"death_year":1933}],"translators":[],"subjects":["Ainu","Louisiana Purchase Exposition (1904 : Saint Louis, Mo.)"],"bookshelves":[],"languages":["en"],"copyright":false,"media_type":"Text","formats":{"text/html":"https://www.gutenberg.org/ebooks/71009.html.images","application/epub+zip":"https://www.gutenberg.org/ebooks/71009.epub3.images","application/x-mobipocket-ebook":"https://www.gutenberg.org/ebooks/71009.kf8.images","text/plain; charset=us-ascii":"https://www.gutenberg.org/ebooks/71009.txt.utf-8","application/rdf+xml":"https://www.gutenberg.org/ebooks/71009.rdf","image/jpeg":"https://www.gutenberg.org/cache/epub/71009/pg71009.cover.medium.jpg","application/octet-stream":"https://www.gutenberg.org/files/71009/71009-0.zip"},"download_count":24},{"id":71058,"title":"Holidays at Brighton : $b or, sea-side amusements","authors":[{"name":"Anonymous","birth_year":null,"death_year":null}],"translators":[],"subjects":["Brighton (England) -- Description and travel -- Juvenile literature"],"bookshelves":[],"languages":["en"],"copyright":false,"media_type":"Text","formats":{"text/html":"https://www.gutenberg.org/ebooks/71058.html.images","application/epub+zip":"https://www.gutenberg.org/ebooks/71058.epub3.images","application/x-mobipocket-ebook":"https://www.gutenberg.org/ebooks/71058.kf8.images","text/plain; charset=us-ascii":"https://www.gutenberg.org/ebooks/71058.txt.utf-8","application/rdf+xml":"https://www.gutenberg.org/ebooks/71058.rdf","image/jpeg":"https://www.gutenberg.org/cache/epub/71058/pg71058.cover.medium.jpg","application/octet-stream":"https://www.gutenberg.org/files/71058/71058-0.zip"},"download_count":24},{"id":71134,"title":"The book of antelopes, vol. 2 (of 4)","authors":[{"name":"Sclater, Philip Lutley","birth_year":1829,"death_year":1913},{"name":"Thomas, Oldfield","birth_year":1858,"death_year":1929}],"translators":[],"subjects":["Antelopes"],"bookshelves":[],"languages":["en"],"copyright":false,"media_type":"Text","formats":{"text/html":"https://www.gutenberg.org/ebooks/71134.html.images","application/epub+zip":"https://www.gutenberg.org/ebooks/71134.epub3.images","application/x-mobipocket-ebook":"https://www.gutenberg.org/ebooks/71134.kf8.images","text/plain; charset=us-ascii":"https://www.gutenberg.org/ebooks/71134.txt.utf-8","application/rdf+xml":"https://www.gutenberg.org/ebooks/71134.rdf","image/jpeg":"https://www.gutenberg.org/cache/epub/71134/pg71134.cover.medium.jpg","application/octet-stream":"https://www.gutenberg.org/files/71134/71134-0.zip"},"download_count":24}]}