{"count":58808,"next":"http://129.241.150.113:8000/books/?languages=en&page=1333","previous":"http://129.241.150.113:8000/books/?languages=en&page=1331","results":[{"id":68260,"title":"Heartsease and Rue","authors":[{"name":"Lowell, James Russell","birth_year":1819,"death_year":1891}],"translators":[],"subjects":["American poetry -- 19th century"],"bookshelves":[],"languages":["en"],"copyright":false,"media_type":"Text","formats":{"text/html":"https://www.gutenberg.org/ebooks/68260.html.images","application/epub+zip":"https://www.gutenberg.org/ebooks/68260.epub3.images","application/x-mobipocket-ebook":"https://www.gutenberg.org/ebooks/68260.kf8.images","text/plain; charset=us-ascii":"https://www.gutenberg.org/ebooks/68260.txt.utf-8","application/rdf+xml":"https://www.gutenberg.org/ebooks/68260.rdf","image/jpeg":"https://www.gutenberg.org/cache/epub/68260/pg68260.cover.medium.jpg","application/octet-stream":"https://www.gutenberg.org/files/68260/68260-0.zip"},"download_count":28},{"id":68315,"title":"On chloroform and other anæsthetics: their action and administration","authors":[{"name":"Snow, John","birth_year":1813,"death_year":1858}],"translators":[],"subjects":["Anesthetics","Chloroform","Snow, John, 1813-1858"],"bookshelves":[],"languages":["en"],"copyright":false,"media_type":"Text","formats":{"text/html":"https://www.gutenberg.org/ebooks/68315.html.images","application/epub+zip":"https://www.gutenberg.org/ebooks/68315.epub3.images","application/x-mobipocket-ebook":"https://www.gutenberg.org/ebooks/68315.kf8.images","text/plain; charset=us-ascii":"https://www.gutenberg.org/ebooks/68315.txt.utf-8","application/rdf+xml":"https://www.gutenberg.org/ebooks/68315.rdf","image/jpeg":"https://www.gutenberg.org/cache/epub/68315/pg68315.cover.medium.jpg","application/octet-stream":"https://www.gutenberg.org/files/68315/68315-0.zip"},"download_count":28},{"id":68329,"title":"Redevelopment","authors":[{"name":"Smith, George O. (George Oliver)","birth_year":1911,"death_year":1981}],"translators":[],"subjects":["Human-alien encounters -- Fiction","Interstellar travel -- Fiction","Science fiction","Space ships -- Fiction"],"bookshelves":[],"languages":["en"],"copyright":false,"media_type":"Text","formats":{"text/html":"https://www.gutenberg.org/ebooks/68329.html.images","application/epub+zip":"https://www.gutenberg.org/ebooks/68329.epub3.images","application/x-mobipocket-ebook":"https://www.gutenberg.org/ebooks/68329.kf8.images","text/plain; charset=us-ascii":"https://www.gutenberg.org/ebooks/68329.txt.utf-8","application/rdf+xml":"https://www.gutenberg.org/ebooks/68329.rdf","image/jpeg":"https://www.gutenberg.org/cache/epub/68329/pg68329.cover.medium.jpg","application/octet-stream":"https://www.gutenberg.org/files/68329/68329-0.zip"},"download_count":28},{"id":68344,"title":"The battle of the Swash and the capture of Canada","authors":[{"name":"Barton, Samuel","birth_year":1839,"death_year":1895}],"translators":[],"subjects":["Canada -- Annexation to the United States -- Fiction","Imaginary wars and battles -- Fiction","Speculative fiction","United States -- History"],"bookshelves":[],"languages":["en"],"copyright":false,"media_type":"Text","formats":{"text/html":"https://www.gutenberg.org/ebooks/68344.html.images","application/epub+zip":"https://www.gutenberg.org/ebooks/68344.epub3.images","application/x-mobipocket-ebook":"https://www.gutenberg.org/ebooks/68344.kf8.images","text/plain; charset=us-ascii":"https://www.gutenberg.org/ebooks/68344.txt.utf-8","application/rdf+xml":"https://www.gutenberg.org/ebooks/68344.rdf","image/jpeg":"https://www.gutenberg.org/cache/epub/68344/pg68344.cover.medium.jpg","application/octet-stream":"https://www.gutenberg.org/files/68344/68344-0.zip"},"download_count":28},{"id":68399,"title":"The hope of happiness","authors":[{"name":"Nicholson, Meredith","birth_year":1866,"death_year":1947}],"translators":[],"subjects":["Architects -- Fiction","City and town life -- Fiction","Fathers and sons -- Fiction","Love stories","Middle West -- Fiction"],"bookshelves":[],"languages":["en"],"copyright":false,"media_type":"Text","formats":{"text/html":"https://www.gutenberg.org/ebooks/68399.html.images","application/epub+zip":"https://www.gutenberg.org/ebooks/68399.epub3.images","application/x-mobipocket-ebook":"https://www.gutenberg.org/ebooks/68399.kf8.images","text/plain; charset=us-ascii":"https://www.gutenberg.org/ebooks/68399.txt.utf-8","application/rdf+xml":"https://www.gutenberg.org/ebooks/68399.rdf","image/jpeg":"https://www.gutenberg.org/cache/epub/68399/pg68399.cover.medium.jpg","application/octet-stream":"https://www.gutenberg.org/files/68399/68399-0.zip"},"download_count":28},{"id":68407,"title":"The wonder woman","authors":[{"name":"Long, Mae Van Norman","birth_year":null,"death_year":null}],"translators":[],"subjects":["Man-woman relationships -- Fiction","Outdoor life -- Fiction"],"bookshelves":[],"languages":["en"],"copyright":false,"media_type":"Text","formats":{"text/html":"https://www.gutenberg.org/ebooks/68407.html.images","application/epub+zip":"https://www.gutenberg.org/ebooks/68407.epub3.images","application/x-mobipocket-ebook":"https://www.gutenberg.org/ebooks/68407.kf8.images","text/plain; charset=us-ascii":"https://www.gutenberg.org/ebooks/68407.txt.utf-8","application/rdf+xml":"https://www.gutenberg.org/ebooks/68407.rdf","image/jpeg":"https://www.gutenberg.org/cache/epub/68407/pg68407.cover.medium.jpg","application/octet-stream":"https://www.gutenberg.org/files/68407/68407-0.zip"},"download_count":28},{"id":68412,"title":"Philosophical transactions, Vol. L. Part II. For the year 1758.: Giving some account of the present undertakings, studies, and labours, of the ingenious, in many considerable parts of the world.","authors":[{"name":"Various","birth_year":null,"death_year":null},{"name":"Royal Society (Great Britain)","birth_year":null,"death_year":null}],"translators":[],"subjects":["Science -- Periodicals"],"bookshelves":[],"languages":["en"],"copyright":false,"media_type":"Text","formats":{"text/html":"https://www.gutenberg.org/ebooks/68412.html.images","application/epub+zip":"https://www.gutenberg.org/ebooks/68412.epub3.images","application/x-mobipocket-ebook":"https://www.gutenberg.org/ebooks/68412.kf8.images","text/plain; charset=us-ascii":"https://www.gutenberg.org/ebooks/68412.txt.utf-8","application/rdf+xml":"https://www.gutenberg.org/ebooks/68412.rdf","image/jpeg":"https://www.gutenberg.org/cache/epub/68412/pg68412.cover.medium.jpg","application/octet-stream":"https://www.gutenberg.org/files/68412/68412-0.zip"},"download_count":28},{"id":68416,"title":"Birds and their nests","authors":[{"name":"Howitt, Mary (Mary Botham)","birth_year":1799,"death_year":1888}],"translators":[],"subjects":["Birds -- Juvenile literature","Birds -- Nests -- Juvenile literature","Natural history -- Juvenile literature"],"bookshelves":[],"languages":["en"],"copyright":false,"media_type":"Text","formats":{"text/html":"https://www.gutenberg.org/ebooks/68416.html.images","application/epub+zip":"https://www.gutenberg.org/ebooks/68416.epub3.images","application/x-mobipocket-ebook":"https://www.gutenberg.org/ebooks/68416.kf8.images","text/plain; charset=us-ascii":"https://www.gutenberg.org/ebooks/68416.txt.utf-8","application/rdf+xml":"https://www.gutenberg.org/ebooks/68416.rdf","image/jpeg":"https://www.gutenberg.org/cache/epub/68416/pg68416.cover.medium.jpg","application/octet-stream":"https://www.gutenberg.org/files/68416/68416-0.zip"},"download_count":28},{"id":68434,"title":"A marvelous history of Mary of Nimmegen: Who for more than seven year lived and had ado with the devil","authors":[],"translators":[{"name":"Ayres, Harry Morgan","birth_year":1881,"death_year":1948}],"subjects":["Dutch literature -- To 1500 -- Translations into English","Mystery and miracle plays"],"bookshelves":[],"languages":["en"],"copyright":false,"media_type":"Text","formats":{"text/html":"https://www.gutenberg.org/ebooks/68434.html.images","application/epub+zip":"https://www.gutenberg.org/ebooks/68434.epub3.images","application/x-mobipocket-ebook":"https://www.gutenberg.org/ebooks/68434.kf8.images","text/plain; charset=us-ascii":"https://www.gutenberg.org/ebooks/68434.txt.utf-8","application/rdf+xml":"https://www.gutenberg.org/ebooks/68434.rdf","image/jpeg":"https://www.gutenberg.org/cache/epub/68434/pg68434.cover.medium.jpg","application/octet-stream":"https://www.gutenberg.org/files/68434/68434-0.zip"},"download_count":28},{"id":68440,"title":"The long trail: A story of African adventure","authors":[{"name":"Strang, Herbert","birth_year":null,"death_year":null}],"translators":[],"subjects":["Adventure stories","Africa -- Juvenile fiction","Black people -- Africa -- Juvenile fiction"],"bookshelves":[],"languages":["en"],"copyright":false,"media_type":"Text","formats":{"text/html":"https://www.gutenberg.org/ebooks/68440.html.images","application/epub+zip":"https://www.gutenberg.org/ebooks/68440.epub3.images","application/x-mobipocket-ebook":"https://www.gutenberg.org/ebooks/68440.kf8.images","text/plain; charset=us-ascii":"https://www.gutenberg.org/ebooks/68440.txt.utf-8","application/rdf+xml":"https://www.gutenberg.org/ebooks/68440.rdf","image/jpeg":"https://www.gutenberg.org/cache/epub/68440/pg68440.cover.medium.jpg","application/octet-stream":"https://www.gutenberg.org/files/68440/68440-0.zip"},"download_count":28},{"id":68617,"title":"Travels in Western Africa in 1845 & 1846, Volume 1 (of 2): comprising a journey from Whydah through the Kingdom of Dahomey to Adofoodia in the interior","authors":[{"name":"Duncan, John","birth_year":1805,"death_year":1849}],"translators":[],"subjects":["Africa, West -- Description and travel","Benin -- Description and travel"],"bookshelves":[],"languages":["en"],"copyright":false,"media_type":"Text","formats":{"text/html":"https://www.gutenberg.org/ebooks/68617.html.images","application/epub+zip":"https://www.gutenberg.org/ebooks/68617.epub3.images","application/x-mobipocket-ebook":"https://www.gutenberg.org/ebooks/68617.kf8.images","text/plain; charset=us-ascii":"https://www.gutenberg.org/ebooks/68617.txt.utf-8","application/rdf+xml":"https://www.gutenberg.org/ebooks/68617.rdf","image/jpeg":"https://www.gutenberg.org/cache/epub/68617/pg68617.cover.medium.jpg","application/octet-stream":"https://www.gutenberg.org/files/68617/68617-0.zip"},"download_count":28},{"id":68638,"title":"The Philistine : $b a periodical of protest (Vol. I, No. 6, November 1895)","authors":[{"name":"Various","birth_year":null,"death_year":null}],"translators":[],"subjects":["American literature -- Periodicals","American periodicals","Society of the Philistines (East Aurora, N.Y.) -- Periodicals"],"bookshelves":[],"languages":["en"],"copyright":false,"media_type":"Text","formats":{"text/html":"https://www.gutenberg.org/ebooks/68638.html.images","application/epub+zip":"https://www.gutenberg.org/ebooks/68638.epub3.images","application/x-mobipocket-ebook":"https://www.gutenberg.org/ebooks/68638.kf8.images","text/plain; charset=us-ascii":"https://www.gutenberg.org/ebooks/68638.txt.utf-8","application/rdf+xml":"https://www.gutenberg.org/ebooks/68638.rdf","image/jpeg":"https://www.gutenberg.org/cache/epub/68638/pg68638.cover.medium.jpg","application/octet-stream":"https://www.gutenberg.org/files/68638/68638-0.zip"},"download_count":28},{"id":68700,"title":"The Ring bonanza","authors":[{"name":"Binder, Otto","birth_year":1911,"death_year":1974}],"translators":[],"subjects":["Miners -- Fiction","Saturn (Planet) -- Fiction","Science fiction","Short stories"],"bookshelves":[],"languages":["en"],"copyright":false,"media_type":"Text","formats":{"text/html":"https://www.gutenberg.org/ebooks/68700.html.images","application/epub+zip":"https://www.gutenberg.org/ebooks/68700.epub3.images","application/x-mobipocket-ebook":"https://www.gutenberg.org/ebooks/68700.kf8.images","text/plain; charset=us-ascii":"https://www.gutenberg.org/ebooks/68700.txt.utf-8","application/rdf+xml":"https://www.gutenberg.org/ebooks/68700.rdf","image/jpeg":"https://www.gutenberg.org/cache/epub/68700/pg68700.cover.medium.jpg","application/octet-stream":"https://www.gutenberg.org/files/68700/68700-0.zip"},"download_count":28},{"id":68715,"title":"Woman free","authors":[{"name":"Ethelmer, Ellis","birth_year":null,"death_year":null}],"translators":[],"subjects":["English poetry -- 19th century","Women -- History","Women -- Social conditions","Women -- Suffrage"],"bookshelves":[],"languages":["en"],"copyright":false,"media_type":"Text","formats":{"text/html":"https://www.gutenberg.org/ebooks/68715.html.images","application/epub+zip":"https://www.gutenberg.org/ebooks/68715.epub3.images","application/x-mobipocket-ebook":"https://www.gutenberg.org/ebooks/68715.kf8.images","text/plain; charset=us-ascii":"https://www.gutenberg.org/ebooks/68715.txt.utf-8","application/rdf+xml":"https://www.gutenberg.org/ebooks/68715.rdf","image/jpeg":"https://www.gutenberg.org/cache/epub/68715/pg68715.cover.medium.jpg","application/octet-stream":"https://www.gutenberg.org/files/68715/68715-0.zip"},"download_count":28},{"id":68727,"title":"The emerald of Catherine the Great","authors":[{"name":"Belloc, Hilaire","birth_year":1870,"death_year":1953}],"translators":[],"subjects":["English fiction -- 20th century"],"bookshelves":[],"languages":["en"],"copyright":false,"media_type":"Text","formats":{"text/html":"https://www.gutenberg.org/ebooks/68727.html.images","application/epub+zip":"https://www.gutenberg.org/ebooks/68727.epub3.images","application/x-mobipocket-ebook":"https://www.gutenberg.org/ebooks/68727.kf8.images","text/plain; charset=us-ascii":"https://www.gutenberg.org/ebooks/68727.txt.utf-8","application/rdf+xml":"https://www.gutenberg.org/ebooks/68727.rdf","image/jpeg":"https://www.gutenberg.org/cache/epub/68727/pg68727.cover.medium.jpg","application/octet-stream":"https://www.gutenberg.org/files/68727/68727-0.zip"},"download_count":28},{"id":68758,"title":"The fortunes of Fifi","authors":[{"name":"Seawell, Molly Elliot","birth_year":1860,"death_year":1916}],"translators":[],"subjects":["Actresses -- Fiction","France -- History -- Consulate and First Empire, 1799-1815 -- Fiction","Mate selection -- Fiction","Paris (France) -- Fiction"],"bookshelves":[],"languages":["en"],"copyright":false,"media_type":"Text","formats":{"text/html":"https://www.gutenberg.org/ebooks/68758.html.images","application/epub+zip":"https://www.gutenberg.org/ebooks/68758.epub3.images","application/x-mobipocket-ebook":"https://www.gutenberg.org/ebooks/68758.kf8.images","text/plain; charset=us-ascii":"https://www.gutenberg.org/ebooks/68758.txt.utf-8","application/rdf+xml":"https://www.gutenberg.org/ebooks/68758.rdf","image/jpeg":"https://www.gutenberg.org/cache/epub/68758/pg68758.cover.medium.jpg","application/octet-stream":"https://www.gutenberg.org/files/68758/68758-0.zip"},"download_count":28},{"id":68832,"title":"In self-defense","authors":[{"name":"Tuttle, W. C. (Wilbur C.)","birth_year":1883,"death_year":1969}],"translators":[],"subjects":["Cowboys -- Fiction","Man-woman relationships -- Fiction","Short stories","Western stories"],"bookshelves":[],"languages":["en"],"copyright":false,"media_type":"Text","formats":{"text/html":"https://www.gutenberg.org/ebooks/68832.html.images","application/epub+zip":"https://www.gutenberg.org/ebooks/68832.epub3.images","application/x-mobipocket-ebook":"https://www.gutenberg.org/ebooks/68832.kf8.images","text/plain; charset=us-ascii":"https://www.gutenberg.org/ebooks/68832.txt.utf-8","application/rdf+xml":"https://www.gutenberg.org/ebooks/68832.rdf","image/jpeg":"https://www.gutenberg.org/cache/epub/68832/pg68832.cover.medium.jpg","application/octet-stream":"https://www.gutenberg.org/files/68832/68832-0.zip"},"download_count":28},{"id":68906,"title":"Nearest the Pole: a narrative of the polar expedition of the Peary Arctic Club in the S.S. Roosevelt, 1905-1906","authors":[{"name":"Peary, Robert E. (Robert Edwin)","birth_year":1856,"death_year":1920}],"translators":[],"subjects":["Arctic regions"],"bookshelves":[],"languages":["en"],"copyright":false,"media_type":"Text","formats":{"text/html":"https://www.gutenberg.org/ebooks/68906.html.images","application/epub+zip":"https://www.gutenberg.org/ebooks/68906.epub3.images","application/x-mobipocket-ebook":"https://www.gutenberg.org/ebooks/68906.kf8.images","text/plain; charset=us-ascii":"https://www.gutenberg.org/ebooks/68906.txt.utf-8","application/rdf+xml":"https://www.gutenberg.org/ebooks/68906.rdf","image/jpeg":"https://www.gutenberg.org/cache/epub/68906/pg68906.cover.medium.jpg","application/octet-stream":"https://www.gutenberg.org/files/68906/68906-0.zip"},"download_count":28},{"id":68933,"title":"The Commune of London, and other studies","authors":[{"name":"Round, John Horace","birth_year":1854,"death_year":1928}],"translators":[],"subjects":["Great Britain -- History -- Norman period, 1066-1154","London (England) -- History -- To 1500"],"bookshelves":[],"languages":["en"],"copyright":false,"media_type":"Text","formats":{"text/html":"https://www.gutenberg.org/ebooks/68933.html.images","application/epub+zip":"https://www.gutenberg.org/ebooks/68933.epub3.images","application/x-mobipocket-ebook":"https://www.gutenberg.org/ebooks/68933.kf8.images","text/plain; charset=us-ascii":"https://www.gutenberg.org/ebooks/68933.txt.utf-8","application/rdf+xml":"https://www.gutenberg.org/ebooks/68933.rdf","image/jpeg":"https://www.gutenberg.org/cache/epub/68933/pg68933.cover.medium.jpg","application/octet-stream":"https://www.gutenberg.org/files/68933/68933-0.zip"},"download_count":28},{"id":68954,"title":"The Black Cat, Vol. I, No. 5, February 1896","authors":[{"name":"Various","birth_year":null,"death_year":null}],"translators":[],"subjects":["Short stories, American -- Periodicals"],"bookshelves":[],"languages":["en"],"copyright":false,"media_type":"Text","formats":{"text/html":"https://www.gutenberg.org/ebooks/68954.html.images","application/epub+zip":"https://www.gutenberg.org/ebooks/68954.epub3.images","application/x-mobipocket-ebook":"https://www.gutenberg.org/ebooks/68954.kf8.images","text/plain; charset=us-ascii":"https://www.gutenberg.org/ebooks/68954.txt.utf-8","application/rdf+xml":"https://www.gutenberg.org/ebooks/68954.rdf","image/jpeg":"https://www.gutenberg.org/cache/epub/68954/pg68954.cover.medium.jpg","application/octet-stream":"https://www.gutenberg.org/files/68954/68954-0.zip"},"download_count":28},{"id":69000,"title":"The private life of Henry Maitland: A record dictated by J. H.","authors":[{"name":"Roberts, Morley","birth_year":1857,"death_year":1942}],"translators":[],"subjects":["Gissing, George, 1857-1903"],"bookshelves":[],"languages":["en"],"copyright":false,"media_type":"Text","formats":{"text/html":"https://www.gutenberg.org/ebooks/69000.html.images","application/epub+zip":"https://www.gutenberg.org/ebooks/69000.epub3.images","application/x-mobipocket-ebook":"https://www.gutenberg.org/ebooks/69000.kf8.images","text/plain; charset=us-ascii":"https://www.gutenberg.org/ebooks/69000.txt.utf-8","application/rdf+xml":"https://www.gutenberg.org/ebooks/69000.rdf","image/jpeg":"https://www.gutenberg.org/cache/epub/69000/pg69000.cover.medium.jpg","application/octet-stream":"https://www.gutenberg.org/files/69000/69000-0.zip"},"download_count":28},{"id":69052,"title":"The ward of Tecumseh","authors":[{"name":"Marriott, Crittenden","birth_year":1867,"death_year":1932}],"translators":[],"subjects":["Indians of North America -- Wars, 1812-1815 -- Fiction","United States -- History -- War of 1812 -- Fiction"],"bookshelves":[],"languages":["en"],"copyright":false,"media_type":"Text","formats":{"text/html":"https://www.gutenberg.org/ebooks/69052.html.images","application/epub+zip":"https://www.gutenberg.org/ebooks/69052.epub3.images","application/x-mobipocket-ebook":"https://www.gutenberg.org/ebooks/69052.kf8.images","text/plain; charset=us-ascii":"https://www.gutenberg.org/ebooks/69052.txt.utf-8","application/rdf+xml":"https://www.gutenberg.org/ebooks/69052.rdf","image/jpeg":"https://www.gutenberg.org/cache/epub/69052/pg69052.cover.medium.jpg","application/octet-stream":"https://www.gutenberg.org/files/69052/69052-0.zip"},"download_count":28},{"id":69180,"title":"The cobbler of Nîmes","authors":[{"name":"Taylor, Mary Imlay","birth_year":1878,"death_year":1938}],"translators":[],"subjects":["France -- History -- Louis XIV, 1643-1715 -- Fiction","Huguenots -- Persecutions -- France -- Fiction","Shoemakers -- Fiction"],"bookshelves":[],"languages":["en"],"copyright":false,"media_type":"Text","formats":{"text/html":"https://www.gutenberg.org/ebooks/69180.html.images","application/epub+zip":"https://www.gutenberg.org/ebooks/69180.epub3.images","application/x-mobipocket-ebook":"https://www.gutenberg.org/ebooks/69180.kf8.images","text/plain; charset=us-ascii":"https://www.gutenberg.org/ebooks/69180.txt.utf-8","application/rdf+xml":"https://www.gutenberg.org/ebooks/69180.rdf","image/jpeg":"https://www.gutenberg.org/cache/epub/69180/pg69180.cover.medium.jpg","application/octet-stream":"https://www.gutenberg.org/files/69180/69180-0.zip"},"download_count":28},{"id":69210,"title":"Awakening","authors":[{"name":"Walton, Bryce","birth_year":1918,"death_year":1988}],"translators":[],"subjects":["Advertising -- Fiction","Man-woman relationships -- Fiction","Psychological fiction","Robots -- Fiction","Science fiction","Unrequited love -- Fiction"],"bookshelves":[],"languages":["en"],"copyright":false,"media_type":"Text","formats":{"text/html":"https://www.gutenberg.org/ebooks/69210.html.images","application/epub+zip":"https://www.gutenberg.org/ebooks/69210.epub3.images","application/x-mobipocket-ebook":"https://www.gutenberg.org/ebooks/69210.kf8.images","text/plain; charset=us-ascii":"https://www.gutenberg.org/ebooks/69210.txt.utf-8","application/rdf+xml":"https://www.gutenberg.org/ebooks/69210.rdf","image/jpeg":"https://www.gutenberg.org/cache/epub/69210/pg69210.cover.medium.jpg","application/octet-stream":"https://www.gutenberg.org/files/69210/69210-0.zip"},"download_count":28},{"id":69253,"title":"Signalling across space without wires: being a description of the work of Hertz & his successors","authors":[{"name":"Lodge, Oliver, Sir","birth_year":1851,"death_year":1940}],"translators":[],"subjects":["Electric waves","Telegraph, Wireless"],"bookshelves":[],"languages":["en"],"copyright":false,"media_type":"Text","formats":{"text/html":"https://www.gutenberg.org/ebooks/69253.html.images","application/epub+zip":"https://www.gutenberg.org/ebooks/69253.epub3.images","application/x-mobipocket-ebook":"https://www.gutenberg.org/ebooks/69253.kf8.images","text/plain; charset=us-ascii":"https://www.gutenberg.org/ebooks/69253.txt.utf-8","application/rdf+xml":"https://www.gutenberg.org/ebooks/69253.rdf","image/jpeg":"https://www.gutenberg.org/cache/epub/69253/pg69253.cover.medium.jpg","application/octet-stream":"https://www.gutenberg.org/files/69253/69253-0.zip"},"download_count":28},{"id":69257,"title":"Time out for redheads","authors":[{"name":"De Ford, Miriam Allen","birth_year":1888,"death_year":1975}],"translators":[],"subjects":["Science fiction","Short stories","Time travel -- Fiction"],"bookshelves":[],"languages":["en"],"copyright":false,"media_type":"Text","formats":{"text/html":"https://www.gutenberg.org/ebooks/69257.html.images","application/epub+zip":"https://www.gutenberg.org/ebooks/69257.epub3.images","application/x-mobipocket-ebook":"https://www.gutenberg.org/ebooks/69257.kf8.images","text/plain; charset=us-ascii":"https://www.gutenberg.org/ebooks/69257.txt.utf-8","application/rdf+xml":"https://www.gutenberg.org/ebooks/69257.rdf","image/jpeg":"https://www.gutenberg.org/cache/epub/69257/pg69257.cover.medium.jpg","application/octet-stream":"https://www.gutenberg.org/files/69257/69257-0.zip"},"download_count":28},{"id":69262,"title":"History for ready reference, Volume 4, Nicæa to Tunis","authors":[{"name":"Larned, J. N. (Josephus Nelson)","birth_year":1836,"death_year":1913}],"translators":[],"subjects":["History -- Dictionaries"],"bookshelves":[],"languages":["en"],"copyright":false,"media_type":"Text","formats":{"text/html":"https://www.gutenberg.org/ebooks/69262.html.images","application/epub+zip":"https://www.gutenberg.org/ebooks/69262.epub3.images","application/x-mobipocket-ebook":"https://www.gutenberg.org/ebooks/69262.kf8.images","text/plain; charset=us-ascii":"https://www.gutenberg.org/ebooks/69262.txt.utf-8","application/rdf+xml":"https://www.gutenberg.org/ebooks/69262.rdf","image/jpeg":"https://www.gutenberg.org/cache/epub/69262/pg69262.cover.medium.jpg","application/octet-stream":"https://www.gutenberg.org/files/69262/69262-0.zip"},"download_count":28},{"id":69291,"title":"Information please","authors":[{"name":"Whiteside, Stanley","birth_year":null,"death_year":null}],"translators":[],"subjects":["Artificial intelligence -- Fiction","Computers -- Fiction","Journalists -- Fiction","Politicians -- Fiction","Science fiction","Short stories"],"bookshelves":[],"languages":["en"],"copyright":false,"media_type":"Text","formats":{"text/html":"https://www.gutenberg.org/ebooks/69291.html.images","application/epub+zip":"https://www.gutenberg.org/ebooks/69291.epub3.images","application/x-mobipocket-ebook":"https://www.gutenberg.org/ebooks/69291.kf8.images","text/plain; charset=us-ascii":"https://www.gutenberg.org/ebooks/69291.txt.utf-8","application/rdf+xml":"https://www.gutenberg.org/ebooks/69291.rdf","image/jpeg":"https://www.gutenberg.org/cache/epub/69291/pg69291.cover.medium.jpg","application/octet-stream":"https://www.gutenberg.org/files/69291/69291-0.zip"},"download_count":28},{"id":69316,"title":"Letters of a Japanese schoolboy (\"Hashimura Togo\")","authors":[{"name":"Irwin, Wallace","birth_year":1876,"death_year":1959}],"translators":[],"subjects":["Epistolary fiction","Humorous stories","Japanese -- United States -- Fiction","United States -- Social life and customs -- 1865-1918 -- Fiction"],"bookshelves":[],"languages":["en"],"copyright":false,"media_type":"Text","formats":{"text/html":"https://www.gutenberg.org/ebooks/69316.html.images","application/epub+zip":"https://www.gutenberg.org/ebooks/69316.epub3.images","application/x-mobipocket-ebook":"https://www.gutenberg.org/ebooks/69316.kf8.images","text/plain; charset=us-ascii":"https://www.gutenberg.org/ebooks/69316.txt.utf-8","application/rdf+xml":"https://www.gutenberg.org/ebooks/69316.rdf","image/jpeg":"https://www.gutenberg.org/cache/epub/69316/pg69316.cover.medium.jpg","application/octet-stream":"https://www.gutenberg.org/files/69316/69316-0.zip"},"download_count":28},{"id":69333,"title":"1812: A tale of Cape Cod","authors":[{"name":"Fitzgerald, Michael","birth_year":1859,"death_year":1925}],"translators":[],"subjects":["Cape Cod (Mass.) -- Fiction","United States -- History -- War of 1812 -- Fiction"],"bookshelves":[],"languages":["en"],"copyright":false,"media_type":"Text","formats":{"text/html":"https://www.gutenberg.org/ebooks/69333.html.images","application/epub+zip":"https://www.gutenberg.org/ebooks/69333.epub3.images","application/x-mobipocket-ebook":"https://www.gutenberg.org/ebooks/69333.kf8.images","text/plain; charset=us-ascii":"https://www.gutenberg.org/ebooks/69333.txt.utf-8","application/rdf+xml":"https://www.gutenberg.org/ebooks/69333.rdf","image/jpeg":"https://www.gutenberg.org/cache/epub/69333/pg69333.cover.medium.jpg","application/octet-stream":"https://www.gutenberg.org/files/69333/69333-0.zip"},"download_count":28},{"id":69340,"title":"Sard Harker: A novel","authors":[{"name":"Masefield, John","birth_year":1878,"death_year":1967}],"translators":[],"subjects":["Adventure stories","Central America -- Fiction","Imaginary places -- Fiction","Love stories"],"bookshelves":[],"languages":["en"],"copyright":false,"media_type":"Text","formats":{"text/html":"https://www.gutenberg.org/ebooks/69340.html.images","application/epub+zip":"https://www.gutenberg.org/ebooks/69340.epub3.images","application/x-mobipocket-ebook":"https://www.gutenberg.org/ebooks/69340.kf8.images","text/plain; charset=us-ascii":"https://www.gutenberg.org/ebooks/69340.txt.utf-8","application/rdf+xml":"https://www.gutenberg.org/ebooks/69340.rdf","image/jpeg":"https://www.gutenberg.org/cache/epub/69340/pg69340.cover.medium.jpg","application/octet-stream":"https://www.gutenberg.org/files/69340/69340-0.zip"},"download_count":28},{"id":69342,"title":"Troubled Waters","authors":[{"name":"Raine, William MacLeod","birth_year":1871,"death_year":1954}],"translators":[],"subjects":["Fiction","Western stories"],"bookshelves":[],"languages":["en"],"copyright":false,"media_type":"Text","formats":{"text/html":"https://www.gutenberg.org/ebooks/69342.html.images","application/epub+zip":"https://www.gutenberg.org/ebooks/69342.epub3.images","application/x-mobipocket-ebook":"https://www.gutenberg.org/ebooks/69342.kf8.images","text/plain; charset=us-ascii":"https://www.gutenberg.org/ebooks/69342.txt.utf-8","application/rdf+xml":"https://www.gutenberg.org/ebooks/69342.rdf","image/jpeg":"https://www.gutenberg.org/cache/epub/69342/pg69342.cover.medium.jpg","application/octet-stream":"https://www.gutenberg.org/files/69342/69342-0.zip"},"download_count":28}]}