{"count":58808,"next":"http://129.241.150.113:8000/books/?languages=en&page=1543","previous":"http://129.241.150.113:8000/books/?languages=en&page=1541","results":[{"id":5528,"title":"The Bride of the Nile — Volume 12","authors":[{"name":"Ebers, Georg","birth_year":1837,"death_year":1898}],"translators":[{"name":"Bell, Clara","birth_year":1834,"death_year":1927}],"subjects":["Egypt -- History -- Fiction","German fiction -- Translations into English"],"bookshelves":["Historical Fiction"],"languages":["en"],"copyright":false,"media_type":"Text","formats":{"text/html":"https://www.gutenberg.org/ebooks/5528.html.images","application/epub+zip":"https://www.gutenberg.org/ebooks/5528.epub3.images","application/x-mobipocket-ebook":"https://www.gutenberg.org/ebooks/5528.kf8.images","text/plain; charset=us-ascii":"https://www.gutenberg.org/ebooks/5528.txt.utf-8","application/rdf+xml":"https://www.gutenberg.org/ebooks/5528.rdf","image/jpeg":"https://www.gutenberg.org/cache/epub/5528/pg5528.cover.medium.jpg","application/octet-stream":"https://www.gutenberg.org/cache/epub/5528/pg5528-h.zip"},"download_count":22},{"id":5559,"title":"Margery (Gred): A Tale Of Old Nuremberg — Volume 08","authors":[{"name":"Ebers, Georg","birth_year":1837,"death_year":1898}],"translators":[{"name":"Bell, Clara","birth_year":1834,"death_year":1927}],"subjects":["German fiction -- Translations into English","Nuremberg (Germany) -- Fiction"],"bookshelves":[],"languages":["en"],"copyright":false,"media_type":"Text","formats":{"text/html":"https://www.gutenberg.org/ebooks/5559.html.images","application/epub+zip":"https://www.gutenberg.org/ebooks/5559.epub3.images","application/x-mobipocket-ebook":"https://www.gutenberg.org/ebooks/5559.kf8.images","text/plain; charset=us-ascii":"https://www.gutenberg.org/ebooks/5559.txt.utf-8","application/rdf+xml":"https://www.gutenberg.org/ebooks/5559.rdf","image/jpeg":"https://www.gutenberg.org/cache/epub/5559/pg5559.cover.medium.jpg","application/octet-stream":"https://www.gutenberg.org/cache/epub/5559/pg5559-h.zip"},"download_count":22},{"id":5573,"title":"A Word, Only a Word — Volume 02","authors":[{"name":"Ebers, Georg","birth_year":1837,"death_year":1898}],"translators":[{"name":"Safford, Mary J.","birth_year":null,"death_year":null}],"subjects":["German fiction -- Translations into English","Netherlands -- History -- Eighty Years' War, 1568-1648 -- Fiction"],"bookshelves":[],"languages":["en"],"copyright":false,"media_type":"Text","formats":{"text/html":"https://www.gutenberg.org/ebooks/5573.html.images","application/epub+zip":"https://www.gutenberg.org/ebooks/5573.epub3.images","application/x-mobipocket-ebook":"https://www.gutenberg.org/ebooks/5573.kf8.images","text/plain; charset=us-ascii":"https://www.gutenberg.org/ebooks/5573.txt.utf-8","application/rdf+xml":"https://www.gutenberg.org/ebooks/5573.rdf","image/jpeg":"https://www.gutenberg.org/cache/epub/5573/pg5573.cover.medium.jpg","application/octet-stream":"https://www.gutenberg.org/cache/epub/5573/pg5573-h.zip"},"download_count":22},{"id":5730,"title":"Friends and Helpers","authors":[],"translators":[],"subjects":["Animal welfare","Animals -- Fiction"],"bookshelves":[],"languages":["en"],"copyright":false,"media_type":"Text","formats":{"text/html":"https://www.gutenberg.org/ebooks/5730.html.images","application/epub+zip":"https://www.gutenberg.org/ebooks/5730.epub3.images","application/x-mobipocket-ebook":"https://www.gutenberg.org/ebooks/5730.kf8.images","text/plain; charset=us-ascii":"https://www.gutenberg.org/ebooks/5730.txt.utf-8","application/rdf+xml":"https://www.gutenberg.org/ebooks/5730.rdf","image/jpeg":"https://www.gutenberg.org/cache/epub/5730/pg5730.cover.medium.jpg","application/octet-stream":"https://www.gutenberg.org/cache/epub/5730/pg5730-h.zip"},"download_count":22},{"id":5755,"title":"The Fool Errant: Being the Memoirs of Francis-Anthony Strelley, Esq., Citizen of Lucca","authors":[{"name":"Hewlett, Maurice","birth_year":1861,"death_year":1923}],"translators":[],"subjects":["Historical fiction"],"bookshelves":[],"languages":["en"],"copyright":false,"media_type":"Text","formats":{"text/html":"https://www.gutenberg.org/ebooks/5755.html.images","application/epub+zip":"https://www.gutenberg.org/ebooks/5755.epub3.images","application/x-mobipocket-ebook":"https://www.gutenberg.org/ebooks/5755.kf8.images","text/plain; charset=us-ascii":"https://www.gutenberg.org/ebooks/5755.txt.utf-8","application/rdf+xml":"https://www.gutenberg.org/ebooks/5755.rdf","image/jpeg":"https://www.gutenberg.org/cache/epub/5755/pg5755.cover.medium.jpg","application/octet-stream":"https://www.gutenberg.org/cache/epub/5755/pg5755-h.zip"},"download_count":22},{"id":5814,"title":"Following the Equator: A Journey Around the World. Part 7","authors":[{"name":"Twain, Mark","birth_year":1835,"death_year":1910}],"translators":[],"subjects":["Equator -- Description and travel","Twain, Mark, 1835-1910 -- Travel","Voyages around the world"],"bookshelves":[],"languages":["en"],"copyright":false,"media_type":"Text","formats":{"text/html":"https://www.gutenberg.org/ebooks/5814.html.images","text/html; charset=iso-8859-1":"https://www.gutenberg.org/files/5814/5814-h/5814-h.htm","application/epub+zip":"https://www.gutenberg.org/ebooks/5814.epub3.images","application/x-mobipocket-ebook":"https://www.gutenberg.org/ebooks/5814.kf8.images","text/plain; charset=us-ascii":"https://www.gutenberg.org/ebooks/5814.txt.utf-8","application/rdf+xml":"https://www.gutenberg.org/ebooks/5814.rdf","image/jpeg":"https://www.gutenberg.org/cache/epub/5814/pg5814.cover.medium.jpg","application/octet-stream":"https://www.gutenberg.org/cache/epub/5814/pg5814-h.zip"},"download_count":22},{"id":5828,"title":"In the Pecos Country","authors":[{"name":"Ellis, Edward Sylvester","birth_year":1840,"death_year":1916}],"translators":[],"subjects":["West (U.S.) -- Juvenile fiction"],"bookshelves":["Children's Fiction"],"languages":["en"],"copyright":false,"media_type":"Text","formats":{"text/html":"https://www.gutenberg.org/ebooks/5828.html.images","text/html; charset=utf-8":"https://www.gutenberg.org/files/5828/5828-h/5828-h.htm","application/epub+zip":"https://www.gutenberg.org/ebooks/5828.epub3.images","application/x-mobipocket-ebook":"https://www.gutenberg.org/ebooks/5828.kf8.images","text/plain; charset=us-ascii":"https://www.gutenberg.org/ebooks/5828.txt.utf-8","text/plain; charset=utf-8":"https://www.gutenberg.org/files/5828/5828-0.txt","application/rdf+xml":"https://www.gutenberg.org/ebooks/5828.rdf","image/jpeg":"https://www.gutenberg.org/cache/epub/5828/pg5828.cover.medium.jpg","application/octet-stream":"https://www.gutenberg.org/cache/epub/5828/pg5828-h.zip"},"download_count":22},{"id":5866,"title":"Yollop","authors":[{"name":"McCutcheon, George Barr","birth_year":1866,"death_year":1928}],"translators":[],"subjects":["Burglars -- Fiction","Crime -- Fiction","Jury -- Fiction","Reformers -- Fiction","Satire"],"bookshelves":[],"languages":["en"],"copyright":false,"media_type":"Text","formats":{"text/html":"https://www.gutenberg.org/ebooks/5866.html.images","application/epub+zip":"https://www.gutenberg.org/ebooks/5866.epub3.images","application/x-mobipocket-ebook":"https://www.gutenberg.org/ebooks/5866.kf8.images","text/plain; charset=us-ascii":"https://www.gutenberg.org/ebooks/5866.txt.utf-8","application/rdf+xml":"https://www.gutenberg.org/ebooks/5866.rdf","image/jpeg":"https://www.gutenberg.org/cache/epub/5866/pg5866.cover.medium.jpg","application/octet-stream":"https://www.gutenberg.org/files/5866/5866-h.zip"},"download_count":22},{"id":5890,"title":"Games for Hallow-e'en","authors":[{"name":"Blain, Mary E.","birth_year":1872,"death_year":null}],"translators":[],"subjects":["Games","Halloween"],"bookshelves":[],"languages":["en"],"copyright":false,"media_type":"Text","formats":{"text/html":"https://www.gutenberg.org/ebooks/5890.html.images","application/epub+zip":"https://www.gutenberg.org/ebooks/5890.epub3.images","application/x-mobipocket-ebook":"https://www.gutenberg.org/ebooks/5890.kf8.images","text/plain; charset=us-ascii":"https://www.gutenberg.org/ebooks/5890.txt.utf-8","application/rdf+xml":"https://www.gutenberg.org/ebooks/5890.rdf","image/jpeg":"https://www.gutenberg.org/cache/epub/5890/pg5890.cover.medium.jpg","application/octet-stream":"https://www.gutenberg.org/cache/epub/5890/pg5890-h.zip"},"download_count":22},{"id":5928,"title":"The History of Don Quixote, Volume 2, Part 25","authors":[{"name":"Cervantes Saavedra, Miguel de","birth_year":1547,"death_year":1616}],"translators":[{"name":"Ormsby, John","birth_year":1829,"death_year":1895}],"subjects":["Knights and knighthood -- Spain -- Fiction","Picaresque literature","Romances","Spain -- Social life and customs -- 16th century -- Fiction"],"bookshelves":[],"languages":["en"],"copyright":false,"media_type":"Text","formats":{"text/html":"https://www.gutenberg.org/ebooks/5928.html.images","text/html; charset=iso-8859-1":"https://www.gutenberg.org/files/5928/5928-h/5928-h.htm","application/epub+zip":"https://www.gutenberg.org/ebooks/5928.epub3.images","application/x-mobipocket-ebook":"https://www.gutenberg.org/ebooks/5928.kf8.images","text/plain; charset=us-ascii":"https://www.gutenberg.org/ebooks/5928.txt.utf-8","application/rdf+xml":"https://www.gutenberg.org/ebooks/5928.rdf","image/jpeg":"https://www.gutenberg.org/cache/epub/5928/pg5928.cover.medium.jpg","application/octet-stream":"https://www.gutenberg.org/cache/epub/5928/pg5928-h.zip"},"download_count":22},{"id":6007,"title":"The Two Sides of the Shield","authors":[{"name":"Yonge, Charlotte M. (Charlotte Mary)","birth_year":1823,"death_year":1901}],"translators":[],"subjects":["Domestic fiction","England -- Social life and customs -- 19th century -- Fiction"],"bookshelves":[],"languages":["en"],"copyright":false,"media_type":"Text","formats":{"text/html":"https://www.gutenberg.org/ebooks/6007.html.images","text/html; charset=utf-8":"https://www.gutenberg.org/files/6007/6007-h/6007-h.htm","application/epub+zip":"https://www.gutenberg.org/ebooks/6007.epub3.images","application/x-mobipocket-ebook":"https://www.gutenberg.org/ebooks/6007.kf8.images","text/plain; charset=us-ascii":"https://www.gutenberg.org/ebooks/6007.txt.utf-8","text/plain; charset=utf-8":"https://www.gutenberg.org/files/6007/6007-0.txt","application/rdf+xml":"https://www.gutenberg.org/ebooks/6007.rdf","image/jpeg":"https://www.gutenberg.org/cache/epub/6007/pg6007.cover.medium.jpg","application/octet-stream":"https://www.gutenberg.org/cache/epub/6007/pg6007-h.zip"},"download_count":22},{"id":6012,"title":"Charlemont; Or, The Pride of the Village. a Tale of Kentucky","authors":[{"name":"Simms, William Gilmore","birth_year":1806,"death_year":1870}],"translators":[],"subjects":["Kentucky -- Fiction"],"bookshelves":[],"languages":["en"],"copyright":false,"media_type":"Text","formats":{"text/html":"https://www.gutenberg.org/ebooks/6012.html.images","text/html; charset=utf-8":"https://www.gutenberg.org/files/6012/6012-h/6012-h.htm","application/epub+zip":"https://www.gutenberg.org/ebooks/6012.epub3.images","application/x-mobipocket-ebook":"https://www.gutenberg.org/ebooks/6012.kf8.images","text/plain; charset=us-ascii":"https://www.gutenberg.org/ebooks/6012.txt.utf-8","text/plain; charset=utf-8":"https://www.gutenberg.org/files/6012/6012-0.txt","application/rdf+xml":"https://www.gutenberg.org/ebooks/6012.rdf","image/jpeg":"https://www.gutenberg.org/cache/epub/6012/pg6012.cover.medium.jpg","application/octet-stream":"https://www.gutenberg.org/cache/epub/6012/pg6012-h.zip"},"download_count":22},{"id":6058,"title":"Bricks Without Straw: A Novel","authors":[{"name":"Tourgée, Albion Winegar","birth_year":1838,"death_year":1905}],"translators":[],"subjects":["African Americans -- Southern States -- Fiction","Freed persons -- Southern States -- Fiction","Historical fiction","Reconstruction (U.S. history, 1865-1877) -- Fiction","Southern States -- Fiction"],"bookshelves":[],"languages":["en"],"copyright":false,"media_type":"Text","formats":{"text/html":"https://www.gutenberg.org/ebooks/6058.html.images","application/epub+zip":"https://www.gutenberg.org/ebooks/6058.epub3.images","application/x-mobipocket-ebook":"https://www.gutenberg.org/ebooks/6058.kf8.images","text/plain; charset=us-ascii":"https://www.gutenberg.org/ebooks/6058.txt.utf-8","application/rdf+xml":"https://www.gutenberg.org/ebooks/6058.rdf","image/jpeg":"https://www.gutenberg.org/cache/epub/6058/pg6058.cover.medium.jpg","application/octet-stream":"https://www.gutenberg.org/cache/epub/6058/pg6058-h.zip"},"download_count":22},{"id":6060,"title":"Philistia","authors":[{"name":"Allen, Grant","birth_year":1848,"death_year":1899}],"translators":[],"subjects":["Fiction"],"bookshelves":[],"languages":["en"],"copyright":false,"media_type":"Text","formats":{"text/html":"https://www.gutenberg.org/ebooks/6060.html.images","text/html; charset=utf-8":"https://www.gutenberg.org/files/6060/6060-h/6060-h.htm","application/epub+zip":"https://www.gutenberg.org/ebooks/6060.epub3.images","application/x-mobipocket-ebook":"https://www.gutenberg.org/ebooks/6060.kf8.images","text/plain; charset=us-ascii":"https://www.gutenberg.org/ebooks/6060.txt.utf-8","text/plain; charset=iso-8859-1":"https://www.gutenberg.org/files/6060/6060-8.txt","application/rdf+xml":"https://www.gutenberg.org/ebooks/6060.rdf","image/jpeg":"https://www.gutenberg.org/cache/epub/6060/pg6060.cover.medium.jpg","application/octet-stream":"https://www.gutenberg.org/cache/epub/6060/pg6060-h.zip"},"download_count":22},{"id":6143,"title":"Essays on Work and Culture","authors":[{"name":"Mabie, Hamilton Wright","birth_year":1846,"death_year":1916}],"translators":[],"subjects":["Conduct of life","Work"],"bookshelves":[],"languages":["en"],"copyright":false,"media_type":"Text","formats":{"text/html":"https://www.gutenberg.org/ebooks/6143.html.images","application/epub+zip":"https://www.gutenberg.org/ebooks/6143.epub3.images","application/x-mobipocket-ebook":"https://www.gutenberg.org/ebooks/6143.kf8.images","text/plain; charset=us-ascii":"https://www.gutenberg.org/ebooks/6143.txt.utf-8","application/rdf+xml":"https://www.gutenberg.org/ebooks/6143.rdf","image/jpeg":"https://www.gutenberg.org/cache/epub/6143/pg6143.cover.medium.jpg","application/octet-stream":"https://www.gutenberg.org/cache/epub/6143/pg6143-h.zip"},"download_count":22},{"id":6151,"title":"Athens: Its Rise and Fall, Book I","authors":[{"name":"Lytton, Edward Bulwer Lytton, Baron","birth_year":1803,"death_year":1873}],"translators":[],"subjects":["Athens (Greece) -- History"],"bookshelves":[],"languages":["en"],"copyright":false,"media_type":"Text","formats":{"text/html":"https://www.gutenberg.org/ebooks/6151.html.images","application/epub+zip":"https://www.gutenberg.org/ebooks/6151.epub3.images","application/x-mobipocket-ebook":"https://www.gutenberg.org/ebooks/6151.kf8.images","text/plain; charset=us-ascii":"https://www.gutenberg.org/ebooks/6151.txt.utf-8","application/rdf+xml":"https://www.gutenberg.org/ebooks/6151.rdf","image/jpeg":"https://www.gutenberg.org/cache/epub/6151/pg6151.cover.medium.jpg","application/octet-stream":"https://www.gutenberg.org/cache/epub/6151/pg6151-h.zip"},"download_count":22},{"id":6161,"title":"Copyright Renewals 1957","authors":[{"name":"Library of Congress. Copyright Office","birth_year":null,"death_year":null}],"translators":[],"subjects":["Copyright -- United States -- Catalogs"],"bookshelves":[],"languages":["en"],"copyright":false,"media_type":"Text","formats":{"text/html":"https://www.gutenberg.org/ebooks/6161.html.images","application/epub+zip":"https://www.gutenberg.org/ebooks/6161.epub3.images","application/x-mobipocket-ebook":"https://www.gutenberg.org/ebooks/6161.kf8.images","text/plain; charset=us-ascii":"https://www.gutenberg.org/ebooks/6161.txt.utf-8","application/rdf+xml":"https://www.gutenberg.org/ebooks/6161.rdf","image/jpeg":"https://www.gutenberg.org/cache/epub/6161/pg6161.cover.medium.jpg","application/octet-stream":"https://www.gutenberg.org/cache/epub/6161/pg6161-h.zip"},"download_count":22},{"id":6196,"title":"Cumner's Son and Other South Sea Folk — Volume 02","authors":[{"name":"Parker, Gilbert","birth_year":1862,"death_year":1932}],"translators":[],"subjects":["Oceania -- Fiction"],"bookshelves":[],"languages":["en"],"copyright":false,"media_type":"Text","formats":{"application/rdf+xml":"https://www.gutenberg.org/ebooks/6196.rdf","text/html":"https://www.gutenberg.org/ebooks/6196.html.images","application/epub+zip":"https://www.gutenberg.org/ebooks/6196.epub3.images","application/x-mobipocket-ebook":"https://www.gutenberg.org/ebooks/6196.kf8.images","text/plain; charset=us-ascii":"https://www.gutenberg.org/ebooks/6196.txt.utf-8","image/jpeg":"https://www.gutenberg.org/cache/epub/6196/pg6196.cover.medium.jpg","application/octet-stream":"https://www.gutenberg.org/cache/epub/6196/pg6196-h.zip"},"download_count":22},{"id":6210,"title":"The Trail of the Sword, Complete","authors":[{"name":"Parker, Gilbert","birth_year":1862,"death_year":1932}],"translators":[],"subjects":["Canada -- History -- To 1763 (New France) -- Fiction"],"bookshelves":[],"languages":["en"],"copyright":false,"media_type":"Text","formats":{"text/html":"https://www.gutenberg.org/ebooks/6210.html.images","text/html; charset=utf-8":"https://www.gutenberg.org/files/6210/6210-h/6210-h.htm","application/epub+zip":"https://www.gutenberg.org/ebooks/6210.epub3.images","application/x-mobipocket-ebook":"https://www.gutenberg.org/ebooks/6210.kf8.images","text/plain; charset=us-ascii":"https://www.gutenberg.org/ebooks/6210.txt.utf-8","text/plain; charset=utf-8":"https://www.gutenberg.org/files/6210/6210-0.txt","application/rdf+xml":"https://www.gutenberg.org/ebooks/6210.rdf","image/jpeg":"https://www.gutenberg.org/cache/epub/6210/pg6210.cover.medium.jpg","application/octet-stream":"https://www.gutenberg.org/cache/epub/6210/pg6210-h.zip"},"download_count":22},{"id":6211,"title":"The Translation of a Savage, Volume 1","authors":[{"name":"Parker, Gilbert","birth_year":1862,"death_year":1932}],"translators":[],"subjects":["England -- Social life and customs -- Fiction","Indians of North America -- Fiction","Married people -- Fiction"],"bookshelves":[],"languages":["en"],"copyright":false,"media_type":"Text","formats":{"text/html":"https://www.gutenberg.org/ebooks/6211.html.images","application/epub+zip":"https://www.gutenberg.org/ebooks/6211.epub3.images","application/x-mobipocket-ebook":"https://www.gutenberg.org/ebooks/6211.kf8.images","text/plain; charset=us-ascii":"https://www.gutenberg.org/ebooks/6211.txt.utf-8","application/rdf+xml":"https://www.gutenberg.org/ebooks/6211.rdf","image/jpeg":"https://www.gutenberg.org/cache/epub/6211/pg6211.cover.medium.jpg","application/octet-stream":"https://www.gutenberg.org/cache/epub/6211/pg6211-h.zip"},"download_count":22},{"id":6234,"title":"The Battle of the Strong: A Romance of Two Kingdoms — Volume 5","authors":[{"name":"Parker, Gilbert","birth_year":1862,"death_year":1932}],"translators":[],"subjects":["Anglo-French War, 1793-1802 -- Fiction","Channel Islands -- Fiction"],"bookshelves":["Bestsellers, American, 1895-1923"],"languages":["en"],"copyright":false,"media_type":"Text","formats":{"text/html":"https://www.gutenberg.org/ebooks/6234.html.images","application/epub+zip":"https://www.gutenberg.org/ebooks/6234.epub3.images","application/x-mobipocket-ebook":"https://www.gutenberg.org/ebooks/6234.kf8.images","text/plain; charset=us-ascii":"https://www.gutenberg.org/ebooks/6234.txt.utf-8","application/rdf+xml":"https://www.gutenberg.org/ebooks/6234.rdf","image/jpeg":"https://www.gutenberg.org/cache/epub/6234/pg6234.cover.medium.jpg","application/octet-stream":"https://www.gutenberg.org/cache/epub/6234/pg6234-h.zip"},"download_count":22},{"id":6247,"title":"The Right of Way — Volume 05","authors":[{"name":"Parker, Gilbert","birth_year":1862,"death_year":1932}],"translators":[],"subjects":["Canadian fiction"],"bookshelves":["Bestsellers, American, 1895-1923"],"languages":["en"],"copyright":false,"media_type":"Text","formats":{"text/html":"https://www.gutenberg.org/ebooks/6247.html.images","application/epub+zip":"https://www.gutenberg.org/ebooks/6247.epub3.images","application/x-mobipocket-ebook":"https://www.gutenberg.org/ebooks/6247.kf8.images","text/plain; charset=us-ascii":"https://www.gutenberg.org/ebooks/6247.txt.utf-8","application/rdf+xml":"https://www.gutenberg.org/ebooks/6247.rdf","image/jpeg":"https://www.gutenberg.org/cache/epub/6247/pg6247.cover.medium.jpg","application/octet-stream":"https://www.gutenberg.org/cache/epub/6247/pg6247-h.zip"},"download_count":22},{"id":6262,"title":"The Weavers: a tale of England and Egypt of fifty years ago - Volume 2","authors":[{"name":"Parker, Gilbert","birth_year":1862,"death_year":1932}],"translators":[],"subjects":["Society of Friends -- Fiction"],"bookshelves":["Bestsellers, American, 1895-1923"],"languages":["en"],"copyright":false,"media_type":"Text","formats":{"text/html":"https://www.gutenberg.org/ebooks/6262.html.images","application/epub+zip":"https://www.gutenberg.org/ebooks/6262.epub3.images","application/x-mobipocket-ebook":"https://www.gutenberg.org/ebooks/6262.kf8.images","text/plain; charset=us-ascii":"https://www.gutenberg.org/ebooks/6262.txt.utf-8","application/rdf+xml":"https://www.gutenberg.org/ebooks/6262.rdf","image/jpeg":"https://www.gutenberg.org/cache/epub/6262/pg6262.cover.medium.jpg","application/octet-stream":"https://www.gutenberg.org/cache/epub/6262/pg6262-h.zip"},"download_count":22},{"id":6298,"title":"Carnac's Folly, Volume 3.","authors":[{"name":"Parker, Gilbert","birth_year":1862,"death_year":1932}],"translators":[],"subjects":["Fiction"],"bookshelves":[],"languages":["en"],"copyright":false,"media_type":"Text","formats":{"text/html":"https://www.gutenberg.org/ebooks/6298.html.images","application/epub+zip":"https://www.gutenberg.org/ebooks/6298.epub3.images","application/x-mobipocket-ebook":"https://www.gutenberg.org/ebooks/6298.kf8.images","text/plain; charset=us-ascii":"https://www.gutenberg.org/ebooks/6298.txt.utf-8","application/rdf+xml":"https://www.gutenberg.org/ebooks/6298.rdf","image/jpeg":"https://www.gutenberg.org/cache/epub/6298/pg6298.cover.medium.jpg","application/octet-stream":"https://www.gutenberg.org/cache/epub/6298/pg6298-h.zip"},"download_count":22},{"id":6338,"title":"Boy Scouts in the Coal Caverns; Or, The Light in Tunnel Six","authors":[{"name":"Fletcher, Archibald Lee","birth_year":null,"death_year":null}],"translators":[],"subjects":["Boy Scouts -- Juvenile fiction","Coal mines and mining -- Juvenile fiction"],"bookshelves":["Children's Book Series"],"languages":["en"],"copyright":false,"media_type":"Text","formats":{"text/html":"https://www.gutenberg.org/ebooks/6338.html.images","application/epub+zip":"https://www.gutenberg.org/ebooks/6338.epub3.images","application/x-mobipocket-ebook":"https://www.gutenberg.org/ebooks/6338.kf8.images","text/plain; charset=us-ascii":"https://www.gutenberg.org/ebooks/6338.txt.utf-8","application/rdf+xml":"https://www.gutenberg.org/ebooks/6338.rdf","image/jpeg":"https://www.gutenberg.org/cache/epub/6338/pg6338.cover.medium.jpg","application/octet-stream":"https://www.gutenberg.org/cache/epub/6338/pg6338-h.zip"},"download_count":22},{"id":6345,"title":"Seven Maids of Far Cathay: Being English Notes From a Chinese Class Book","authors":[{"name":"Ledyard, Mary Forman","birth_year":1867,"death_year":null},{"name":"Mandall, Abertine D.","birth_year":null,"death_year":null}],"translators":[],"subjects":["Chinese in literature"],"bookshelves":[],"languages":["en"],"copyright":false,"media_type":"Text","formats":{"text/html":"https://www.gutenberg.org/ebooks/6345.html.images","application/epub+zip":"https://www.gutenberg.org/ebooks/6345.epub3.images","application/x-mobipocket-ebook":"https://www.gutenberg.org/ebooks/6345.kf8.images","text/plain; charset=us-ascii":"https://www.gutenberg.org/ebooks/6345.txt.utf-8","application/rdf+xml":"https://www.gutenberg.org/ebooks/6345.rdf","image/jpeg":"https://www.gutenberg.org/cache/epub/6345/pg6345.cover.medium.jpg","application/octet-stream":"https://www.gutenberg.org/cache/epub/6345/pg6345-h.zip"},"download_count":22},{"id":6368,"title":"Here, There and Everywhere","authors":[{"name":"Hamilton, Frederic, Lord","birth_year":1856,"death_year":1928}],"translators":[],"subjects":["Voyages and travels"],"bookshelves":[],"languages":["en"],"copyright":false,"media_type":"Text","formats":{"text/html":"https://www.gutenberg.org/ebooks/6368.html.images","application/epub+zip":"https://www.gutenberg.org/ebooks/6368.epub3.images","application/x-mobipocket-ebook":"https://www.gutenberg.org/ebooks/6368.kf8.images","text/plain; charset=us-ascii":"https://www.gutenberg.org/ebooks/6368.txt.utf-8","application/rdf+xml":"https://www.gutenberg.org/ebooks/6368.rdf","image/jpeg":"https://www.gutenberg.org/cache/epub/6368/pg6368.cover.medium.jpg","application/octet-stream":"https://www.gutenberg.org/cache/epub/6368/pg6368-h.zip"},"download_count":22},{"id":6468,"title":"On a Torn-Away World; Or, the Captives of the Great Earthquake","authors":[{"name":"Rockwood, Roy","birth_year":null,"death_year":null}],"translators":[],"subjects":["Science fiction"],"bookshelves":["Science Fiction"],"languages":["en"],"copyright":false,"media_type":"Text","formats":{"text/html":"https://www.gutenberg.org/ebooks/6468.html.images","application/epub+zip":"https://www.gutenberg.org/ebooks/6468.epub3.images","application/x-mobipocket-ebook":"https://www.gutenberg.org/ebooks/6468.kf8.images","text/plain; charset=us-ascii":"https://www.gutenberg.org/ebooks/6468.txt.utf-8","application/rdf+xml":"https://www.gutenberg.org/ebooks/6468.rdf","image/jpeg":"https://www.gutenberg.org/cache/epub/6468/pg6468.cover.medium.jpg","application/octet-stream":"https://www.gutenberg.org/cache/epub/6468/pg6468-h.zip"},"download_count":22},{"id":6472,"title":"On the Pampas; Or, The Young Settlers","authors":[{"name":"Henty, G. A. (George Alfred)","birth_year":1832,"death_year":1902}],"translators":[],"subjects":["Pampas (Argentina) -- Juvenile fiction"],"bookshelves":["Children's Fiction"],"languages":["en"],"copyright":false,"media_type":"Text","formats":{"text/html":"https://www.gutenberg.org/ebooks/6472.html.images","application/epub+zip":"https://www.gutenberg.org/ebooks/6472.epub3.images","application/x-mobipocket-ebook":"https://www.gutenberg.org/ebooks/6472.kf8.images","text/plain; charset=us-ascii":"https://www.gutenberg.org/ebooks/6472.txt.utf-8","application/rdf+xml":"https://www.gutenberg.org/ebooks/6472.rdf","image/jpeg":"https://www.gutenberg.org/cache/epub/6472/pg6472.cover.medium.jpg","application/octet-stream":"https://www.gutenberg.org/cache/epub/6472/pg6472-h.zip"},"download_count":22},{"id":6530,"title":"The Gospel of Mark for Readers","authors":[],"translators":[],"subjects":["Bible. Mark"],"bookshelves":[],"languages":["en"],"copyright":true,"media_type":"Text","formats":{"text/html":"https://www.gutenberg.org/ebooks/6530.html.images","application/epub+zip":"https://www.gutenberg.org/ebooks/6530.epub3.images","application/x-mobipocket-ebook":"https://www.gutenberg.org/ebooks/6530.kf8.images","text/plain; charset=us-ascii":"https://www.gutenberg.org/ebooks/6530.txt.utf-8","application/rdf+xml":"https://www.gutenberg.org/ebooks/6530.rdf","image/jpeg":"https://www.gutenberg.org/cache/epub/6530/pg6530.cover.medium.jpg","application/octet-stream":"https://www.gutenberg.org/cache/epub/6530/pg6530-h.zip"},"download_count":22},{"id":6533,"title":"A Connecticut Yankee in King Arthur's Court","authors":[{"name":"Twain, Mark","birth_year":1835,"death_year":1910}],"translators":[],"subjects":["Americans -- Great Britain -- Fiction","Arthurian romances -- Adaptations","Britons -- Fiction","Fantasy fiction","Kings and rulers -- Fiction","Knights and knighthood -- Fiction","Satire","Time travel -- Fiction"],"bookshelves":[],"languages":["en"],"copyright":true,"media_type":"Sound","formats":{"text/plain; charset=us-ascii":"https://www.gutenberg.org/files/6533/6533-readme.txt","text/html; charset=iso-8859-1":"https://www.gutenberg.org/files/6533/6533-index.htm","audio/mpeg":"https://www.gutenberg.org/files/6533/mp3/6533-000.mp3","application/rdf+xml":"https://www.gutenberg.org/ebooks/6533.rdf","application/octet-stream":"https://www.gutenberg.org/files/6533/6533-mp3.zip"},"download_count":22},{"id":6740,"title":"Don Garcia of Navarre; Or, the Jealous Prince. A Heroic Comedy in Five Acts.","authors":[{"name":"Molière","birth_year":1622,"death_year":1673}],"translators":[],"subjects":["French drama -- 17th century -- Translations into English","Molière, 1622-1673 -- Translations into English"],"bookshelves":[],"languages":["en"],"copyright":false,"media_type":"Text","formats":{"text/html":"https://www.gutenberg.org/ebooks/6740.html.images","application/epub+zip":"https://www.gutenberg.org/ebooks/6740.epub3.images","application/x-mobipocket-ebook":"https://www.gutenberg.org/ebooks/6740.kf8.images","text/plain; charset=us-ascii":"https://www.gutenberg.org/ebooks/6740.txt.utf-8","text/plain; charset=iso-8859-1":"https://www.gutenberg.org/files/6740/6740-8.txt","application/rdf+xml":"https://www.gutenberg.org/ebooks/6740.rdf","image/jpeg":"https://www.gutenberg.org/cache/epub/6740/pg6740.cover.medium.jpg","application/octet-stream":"https://www.gutenberg.org/cache/epub/6740/pg6740-h.zip"},"download_count":22}]}