{"count":58808,"next":"http://129.241.150.113:8000/books/?languages=en&page=1674","previous":"http://129.241.150.113:8000/books/?languages=en&page=1672","results":[{"id":66925,"title":"Lady Rum-Di-Doodle-Dum's Children","authors":[{"name":"Dickson, Samuel Benjamin","birth_year":1889,"death_year":null}],"translators":[],"subjects":["Children -- Juvenile fiction","Fairy tales","Families -- Juvenile fiction","Storytelling -- Juvenile fiction"],"bookshelves":[],"languages":["en"],"copyright":false,"media_type":"Text","formats":{"text/html":"https://www.gutenberg.org/ebooks/66925.html.images","application/epub+zip":"https://www.gutenberg.org/ebooks/66925.epub3.images","application/x-mobipocket-ebook":"https://www.gutenberg.org/ebooks/66925.kf8.images","text/plain; charset=us-ascii":"https://www.gutenberg.org/ebooks/66925.txt.utf-8","application/rdf+xml":"https://www.gutenberg.org/ebooks/66925.rdf","image/jpeg":"https://www.gutenberg.org/cache/epub/66925/pg66925.cover.medium.jpg","application/octet-stream":"https://www.gutenberg.org/files/66925/66925-0.zip"},"download_count":19},{"id":66934,"title":"The Yale Literary Magazine (Vol. I, No. 5, July 1836)","authors":[{"name":"Various","birth_year":null,"death_year":null}],"translators":[],"subjects":["College students' writings, American -- Connecticut -- New Haven -- Periodicals","Yale University -- Periodicals"],"bookshelves":[],"languages":["en"],"copyright":false,"media_type":"Text","formats":{"text/html":"https://www.gutenberg.org/ebooks/66934.html.images","application/epub+zip":"https://www.gutenberg.org/ebooks/66934.epub3.images","application/x-mobipocket-ebook":"https://www.gutenberg.org/ebooks/66934.kf8.images","text/plain; charset=us-ascii":"https://www.gutenberg.org/ebooks/66934.txt.utf-8","application/rdf+xml":"https://www.gutenberg.org/ebooks/66934.rdf","image/jpeg":"https://www.gutenberg.org/cache/epub/66934/pg66934.cover.medium.jpg","application/octet-stream":"https://www.gutenberg.org/files/66934/66934-0.zip"},"download_count":19},{"id":66958,"title":"The Last Fight of the Revenge","authors":[{"name":"Raleigh, Walter","birth_year":null,"death_year":1618}],"translators":[],"subjects":["Flores, Battle of, Azores, 1591","Great Britain -- History, Naval -- Tudors, 1485-1603","Grenville, Richard, Sir, 1541?-1591","Revenge (Galleon)"],"bookshelves":[],"languages":["en"],"copyright":false,"media_type":"Text","formats":{"text/html":"https://www.gutenberg.org/ebooks/66958.html.images","application/epub+zip":"https://www.gutenberg.org/ebooks/66958.epub3.images","application/x-mobipocket-ebook":"https://www.gutenberg.org/ebooks/66958.kf8.images","text/plain; charset=us-ascii":"https://www.gutenberg.org/ebooks/66958.txt.utf-8","application/rdf+xml":"https://www.gutenberg.org/ebooks/66958.rdf","image/jpeg":"https://www.gutenberg.org/cache/epub/66958/pg66958.cover.medium.jpg","application/octet-stream":"https://www.gutenberg.org/files/66958/66958-0.zip"},"download_count":19},{"id":66964,"title":"An elegy written among the ruins of an abbey","authors":[{"name":"Jerningham, Mr. (Edward)","birth_year":null,"death_year":1812}],"translators":[],"subjects":["Elegiac poetry, English","English poetry -- 18th century"],"bookshelves":[],"languages":["en"],"copyright":false,"media_type":"Text","formats":{"text/html":"https://www.gutenberg.org/ebooks/66964.html.images","application/epub+zip":"https://www.gutenberg.org/ebooks/66964.epub3.images","application/x-mobipocket-ebook":"https://www.gutenberg.org/ebooks/66964.kf8.images","text/plain; charset=us-ascii":"https://www.gutenberg.org/ebooks/66964.txt.utf-8","application/rdf+xml":"https://www.gutenberg.org/ebooks/66964.rdf","image/jpeg":"https://www.gutenberg.org/cache/epub/66964/pg66964.cover.medium.jpg","application/octet-stream":"https://www.gutenberg.org/files/66964/66964-0.zip"},"download_count":19},{"id":67021,"title":"The Sabbath: A Sermon","authors":[{"name":"Warton, John","birth_year":1770,"death_year":1841}],"translators":[],"subjects":["Church of England -- Sermons -- 19th century","Sabbath"],"bookshelves":[],"languages":["en"],"copyright":false,"media_type":"Text","formats":{"text/html":"https://www.gutenberg.org/ebooks/67021.html.images","application/epub+zip":"https://www.gutenberg.org/ebooks/67021.epub3.images","application/x-mobipocket-ebook":"https://www.gutenberg.org/ebooks/67021.kf8.images","text/plain; charset=us-ascii":"https://www.gutenberg.org/ebooks/67021.txt.utf-8","application/rdf+xml":"https://www.gutenberg.org/ebooks/67021.rdf","image/jpeg":"https://www.gutenberg.org/cache/epub/67021/pg67021.cover.medium.jpg","application/octet-stream":"https://www.gutenberg.org/files/67021/67021-0.zip"},"download_count":19},{"id":67031,"title":"A Letter to the Parishioners of Fulham","authors":[{"name":"Baker, R. G. (Robert George)","birth_year":1788,"death_year":1878}],"translators":[],"subjects":["Cholera -- Prevention","Fulham (London, England)","Housing -- England -- London","Poor -- England -- London","Working class -- Dwellings","Working class -- England -- London"],"bookshelves":[],"languages":["en"],"copyright":false,"media_type":"Text","formats":{"text/html":"https://www.gutenberg.org/ebooks/67031.html.images","application/epub+zip":"https://www.gutenberg.org/ebooks/67031.epub3.images","application/x-mobipocket-ebook":"https://www.gutenberg.org/ebooks/67031.kf8.images","text/plain; charset=us-ascii":"https://www.gutenberg.org/ebooks/67031.txt.utf-8","application/rdf+xml":"https://www.gutenberg.org/ebooks/67031.rdf","image/jpeg":"https://www.gutenberg.org/cache/epub/67031/pg67031.cover.medium.jpg","application/octet-stream":"https://www.gutenberg.org/files/67031/67031-0.zip"},"download_count":19},{"id":67075,"title":"A Whirl Asunder","authors":[{"name":"Atherton, Gertrude Franklin Horn","birth_year":1857,"death_year":1948}],"translators":[],"subjects":["Betrothal -- Fiction","California -- Social life and customs -- 19th century -- Fiction","Man-woman relationships -- Fiction","Triangles (Interpersonal relations) -- Fiction"],"bookshelves":[],"languages":["en"],"copyright":false,"media_type":"Text","formats":{"text/html":"https://www.gutenberg.org/ebooks/67075.html.images","application/epub+zip":"https://www.gutenberg.org/ebooks/67075.epub3.images","application/x-mobipocket-ebook":"https://www.gutenberg.org/ebooks/67075.kf8.images","text/plain; charset=us-ascii":"https://www.gutenberg.org/ebooks/67075.txt.utf-8","application/rdf+xml":"https://www.gutenberg.org/ebooks/67075.rdf","image/jpeg":"https://www.gutenberg.org/cache/epub/67075/pg67075.cover.medium.jpg","application/octet-stream":"https://www.gutenberg.org/files/67075/67075-0.zip"},"download_count":19},{"id":67103,"title":"From the Trenches: Louvain to the Aisne, the First Record of an Eye-Witness","authors":[{"name":"Young, Geoffrey Winthrop","birth_year":1876,"death_year":1958}],"translators":[],"subjects":["World War, 1914-1918 -- Personal narratives"],"bookshelves":[],"languages":["en"],"copyright":false,"media_type":"Text","formats":{"text/html":"https://www.gutenberg.org/ebooks/67103.html.images","application/epub+zip":"https://www.gutenberg.org/ebooks/67103.epub3.images","application/x-mobipocket-ebook":"https://www.gutenberg.org/ebooks/67103.kf8.images","text/plain; charset=us-ascii":"https://www.gutenberg.org/ebooks/67103.txt.utf-8","application/rdf+xml":"https://www.gutenberg.org/ebooks/67103.rdf","image/jpeg":"https://www.gutenberg.org/cache/epub/67103/pg67103.cover.medium.jpg","application/octet-stream":"https://www.gutenberg.org/files/67103/67103-0.zip"},"download_count":19},{"id":67144,"title":"The Hole Book","authors":[{"name":"Newell, Peter","birth_year":1862,"death_year":1924}],"translators":[],"subjects":["Bullets -- Juvenile poetry","Firearms -- Juvenile poetry","Holes -- Juvenile poetry","Humorous poetry","Stories in rhyme","Wit and humor, Juvenile"],"bookshelves":[],"languages":["en"],"copyright":false,"media_type":"Text","formats":{"text/html":"https://www.gutenberg.org/ebooks/67144.html.images","application/epub+zip":"https://www.gutenberg.org/ebooks/67144.epub3.images","application/x-mobipocket-ebook":"https://www.gutenberg.org/ebooks/67144.kf8.images","text/plain; charset=us-ascii":"https://www.gutenberg.org/ebooks/67144.txt.utf-8","application/rdf+xml":"https://www.gutenberg.org/ebooks/67144.rdf","image/jpeg":"https://www.gutenberg.org/cache/epub/67144/pg67144.cover.medium.jpg","application/octet-stream":"https://www.gutenberg.org/files/67144/67144-0.zip"},"download_count":19},{"id":67150,"title":"\"Bobbie\", a Story of the Confederacy","authors":[{"name":"Bosher, Kate Langley","birth_year":1865,"death_year":1932}],"translators":[],"subjects":["Southern States -- Fiction","United States -- History -- Civil War, 1861-1865 -- Fiction"],"bookshelves":[],"languages":["en"],"copyright":false,"media_type":"Text","formats":{"text/html":"https://www.gutenberg.org/ebooks/67150.html.images","application/epub+zip":"https://www.gutenberg.org/ebooks/67150.epub3.images","application/x-mobipocket-ebook":"https://www.gutenberg.org/ebooks/67150.kf8.images","text/plain; charset=us-ascii":"https://www.gutenberg.org/ebooks/67150.txt.utf-8","application/rdf+xml":"https://www.gutenberg.org/ebooks/67150.rdf","image/jpeg":"https://www.gutenberg.org/cache/epub/67150/pg67150.cover.medium.jpg","application/octet-stream":"https://www.gutenberg.org/files/67150/67150-0.zip"},"download_count":19},{"id":67204,"title":"The Memoirs of a Failure: with an Account of the Man and His Manuscript","authors":[{"name":"Kittredge, Daniel Wright","birth_year":1879,"death_year":1958}],"translators":[],"subjects":["Failure (Psychology) -- Fiction","Harvard University -- Fiction","University of Virginia -- Fiction"],"bookshelves":[],"languages":["en"],"copyright":false,"media_type":"Text","formats":{"text/html":"https://www.gutenberg.org/ebooks/67204.html.images","application/epub+zip":"https://www.gutenberg.org/ebooks/67204.epub3.images","application/x-mobipocket-ebook":"https://www.gutenberg.org/ebooks/67204.kf8.images","text/plain; charset=us-ascii":"https://www.gutenberg.org/ebooks/67204.txt.utf-8","application/rdf+xml":"https://www.gutenberg.org/ebooks/67204.rdf","image/jpeg":"https://www.gutenberg.org/cache/epub/67204/pg67204.cover.medium.jpg","application/octet-stream":"https://www.gutenberg.org/files/67204/67204-0.zip"},"download_count":19},{"id":67229,"title":"An Art Shop in Greenwich Village","authors":[{"name":"Cummings, Ray","birth_year":1887,"death_year":1957}],"translators":[],"subjects":["Art dealers -- Fiction","Greenwich Village (New York, N.Y.) -- Fiction","Short stories"],"bookshelves":[],"languages":["en"],"copyright":false,"media_type":"Text","formats":{"text/html":"https://www.gutenberg.org/ebooks/67229.html.images","application/epub+zip":"https://www.gutenberg.org/ebooks/67229.epub3.images","application/x-mobipocket-ebook":"https://www.gutenberg.org/ebooks/67229.kf8.images","text/plain; charset=us-ascii":"https://www.gutenberg.org/ebooks/67229.txt.utf-8","application/rdf+xml":"https://www.gutenberg.org/ebooks/67229.rdf","image/jpeg":"https://www.gutenberg.org/cache/epub/67229/pg67229.cover.medium.jpg","application/octet-stream":"https://www.gutenberg.org/files/67229/67229-0.zip"},"download_count":19},{"id":67309,"title":"Elsie's Friends at Woodburn","authors":[{"name":"Finley, Martha","birth_year":1828,"death_year":1909}],"translators":[],"subjects":["Christian life -- Juvenile fiction","Dinsmore, Elsie (Fictitious character) -- Juvenile fiction","Families -- Juvenile fiction","Southern States -- History -- 1865-1877 -- Juvenile fiction"],"bookshelves":[],"languages":["en"],"copyright":false,"media_type":"Text","formats":{"text/html":"https://www.gutenberg.org/ebooks/67309.html.images","application/epub+zip":"https://www.gutenberg.org/ebooks/67309.epub3.images","application/x-mobipocket-ebook":"https://www.gutenberg.org/ebooks/67309.kf8.images","text/plain; charset=us-ascii":"https://www.gutenberg.org/ebooks/67309.txt.utf-8","application/rdf+xml":"https://www.gutenberg.org/ebooks/67309.rdf","image/jpeg":"https://www.gutenberg.org/cache/epub/67309/pg67309.cover.medium.jpg","application/octet-stream":"https://www.gutenberg.org/files/67309/67309-0.zip"},"download_count":19},{"id":67352,"title":"The congressman's wife, a story of American politics","authors":[{"name":"Barry, John D. (John Daniel)","birth_year":1866,"death_year":1942}],"translators":[],"subjects":["Legislators' spouses -- Fiction","Political fiction","Washington (D.C.) -- Fiction"],"bookshelves":[],"languages":["en"],"copyright":false,"media_type":"Text","formats":{"text/html":"https://www.gutenberg.org/ebooks/67352.html.images","application/epub+zip":"https://www.gutenberg.org/ebooks/67352.epub3.images","application/x-mobipocket-ebook":"https://www.gutenberg.org/ebooks/67352.kf8.images","text/plain; charset=us-ascii":"https://www.gutenberg.org/ebooks/67352.txt.utf-8","application/rdf+xml":"https://www.gutenberg.org/ebooks/67352.rdf","image/jpeg":"https://www.gutenberg.org/cache/epub/67352/pg67352.cover.medium.jpg","application/octet-stream":"https://www.gutenberg.org/files/67352/67352-0.zip"},"download_count":19},{"id":67378,"title":"John Solomon—Supercargo","authors":[{"name":"Bedford-Jones, H. (Henry)","birth_year":1887,"death_year":1949}],"translators":[],"subjects":["Adventure stories","Solomon, John (Fictitious character) -- Fiction"],"bookshelves":[],"languages":["en"],"copyright":false,"media_type":"Text","formats":{"text/html":"https://www.gutenberg.org/ebooks/67378.html.images","application/epub+zip":"https://www.gutenberg.org/ebooks/67378.epub3.images","application/x-mobipocket-ebook":"https://www.gutenberg.org/ebooks/67378.kf8.images","text/plain; charset=us-ascii":"https://www.gutenberg.org/ebooks/67378.txt.utf-8","application/rdf+xml":"https://www.gutenberg.org/ebooks/67378.rdf","image/jpeg":"https://www.gutenberg.org/cache/epub/67378/pg67378.cover.medium.jpg","application/octet-stream":"https://www.gutenberg.org/files/67378/67378-0.zip"},"download_count":19},{"id":67380,"title":"A Lucky Deal; or The 'Cutest Boy in Wall Street","authors":[{"name":"Self-made man","birth_year":1853,"death_year":1915}],"translators":[],"subjects":["Bildungsromans","Deals -- Fiction","Dime novels","Wall Street (New York, N.Y.) -- Fiction"],"bookshelves":[],"languages":["en"],"copyright":false,"media_type":"Text","formats":{"text/html":"https://www.gutenberg.org/ebooks/67380.html.images","application/epub+zip":"https://www.gutenberg.org/ebooks/67380.epub3.images","application/x-mobipocket-ebook":"https://www.gutenberg.org/ebooks/67380.kf8.images","text/plain; charset=us-ascii":"https://www.gutenberg.org/ebooks/67380.txt.utf-8","application/rdf+xml":"https://www.gutenberg.org/ebooks/67380.rdf","image/jpeg":"https://www.gutenberg.org/cache/epub/67380/pg67380.cover.medium.jpg","application/octet-stream":"https://www.gutenberg.org/files/67380/67380-0.zip"},"download_count":19},{"id":67410,"title":"Our Winnie, and The Little Match Girl","authors":[{"name":"Everett-Green, Evelyn","birth_year":1856,"death_year":1932}],"translators":[],"subjects":["Girls -- Conduct of life -- Juvenile fiction"],"bookshelves":[],"languages":["en"],"copyright":false,"media_type":"Text","formats":{"text/html":"https://www.gutenberg.org/ebooks/67410.html.images","application/epub+zip":"https://www.gutenberg.org/ebooks/67410.epub3.images","application/x-mobipocket-ebook":"https://www.gutenberg.org/ebooks/67410.kf8.images","text/plain; charset=us-ascii":"https://www.gutenberg.org/ebooks/67410.txt.utf-8","application/rdf+xml":"https://www.gutenberg.org/ebooks/67410.rdf","image/jpeg":"https://www.gutenberg.org/cache/epub/67410/pg67410.cover.medium.jpg","application/octet-stream":"https://www.gutenberg.org/files/67410/67410-0.zip"},"download_count":19},{"id":67429,"title":"The Thing Beyond Reason","authors":[{"name":"Holding, Elisabeth Sanxay","birth_year":1889,"death_year":1955}],"translators":[],"subjects":["Man-woman relationships -- Fiction","Missing persons -- Fiction","Mystery fiction","Young women -- Fiction"],"bookshelves":[],"languages":["en"],"copyright":false,"media_type":"Text","formats":{"text/html":"https://www.gutenberg.org/ebooks/67429.html.images","application/epub+zip":"https://www.gutenberg.org/ebooks/67429.epub3.images","application/x-mobipocket-ebook":"https://www.gutenberg.org/ebooks/67429.kf8.images","text/plain; charset=us-ascii":"https://www.gutenberg.org/ebooks/67429.txt.utf-8","application/rdf+xml":"https://www.gutenberg.org/ebooks/67429.rdf","image/jpeg":"https://www.gutenberg.org/cache/epub/67429/pg67429.cover.medium.jpg","application/octet-stream":"https://www.gutenberg.org/files/67429/67429-0.zip"},"download_count":19},{"id":67475,"title":"Where Stillwater Runs Deep","authors":[{"name":"Bower, B. M.","birth_year":1871,"death_year":1940}],"translators":[],"subjects":["Forest rangers -- Fiction","Montana -- Fiction","Western stories"],"bookshelves":[],"languages":["en"],"copyright":false,"media_type":"Text","formats":{"text/html":"https://www.gutenberg.org/ebooks/67475.html.images","application/epub+zip":"https://www.gutenberg.org/ebooks/67475.epub3.images","application/x-mobipocket-ebook":"https://www.gutenberg.org/ebooks/67475.kf8.images","text/plain; charset=us-ascii":"https://www.gutenberg.org/ebooks/67475.txt.utf-8","application/rdf+xml":"https://www.gutenberg.org/ebooks/67475.rdf","image/jpeg":"https://www.gutenberg.org/cache/epub/67475/pg67475.cover.medium.jpg","application/octet-stream":"https://www.gutenberg.org/files/67475/67475-0.zip"},"download_count":19},{"id":67478,"title":"A United States Midshipman in China","authors":[{"name":"Stirling, Yates","birth_year":1872,"death_year":1948}],"translators":[],"subjects":["China -- Juvenile fiction","United States. Navy -- Juvenile fiction"],"bookshelves":[],"languages":["en"],"copyright":false,"media_type":"Text","formats":{"text/html":"https://www.gutenberg.org/ebooks/67478.html.images","application/epub+zip":"https://www.gutenberg.org/ebooks/67478.epub3.images","application/x-mobipocket-ebook":"https://www.gutenberg.org/ebooks/67478.kf8.images","text/plain; charset=us-ascii":"https://www.gutenberg.org/ebooks/67478.txt.utf-8","application/rdf+xml":"https://www.gutenberg.org/ebooks/67478.rdf","image/jpeg":"https://www.gutenberg.org/cache/epub/67478/pg67478.cover.medium.jpg","application/octet-stream":"https://www.gutenberg.org/files/67478/67478-0.zip"},"download_count":19},{"id":67498,"title":"Round-Up Time","authors":[{"name":"Cohen, Chester","birth_year":null,"death_year":null}],"translators":[],"subjects":["Beggars -- Fiction","Human-alien encounters -- Fiction","Manhattan (New York, N.Y.) -- Fiction","Science fiction","Short stories"],"bookshelves":[],"languages":["en"],"copyright":false,"media_type":"Text","formats":{"text/html":"https://www.gutenberg.org/ebooks/67498.html.images","application/epub+zip":"https://www.gutenberg.org/ebooks/67498.epub3.images","application/x-mobipocket-ebook":"https://www.gutenberg.org/ebooks/67498.kf8.images","text/plain; charset=us-ascii":"https://www.gutenberg.org/ebooks/67498.txt.utf-8","application/rdf+xml":"https://www.gutenberg.org/ebooks/67498.rdf","image/jpeg":"https://www.gutenberg.org/cache/epub/67498/pg67498.cover.medium.jpg","application/octet-stream":"https://www.gutenberg.org/files/67498/67498-0.zip"},"download_count":19},{"id":67538,"title":"The Bee Keeper's Guide, Fourth Edition: Containing concise practical directions for the management of bees, upon the depriving system","authors":[{"name":"Payne, J. H.","birth_year":null,"death_year":null}],"translators":[],"subjects":["Bee culture","Bees"],"bookshelves":[],"languages":["en"],"copyright":false,"media_type":"Text","formats":{"text/html":"https://www.gutenberg.org/ebooks/67538.html.images","application/epub+zip":"https://www.gutenberg.org/ebooks/67538.epub3.images","application/x-mobipocket-ebook":"https://www.gutenberg.org/ebooks/67538.kf8.images","text/plain; charset=us-ascii":"https://www.gutenberg.org/ebooks/67538.txt.utf-8","application/rdf+xml":"https://www.gutenberg.org/ebooks/67538.rdf","image/jpeg":"https://www.gutenberg.org/cache/epub/67538/pg67538.cover.medium.jpg","application/octet-stream":"https://www.gutenberg.org/files/67538/67538-0.zip"},"download_count":19},{"id":67586,"title":"Martin Valliant","authors":[{"name":"Deeping, Warwick","birth_year":1877,"death_year":1950}],"translators":[],"subjects":["Great Britain -- History -- Richard III, 1483-1485 -- Fiction","Historical fiction","Monks -- Fiction","Romance fiction"],"bookshelves":[],"languages":["en"],"copyright":false,"media_type":"Text","formats":{"text/html":"https://www.gutenberg.org/ebooks/67586.html.images","application/epub+zip":"https://www.gutenberg.org/ebooks/67586.epub3.images","application/x-mobipocket-ebook":"https://www.gutenberg.org/ebooks/67586.kf8.images","text/plain; charset=us-ascii":"https://www.gutenberg.org/ebooks/67586.txt.utf-8","application/rdf+xml":"https://www.gutenberg.org/ebooks/67586.rdf","image/jpeg":"https://www.gutenberg.org/cache/epub/67586/pg67586.cover.medium.jpg","application/octet-stream":"https://www.gutenberg.org/files/67586/67586-0.zip"},"download_count":19},{"id":67613,"title":"The Story of Chalmers of New Guinea","authors":[{"name":"Kelman, Janet Harvey","birth_year":null,"death_year":null}],"translators":[],"subjects":["Chalmers, James, 1841-1901 -- Juvenile literature","Islands -- Juvenile literature","Missionaries -- Scotland -- Biography -- Juvenile literature","New Guinea -- Juvenile literature","Sailing -- Juvenile literature","Shipwrecks -- Juvenile literature","Voyages and travels -- Juvenile literature"],"bookshelves":[],"languages":["en"],"copyright":false,"media_type":"Text","formats":{"text/html":"https://www.gutenberg.org/ebooks/67613.html.images","application/epub+zip":"https://www.gutenberg.org/ebooks/67613.epub3.images","application/x-mobipocket-ebook":"https://www.gutenberg.org/ebooks/67613.kf8.images","text/plain; charset=us-ascii":"https://www.gutenberg.org/ebooks/67613.txt.utf-8","application/rdf+xml":"https://www.gutenberg.org/ebooks/67613.rdf","image/jpeg":"https://www.gutenberg.org/cache/epub/67613/pg67613.cover.medium.jpg","application/octet-stream":"https://www.gutenberg.org/files/67613/67613-0.zip"},"download_count":19},{"id":67714,"title":"Peru: a land of contrast","authors":[{"name":"Bingham, Millicent Todd","birth_year":1880,"death_year":1968}],"translators":[],"subjects":["Peru -- Description and travel"],"bookshelves":[],"languages":["en"],"copyright":false,"media_type":"Text","formats":{"text/html":"https://www.gutenberg.org/ebooks/67714.html.images","application/epub+zip":"https://www.gutenberg.org/ebooks/67714.epub3.images","application/x-mobipocket-ebook":"https://www.gutenberg.org/ebooks/67714.kf8.images","text/plain; charset=us-ascii":"https://www.gutenberg.org/ebooks/67714.txt.utf-8","application/rdf+xml":"https://www.gutenberg.org/ebooks/67714.rdf","image/jpeg":"https://www.gutenberg.org/cache/epub/67714/pg67714.cover.medium.jpg","application/octet-stream":"https://www.gutenberg.org/files/67714/67714-0.zip"},"download_count":19},{"id":67717,"title":"Bee-keeping for profit","authors":[{"name":"Morley, W. S.","birth_year":null,"death_year":null}],"translators":[],"subjects":["Bee culture","Bees"],"bookshelves":[],"languages":["en"],"copyright":false,"media_type":"Text","formats":{"text/html":"https://www.gutenberg.org/ebooks/67717.html.images","application/epub+zip":"https://www.gutenberg.org/ebooks/67717.epub3.images","application/x-mobipocket-ebook":"https://www.gutenberg.org/ebooks/67717.kf8.images","text/plain; charset=us-ascii":"https://www.gutenberg.org/ebooks/67717.txt.utf-8","application/rdf+xml":"https://www.gutenberg.org/ebooks/67717.rdf","image/jpeg":"https://www.gutenberg.org/cache/epub/67717/pg67717.cover.medium.jpg","application/octet-stream":"https://www.gutenberg.org/files/67717/67717-0.zip"},"download_count":19},{"id":67722,"title":"Condensed History of the Mexican War and Its Glorious Results","authors":[{"name":"Hungerford, Daniel E.","birth_year":null,"death_year":null},{"name":"McKay, William","birth_year":null,"death_year":null},{"name":"Murphy, Charles J. (Charles Joseph)","birth_year":1832,"death_year":null}],"translators":[],"subjects":["Mexican War, 1846-1848"],"bookshelves":[],"languages":["en"],"copyright":false,"media_type":"Text","formats":{"text/html":"https://www.gutenberg.org/ebooks/67722.html.images","application/epub+zip":"https://www.gutenberg.org/ebooks/67722.epub3.images","application/x-mobipocket-ebook":"https://www.gutenberg.org/ebooks/67722.kf8.images","text/plain; charset=us-ascii":"https://www.gutenberg.org/ebooks/67722.txt.utf-8","application/rdf+xml":"https://www.gutenberg.org/ebooks/67722.rdf","image/jpeg":"https://www.gutenberg.org/cache/epub/67722/pg67722.cover.medium.jpg","application/octet-stream":"https://www.gutenberg.org/files/67722/67722-0.zip"},"download_count":19},{"id":67764,"title":"Shepherds of the Wild","authors":[{"name":"Marshall, Edison","birth_year":1894,"death_year":1967}],"translators":[],"subjects":["Animals -- Fiction","Idaho -- Fiction","Shepherds -- Fiction","Young men -- Fiction"],"bookshelves":[],"languages":["en"],"copyright":false,"media_type":"Text","formats":{"text/html":"https://www.gutenberg.org/ebooks/67764.html.images","application/epub+zip":"https://www.gutenberg.org/ebooks/67764.epub3.images","application/x-mobipocket-ebook":"https://www.gutenberg.org/ebooks/67764.kf8.images","text/plain; charset=us-ascii":"https://www.gutenberg.org/ebooks/67764.txt.utf-8","application/rdf+xml":"https://www.gutenberg.org/ebooks/67764.rdf","image/jpeg":"https://www.gutenberg.org/cache/epub/67764/pg67764.cover.medium.jpg","application/octet-stream":"https://www.gutenberg.org/files/67764/67764-0.zip"},"download_count":19},{"id":67814,"title":"Mother Goose in Gridiron Rhyme: A collection of alphabets, rhymes, tales and jingles: With 80 illustrations","authors":[{"name":"Gridiron Club (Washington, D.C.)","birth_year":null,"death_year":null}],"translators":[],"subjects":["Alphabet rhymes","Mother Goose -- Parodies, imitations, etc.","United States -- History -- Caricatures and cartoons","United States -- History -- Humor","United States -- Politics and government -- 1909-1913"],"bookshelves":[],"languages":["en"],"copyright":false,"media_type":"Text","formats":{"text/html":"https://www.gutenberg.org/ebooks/67814.html.images","application/epub+zip":"https://www.gutenberg.org/ebooks/67814.epub3.images","application/x-mobipocket-ebook":"https://www.gutenberg.org/ebooks/67814.kf8.images","text/plain; charset=us-ascii":"https://www.gutenberg.org/ebooks/67814.txt.utf-8","application/rdf+xml":"https://www.gutenberg.org/ebooks/67814.rdf","image/jpeg":"https://www.gutenberg.org/cache/epub/67814/pg67814.cover.medium.jpg","application/octet-stream":"https://www.gutenberg.org/files/67814/67814-0.zip"},"download_count":19},{"id":67832,"title":"Autumnal leaves: tales and sketches in prose and rhyme","authors":[{"name":"Child, Lydia Maria","birth_year":1802,"death_year":1880}],"translators":[],"subjects":["American essays -- 19th century","American fiction -- 19th century","Short stories, American"],"bookshelves":[],"languages":["en"],"copyright":false,"media_type":"Text","formats":{"text/html":"https://www.gutenberg.org/ebooks/67832.html.images","application/epub+zip":"https://www.gutenberg.org/ebooks/67832.epub3.images","application/x-mobipocket-ebook":"https://www.gutenberg.org/ebooks/67832.kf8.images","text/plain; charset=us-ascii":"https://www.gutenberg.org/ebooks/67832.txt.utf-8","application/rdf+xml":"https://www.gutenberg.org/ebooks/67832.rdf","image/jpeg":"https://www.gutenberg.org/cache/epub/67832/pg67832.cover.medium.jpg","application/octet-stream":"https://www.gutenberg.org/files/67832/67832-0.zip"},"download_count":19},{"id":67865,"title":"The Samovar Girl","authors":[{"name":"Moore, Frederick Ferdinand","birth_year":1881,"death_year":1947}],"translators":[],"subjects":["Russia (Federation) -- History -- Revolution, 1917-1921 -- Fiction","Siberia (Russia) -- Fiction"],"bookshelves":[],"languages":["en"],"copyright":false,"media_type":"Text","formats":{"text/html":"https://www.gutenberg.org/ebooks/67865.html.images","application/epub+zip":"https://www.gutenberg.org/ebooks/67865.epub3.images","application/x-mobipocket-ebook":"https://www.gutenberg.org/ebooks/67865.kf8.images","text/plain; charset=us-ascii":"https://www.gutenberg.org/ebooks/67865.txt.utf-8","application/rdf+xml":"https://www.gutenberg.org/ebooks/67865.rdf","image/jpeg":"https://www.gutenberg.org/cache/epub/67865/pg67865.cover.medium.jpg","application/octet-stream":"https://www.gutenberg.org/files/67865/67865-0.zip"},"download_count":19},{"id":67892,"title":"Suggestions for the Prevention of Juvenile Depravity","authors":[{"name":"Rotch, Benjamin","birth_year":1793,"death_year":1854}],"translators":[],"subjects":["Crime prevention -- Great Britain -- History -- 19th century -- Sources","Juvenile delinquency -- England -- History -- 19th century -- Sources"],"bookshelves":[],"languages":["en"],"copyright":false,"media_type":"Text","formats":{"text/html":"https://www.gutenberg.org/ebooks/67892.html.images","application/epub+zip":"https://www.gutenberg.org/ebooks/67892.epub3.images","application/x-mobipocket-ebook":"https://www.gutenberg.org/ebooks/67892.kf8.images","text/plain; charset=us-ascii":"https://www.gutenberg.org/ebooks/67892.txt.utf-8","application/rdf+xml":"https://www.gutenberg.org/ebooks/67892.rdf","image/jpeg":"https://www.gutenberg.org/cache/epub/67892/pg67892.cover.medium.jpg","application/octet-stream":"https://www.gutenberg.org/files/67892/67892-0.zip"},"download_count":19}]}