{"count":58808,"next":"http://129.241.150.113:8000/books/?languages=en&page=1575","previous":"http://129.241.150.113:8000/books/?languages=en&page=1573","results":[{"id":67128,"title":"Black Hawk's Warpath","authors":[{"name":"Risteen, Herbert L.","birth_year":1899,"death_year":1984}],"translators":[],"subjects":["Black Hawk, Sauk chief, 1767-1838 -- Juvenile fiction"],"bookshelves":[],"languages":["en"],"copyright":false,"media_type":"Text","formats":{"text/html":"https://www.gutenberg.org/ebooks/67128.html.images","application/epub+zip":"https://www.gutenberg.org/ebooks/67128.epub3.images","application/x-mobipocket-ebook":"https://www.gutenberg.org/ebooks/67128.kf8.images","text/plain; charset=us-ascii":"https://www.gutenberg.org/ebooks/67128.txt.utf-8","application/rdf+xml":"https://www.gutenberg.org/ebooks/67128.rdf","image/jpeg":"https://www.gutenberg.org/cache/epub/67128/pg67128.cover.medium.jpg","application/octet-stream":"https://www.gutenberg.org/files/67128/67128-0.zip"},"download_count":22},{"id":67134,"title":"Dairy Disagreeables Busy the Bacteriologists","authors":[{"name":"Hall, Frank H. (Frank Henry)","birth_year":1866,"death_year":null},{"name":"Harding, Harry Alexis","birth_year":1871,"death_year":null},{"name":"Rogers, L. A. (Lore Alford)","birth_year":1875,"death_year":1975},{"name":"Smith, George A.","birth_year":null,"death_year":null}],"translators":[],"subjects":["Dairy microbiology"],"bookshelves":[],"languages":["en"],"copyright":false,"media_type":"Text","formats":{"text/html":"https://www.gutenberg.org/ebooks/67134.html.images","application/epub+zip":"https://www.gutenberg.org/ebooks/67134.epub3.images","application/x-mobipocket-ebook":"https://www.gutenberg.org/ebooks/67134.kf8.images","text/plain; charset=us-ascii":"https://www.gutenberg.org/ebooks/67134.txt.utf-8","application/rdf+xml":"https://www.gutenberg.org/ebooks/67134.rdf","image/jpeg":"https://www.gutenberg.org/cache/epub/67134/pg67134.cover.medium.jpg","application/octet-stream":"https://www.gutenberg.org/files/67134/67134-0.zip"},"download_count":22},{"id":67139,"title":"Shepherds for Science","authors":[{"name":"Tuttle, W. C. (Wilbur C.)","birth_year":1883,"death_year":1969}],"translators":[],"subjects":["Harper, Ike (Fictitious character) -- Fiction","Simpkins, Magpie (Fictitious character) -- Fiction","Western stories"],"bookshelves":[],"languages":["en"],"copyright":false,"media_type":"Text","formats":{"text/html":"https://www.gutenberg.org/ebooks/67139.html.images","application/epub+zip":"https://www.gutenberg.org/ebooks/67139.epub3.images","application/x-mobipocket-ebook":"https://www.gutenberg.org/ebooks/67139.kf8.images","text/plain; charset=us-ascii":"https://www.gutenberg.org/ebooks/67139.txt.utf-8","application/rdf+xml":"https://www.gutenberg.org/ebooks/67139.rdf","image/jpeg":"https://www.gutenberg.org/cache/epub/67139/pg67139.cover.medium.jpg","application/octet-stream":"https://www.gutenberg.org/files/67139/67139-0.zip"},"download_count":22},{"id":67201,"title":"More Beetles","authors":[{"name":"Fabre, Jean-Henri","birth_year":1823,"death_year":1915}],"translators":[{"name":"Teixeira de Mattos, Alexander","birth_year":1865,"death_year":1921}],"subjects":["Beetles"],"bookshelves":[],"languages":["en"],"copyright":false,"media_type":"Text","formats":{"text/html":"https://www.gutenberg.org/ebooks/67201.html.images","application/epub+zip":"https://www.gutenberg.org/ebooks/67201.epub3.images","application/x-mobipocket-ebook":"https://www.gutenberg.org/ebooks/67201.kf8.images","text/plain; charset=us-ascii":"https://www.gutenberg.org/ebooks/67201.txt.utf-8","application/rdf+xml":"https://www.gutenberg.org/ebooks/67201.rdf","image/jpeg":"https://www.gutenberg.org/cache/epub/67201/pg67201.cover.medium.jpg","application/octet-stream":"https://www.gutenberg.org/files/67201/67201-0.zip"},"download_count":22},{"id":67239,"title":"Reflections on the Music Life in the United States","authors":[{"name":"Sessions, Roger","birth_year":1896,"death_year":1985}],"translators":[],"subjects":["Music -- United States"],"bookshelves":[],"languages":["en"],"copyright":false,"media_type":"Text","formats":{"text/html":"https://www.gutenberg.org/ebooks/67239.html.images","application/epub+zip":"https://www.gutenberg.org/ebooks/67239.epub3.images","application/x-mobipocket-ebook":"https://www.gutenberg.org/ebooks/67239.kf8.images","text/plain; charset=us-ascii":"https://www.gutenberg.org/ebooks/67239.txt.utf-8","application/rdf+xml":"https://www.gutenberg.org/ebooks/67239.rdf","image/jpeg":"https://www.gutenberg.org/cache/epub/67239/pg67239.cover.medium.jpg","application/octet-stream":"https://www.gutenberg.org/files/67239/67239-0.zip"},"download_count":22},{"id":67280,"title":"The History of the Lady Betty Stair","authors":[{"name":"Seawell, Molly Elliot","birth_year":1860,"death_year":1916}],"translators":[],"subjects":["France -- Fiction","Man-woman relationships -- Fiction","Nobility -- Fiction","Nuns -- Fiction","Nurses -- Fiction","Scotland -- Fiction","Young women -- Fiction"],"bookshelves":[],"languages":["en"],"copyright":false,"media_type":"Text","formats":{"text/html":"https://www.gutenberg.org/ebooks/67280.html.images","application/epub+zip":"https://www.gutenberg.org/ebooks/67280.epub3.images","application/x-mobipocket-ebook":"https://www.gutenberg.org/ebooks/67280.kf8.images","text/plain; charset=us-ascii":"https://www.gutenberg.org/ebooks/67280.txt.utf-8","application/rdf+xml":"https://www.gutenberg.org/ebooks/67280.rdf","image/jpeg":"https://www.gutenberg.org/cache/epub/67280/pg67280.cover.medium.jpg","application/octet-stream":"https://www.gutenberg.org/files/67280/67280-0.zip"},"download_count":22},{"id":67389,"title":"Lives of the Founders of the British Museum, Part 1 of 2: With Notices of Its Chief Augmentors and Other Benefactors, 1570-1870.","authors":[{"name":"Edwards, Edward","birth_year":1812,"death_year":1886}],"translators":[],"subjects":["Book collectors -- Great Britain","British Museum"],"bookshelves":[],"languages":["en"],"copyright":false,"media_type":"Text","formats":{"text/html":"https://www.gutenberg.org/ebooks/67389.html.images","application/epub+zip":"https://www.gutenberg.org/ebooks/67389.epub3.images","application/x-mobipocket-ebook":"https://www.gutenberg.org/ebooks/67389.kf8.images","text/plain; charset=us-ascii":"https://www.gutenberg.org/ebooks/67389.txt.utf-8","application/rdf+xml":"https://www.gutenberg.org/ebooks/67389.rdf","image/jpeg":"https://www.gutenberg.org/cache/epub/67389/pg67389.cover.medium.jpg","application/octet-stream":"https://www.gutenberg.org/files/67389/67389-0.zip"},"download_count":22},{"id":67485,"title":"The Little Fig-tree Stories","authors":[{"name":"Foote, Mary Hallock","birth_year":1847,"death_year":1938}],"translators":[],"subjects":["Children -- Conduct of life -- Juvenile fiction","Children's stories","Conduct of life -- Juvenile fiction","Grandfathers -- Juvenile fiction","Parent and child -- Juvenile fiction"],"bookshelves":[],"languages":["en"],"copyright":false,"media_type":"Text","formats":{"text/html":"https://www.gutenberg.org/ebooks/67485.html.images","application/epub+zip":"https://www.gutenberg.org/ebooks/67485.epub3.images","application/x-mobipocket-ebook":"https://www.gutenberg.org/ebooks/67485.kf8.images","text/plain; charset=us-ascii":"https://www.gutenberg.org/ebooks/67485.txt.utf-8","application/rdf+xml":"https://www.gutenberg.org/ebooks/67485.rdf","image/jpeg":"https://www.gutenberg.org/cache/epub/67485/pg67485.cover.medium.jpg","application/octet-stream":"https://www.gutenberg.org/files/67485/67485-0.zip"},"download_count":22},{"id":67517,"title":"Apes and Monkeys: Their Life and Language","authors":[{"name":"Garner, R. L. (Richard Lynch)","birth_year":1848,"death_year":1920}],"translators":[],"subjects":["Apes","Monkeys","Sound production by animals","Speech"],"bookshelves":[],"languages":["en"],"copyright":false,"media_type":"Text","formats":{"text/html":"https://www.gutenberg.org/ebooks/67517.html.images","application/epub+zip":"https://www.gutenberg.org/ebooks/67517.epub3.images","application/x-mobipocket-ebook":"https://www.gutenberg.org/ebooks/67517.kf8.images","text/plain; charset=us-ascii":"https://www.gutenberg.org/ebooks/67517.txt.utf-8","application/rdf+xml":"https://www.gutenberg.org/ebooks/67517.rdf","image/jpeg":"https://www.gutenberg.org/cache/epub/67517/pg67517.cover.medium.jpg","application/octet-stream":"https://www.gutenberg.org/files/67517/67517-0.zip"},"download_count":22},{"id":67546,"title":"In the Name of a Woman: A Romance","authors":[{"name":"Marchmont, Arthur W.","birth_year":1852,"death_year":1923}],"translators":[],"subjects":["Romantic suspense fiction"],"bookshelves":[],"languages":["en"],"copyright":false,"media_type":"Text","formats":{"text/html":"https://www.gutenberg.org/ebooks/67546.html.images","application/epub+zip":"https://www.gutenberg.org/ebooks/67546.epub3.images","application/x-mobipocket-ebook":"https://www.gutenberg.org/ebooks/67546.kf8.images","text/plain; charset=us-ascii":"https://www.gutenberg.org/ebooks/67546.txt.utf-8","application/rdf+xml":"https://www.gutenberg.org/ebooks/67546.rdf","image/jpeg":"https://www.gutenberg.org/cache/epub/67546/pg67546.cover.medium.jpg","application/octet-stream":"https://www.gutenberg.org/files/67546/67546-0.zip"},"download_count":22},{"id":67554,"title":"History of the war in the Peninsula and in the south of France from the year 1807 to the year 1814, vol. 2","authors":[{"name":"Napier, William Francis Patrick","birth_year":1785,"death_year":1860}],"translators":[],"subjects":["Peninsular War, 1807-1814"],"bookshelves":[],"languages":["en"],"copyright":false,"media_type":"Text","formats":{"text/html":"https://www.gutenberg.org/ebooks/67554.html.images","application/epub+zip":"https://www.gutenberg.org/ebooks/67554.epub3.images","application/x-mobipocket-ebook":"https://www.gutenberg.org/ebooks/67554.kf8.images","text/plain; charset=us-ascii":"https://www.gutenberg.org/ebooks/67554.txt.utf-8","application/rdf+xml":"https://www.gutenberg.org/ebooks/67554.rdf","image/jpeg":"https://www.gutenberg.org/cache/epub/67554/pg67554.cover.medium.jpg","application/octet-stream":"https://www.gutenberg.org/files/67554/67554-0.zip"},"download_count":22},{"id":67564,"title":"Jerry Todd and the Talking Frog","authors":[{"name":"Edwards, Leo","birth_year":1884,"death_year":1944}],"translators":[],"subjects":["Boys -- Juvenile fiction","Detective and mystery stories","Illinois -- Juvenile fiction"],"bookshelves":[],"languages":["en"],"copyright":false,"media_type":"Text","formats":{"text/html":"https://www.gutenberg.org/ebooks/67564.html.images","application/epub+zip":"https://www.gutenberg.org/ebooks/67564.epub3.images","application/x-mobipocket-ebook":"https://www.gutenberg.org/ebooks/67564.kf8.images","text/plain; charset=us-ascii":"https://www.gutenberg.org/ebooks/67564.txt.utf-8","application/rdf+xml":"https://www.gutenberg.org/ebooks/67564.rdf","image/jpeg":"https://www.gutenberg.org/cache/epub/67564/pg67564.cover.medium.jpg","application/octet-stream":"https://www.gutenberg.org/files/67564/67564-0.zip"},"download_count":22},{"id":67598,"title":"The Trail of Death","authors":[{"name":"Bedford-Jones, H. (Henry)","birth_year":1887,"death_year":1949}],"translators":[],"subjects":["Adventure stories","Criminals -- Fiction"],"bookshelves":[],"languages":["en"],"copyright":false,"media_type":"Text","formats":{"text/html":"https://www.gutenberg.org/ebooks/67598.html.images","application/epub+zip":"https://www.gutenberg.org/ebooks/67598.epub3.images","application/x-mobipocket-ebook":"https://www.gutenberg.org/ebooks/67598.kf8.images","text/plain; charset=us-ascii":"https://www.gutenberg.org/ebooks/67598.txt.utf-8","application/rdf+xml":"https://www.gutenberg.org/ebooks/67598.rdf","image/jpeg":"https://www.gutenberg.org/cache/epub/67598/pg67598.cover.medium.jpg","application/octet-stream":"https://www.gutenberg.org/files/67598/67598-0.zip"},"download_count":22},{"id":67605,"title":"The Oak Shade, or, Records of a Village Literary Association","authors":[],"translators":[],"subjects":["American literature -- 19th century"],"bookshelves":[],"languages":["en"],"copyright":false,"media_type":"Text","formats":{"text/html":"https://www.gutenberg.org/ebooks/67605.html.images","application/epub+zip":"https://www.gutenberg.org/ebooks/67605.epub3.images","application/x-mobipocket-ebook":"https://www.gutenberg.org/ebooks/67605.kf8.images","text/plain; charset=us-ascii":"https://www.gutenberg.org/ebooks/67605.txt.utf-8","application/rdf+xml":"https://www.gutenberg.org/ebooks/67605.rdf","image/jpeg":"https://www.gutenberg.org/cache/epub/67605/pg67605.cover.medium.jpg","application/octet-stream":"https://www.gutenberg.org/files/67605/67605-0.zip"},"download_count":22},{"id":67607,"title":"In the Nursery: Happy Hours for the Little Ones","authors":[{"name":"Anonymous","birth_year":null,"death_year":null}],"translators":[],"subjects":["Children's stories"],"bookshelves":[],"languages":["en"],"copyright":false,"media_type":"Text","formats":{"text/html":"https://www.gutenberg.org/ebooks/67607.html.images","application/epub+zip":"https://www.gutenberg.org/ebooks/67607.epub3.images","application/x-mobipocket-ebook":"https://www.gutenberg.org/ebooks/67607.kf8.images","text/plain; charset=us-ascii":"https://www.gutenberg.org/ebooks/67607.txt.utf-8","application/rdf+xml":"https://www.gutenberg.org/ebooks/67607.rdf","image/jpeg":"https://www.gutenberg.org/cache/epub/67607/pg67607.cover.medium.jpg","application/octet-stream":"https://www.gutenberg.org/files/67607/67607-0.zip"},"download_count":22},{"id":67611,"title":"The Old Card","authors":[{"name":"Pertwee, Roland","birth_year":1885,"death_year":1963}],"translators":[],"subjects":["Actors -- Fiction","England -- Fiction","Theater -- Fiction"],"bookshelves":[],"languages":["en"],"copyright":false,"media_type":"Text","formats":{"text/html":"https://www.gutenberg.org/ebooks/67611.html.images","application/epub+zip":"https://www.gutenberg.org/ebooks/67611.epub3.images","application/x-mobipocket-ebook":"https://www.gutenberg.org/ebooks/67611.kf8.images","text/plain; charset=us-ascii":"https://www.gutenberg.org/ebooks/67611.txt.utf-8","application/rdf+xml":"https://www.gutenberg.org/ebooks/67611.rdf","image/jpeg":"https://www.gutenberg.org/cache/epub/67611/pg67611.cover.medium.jpg","application/octet-stream":"https://www.gutenberg.org/files/67611/67611-0.zip"},"download_count":22},{"id":67656,"title":"South-West Africa","authors":[{"name":"Eveleigh, William","birth_year":1882,"death_year":null}],"translators":[],"subjects":["Namibia"],"bookshelves":[],"languages":["en"],"copyright":false,"media_type":"Text","formats":{"text/html":"https://www.gutenberg.org/ebooks/67656.html.images","application/epub+zip":"https://www.gutenberg.org/ebooks/67656.epub3.images","application/x-mobipocket-ebook":"https://www.gutenberg.org/ebooks/67656.kf8.images","text/plain; charset=us-ascii":"https://www.gutenberg.org/ebooks/67656.txt.utf-8","application/rdf+xml":"https://www.gutenberg.org/ebooks/67656.rdf","image/jpeg":"https://www.gutenberg.org/cache/epub/67656/pg67656.cover.medium.jpg","application/octet-stream":"https://www.gutenberg.org/files/67656/67656-0.zip"},"download_count":22},{"id":67697,"title":"Tales from a Dugout","authors":[{"name":"Empey, Arthur Guy","birth_year":1883,"death_year":1963}],"translators":[],"subjects":["Short stories, American","War stories, American","World War, 1914-1918 -- Fiction"],"bookshelves":[],"languages":["en"],"copyright":false,"media_type":"Text","formats":{"text/html":"https://www.gutenberg.org/ebooks/67697.html.images","application/epub+zip":"https://www.gutenberg.org/ebooks/67697.epub3.images","application/x-mobipocket-ebook":"https://www.gutenberg.org/ebooks/67697.kf8.images","text/plain; charset=us-ascii":"https://www.gutenberg.org/ebooks/67697.txt.utf-8","application/rdf+xml":"https://www.gutenberg.org/ebooks/67697.rdf","image/jpeg":"https://www.gutenberg.org/cache/epub/67697/pg67697.cover.medium.jpg","application/octet-stream":"https://www.gutenberg.org/files/67697/67697-0.zip"},"download_count":22},{"id":67718,"title":"The Southern Literary Messenger, Vol. II., No. 2, January, 1836","authors":[{"name":"Various","birth_year":null,"death_year":null}],"translators":[],"subjects":["American literature -- 19th century -- Periodicals"],"bookshelves":[],"languages":["en"],"copyright":false,"media_type":"Text","formats":{"text/html":"https://www.gutenberg.org/ebooks/67718.html.images","application/epub+zip":"https://www.gutenberg.org/ebooks/67718.epub3.images","application/x-mobipocket-ebook":"https://www.gutenberg.org/ebooks/67718.kf8.images","text/plain; charset=us-ascii":"https://www.gutenberg.org/ebooks/67718.txt.utf-8","application/rdf+xml":"https://www.gutenberg.org/ebooks/67718.rdf","image/jpeg":"https://www.gutenberg.org/cache/epub/67718/pg67718.cover.medium.jpg","application/octet-stream":"https://www.gutenberg.org/files/67718/67718-0.zip"},"download_count":22},{"id":67721,"title":"Despotism and Democracy: A Study in Washington Society and Politics","authors":[{"name":"Seawell, Molly Elliot","birth_year":1860,"death_year":1916}],"translators":[],"subjects":["Political fiction","Washington (D.C.) -- Fiction"],"bookshelves":[],"languages":["en"],"copyright":false,"media_type":"Text","formats":{"text/html":"https://www.gutenberg.org/ebooks/67721.html.images","application/epub+zip":"https://www.gutenberg.org/ebooks/67721.epub3.images","application/x-mobipocket-ebook":"https://www.gutenberg.org/ebooks/67721.kf8.images","text/plain; charset=us-ascii":"https://www.gutenberg.org/ebooks/67721.txt.utf-8","application/rdf+xml":"https://www.gutenberg.org/ebooks/67721.rdf","image/jpeg":"https://www.gutenberg.org/cache/epub/67721/pg67721.cover.medium.jpg","application/octet-stream":"https://www.gutenberg.org/files/67721/67721-0.zip"},"download_count":22},{"id":67727,"title":"Ecclesiastical History of England, Volume 5—The Church of the Revolution","authors":[{"name":"Stoughton, John","birth_year":1807,"death_year":1897}],"translators":[],"subjects":["Great Britain -- Church history"],"bookshelves":[],"languages":["en"],"copyright":false,"media_type":"Text","formats":{"text/html":"https://www.gutenberg.org/ebooks/67727.html.images","application/epub+zip":"https://www.gutenberg.org/ebooks/67727.epub3.images","application/x-mobipocket-ebook":"https://www.gutenberg.org/ebooks/67727.kf8.images","text/plain; charset=us-ascii":"https://www.gutenberg.org/ebooks/67727.txt.utf-8","application/rdf+xml":"https://www.gutenberg.org/ebooks/67727.rdf","image/jpeg":"https://www.gutenberg.org/cache/epub/67727/pg67727.cover.medium.jpg","application/octet-stream":"https://www.gutenberg.org/files/67727/67727-0.zip"},"download_count":22},{"id":67821,"title":"Life of Emanuel Swedenborg: Together with a brief synopsis of his writings, both philosophical and theological","authors":[{"name":"White, William","birth_year":1831,"death_year":1890}],"translators":[],"subjects":["Mystics -- Sweden -- Biography","Swedenborg, Emanuel, 1688-1772"],"bookshelves":[],"languages":["en"],"copyright":false,"media_type":"Text","formats":{"text/html":"https://www.gutenberg.org/ebooks/67821.html.images","application/epub+zip":"https://www.gutenberg.org/ebooks/67821.epub3.images","application/x-mobipocket-ebook":"https://www.gutenberg.org/ebooks/67821.kf8.images","text/plain; charset=us-ascii":"https://www.gutenberg.org/ebooks/67821.txt.utf-8","application/rdf+xml":"https://www.gutenberg.org/ebooks/67821.rdf","image/jpeg":"https://www.gutenberg.org/cache/epub/67821/pg67821.cover.medium.jpg","application/octet-stream":"https://www.gutenberg.org/files/67821/67821-0.zip"},"download_count":22},{"id":67918,"title":"Little Pilgrim at Aunt Lou's","authors":[{"name":"Church, Ella Rodman","birth_year":1831,"death_year":null}],"translators":[],"subjects":["Children's stories","Farm life -- Juvenile fiction","Vacations -- Juvenile fiction"],"bookshelves":[],"languages":["en"],"copyright":false,"media_type":"Text","formats":{"text/html":"https://www.gutenberg.org/ebooks/67918.html.images","application/epub+zip":"https://www.gutenberg.org/ebooks/67918.epub3.images","application/x-mobipocket-ebook":"https://www.gutenberg.org/ebooks/67918.kf8.images","text/plain; charset=us-ascii":"https://www.gutenberg.org/ebooks/67918.txt.utf-8","application/rdf+xml":"https://www.gutenberg.org/ebooks/67918.rdf","image/jpeg":"https://www.gutenberg.org/cache/epub/67918/pg67918.cover.medium.jpg","application/octet-stream":"https://www.gutenberg.org/files/67918/67918-0.zip"},"download_count":22},{"id":67997,"title":"The Prodigal Pro Tem","authors":[{"name":"Bartlett, Frederick Orin","birth_year":1876,"death_year":1945}],"translators":[],"subjects":["Families -- Fiction","Impersonation -- Fiction","Interpersonal relations -- Fiction","Love stories","United States -- Social life and customs -- 20th century -- Fiction"],"bookshelves":[],"languages":["en"],"copyright":false,"media_type":"Text","formats":{"text/html":"https://www.gutenberg.org/ebooks/67997.html.images","application/epub+zip":"https://www.gutenberg.org/ebooks/67997.epub3.images","application/x-mobipocket-ebook":"https://www.gutenberg.org/ebooks/67997.kf8.images","text/plain; charset=us-ascii":"https://www.gutenberg.org/ebooks/67997.txt.utf-8","application/rdf+xml":"https://www.gutenberg.org/ebooks/67997.rdf","image/jpeg":"https://www.gutenberg.org/cache/epub/67997/pg67997.cover.medium.jpg","application/octet-stream":"https://www.gutenberg.org/files/67997/67997-0.zip"},"download_count":22},{"id":68002,"title":"Identity","authors":[{"name":"Smith, George O. (George Oliver)","birth_year":1911,"death_year":1981}],"translators":[],"subjects":["Identity -- Fiction","Man-woman relationships -- Fiction","Science fiction","Treasure troves -- Fiction","Twins -- Fiction"],"bookshelves":[],"languages":["en"],"copyright":false,"media_type":"Text","formats":{"text/html":"https://www.gutenberg.org/ebooks/68002.html.images","application/epub+zip":"https://www.gutenberg.org/ebooks/68002.epub3.images","application/x-mobipocket-ebook":"https://www.gutenberg.org/ebooks/68002.kf8.images","text/plain; charset=us-ascii":"https://www.gutenberg.org/ebooks/68002.txt.utf-8","application/rdf+xml":"https://www.gutenberg.org/ebooks/68002.rdf","image/jpeg":"https://www.gutenberg.org/cache/epub/68002/pg68002.cover.medium.jpg","application/octet-stream":"https://www.gutenberg.org/files/68002/68002-0.zip"},"download_count":22},{"id":68040,"title":"An open verdict : $b a novel, volume 3 (of 3)","authors":[{"name":"Braddon, M. E. (Mary Elizabeth)","birth_year":1835,"death_year":1915}],"translators":[],"subjects":["English fiction -- 19th century"],"bookshelves":[],"languages":["en"],"copyright":false,"media_type":"Text","formats":{"text/html":"https://www.gutenberg.org/ebooks/68040.html.images","application/epub+zip":"https://www.gutenberg.org/ebooks/68040.epub3.images","application/x-mobipocket-ebook":"https://www.gutenberg.org/ebooks/68040.kf8.images","text/plain; charset=us-ascii":"https://www.gutenberg.org/ebooks/68040.txt.utf-8","application/rdf+xml":"https://www.gutenberg.org/ebooks/68040.rdf","image/jpeg":"https://www.gutenberg.org/cache/epub/68040/pg68040.cover.medium.jpg","application/octet-stream":"https://www.gutenberg.org/files/68040/68040-0.zip"},"download_count":22},{"id":68046,"title":"The Yale Literary Magazine (Vol. LXXXVIII, No. 8, May 1923)","authors":[{"name":"Various","birth_year":null,"death_year":null}],"translators":[],"subjects":["College students' writings, American -- Connecticut -- New Haven -- Periodicals","Yale University -- Periodicals"],"bookshelves":[],"languages":["en"],"copyright":false,"media_type":"Text","formats":{"text/html":"https://www.gutenberg.org/ebooks/68046.html.images","application/epub+zip":"https://www.gutenberg.org/ebooks/68046.epub3.images","application/x-mobipocket-ebook":"https://www.gutenberg.org/ebooks/68046.kf8.images","text/plain; charset=us-ascii":"https://www.gutenberg.org/ebooks/68046.txt.utf-8","application/rdf+xml":"https://www.gutenberg.org/ebooks/68046.rdf","image/jpeg":"https://www.gutenberg.org/cache/epub/68046/pg68046.cover.medium.jpg","application/octet-stream":"https://www.gutenberg.org/files/68046/68046-0.zip"},"download_count":22},{"id":68099,"title":"Malthus and his work","authors":[{"name":"Bonar, James","birth_year":1852,"death_year":1941}],"translators":[],"subjects":["Malthus, T. R. (Thomas Robert), 1766-1834","Malthusianism"],"bookshelves":[],"languages":["en"],"copyright":false,"media_type":"Text","formats":{"text/html":"https://www.gutenberg.org/ebooks/68099.html.images","application/epub+zip":"https://www.gutenberg.org/ebooks/68099.epub3.images","application/x-mobipocket-ebook":"https://www.gutenberg.org/ebooks/68099.kf8.images","text/plain; charset=us-ascii":"https://www.gutenberg.org/ebooks/68099.txt.utf-8","application/rdf+xml":"https://www.gutenberg.org/ebooks/68099.rdf","image/jpeg":"https://www.gutenberg.org/cache/epub/68099/pg68099.cover.medium.jpg","application/octet-stream":"https://www.gutenberg.org/files/68099/68099-0.zip"},"download_count":22},{"id":68130,"title":"A handbook of library appliances: The technical equipment of libraries: fittings, furniture, charging systems, forms, recipes, etc.","authors":[{"name":"Brown, James Duff","birth_year":1862,"death_year":1914}],"translators":[],"subjects":["Library fittings and supplies"],"bookshelves":[],"languages":["en"],"copyright":false,"media_type":"Text","formats":{"text/html":"https://www.gutenberg.org/ebooks/68130.html.images","application/epub+zip":"https://www.gutenberg.org/ebooks/68130.epub3.images","application/x-mobipocket-ebook":"https://www.gutenberg.org/ebooks/68130.kf8.images","text/plain; charset=us-ascii":"https://www.gutenberg.org/ebooks/68130.txt.utf-8","application/rdf+xml":"https://www.gutenberg.org/ebooks/68130.rdf","image/jpeg":"https://www.gutenberg.org/cache/epub/68130/pg68130.cover.medium.jpg","application/octet-stream":"https://www.gutenberg.org/files/68130/68130-0.zip"},"download_count":22},{"id":68174,"title":"The Princess Athura: A romance of Iran","authors":[{"name":"Odell, Samuel W.","birth_year":1864,"death_year":1948}],"translators":[],"subjects":["Iran -- Fiction"],"bookshelves":[],"languages":["en"],"copyright":false,"media_type":"Text","formats":{"text/html":"https://www.gutenberg.org/ebooks/68174.html.images","application/epub+zip":"https://www.gutenberg.org/ebooks/68174.epub3.images","application/x-mobipocket-ebook":"https://www.gutenberg.org/ebooks/68174.kf8.images","text/plain; charset=us-ascii":"https://www.gutenberg.org/ebooks/68174.txt.utf-8","application/rdf+xml":"https://www.gutenberg.org/ebooks/68174.rdf","image/jpeg":"https://www.gutenberg.org/cache/epub/68174/pg68174.cover.medium.jpg","application/octet-stream":"https://www.gutenberg.org/files/68174/68174-0.zip"},"download_count":22},{"id":68181,"title":"Address of President Roosevelt at St. Louis, Missouri, October 2, 1907","authors":[{"name":"Roosevelt, Theodore","birth_year":1858,"death_year":1919}],"translators":[],"subjects":["Speeches, addresses, etc.","United States -- Politics and government -- 1901-1909"],"bookshelves":[],"languages":["en"],"copyright":false,"media_type":"Text","formats":{"text/html":"https://www.gutenberg.org/ebooks/68181.html.images","application/epub+zip":"https://www.gutenberg.org/ebooks/68181.epub3.images","application/x-mobipocket-ebook":"https://www.gutenberg.org/ebooks/68181.kf8.images","text/plain; charset=us-ascii":"https://www.gutenberg.org/ebooks/68181.txt.utf-8","application/rdf+xml":"https://www.gutenberg.org/ebooks/68181.rdf","image/jpeg":"https://www.gutenberg.org/cache/epub/68181/pg68181.cover.medium.jpg","application/octet-stream":"https://www.gutenberg.org/files/68181/68181-0.zip"},"download_count":22},{"id":68210,"title":"Portuguese portraits","authors":[{"name":"Bell, Aubrey F. G. (Aubrey Fitz Gerald)","birth_year":1882,"death_year":1950}],"translators":[],"subjects":["Portugal -- Biography"],"bookshelves":[],"languages":["en"],"copyright":false,"media_type":"Text","formats":{"text/html":"https://www.gutenberg.org/ebooks/68210.html.images","application/epub+zip":"https://www.gutenberg.org/ebooks/68210.epub3.images","application/x-mobipocket-ebook":"https://www.gutenberg.org/ebooks/68210.kf8.images","text/plain; charset=us-ascii":"https://www.gutenberg.org/ebooks/68210.txt.utf-8","application/rdf+xml":"https://www.gutenberg.org/ebooks/68210.rdf","image/jpeg":"https://www.gutenberg.org/cache/epub/68210/pg68210.cover.medium.jpg","application/octet-stream":"https://www.gutenberg.org/files/68210/68210-0.zip"},"download_count":22}]}