{"count":58808,"next":"http://129.241.150.113:8000/books/?languages=en&page=1577","previous":"http://129.241.150.113:8000/books/?languages=en&page=1575","results":[{"id":69150,"title":"Miracle","authors":[{"name":"Cummings, Ray","birth_year":1887,"death_year":1957}],"translators":[],"subjects":["Science fiction","Short stories","Time travel -- Fiction"],"bookshelves":[],"languages":["en"],"copyright":false,"media_type":"Text","formats":{"text/html":"https://www.gutenberg.org/ebooks/69150.html.images","application/epub+zip":"https://www.gutenberg.org/ebooks/69150.epub3.images","application/x-mobipocket-ebook":"https://www.gutenberg.org/ebooks/69150.kf8.images","text/plain; charset=us-ascii":"https://www.gutenberg.org/ebooks/69150.txt.utf-8","application/rdf+xml":"https://www.gutenberg.org/ebooks/69150.rdf","image/jpeg":"https://www.gutenberg.org/cache/epub/69150/pg69150.cover.medium.jpg","application/octet-stream":"https://www.gutenberg.org/files/69150/69150-0.zip"},"download_count":22},{"id":69181,"title":"My bird and my dog: A tale for youth","authors":[{"name":"Anonymous","birth_year":null,"death_year":null}],"translators":[],"subjects":["Conduct of life -- Juvenile fiction"],"bookshelves":[],"languages":["en"],"copyright":false,"media_type":"Text","formats":{"text/html":"https://www.gutenberg.org/ebooks/69181.html.images","application/epub+zip":"https://www.gutenberg.org/ebooks/69181.epub3.images","application/x-mobipocket-ebook":"https://www.gutenberg.org/ebooks/69181.kf8.images","text/plain; charset=us-ascii":"https://www.gutenberg.org/ebooks/69181.txt.utf-8","application/rdf+xml":"https://www.gutenberg.org/ebooks/69181.rdf","image/jpeg":"https://www.gutenberg.org/cache/epub/69181/pg69181.cover.medium.jpg","application/octet-stream":"https://www.gutenberg.org/files/69181/69181-0.zip"},"download_count":22},{"id":69280,"title":"Simple psiman","authors":[{"name":"Wallace, F. L. (Floyd L.)","birth_year":1915,"death_year":2004}],"translators":[],"subjects":["Comets -- Fiction","India -- Fiction","Psychic ability -- Fiction","Science fiction"],"bookshelves":[],"languages":["en"],"copyright":false,"media_type":"Text","formats":{"text/html":"https://www.gutenberg.org/ebooks/69280.html.images","application/epub+zip":"https://www.gutenberg.org/ebooks/69280.epub3.images","application/x-mobipocket-ebook":"https://www.gutenberg.org/ebooks/69280.kf8.images","text/plain; charset=us-ascii":"https://www.gutenberg.org/ebooks/69280.txt.utf-8","application/rdf+xml":"https://www.gutenberg.org/ebooks/69280.rdf","image/jpeg":"https://www.gutenberg.org/cache/epub/69280/pg69280.cover.medium.jpg","application/octet-stream":"https://www.gutenberg.org/files/69280/69280-0.zip"},"download_count":22},{"id":69313,"title":"Volume of anecdotes","authors":[{"name":"Anonymous","birth_year":null,"death_year":null}],"translators":[],"subjects":["United States -- History -- Civil War, 1861-1865 -- Anecdotes"],"bookshelves":[],"languages":["en"],"copyright":false,"media_type":"Text","formats":{"text/html":"https://www.gutenberg.org/ebooks/69313.html.images","application/epub+zip":"https://www.gutenberg.org/ebooks/69313.epub3.images","application/x-mobipocket-ebook":"https://www.gutenberg.org/ebooks/69313.kf8.images","text/plain; charset=us-ascii":"https://www.gutenberg.org/ebooks/69313.txt.utf-8","application/rdf+xml":"https://www.gutenberg.org/ebooks/69313.rdf","image/jpeg":"https://www.gutenberg.org/cache/epub/69313/pg69313.cover.medium.jpg","application/octet-stream":"https://www.gutenberg.org/files/69313/69313-0.zip"},"download_count":22},{"id":69365,"title":"Zephyrs","authors":[{"name":"Stiles, Kate R.","birth_year":null,"death_year":null}],"translators":[],"subjects":["American poetry -- 19th century"],"bookshelves":[],"languages":["en"],"copyright":false,"media_type":"Text","formats":{"text/html":"https://www.gutenberg.org/ebooks/69365.html.images","application/epub+zip":"https://www.gutenberg.org/ebooks/69365.epub3.images","application/x-mobipocket-ebook":"https://www.gutenberg.org/ebooks/69365.kf8.images","text/plain; charset=us-ascii":"https://www.gutenberg.org/ebooks/69365.txt.utf-8","application/rdf+xml":"https://www.gutenberg.org/ebooks/69365.rdf","image/jpeg":"https://www.gutenberg.org/cache/epub/69365/pg69365.cover.medium.jpg","application/octet-stream":"https://www.gutenberg.org/files/69365/69365-0.zip"},"download_count":22},{"id":69372,"title":"Narrative of Henry Watson, a fugitive slave","authors":[{"name":"Watson, Henry","birth_year":null,"death_year":null}],"translators":[],"subjects":["Enslaved persons -- Mississippi -- Social conditions","Slavery -- Mississippi"],"bookshelves":[],"languages":["en"],"copyright":false,"media_type":"Text","formats":{"text/html":"https://www.gutenberg.org/ebooks/69372.html.images","application/epub+zip":"https://www.gutenberg.org/ebooks/69372.epub3.images","application/x-mobipocket-ebook":"https://www.gutenberg.org/ebooks/69372.kf8.images","text/plain; charset=us-ascii":"https://www.gutenberg.org/ebooks/69372.txt.utf-8","application/rdf+xml":"https://www.gutenberg.org/ebooks/69372.rdf","image/jpeg":"https://www.gutenberg.org/cache/epub/69372/pg69372.cover.medium.jpg","application/octet-stream":"https://www.gutenberg.org/files/69372/69372-0.zip"},"download_count":22},{"id":69429,"title":"Perch of the Devil","authors":[{"name":"Atherton, Gertrude Franklin Horn","birth_year":1857,"death_year":1948}],"translators":[],"subjects":["Butte (Mont.) -- Fiction","Social classes -- Fiction","Spouses -- Fiction"],"bookshelves":[],"languages":["en"],"copyright":false,"media_type":"Text","formats":{"text/html":"https://www.gutenberg.org/ebooks/69429.html.images","application/epub+zip":"https://www.gutenberg.org/ebooks/69429.epub3.images","application/x-mobipocket-ebook":"https://www.gutenberg.org/ebooks/69429.kf8.images","text/plain; charset=us-ascii":"https://www.gutenberg.org/ebooks/69429.txt.utf-8","application/rdf+xml":"https://www.gutenberg.org/ebooks/69429.rdf","image/jpeg":"https://www.gutenberg.org/cache/epub/69429/pg69429.cover.medium.jpg","application/octet-stream":"https://www.gutenberg.org/files/69429/69429-0.zip"},"download_count":22},{"id":69476,"title":"Account of an expedition to the interior of New Holland","authors":[{"name":"Whately, Richard","birth_year":1787,"death_year":1863},{"name":"Fox, Mary, Lady","birth_year":1798,"death_year":1864}],"translators":[],"subjects":["Australia -- Fiction","Utopias -- Fiction"],"bookshelves":[],"languages":["en"],"copyright":false,"media_type":"Text","formats":{"text/html":"https://www.gutenberg.org/ebooks/69476.html.images","application/epub+zip":"https://www.gutenberg.org/ebooks/69476.epub3.images","application/x-mobipocket-ebook":"https://www.gutenberg.org/ebooks/69476.kf8.images","text/plain; charset=us-ascii":"https://www.gutenberg.org/ebooks/69476.txt.utf-8","application/rdf+xml":"https://www.gutenberg.org/ebooks/69476.rdf","image/jpeg":"https://www.gutenberg.org/cache/epub/69476/pg69476.cover.medium.jpg","application/octet-stream":"https://www.gutenberg.org/files/69476/69476-0.zip"},"download_count":22},{"id":69478,"title":"The girls of Rivercliff School; or, Beth Baldwin's resolve","authors":[{"name":"Marlowe, Amy Bell","birth_year":null,"death_year":null}],"translators":[],"subjects":["Boarding school students -- Juvenile fiction","Interpersonal relations -- Juvenile fiction","Student adjustment -- Juvenile fiction"],"bookshelves":[],"languages":["en"],"copyright":false,"media_type":"Text","formats":{"text/html":"https://www.gutenberg.org/ebooks/69478.html.images","application/epub+zip":"https://www.gutenberg.org/ebooks/69478.epub3.images","application/x-mobipocket-ebook":"https://www.gutenberg.org/ebooks/69478.kf8.images","text/plain; charset=us-ascii":"https://www.gutenberg.org/ebooks/69478.txt.utf-8","application/rdf+xml":"https://www.gutenberg.org/ebooks/69478.rdf","image/jpeg":"https://www.gutenberg.org/cache/epub/69478/pg69478.cover.medium.jpg","application/octet-stream":"https://www.gutenberg.org/files/69478/69478-0.zip"},"download_count":22},{"id":69484,"title":"Bonnie Joann, and other poems","authors":[{"name":"Jacob, Violet","birth_year":1863,"death_year":1946}],"translators":[],"subjects":["Angus (Scotland) -- Poetry","Scots language -- Dialects -- Scotland -- Angus -- Texts"],"bookshelves":[],"languages":["en"],"copyright":false,"media_type":"Text","formats":{"text/html":"https://www.gutenberg.org/ebooks/69484.html.images","application/epub+zip":"https://www.gutenberg.org/ebooks/69484.epub3.images","application/x-mobipocket-ebook":"https://www.gutenberg.org/ebooks/69484.kf8.images","text/plain; charset=us-ascii":"https://www.gutenberg.org/ebooks/69484.txt.utf-8","application/rdf+xml":"https://www.gutenberg.org/ebooks/69484.rdf","image/jpeg":"https://www.gutenberg.org/cache/epub/69484/pg69484.cover.medium.jpg","application/octet-stream":"https://www.gutenberg.org/files/69484/69484-0.zip"},"download_count":22},{"id":69509,"title":"Frank Allen and his motor boat; or, Racing to save a life","authors":[{"name":"Forbes, Graham B.","birth_year":null,"death_year":null}],"translators":[],"subjects":["Motorboats -- Juvenile fiction"],"bookshelves":[],"languages":["en"],"copyright":false,"media_type":"Text","formats":{"text/html":"https://www.gutenberg.org/ebooks/69509.html.images","application/epub+zip":"https://www.gutenberg.org/ebooks/69509.epub3.images","application/x-mobipocket-ebook":"https://www.gutenberg.org/ebooks/69509.kf8.images","text/plain; charset=us-ascii":"https://www.gutenberg.org/ebooks/69509.txt.utf-8","application/rdf+xml":"https://www.gutenberg.org/ebooks/69509.rdf","image/jpeg":"https://www.gutenberg.org/cache/epub/69509/pg69509.cover.medium.jpg","application/octet-stream":"https://www.gutenberg.org/files/69509/69509-0.zip"},"download_count":22},{"id":69677,"title":"The man in the street: Papers on American topics","authors":[{"name":"Nicholson, Meredith","birth_year":1866,"death_year":1947}],"translators":[],"subjects":["American essays -- 20th century"],"bookshelves":[],"languages":["en"],"copyright":false,"media_type":"Text","formats":{"text/html":"https://www.gutenberg.org/ebooks/69677.html.images","application/epub+zip":"https://www.gutenberg.org/ebooks/69677.epub3.images","application/x-mobipocket-ebook":"https://www.gutenberg.org/ebooks/69677.kf8.images","text/plain; charset=us-ascii":"https://www.gutenberg.org/ebooks/69677.txt.utf-8","application/rdf+xml":"https://www.gutenberg.org/ebooks/69677.rdf","image/jpeg":"https://www.gutenberg.org/cache/epub/69677/pg69677.cover.medium.jpg","application/octet-stream":"https://www.gutenberg.org/files/69677/69677-0.zip"},"download_count":22},{"id":69756,"title":"The child's curiosity book, embellished with cuts.","authors":[{"name":"Anonymous","birth_year":null,"death_year":null}],"translators":[],"subjects":["Children -- Conduct of life -- Juvenile literature","Children's stories, English -- 19th century"],"bookshelves":[],"languages":["en"],"copyright":false,"media_type":"Text","formats":{"text/html":"https://www.gutenberg.org/ebooks/69756.html.images","application/epub+zip":"https://www.gutenberg.org/ebooks/69756.epub3.images","application/x-mobipocket-ebook":"https://www.gutenberg.org/ebooks/69756.kf8.images","text/plain; charset=us-ascii":"https://www.gutenberg.org/ebooks/69756.txt.utf-8","application/rdf+xml":"https://www.gutenberg.org/ebooks/69756.rdf","image/jpeg":"https://www.gutenberg.org/cache/epub/69756/pg69756.cover.medium.jpg","application/octet-stream":"https://www.gutenberg.org/files/69756/69756-0.zip"},"download_count":22},{"id":69758,"title":"Folly Corner","authors":[{"name":"Dudeney, Henry, Mrs.","birth_year":1866,"death_year":1945}],"translators":[],"subjects":["England -- Fiction","Man-woman relationships -- Fiction","Triangles (Interpersonal relations) -- Fiction"],"bookshelves":[],"languages":["en"],"copyright":false,"media_type":"Text","formats":{"text/html":"https://www.gutenberg.org/ebooks/69758.html.images","application/epub+zip":"https://www.gutenberg.org/ebooks/69758.epub3.images","application/x-mobipocket-ebook":"https://www.gutenberg.org/ebooks/69758.kf8.images","text/plain; charset=us-ascii":"https://www.gutenberg.org/ebooks/69758.txt.utf-8","application/rdf+xml":"https://www.gutenberg.org/ebooks/69758.rdf","image/jpeg":"https://www.gutenberg.org/cache/epub/69758/pg69758.cover.medium.jpg","application/octet-stream":"https://www.gutenberg.org/files/69758/69758-0.zip"},"download_count":22},{"id":69764,"title":"Novum organon renovatum: Being the second part of the philosophy of the inductive sciences","authors":[{"name":"Whewell, William","birth_year":1794,"death_year":1866}],"translators":[],"subjects":["Science -- Philosophy"],"bookshelves":[],"languages":["en"],"copyright":false,"media_type":"Text","formats":{"text/html":"https://www.gutenberg.org/ebooks/69764.html.images","application/epub+zip":"https://www.gutenberg.org/ebooks/69764.epub3.images","application/x-mobipocket-ebook":"https://www.gutenberg.org/ebooks/69764.kf8.images","text/plain; charset=us-ascii":"https://www.gutenberg.org/ebooks/69764.txt.utf-8","application/rdf+xml":"https://www.gutenberg.org/ebooks/69764.rdf","image/jpeg":"https://www.gutenberg.org/cache/epub/69764/pg69764.cover.medium.jpg","application/octet-stream":"https://www.gutenberg.org/files/69764/69764-0.zip"},"download_count":22},{"id":69782,"title":"A Southern Cross fairy tale","authors":[{"name":"Clark, Kate McCosh","birth_year":1847,"death_year":1926}],"translators":[],"subjects":["Animals -- Juvenile fiction","Birds -- Juvenile fiction","Children -- Conduct of life -- Juvenile fiction","Christmas -- Juvenile fiction","Conduct of life -- Juvenile fiction","Dreams -- Juvenile fiction","Fairy tales -- New Zealand","Fantasy literature","Geysers -- Juvenile fiction","Maori (New Zealand people) -- Juvenile fiction","Natural history -- Juvenile fiction","New Zealand -- Juvenile fiction"],"bookshelves":[],"languages":["en"],"copyright":false,"media_type":"Text","formats":{"text/html":"https://www.gutenberg.org/ebooks/69782.html.images","application/epub+zip":"https://www.gutenberg.org/ebooks/69782.epub3.images","application/x-mobipocket-ebook":"https://www.gutenberg.org/ebooks/69782.kf8.images","text/plain; charset=us-ascii":"https://www.gutenberg.org/ebooks/69782.txt.utf-8","application/rdf+xml":"https://www.gutenberg.org/ebooks/69782.rdf","image/jpeg":"https://www.gutenberg.org/cache/epub/69782/pg69782.cover.medium.jpg","application/octet-stream":"https://www.gutenberg.org/files/69782/69782-0.zip"},"download_count":22},{"id":69840,"title":"The Piccinino, Volume 2 (of 2); The last of Aldinis","authors":[{"name":"Sand, George","birth_year":1804,"death_year":1876}],"translators":[{"name":"Ives, George Burnham","birth_year":1856,"death_year":1930}],"subjects":["French fiction -- Translations into English"],"bookshelves":[],"languages":["en"],"copyright":false,"media_type":"Text","formats":{"text/html":"https://www.gutenberg.org/ebooks/69840.html.images","application/epub+zip":"https://www.gutenberg.org/ebooks/69840.epub3.images","application/x-mobipocket-ebook":"https://www.gutenberg.org/ebooks/69840.kf8.images","text/plain; charset=us-ascii":"https://www.gutenberg.org/ebooks/69840.txt.utf-8","application/rdf+xml":"https://www.gutenberg.org/ebooks/69840.rdf","image/jpeg":"https://www.gutenberg.org/cache/epub/69840/pg69840.cover.medium.jpg","application/octet-stream":"https://www.gutenberg.org/files/69840/69840-0.zip"},"download_count":22},{"id":69846,"title":"Encaustic: Or, Count Caylus's method of painting in the manner of the ancients.: To which is added a sure and easy method for fixing of crayons","authors":[{"name":"Müntz, Jean-Henri","birth_year":1727,"death_year":1798}],"translators":[],"subjects":["Encaustic painting"],"bookshelves":[],"languages":["en"],"copyright":false,"media_type":"Text","formats":{"text/html":"https://www.gutenberg.org/ebooks/69846.html.images","application/epub+zip":"https://www.gutenberg.org/ebooks/69846.epub3.images","application/x-mobipocket-ebook":"https://www.gutenberg.org/ebooks/69846.kf8.images","text/plain; charset=us-ascii":"https://www.gutenberg.org/ebooks/69846.txt.utf-8","application/rdf+xml":"https://www.gutenberg.org/ebooks/69846.rdf","image/jpeg":"https://www.gutenberg.org/cache/epub/69846/pg69846.cover.medium.jpg","application/octet-stream":"https://www.gutenberg.org/files/69846/69846-0.zip"},"download_count":22},{"id":70028,"title":"A catalogue of remarkable books published by Mr. George Redway (1887)","authors":[{"name":"George Redway (Firm)","birth_year":null,"death_year":null}],"translators":[],"subjects":["George Redway (Firm) -- Catalogs","Publishers' catalogs -- England -- London"],"bookshelves":[],"languages":["en"],"copyright":false,"media_type":"Text","formats":{"text/html":"https://www.gutenberg.org/ebooks/70028.html.images","application/epub+zip":"https://www.gutenberg.org/ebooks/70028.epub3.images","application/x-mobipocket-ebook":"https://www.gutenberg.org/ebooks/70028.kf8.images","text/plain; charset=us-ascii":"https://www.gutenberg.org/ebooks/70028.txt.utf-8","application/rdf+xml":"https://www.gutenberg.org/ebooks/70028.rdf","image/jpeg":"https://www.gutenberg.org/cache/epub/70028/pg70028.cover.medium.jpg","application/octet-stream":"https://www.gutenberg.org/files/70028/70028-0.zip"},"download_count":22},{"id":70096,"title":"The heathery; or, A monograph of the genus Erica. vol. 6","authors":[{"name":"Andrews, Henry Cranke, active 1799-1828","birth_year":null,"death_year":null}],"translators":[],"subjects":["Ericas","Ericas -- Pictorial works"],"bookshelves":[],"languages":["en"],"copyright":false,"media_type":"Text","formats":{"text/html":"https://www.gutenberg.org/ebooks/70096.html.images","application/epub+zip":"https://www.gutenberg.org/ebooks/70096.epub3.images","application/x-mobipocket-ebook":"https://www.gutenberg.org/ebooks/70096.kf8.images","text/plain; charset=us-ascii":"https://www.gutenberg.org/ebooks/70096.txt.utf-8","application/rdf+xml":"https://www.gutenberg.org/ebooks/70096.rdf","image/jpeg":"https://www.gutenberg.org/cache/epub/70096/pg70096.cover.medium.jpg","application/octet-stream":"https://www.gutenberg.org/files/70096/70096-0.zip"},"download_count":22},{"id":70108,"title":"The Y. M. C. A. boys of Cliffwood; $b or, The struggle for the Holwell Prize","authors":[{"name":"Henderley, Brooks","birth_year":null,"death_year":null}],"translators":[],"subjects":["YMCA of the USA -- Juvenile fiction"],"bookshelves":[],"languages":["en"],"copyright":false,"media_type":"Text","formats":{"text/html":"https://www.gutenberg.org/ebooks/70108.html.images","application/epub+zip":"https://www.gutenberg.org/ebooks/70108.epub3.images","application/x-mobipocket-ebook":"https://www.gutenberg.org/ebooks/70108.kf8.images","text/plain; charset=us-ascii":"https://www.gutenberg.org/ebooks/70108.txt.utf-8","application/rdf+xml":"https://www.gutenberg.org/ebooks/70108.rdf","image/jpeg":"https://www.gutenberg.org/cache/epub/70108/pg70108.cover.medium.jpg","application/octet-stream":"https://www.gutenberg.org/files/70108/70108-0.zip"},"download_count":22},{"id":70143,"title":"Frank Allen at Old Moose Lake; $b or, The trail in the snow","authors":[{"name":"Forbes, Graham B.","birth_year":null,"death_year":null}],"translators":[],"subjects":["Hunting stories","Snow camping -- Juvenile fiction"],"bookshelves":[],"languages":["en"],"copyright":false,"media_type":"Text","formats":{"text/html":"https://www.gutenberg.org/ebooks/70143.html.images","application/epub+zip":"https://www.gutenberg.org/ebooks/70143.epub3.images","application/x-mobipocket-ebook":"https://www.gutenberg.org/ebooks/70143.kf8.images","text/plain; charset=us-ascii":"https://www.gutenberg.org/ebooks/70143.txt.utf-8","application/rdf+xml":"https://www.gutenberg.org/ebooks/70143.rdf","image/jpeg":"https://www.gutenberg.org/cache/epub/70143/pg70143.cover.medium.jpg","application/octet-stream":"https://www.gutenberg.org/files/70143/70143-0.zip"},"download_count":22},{"id":70148,"title":"Time for survival","authors":[{"name":"Smith, George O. (George Oliver)","birth_year":1911,"death_year":1981}],"translators":[],"subjects":["Mary Celeste (Brig) -- Fiction","Science fiction","Short stories","Time travel -- Fiction"],"bookshelves":[],"languages":["en"],"copyright":false,"media_type":"Text","formats":{"text/html":"https://www.gutenberg.org/ebooks/70148.html.images","application/epub+zip":"https://www.gutenberg.org/ebooks/70148.epub3.images","application/x-mobipocket-ebook":"https://www.gutenberg.org/ebooks/70148.kf8.images","text/plain; charset=us-ascii":"https://www.gutenberg.org/ebooks/70148.txt.utf-8","application/rdf+xml":"https://www.gutenberg.org/ebooks/70148.rdf","image/jpeg":"https://www.gutenberg.org/cache/epub/70148/pg70148.cover.medium.jpg","application/octet-stream":"https://www.gutenberg.org/files/70148/70148-0.zip"},"download_count":22},{"id":70267,"title":"The condition of England","authors":[{"name":"Masterman, Charles F. G. (Charles Frederick Gurney)","birth_year":1873,"death_year":1927}],"translators":[],"subjects":["Great Britain -- Economic conditions","Great Britain -- Social conditions"],"bookshelves":[],"languages":["en"],"copyright":false,"media_type":"Text","formats":{"text/html":"https://www.gutenberg.org/ebooks/70267.html.images","application/epub+zip":"https://www.gutenberg.org/ebooks/70267.epub3.images","application/x-mobipocket-ebook":"https://www.gutenberg.org/ebooks/70267.kf8.images","text/plain; charset=us-ascii":"https://www.gutenberg.org/ebooks/70267.txt.utf-8","application/rdf+xml":"https://www.gutenberg.org/ebooks/70267.rdf","image/jpeg":"https://www.gutenberg.org/cache/epub/70267/pg70267.cover.medium.jpg","application/octet-stream":"https://www.gutenberg.org/files/70267/70267-0.zip"},"download_count":22},{"id":70385,"title":"South Australia and Western Australia","authors":[{"name":"Trollope, Anthony","birth_year":1815,"death_year":1882}],"translators":[],"subjects":["South Australia","Western Australia"],"bookshelves":[],"languages":["en"],"copyright":false,"media_type":"Text","formats":{"text/html":"https://www.gutenberg.org/ebooks/70385.html.images","application/epub+zip":"https://www.gutenberg.org/ebooks/70385.epub3.images","application/x-mobipocket-ebook":"https://www.gutenberg.org/ebooks/70385.kf8.images","text/plain; charset=us-ascii":"https://www.gutenberg.org/ebooks/70385.txt.utf-8","application/rdf+xml":"https://www.gutenberg.org/ebooks/70385.rdf","image/jpeg":"https://www.gutenberg.org/cache/epub/70385/pg70385.cover.medium.jpg","application/octet-stream":"https://www.gutenberg.org/files/70385/70385-0.zip"},"download_count":22},{"id":70402,"title":"Dynasty of the lost","authors":[{"name":"Smith, George O. (George Oliver)","birth_year":1911,"death_year":1981}],"translators":[],"subjects":["Kidnapping -- Fiction","Machinery -- Fiction","Science fiction"],"bookshelves":[],"languages":["en"],"copyright":false,"media_type":"Text","formats":{"text/html":"https://www.gutenberg.org/ebooks/70402.html.images","application/epub+zip":"https://www.gutenberg.org/ebooks/70402.epub3.images","application/x-mobipocket-ebook":"https://www.gutenberg.org/ebooks/70402.kf8.images","text/plain; charset=us-ascii":"https://www.gutenberg.org/ebooks/70402.txt.utf-8","application/rdf+xml":"https://www.gutenberg.org/ebooks/70402.rdf","image/jpeg":"https://www.gutenberg.org/cache/epub/70402/pg70402.cover.medium.jpg","application/octet-stream":"https://www.gutenberg.org/files/70402/70402-0.zip"},"download_count":22},{"id":70455,"title":"Angel's Brother","authors":[{"name":"Stooke, Eleanora H.","birth_year":null,"death_year":null}],"translators":[],"subjects":["Christian life -- Juvenile fiction","Didactic fiction","Domestic fiction","Siblings -- Juvenile fiction"],"bookshelves":[],"languages":["en"],"copyright":false,"media_type":"Text","formats":{"text/html":"https://www.gutenberg.org/ebooks/70455.html.images","application/epub+zip":"https://www.gutenberg.org/ebooks/70455.epub3.images","application/x-mobipocket-ebook":"https://www.gutenberg.org/ebooks/70455.kf8.images","text/plain; charset=us-ascii":"https://www.gutenberg.org/ebooks/70455.txt.utf-8","application/rdf+xml":"https://www.gutenberg.org/ebooks/70455.rdf","image/jpeg":"https://www.gutenberg.org/cache/epub/70455/pg70455.cover.medium.jpg","application/octet-stream":"https://www.gutenberg.org/files/70455/70455-0.zip"},"download_count":22},{"id":70477,"title":"The O. S. U. Naturalist, Vol. 1, No. 2, December, 1900","authors":[{"name":"Ohio State University. Biological Club","birth_year":null,"death_year":null}],"translators":[],"subjects":["Natural history -- Ohio -- Periodicals","Natural history -- Periodicals","Science -- Periodicals"],"bookshelves":[],"languages":["en"],"copyright":false,"media_type":"Text","formats":{"text/html":"https://www.gutenberg.org/ebooks/70477.html.images","application/epub+zip":"https://www.gutenberg.org/ebooks/70477.epub3.images","application/x-mobipocket-ebook":"https://www.gutenberg.org/ebooks/70477.kf8.images","text/plain; charset=us-ascii":"https://www.gutenberg.org/ebooks/70477.txt.utf-8","application/rdf+xml":"https://www.gutenberg.org/ebooks/70477.rdf","image/jpeg":"https://www.gutenberg.org/cache/epub/70477/pg70477.cover.medium.jpg","application/octet-stream":"https://www.gutenberg.org/files/70477/70477-0.zip"},"download_count":22},{"id":70539,"title":"Chambers's Journal of Popular Literature, Science, and Art, fifth series, no. 124, vol. III, May 15, 1886","authors":[{"name":"Various","birth_year":null,"death_year":null}],"translators":[],"subjects":["Periodicals"],"bookshelves":[],"languages":["en"],"copyright":false,"media_type":"Text","formats":{"text/html":"https://www.gutenberg.org/ebooks/70539.html.images","application/epub+zip":"https://www.gutenberg.org/ebooks/70539.epub3.images","application/x-mobipocket-ebook":"https://www.gutenberg.org/ebooks/70539.kf8.images","text/plain; charset=us-ascii":"https://www.gutenberg.org/ebooks/70539.txt.utf-8","application/rdf+xml":"https://www.gutenberg.org/ebooks/70539.rdf","image/jpeg":"https://www.gutenberg.org/cache/epub/70539/pg70539.cover.medium.jpg","application/octet-stream":"https://www.gutenberg.org/files/70539/70539-0.zip"},"download_count":22},{"id":70580,"title":"No war tomorrow","authors":[{"name":"West, Wallace","birth_year":1900,"death_year":1980}],"translators":[],"subjects":["Science fiction"],"bookshelves":[],"languages":["en"],"copyright":false,"media_type":"Text","formats":{"text/html":"https://www.gutenberg.org/ebooks/70580.html.images","application/epub+zip":"https://www.gutenberg.org/ebooks/70580.epub3.images","application/x-mobipocket-ebook":"https://www.gutenberg.org/ebooks/70580.kf8.images","text/plain; charset=us-ascii":"https://www.gutenberg.org/ebooks/70580.txt.utf-8","application/rdf+xml":"https://www.gutenberg.org/ebooks/70580.rdf","image/jpeg":"https://www.gutenberg.org/cache/epub/70580/pg70580.cover.medium.jpg","application/octet-stream":"https://www.gutenberg.org/files/70580/70580-0.zip"},"download_count":22},{"id":70665,"title":"On harelip and cleft palate","authors":[{"name":"Rose, William","birth_year":1847,"death_year":1910}],"translators":[],"subjects":["Cleft lip","Cleft palate"],"bookshelves":[],"languages":["en"],"copyright":false,"media_type":"Text","formats":{"text/html":"https://www.gutenberg.org/ebooks/70665.html.images","application/epub+zip":"https://www.gutenberg.org/ebooks/70665.epub3.images","application/x-mobipocket-ebook":"https://www.gutenberg.org/ebooks/70665.kf8.images","text/plain; charset=us-ascii":"https://www.gutenberg.org/ebooks/70665.txt.utf-8","application/rdf+xml":"https://www.gutenberg.org/ebooks/70665.rdf","image/jpeg":"https://www.gutenberg.org/cache/epub/70665/pg70665.cover.medium.jpg","application/octet-stream":"https://www.gutenberg.org/files/70665/70665-0.zip"},"download_count":22},{"id":70702,"title":"The children's book of Christmas","authors":[],"translators":[],"subjects":["Christmas -- Juvenile literature","Christmas stories"],"bookshelves":[],"languages":["en"],"copyright":false,"media_type":"Text","formats":{"text/html":"https://www.gutenberg.org/ebooks/70702.html.images","application/epub+zip":"https://www.gutenberg.org/ebooks/70702.epub3.images","application/x-mobipocket-ebook":"https://www.gutenberg.org/ebooks/70702.kf8.images","text/plain; charset=us-ascii":"https://www.gutenberg.org/ebooks/70702.txt.utf-8","application/rdf+xml":"https://www.gutenberg.org/ebooks/70702.rdf","image/jpeg":"https://www.gutenberg.org/cache/epub/70702/pg70702.cover.medium.jpg","application/octet-stream":"https://www.gutenberg.org/files/70702/70702-0.zip"},"download_count":22}]}