{"count":58808,"next":"http://129.241.150.113:8000/books/?languages=en&page=1826","previous":"http://129.241.150.113:8000/books/?languages=en&page=1824","results":[{"id":3897,"title":"Memoirs of the Court of St. Cloud (Being secret letters from a gentleman at Paris to a nobleman in London) — Volume 6","authors":[{"name":"Goldsmith, Lewis","birth_year":null,"death_year":1846}],"translators":[],"subjects":["France -- Court and courtiers","France -- History -- Consulate and First Empire, 1799-1815","France -- Kings and rulers -- Biography","Napoleon I, Emperor of the French, 1769-1821"],"bookshelves":[],"languages":["en"],"copyright":false,"media_type":"Text","formats":{"text/html":"https://www.gutenberg.org/ebooks/3897.html.images","application/epub+zip":"https://www.gutenberg.org/ebooks/3897.epub3.images","application/x-mobipocket-ebook":"https://www.gutenberg.org/ebooks/3897.kf8.images","text/plain; charset=us-ascii":"https://www.gutenberg.org/ebooks/3897.txt.utf-8","application/rdf+xml":"https://www.gutenberg.org/ebooks/3897.rdf","image/jpeg":"https://www.gutenberg.org/cache/epub/3897/pg3897.cover.medium.jpg","application/octet-stream":"https://www.gutenberg.org/cache/epub/3897/pg3897-h.zip"},"download_count":8},{"id":4438,"title":"Vittoria — Volume 4","authors":[{"name":"Meredith, George","birth_year":1828,"death_year":1909}],"translators":[],"subjects":["Historical fiction","Italy -- History -- Revolution of 1848 -- Fiction","War stories"],"bookshelves":["Historical Fiction"],"languages":["en"],"copyright":false,"media_type":"Text","formats":{"text/html":"https://www.gutenberg.org/ebooks/4438.html.images","application/epub+zip":"https://www.gutenberg.org/ebooks/4438.epub3.images","application/x-mobipocket-ebook":"https://www.gutenberg.org/ebooks/4438.kf8.images","text/plain; charset=us-ascii":"https://www.gutenberg.org/ebooks/4438.txt.utf-8","application/rdf+xml":"https://www.gutenberg.org/ebooks/4438.rdf","image/jpeg":"https://www.gutenberg.org/cache/epub/4438/pg4438.cover.medium.jpg","application/octet-stream":"https://www.gutenberg.org/cache/epub/4438/pg4438-h.zip"},"download_count":8},{"id":4495,"title":"The House on the Beach: A Realistic Tale","authors":[{"name":"Meredith, George","birth_year":1828,"death_year":1909}],"translators":[],"subjects":["English fiction -- 19th century"],"bookshelves":[],"languages":["en"],"copyright":false,"media_type":"Text","formats":{"text/html":"https://www.gutenberg.org/ebooks/4495.html.images","application/epub+zip":"https://www.gutenberg.org/ebooks/4495.epub3.images","application/x-mobipocket-ebook":"https://www.gutenberg.org/ebooks/4495.kf8.images","text/plain; charset=us-ascii":"https://www.gutenberg.org/ebooks/4495.txt.utf-8","application/rdf+xml":"https://www.gutenberg.org/ebooks/4495.rdf","image/jpeg":"https://www.gutenberg.org/cache/epub/4495/pg4495.cover.medium.jpg","application/octet-stream":"https://www.gutenberg.org/cache/epub/4495/pg4495-h.zip"},"download_count":8},{"id":4857,"title":"History of the United Netherlands, 1588c","authors":[{"name":"Motley, John Lothrop","birth_year":1814,"death_year":1877}],"translators":[],"subjects":["Netherlands -- History -- Eighty Years' War, 1568-1648"],"bookshelves":[],"languages":["en"],"copyright":false,"media_type":"Text","formats":{"text/html":"https://www.gutenberg.org/ebooks/4857.html.images","application/epub+zip":"https://www.gutenberg.org/ebooks/4857.epub3.images","application/x-mobipocket-ebook":"https://www.gutenberg.org/ebooks/4857.kf8.images","text/plain; charset=us-ascii":"https://www.gutenberg.org/ebooks/4857.txt.utf-8","application/rdf+xml":"https://www.gutenberg.org/ebooks/4857.rdf","image/jpeg":"https://www.gutenberg.org/cache/epub/4857/pg4857.cover.medium.jpg","application/octet-stream":"https://www.gutenberg.org/cache/epub/4857/pg4857-h.zip"},"download_count":8},{"id":4879,"title":"History of the United Netherlands from the Death of William the Silent to the Twelve Year's Truce, 1607a","authors":[{"name":"Motley, John Lothrop","birth_year":1814,"death_year":1877}],"translators":[],"subjects":["Netherlands -- History -- Eighty Years' War, 1568-1648"],"bookshelves":[],"languages":["en"],"copyright":false,"media_type":"Text","formats":{"text/html":"https://www.gutenberg.org/ebooks/4879.html.images","application/epub+zip":"https://www.gutenberg.org/ebooks/4879.epub3.images","application/x-mobipocket-ebook":"https://www.gutenberg.org/ebooks/4879.kf8.images","text/plain; charset=us-ascii":"https://www.gutenberg.org/ebooks/4879.txt.utf-8","application/rdf+xml":"https://www.gutenberg.org/ebooks/4879.rdf","image/jpeg":"https://www.gutenberg.org/cache/epub/4879/pg4879.cover.medium.jpg","application/octet-stream":"https://www.gutenberg.org/cache/epub/4879/pg4879-h.zip"},"download_count":8},{"id":4881,"title":"History of the United Netherlands from the Death of William the Silent to the Twelve Year's Truce, 1608a","authors":[{"name":"Motley, John Lothrop","birth_year":1814,"death_year":1877}],"translators":[],"subjects":["Netherlands -- History -- Eighty Years' War, 1568-1648"],"bookshelves":[],"languages":["en"],"copyright":false,"media_type":"Text","formats":{"text/html":"https://www.gutenberg.org/ebooks/4881.html.images","application/epub+zip":"https://www.gutenberg.org/ebooks/4881.epub3.images","application/x-mobipocket-ebook":"https://www.gutenberg.org/ebooks/4881.kf8.images","text/plain; charset=us-ascii":"https://www.gutenberg.org/ebooks/4881.txt.utf-8","application/rdf+xml":"https://www.gutenberg.org/ebooks/4881.rdf","image/jpeg":"https://www.gutenberg.org/cache/epub/4881/pg4881.cover.medium.jpg","application/octet-stream":"https://www.gutenberg.org/cache/epub/4881/pg4881-h.zip"},"download_count":8},{"id":4890,"title":"Life and Death of John of Barneveld, Advocate of Holland : with a view of the primary causes and movements of the Thirty Years' War, 1609-14","authors":[{"name":"Motley, John Lothrop","birth_year":1814,"death_year":1877}],"translators":[],"subjects":["Oldenbarnevelt, Johan van, 1547-1619","Thirty Years' War, 1618-1648"],"bookshelves":[],"languages":["en"],"copyright":false,"media_type":"Text","formats":{"text/html":"https://www.gutenberg.org/ebooks/4890.html.images","application/epub+zip":"https://www.gutenberg.org/ebooks/4890.epub3.images","application/x-mobipocket-ebook":"https://www.gutenberg.org/ebooks/4890.kf8.images","text/plain; charset=us-ascii":"https://www.gutenberg.org/ebooks/4890.txt.utf-8","application/rdf+xml":"https://www.gutenberg.org/ebooks/4890.rdf","image/jpeg":"https://www.gutenberg.org/cache/epub/4890/pg4890.cover.medium.jpg","application/octet-stream":"https://www.gutenberg.org/cache/epub/4890/pg4890-h.zip"},"download_count":8},{"id":5064,"title":"The Voyage of the Hoppergrass","authors":[{"name":"Pearson, Edmund Lester","birth_year":1880,"death_year":1937}],"translators":[],"subjects":["Boats and boating -- Juvenile fiction","Pirates -- Juvenile fiction"],"bookshelves":[],"languages":["en"],"copyright":false,"media_type":"Text","formats":{"application/rdf+xml":"https://www.gutenberg.org/ebooks/5064.rdf","text/html":"https://www.gutenberg.org/ebooks/5064.html.images","application/epub+zip":"https://www.gutenberg.org/ebooks/5064.epub3.images","application/x-mobipocket-ebook":"https://www.gutenberg.org/ebooks/5064.kf8.images","text/plain; charset=us-ascii":"https://www.gutenberg.org/ebooks/5064.txt.utf-8","image/jpeg":"https://www.gutenberg.org/cache/epub/5064/pg5064.cover.medium.jpg","application/octet-stream":"https://www.gutenberg.org/cache/epub/5064/pg5064-h.zip"},"download_count":8},{"id":5363,"title":"The Inside of the Cup — Volume 08","authors":[{"name":"Churchill, Winston","birth_year":1871,"death_year":1947}],"translators":[],"subjects":["Attitude change -- Fiction","Christian ethics -- Fiction","Christian life -- Fiction","Conscience -- Religious aspects -- Fiction"],"bookshelves":["Bestsellers, American, 1895-1923"],"languages":["en"],"copyright":false,"media_type":"Text","formats":{"text/html":"https://www.gutenberg.org/ebooks/5363.html.images","application/epub+zip":"https://www.gutenberg.org/ebooks/5363.epub3.images","application/x-mobipocket-ebook":"https://www.gutenberg.org/ebooks/5363.kf8.images","text/plain; charset=us-ascii":"https://www.gutenberg.org/ebooks/5363.txt.utf-8","application/rdf+xml":"https://www.gutenberg.org/ebooks/5363.rdf","image/jpeg":"https://www.gutenberg.org/cache/epub/5363/pg5363.cover.medium.jpg","application/octet-stream":"https://www.gutenberg.org/cache/epub/5363/pg5363-h.zip"},"download_count":8},{"id":5369,"title":"Richard Carvel — Volume 05","authors":[{"name":"Churchill, Winston","birth_year":1871,"death_year":1947}],"translators":[],"subjects":["Maryland -- History -- Fiction","United States -- History -- Revolution, 1775-1783 -- Fiction"],"bookshelves":["Bestsellers, American, 1895-1923"],"languages":["en"],"copyright":false,"media_type":"Text","formats":{"text/html":"https://www.gutenberg.org/ebooks/5369.html.images","application/epub+zip":"https://www.gutenberg.org/ebooks/5369.epub3.images","application/x-mobipocket-ebook":"https://www.gutenberg.org/ebooks/5369.kf8.images","text/plain; charset=us-ascii":"https://www.gutenberg.org/ebooks/5369.txt.utf-8","application/rdf+xml":"https://www.gutenberg.org/ebooks/5369.rdf","image/jpeg":"https://www.gutenberg.org/cache/epub/5369/pg5369.cover.medium.jpg","application/octet-stream":"https://www.gutenberg.org/cache/epub/5369/pg5369-h.zip"},"download_count":8},{"id":6416,"title":"Entertainments for Home, Church and School","authors":[{"name":"Seeger, Frederica","birth_year":null,"death_year":null}],"translators":[],"subjects":["Amusements","Games"],"bookshelves":[],"languages":["en"],"copyright":false,"media_type":"Text","formats":{"text/html":"https://www.gutenberg.org/ebooks/6416.html.images","application/epub+zip":"https://www.gutenberg.org/ebooks/6416.epub3.images","application/x-mobipocket-ebook":"https://www.gutenberg.org/ebooks/6416.kf8.images","text/plain; charset=us-ascii":"https://www.gutenberg.org/ebooks/6416.txt.utf-8","application/rdf+xml":"https://www.gutenberg.org/ebooks/6416.rdf","image/jpeg":"https://www.gutenberg.org/cache/epub/6416/pg6416.cover.medium.jpg","application/octet-stream":"https://www.gutenberg.org/cache/epub/6416/pg6416-h.zip"},"download_count":8},{"id":6998,"title":"The Spanish Chest","authors":[{"name":"Brown, Edna A.","birth_year":1875,"death_year":1944}],"translators":[],"subjects":["Jersey (Channel Islands) -- Juvenile fiction"],"bookshelves":[],"languages":["en"],"copyright":false,"media_type":"Text","formats":{"text/html":"https://www.gutenberg.org/ebooks/6998.html.images","application/epub+zip":"https://www.gutenberg.org/ebooks/6998.epub3.images","application/x-mobipocket-ebook":"https://www.gutenberg.org/ebooks/6998.kf8.images","text/plain; charset=us-ascii":"https://www.gutenberg.org/ebooks/6998.txt.utf-8","text/plain; charset=iso-8859-1":"https://www.gutenberg.org/files/6998/6998-8.txt","application/rdf+xml":"https://www.gutenberg.org/ebooks/6998.rdf","image/jpeg":"https://www.gutenberg.org/cache/epub/6998/pg6998.cover.medium.jpg","application/octet-stream":"https://www.gutenberg.org/cache/epub/6998/pg6998-h.zip"},"download_count":8},{"id":7080,"title":"Speeches on Questions of Public Policy, Volume 1","authors":[{"name":"Bright, John","birth_year":1811,"death_year":1889}],"translators":[],"subjects":["Great Britain -- Politics and government -- 1837-1901"],"bookshelves":[],"languages":["en"],"copyright":false,"media_type":"Text","formats":{"text/html":"https://www.gutenberg.org/ebooks/7080.html.images","application/epub+zip":"https://www.gutenberg.org/ebooks/7080.epub3.images","application/x-mobipocket-ebook":"https://www.gutenberg.org/ebooks/7080.kf8.images","text/plain; charset=us-ascii":"https://www.gutenberg.org/ebooks/7080.txt.utf-8","text/plain; charset=iso-8859-1":"https://www.gutenberg.org/files/7080/7080-8.txt","application/rdf+xml":"https://www.gutenberg.org/ebooks/7080.rdf","image/jpeg":"https://www.gutenberg.org/cache/epub/7080/pg7080.cover.medium.jpg","application/octet-stream":"https://www.gutenberg.org/cache/epub/7080/pg7080-h.zip"},"download_count":8},{"id":7595,"title":"The Caxtons: A Family Picture — Volume 10","authors":[{"name":"Lytton, Edward Bulwer Lytton, Baron","birth_year":1803,"death_year":1873}],"translators":[],"subjects":["English fiction -- 19th century","Families -- Fiction"],"bookshelves":[],"languages":["en"],"copyright":false,"media_type":"Text","formats":{"text/html":"https://www.gutenberg.org/ebooks/7595.html.images","application/epub+zip":"https://www.gutenberg.org/ebooks/7595.epub3.images","application/x-mobipocket-ebook":"https://www.gutenberg.org/ebooks/7595.kf8.images","text/plain; charset=us-ascii":"https://www.gutenberg.org/ebooks/7595.txt.utf-8","application/rdf+xml":"https://www.gutenberg.org/ebooks/7595.rdf","image/jpeg":"https://www.gutenberg.org/cache/epub/7595/pg7595.cover.medium.jpg","application/octet-stream":"https://www.gutenberg.org/cache/epub/7595/pg7595-h.zip"},"download_count":8},{"id":7612,"title":"Eugene Aram — Volume 04","authors":[{"name":"Lytton, Edward Bulwer Lytton, Baron","birth_year":1803,"death_year":1873}],"translators":[],"subjects":["Aram, Eugene, 1704-1759 -- Fiction"],"bookshelves":[],"languages":["en"],"copyright":false,"media_type":"Text","formats":{"application/rdf+xml":"https://www.gutenberg.org/ebooks/7612.rdf","text/html":"https://www.gutenberg.org/ebooks/7612.html.images","application/epub+zip":"https://www.gutenberg.org/ebooks/7612.epub3.images","application/x-mobipocket-ebook":"https://www.gutenberg.org/ebooks/7612.kf8.images","text/plain; charset=us-ascii":"https://www.gutenberg.org/ebooks/7612.txt.utf-8","image/jpeg":"https://www.gutenberg.org/cache/epub/7612/pg7612.cover.medium.jpg","application/octet-stream":"https://www.gutenberg.org/cache/epub/7612/pg7612-h.zip"},"download_count":8},{"id":7631,"title":"The Disowned — Volume 01","authors":[{"name":"Lytton, Edward Bulwer Lytton, Baron","birth_year":1803,"death_year":1873}],"translators":[],"subjects":["English fiction -- 19th century"],"bookshelves":[],"languages":["en"],"copyright":false,"media_type":"Text","formats":{"text/html":"https://www.gutenberg.org/ebooks/7631.html.images","application/epub+zip":"https://www.gutenberg.org/ebooks/7631.epub3.images","application/x-mobipocket-ebook":"https://www.gutenberg.org/ebooks/7631.kf8.images","text/plain; charset=us-ascii":"https://www.gutenberg.org/ebooks/7631.txt.utf-8","application/rdf+xml":"https://www.gutenberg.org/ebooks/7631.rdf","image/jpeg":"https://www.gutenberg.org/cache/epub/7631/pg7631.cover.medium.jpg","application/octet-stream":"https://www.gutenberg.org/cache/epub/7631/pg7631-h.zip"},"download_count":8},{"id":7632,"title":"The Disowned — Volume 02","authors":[{"name":"Lytton, Edward Bulwer Lytton, Baron","birth_year":1803,"death_year":1873}],"translators":[],"subjects":["English fiction -- 19th century"],"bookshelves":[],"languages":["en"],"copyright":false,"media_type":"Text","formats":{"application/rdf+xml":"https://www.gutenberg.org/ebooks/7632.rdf","text/html":"https://www.gutenberg.org/ebooks/7632.html.images","application/epub+zip":"https://www.gutenberg.org/ebooks/7632.epub3.images","application/x-mobipocket-ebook":"https://www.gutenberg.org/ebooks/7632.kf8.images","text/plain; charset=us-ascii":"https://www.gutenberg.org/ebooks/7632.txt.utf-8","image/jpeg":"https://www.gutenberg.org/cache/epub/7632/pg7632.cover.medium.jpg","application/octet-stream":"https://www.gutenberg.org/cache/epub/7632/pg7632-h.zip"},"download_count":8},{"id":7661,"title":"What Will He Do with It? — Volume 03","authors":[{"name":"Lytton, Edward Bulwer Lytton, Baron","birth_year":1803,"death_year":1873}],"translators":[],"subjects":["English fiction -- 19th century"],"bookshelves":[],"languages":["en"],"copyright":false,"media_type":"Text","formats":{"text/html":"https://www.gutenberg.org/ebooks/7661.html.images","application/epub+zip":"https://www.gutenberg.org/ebooks/7661.epub3.images","application/x-mobipocket-ebook":"https://www.gutenberg.org/ebooks/7661.kf8.images","text/plain; charset=us-ascii":"https://www.gutenberg.org/ebooks/7661.txt.utf-8","application/rdf+xml":"https://www.gutenberg.org/ebooks/7661.rdf","image/jpeg":"https://www.gutenberg.org/cache/epub/7661/pg7661.cover.medium.jpg","application/octet-stream":"https://www.gutenberg.org/cache/epub/7661/pg7661-h.zip"},"download_count":8},{"id":7663,"title":"What Will He Do with It? — Volume 05","authors":[{"name":"Lytton, Edward Bulwer Lytton, Baron","birth_year":1803,"death_year":1873}],"translators":[],"subjects":["English fiction -- 19th century"],"bookshelves":[],"languages":["en"],"copyright":false,"media_type":"Text","formats":{"text/html":"https://www.gutenberg.org/ebooks/7663.html.images","application/epub+zip":"https://www.gutenberg.org/ebooks/7663.epub3.images","application/x-mobipocket-ebook":"https://www.gutenberg.org/ebooks/7663.kf8.images","text/plain; charset=us-ascii":"https://www.gutenberg.org/ebooks/7663.txt.utf-8","application/rdf+xml":"https://www.gutenberg.org/ebooks/7663.rdf","image/jpeg":"https://www.gutenberg.org/cache/epub/7663/pg7663.cover.medium.jpg","application/octet-stream":"https://www.gutenberg.org/cache/epub/7663/pg7663-h.zip"},"download_count":8},{"id":7664,"title":"What Will He Do with It? — Volume 06","authors":[{"name":"Lytton, Edward Bulwer Lytton, Baron","birth_year":1803,"death_year":1873}],"translators":[],"subjects":["English fiction -- 19th century"],"bookshelves":[],"languages":["en"],"copyright":false,"media_type":"Text","formats":{"text/html":"https://www.gutenberg.org/ebooks/7664.html.images","application/epub+zip":"https://www.gutenberg.org/ebooks/7664.epub3.images","application/x-mobipocket-ebook":"https://www.gutenberg.org/ebooks/7664.kf8.images","text/plain; charset=us-ascii":"https://www.gutenberg.org/ebooks/7664.txt.utf-8","application/rdf+xml":"https://www.gutenberg.org/ebooks/7664.rdf","image/jpeg":"https://www.gutenberg.org/cache/epub/7664/pg7664.cover.medium.jpg","application/octet-stream":"https://www.gutenberg.org/cache/epub/7664/pg7664-h.zip"},"download_count":8},{"id":7667,"title":"What Will He Do with It? — Volume 09","authors":[{"name":"Lytton, Edward Bulwer Lytton, Baron","birth_year":1803,"death_year":1873}],"translators":[],"subjects":["English fiction -- 19th century"],"bookshelves":[],"languages":["en"],"copyright":false,"media_type":"Text","formats":{"text/html":"https://www.gutenberg.org/ebooks/7667.html.images","application/epub+zip":"https://www.gutenberg.org/ebooks/7667.epub3.images","application/x-mobipocket-ebook":"https://www.gutenberg.org/ebooks/7667.kf8.images","text/plain; charset=us-ascii":"https://www.gutenberg.org/ebooks/7667.txt.utf-8","application/rdf+xml":"https://www.gutenberg.org/ebooks/7667.rdf","image/jpeg":"https://www.gutenberg.org/cache/epub/7667/pg7667.cover.medium.jpg","application/octet-stream":"https://www.gutenberg.org/cache/epub/7667/pg7667-h.zip"},"download_count":8},{"id":7669,"title":"What Will He Do with It? — Volume 11","authors":[{"name":"Lytton, Edward Bulwer Lytton, Baron","birth_year":1803,"death_year":1873}],"translators":[],"subjects":["English fiction -- 19th century"],"bookshelves":[],"languages":["en"],"copyright":false,"media_type":"Text","formats":{"text/html":"https://www.gutenberg.org/ebooks/7669.html.images","application/epub+zip":"https://www.gutenberg.org/ebooks/7669.epub3.images","application/x-mobipocket-ebook":"https://www.gutenberg.org/ebooks/7669.kf8.images","text/plain; charset=us-ascii":"https://www.gutenberg.org/ebooks/7669.txt.utf-8","application/rdf+xml":"https://www.gutenberg.org/ebooks/7669.rdf","image/jpeg":"https://www.gutenberg.org/cache/epub/7669/pg7669.cover.medium.jpg","application/octet-stream":"https://www.gutenberg.org/cache/epub/7669/pg7669-h.zip"},"download_count":8},{"id":7689,"title":"Lucretia — Volume 05","authors":[{"name":"Lytton, Edward Bulwer Lytton, Baron","birth_year":1803,"death_year":1873}],"translators":[],"subjects":["Crime -- Fiction","Detective and mystery stories, English","English fiction -- 19th century","London (England) -- Fiction"],"bookshelves":[],"languages":["en"],"copyright":false,"media_type":"Text","formats":{"text/html":"https://www.gutenberg.org/ebooks/7689.html.images","application/epub+zip":"https://www.gutenberg.org/ebooks/7689.epub3.images","application/x-mobipocket-ebook":"https://www.gutenberg.org/ebooks/7689.kf8.images","text/plain; charset=us-ascii":"https://www.gutenberg.org/ebooks/7689.txt.utf-8","application/rdf+xml":"https://www.gutenberg.org/ebooks/7689.rdf","image/jpeg":"https://www.gutenberg.org/cache/epub/7689/pg7689.cover.medium.jpg","application/octet-stream":"https://www.gutenberg.org/cache/epub/7689/pg7689-h.zip"},"download_count":8},{"id":7696,"title":"A Strange Story — Volume 05","authors":[{"name":"Lytton, Edward Bulwer Lytton, Baron","birth_year":1803,"death_year":1873}],"translators":[],"subjects":["English fiction -- 19th century"],"bookshelves":[],"languages":["en"],"copyright":false,"media_type":"Text","formats":{"text/html":"https://www.gutenberg.org/ebooks/7696.html.images","application/epub+zip":"https://www.gutenberg.org/ebooks/7696.epub3.images","application/x-mobipocket-ebook":"https://www.gutenberg.org/ebooks/7696.kf8.images","text/plain; charset=us-ascii":"https://www.gutenberg.org/ebooks/7696.txt.utf-8","application/rdf+xml":"https://www.gutenberg.org/ebooks/7696.rdf","image/jpeg":"https://www.gutenberg.org/cache/epub/7696/pg7696.cover.medium.jpg","application/octet-stream":"https://www.gutenberg.org/cache/epub/7696/pg7696-h.zip"},"download_count":8},{"id":7711,"title":"\"My Novel\" — Volume 10","authors":[{"name":"Lytton, Edward Bulwer Lytton, Baron","birth_year":1803,"death_year":1873}],"translators":[],"subjects":["Death -- Fiction","Domestic fiction","England -- Fiction","Germany -- Fiction","Inventors -- Fiction","Poets -- Fiction","Rhine River -- Fiction"],"bookshelves":[],"languages":["en"],"copyright":false,"media_type":"Text","formats":{"text/html":"https://www.gutenberg.org/ebooks/7711.html.images","application/epub+zip":"https://www.gutenberg.org/ebooks/7711.epub3.images","application/x-mobipocket-ebook":"https://www.gutenberg.org/ebooks/7711.kf8.images","text/plain; charset=us-ascii":"https://www.gutenberg.org/ebooks/7711.txt.utf-8","application/rdf+xml":"https://www.gutenberg.org/ebooks/7711.rdf","image/jpeg":"https://www.gutenberg.org/cache/epub/7711/pg7711.cover.medium.jpg","application/octet-stream":"https://www.gutenberg.org/cache/epub/7711/pg7711-h.zip"},"download_count":8},{"id":7753,"title":"Godolphin, Volume 4.","authors":[{"name":"Lytton, Edward Bulwer Lytton, Baron","birth_year":1803,"death_year":1873}],"translators":[],"subjects":["England -- Social life and customs -- 19th century -- Fiction"],"bookshelves":[],"languages":["en"],"copyright":false,"media_type":"Text","formats":{"text/html":"https://www.gutenberg.org/ebooks/7753.html.images","application/epub+zip":"https://www.gutenberg.org/ebooks/7753.epub3.images","application/x-mobipocket-ebook":"https://www.gutenberg.org/ebooks/7753.kf8.images","text/plain; charset=us-ascii":"https://www.gutenberg.org/ebooks/7753.txt.utf-8","application/rdf+xml":"https://www.gutenberg.org/ebooks/7753.rdf","image/jpeg":"https://www.gutenberg.org/cache/epub/7753/pg7753.cover.medium.jpg","application/octet-stream":"https://www.gutenberg.org/cache/epub/7753/pg7753-h.zip"},"download_count":8},{"id":8053,"title":"The Bible, King James version, Book 53: 2 Thessalonians","authors":[{"name":"Anonymous","birth_year":null,"death_year":null}],"translators":[],"subjects":["Bible. Thessalonians, 2nd"],"bookshelves":[],"languages":["en"],"copyright":false,"media_type":"Text","formats":{"text/html":"https://www.gutenberg.org/ebooks/8053.html.images","application/epub+zip":"https://www.gutenberg.org/ebooks/8053.epub3.images","application/x-mobipocket-ebook":"https://www.gutenberg.org/ebooks/8053.kf8.images","text/plain; charset=us-ascii":"https://www.gutenberg.org/ebooks/8053.txt.utf-8","application/rdf+xml":"https://www.gutenberg.org/ebooks/8053.rdf","image/jpeg":"https://www.gutenberg.org/cache/epub/8053/pg8053.cover.medium.jpg","application/octet-stream":"https://www.gutenberg.org/cache/epub/8053/pg8053-h.zip"},"download_count":8},{"id":8056,"title":"The Bible, King James version, Book 56: Titus","authors":[{"name":"Anonymous","birth_year":null,"death_year":null}],"translators":[],"subjects":["Bible. Titus"],"bookshelves":[],"languages":["en"],"copyright":false,"media_type":"Text","formats":{"text/html":"https://www.gutenberg.org/ebooks/8056.html.images","application/epub+zip":"https://www.gutenberg.org/ebooks/8056.epub3.images","application/x-mobipocket-ebook":"https://www.gutenberg.org/ebooks/8056.kf8.images","text/plain; charset=us-ascii":"https://www.gutenberg.org/ebooks/8056.txt.utf-8","application/rdf+xml":"https://www.gutenberg.org/ebooks/8056.rdf","image/jpeg":"https://www.gutenberg.org/cache/epub/8056/pg8056.cover.medium.jpg","application/octet-stream":"https://www.gutenberg.org/cache/epub/8056/pg8056-h.zip"},"download_count":8},{"id":8057,"title":"The Bible, King James version, Book 57: Philemon","authors":[{"name":"Anonymous","birth_year":null,"death_year":null}],"translators":[],"subjects":["Bible. Epistles of Paul","Bible. Philemon"],"bookshelves":[],"languages":["en"],"copyright":false,"media_type":"Text","formats":{"text/html":"https://www.gutenberg.org/ebooks/8057.html.images","application/epub+zip":"https://www.gutenberg.org/ebooks/8057.epub3.images","application/x-mobipocket-ebook":"https://www.gutenberg.org/ebooks/8057.kf8.images","text/plain; charset=us-ascii":"https://www.gutenberg.org/ebooks/8057.txt.utf-8","application/rdf+xml":"https://www.gutenberg.org/ebooks/8057.rdf","image/jpeg":"https://www.gutenberg.org/cache/epub/8057/pg8057.cover.medium.jpg","application/octet-stream":"https://www.gutenberg.org/cache/epub/8057/pg8057-h.zip"},"download_count":8},{"id":8230,"title":"The World English Bible (WEB): Leviticus","authors":[{"name":"Anonymous","birth_year":null,"death_year":null}],"translators":[],"subjects":["Bible. Leviticus"],"bookshelves":[],"languages":["en"],"copyright":false,"media_type":"Text","formats":{"text/html":"https://www.gutenberg.org/ebooks/8230.html.images","application/epub+zip":"https://www.gutenberg.org/ebooks/8230.epub3.images","application/x-mobipocket-ebook":"https://www.gutenberg.org/ebooks/8230.kf8.images","text/plain; charset=us-ascii":"https://www.gutenberg.org/ebooks/8230.txt.utf-8","application/rdf+xml":"https://www.gutenberg.org/ebooks/8230.rdf","image/jpeg":"https://www.gutenberg.org/cache/epub/8230/pg8230.cover.medium.jpg","application/octet-stream":"https://www.gutenberg.org/cache/epub/8230/pg8230-h.zip"},"download_count":8},{"id":8289,"title":"The World English Bible (WEB): 1 John","authors":[{"name":"Anonymous","birth_year":null,"death_year":null}],"translators":[],"subjects":["Bible. Epistle of John, 1st"],"bookshelves":[],"languages":["en"],"copyright":false,"media_type":"Text","formats":{"text/html":"https://www.gutenberg.org/ebooks/8289.html.images","application/epub+zip":"https://www.gutenberg.org/ebooks/8289.epub3.images","application/x-mobipocket-ebook":"https://www.gutenberg.org/ebooks/8289.kf8.images","text/plain; charset=us-ascii":"https://www.gutenberg.org/ebooks/8289.txt.utf-8","application/rdf+xml":"https://www.gutenberg.org/ebooks/8289.rdf","image/jpeg":"https://www.gutenberg.org/cache/epub/8289/pg8289.cover.medium.jpg","application/octet-stream":"https://www.gutenberg.org/cache/epub/8289/pg8289-h.zip"},"download_count":8},{"id":8311,"title":"The Bible, Douay-Rheims, Book 11: 3 Kings: The Challoner Revision","authors":[],"translators":[],"subjects":["Bible. Kings, 1st"],"bookshelves":[],"languages":["en"],"copyright":false,"media_type":"Text","formats":{"text/html":"https://www.gutenberg.org/ebooks/8311.html.images","application/epub+zip":"https://www.gutenberg.org/ebooks/8311.epub3.images","application/x-mobipocket-ebook":"https://www.gutenberg.org/ebooks/8311.kf8.images","text/plain; charset=us-ascii":"https://www.gutenberg.org/ebooks/8311.txt.utf-8","application/rdf+xml":"https://www.gutenberg.org/ebooks/8311.rdf","image/jpeg":"https://www.gutenberg.org/cache/epub/8311/pg8311.cover.medium.jpg","application/octet-stream":"https://www.gutenberg.org/cache/epub/8311/pg8311-h.zip"},"download_count":8}]}