{"count":58808,"next":"http://129.241.150.113:8000/books/?languages=en&page=1292","previous":"http://129.241.150.113:8000/books/?languages=en&page=1290","results":[{"id":69809,"title":"For whose sake?: A sequel to \"Why did he wed her?\"","authors":[{"name":"Southworth, Emma Dorothy Eliza Nevitte","birth_year":1819,"death_year":1899}],"translators":[],"subjects":["Bigamy -- Fiction","England -- Fiction","Impostors and imposture -- Fiction"],"bookshelves":[],"languages":["en"],"copyright":false,"media_type":"Text","formats":{"text/html":"https://www.gutenberg.org/ebooks/69809.html.images","application/epub+zip":"https://www.gutenberg.org/ebooks/69809.epub3.images","application/x-mobipocket-ebook":"https://www.gutenberg.org/ebooks/69809.kf8.images","text/plain; charset=us-ascii":"https://www.gutenberg.org/ebooks/69809.txt.utf-8","application/rdf+xml":"https://www.gutenberg.org/ebooks/69809.rdf","image/jpeg":"https://www.gutenberg.org/cache/epub/69809/pg69809.cover.medium.jpg","application/octet-stream":"https://www.gutenberg.org/files/69809/69809-0.zip"},"download_count":29},{"id":69868,"title":"The barber's chair; and, The hedgehog letters","authors":[{"name":"Jerrold, Douglas William","birth_year":1803,"death_year":1857}],"translators":[],"subjects":["English literature -- 19th century","English wit and humor"],"bookshelves":[],"languages":["en"],"copyright":false,"media_type":"Text","formats":{"text/html":"https://www.gutenberg.org/ebooks/69868.html.images","application/epub+zip":"https://www.gutenberg.org/ebooks/69868.epub3.images","application/x-mobipocket-ebook":"https://www.gutenberg.org/ebooks/69868.kf8.images","text/plain; charset=us-ascii":"https://www.gutenberg.org/ebooks/69868.txt.utf-8","application/rdf+xml":"https://www.gutenberg.org/ebooks/69868.rdf","image/jpeg":"https://www.gutenberg.org/cache/epub/69868/pg69868.cover.medium.jpg","application/octet-stream":"https://www.gutenberg.org/files/69868/69868-0.zip"},"download_count":29},{"id":69921,"title":"Schizophrenic","authors":[{"name":"Loomis, Noel M.","birth_year":1905,"death_year":1969}],"translators":[],"subjects":["Boys -- Fiction","Families -- Fiction","Psychic ability -- Fiction","Science fiction","Short stories"],"bookshelves":[],"languages":["en"],"copyright":false,"media_type":"Text","formats":{"text/html":"https://www.gutenberg.org/ebooks/69921.html.images","application/epub+zip":"https://www.gutenberg.org/ebooks/69921.epub3.images","application/x-mobipocket-ebook":"https://www.gutenberg.org/ebooks/69921.kf8.images","text/plain; charset=us-ascii":"https://www.gutenberg.org/ebooks/69921.txt.utf-8","application/rdf+xml":"https://www.gutenberg.org/ebooks/69921.rdf","image/jpeg":"https://www.gutenberg.org/cache/epub/69921/pg69921.cover.medium.jpg","application/octet-stream":"https://www.gutenberg.org/files/69921/69921-0.zip"},"download_count":29},{"id":69923,"title":"Fuzzy-Wuzz, a little brown bear of the Sierras","authors":[{"name":"Chaffee, Allen","birth_year":1884,"death_year":1985}],"translators":[],"subjects":["Animals -- Juvenile fiction"],"bookshelves":[],"languages":["en"],"copyright":false,"media_type":"Text","formats":{"text/html":"https://www.gutenberg.org/ebooks/69923.html.images","application/epub+zip":"https://www.gutenberg.org/ebooks/69923.epub3.images","application/x-mobipocket-ebook":"https://www.gutenberg.org/ebooks/69923.kf8.images","text/plain; charset=us-ascii":"https://www.gutenberg.org/ebooks/69923.txt.utf-8","application/rdf+xml":"https://www.gutenberg.org/ebooks/69923.rdf","image/jpeg":"https://www.gutenberg.org/cache/epub/69923/pg69923.cover.medium.jpg","application/octet-stream":"https://www.gutenberg.org/files/69923/69923-0.zip"},"download_count":29},{"id":69990,"title":"A month in Switzerland","authors":[{"name":"Zincke, F. Barham (Foster Barham)","birth_year":1817,"death_year":1893}],"translators":[],"subjects":["Switzerland -- Description and travel"],"bookshelves":[],"languages":["en"],"copyright":false,"media_type":"Text","formats":{"text/html":"https://www.gutenberg.org/ebooks/69990.html.images","application/epub+zip":"https://www.gutenberg.org/ebooks/69990.epub3.images","application/x-mobipocket-ebook":"https://www.gutenberg.org/ebooks/69990.kf8.images","text/plain; charset=us-ascii":"https://www.gutenberg.org/ebooks/69990.txt.utf-8","application/rdf+xml":"https://www.gutenberg.org/ebooks/69990.rdf","image/jpeg":"https://www.gutenberg.org/cache/epub/69990/pg69990.cover.medium.jpg","application/octet-stream":"https://www.gutenberg.org/files/69990/69990-0.zip"},"download_count":29},{"id":69995,"title":"Report on the lands of the arid region of the United States, with a more detailed account of the lands of Utah","authors":[{"name":"Powell, John Wesley","birth_year":1834,"death_year":1902},{"name":"Drummond, Willis","birth_year":1808,"death_year":1879},{"name":"Dutton, Clarence E. (Clarence Edward)","birth_year":1841,"death_year":1912},{"name":"Gilbert, Grove Karl","birth_year":1843,"death_year":1918},{"name":"Thompson, A. H. (Almon Harris)","birth_year":1839,"death_year":1906}],"translators":[],"subjects":["Irrigation -- Utah","Irrigation -- West (U.S.)","Public lands -- United States","Rain and rainfall -- West (U.S.)"],"bookshelves":[],"languages":["en"],"copyright":false,"media_type":"Text","formats":{"text/html":"https://www.gutenberg.org/ebooks/69995.html.images","application/epub+zip":"https://www.gutenberg.org/ebooks/69995.epub3.images","application/x-mobipocket-ebook":"https://www.gutenberg.org/ebooks/69995.kf8.images","text/plain; charset=us-ascii":"https://www.gutenberg.org/ebooks/69995.txt.utf-8","application/rdf+xml":"https://www.gutenberg.org/ebooks/69995.rdf","image/jpeg":"https://www.gutenberg.org/cache/epub/69995/pg69995.cover.medium.jpg","application/octet-stream":"https://www.gutenberg.org/files/69995/69995-0.zip"},"download_count":29},{"id":70023,"title":"The reigning belle : $b A society novel","authors":[{"name":"Stephens, Ann S. (Ann Sophia)","birth_year":1810,"death_year":1886}],"translators":[],"subjects":["New York (N.Y.) -- Social life and customs -- 19th century -- Fiction","Young women -- Fiction"],"bookshelves":[],"languages":["en"],"copyright":false,"media_type":"Text","formats":{"text/html":"https://www.gutenberg.org/ebooks/70023.html.images","application/epub+zip":"https://www.gutenberg.org/ebooks/70023.epub3.images","application/x-mobipocket-ebook":"https://www.gutenberg.org/ebooks/70023.kf8.images","text/plain; charset=us-ascii":"https://www.gutenberg.org/ebooks/70023.txt.utf-8","application/rdf+xml":"https://www.gutenberg.org/ebooks/70023.rdf","image/jpeg":"https://www.gutenberg.org/cache/epub/70023/pg70023.cover.medium.jpg","application/octet-stream":"https://www.gutenberg.org/files/70023/70023-0.zip"},"download_count":29},{"id":70040,"title":"Practical recitations: $b Selections for literary exercises appropriate for reception-days, holidays, poets' birthdays, etc.","authors":[{"name":"Le Row, Caroline B. (Caroline Bigelow)","birth_year":1843,"death_year":null}],"translators":[],"subjects":["Recitations"],"bookshelves":[],"languages":["en"],"copyright":false,"media_type":"Text","formats":{"text/html":"https://www.gutenberg.org/ebooks/70040.html.images","application/epub+zip":"https://www.gutenberg.org/ebooks/70040.epub3.images","application/x-mobipocket-ebook":"https://www.gutenberg.org/ebooks/70040.kf8.images","text/plain; charset=us-ascii":"https://www.gutenberg.org/ebooks/70040.txt.utf-8","application/rdf+xml":"https://www.gutenberg.org/ebooks/70040.rdf","image/jpeg":"https://www.gutenberg.org/cache/epub/70040/pg70040.cover.medium.jpg","application/octet-stream":"https://www.gutenberg.org/files/70040/70040-0.zip"},"download_count":29},{"id":70118,"title":"In Cupid's court","authors":[],"translators":[],"subjects":["Cupid in literature","Love poetry"],"bookshelves":[],"languages":["en"],"copyright":false,"media_type":"Text","formats":{"text/html":"https://www.gutenberg.org/ebooks/70118.html.images","application/epub+zip":"https://www.gutenberg.org/ebooks/70118.epub3.images","application/x-mobipocket-ebook":"https://www.gutenberg.org/ebooks/70118.kf8.images","text/plain; charset=us-ascii":"https://www.gutenberg.org/ebooks/70118.txt.utf-8","application/rdf+xml":"https://www.gutenberg.org/ebooks/70118.rdf","image/jpeg":"https://www.gutenberg.org/cache/epub/70118/pg70118.cover.medium.jpg","application/octet-stream":"https://www.gutenberg.org/files/70118/70118-0.zip"},"download_count":29},{"id":70171,"title":"North Africa and the desert : $b Scenes and moods","authors":[{"name":"Woodberry, George Edward","birth_year":1855,"death_year":1930}],"translators":[],"subjects":["Africa, North -- Description and travel","Sahara -- Description and travel"],"bookshelves":[],"languages":["en"],"copyright":false,"media_type":"Text","formats":{"text/html":"https://www.gutenberg.org/ebooks/70171.html.images","application/epub+zip":"https://www.gutenberg.org/ebooks/70171.epub3.images","application/x-mobipocket-ebook":"https://www.gutenberg.org/ebooks/70171.kf8.images","text/plain; charset=us-ascii":"https://www.gutenberg.org/ebooks/70171.txt.utf-8","application/rdf+xml":"https://www.gutenberg.org/ebooks/70171.rdf","image/jpeg":"https://www.gutenberg.org/cache/epub/70171/pg70171.cover.medium.jpg","application/octet-stream":"https://www.gutenberg.org/files/70171/70171-0.zip"},"download_count":29},{"id":70183,"title":"The dreamers","authors":[{"name":"Kella, Lu","birth_year":null,"death_year":null}],"translators":[],"subjects":["Dreams -- Fiction","Man-woman relationships -- Fiction","Science fiction","Short stories"],"bookshelves":[],"languages":["en"],"copyright":false,"media_type":"Text","formats":{"text/html":"https://www.gutenberg.org/ebooks/70183.html.images","application/epub+zip":"https://www.gutenberg.org/ebooks/70183.epub3.images","application/x-mobipocket-ebook":"https://www.gutenberg.org/ebooks/70183.kf8.images","text/plain; charset=us-ascii":"https://www.gutenberg.org/ebooks/70183.txt.utf-8","application/rdf+xml":"https://www.gutenberg.org/ebooks/70183.rdf","image/jpeg":"https://www.gutenberg.org/cache/epub/70183/pg70183.cover.medium.jpg","application/octet-stream":"https://www.gutenberg.org/files/70183/70183-0.zip"},"download_count":29},{"id":70203,"title":"The story of chamber music","authors":[{"name":"Kilburn, N. (Nicholas)","birth_year":1843,"death_year":1923}],"translators":[],"subjects":["Chamber music -- History and criticism"],"bookshelves":[],"languages":["en"],"copyright":false,"media_type":"Text","formats":{"text/html":"https://www.gutenberg.org/ebooks/70203.html.images","application/epub+zip":"https://www.gutenberg.org/ebooks/70203.epub3.images","application/x-mobipocket-ebook":"https://www.gutenberg.org/ebooks/70203.kf8.images","text/plain; charset=us-ascii":"https://www.gutenberg.org/ebooks/70203.txt.utf-8","application/rdf+xml":"https://www.gutenberg.org/ebooks/70203.rdf","image/jpeg":"https://www.gutenberg.org/cache/epub/70203/pg70203.cover.medium.jpg","application/octet-stream":"https://www.gutenberg.org/files/70203/70203-0.zip"},"download_count":29},{"id":70227,"title":"The Mobius trail","authors":[{"name":"Smith, George O. (George Oliver)","birth_year":1911,"death_year":1981}],"translators":[],"subjects":["Inventions -- Fiction","Inventors -- Fiction","Science fiction","Teleportation -- Fiction"],"bookshelves":[],"languages":["en"],"copyright":false,"media_type":"Text","formats":{"text/html":"https://www.gutenberg.org/ebooks/70227.html.images","application/epub+zip":"https://www.gutenberg.org/ebooks/70227.epub3.images","application/x-mobipocket-ebook":"https://www.gutenberg.org/ebooks/70227.kf8.images","text/plain; charset=us-ascii":"https://www.gutenberg.org/ebooks/70227.txt.utf-8","application/rdf+xml":"https://www.gutenberg.org/ebooks/70227.rdf","image/jpeg":"https://www.gutenberg.org/cache/epub/70227/pg70227.cover.medium.jpg","application/octet-stream":"https://www.gutenberg.org/files/70227/70227-0.zip"},"download_count":29},{"id":70247,"title":"Second landing","authors":[{"name":"Leinster, Murray","birth_year":1896,"death_year":1975}],"translators":[],"subjects":["Human-alien encounters -- Fiction","Outer space -- Exploration -- Fiction","Science fiction"],"bookshelves":[],"languages":["en"],"copyright":false,"media_type":"Text","formats":{"text/html":"https://www.gutenberg.org/ebooks/70247.html.images","application/epub+zip":"https://www.gutenberg.org/ebooks/70247.epub3.images","application/x-mobipocket-ebook":"https://www.gutenberg.org/ebooks/70247.kf8.images","text/plain; charset=us-ascii":"https://www.gutenberg.org/ebooks/70247.txt.utf-8","application/rdf+xml":"https://www.gutenberg.org/ebooks/70247.rdf","image/jpeg":"https://www.gutenberg.org/cache/epub/70247/pg70247.cover.medium.jpg","application/octet-stream":"https://www.gutenberg.org/files/70247/70247-0.zip"},"download_count":29},{"id":70333,"title":"Dress and care of the feet: $b showing their natural shape and construction; their usual distorted condition; how corns, bunions, flat feet, and other deformities are caused, with instructions for their prevention or cure. Also, directions for dressing the feet with comfort and elegance, and many useful hints to those who wear, as well as those who make foot-coverings.","authors":[{"name":"Peck, John Lord","birth_year":null,"death_year":null}],"translators":[],"subjects":["Boots","Foot","Foot -- Care and hygiene","Footwear","Shoes"],"bookshelves":[],"languages":["en"],"copyright":false,"media_type":"Text","formats":{"text/html":"https://www.gutenberg.org/ebooks/70333.html.images","application/epub+zip":"https://www.gutenberg.org/ebooks/70333.epub3.images","application/x-mobipocket-ebook":"https://www.gutenberg.org/ebooks/70333.kf8.images","text/plain; charset=us-ascii":"https://www.gutenberg.org/ebooks/70333.txt.utf-8","application/rdf+xml":"https://www.gutenberg.org/ebooks/70333.rdf","image/jpeg":"https://www.gutenberg.org/cache/epub/70333/pg70333.cover.medium.jpg","application/octet-stream":"https://www.gutenberg.org/files/70333/70333-0.zip"},"download_count":29},{"id":70480,"title":"Old Cape Cod : $b the land, the men, the sea","authors":[{"name":"Bangs, Mary Rogers","birth_year":null,"death_year":null}],"translators":[],"subjects":["Cape Cod (Mass.)"],"bookshelves":[],"languages":["en"],"copyright":false,"media_type":"Text","formats":{"text/html":"https://www.gutenberg.org/ebooks/70480.html.images","application/epub+zip":"https://www.gutenberg.org/ebooks/70480.epub3.images","application/x-mobipocket-ebook":"https://www.gutenberg.org/ebooks/70480.kf8.images","text/plain; charset=us-ascii":"https://www.gutenberg.org/ebooks/70480.txt.utf-8","application/rdf+xml":"https://www.gutenberg.org/ebooks/70480.rdf","image/jpeg":"https://www.gutenberg.org/cache/epub/70480/pg70480.cover.medium.jpg","application/octet-stream":"https://www.gutenberg.org/files/70480/70480-0.zip"},"download_count":29},{"id":70559,"title":"Survival of the fittest","authors":[{"name":"Henderson, Gene L.","birth_year":null,"death_year":null}],"translators":[],"subjects":["Androids -- Fiction","Man-woman relationships -- Fiction","Science fiction","War stories"],"bookshelves":[],"languages":["en"],"copyright":false,"media_type":"Text","formats":{"text/html":"https://www.gutenberg.org/ebooks/70559.html.images","application/epub+zip":"https://www.gutenberg.org/ebooks/70559.epub3.images","application/x-mobipocket-ebook":"https://www.gutenberg.org/ebooks/70559.kf8.images","text/plain; charset=us-ascii":"https://www.gutenberg.org/ebooks/70559.txt.utf-8","application/rdf+xml":"https://www.gutenberg.org/ebooks/70559.rdf","image/jpeg":"https://www.gutenberg.org/cache/epub/70559/pg70559.cover.medium.jpg","application/octet-stream":"https://www.gutenberg.org/files/70559/70559-0.zip"},"download_count":29},{"id":70683,"title":"The doom trail","authors":[{"name":"Smith, Arthur D. Howden (Arthur Douglas Howden)","birth_year":1887,"death_year":1945}],"translators":[],"subjects":["Canada -- History -- To 1763 (New France) -- Fiction","Fur trade -- Fiction","Historical fiction","Iroquois Indians -- Fiction","United States -- History -- Colonial period, ca. 1600-1775 -- Fiction"],"bookshelves":[],"languages":["en"],"copyright":false,"media_type":"Text","formats":{"text/html":"https://www.gutenberg.org/ebooks/70683.html.images","application/epub+zip":"https://www.gutenberg.org/ebooks/70683.epub3.images","application/x-mobipocket-ebook":"https://www.gutenberg.org/ebooks/70683.kf8.images","text/plain; charset=us-ascii":"https://www.gutenberg.org/ebooks/70683.txt.utf-8","application/rdf+xml":"https://www.gutenberg.org/ebooks/70683.rdf","image/jpeg":"https://www.gutenberg.org/cache/epub/70683/pg70683.cover.medium.jpg","application/octet-stream":"https://www.gutenberg.org/files/70683/70683-0.zip"},"download_count":29},{"id":70771,"title":"Oxford poetry, 1918","authors":[],"translators":[],"subjects":["College verse, English -- England -- Oxford","English poetry -- 20th century"],"bookshelves":[],"languages":["en"],"copyright":false,"media_type":"Text","formats":{"text/html":"https://www.gutenberg.org/ebooks/70771.html.images","application/epub+zip":"https://www.gutenberg.org/ebooks/70771.epub3.images","application/x-mobipocket-ebook":"https://www.gutenberg.org/ebooks/70771.kf8.images","text/plain; charset=us-ascii":"https://www.gutenberg.org/ebooks/70771.txt.utf-8","application/rdf+xml":"https://www.gutenberg.org/ebooks/70771.rdf","image/jpeg":"https://www.gutenberg.org/cache/epub/70771/pg70771.cover.medium.jpg","application/octet-stream":"https://www.gutenberg.org/files/70771/70771-0.zip"},"download_count":29},{"id":70795,"title":"A forgotten Prince of Wales","authors":[{"name":"Curties, Henry","birth_year":1860,"death_year":null}],"translators":[],"subjects":["Frederick Louis, Prince of Wales, 1707-1751"],"bookshelves":[],"languages":["en"],"copyright":false,"media_type":"Text","formats":{"text/html":"https://www.gutenberg.org/ebooks/70795.html.images","application/epub+zip":"https://www.gutenberg.org/ebooks/70795.epub3.images","application/x-mobipocket-ebook":"https://www.gutenberg.org/ebooks/70795.kf8.images","text/plain; charset=us-ascii":"https://www.gutenberg.org/ebooks/70795.txt.utf-8","application/rdf+xml":"https://www.gutenberg.org/ebooks/70795.rdf","image/jpeg":"https://www.gutenberg.org/cache/epub/70795/pg70795.cover.medium.jpg","application/octet-stream":"https://www.gutenberg.org/files/70795/70795-0.zip"},"download_count":29},{"id":70842,"title":"The Champlain tercentenary : $b Final report of the New York Lake Champlain tercentenary commission","authors":[{"name":"Hill, Henry Wayland","birth_year":1853,"death_year":1929},{"name":"New York (State). Lake Champlain Tercentenary Commission","birth_year":null,"death_year":null}],"translators":[],"subjects":["Champlain Valley -- Antiquities","Champlain tercentenary celebrations","Champlain, Samuel de, 1574-1635"],"bookshelves":[],"languages":["en"],"copyright":false,"media_type":"Text","formats":{"text/html":"https://www.gutenberg.org/ebooks/70842.html.images","application/epub+zip":"https://www.gutenberg.org/ebooks/70842.epub3.images","application/x-mobipocket-ebook":"https://www.gutenberg.org/ebooks/70842.kf8.images","text/plain; charset=us-ascii":"https://www.gutenberg.org/ebooks/70842.txt.utf-8","application/rdf+xml":"https://www.gutenberg.org/ebooks/70842.rdf","image/jpeg":"https://www.gutenberg.org/cache/epub/70842/pg70842.cover.medium.jpg","application/octet-stream":"https://www.gutenberg.org/files/70842/70842-0.zip"},"download_count":29},{"id":70943,"title":"Bismarck : $b some secret pages of his history (Vol. 2 of 3). Being a diary kept by Dr. Moritz Busch during twenty-five years' official and private intercourse with the great Chancellor","authors":[{"name":"Busch, Moritz","birth_year":1821,"death_year":1899}],"translators":[],"subjects":["Bismarck, Otto, Fürst von, 1815-1898"],"bookshelves":[],"languages":["en"],"copyright":false,"media_type":"Text","formats":{"text/html":"https://www.gutenberg.org/ebooks/70943.html.images","application/epub+zip":"https://www.gutenberg.org/ebooks/70943.epub3.images","application/x-mobipocket-ebook":"https://www.gutenberg.org/ebooks/70943.kf8.images","text/plain; charset=us-ascii":"https://www.gutenberg.org/ebooks/70943.txt.utf-8","application/rdf+xml":"https://www.gutenberg.org/ebooks/70943.rdf","image/jpeg":"https://www.gutenberg.org/cache/epub/70943/pg70943.cover.medium.jpg","application/octet-stream":"https://www.gutenberg.org/files/70943/70943-0.zip"},"download_count":29},{"id":70976,"title":"The Radiant City : $b An Allegory","authors":[{"name":"Garratt, Evelyn R.","birth_year":1854,"death_year":null}],"translators":[],"subjects":["Allegories","Christian fiction","Christian life","Christian pilgrims and pilgrimages -- Fiction"],"bookshelves":[],"languages":["en"],"copyright":false,"media_type":"Text","formats":{"text/html":"https://www.gutenberg.org/ebooks/70976.html.images","application/epub+zip":"https://www.gutenberg.org/ebooks/70976.epub3.images","application/x-mobipocket-ebook":"https://www.gutenberg.org/ebooks/70976.kf8.images","text/plain; charset=us-ascii":"https://www.gutenberg.org/ebooks/70976.txt.utf-8","application/rdf+xml":"https://www.gutenberg.org/ebooks/70976.rdf","image/jpeg":"https://www.gutenberg.org/cache/epub/70976/pg70976.cover.medium.jpg","application/octet-stream":"https://www.gutenberg.org/files/70976/70976-0.zip"},"download_count":29},{"id":71043,"title":"Around the clock in Europe : $b A travel sequence","authors":[{"name":"Howell, Charles Fish","birth_year":1868,"death_year":1943}],"translators":[],"subjects":["Europe -- Description and travel"],"bookshelves":[],"languages":["en"],"copyright":false,"media_type":"Text","formats":{"text/html":"https://www.gutenberg.org/ebooks/71043.html.images","application/epub+zip":"https://www.gutenberg.org/ebooks/71043.epub3.images","application/x-mobipocket-ebook":"https://www.gutenberg.org/ebooks/71043.kf8.images","text/plain; charset=us-ascii":"https://www.gutenberg.org/ebooks/71043.txt.utf-8","application/rdf+xml":"https://www.gutenberg.org/ebooks/71043.rdf","image/jpeg":"https://www.gutenberg.org/cache/epub/71043/pg71043.cover.medium.jpg","application/octet-stream":"https://www.gutenberg.org/files/71043/71043-0.zip"},"download_count":29},{"id":71106,"title":"Social legislation and social activity : $b being addresses delivered at the sixth annual meeting of the American academy of political and social science of Philadelphia","authors":[{"name":"American Academy of Political and Social Science","birth_year":null,"death_year":null}],"translators":[],"subjects":["Arbitration, Industrial","Child labor","Child labor -- United States","Factory laws and legislation -- United States","Housing -- United States","Juvenile courts","Labor -- United States"],"bookshelves":[],"languages":["en"],"copyright":false,"media_type":"Text","formats":{"text/html":"https://www.gutenberg.org/ebooks/71106.html.images","application/epub+zip":"https://www.gutenberg.org/ebooks/71106.epub3.images","application/x-mobipocket-ebook":"https://www.gutenberg.org/ebooks/71106.kf8.images","text/plain; charset=us-ascii":"https://www.gutenberg.org/ebooks/71106.txt.utf-8","application/rdf+xml":"https://www.gutenberg.org/ebooks/71106.rdf","image/jpeg":"https://www.gutenberg.org/cache/epub/71106/pg71106.cover.medium.jpg","application/octet-stream":"https://www.gutenberg.org/files/71106/71106-0.zip"},"download_count":29},{"id":71141,"title":"The legend of Perseus, Volume 3 (of 3) : $b Andromeda. Medusa.","authors":[{"name":"Hartland, Edwin Sidney","birth_year":1848,"death_year":1927}],"translators":[],"subjects":["Andromeda, Princess, daughter of Cepheus, King of Ethiopia (Mythological character)","Folklore -- Classification","Medusa (Gorgon)","Perseus (Greek mythological character)","Rites and ceremonies"],"bookshelves":[],"languages":["en"],"copyright":false,"media_type":"Text","formats":{"text/html":"https://www.gutenberg.org/ebooks/71141.html.images","application/epub+zip":"https://www.gutenberg.org/ebooks/71141.epub3.images","application/x-mobipocket-ebook":"https://www.gutenberg.org/ebooks/71141.kf8.images","text/plain; charset=us-ascii":"https://www.gutenberg.org/ebooks/71141.txt.utf-8","application/rdf+xml":"https://www.gutenberg.org/ebooks/71141.rdf","image/jpeg":"https://www.gutenberg.org/cache/epub/71141/pg71141.cover.medium.jpg","application/octet-stream":"https://www.gutenberg.org/files/71141/71141-0.zip"},"download_count":29},{"id":71263,"title":"Richard Richard","authors":[{"name":"Mearns, Hughes","birth_year":1875,"death_year":1965}],"translators":[],"subjects":["Families -- Fiction","Man-woman relationships -- Fiction","New York (State) -- Fiction","Voyages and travels -- Fiction"],"bookshelves":[],"languages":["en"],"copyright":false,"media_type":"Text","formats":{"text/html":"https://www.gutenberg.org/ebooks/71263.html.images","application/epub+zip":"https://www.gutenberg.org/ebooks/71263.epub3.images","application/x-mobipocket-ebook":"https://www.gutenberg.org/ebooks/71263.kf8.images","text/plain; charset=us-ascii":"https://www.gutenberg.org/ebooks/71263.txt.utf-8","application/rdf+xml":"https://www.gutenberg.org/ebooks/71263.rdf","image/jpeg":"https://www.gutenberg.org/cache/epub/71263/pg71263.cover.medium.jpg","application/octet-stream":"https://www.gutenberg.org/files/71263/71263-0.zip"},"download_count":29},{"id":71277,"title":"Essays, or discourses, vol. 1 (of 4) : $b Selected from the works of Feyjoo, and translated from the Spanish","authors":[{"name":"Feijoo, Benito Jerónimo","birth_year":1676,"death_year":1764}],"translators":[{"name":"Brett, John","birth_year":null,"death_year":1785}],"subjects":["Essays"],"bookshelves":[],"languages":["en"],"copyright":false,"media_type":"Text","formats":{"text/html":"https://www.gutenberg.org/ebooks/71277.html.images","application/epub+zip":"https://www.gutenberg.org/ebooks/71277.epub3.images","application/x-mobipocket-ebook":"https://www.gutenberg.org/ebooks/71277.kf8.images","text/plain; charset=us-ascii":"https://www.gutenberg.org/ebooks/71277.txt.utf-8","application/rdf+xml":"https://www.gutenberg.org/ebooks/71277.rdf","image/jpeg":"https://www.gutenberg.org/cache/epub/71277/pg71277.cover.medium.jpg","application/octet-stream":"https://www.gutenberg.org/files/71277/71277-0.zip"},"download_count":29},{"id":71338,"title":"Barotseland : $b eight years among the Barotse","authors":[{"name":"Stirke, D. E. C.","birth_year":null,"death_year":null}],"translators":[],"subjects":["Western Province (Zambia)"],"bookshelves":[],"languages":["en"],"copyright":false,"media_type":"Text","formats":{"text/html":"https://www.gutenberg.org/ebooks/71338.html.images","application/epub+zip":"https://www.gutenberg.org/ebooks/71338.epub3.images","application/x-mobipocket-ebook":"https://www.gutenberg.org/ebooks/71338.kf8.images","text/plain; charset=us-ascii":"https://www.gutenberg.org/ebooks/71338.txt.utf-8","application/rdf+xml":"https://www.gutenberg.org/ebooks/71338.rdf","image/jpeg":"https://www.gutenberg.org/cache/epub/71338/pg71338.cover.medium.jpg","application/octet-stream":"https://www.gutenberg.org/files/71338/71338-0.zip"},"download_count":29},{"id":71409,"title":"On horse-breaking","authors":[{"name":"Moreton, Robert","birth_year":null,"death_year":null}],"translators":[],"subjects":["Horses","Horses -- Training"],"bookshelves":[],"languages":["en"],"copyright":false,"media_type":"Text","formats":{"text/html":"https://www.gutenberg.org/ebooks/71409.html.images","application/epub+zip":"https://www.gutenberg.org/ebooks/71409.epub3.images","application/x-mobipocket-ebook":"https://www.gutenberg.org/ebooks/71409.kf8.images","text/plain; charset=us-ascii":"https://www.gutenberg.org/ebooks/71409.txt.utf-8","application/rdf+xml":"https://www.gutenberg.org/ebooks/71409.rdf","image/jpeg":"https://www.gutenberg.org/cache/epub/71409/pg71409.cover.medium.jpg","application/octet-stream":"https://www.gutenberg.org/files/71409/71409-h.zip"},"download_count":29},{"id":71478,"title":"Railroad building, and other stories","authors":[{"name":"Pansy","birth_year":1841,"death_year":1930}],"translators":[],"subjects":["Children's stories, American"],"bookshelves":[],"languages":["en"],"copyright":false,"media_type":"Text","formats":{"text/html":"https://www.gutenberg.org/ebooks/71478.html.images","application/epub+zip":"https://www.gutenberg.org/ebooks/71478.epub3.images","application/x-mobipocket-ebook":"https://www.gutenberg.org/ebooks/71478.kf8.images","text/plain; charset=us-ascii":"https://www.gutenberg.org/ebooks/71478.txt.utf-8","application/rdf+xml":"https://www.gutenberg.org/ebooks/71478.rdf","image/jpeg":"https://www.gutenberg.org/cache/epub/71478/pg71478.cover.medium.jpg","application/octet-stream":"https://www.gutenberg.org/files/71478/71478-h.zip"},"download_count":29},{"id":71517,"title":"Refraction and muscular imbalance, as simplified through the use of the ski-optometer","authors":[{"name":"Woolf, Daniel","birth_year":null,"death_year":null}],"translators":[],"subjects":["Eye -- Accommodation and refraction","Eye -- Examination","Eye -- Muscles"],"bookshelves":[],"languages":["en"],"copyright":false,"media_type":"Text","formats":{"text/html":"https://www.gutenberg.org/ebooks/71517.html.images","application/epub+zip":"https://www.gutenberg.org/ebooks/71517.epub3.images","application/x-mobipocket-ebook":"https://www.gutenberg.org/ebooks/71517.kf8.images","text/plain; charset=us-ascii":"https://www.gutenberg.org/ebooks/71517.txt.utf-8","application/rdf+xml":"https://www.gutenberg.org/ebooks/71517.rdf","image/jpeg":"https://www.gutenberg.org/cache/epub/71517/pg71517.cover.medium.jpg","application/octet-stream":"https://www.gutenberg.org/files/71517/71517-h.zip"},"download_count":29}]}