{"count":58808,"next":"http://129.241.150.113:8000/books/?languages=en&page=1459","previous":"http://129.241.150.113:8000/books/?languages=en&page=1457","results":[{"id":66445,"title":"Blackie's Books for Young People, Catalogue - 1899","authors":[{"name":"Blackie & Son","birth_year":null,"death_year":null}],"translators":[],"subjects":["Blackie & Son -- Catalogs","Children's literature -- Catalogs","Publishers' catalogs -- England -- London"],"bookshelves":[],"languages":["en"],"copyright":false,"media_type":"Text","formats":{"text/html":"https://www.gutenberg.org/ebooks/66445.html.images","application/epub+zip":"https://www.gutenberg.org/ebooks/66445.epub3.images","application/x-mobipocket-ebook":"https://www.gutenberg.org/ebooks/66445.kf8.images","text/plain; charset=us-ascii":"https://www.gutenberg.org/ebooks/66445.txt.utf-8","application/rdf+xml":"https://www.gutenberg.org/ebooks/66445.rdf","image/jpeg":"https://www.gutenberg.org/cache/epub/66445/pg66445.cover.medium.jpg","application/octet-stream":"https://www.gutenberg.org/files/66445/66445-0.zip"},"download_count":25},{"id":66477,"title":"Stern","authors":[{"name":"Friedman, Bruce Jay","birth_year":1930,"death_year":2020}],"translators":[],"subjects":["Humorous stories","Jewish families -- Fiction","Jewish fiction","Psychological fiction","Suburban life -- Fiction"],"bookshelves":[],"languages":["en"],"copyright":false,"media_type":"Text","formats":{"text/html":"https://www.gutenberg.org/ebooks/66477.html.images","application/epub+zip":"https://www.gutenberg.org/ebooks/66477.epub3.images","application/x-mobipocket-ebook":"https://www.gutenberg.org/ebooks/66477.kf8.images","text/plain; charset=us-ascii":"https://www.gutenberg.org/ebooks/66477.txt.utf-8","application/rdf+xml":"https://www.gutenberg.org/ebooks/66477.rdf","image/jpeg":"https://www.gutenberg.org/cache/epub/66477/pg66477.cover.medium.jpg","application/octet-stream":"https://www.gutenberg.org/files/66477/66477-0.zip"},"download_count":25},{"id":66529,"title":"You Don't Walk Alone","authors":[{"name":"Robinson, Frank M.","birth_year":1926,"death_year":2014}],"translators":[],"subjects":["Earth (Planet) -- Fiction","Human-alien encounters -- Fiction","Journalists -- Fiction","Science fiction","Short stories"],"bookshelves":[],"languages":["en"],"copyright":false,"media_type":"Text","formats":{"text/html":"https://www.gutenberg.org/ebooks/66529.html.images","application/epub+zip":"https://www.gutenberg.org/ebooks/66529.epub3.images","application/x-mobipocket-ebook":"https://www.gutenberg.org/ebooks/66529.kf8.images","text/plain; charset=us-ascii":"https://www.gutenberg.org/ebooks/66529.txt.utf-8","application/rdf+xml":"https://www.gutenberg.org/ebooks/66529.rdf","image/jpeg":"https://www.gutenberg.org/cache/epub/66529/pg66529.cover.medium.jpg","application/octet-stream":"https://www.gutenberg.org/files/66529/66529-0.zip"},"download_count":25},{"id":66531,"title":"Chambers's Journal of Popular Literature, Science, and Art, Fifth Series, No. 44, Vol. I, November 1, 1884","authors":[{"name":"Various","birth_year":null,"death_year":null}],"translators":[],"subjects":["Periodicals"],"bookshelves":[],"languages":["en"],"copyright":false,"media_type":"Text","formats":{"text/html":"https://www.gutenberg.org/ebooks/66531.html.images","application/epub+zip":"https://www.gutenberg.org/ebooks/66531.epub3.images","application/x-mobipocket-ebook":"https://www.gutenberg.org/ebooks/66531.kf8.images","text/plain; charset=us-ascii":"https://www.gutenberg.org/ebooks/66531.txt.utf-8","application/rdf+xml":"https://www.gutenberg.org/ebooks/66531.rdf","image/jpeg":"https://www.gutenberg.org/cache/epub/66531/pg66531.cover.medium.jpg","application/octet-stream":"https://www.gutenberg.org/files/66531/66531-0.zip"},"download_count":25},{"id":66544,"title":"Tolstoy's interpretation of money and property","authors":[{"name":"Stanoyevich, Milivoy S. (Milivoy Stoyan)","birth_year":1882,"death_year":1973}],"translators":[],"subjects":["Money","Property","Tolstoy, Leo, graf, 1828-1910"],"bookshelves":[],"languages":["en"],"copyright":false,"media_type":"Text","formats":{"text/html":"https://www.gutenberg.org/ebooks/66544.html.images","application/epub+zip":"https://www.gutenberg.org/ebooks/66544.epub3.images","application/x-mobipocket-ebook":"https://www.gutenberg.org/ebooks/66544.kf8.images","text/plain; charset=us-ascii":"https://www.gutenberg.org/ebooks/66544.txt.utf-8","application/rdf+xml":"https://www.gutenberg.org/ebooks/66544.rdf","image/jpeg":"https://www.gutenberg.org/cache/epub/66544/pg66544.cover.medium.jpg","application/octet-stream":"https://www.gutenberg.org/files/66544/66544-0.zip"},"download_count":25},{"id":66581,"title":"Colville of the Guards, Volume 2 (of 3)","authors":[{"name":"Grant, James","birth_year":1822,"death_year":1887}],"translators":[],"subjects":["British -- Afghanistan -- Fiction","Soldiers -- Fiction"],"bookshelves":[],"languages":["en"],"copyright":false,"media_type":"Text","formats":{"text/html":"https://www.gutenberg.org/ebooks/66581.html.images","application/epub+zip":"https://www.gutenberg.org/ebooks/66581.epub3.images","application/x-mobipocket-ebook":"https://www.gutenberg.org/ebooks/66581.kf8.images","text/plain; charset=us-ascii":"https://www.gutenberg.org/ebooks/66581.txt.utf-8","application/rdf+xml":"https://www.gutenberg.org/ebooks/66581.rdf","image/jpeg":"https://www.gutenberg.org/cache/epub/66581/pg66581.cover.medium.jpg","application/octet-stream":"https://www.gutenberg.org/files/66581/66581-0.zip"},"download_count":25},{"id":66655,"title":"A New Story Book for Children","authors":[{"name":"Fern, Fanny","birth_year":1811,"death_year":1872}],"translators":[],"subjects":["Children -- Conduct of life -- Juvenile fiction","Children's stories","Conduct of life -- Juvenile fiction"],"bookshelves":[],"languages":["en"],"copyright":false,"media_type":"Text","formats":{"text/html":"https://www.gutenberg.org/ebooks/66655.html.images","application/epub+zip":"https://www.gutenberg.org/ebooks/66655.epub3.images","application/x-mobipocket-ebook":"https://www.gutenberg.org/ebooks/66655.kf8.images","text/plain; charset=us-ascii":"https://www.gutenberg.org/ebooks/66655.txt.utf-8","application/rdf+xml":"https://www.gutenberg.org/ebooks/66655.rdf","image/jpeg":"https://www.gutenberg.org/cache/epub/66655/pg66655.cover.medium.jpg","application/octet-stream":"https://www.gutenberg.org/files/66655/66655-0.zip"},"download_count":25},{"id":66661,"title":"The Truth About an Author","authors":[{"name":"Bennett, Arnold","birth_year":1867,"death_year":1931}],"translators":[],"subjects":["Authors, English -- 20th century -- Biography","Bennett, Arnold, 1867-1931"],"bookshelves":[],"languages":["en"],"copyright":false,"media_type":"Text","formats":{"text/html":"https://www.gutenberg.org/ebooks/66661.html.images","application/epub+zip":"https://www.gutenberg.org/ebooks/66661.epub3.images","application/x-mobipocket-ebook":"https://www.gutenberg.org/ebooks/66661.kf8.images","text/plain; charset=us-ascii":"https://www.gutenberg.org/ebooks/66661.txt.utf-8","application/rdf+xml":"https://www.gutenberg.org/ebooks/66661.rdf","image/jpeg":"https://www.gutenberg.org/cache/epub/66661/pg66661.cover.medium.jpg","application/octet-stream":"https://www.gutenberg.org/files/66661/66661-0.zip"},"download_count":25},{"id":66786,"title":"A Text-Book of Horseshoeing, for Horseshoers and Veterinarians","authors":[{"name":"Lungwitz, A. (Anton)","birth_year":1845,"death_year":1936}],"translators":[{"name":"Adams, John W. (John William)","birth_year":1862,"death_year":1926}],"subjects":["Horseshoeing"],"bookshelves":[],"languages":["en"],"copyright":false,"media_type":"Text","formats":{"text/html":"https://www.gutenberg.org/ebooks/66786.html.images","application/epub+zip":"https://www.gutenberg.org/ebooks/66786.epub3.images","application/x-mobipocket-ebook":"https://www.gutenberg.org/ebooks/66786.kf8.images","text/plain; charset=us-ascii":"https://www.gutenberg.org/ebooks/66786.txt.utf-8","application/rdf+xml":"https://www.gutenberg.org/ebooks/66786.rdf","image/jpeg":"https://www.gutenberg.org/cache/epub/66786/pg66786.cover.medium.jpg","application/octet-stream":"https://www.gutenberg.org/files/66786/66786-0.zip"},"download_count":25},{"id":66796,"title":"Historical Record of the Thirty-first, or, the Huntingdonshire Regiment of Foot;: containing an account of the formation of the regiment in 1702,  and of its subsequent services to 1850","authors":[{"name":"Cannon, Richard","birth_year":1779,"death_year":1865}],"translators":[],"subjects":["Great Britain. Army -- History","Great Britain. Army. Regiment of Foot, 31st"],"bookshelves":[],"languages":["en"],"copyright":false,"media_type":"Text","formats":{"text/html":"https://www.gutenberg.org/ebooks/66796.html.images","application/epub+zip":"https://www.gutenberg.org/ebooks/66796.epub3.images","application/x-mobipocket-ebook":"https://www.gutenberg.org/ebooks/66796.kf8.images","text/plain; charset=us-ascii":"https://www.gutenberg.org/ebooks/66796.txt.utf-8","application/rdf+xml":"https://www.gutenberg.org/ebooks/66796.rdf","image/jpeg":"https://www.gutenberg.org/cache/epub/66796/pg66796.cover.medium.jpg","application/octet-stream":"https://www.gutenberg.org/files/66796/66796-0.zip"},"download_count":25},{"id":66799,"title":"Ditching Procedure, B-29s with Four-Gun Turret","authors":[{"name":"United States. Army Air Forces","birth_year":null,"death_year":null}],"translators":[],"subjects":["B-29 (Bomber) -- Handbooks, manuals, etc."],"bookshelves":[],"languages":["en"],"copyright":false,"media_type":"Text","formats":{"text/html":"https://www.gutenberg.org/ebooks/66799.html.images","application/epub+zip":"https://www.gutenberg.org/ebooks/66799.epub3.images","application/x-mobipocket-ebook":"https://www.gutenberg.org/ebooks/66799.kf8.images","text/plain; charset=us-ascii":"https://www.gutenberg.org/ebooks/66799.txt.utf-8","application/rdf+xml":"https://www.gutenberg.org/ebooks/66799.rdf","image/jpeg":"https://www.gutenberg.org/cache/epub/66799/pg66799.cover.medium.jpg","application/octet-stream":"https://www.gutenberg.org/files/66799/66799-0.zip"},"download_count":25},{"id":66877,"title":"Mr. Wu: Based on the Play \"Mr. Wu\" by H. M. Vernon and Harold Owen","authors":[{"name":"Miln, Louise Jordan","birth_year":1864,"death_year":1933},{"name":"Owen, Harold","birth_year":1872,"death_year":1930},{"name":"Vernon, Harry M.","birth_year":1878,"death_year":1942}],"translators":[],"subjects":["British -- China -- Fiction","Fathers and daughters -- Fiction","Illegitimate children -- Fiction","Man-woman relationships -- Fiction"],"bookshelves":[],"languages":["en"],"copyright":false,"media_type":"Text","formats":{"text/html":"https://www.gutenberg.org/ebooks/66877.html.images","application/epub+zip":"https://www.gutenberg.org/ebooks/66877.epub3.images","application/x-mobipocket-ebook":"https://www.gutenberg.org/ebooks/66877.kf8.images","text/plain; charset=us-ascii":"https://www.gutenberg.org/ebooks/66877.txt.utf-8","application/rdf+xml":"https://www.gutenberg.org/ebooks/66877.rdf","image/jpeg":"https://www.gutenberg.org/cache/epub/66877/pg66877.cover.medium.jpg","application/octet-stream":"https://www.gutenberg.org/files/66877/66877-0.zip"},"download_count":25},{"id":66932,"title":"The Woman of Knockaloe: A Parable","authors":[{"name":"Caine, Hall, Sir","birth_year":1853,"death_year":1931}],"translators":[],"subjects":["Isle of Man -- Fiction","World War, 1914-1918 -- Fiction"],"bookshelves":[],"languages":["en"],"copyright":false,"media_type":"Text","formats":{"text/html":"https://www.gutenberg.org/ebooks/66932.html.images","application/epub+zip":"https://www.gutenberg.org/ebooks/66932.epub3.images","application/x-mobipocket-ebook":"https://www.gutenberg.org/ebooks/66932.kf8.images","text/plain; charset=us-ascii":"https://www.gutenberg.org/ebooks/66932.txt.utf-8","application/rdf+xml":"https://www.gutenberg.org/ebooks/66932.rdf","image/jpeg":"https://www.gutenberg.org/cache/epub/66932/pg66932.cover.medium.jpg","application/octet-stream":"https://www.gutenberg.org/files/66932/66932-0.zip"},"download_count":25},{"id":66962,"title":"In Texas with Davy Crockett","authors":[{"name":"McIntyre, John T. (John Thomas)","birth_year":1871,"death_year":1951}],"translators":[],"subjects":["Crockett, Davy, 1786-1836 -- Juvenile fiction","Texas -- Juvenile fiction"],"bookshelves":[],"languages":["en"],"copyright":false,"media_type":"Text","formats":{"text/html":"https://www.gutenberg.org/ebooks/66962.html.images","application/epub+zip":"https://www.gutenberg.org/ebooks/66962.epub3.images","application/x-mobipocket-ebook":"https://www.gutenberg.org/ebooks/66962.kf8.images","text/plain; charset=us-ascii":"https://www.gutenberg.org/ebooks/66962.txt.utf-8","application/rdf+xml":"https://www.gutenberg.org/ebooks/66962.rdf","image/jpeg":"https://www.gutenberg.org/cache/epub/66962/pg66962.cover.medium.jpg","application/octet-stream":"https://www.gutenberg.org/files/66962/66962-0.zip"},"download_count":25},{"id":66966,"title":"Legends for Lionel: in pen and pencil","authors":[{"name":"Crane, Walter","birth_year":1845,"death_year":1915}],"translators":[],"subjects":["Christmas stories","Fantasy fiction","Winter -- Juvenile fiction"],"bookshelves":[],"languages":["en"],"copyright":false,"media_type":"Text","formats":{"text/html":"https://www.gutenberg.org/ebooks/66966.html.images","application/epub+zip":"https://www.gutenberg.org/ebooks/66966.epub3.images","application/x-mobipocket-ebook":"https://www.gutenberg.org/ebooks/66966.kf8.images","text/plain; charset=us-ascii":"https://www.gutenberg.org/ebooks/66966.txt.utf-8","application/rdf+xml":"https://www.gutenberg.org/ebooks/66966.rdf","image/jpeg":"https://www.gutenberg.org/cache/epub/66966/pg66966.cover.medium.jpg","application/octet-stream":"https://www.gutenberg.org/files/66966/66966-0.zip"},"download_count":25},{"id":66993,"title":"Historical Record of the Seventy-Second Regiment, or the Duke of Albany's Own Highlanders: Containing an account of the formation of the regiment in 1778,  and of its subsequent services to 1848","authors":[{"name":"Cannon, Richard","birth_year":1779,"death_year":1865}],"translators":[],"subjects":["Great Britain. Army. Regiment of Foot, 72nd -- History","Great Britain. Army. Seaforth Highlanders -- History"],"bookshelves":[],"languages":["en"],"copyright":false,"media_type":"Text","formats":{"text/html":"https://www.gutenberg.org/ebooks/66993.html.images","application/epub+zip":"https://www.gutenberg.org/ebooks/66993.epub3.images","application/x-mobipocket-ebook":"https://www.gutenberg.org/ebooks/66993.kf8.images","text/plain; charset=us-ascii":"https://www.gutenberg.org/ebooks/66993.txt.utf-8","application/rdf+xml":"https://www.gutenberg.org/ebooks/66993.rdf","image/jpeg":"https://www.gutenberg.org/cache/epub/66993/pg66993.cover.medium.jpg","application/octet-stream":"https://www.gutenberg.org/files/66993/66993-0.zip"},"download_count":25},{"id":67011,"title":"A poem on the earthquake at Lisbon","authors":[{"name":"Biddolf, John‏","birth_year":null,"death_year":null}],"translators":[],"subjects":["Lisbon Earthquake, Portugal, 1755 -- Poetry"],"bookshelves":[],"languages":["en"],"copyright":false,"media_type":"Text","formats":{"text/html":"https://www.gutenberg.org/ebooks/67011.html.images","application/epub+zip":"https://www.gutenberg.org/ebooks/67011.epub3.images","application/x-mobipocket-ebook":"https://www.gutenberg.org/ebooks/67011.kf8.images","text/plain; charset=us-ascii":"https://www.gutenberg.org/ebooks/67011.txt.utf-8","application/rdf+xml":"https://www.gutenberg.org/ebooks/67011.rdf","image/jpeg":"https://www.gutenberg.org/cache/epub/67011/pg67011.cover.medium.jpg","application/octet-stream":"https://www.gutenberg.org/files/67011/67011-0.zip"},"download_count":25},{"id":67107,"title":"The Honey-Bee: Its Natural History, Physiology and Management","authors":[{"name":"Bevan, Edward","birth_year":1770,"death_year":1860}],"translators":[],"subjects":["Bee culture","Bees"],"bookshelves":[],"languages":["en"],"copyright":false,"media_type":"Text","formats":{"text/html":"https://www.gutenberg.org/ebooks/67107.html.images","application/epub+zip":"https://www.gutenberg.org/ebooks/67107.epub3.images","application/x-mobipocket-ebook":"https://www.gutenberg.org/ebooks/67107.kf8.images","text/plain; charset=us-ascii":"https://www.gutenberg.org/ebooks/67107.txt.utf-8","application/rdf+xml":"https://www.gutenberg.org/ebooks/67107.rdf","image/jpeg":"https://www.gutenberg.org/cache/epub/67107/pg67107.cover.medium.jpg","application/octet-stream":"https://www.gutenberg.org/files/67107/67107-0.zip"},"download_count":25},{"id":67124,"title":"Father Thames","authors":[{"name":"Higgins, Walter","birth_year":null,"death_year":null}],"translators":[],"subjects":["England -- Description and travel","London (England) -- Description and travel","Thames River (England)"],"bookshelves":[],"languages":["en"],"copyright":false,"media_type":"Text","formats":{"text/html":"https://www.gutenberg.org/ebooks/67124.html.images","application/epub+zip":"https://www.gutenberg.org/ebooks/67124.epub3.images","application/x-mobipocket-ebook":"https://www.gutenberg.org/ebooks/67124.kf8.images","text/plain; charset=us-ascii":"https://www.gutenberg.org/ebooks/67124.txt.utf-8","application/rdf+xml":"https://www.gutenberg.org/ebooks/67124.rdf","image/jpeg":"https://www.gutenberg.org/cache/epub/67124/pg67124.cover.medium.jpg","application/octet-stream":"https://www.gutenberg.org/files/67124/67124-0.zip"},"download_count":25},{"id":67143,"title":"Fantasy: A Novel","authors":[{"name":"Serao, Matilde","birth_year":1856,"death_year":1927}],"translators":[{"name":"Harland, Henry","birth_year":1861,"death_year":1905},{"name":"Sylvester, Paul","birth_year":null,"death_year":null}],"subjects":["Italy -- Fiction"],"bookshelves":[],"languages":["en"],"copyright":false,"media_type":"Text","formats":{"text/html":"https://www.gutenberg.org/ebooks/67143.html.images","application/epub+zip":"https://www.gutenberg.org/ebooks/67143.epub3.images","application/x-mobipocket-ebook":"https://www.gutenberg.org/ebooks/67143.kf8.images","text/plain; charset=us-ascii":"https://www.gutenberg.org/ebooks/67143.txt.utf-8","application/rdf+xml":"https://www.gutenberg.org/ebooks/67143.rdf","image/jpeg":"https://www.gutenberg.org/cache/epub/67143/pg67143.cover.medium.jpg","application/octet-stream":"https://www.gutenberg.org/files/67143/67143-0.zip"},"download_count":25},{"id":67209,"title":"The Little Review, January-February 1916 (Vol. 2, No. 10)","authors":[{"name":"Various","birth_year":null,"death_year":null}],"translators":[],"subjects":["Literature, Modern -- 20th century -- Periodicals"],"bookshelves":[],"languages":["en"],"copyright":false,"media_type":"Text","formats":{"text/html":"https://www.gutenberg.org/ebooks/67209.html.images","application/epub+zip":"https://www.gutenberg.org/ebooks/67209.epub3.images","application/x-mobipocket-ebook":"https://www.gutenberg.org/ebooks/67209.kf8.images","text/plain; charset=us-ascii":"https://www.gutenberg.org/ebooks/67209.txt.utf-8","application/rdf+xml":"https://www.gutenberg.org/ebooks/67209.rdf","image/jpeg":"https://www.gutenberg.org/cache/epub/67209/pg67209.cover.medium.jpg","application/octet-stream":"https://www.gutenberg.org/files/67209/67209-0.zip"},"download_count":25},{"id":67226,"title":"The King's Own Borderers: A Military Romance, Volume 1 (of 3)","authors":[{"name":"Grant, James","birth_year":1822,"death_year":1887}],"translators":[],"subjects":["Soldiers -- Fiction"],"bookshelves":[],"languages":["en"],"copyright":false,"media_type":"Text","formats":{"text/html":"https://www.gutenberg.org/ebooks/67226.html.images","application/epub+zip":"https://www.gutenberg.org/ebooks/67226.epub3.images","application/x-mobipocket-ebook":"https://www.gutenberg.org/ebooks/67226.kf8.images","text/plain; charset=us-ascii":"https://www.gutenberg.org/ebooks/67226.txt.utf-8","application/rdf+xml":"https://www.gutenberg.org/ebooks/67226.rdf","image/jpeg":"https://www.gutenberg.org/cache/epub/67226/pg67226.cover.medium.jpg","application/octet-stream":"https://www.gutenberg.org/files/67226/67226-0.zip"},"download_count":25},{"id":67316,"title":"The First","authors":[{"name":"Ludwig, Edward W.","birth_year":1920,"death_year":1990}],"translators":[],"subjects":["Science fiction","Short stories","Space flight to the moon -- Fiction"],"bookshelves":[],"languages":["en"],"copyright":false,"media_type":"Text","formats":{"text/html":"https://www.gutenberg.org/ebooks/67316.html.images","application/epub+zip":"https://www.gutenberg.org/ebooks/67316.epub3.images","application/x-mobipocket-ebook":"https://www.gutenberg.org/ebooks/67316.kf8.images","text/plain; charset=us-ascii":"https://www.gutenberg.org/ebooks/67316.txt.utf-8","application/rdf+xml":"https://www.gutenberg.org/ebooks/67316.rdf","image/jpeg":"https://www.gutenberg.org/cache/epub/67316/pg67316.cover.medium.jpg","application/octet-stream":"https://www.gutenberg.org/files/67316/67316-0.zip"},"download_count":25},{"id":67322,"title":"In a Canadian Canoe; The Nine Muses Minus One, and Other Stories","authors":[{"name":"Pain, Barry","birth_year":1864,"death_year":1928}],"translators":[],"subjects":["English wit and humor"],"bookshelves":[],"languages":["en"],"copyright":false,"media_type":"Text","formats":{"text/html":"https://www.gutenberg.org/ebooks/67322.html.images","application/epub+zip":"https://www.gutenberg.org/ebooks/67322.epub3.images","application/x-mobipocket-ebook":"https://www.gutenberg.org/ebooks/67322.kf8.images","text/plain; charset=us-ascii":"https://www.gutenberg.org/ebooks/67322.txt.utf-8","application/rdf+xml":"https://www.gutenberg.org/ebooks/67322.rdf","image/jpeg":"https://www.gutenberg.org/cache/epub/67322/pg67322.cover.medium.jpg","application/octet-stream":"https://www.gutenberg.org/files/67322/67322-0.zip"},"download_count":25},{"id":67403,"title":"The Stuff of Manhood: Some Needed Notes in American Character","authors":[{"name":"Speer, Robert E. (Robert Elliott)","birth_year":1867,"death_year":1947}],"translators":[],"subjects":["Character","Christian life","Conduct of life","Moral education"],"bookshelves":[],"languages":["en"],"copyright":false,"media_type":"Text","formats":{"text/html":"https://www.gutenberg.org/ebooks/67403.html.images","application/epub+zip":"https://www.gutenberg.org/ebooks/67403.epub3.images","application/x-mobipocket-ebook":"https://www.gutenberg.org/ebooks/67403.kf8.images","text/plain; charset=us-ascii":"https://www.gutenberg.org/ebooks/67403.txt.utf-8","application/rdf+xml":"https://www.gutenberg.org/ebooks/67403.rdf","image/jpeg":"https://www.gutenberg.org/cache/epub/67403/pg67403.cover.medium.jpg","application/octet-stream":"https://www.gutenberg.org/files/67403/67403-0.zip"},"download_count":25},{"id":67406,"title":"The Husband's Story: A Novel","authors":[{"name":"Phillips, David Graham","birth_year":1867,"death_year":1911}],"translators":[],"subjects":["Husband and wife -- Fiction","New York (N.Y.) -- Social life and customs -- 20th century -- Fiction"],"bookshelves":[],"languages":["en"],"copyright":false,"media_type":"Text","formats":{"text/html":"https://www.gutenberg.org/ebooks/67406.html.images","application/epub+zip":"https://www.gutenberg.org/ebooks/67406.epub3.images","application/x-mobipocket-ebook":"https://www.gutenberg.org/ebooks/67406.kf8.images","text/plain; charset=us-ascii":"https://www.gutenberg.org/ebooks/67406.txt.utf-8","application/rdf+xml":"https://www.gutenberg.org/ebooks/67406.rdf","image/jpeg":"https://www.gutenberg.org/cache/epub/67406/pg67406.cover.medium.jpg","application/octet-stream":"https://www.gutenberg.org/files/67406/67406-0.zip"},"download_count":25},{"id":67467,"title":"The Little Review, March 1916 (Vol. 3, No. 1)","authors":[{"name":"Various","birth_year":null,"death_year":null}],"translators":[],"subjects":["Literature, Modern -- 20th century -- Periodicals"],"bookshelves":[],"languages":["en"],"copyright":false,"media_type":"Text","formats":{"text/html":"https://www.gutenberg.org/ebooks/67467.html.images","application/epub+zip":"https://www.gutenberg.org/ebooks/67467.epub3.images","application/x-mobipocket-ebook":"https://www.gutenberg.org/ebooks/67467.kf8.images","text/plain; charset=us-ascii":"https://www.gutenberg.org/ebooks/67467.txt.utf-8","application/rdf+xml":"https://www.gutenberg.org/ebooks/67467.rdf","image/jpeg":"https://www.gutenberg.org/cache/epub/67467/pg67467.cover.medium.jpg","application/octet-stream":"https://www.gutenberg.org/files/67467/67467-0.zip"},"download_count":25},{"id":67531,"title":"The Amateur Inn","authors":[{"name":"Terhune, Albert Payson","birth_year":1872,"death_year":1942}],"translators":[],"subjects":["Inheritance and succession -- Fiction","Mystery fiction","Wills -- Fiction"],"bookshelves":[],"languages":["en"],"copyright":false,"media_type":"Text","formats":{"text/html":"https://www.gutenberg.org/ebooks/67531.html.images","application/epub+zip":"https://www.gutenberg.org/ebooks/67531.epub3.images","application/x-mobipocket-ebook":"https://www.gutenberg.org/ebooks/67531.kf8.images","text/plain; charset=us-ascii":"https://www.gutenberg.org/ebooks/67531.txt.utf-8","application/rdf+xml":"https://www.gutenberg.org/ebooks/67531.rdf","image/jpeg":"https://www.gutenberg.org/cache/epub/67531/pg67531.cover.medium.jpg","application/octet-stream":"https://www.gutenberg.org/files/67531/67531-0.zip"},"download_count":25},{"id":67544,"title":"Fors Clavigera (Volume 4 of 8): Letters to the workmen and labourers of Great Britain","authors":[{"name":"Ruskin, John","birth_year":1819,"death_year":1900}],"translators":[],"subjects":["Aesthetics","Conduct of life","Great Britain -- Social conditions -- 19th century","Social problems","Working class -- Great Britain"],"bookshelves":[],"languages":["en"],"copyright":false,"media_type":"Text","formats":{"text/html":"https://www.gutenberg.org/ebooks/67544.html.images","application/epub+zip":"https://www.gutenberg.org/ebooks/67544.epub3.images","application/x-mobipocket-ebook":"https://www.gutenberg.org/ebooks/67544.kf8.images","text/plain; charset=us-ascii":"https://www.gutenberg.org/ebooks/67544.txt.utf-8","application/rdf+xml":"https://www.gutenberg.org/ebooks/67544.rdf","image/jpeg":"https://www.gutenberg.org/cache/epub/67544/pg67544.cover.medium.jpg","application/octet-stream":"https://www.gutenberg.org/files/67544/67544-0.zip"},"download_count":25},{"id":67603,"title":"The man who liked lions","authors":[{"name":"Daley, John Bernard","birth_year":1918,"death_year":2011}],"translators":[],"subjects":["Human-alien encounters -- Fiction","Science fiction","Short stories","Zoos -- Fiction"],"bookshelves":[],"languages":["en"],"copyright":false,"media_type":"Text","formats":{"text/html":"https://www.gutenberg.org/ebooks/67603.html.images","application/epub+zip":"https://www.gutenberg.org/ebooks/67603.epub3.images","application/x-mobipocket-ebook":"https://www.gutenberg.org/ebooks/67603.kf8.images","text/plain; charset=us-ascii":"https://www.gutenberg.org/ebooks/67603.txt.utf-8","application/rdf+xml":"https://www.gutenberg.org/ebooks/67603.rdf","image/jpeg":"https://www.gutenberg.org/cache/epub/67603/pg67603.cover.medium.jpg","application/octet-stream":"https://www.gutenberg.org/files/67603/67603-0.zip"},"download_count":25},{"id":67630,"title":"Kak, the Copper Eskimo","authors":[{"name":"Irwin, Violet","birth_year":1881,"death_year":null},{"name":"Stefansson, Vilhjalmur","birth_year":1879,"death_year":1962}],"translators":[],"subjects":["Arctic regions -- Juvenile fiction","Copper Inuit boys -- Juvenile fiction","Victoria Island (Nunavut and N.W.T.) -- Juvenile fiction"],"bookshelves":[],"languages":["en"],"copyright":false,"media_type":"Text","formats":{"text/html":"https://www.gutenberg.org/ebooks/67630.html.images","application/epub+zip":"https://www.gutenberg.org/ebooks/67630.epub3.images","application/x-mobipocket-ebook":"https://www.gutenberg.org/ebooks/67630.kf8.images","text/plain; charset=us-ascii":"https://www.gutenberg.org/ebooks/67630.txt.utf-8","application/rdf+xml":"https://www.gutenberg.org/ebooks/67630.rdf","image/jpeg":"https://www.gutenberg.org/cache/epub/67630/pg67630.cover.medium.jpg","application/octet-stream":"https://www.gutenberg.org/files/67630/67630-0.zip"},"download_count":25},{"id":67680,"title":"Cutie: A Warm Mamma","authors":[{"name":"Hecht, Ben","birth_year":1894,"death_year":1964},{"name":"Bodenheim, Maxwell","birth_year":1893,"death_year":1954}],"translators":[],"subjects":["Man-woman relationships -- Fiction","Reformers -- Fiction","Satire"],"bookshelves":[],"languages":["en"],"copyright":false,"media_type":"Text","formats":{"text/html":"https://www.gutenberg.org/ebooks/67680.html.images","application/epub+zip":"https://www.gutenberg.org/ebooks/67680.epub3.images","application/x-mobipocket-ebook":"https://www.gutenberg.org/ebooks/67680.kf8.images","text/plain; charset=us-ascii":"https://www.gutenberg.org/ebooks/67680.txt.utf-8","application/rdf+xml":"https://www.gutenberg.org/ebooks/67680.rdf","image/jpeg":"https://www.gutenberg.org/cache/epub/67680/pg67680.cover.medium.jpg","application/octet-stream":"https://www.gutenberg.org/files/67680/67680-0.zip"},"download_count":25}]}