{"count":58808,"next":"http://129.241.150.113:8000/books/?languages=en&page=1610","previous":"http://129.241.150.113:8000/books/?languages=en&page=1608","results":[{"id":67232,"title":"Fifty Photographic Views of Plymouth","authors":[],"translators":[],"subjects":["Plymouth (Mass.) -- Pictorial works"],"bookshelves":[],"languages":["en"],"copyright":false,"media_type":"Text","formats":{"text/html":"https://www.gutenberg.org/ebooks/67232.html.images","application/epub+zip":"https://www.gutenberg.org/ebooks/67232.epub3.images","application/x-mobipocket-ebook":"https://www.gutenberg.org/ebooks/67232.kf8.images","text/plain; charset=us-ascii":"https://www.gutenberg.org/ebooks/67232.txt.utf-8","application/rdf+xml":"https://www.gutenberg.org/ebooks/67232.rdf","image/jpeg":"https://www.gutenberg.org/cache/epub/67232/pg67232.cover.medium.jpg","application/octet-stream":"https://www.gutenberg.org/files/67232/67232-0.zip"},"download_count":21},{"id":67246,"title":"In the Morning","authors":[{"name":"Allen, Willis Boyd","birth_year":1855,"death_year":1938}],"translators":[],"subjects":["American poetry -- 19th century"],"bookshelves":[],"languages":["en"],"copyright":false,"media_type":"Text","formats":{"text/html":"https://www.gutenberg.org/ebooks/67246.html.images","application/epub+zip":"https://www.gutenberg.org/ebooks/67246.epub3.images","application/x-mobipocket-ebook":"https://www.gutenberg.org/ebooks/67246.kf8.images","text/plain; charset=us-ascii":"https://www.gutenberg.org/ebooks/67246.txt.utf-8","application/rdf+xml":"https://www.gutenberg.org/ebooks/67246.rdf","image/jpeg":"https://www.gutenberg.org/cache/epub/67246/pg67246.cover.medium.jpg","application/octet-stream":"https://www.gutenberg.org/files/67246/67246-0.zip"},"download_count":21},{"id":67279,"title":"Twinkle Toes and His Magic Mittens","authors":[{"name":"Smith, Laura Rountree","birth_year":1876,"death_year":1924},{"name":"Morgan, F. R.","birth_year":null,"death_year":null}],"translators":[],"subjects":["Animals -- Juvenile fiction","Cats -- Juvenile fiction"],"bookshelves":[],"languages":["en"],"copyright":false,"media_type":"Text","formats":{"text/html":"https://www.gutenberg.org/ebooks/67279.html.images","application/epub+zip":"https://www.gutenberg.org/ebooks/67279.epub3.images","application/x-mobipocket-ebook":"https://www.gutenberg.org/ebooks/67279.kf8.images","text/plain; charset=us-ascii":"https://www.gutenberg.org/ebooks/67279.txt.utf-8","application/rdf+xml":"https://www.gutenberg.org/ebooks/67279.rdf","image/jpeg":"https://www.gutenberg.org/cache/epub/67279/pg67279.cover.medium.jpg","application/octet-stream":"https://www.gutenberg.org/files/67279/67279-0.zip"},"download_count":21},{"id":67288,"title":"The Right Thing","authors":[{"name":"Cummings, Ray","birth_year":1887,"death_year":1957}],"translators":[],"subjects":["Man-woman relationships -- Fiction","Short stories","Stepfathers -- Fiction"],"bookshelves":[],"languages":["en"],"copyright":false,"media_type":"Text","formats":{"text/html":"https://www.gutenberg.org/ebooks/67288.html.images","application/epub+zip":"https://www.gutenberg.org/ebooks/67288.epub3.images","application/x-mobipocket-ebook":"https://www.gutenberg.org/ebooks/67288.kf8.images","text/plain; charset=us-ascii":"https://www.gutenberg.org/ebooks/67288.txt.utf-8","application/rdf+xml":"https://www.gutenberg.org/ebooks/67288.rdf","image/jpeg":"https://www.gutenberg.org/cache/epub/67288/pg67288.cover.medium.jpg","application/octet-stream":"https://www.gutenberg.org/files/67288/67288-0.zip"},"download_count":21},{"id":67372,"title":"Ninth Avenue","authors":[{"name":"Bodenheim, Maxwell","birth_year":1893,"death_year":1954}],"translators":[],"subjects":["Man-woman relationships -- Fiction","Mate selection -- Fiction","New York (N.Y.) -- Social life and customs -- 20th century -- Fiction","Poor families -- Fiction","Race relations -- Fiction","Young women -- Fiction"],"bookshelves":[],"languages":["en"],"copyright":false,"media_type":"Text","formats":{"text/html":"https://www.gutenberg.org/ebooks/67372.html.images","application/epub+zip":"https://www.gutenberg.org/ebooks/67372.epub3.images","application/x-mobipocket-ebook":"https://www.gutenberg.org/ebooks/67372.kf8.images","text/plain; charset=us-ascii":"https://www.gutenberg.org/ebooks/67372.txt.utf-8","application/rdf+xml":"https://www.gutenberg.org/ebooks/67372.rdf","image/jpeg":"https://www.gutenberg.org/cache/epub/67372/pg67372.cover.medium.jpg","application/octet-stream":"https://www.gutenberg.org/files/67372/67372-0.zip"},"download_count":21},{"id":67413,"title":"Ecclesiastical History of England, Volume 4—The Church of the Restoration [part 2]","authors":[{"name":"Stoughton, John","birth_year":1807,"death_year":1897}],"translators":[],"subjects":["Great Britain -- Church history"],"bookshelves":[],"languages":["en"],"copyright":false,"media_type":"Text","formats":{"text/html":"https://www.gutenberg.org/ebooks/67413.html.images","application/epub+zip":"https://www.gutenberg.org/ebooks/67413.epub3.images","application/x-mobipocket-ebook":"https://www.gutenberg.org/ebooks/67413.kf8.images","text/plain; charset=us-ascii":"https://www.gutenberg.org/ebooks/67413.txt.utf-8","application/rdf+xml":"https://www.gutenberg.org/ebooks/67413.rdf","image/jpeg":"https://www.gutenberg.org/cache/epub/67413/pg67413.cover.medium.jpg","application/octet-stream":"https://www.gutenberg.org/files/67413/67413-0.zip"},"download_count":21},{"id":67480,"title":"Graham's Magazine, Vol. XX, No. 6, June 1842","authors":[{"name":"Various","birth_year":null,"death_year":null}],"translators":[],"subjects":["Literature -- Periodicals","Literature, Modern -- 19th century -- Periodicals"],"bookshelves":[],"languages":["en"],"copyright":false,"media_type":"Text","formats":{"text/html":"https://www.gutenberg.org/ebooks/67480.html.images","application/epub+zip":"https://www.gutenberg.org/ebooks/67480.epub3.images","application/x-mobipocket-ebook":"https://www.gutenberg.org/ebooks/67480.kf8.images","text/plain; charset=us-ascii":"https://www.gutenberg.org/ebooks/67480.txt.utf-8","application/rdf+xml":"https://www.gutenberg.org/ebooks/67480.rdf","image/jpeg":"https://www.gutenberg.org/cache/epub/67480/pg67480.cover.medium.jpg","application/octet-stream":"https://www.gutenberg.org/files/67480/67480-0.zip"},"download_count":21},{"id":67489,"title":"The Wreck of the Mail Steamer","authors":[{"name":"Grenfell, Wilfred Thomason, Sir","birth_year":1865,"death_year":1940}],"translators":[],"subjects":["Newfoundland and Labrador -- Juvenile fiction","Sea stories","Shipwrecks -- Juvenile fiction","Short stories"],"bookshelves":[],"languages":["en"],"copyright":false,"media_type":"Text","formats":{"text/html":"https://www.gutenberg.org/ebooks/67489.html.images","application/epub+zip":"https://www.gutenberg.org/ebooks/67489.epub3.images","application/x-mobipocket-ebook":"https://www.gutenberg.org/ebooks/67489.kf8.images","text/plain; charset=us-ascii":"https://www.gutenberg.org/ebooks/67489.txt.utf-8","application/rdf+xml":"https://www.gutenberg.org/ebooks/67489.rdf","image/jpeg":"https://www.gutenberg.org/cache/epub/67489/pg67489.cover.medium.jpg","application/octet-stream":"https://www.gutenberg.org/files/67489/67489-0.zip"},"download_count":21},{"id":67512,"title":"The Irish Nuns at Ypres: An Episode of the War","authors":[{"name":"Columban, M., Dame","birth_year":null,"death_year":null}],"translators":[],"subjects":["World War, 1914-1918 -- Personal narratives"],"bookshelves":[],"languages":["en"],"copyright":false,"media_type":"Text","formats":{"text/html":"https://www.gutenberg.org/ebooks/67512.html.images","application/epub+zip":"https://www.gutenberg.org/ebooks/67512.epub3.images","application/x-mobipocket-ebook":"https://www.gutenberg.org/ebooks/67512.kf8.images","text/plain; charset=us-ascii":"https://www.gutenberg.org/ebooks/67512.txt.utf-8","application/rdf+xml":"https://www.gutenberg.org/ebooks/67512.rdf","image/jpeg":"https://www.gutenberg.org/cache/epub/67512/pg67512.cover.medium.jpg","application/octet-stream":"https://www.gutenberg.org/files/67512/67512-0.zip"},"download_count":21},{"id":67534,"title":"The Black Star: A School Story for Boys","authors":[{"name":"Walpole, Andrew H.","birth_year":null,"death_year":null}],"translators":[],"subjects":["Australia -- Juvenile fiction","Schools -- Juvenile fiction"],"bookshelves":[],"languages":["en"],"copyright":false,"media_type":"Text","formats":{"text/html":"https://www.gutenberg.org/ebooks/67534.html.images","application/epub+zip":"https://www.gutenberg.org/ebooks/67534.epub3.images","application/x-mobipocket-ebook":"https://www.gutenberg.org/ebooks/67534.kf8.images","text/plain; charset=us-ascii":"https://www.gutenberg.org/ebooks/67534.txt.utf-8","application/rdf+xml":"https://www.gutenberg.org/ebooks/67534.rdf","image/jpeg":"https://www.gutenberg.org/cache/epub/67534/pg67534.cover.medium.jpg","application/octet-stream":"https://www.gutenberg.org/files/67534/67534-0.zip"},"download_count":21},{"id":67569,"title":"Tractor Principles: The Action, Mechanism, Handling, Care, Maintenance and Repair of the Gas Engine Tractor","authors":[{"name":"Whitman, Roger B. (Roger Bradbury)","birth_year":1875,"death_year":1942}],"translators":[],"subjects":["Traction-engines"],"bookshelves":[],"languages":["en"],"copyright":false,"media_type":"Text","formats":{"text/html":"https://www.gutenberg.org/ebooks/67569.html.images","application/epub+zip":"https://www.gutenberg.org/ebooks/67569.epub3.images","application/x-mobipocket-ebook":"https://www.gutenberg.org/ebooks/67569.kf8.images","text/plain; charset=us-ascii":"https://www.gutenberg.org/ebooks/67569.txt.utf-8","application/rdf+xml":"https://www.gutenberg.org/ebooks/67569.rdf","image/jpeg":"https://www.gutenberg.org/cache/epub/67569/pg67569.cover.medium.jpg","application/octet-stream":"https://www.gutenberg.org/files/67569/67569-0.zip"},"download_count":21},{"id":67606,"title":"The Slaves of Society: A Comedy in Covers","authors":[{"name":"Upward, Allen","birth_year":1863,"death_year":1926}],"translators":[],"subjects":["England -- Social life and customs -- Fiction","Satire"],"bookshelves":[],"languages":["en"],"copyright":false,"media_type":"Text","formats":{"text/html":"https://www.gutenberg.org/ebooks/67606.html.images","application/epub+zip":"https://www.gutenberg.org/ebooks/67606.epub3.images","application/x-mobipocket-ebook":"https://www.gutenberg.org/ebooks/67606.kf8.images","text/plain; charset=us-ascii":"https://www.gutenberg.org/ebooks/67606.txt.utf-8","application/rdf+xml":"https://www.gutenberg.org/ebooks/67606.rdf","image/jpeg":"https://www.gutenberg.org/cache/epub/67606/pg67606.cover.medium.jpg","application/octet-stream":"https://www.gutenberg.org/files/67606/67606-0.zip"},"download_count":21},{"id":67634,"title":"Report of the Sanitary Committee of the Commissioners of Sewers of the City of London, together with a report of the Medical Officer of Health on the objections raised by the Butchers' Trade Society to the bye-laws proposed for the regulation of slaughter-houses","authors":[{"name":"Saunders, W. Sedgwick (William Sedgwick)","birth_year":1824,"death_year":1901},{"name":"City of London (England). Commissioners of Sewers. Sanitary Committee","birth_year":null,"death_year":null}],"translators":[],"subjects":["Sewerage","Slaughtering and slaughter-houses -- Law and legislation -- Great Britain"],"bookshelves":[],"languages":["en"],"copyright":false,"media_type":"Text","formats":{"text/html":"https://www.gutenberg.org/ebooks/67634.html.images","application/epub+zip":"https://www.gutenberg.org/ebooks/67634.epub3.images","application/x-mobipocket-ebook":"https://www.gutenberg.org/ebooks/67634.kf8.images","text/plain; charset=us-ascii":"https://www.gutenberg.org/ebooks/67634.txt.utf-8","application/rdf+xml":"https://www.gutenberg.org/ebooks/67634.rdf","image/jpeg":"https://www.gutenberg.org/cache/epub/67634/pg67634.cover.medium.jpg","application/octet-stream":"https://www.gutenberg.org/files/67634/67634-0.zip"},"download_count":21},{"id":67669,"title":"A Marriage in High Life, Volume I","authors":[{"name":"Scott, Lady (Caroline Lucy)","birth_year":1784,"death_year":1857}],"translators":[],"subjects":["Great Britain -- Social life and customs -- 19th century -- Fiction","Marriage -- Fiction"],"bookshelves":[],"languages":["en"],"copyright":false,"media_type":"Text","formats":{"text/html":"https://www.gutenberg.org/ebooks/67669.html.images","application/epub+zip":"https://www.gutenberg.org/ebooks/67669.epub3.images","application/x-mobipocket-ebook":"https://www.gutenberg.org/ebooks/67669.kf8.images","text/plain; charset=us-ascii":"https://www.gutenberg.org/ebooks/67669.txt.utf-8","application/rdf+xml":"https://www.gutenberg.org/ebooks/67669.rdf","image/jpeg":"https://www.gutenberg.org/cache/epub/67669/pg67669.cover.medium.jpg","application/octet-stream":"https://www.gutenberg.org/files/67669/67669-0.zip"},"download_count":21},{"id":67681,"title":"Arthur Blane; or, The Hundred Cuirassiers","authors":[{"name":"Grant, James","birth_year":1822,"death_year":1887}],"translators":[],"subjects":["France -- History -- Louis XIII, 1610-1643 -- Fiction"],"bookshelves":[],"languages":["en"],"copyright":false,"media_type":"Text","formats":{"text/html":"https://www.gutenberg.org/ebooks/67681.html.images","application/epub+zip":"https://www.gutenberg.org/ebooks/67681.epub3.images","application/x-mobipocket-ebook":"https://www.gutenberg.org/ebooks/67681.kf8.images","text/plain; charset=us-ascii":"https://www.gutenberg.org/ebooks/67681.txt.utf-8","application/rdf+xml":"https://www.gutenberg.org/ebooks/67681.rdf","image/jpeg":"https://www.gutenberg.org/cache/epub/67681/pg67681.cover.medium.jpg","application/octet-stream":"https://www.gutenberg.org/files/67681/67681-0.zip"},"download_count":21},{"id":67728,"title":"The Valley of Content","authors":[{"name":"Upright, Blanche","birth_year":1880,"death_year":1948}],"translators":[],"subjects":["American fiction -- 20th century"],"bookshelves":[],"languages":["en"],"copyright":false,"media_type":"Text","formats":{"text/html":"https://www.gutenberg.org/ebooks/67728.html.images","application/epub+zip":"https://www.gutenberg.org/ebooks/67728.epub3.images","application/x-mobipocket-ebook":"https://www.gutenberg.org/ebooks/67728.kf8.images","text/plain; charset=us-ascii":"https://www.gutenberg.org/ebooks/67728.txt.utf-8","application/rdf+xml":"https://www.gutenberg.org/ebooks/67728.rdf","image/jpeg":"https://www.gutenberg.org/cache/epub/67728/pg67728.cover.medium.jpg","application/octet-stream":"https://www.gutenberg.org/files/67728/67728-0.zip"},"download_count":21},{"id":67753,"title":"Don Miguel Lehumada: discoverer of liquid from the sun's rays: an occult romance of Mexico and the United States","authors":[{"name":"Greenleaf, Sue","birth_year":null,"death_year":null}],"translators":[],"subjects":["Memory -- Fiction","Paranormal fiction","Reincarnation -- Fiction","Spiritualism -- Fiction"],"bookshelves":[],"languages":["en"],"copyright":false,"media_type":"Text","formats":{"text/html":"https://www.gutenberg.org/ebooks/67753.html.images","application/epub+zip":"https://www.gutenberg.org/ebooks/67753.epub3.images","application/x-mobipocket-ebook":"https://www.gutenberg.org/ebooks/67753.kf8.images","text/plain; charset=us-ascii":"https://www.gutenberg.org/ebooks/67753.txt.utf-8","application/rdf+xml":"https://www.gutenberg.org/ebooks/67753.rdf","image/jpeg":"https://www.gutenberg.org/cache/epub/67753/pg67753.cover.medium.jpg","application/octet-stream":"https://www.gutenberg.org/files/67753/67753-0.zip"},"download_count":21},{"id":67756,"title":"Bob Taylor's Magazine, Vol. I, No. 2, May 1905","authors":[{"name":"Various","birth_year":null,"death_year":null}],"translators":[],"subjects":["Agriculture -- Southern States -- Periodicals","Southern States -- Periodicals"],"bookshelves":[],"languages":["en"],"copyright":false,"media_type":"Text","formats":{"text/html":"https://www.gutenberg.org/ebooks/67756.html.images","application/epub+zip":"https://www.gutenberg.org/ebooks/67756.epub3.images","application/x-mobipocket-ebook":"https://www.gutenberg.org/ebooks/67756.kf8.images","text/plain; charset=us-ascii":"https://www.gutenberg.org/ebooks/67756.txt.utf-8","application/rdf+xml":"https://www.gutenberg.org/ebooks/67756.rdf","image/jpeg":"https://www.gutenberg.org/cache/epub/67756/pg67756.cover.medium.jpg","application/octet-stream":"https://www.gutenberg.org/files/67756/67756-0.zip"},"download_count":21},{"id":67757,"title":"George Meredith: A Study","authors":[{"name":"Lynch, Hannah","birth_year":1859,"death_year":1904}],"translators":[],"subjects":["Meredith, George, 1828-1909 -- Criticism and interpretation"],"bookshelves":[],"languages":["en"],"copyright":false,"media_type":"Text","formats":{"text/html":"https://www.gutenberg.org/ebooks/67757.html.images","application/epub+zip":"https://www.gutenberg.org/ebooks/67757.epub3.images","application/x-mobipocket-ebook":"https://www.gutenberg.org/ebooks/67757.kf8.images","text/plain; charset=us-ascii":"https://www.gutenberg.org/ebooks/67757.txt.utf-8","application/rdf+xml":"https://www.gutenberg.org/ebooks/67757.rdf","image/jpeg":"https://www.gutenberg.org/cache/epub/67757/pg67757.cover.medium.jpg","application/octet-stream":"https://www.gutenberg.org/files/67757/67757-0.zip"},"download_count":21},{"id":67787,"title":"The Rambler Club's Winter Camp","authors":[{"name":"Sheppard, W. Crispin (William Crispin)","birth_year":1871,"death_year":null}],"translators":[],"subjects":["Adventure stories","Boys -- Societies and clubs -- Juvenile fiction","Mystery fiction","Snow camping -- Juvenile fiction"],"bookshelves":[],"languages":["en"],"copyright":false,"media_type":"Text","formats":{"text/html":"https://www.gutenberg.org/ebooks/67787.html.images","application/epub+zip":"https://www.gutenberg.org/ebooks/67787.epub3.images","application/x-mobipocket-ebook":"https://www.gutenberg.org/ebooks/67787.kf8.images","text/plain; charset=us-ascii":"https://www.gutenberg.org/ebooks/67787.txt.utf-8","application/rdf+xml":"https://www.gutenberg.org/ebooks/67787.rdf","image/jpeg":"https://www.gutenberg.org/cache/epub/67787/pg67787.cover.medium.jpg","application/octet-stream":"https://www.gutenberg.org/files/67787/67787-0.zip"},"download_count":21},{"id":67798,"title":"Mona Maclean, Medical Student: A Novel","authors":[{"name":"Travers, Graham","birth_year":1859,"death_year":1918}],"translators":[],"subjects":["Women medical students -- Fiction"],"bookshelves":[],"languages":["en"],"copyright":false,"media_type":"Text","formats":{"text/html":"https://www.gutenberg.org/ebooks/67798.html.images","application/epub+zip":"https://www.gutenberg.org/ebooks/67798.epub3.images","application/x-mobipocket-ebook":"https://www.gutenberg.org/ebooks/67798.kf8.images","text/plain; charset=us-ascii":"https://www.gutenberg.org/ebooks/67798.txt.utf-8","application/rdf+xml":"https://www.gutenberg.org/ebooks/67798.rdf","image/jpeg":"https://www.gutenberg.org/cache/epub/67798/pg67798.cover.medium.jpg","application/octet-stream":"https://www.gutenberg.org/files/67798/67798-0.zip"},"download_count":21},{"id":67806,"title":"Mary Magdalene: A Play in Three Acts","authors":[{"name":"Maeterlinck, Maurice","birth_year":1862,"death_year":1949}],"translators":[{"name":"Teixeira de Mattos, Alexander","birth_year":1865,"death_year":1921}],"subjects":["Mary Magdalene, Saint -- Drama"],"bookshelves":[],"languages":["en"],"copyright":false,"media_type":"Text","formats":{"text/html":"https://www.gutenberg.org/ebooks/67806.html.images","application/epub+zip":"https://www.gutenberg.org/ebooks/67806.epub3.images","application/x-mobipocket-ebook":"https://www.gutenberg.org/ebooks/67806.kf8.images","text/plain; charset=us-ascii":"https://www.gutenberg.org/ebooks/67806.txt.utf-8","application/rdf+xml":"https://www.gutenberg.org/ebooks/67806.rdf","image/jpeg":"https://www.gutenberg.org/cache/epub/67806/pg67806.cover.medium.jpg","application/octet-stream":"https://www.gutenberg.org/files/67806/67806-0.zip"},"download_count":21},{"id":67855,"title":"Godsend to a Lady","authors":[{"name":"Bower, B. M.","birth_year":1871,"death_year":1940}],"translators":[],"subjects":["Automobiles -- Fiction","Nevada -- Fiction","Ryan, Casey (Fictitious character) -- Fiction","Western stories"],"bookshelves":[],"languages":["en"],"copyright":false,"media_type":"Text","formats":{"text/html":"https://www.gutenberg.org/ebooks/67855.html.images","application/epub+zip":"https://www.gutenberg.org/ebooks/67855.epub3.images","application/x-mobipocket-ebook":"https://www.gutenberg.org/ebooks/67855.kf8.images","text/plain; charset=us-ascii":"https://www.gutenberg.org/ebooks/67855.txt.utf-8","application/rdf+xml":"https://www.gutenberg.org/ebooks/67855.rdf","image/jpeg":"https://www.gutenberg.org/cache/epub/67855/pg67855.cover.medium.jpg","application/octet-stream":"https://www.gutenberg.org/files/67855/67855-0.zip"},"download_count":21},{"id":67920,"title":"A Further Investigation of the Symmetrical Chloride of Paranitroorthosulphobenzoic Acid","authors":[{"name":"Henderson, William Edwards","birth_year":1870,"death_year":null}],"translators":[],"subjects":["Ortho-sulfobenzoic acid","Thesis (Ph. D.)"],"bookshelves":[],"languages":["en"],"copyright":false,"media_type":"Text","formats":{"text/html":"https://www.gutenberg.org/ebooks/67920.html.images","application/epub+zip":"https://www.gutenberg.org/ebooks/67920.epub3.images","application/x-mobipocket-ebook":"https://www.gutenberg.org/ebooks/67920.kf8.images","text/plain; charset=us-ascii":"https://www.gutenberg.org/ebooks/67920.txt.utf-8","application/rdf+xml":"https://www.gutenberg.org/ebooks/67920.rdf","image/jpeg":"https://www.gutenberg.org/cache/epub/67920/pg67920.cover.medium.jpg","application/octet-stream":"https://www.gutenberg.org/files/67920/67920-0.zip"},"download_count":21},{"id":68030,"title":"The Yale Literary Magazine (Vol. LXXXVIII, No. 6, March 1923)","authors":[{"name":"Various","birth_year":null,"death_year":null}],"translators":[],"subjects":["College students' writings, American -- Connecticut -- New Haven -- Periodicals","Yale University -- Periodicals"],"bookshelves":[],"languages":["en"],"copyright":false,"media_type":"Text","formats":{"text/html":"https://www.gutenberg.org/ebooks/68030.html.images","application/epub+zip":"https://www.gutenberg.org/ebooks/68030.epub3.images","application/x-mobipocket-ebook":"https://www.gutenberg.org/ebooks/68030.kf8.images","text/plain; charset=us-ascii":"https://www.gutenberg.org/ebooks/68030.txt.utf-8","application/rdf+xml":"https://www.gutenberg.org/ebooks/68030.rdf","image/jpeg":"https://www.gutenberg.org/cache/epub/68030/pg68030.cover.medium.jpg","application/octet-stream":"https://www.gutenberg.org/files/68030/68030-0.zip"},"download_count":21},{"id":68067,"title":"Frank Reade, Jr., with his new steam horse in the great American desert: or, The sandy trail of death","authors":[{"name":"Senarens, Luis","birth_year":1863,"death_year":1939}],"translators":[],"subjects":["Adventure stories","American fiction -- 19th century","Dime novels","Inventors -- United States -- Fiction","Popular literature -- United States","Science fiction","Western stories"],"bookshelves":[],"languages":["en"],"copyright":false,"media_type":"Text","formats":{"text/html":"https://www.gutenberg.org/ebooks/68067.html.images","application/epub+zip":"https://www.gutenberg.org/ebooks/68067.epub3.images","application/x-mobipocket-ebook":"https://www.gutenberg.org/ebooks/68067.kf8.images","text/plain; charset=us-ascii":"https://www.gutenberg.org/ebooks/68067.txt.utf-8","application/rdf+xml":"https://www.gutenberg.org/ebooks/68067.rdf","image/jpeg":"https://www.gutenberg.org/cache/epub/68067/pg68067.cover.medium.jpg","application/octet-stream":"https://www.gutenberg.org/files/68067/68067-0.zip"},"download_count":21},{"id":68123,"title":"The chronicles of Michael Danevitch of the Russian Secret Service","authors":[{"name":"Donovan, Dick","birth_year":1843,"death_year":1934}],"translators":[],"subjects":["Danevitch, Michael (Fictitious character) -- Fiction","Mystery and detective stories","Short stories, English"],"bookshelves":[],"languages":["en"],"copyright":false,"media_type":"Text","formats":{"text/html":"https://www.gutenberg.org/ebooks/68123.html.images","application/epub+zip":"https://www.gutenberg.org/ebooks/68123.epub3.images","application/x-mobipocket-ebook":"https://www.gutenberg.org/ebooks/68123.kf8.images","text/plain; charset=us-ascii":"https://www.gutenberg.org/ebooks/68123.txt.utf-8","application/rdf+xml":"https://www.gutenberg.org/ebooks/68123.rdf","image/jpeg":"https://www.gutenberg.org/cache/epub/68123/pg68123.cover.medium.jpg","application/octet-stream":"https://www.gutenberg.org/files/68123/68123-0.zip"},"download_count":21},{"id":68284,"title":"Happy: The life of a bee","authors":[{"name":"McCaleb, Walter Flavius","birth_year":1873,"death_year":1967}],"translators":[],"subjects":["Bees"],"bookshelves":[],"languages":["en"],"copyright":false,"media_type":"Text","formats":{"text/html":"https://www.gutenberg.org/ebooks/68284.html.images","application/epub+zip":"https://www.gutenberg.org/ebooks/68284.epub3.images","application/x-mobipocket-ebook":"https://www.gutenberg.org/ebooks/68284.kf8.images","text/plain; charset=us-ascii":"https://www.gutenberg.org/ebooks/68284.txt.utf-8","application/rdf+xml":"https://www.gutenberg.org/ebooks/68284.rdf","image/jpeg":"https://www.gutenberg.org/cache/epub/68284/pg68284.cover.medium.jpg","application/octet-stream":"https://www.gutenberg.org/files/68284/68284-0.zip"},"download_count":21},{"id":68328,"title":"Nick Carter Stories No. 156, September 4, 1915: Blood Will Tell; or, Nick Carter's Play in Politics","authors":[{"name":"Carter, Nicholas (House name)","birth_year":null,"death_year":null}],"translators":[],"subjects":["Detective and mystery stories, American -- Periodicals","Popular literature -- Periodicals"],"bookshelves":[],"languages":["en"],"copyright":false,"media_type":"Text","formats":{"text/html":"https://www.gutenberg.org/ebooks/68328.html.images","application/epub+zip":"https://www.gutenberg.org/ebooks/68328.epub3.images","application/x-mobipocket-ebook":"https://www.gutenberg.org/ebooks/68328.kf8.images","text/plain; charset=us-ascii":"https://www.gutenberg.org/ebooks/68328.txt.utf-8","application/rdf+xml":"https://www.gutenberg.org/ebooks/68328.rdf","image/jpeg":"https://www.gutenberg.org/cache/epub/68328/pg68328.cover.medium.jpg","application/octet-stream":"https://www.gutenberg.org/files/68328/68328-0.zip"},"download_count":21},{"id":68338,"title":"Nick Carter Stories No. 160, October 2, 1915: The Yellow Label; or, Nick Carter and the Society Looters.","authors":[{"name":"Carter, Nicholas (House name)","birth_year":null,"death_year":null}],"translators":[],"subjects":["Detective and mystery stories, American -- Periodicals","Popular literature -- Periodicals"],"bookshelves":[],"languages":["en"],"copyright":false,"media_type":"Text","formats":{"text/html":"https://www.gutenberg.org/ebooks/68338.html.images","application/epub+zip":"https://www.gutenberg.org/ebooks/68338.epub3.images","application/x-mobipocket-ebook":"https://www.gutenberg.org/ebooks/68338.kf8.images","text/plain; charset=us-ascii":"https://www.gutenberg.org/ebooks/68338.txt.utf-8","application/rdf+xml":"https://www.gutenberg.org/ebooks/68338.rdf","image/jpeg":"https://www.gutenberg.org/cache/epub/68338/pg68338.cover.medium.jpg","application/octet-stream":"https://www.gutenberg.org/files/68338/68338-0.zip"},"download_count":21},{"id":68406,"title":"Essay on the effects of iodine on the human constitution: With practical observation on its use in the cure of bronchocele, scrophula, and the tuberculous diseases of the chest and abdomen","authors":[{"name":"Gairdner, William","birth_year":1793,"death_year":1867}],"translators":[],"subjects":["Iodine -- Therapeutic use"],"bookshelves":[],"languages":["en"],"copyright":false,"media_type":"Text","formats":{"text/html":"https://www.gutenberg.org/ebooks/68406.html.images","application/epub+zip":"https://www.gutenberg.org/ebooks/68406.epub3.images","application/x-mobipocket-ebook":"https://www.gutenberg.org/ebooks/68406.kf8.images","text/plain; charset=us-ascii":"https://www.gutenberg.org/ebooks/68406.txt.utf-8","application/rdf+xml":"https://www.gutenberg.org/ebooks/68406.rdf","image/jpeg":"https://www.gutenberg.org/cache/epub/68406/pg68406.cover.medium.jpg","application/octet-stream":"https://www.gutenberg.org/files/68406/68406-0.zip"},"download_count":21},{"id":68496,"title":"Dwala: A romance","authors":[{"name":"Calderon, George","birth_year":1868,"death_year":1915}],"translators":[],"subjects":["Apes -- Fiction","London (England) -- Social life and customs -- 20th century -- Fiction","Satire"],"bookshelves":[],"languages":["en"],"copyright":false,"media_type":"Text","formats":{"text/html":"https://www.gutenberg.org/ebooks/68496.html.images","application/epub+zip":"https://www.gutenberg.org/ebooks/68496.epub3.images","application/x-mobipocket-ebook":"https://www.gutenberg.org/ebooks/68496.kf8.images","text/plain; charset=us-ascii":"https://www.gutenberg.org/ebooks/68496.txt.utf-8","application/rdf+xml":"https://www.gutenberg.org/ebooks/68496.rdf","image/jpeg":"https://www.gutenberg.org/cache/epub/68496/pg68496.cover.medium.jpg","application/octet-stream":"https://www.gutenberg.org/files/68496/68496-0.zip"},"download_count":21}]}