{"count":58808,"next":"http://129.241.150.113:8000/books/?languages=en&page=1734","previous":"http://129.241.150.113:8000/books/?languages=en&page=1732","results":[{"id":9031,"title":"Some Rambling Notes of an Idle Excursion","authors":[{"name":"Twain, Mark","birth_year":1835,"death_year":1910}],"translators":[],"subjects":["Passenger ships -- Fiction"],"bookshelves":[],"languages":["en"],"copyright":true,"media_type":"Sound","formats":{"text/plain; charset=us-ascii":"https://www.gutenberg.org/files/9031/9031-readme.txt","text/html; charset=iso-8859-1":"https://www.gutenberg.org/files/9031/9031-index.htm","audio/mpeg":"https://www.gutenberg.org/files/9031/mp3/9031-000.mp3","application/rdf+xml":"https://www.gutenberg.org/ebooks/9031.rdf","application/octet-stream":"https://www.gutenberg.org/files/9031/9031-mp3.zip"},"download_count":16},{"id":9039,"title":"Is Shakespeare Dead?","authors":[{"name":"Twain, Mark","birth_year":1835,"death_year":1910}],"translators":[],"subjects":["Shakespeare, William, 1564-1616 -- Authorship -- Baconian theory"],"bookshelves":[],"languages":["en"],"copyright":true,"media_type":"Sound","formats":{"text/plain; charset=us-ascii":"https://www.gutenberg.org/files/9039/9039-readme.txt","text/html; charset=iso-8859-1":"https://www.gutenberg.org/files/9039/9039-index.htm","audio/mpeg":"https://www.gutenberg.org/files/9039/mp3/9039-000.mp3","application/rdf+xml":"https://www.gutenberg.org/ebooks/9039.rdf","application/octet-stream":"https://www.gutenberg.org/files/9039/9039-mp3.zip"},"download_count":16},{"id":9093,"title":"Rural Tales, Ballads, and Songs","authors":[{"name":"Bloomfield, Robert","birth_year":1766,"death_year":1823}],"translators":[],"subjects":["Country life -- Poetry"],"bookshelves":[],"languages":["en"],"copyright":false,"media_type":"Text","formats":{"text/html":"https://www.gutenberg.org/ebooks/9093.html.images","application/epub+zip":"https://www.gutenberg.org/ebooks/9093.epub3.images","application/x-mobipocket-ebook":"https://www.gutenberg.org/ebooks/9093.kf8.images","text/plain; charset=us-ascii":"https://www.gutenberg.org/ebooks/9093.txt.utf-8","application/rdf+xml":"https://www.gutenberg.org/ebooks/9093.rdf","image/jpeg":"https://www.gutenberg.org/cache/epub/9093/pg9093.cover.medium.jpg","application/octet-stream":"https://www.gutenberg.org/cache/epub/9093/pg9093-h.zip"},"download_count":16},{"id":9114,"title":"Burning Daylight","authors":[{"name":"London, Jack","birth_year":1876,"death_year":1916}],"translators":[],"subjects":["California -- Gold discoveries -- Fiction","Western stories","Women pioneers -- Fiction"],"bookshelves":[],"languages":["en"],"copyright":true,"media_type":"Sound","formats":{"text/plain; charset=us-ascii":"https://www.gutenberg.org/files/9114/9114-readme.txt","text/html; charset=iso-8859-1":"https://www.gutenberg.org/files/9114/9114-index.htm","audio/mpeg":"https://www.gutenberg.org/files/9114/mp3/9114-000.mp3","application/rdf+xml":"https://www.gutenberg.org/ebooks/9114.rdf","application/octet-stream":"https://www.gutenberg.org/files/9114/9114-mp3.zip"},"download_count":16},{"id":9146,"title":"I and My Chimney","authors":[{"name":"Melville, Herman","birth_year":1819,"death_year":1891}],"translators":[],"subjects":["Family life -- Fiction"],"bookshelves":[],"languages":["en"],"copyright":true,"media_type":"Sound","formats":{"text/plain; charset=us-ascii":"https://www.gutenberg.org/files/9146/9146-readme.txt","text/html; charset=iso-8859-1":"https://www.gutenberg.org/files/9146/9146-index.htm","audio/mpeg":"https://www.gutenberg.org/files/9146/mp3/9146-000.mp3","application/rdf+xml":"https://www.gutenberg.org/ebooks/9146.rdf","application/octet-stream":"https://www.gutenberg.org/files/9146/9146-mp3.zip"},"download_count":16},{"id":9336,"title":"To-morrow","authors":[{"name":"Conrad, Joseph","birth_year":1857,"death_year":1924}],"translators":[],"subjects":["Fiction"],"bookshelves":[],"languages":["en"],"copyright":true,"media_type":"Sound","formats":{"text/plain; charset=us-ascii":"https://www.gutenberg.org/files/9336/9336-readme.txt","text/html; charset=iso-8859-1":"https://www.gutenberg.org/files/9336/9336-index.htm","audio/mpeg":"https://www.gutenberg.org/files/9336/mp3/9336-000.mp3","application/rdf+xml":"https://www.gutenberg.org/ebooks/9336.rdf","application/octet-stream":"https://www.gutenberg.org/files/9336/9336-mp3.zip"},"download_count":16},{"id":9428,"title":"A Group of Noble Dames","authors":[{"name":"Hardy, Thomas","birth_year":1840,"death_year":1928}],"translators":[],"subjects":["Nobility -- Fiction","Wessex (England) -- Fiction","Women -- England -- Fiction"],"bookshelves":[],"languages":["en"],"copyright":true,"media_type":"Sound","formats":{"text/plain; charset=us-ascii":"https://www.gutenberg.org/files/9428/9428-readme.txt","text/html; charset=iso-8859-1":"https://www.gutenberg.org/files/9428/9428-index.htm","audio/mpeg":"https://www.gutenberg.org/files/9428/mp3/9428-000.mp3","application/rdf+xml":"https://www.gutenberg.org/ebooks/9428.rdf","application/octet-stream":"https://www.gutenberg.org/files/9428/9428-mp3.zip"},"download_count":16},{"id":9430,"title":"Poems of the Past and the Present","authors":[{"name":"Hardy, Thomas","birth_year":1840,"death_year":1928}],"translators":[],"subjects":["English poetry"],"bookshelves":[],"languages":["en"],"copyright":true,"media_type":"Sound","formats":{"text/plain; charset=us-ascii":"https://www.gutenberg.org/files/9430/9430-readme.txt","text/html; charset=iso-8859-1":"https://www.gutenberg.org/files/9430/9430-index.htm","audio/mpeg":"https://www.gutenberg.org/files/9430/mp3/9430-000.mp3","application/rdf+xml":"https://www.gutenberg.org/ebooks/9430.rdf","application/octet-stream":"https://www.gutenberg.org/files/9430/9430-mp3.zip"},"download_count":16},{"id":9452,"title":"Wessex Poems and Other Verses","authors":[{"name":"Hardy, Thomas","birth_year":1840,"death_year":1928}],"translators":[],"subjects":["English poetry"],"bookshelves":[],"languages":["en"],"copyright":true,"media_type":"Sound","formats":{"text/plain; charset=us-ascii":"https://www.gutenberg.org/files/9452/9452-readme.txt","text/html; charset=iso-8859-1":"https://www.gutenberg.org/files/9452/9452-index.htm","audio/mpeg":"https://www.gutenberg.org/files/9452/mp3/9452-000.mp3","application/rdf+xml":"https://www.gutenberg.org/ebooks/9452.rdf","application/octet-stream":"https://www.gutenberg.org/files/9452/9452-mp3.zip"},"download_count":16},{"id":9465,"title":"Songs of Two","authors":[{"name":"Hardy, Arthur Sherburne","birth_year":1847,"death_year":1930}],"translators":[],"subjects":["Poetry"],"bookshelves":[],"languages":["en"],"copyright":false,"media_type":"Text","formats":{"text/html":"https://www.gutenberg.org/ebooks/9465.html.images","application/epub+zip":"https://www.gutenberg.org/ebooks/9465.epub3.images","application/x-mobipocket-ebook":"https://www.gutenberg.org/ebooks/9465.kf8.images","text/plain; charset=us-ascii":"https://www.gutenberg.org/ebooks/9465.txt.utf-8","application/rdf+xml":"https://www.gutenberg.org/ebooks/9465.rdf","image/jpeg":"https://www.gutenberg.org/cache/epub/9465/pg9465.cover.medium.jpg","application/octet-stream":"https://www.gutenberg.org/cache/epub/9465/pg9465-h.zip"},"download_count":16},{"id":9467,"title":"The Atlantic Monthly, Volume 04, No. 26, December, 1859: A Magazine of Literature, Art, and Politics","authors":[{"name":"Various","birth_year":null,"death_year":null}],"translators":[],"subjects":["American periodicals"],"bookshelves":["The Atlantic Monthly"],"languages":["en"],"copyright":false,"media_type":"Text","formats":{"text/html":"https://www.gutenberg.org/ebooks/9467.html.images","application/epub+zip":"https://www.gutenberg.org/ebooks/9467.epub3.images","application/x-mobipocket-ebook":"https://www.gutenberg.org/ebooks/9467.kf8.images","text/plain; charset=us-ascii":"https://www.gutenberg.org/ebooks/9467.txt.utf-8","text/plain; charset=iso-8859-1":"https://www.gutenberg.org/files/9467/9467-8.txt","application/rdf+xml":"https://www.gutenberg.org/ebooks/9467.rdf","image/jpeg":"https://www.gutenberg.org/cache/epub/9467/pg9467.cover.medium.jpg","application/octet-stream":"https://www.gutenberg.org/cache/epub/9467/pg9467-h.zip"},"download_count":16},{"id":9470,"title":"His Hour","authors":[{"name":"Glyn, Elinor","birth_year":1864,"death_year":1943}],"translators":[],"subjects":["Love stories"],"bookshelves":[],"languages":["en"],"copyright":false,"media_type":"Text","formats":{"text/html":"https://www.gutenberg.org/ebooks/9470.html.images","application/epub+zip":"https://www.gutenberg.org/ebooks/9470.epub3.images","application/x-mobipocket-ebook":"https://www.gutenberg.org/ebooks/9470.kf8.images","text/plain; charset=us-ascii":"https://www.gutenberg.org/ebooks/9470.txt.utf-8","text/plain; charset=iso-8859-1":"https://www.gutenberg.org/files/9470/9470-8.txt","application/rdf+xml":"https://www.gutenberg.org/ebooks/9470.rdf","image/jpeg":"https://www.gutenberg.org/cache/epub/9470/pg9470.cover.medium.jpg","application/octet-stream":"https://www.gutenberg.org/cache/epub/9470/pg9470-h.zip"},"download_count":16},{"id":9483,"title":"The Story and Song of Black Roderick","authors":[{"name":"Shorter, Dora Sigerson","birth_year":1866,"death_year":1918}],"translators":[],"subjects":["Married people -- Fiction","Religious fiction"],"bookshelves":[],"languages":["en"],"copyright":false,"media_type":"Text","formats":{"text/html":"https://www.gutenberg.org/ebooks/9483.html.images","application/epub+zip":"https://www.gutenberg.org/ebooks/9483.epub3.images","application/x-mobipocket-ebook":"https://www.gutenberg.org/ebooks/9483.kf8.images","text/plain; charset=us-ascii":"https://www.gutenberg.org/ebooks/9483.txt.utf-8","application/rdf+xml":"https://www.gutenberg.org/ebooks/9483.rdf","image/jpeg":"https://www.gutenberg.org/cache/epub/9483/pg9483.cover.medium.jpg","application/octet-stream":"https://www.gutenberg.org/cache/epub/9483/pg9483-h.zip"},"download_count":16},{"id":9515,"title":"The Works of Edgar Allan Poe, Volume 4","authors":[{"name":"Poe, Edgar Allan","birth_year":1809,"death_year":1849}],"translators":[],"subjects":["American fiction -- 19th century","Fantasy fiction","Horror tales, American","Short stories"],"bookshelves":[],"languages":["en"],"copyright":true,"media_type":"Sound","formats":{"text/plain; charset=us-ascii":"https://www.gutenberg.org/files/9515/9515-readme.txt","text/html; charset=iso-8859-1":"https://www.gutenberg.org/files/9515/9515-index.htm","audio/mpeg":"https://www.gutenberg.org/files/9515/mp3/9515-000.mp3","application/rdf+xml":"https://www.gutenberg.org/ebooks/9515.rdf","application/octet-stream":"https://www.gutenberg.org/files/9515/9515-mp3.zip"},"download_count":16},{"id":9516,"title":"The Works of Edgar Allan Poe, Volume 5","authors":[{"name":"Poe, Edgar Allan","birth_year":1809,"death_year":1849}],"translators":[],"subjects":["American fiction -- 19th century","American poetry","Fantasy fiction","Horror tales, American"],"bookshelves":[],"languages":["en"],"copyright":true,"media_type":"Sound","formats":{"text/plain; charset=us-ascii":"https://www.gutenberg.org/files/9516/9516-readme.txt","text/html; charset=iso-8859-1":"https://www.gutenberg.org/files/9516/9516-index.htm","audio/mpeg":"https://www.gutenberg.org/files/9516/mp3/9516-000.mp3","application/rdf+xml":"https://www.gutenberg.org/ebooks/9516.rdf","application/octet-stream":"https://www.gutenberg.org/files/9516/9516-mp3.zip"},"download_count":16},{"id":9596,"title":"Reform and Politics: Part 2 from The Works of John Greenleaf Whittier, Volume VII","authors":[{"name":"Whittier, John Greenleaf","birth_year":1807,"death_year":1892}],"translators":[],"subjects":["United States -- Politics and government"],"bookshelves":[],"languages":["en"],"copyright":false,"media_type":"Text","formats":{"text/html":"https://www.gutenberg.org/ebooks/9596.html.images","application/epub+zip":"https://www.gutenberg.org/ebooks/9596.epub3.images","application/x-mobipocket-ebook":"https://www.gutenberg.org/ebooks/9596.kf8.images","text/plain; charset=us-ascii":"https://www.gutenberg.org/ebooks/9596.txt.utf-8","application/rdf+xml":"https://www.gutenberg.org/ebooks/9596.rdf","image/jpeg":"https://www.gutenberg.org/cache/epub/9596/pg9596.cover.medium.jpg","application/octet-stream":"https://www.gutenberg.org/cache/epub/9596/pg9596-h.zip"},"download_count":16},{"id":9652,"title":"Miscellany of Poetry: 1919","authors":[],"translators":[],"subjects":["English poetry -- 20th century"],"bookshelves":[],"languages":["en"],"copyright":false,"media_type":"Text","formats":{"text/html":"https://www.gutenberg.org/ebooks/9652.html.images","text/html; charset=iso-8859-1":"https://www.gutenberg.org/files/9652/9652-h/9652-h.htm","application/epub+zip":"https://www.gutenberg.org/ebooks/9652.epub3.images","application/x-mobipocket-ebook":"https://www.gutenberg.org/ebooks/9652.kf8.images","text/plain; charset=us-ascii":"https://www.gutenberg.org/ebooks/9652.txt.utf-8","text/plain; charset=iso-8859-1":"https://www.gutenberg.org/files/9652/9652-8.txt","application/rdf+xml":"https://www.gutenberg.org/ebooks/9652.rdf","image/jpeg":"https://www.gutenberg.org/cache/epub/9652/pg9652.cover.medium.jpg","application/octet-stream":"https://www.gutenberg.org/cache/epub/9652/pg9652-h.zip"},"download_count":16},{"id":9678,"title":"The Consolidator","authors":[{"name":"Defoe, Daniel","birth_year":null,"death_year":1731}],"translators":[],"subjects":["Fantasy fiction","Interplanetary voyages -- Fiction","Moon -- Fiction","Political fiction","Satire"],"bookshelves":[],"languages":["en"],"copyright":true,"media_type":"Sound","formats":{"text/plain; charset=us-ascii":"https://www.gutenberg.org/files/9678/9678-readme.txt","text/html; charset=iso-8859-1":"https://www.gutenberg.org/files/9678/9678-index.htm","audio/mpeg":"https://www.gutenberg.org/files/9678/mp3/9678-000.mp3","application/rdf+xml":"https://www.gutenberg.org/ebooks/9678.rdf","application/octet-stream":"https://www.gutenberg.org/files/9678/9678-mp3.zip"},"download_count":16},{"id":9680,"title":"Dickory Cronke","authors":[{"name":"Defoe, Daniel","birth_year":null,"death_year":1731}],"translators":[],"subjects":["Didactic fiction","Philosophers -- Fiction"],"bookshelves":[],"languages":["en"],"copyright":true,"media_type":"Sound","formats":{"text/plain; charset=us-ascii":"https://www.gutenberg.org/files/9680/9680-readme.txt","text/html; charset=iso-8859-1":"https://www.gutenberg.org/files/9680/9680-index.htm","audio/mpeg":"https://www.gutenberg.org/files/9680/mp3/9680-000.mp3","application/rdf+xml":"https://www.gutenberg.org/ebooks/9680.rdf","application/octet-stream":"https://www.gutenberg.org/files/9680/9680-mp3.zip"},"download_count":16},{"id":9703,"title":"Dombey and Son","authors":[{"name":"Dickens, Charles","birth_year":1812,"death_year":1870}],"translators":[],"subjects":["Businesspeople -- Fiction","Domestic fiction","Dysfunctional families -- Fiction","England -- Fiction","England -- Social life and customs -- 19th century -- Fiction","Family-owned business enterprises -- Fiction","Fathers and daughters -- Fiction"],"bookshelves":[],"languages":["en"],"copyright":true,"media_type":"Sound","formats":{"text/plain; charset=us-ascii":"https://www.gutenberg.org/files/9703/9703-readme.txt","text/html; charset=iso-8859-1":"https://www.gutenberg.org/files/9703/9703-index.htm","audio/mpeg":"https://www.gutenberg.org/files/9703/mp3/9703-000.mp3","application/rdf+xml":"https://www.gutenberg.org/ebooks/9703.rdf","application/octet-stream":"https://www.gutenberg.org/files/9703/9703-mp3.zip"},"download_count":16},{"id":9708,"title":"George Silverman's Explanation","authors":[{"name":"Dickens, Charles","birth_year":1812,"death_year":1870}],"translators":[],"subjects":["Fiction"],"bookshelves":[],"languages":["en"],"copyright":true,"media_type":"Sound","formats":{"text/plain; charset=us-ascii":"https://www.gutenberg.org/files/9708/9708-readme.txt","text/html; charset=iso-8859-1":"https://www.gutenberg.org/files/9708/9708-index.htm","audio/mpeg":"https://www.gutenberg.org/files/9708/mp3/9708-000.mp3","application/rdf+xml":"https://www.gutenberg.org/ebooks/9708.rdf","application/octet-stream":"https://www.gutenberg.org/files/9708/9708-mp3.zip"},"download_count":16},{"id":9710,"title":"Holiday Romance","authors":[{"name":"Dickens, Charles","birth_year":1812,"death_year":1870}],"translators":[],"subjects":["Short stories"],"bookshelves":[],"languages":["en"],"copyright":true,"media_type":"Sound","formats":{"text/plain; charset=us-ascii":"https://www.gutenberg.org/files/9710/9710-readme.txt","text/html; charset=iso-8859-1":"https://www.gutenberg.org/files/9710/9710-index.htm","audio/mpeg":"https://www.gutenberg.org/files/9710/mp3/9710-000.mp3","application/rdf+xml":"https://www.gutenberg.org/ebooks/9710.rdf","application/octet-stream":"https://www.gutenberg.org/files/9710/9710-mp3.zip"},"download_count":16},{"id":9757,"title":"Leila or, the Siege of Granada, Book II.","authors":[{"name":"Lytton, Edward Bulwer Lytton, Baron","birth_year":1803,"death_year":1873}],"translators":[],"subjects":["Granada (Spain) -- History -- Siege, 1491-1492 -- Fiction","Sieges -- Fiction"],"bookshelves":["Historical Fiction"],"languages":["en"],"copyright":false,"media_type":"Text","formats":{"text/html":"https://www.gutenberg.org/ebooks/9757.html.images","application/epub+zip":"https://www.gutenberg.org/ebooks/9757.epub3.images","application/x-mobipocket-ebook":"https://www.gutenberg.org/ebooks/9757.kf8.images","text/plain; charset=us-ascii":"https://www.gutenberg.org/ebooks/9757.txt.utf-8","application/rdf+xml":"https://www.gutenberg.org/ebooks/9757.rdf","image/jpeg":"https://www.gutenberg.org/cache/epub/9757/pg9757.cover.medium.jpg","application/octet-stream":"https://www.gutenberg.org/cache/epub/9757/pg9757-h.zip"},"download_count":16},{"id":9811,"title":"The Adventures of Hugh Trevor","authors":[{"name":"Holcroft, Thomas","birth_year":1745,"death_year":1809}],"translators":[],"subjects":["England -- Social life and customs -- Fiction"],"bookshelves":[],"languages":["en"],"copyright":false,"media_type":"Text","formats":{"text/html":"https://www.gutenberg.org/ebooks/9811.html.images","application/epub+zip":"https://www.gutenberg.org/ebooks/9811.epub3.images","application/x-mobipocket-ebook":"https://www.gutenberg.org/ebooks/9811.kf8.images","text/plain; charset=us-ascii":"https://www.gutenberg.org/ebooks/9811.txt.utf-8","text/plain; charset=iso-8859-1":"https://www.gutenberg.org/files/9811/9811-8.txt","application/rdf+xml":"https://www.gutenberg.org/ebooks/9811.rdf","image/jpeg":"https://www.gutenberg.org/cache/epub/9811/pg9811.cover.medium.jpg","application/octet-stream":"https://www.gutenberg.org/cache/epub/9811/pg9811-h.zip"},"download_count":16},{"id":9953,"title":"Punchinello, Volume 1, No. 20, August 13, 1870","authors":[{"name":"Various","birth_year":null,"death_year":null}],"translators":[],"subjects":["American wit and humor -- Periodicals"],"bookshelves":["Punchinello"],"languages":["en"],"copyright":false,"media_type":"Text","formats":{"text/html":"https://www.gutenberg.org/ebooks/9953.html.images","text/html; charset=iso-8859-1":"https://www.gutenberg.org/files/9953/9953-h/9953-h.htm","application/epub+zip":"https://www.gutenberg.org/ebooks/9953.epub3.images","application/x-mobipocket-ebook":"https://www.gutenberg.org/ebooks/9953.kf8.images","text/plain; charset=us-ascii":"https://www.gutenberg.org/ebooks/9953.txt.utf-8","text/plain; charset=iso-8859-1":"https://www.gutenberg.org/files/9953/9953-8.txt","application/rdf+xml":"https://www.gutenberg.org/ebooks/9953.rdf","image/jpeg":"https://www.gutenberg.org/cache/epub/9953/pg9953.cover.medium.jpg","application/octet-stream":"https://www.gutenberg.org/cache/epub/9953/pg9953-h.zip"},"download_count":16},{"id":9972,"title":"The Dramatic Works of Gerhart Hauptmann, Volume II","authors":[{"name":"Hauptmann, Gerhart","birth_year":1862,"death_year":1946}],"translators":[],"subjects":["German drama -- Translations into English"],"bookshelves":[],"languages":["en"],"copyright":false,"media_type":"Text","formats":{"text/html":"https://www.gutenberg.org/ebooks/9972.html.images","application/epub+zip":"https://www.gutenberg.org/ebooks/9972.epub3.images","application/x-mobipocket-ebook":"https://www.gutenberg.org/ebooks/9972.kf8.images","text/plain; charset=us-ascii":"https://www.gutenberg.org/ebooks/9972.txt.utf-8","text/plain; charset=iso-8859-1":"https://www.gutenberg.org/files/9972/9972-8.txt","application/rdf+xml":"https://www.gutenberg.org/ebooks/9972.rdf","image/jpeg":"https://www.gutenberg.org/cache/epub/9972/pg9972.cover.medium.jpg","application/octet-stream":"https://www.gutenberg.org/cache/epub/9972/pg9972-h.zip"},"download_count":16},{"id":10047,"title":"Punchinello, Volume 2, No. 29, October 15, 1870","authors":[{"name":"Various","birth_year":null,"death_year":null}],"translators":[],"subjects":["American wit and humor -- Periodicals"],"bookshelves":["Punchinello"],"languages":["en"],"copyright":false,"media_type":"Text","formats":{"text/html":"https://www.gutenberg.org/ebooks/10047.html.images","text/html; charset=iso-8859-1":"https://www.gutenberg.org/files/10047/10047-h/10047-h.htm","application/epub+zip":"https://www.gutenberg.org/ebooks/10047.epub3.images","application/x-mobipocket-ebook":"https://www.gutenberg.org/ebooks/10047.kf8.images","text/plain; charset=us-ascii":"https://www.gutenberg.org/ebooks/10047.txt.utf-8","text/plain; charset=iso-8859-1":"https://www.gutenberg.org/files/10047/10047-8.txt","application/rdf+xml":"https://www.gutenberg.org/ebooks/10047.rdf","image/jpeg":"https://www.gutenberg.org/cache/epub/10047/pg10047.cover.medium.jpg","application/octet-stream":"https://www.gutenberg.org/cache/epub/10047/pg10047-h.zip"},"download_count":16},{"id":10105,"title":"Punchinello, Volume 2, No. 33, November 12, 1870","authors":[{"name":"Various","birth_year":null,"death_year":null}],"translators":[],"subjects":["American wit and humor -- Periodicals"],"bookshelves":["Punchinello"],"languages":["en"],"copyright":false,"media_type":"Text","formats":{"text/html":"https://www.gutenberg.org/ebooks/10105.html.images","text/html; charset=iso-8859-1":"https://www.gutenberg.org/files/10105/10105-h/10105-h.htm","application/epub+zip":"https://www.gutenberg.org/ebooks/10105.epub3.images","application/x-mobipocket-ebook":"https://www.gutenberg.org/ebooks/10105.kf8.images","text/plain; charset=us-ascii":"https://www.gutenberg.org/ebooks/10105.txt.utf-8","text/plain; charset=iso-8859-1":"https://www.gutenberg.org/files/10105/10105-8.txt","application/rdf+xml":"https://www.gutenberg.org/ebooks/10105.rdf","image/jpeg":"https://www.gutenberg.org/cache/epub/10105/pg10105.cover.medium.jpg","application/octet-stream":"https://www.gutenberg.org/cache/epub/10105/pg10105-h.zip"},"download_count":16},{"id":10157,"title":"Which Switch is the Switch, Miss, for Ipswich?: From Rosy Rapture","authors":[],"translators":[],"subjects":["Popular music -- 1911-1920"],"bookshelves":[],"languages":["en"],"copyright":false,"media_type":"Sound","formats":{"text/plain; charset=us-ascii":"https://www.gutenberg.org/files/10157/10157-m/10157-m-readme.txt","audio/mpeg":"https://www.gutenberg.org/files/10157/10157-m/10157-m-001.mp3","application/rdf+xml":"https://www.gutenberg.org/ebooks/10157.rdf"},"download_count":16},{"id":10216,"title":"Poems","authors":[{"name":"Holley, Marietta","birth_year":1836,"death_year":1926}],"translators":[],"subjects":["Poetry"],"bookshelves":[],"languages":["en"],"copyright":false,"media_type":"Text","formats":{"text/html":"https://www.gutenberg.org/ebooks/10216.html.images","application/epub+zip":"https://www.gutenberg.org/ebooks/10216.epub3.images","application/x-mobipocket-ebook":"https://www.gutenberg.org/ebooks/10216.kf8.images","text/plain; charset=us-ascii":"https://www.gutenberg.org/ebooks/10216.txt.utf-8","application/rdf+xml":"https://www.gutenberg.org/ebooks/10216.rdf","image/jpeg":"https://www.gutenberg.org/cache/epub/10216/pg10216.cover.medium.jpg","application/octet-stream":"https://www.gutenberg.org/cache/epub/10216/pg10216-h.zip"},"download_count":16},{"id":10303,"title":"Jere Sanford's Yodling and Whistling Specialty","authors":[],"translators":[],"subjects":["Popular music -- 1901-1910","Whistling music","Yodels"],"bookshelves":[],"languages":["en"],"copyright":false,"media_type":"Sound","formats":{"text/plain; charset=us-ascii":"https://www.gutenberg.org/files/10303/10303-m/10303-m-readme.txt","audio/mpeg":"https://www.gutenberg.org/files/10303/10303-m/10303-m-001.mp3","application/rdf+xml":"https://www.gutenberg.org/ebooks/10303.rdf"},"download_count":16},{"id":10313,"title":"The Fifth Regiment March","authors":[],"translators":[],"subjects":["Marches"],"bookshelves":[],"languages":["en"],"copyright":false,"media_type":"Sound","formats":{"text/plain; charset=us-ascii":"https://www.gutenberg.org/files/10313/10313-m/10313-m-readme.txt","audio/mpeg":"https://www.gutenberg.org/files/10313/10313-m/10313-m-001.mp3","application/rdf+xml":"https://www.gutenberg.org/ebooks/10313.rdf"},"download_count":16}]}