{"count":58808,"next":"http://129.241.150.113:8000/books/?languages=en&page=1727","previous":"http://129.241.150.113:8000/books/?languages=en&page=1725","results":[{"id":67896,"title":"Sun Hunting: Adventures and Observations Among the Native and Migratory Tribes of Florida, Including the Stoical Time-Killers of Palm Beach, the Gentle and Gregarious Tin-Canners of the Remote Interior, and the Vivacious and Semi-Violent Peoples of Miami and Its Purlieus","authors":[{"name":"Roberts, Kenneth Lewis","birth_year":1885,"death_year":1957}],"translators":[],"subjects":["Florida -- Description and travel"],"bookshelves":[],"languages":["en"],"copyright":false,"media_type":"Text","formats":{"text/html":"https://www.gutenberg.org/ebooks/67896.html.images","application/epub+zip":"https://www.gutenberg.org/ebooks/67896.epub3.images","application/x-mobipocket-ebook":"https://www.gutenberg.org/ebooks/67896.kf8.images","text/plain; charset=us-ascii":"https://www.gutenberg.org/ebooks/67896.txt.utf-8","application/rdf+xml":"https://www.gutenberg.org/ebooks/67896.rdf","image/jpeg":"https://www.gutenberg.org/cache/epub/67896/pg67896.cover.medium.jpg","application/octet-stream":"https://www.gutenberg.org/files/67896/67896-0.zip"},"download_count":17},{"id":67900,"title":"In the Dead of Night","authors":[{"name":"McIntyre, John T. (John Thomas)","birth_year":1871,"death_year":1951}],"translators":[],"subjects":["Mystery fiction","New York (N.Y.) -- Fiction"],"bookshelves":[],"languages":["en"],"copyright":false,"media_type":"Text","formats":{"text/html":"https://www.gutenberg.org/ebooks/67900.html.images","application/epub+zip":"https://www.gutenberg.org/ebooks/67900.epub3.images","application/x-mobipocket-ebook":"https://www.gutenberg.org/ebooks/67900.kf8.images","text/plain; charset=us-ascii":"https://www.gutenberg.org/ebooks/67900.txt.utf-8","application/rdf+xml":"https://www.gutenberg.org/ebooks/67900.rdf","image/jpeg":"https://www.gutenberg.org/cache/epub/67900/pg67900.cover.medium.jpg","application/octet-stream":"https://www.gutenberg.org/files/67900/67900-0.zip"},"download_count":17},{"id":67901,"title":"Frank Merriwell in Europe; or, Working His Way Upward","authors":[{"name":"Standish, Burt L.","birth_year":1866,"death_year":1945}],"translators":[],"subjects":["Adventure stories","Europe -- Juvenile fiction","Merriwell, Frank (Fictitious character) -- Juvenile fiction"],"bookshelves":[],"languages":["en"],"copyright":false,"media_type":"Text","formats":{"text/html":"https://www.gutenberg.org/ebooks/67901.html.images","application/epub+zip":"https://www.gutenberg.org/ebooks/67901.epub3.images","application/x-mobipocket-ebook":"https://www.gutenberg.org/ebooks/67901.kf8.images","text/plain; charset=us-ascii":"https://www.gutenberg.org/ebooks/67901.txt.utf-8","application/rdf+xml":"https://www.gutenberg.org/ebooks/67901.rdf","image/jpeg":"https://www.gutenberg.org/cache/epub/67901/pg67901.cover.medium.jpg","application/octet-stream":"https://www.gutenberg.org/files/67901/67901-0.zip"},"download_count":17},{"id":67913,"title":"My Northern Exposure: The Kawa at the Pole","authors":[{"name":"Chappell, George S. (George Shepard)","birth_year":1877,"death_year":1946}],"translators":[],"subjects":["Arctic regions -- Fiction","Burlesque (Literature)"],"bookshelves":[],"languages":["en"],"copyright":false,"media_type":"Text","formats":{"text/html":"https://www.gutenberg.org/ebooks/67913.html.images","application/epub+zip":"https://www.gutenberg.org/ebooks/67913.epub3.images","application/x-mobipocket-ebook":"https://www.gutenberg.org/ebooks/67913.kf8.images","text/plain; charset=us-ascii":"https://www.gutenberg.org/ebooks/67913.txt.utf-8","application/rdf+xml":"https://www.gutenberg.org/ebooks/67913.rdf","image/jpeg":"https://www.gutenberg.org/cache/epub/67913/pg67913.cover.medium.jpg","application/octet-stream":"https://www.gutenberg.org/files/67913/67913-0.zip"},"download_count":17},{"id":67975,"title":"Graham's Magazine, Vol. XXI, No. 2, August 1842","authors":[{"name":"Various","birth_year":null,"death_year":null}],"translators":[],"subjects":["Literature -- Periodicals","Literature, Modern -- 19th century -- Periodicals"],"bookshelves":[],"languages":["en"],"copyright":false,"media_type":"Text","formats":{"text/html":"https://www.gutenberg.org/ebooks/67975.html.images","application/epub+zip":"https://www.gutenberg.org/ebooks/67975.epub3.images","application/x-mobipocket-ebook":"https://www.gutenberg.org/ebooks/67975.kf8.images","text/plain; charset=us-ascii":"https://www.gutenberg.org/ebooks/67975.txt.utf-8","application/rdf+xml":"https://www.gutenberg.org/ebooks/67975.rdf","image/jpeg":"https://www.gutenberg.org/cache/epub/67975/pg67975.cover.medium.jpg","application/octet-stream":"https://www.gutenberg.org/files/67975/67975-0.zip"},"download_count":17},{"id":67986,"title":"The Curlytops in the Woods; Or, Fun at the Lumber Camp","authors":[{"name":"Garis, Howard Roger","birth_year":1873,"death_year":1962}],"translators":[],"subjects":["Adventure stories","Children -- Juvenile fiction","Families -- Juvenile fiction","Lumber camps -- Juvenile fiction","Siblings -- Juvenile fiction"],"bookshelves":[],"languages":["en"],"copyright":false,"media_type":"Text","formats":{"text/html":"https://www.gutenberg.org/ebooks/67986.html.images","application/epub+zip":"https://www.gutenberg.org/ebooks/67986.epub3.images","application/x-mobipocket-ebook":"https://www.gutenberg.org/ebooks/67986.kf8.images","text/plain; charset=us-ascii":"https://www.gutenberg.org/ebooks/67986.txt.utf-8","application/rdf+xml":"https://www.gutenberg.org/ebooks/67986.rdf","image/jpeg":"https://www.gutenberg.org/cache/epub/67986/pg67986.cover.medium.jpg","application/octet-stream":"https://www.gutenberg.org/files/67986/67986-0.zip"},"download_count":17},{"id":68080,"title":"Incidents of childhood","authors":[{"name":"Anonymous","birth_year":null,"death_year":null}],"translators":[],"subjects":["Children -- Conduct of life -- Juvenile fiction","Children's stories","Conduct of life -- Juvenile fiction"],"bookshelves":[],"languages":["en"],"copyright":false,"media_type":"Text","formats":{"text/html":"https://www.gutenberg.org/ebooks/68080.html.images","application/epub+zip":"https://www.gutenberg.org/ebooks/68080.epub3.images","application/x-mobipocket-ebook":"https://www.gutenberg.org/ebooks/68080.kf8.images","text/plain; charset=us-ascii":"https://www.gutenberg.org/ebooks/68080.txt.utf-8","application/rdf+xml":"https://www.gutenberg.org/ebooks/68080.rdf","image/jpeg":"https://www.gutenberg.org/cache/epub/68080/pg68080.cover.medium.jpg","application/octet-stream":"https://www.gutenberg.org/files/68080/68080-0.zip"},"download_count":17},{"id":68151,"title":"Early candlelight stories","authors":[{"name":"Shetter, Stella C.","birth_year":null,"death_year":null}],"translators":[],"subjects":["Children -- Juvenile fiction","Children's stories","Grandmothers -- Juvenile fiction","Siblings -- Juvenile fiction","Storytelling -- Juvenile fiction"],"bookshelves":[],"languages":["en"],"copyright":false,"media_type":"Text","formats":{"text/html":"https://www.gutenberg.org/ebooks/68151.html.images","application/epub+zip":"https://www.gutenberg.org/ebooks/68151.epub3.images","application/x-mobipocket-ebook":"https://www.gutenberg.org/ebooks/68151.kf8.images","text/plain; charset=us-ascii":"https://www.gutenberg.org/ebooks/68151.txt.utf-8","application/rdf+xml":"https://www.gutenberg.org/ebooks/68151.rdf","image/jpeg":"https://www.gutenberg.org/cache/epub/68151/pg68151.cover.medium.jpg","application/octet-stream":"https://www.gutenberg.org/files/68151/68151-0.zip"},"download_count":17},{"id":68182,"title":"The quest of the Silver Swan: A land and sea tale for boys","authors":[{"name":"Foster, W. Bert (Walter Bertram)","birth_year":1869,"death_year":1929}],"translators":[],"subjects":["Adventure stories","Shipwrecks -- Juvenile fiction","Treasure troves -- Juvenile fiction"],"bookshelves":[],"languages":["en"],"copyright":false,"media_type":"Text","formats":{"text/html":"https://www.gutenberg.org/ebooks/68182.html.images","application/epub+zip":"https://www.gutenberg.org/ebooks/68182.epub3.images","application/x-mobipocket-ebook":"https://www.gutenberg.org/ebooks/68182.kf8.images","text/plain; charset=us-ascii":"https://www.gutenberg.org/ebooks/68182.txt.utf-8","application/rdf+xml":"https://www.gutenberg.org/ebooks/68182.rdf","image/jpeg":"https://www.gutenberg.org/cache/epub/68182/pg68182.cover.medium.jpg","application/octet-stream":"https://www.gutenberg.org/files/68182/68182-0.zip"},"download_count":17},{"id":68195,"title":"A happy half-century, and other essays","authors":[{"name":"Repplier, Agnes","birth_year":1855,"death_year":1950}],"translators":[],"subjects":["Authors, English -- Biography","Great Britain -- Intellectual life -- 18th century","Great Britain -- Intellectual life -- 19th century"],"bookshelves":[],"languages":["en"],"copyright":false,"media_type":"Text","formats":{"text/html":"https://www.gutenberg.org/ebooks/68195.html.images","application/epub+zip":"https://www.gutenberg.org/ebooks/68195.epub3.images","application/x-mobipocket-ebook":"https://www.gutenberg.org/ebooks/68195.kf8.images","text/plain; charset=us-ascii":"https://www.gutenberg.org/ebooks/68195.txt.utf-8","application/rdf+xml":"https://www.gutenberg.org/ebooks/68195.rdf","image/jpeg":"https://www.gutenberg.org/cache/epub/68195/pg68195.cover.medium.jpg","application/octet-stream":"https://www.gutenberg.org/files/68195/68195-0.zip"},"download_count":17},{"id":68362,"title":"Memorials of Human Superstition: being a paraphrase and commentary on the Historia Flagellantium of the Abbé Boileau, Doctor of the Sorbonne","authors":[{"name":"Lolme, Jean Louis de","birth_year":1740,"death_year":1806}],"translators":[],"subjects":["Boileau, Jacques, 1635-1716. Historia flagellantium","Flagellants"],"bookshelves":[],"languages":["en"],"copyright":false,"media_type":"Text","formats":{"text/html":"https://www.gutenberg.org/ebooks/68362.html.images","application/epub+zip":"https://www.gutenberg.org/ebooks/68362.epub3.images","application/x-mobipocket-ebook":"https://www.gutenberg.org/ebooks/68362.kf8.images","text/plain; charset=us-ascii":"https://www.gutenberg.org/ebooks/68362.txt.utf-8","application/rdf+xml":"https://www.gutenberg.org/ebooks/68362.rdf","image/jpeg":"https://www.gutenberg.org/cache/epub/68362/pg68362.cover.medium.jpg","application/octet-stream":"https://www.gutenberg.org/files/68362/68362-0.zip"},"download_count":17},{"id":68379,"title":"Under Blanco's eye; or, Hal Maynard among the Cuban insurgents","authors":[{"name":"Wells, Douglas","birth_year":null,"death_year":null}],"translators":[],"subjects":["Dime novels","Spanish-American War, 1898 -- Fiction"],"bookshelves":[],"languages":["en"],"copyright":false,"media_type":"Text","formats":{"text/html":"https://www.gutenberg.org/ebooks/68379.html.images","application/epub+zip":"https://www.gutenberg.org/ebooks/68379.epub3.images","application/x-mobipocket-ebook":"https://www.gutenberg.org/ebooks/68379.kf8.images","text/plain; charset=us-ascii":"https://www.gutenberg.org/ebooks/68379.txt.utf-8","application/rdf+xml":"https://www.gutenberg.org/ebooks/68379.rdf","image/jpeg":"https://www.gutenberg.org/cache/epub/68379/pg68379.cover.medium.jpg","application/octet-stream":"https://www.gutenberg.org/files/68379/68379-0.zip"},"download_count":17},{"id":68432,"title":"Victorious failure","authors":[{"name":"Walton, Bryce","birth_year":1918,"death_year":1988}],"translators":[],"subjects":["Human evolution -- Fiction","Immortalism -- Fiction","Science fiction","Scientists -- Fiction","Short stories","Time travel -- Fiction"],"bookshelves":[],"languages":["en"],"copyright":false,"media_type":"Text","formats":{"text/html":"https://www.gutenberg.org/ebooks/68432.html.images","application/epub+zip":"https://www.gutenberg.org/ebooks/68432.epub3.images","application/x-mobipocket-ebook":"https://www.gutenberg.org/ebooks/68432.kf8.images","text/plain; charset=us-ascii":"https://www.gutenberg.org/ebooks/68432.txt.utf-8","application/rdf+xml":"https://www.gutenberg.org/ebooks/68432.rdf","image/jpeg":"https://www.gutenberg.org/cache/epub/68432/pg68432.cover.medium.jpg","application/octet-stream":"https://www.gutenberg.org/files/68432/68432-0.zip"},"download_count":17},{"id":68468,"title":"Told by the Colonel","authors":[{"name":"Alden, W. L. (William Livingston)","birth_year":1837,"death_year":1908}],"translators":[],"subjects":["Americans -- France -- Fiction","Humorous stories, American","Storytellers -- Fiction","Storytelling -- Fiction"],"bookshelves":[],"languages":["en"],"copyright":false,"media_type":"Text","formats":{"text/html":"https://www.gutenberg.org/ebooks/68468.html.images","application/epub+zip":"https://www.gutenberg.org/ebooks/68468.epub3.images","application/x-mobipocket-ebook":"https://www.gutenberg.org/ebooks/68468.kf8.images","text/plain; charset=us-ascii":"https://www.gutenberg.org/ebooks/68468.txt.utf-8","application/rdf+xml":"https://www.gutenberg.org/ebooks/68468.rdf","image/jpeg":"https://www.gutenberg.org/cache/epub/68468/pg68468.cover.medium.jpg","application/octet-stream":"https://www.gutenberg.org/files/68468/68468-0.zip"},"download_count":17},{"id":68491,"title":"The improved antidote, supposed to be more active in expelling poison, than a late invention, by the Rev. Sir Harcourt Lees, Bart. in which the Catholics are vindicated from his abuse, and their claims for unrestricted emancipation, considered","authors":[{"name":"Philodemus","birth_year":null,"death_year":null}],"translators":[],"subjects":["Catholic emancipation","Lees, Harcourt, Sir, 1776-1852"],"bookshelves":[],"languages":["en"],"copyright":false,"media_type":"Text","formats":{"text/html":"https://www.gutenberg.org/ebooks/68491.html.images","application/epub+zip":"https://www.gutenberg.org/ebooks/68491.epub3.images","application/x-mobipocket-ebook":"https://www.gutenberg.org/ebooks/68491.kf8.images","text/plain; charset=us-ascii":"https://www.gutenberg.org/ebooks/68491.txt.utf-8","application/rdf+xml":"https://www.gutenberg.org/ebooks/68491.rdf","image/jpeg":"https://www.gutenberg.org/cache/epub/68491/pg68491.cover.medium.jpg","application/octet-stream":"https://www.gutenberg.org/files/68491/68491-0.zip"},"download_count":17},{"id":68665,"title":"With Grant at Fort Donelson, Shiloh and Vicksburg: and an appreciation of General U. S. Grant","authors":[{"name":"Crummer, Wilbur F. (Wilbur Fisk)","birth_year":1843,"death_year":1920}],"translators":[],"subjects":["Fort Donelson, Battle of, Tenn., 1862","Grant, Ulysses S. (Ulysses Simpson), 1822-1885","Shiloh, Battle of, Tenn., 1862","United States -- History -- Civil War, 1861-1865 -- Personal narratives","Vicksburg (Miss.) -- History -- Siege, 1863"],"bookshelves":[],"languages":["en"],"copyright":false,"media_type":"Text","formats":{"text/html":"https://www.gutenberg.org/ebooks/68665.html.images","application/epub+zip":"https://www.gutenberg.org/ebooks/68665.epub3.images","application/x-mobipocket-ebook":"https://www.gutenberg.org/ebooks/68665.kf8.images","text/plain; charset=us-ascii":"https://www.gutenberg.org/ebooks/68665.txt.utf-8","application/rdf+xml":"https://www.gutenberg.org/ebooks/68665.rdf","image/jpeg":"https://www.gutenberg.org/cache/epub/68665/pg68665.cover.medium.jpg","application/octet-stream":"https://www.gutenberg.org/files/68665/68665-0.zip"},"download_count":17},{"id":68796,"title":"The Blue Peter: Sea comedies","authors":[{"name":"Roberts, Morley","birth_year":1857,"death_year":1942}],"translators":[],"subjects":["English fiction -- 20th century","Sea stories, English"],"bookshelves":[],"languages":["en"],"copyright":false,"media_type":"Text","formats":{"text/html":"https://www.gutenberg.org/ebooks/68796.html.images","application/epub+zip":"https://www.gutenberg.org/ebooks/68796.epub3.images","application/x-mobipocket-ebook":"https://www.gutenberg.org/ebooks/68796.kf8.images","text/plain; charset=us-ascii":"https://www.gutenberg.org/ebooks/68796.txt.utf-8","application/rdf+xml":"https://www.gutenberg.org/ebooks/68796.rdf","image/jpeg":"https://www.gutenberg.org/cache/epub/68796/pg68796.cover.medium.jpg","application/octet-stream":"https://www.gutenberg.org/files/68796/68796-0.zip"},"download_count":17},{"id":68809,"title":"The Londoners: An Absurdity","authors":[{"name":"Hichens, Robert","birth_year":1864,"death_year":1950}],"translators":[],"subjects":["Ascot (England) -- Fiction","Country homes -- England -- Fiction","English fiction -- 19th century","Humorous stories","London (England) -- Social life and customs -- 19th century -- Fiction","Satire"],"bookshelves":[],"languages":["en"],"copyright":false,"media_type":"Text","formats":{"text/html":"https://www.gutenberg.org/ebooks/68809.html.images","application/epub+zip":"https://www.gutenberg.org/ebooks/68809.epub3.images","application/x-mobipocket-ebook":"https://www.gutenberg.org/ebooks/68809.kf8.images","text/plain; charset=us-ascii":"https://www.gutenberg.org/ebooks/68809.txt.utf-8","application/rdf+xml":"https://www.gutenberg.org/ebooks/68809.rdf","image/jpeg":"https://www.gutenberg.org/cache/epub/68809/pg68809.cover.medium.jpg","application/octet-stream":"https://www.gutenberg.org/files/68809/68809-0.zip"},"download_count":17},{"id":68845,"title":"The story of the Thirty Eighth regiment of Massachusetts volunteers","authors":[{"name":"Powers, George Whitefield","birth_year":1834,"death_year":1903}],"translators":[],"subjects":["United States -- History -- Civil War, 1861-1865 -- Regimental histories","United States. Army. Massachusetts Infantry Regiment, 38th (1862-1865)"],"bookshelves":[],"languages":["en"],"copyright":false,"media_type":"Text","formats":{"text/html":"https://www.gutenberg.org/ebooks/68845.html.images","application/epub+zip":"https://www.gutenberg.org/ebooks/68845.epub3.images","application/x-mobipocket-ebook":"https://www.gutenberg.org/ebooks/68845.kf8.images","text/plain; charset=us-ascii":"https://www.gutenberg.org/ebooks/68845.txt.utf-8","application/rdf+xml":"https://www.gutenberg.org/ebooks/68845.rdf","image/jpeg":"https://www.gutenberg.org/cache/epub/68845/pg68845.cover.medium.jpg","application/octet-stream":"https://www.gutenberg.org/files/68845/68845-0.zip"},"download_count":17},{"id":68904,"title":"One of three","authors":[{"name":"Smith, George O. (George Oliver)","birth_year":1911,"death_year":1981}],"translators":[],"subjects":["Science fiction"],"bookshelves":[],"languages":["en"],"copyright":false,"media_type":"Text","formats":{"text/html":"https://www.gutenberg.org/ebooks/68904.html.images","application/epub+zip":"https://www.gutenberg.org/ebooks/68904.epub3.images","application/x-mobipocket-ebook":"https://www.gutenberg.org/ebooks/68904.kf8.images","text/plain; charset=us-ascii":"https://www.gutenberg.org/ebooks/68904.txt.utf-8","application/rdf+xml":"https://www.gutenberg.org/ebooks/68904.rdf","image/jpeg":"https://www.gutenberg.org/cache/epub/68904/pg68904.cover.medium.jpg","application/octet-stream":"https://www.gutenberg.org/files/68904/68904-0.zip"},"download_count":17},{"id":68914,"title":"The traitor's way","authors":[{"name":"Levett Yeats, S. (Sidney)","birth_year":null,"death_year":1916}],"translators":[],"subjects":["France -- History -- 16th century -- Fiction","Historical fiction"],"bookshelves":[],"languages":["en"],"copyright":false,"media_type":"Text","formats":{"text/html":"https://www.gutenberg.org/ebooks/68914.html.images","application/epub+zip":"https://www.gutenberg.org/ebooks/68914.epub3.images","application/x-mobipocket-ebook":"https://www.gutenberg.org/ebooks/68914.kf8.images","text/plain; charset=us-ascii":"https://www.gutenberg.org/ebooks/68914.txt.utf-8","application/rdf+xml":"https://www.gutenberg.org/ebooks/68914.rdf","image/jpeg":"https://www.gutenberg.org/cache/epub/68914/pg68914.cover.medium.jpg","application/octet-stream":"https://www.gutenberg.org/files/68914/68914-0.zip"},"download_count":17},{"id":68930,"title":"Beyond the wall","authors":[{"name":"Leverage, Henry","birth_year":1885,"death_year":1931}],"translators":[],"subjects":["Criminals -- Fiction","Escaped prisoners -- Fiction","Fay, Chester (Fictitious character) -- Fiction","Orphans -- Fiction","Short stories"],"bookshelves":[],"languages":["en"],"copyright":false,"media_type":"Text","formats":{"text/html":"https://www.gutenberg.org/ebooks/68930.html.images","application/epub+zip":"https://www.gutenberg.org/ebooks/68930.epub3.images","application/x-mobipocket-ebook":"https://www.gutenberg.org/ebooks/68930.kf8.images","text/plain; charset=us-ascii":"https://www.gutenberg.org/ebooks/68930.txt.utf-8","application/rdf+xml":"https://www.gutenberg.org/ebooks/68930.rdf","image/jpeg":"https://www.gutenberg.org/cache/epub/68930/pg68930.cover.medium.jpg","application/octet-stream":"https://www.gutenberg.org/files/68930/68930-0.zip"},"download_count":17},{"id":69055,"title":"John de Lancaster: a novel; vol. I.","authors":[{"name":"Cumberland, Richard","birth_year":1732,"death_year":1811}],"translators":[],"subjects":["Wales, North -- Fiction"],"bookshelves":[],"languages":["en"],"copyright":false,"media_type":"Text","formats":{"text/html":"https://www.gutenberg.org/ebooks/69055.html.images","application/epub+zip":"https://www.gutenberg.org/ebooks/69055.epub3.images","application/x-mobipocket-ebook":"https://www.gutenberg.org/ebooks/69055.kf8.images","text/plain; charset=us-ascii":"https://www.gutenberg.org/ebooks/69055.txt.utf-8","application/rdf+xml":"https://www.gutenberg.org/ebooks/69055.rdf","image/jpeg":"https://www.gutenberg.org/cache/epub/69055/pg69055.cover.medium.jpg","application/octet-stream":"https://www.gutenberg.org/files/69055/69055-0.zip"},"download_count":17},{"id":69092,"title":"The Ohio naturalist, Vol. 1, No. 4, February 1901","authors":[{"name":"Ohio State University. Biological Club","birth_year":null,"death_year":null}],"translators":[],"subjects":["Natural history -- Ohio -- Periodicals","Natural history -- Periodicals","Science -- Periodicals"],"bookshelves":[],"languages":["en"],"copyright":false,"media_type":"Text","formats":{"text/html":"https://www.gutenberg.org/ebooks/69092.html.images","application/epub+zip":"https://www.gutenberg.org/ebooks/69092.epub3.images","application/x-mobipocket-ebook":"https://www.gutenberg.org/ebooks/69092.kf8.images","text/plain; charset=us-ascii":"https://www.gutenberg.org/ebooks/69092.txt.utf-8","application/rdf+xml":"https://www.gutenberg.org/ebooks/69092.rdf","image/jpeg":"https://www.gutenberg.org/cache/epub/69092/pg69092.cover.medium.jpg","application/octet-stream":"https://www.gutenberg.org/files/69092/69092-0.zip"},"download_count":17},{"id":69143,"title":"The book of Artemas: concerning men, and the things that men did do, at the time when there was war","authors":[{"name":"Brown, Andrew Cassels","birth_year":1875,"death_year":1941}],"translators":[],"subjects":["World War, 1914-1918 -- Miscellanea"],"bookshelves":[],"languages":["en"],"copyright":false,"media_type":"Text","formats":{"text/html":"https://www.gutenberg.org/ebooks/69143.html.images","application/epub+zip":"https://www.gutenberg.org/ebooks/69143.epub3.images","application/x-mobipocket-ebook":"https://www.gutenberg.org/ebooks/69143.kf8.images","text/plain; charset=us-ascii":"https://www.gutenberg.org/ebooks/69143.txt.utf-8","application/rdf+xml":"https://www.gutenberg.org/ebooks/69143.rdf","image/jpeg":"https://www.gutenberg.org/cache/epub/69143/pg69143.cover.medium.jpg","application/octet-stream":"https://www.gutenberg.org/files/69143/69143-0.zip"},"download_count":17},{"id":69146,"title":"The old mine's secret","authors":[{"name":"Turpin, Edna Henry Lee","birth_year":1867,"death_year":1952}],"translators":[],"subjects":["Families -- Juvenile fiction","Virginia -- Juvenile fiction","World War, 1914-1918 -- United States -- Juvenile fiction"],"bookshelves":[],"languages":["en"],"copyright":false,"media_type":"Text","formats":{"text/html":"https://www.gutenberg.org/ebooks/69146.html.images","application/epub+zip":"https://www.gutenberg.org/ebooks/69146.epub3.images","application/x-mobipocket-ebook":"https://www.gutenberg.org/ebooks/69146.kf8.images","text/plain; charset=us-ascii":"https://www.gutenberg.org/ebooks/69146.txt.utf-8","application/rdf+xml":"https://www.gutenberg.org/ebooks/69146.rdf","image/jpeg":"https://www.gutenberg.org/cache/epub/69146/pg69146.cover.medium.jpg","application/octet-stream":"https://www.gutenberg.org/files/69146/69146-0.zip"},"download_count":17},{"id":69149,"title":"The woman of mystery","authors":[{"name":"Ohnet, Georges","birth_year":1848,"death_year":1918}],"translators":[{"name":"Rothwell, Fred","birth_year":1869,"death_year":1934}],"subjects":["French fiction -- Translations into English"],"bookshelves":[],"languages":["en"],"copyright":false,"media_type":"Text","formats":{"text/html":"https://www.gutenberg.org/ebooks/69149.html.images","application/epub+zip":"https://www.gutenberg.org/ebooks/69149.epub3.images","application/x-mobipocket-ebook":"https://www.gutenberg.org/ebooks/69149.kf8.images","text/plain; charset=us-ascii":"https://www.gutenberg.org/ebooks/69149.txt.utf-8","application/rdf+xml":"https://www.gutenberg.org/ebooks/69149.rdf","image/jpeg":"https://www.gutenberg.org/cache/epub/69149/pg69149.cover.medium.jpg","application/octet-stream":"https://www.gutenberg.org/files/69149/69149-0.zip"},"download_count":17},{"id":69228,"title":"George Romney","authors":[{"name":"Williamson, George C.","birth_year":1858,"death_year":1942}],"translators":[],"subjects":["Romney, George, 1734-1802"],"bookshelves":[],"languages":["en"],"copyright":false,"media_type":"Text","formats":{"text/html":"https://www.gutenberg.org/ebooks/69228.html.images","application/epub+zip":"https://www.gutenberg.org/ebooks/69228.epub3.images","application/x-mobipocket-ebook":"https://www.gutenberg.org/ebooks/69228.kf8.images","text/plain; charset=us-ascii":"https://www.gutenberg.org/ebooks/69228.txt.utf-8","application/rdf+xml":"https://www.gutenberg.org/ebooks/69228.rdf","image/jpeg":"https://www.gutenberg.org/cache/epub/69228/pg69228.cover.medium.jpg","application/octet-stream":"https://www.gutenberg.org/files/69228/69228-0.zip"},"download_count":17},{"id":69240,"title":"A Port Said miscellany","authors":[{"name":"McFee, William","birth_year":1881,"death_year":1966}],"translators":[],"subjects":["Ships","Voyages and travels"],"bookshelves":[],"languages":["en"],"copyright":false,"media_type":"Text","formats":{"text/html":"https://www.gutenberg.org/ebooks/69240.html.images","application/epub+zip":"https://www.gutenberg.org/ebooks/69240.epub3.images","application/x-mobipocket-ebook":"https://www.gutenberg.org/ebooks/69240.kf8.images","text/plain; charset=us-ascii":"https://www.gutenberg.org/ebooks/69240.txt.utf-8","application/rdf+xml":"https://www.gutenberg.org/ebooks/69240.rdf","image/jpeg":"https://www.gutenberg.org/cache/epub/69240/pg69240.cover.medium.jpg","application/octet-stream":"https://www.gutenberg.org/files/69240/69240-0.zip"},"download_count":17},{"id":69251,"title":"Stories for children: A book for all little girls and boys","authors":[],"translators":[],"subjects":["Children's poetry, American","Children's stories, American"],"bookshelves":[],"languages":["en"],"copyright":false,"media_type":"Text","formats":{"text/html":"https://www.gutenberg.org/ebooks/69251.html.images","application/epub+zip":"https://www.gutenberg.org/ebooks/69251.epub3.images","application/x-mobipocket-ebook":"https://www.gutenberg.org/ebooks/69251.kf8.images","text/plain; charset=us-ascii":"https://www.gutenberg.org/ebooks/69251.txt.utf-8","application/rdf+xml":"https://www.gutenberg.org/ebooks/69251.rdf","image/jpeg":"https://www.gutenberg.org/cache/epub/69251/pg69251.cover.medium.jpg","application/octet-stream":"https://www.gutenberg.org/files/69251/69251-0.zip"},"download_count":17},{"id":69268,"title":"Over the border","authors":[{"name":"Robertson, Morgan","birth_year":1861,"death_year":1915}],"translators":[],"subjects":["American fiction -- 20th century","Short stories, American"],"bookshelves":[],"languages":["en"],"copyright":false,"media_type":"Text","formats":{"text/html":"https://www.gutenberg.org/ebooks/69268.html.images","application/epub+zip":"https://www.gutenberg.org/ebooks/69268.epub3.images","application/x-mobipocket-ebook":"https://www.gutenberg.org/ebooks/69268.kf8.images","text/plain; charset=us-ascii":"https://www.gutenberg.org/ebooks/69268.txt.utf-8","application/rdf+xml":"https://www.gutenberg.org/ebooks/69268.rdf","image/jpeg":"https://www.gutenberg.org/cache/epub/69268/pg69268.cover.medium.jpg","application/octet-stream":"https://www.gutenberg.org/files/69268/69268-0.zip"},"download_count":17},{"id":69449,"title":"The island of anarchy: A fragment of history in the 20th century","authors":[{"name":"Waterhouse, Elizabeth","birth_year":1834,"death_year":1918}],"translators":[],"subjects":["Science fiction","Twentieth century -- Forecasts -- Fiction"],"bookshelves":[],"languages":["en"],"copyright":false,"media_type":"Text","formats":{"text/html":"https://www.gutenberg.org/ebooks/69449.html.images","application/epub+zip":"https://www.gutenberg.org/ebooks/69449.epub3.images","application/x-mobipocket-ebook":"https://www.gutenberg.org/ebooks/69449.kf8.images","text/plain; charset=us-ascii":"https://www.gutenberg.org/ebooks/69449.txt.utf-8","application/rdf+xml":"https://www.gutenberg.org/ebooks/69449.rdf","image/jpeg":"https://www.gutenberg.org/cache/epub/69449/pg69449.cover.medium.jpg","application/octet-stream":"https://www.gutenberg.org/files/69449/69449-0.zip"},"download_count":17}]}