{"count":58808,"next":"http://129.241.150.113:8000/books/?languages=en&page=810","previous":"http://129.241.150.113:8000/books/?languages=en&page=808","results":[{"id":69659,"title":"Space-Can","authors":[{"name":"Leinster, Murray","birth_year":1896,"death_year":1975}],"translators":[],"subjects":["Dogs -- Fiction","Ganymede (Satellite) -- Fiction","Human-alien encounters -- Fiction","Science fiction","Short stories","Space ships -- Fiction"],"bookshelves":[],"languages":["en"],"copyright":false,"media_type":"Text","formats":{"text/html":"https://www.gutenberg.org/ebooks/69659.html.images","application/epub+zip":"https://www.gutenberg.org/ebooks/69659.epub3.images","application/x-mobipocket-ebook":"https://www.gutenberg.org/ebooks/69659.kf8.images","text/plain; charset=us-ascii":"https://www.gutenberg.org/ebooks/69659.txt.utf-8","application/rdf+xml":"https://www.gutenberg.org/ebooks/69659.rdf","image/jpeg":"https://www.gutenberg.org/cache/epub/69659/pg69659.cover.medium.jpg","application/octet-stream":"https://www.gutenberg.org/files/69659/69659-0.zip"},"download_count":43},{"id":69819,"title":"\"No. 101\"","authors":[{"name":"Carey, Wymond","birth_year":1869,"death_year":1948}],"translators":[],"subjects":["Adventure stories","Fontenoy, Battle of, Fontenoy, Hainaut, Belgium, 1745 -- Fiction","France -- History -- Louis XV, 1715-1774 -- Fiction","Historical fiction","Pompadour, Jeanne Antoinette Poisson, marquise de, 1721-1764 -- Fiction","Spy stories"],"bookshelves":[],"languages":["en"],"copyright":false,"media_type":"Text","formats":{"text/html":"https://www.gutenberg.org/ebooks/69819.html.images","application/epub+zip":"https://www.gutenberg.org/ebooks/69819.epub3.images","application/x-mobipocket-ebook":"https://www.gutenberg.org/ebooks/69819.kf8.images","text/plain; charset=us-ascii":"https://www.gutenberg.org/ebooks/69819.txt.utf-8","application/rdf+xml":"https://www.gutenberg.org/ebooks/69819.rdf","image/jpeg":"https://www.gutenberg.org/cache/epub/69819/pg69819.cover.medium.jpg","application/octet-stream":"https://www.gutenberg.org/files/69819/69819-0.zip"},"download_count":43},{"id":69919,"title":"The foxholes of Mars","authors":[{"name":"Leiber, Fritz","birth_year":1910,"death_year":1992}],"translators":[],"subjects":["Mars (Planet) -- Fiction","Science fiction","Short stories","Soldiers -- Fiction","War stories"],"bookshelves":[],"languages":["en"],"copyright":false,"media_type":"Text","formats":{"text/html":"https://www.gutenberg.org/ebooks/69919.html.images","application/epub+zip":"https://www.gutenberg.org/ebooks/69919.epub3.images","application/x-mobipocket-ebook":"https://www.gutenberg.org/ebooks/69919.kf8.images","text/plain; charset=us-ascii":"https://www.gutenberg.org/ebooks/69919.txt.utf-8","application/rdf+xml":"https://www.gutenberg.org/ebooks/69919.rdf","image/jpeg":"https://www.gutenberg.org/cache/epub/69919/pg69919.cover.medium.jpg","application/octet-stream":"https://www.gutenberg.org/files/69919/69919-0.zip"},"download_count":43},{"id":70198,"title":"Seven Xmas Eves : $b Being the romance of a social evolution","authors":[],"translators":[],"subjects":["Christmas stories"],"bookshelves":[],"languages":["en"],"copyright":false,"media_type":"Text","formats":{"text/html":"https://www.gutenberg.org/ebooks/70198.html.images","application/epub+zip":"https://www.gutenberg.org/ebooks/70198.epub3.images","application/x-mobipocket-ebook":"https://www.gutenberg.org/ebooks/70198.kf8.images","text/plain; charset=us-ascii":"https://www.gutenberg.org/ebooks/70198.txt.utf-8","application/rdf+xml":"https://www.gutenberg.org/ebooks/70198.rdf","image/jpeg":"https://www.gutenberg.org/cache/epub/70198/pg70198.cover.medium.jpg","application/octet-stream":"https://www.gutenberg.org/files/70198/70198-0.zip"},"download_count":43},{"id":70342,"title":"Trials of war criminals before the Nuernberg military tribunals under control council law no. 10, volume III","authors":[{"name":"Various","birth_year":null,"death_year":null}],"translators":[],"subjects":["Nuremberg Trial of Major German War Criminals, Nuremberg, Germany, 1945-1946","War crime trials -- Germany -- Nuremberg"],"bookshelves":[],"languages":["en"],"copyright":false,"media_type":"Text","formats":{"text/html":"https://www.gutenberg.org/ebooks/70342.html.images","application/epub+zip":"https://www.gutenberg.org/ebooks/70342.epub3.images","application/x-mobipocket-ebook":"https://www.gutenberg.org/ebooks/70342.kf8.images","text/plain; charset=us-ascii":"https://www.gutenberg.org/ebooks/70342.txt.utf-8","application/rdf+xml":"https://www.gutenberg.org/ebooks/70342.rdf","image/jpeg":"https://www.gutenberg.org/cache/epub/70342/pg70342.cover.medium.jpg","application/octet-stream":"https://www.gutenberg.org/files/70342/70342-0.zip"},"download_count":43},{"id":70546,"title":"Parodies of the works of English & American authors, vol. IV","authors":[],"translators":[],"subjects":["Parodies"],"bookshelves":[],"languages":["en"],"copyright":false,"media_type":"Text","formats":{"text/html":"https://www.gutenberg.org/ebooks/70546.html.images","application/epub+zip":"https://www.gutenberg.org/ebooks/70546.epub3.images","application/x-mobipocket-ebook":"https://www.gutenberg.org/ebooks/70546.kf8.images","text/plain; charset=us-ascii":"https://www.gutenberg.org/ebooks/70546.txt.utf-8","application/rdf+xml":"https://www.gutenberg.org/ebooks/70546.rdf","image/jpeg":"https://www.gutenberg.org/cache/epub/70546/pg70546.cover.medium.jpg","application/octet-stream":"https://www.gutenberg.org/files/70546/70546-0.zip"},"download_count":43},{"id":70549,"title":"Fugue","authors":[{"name":"Marlowe, Stephen","birth_year":1928,"death_year":2008}],"translators":[],"subjects":["Dreams -- Fiction","Interstellar travel -- Fiction","Mutation (Biology) -- Fiction","Revolutions -- Fiction","Science fiction"],"bookshelves":[],"languages":["en"],"copyright":false,"media_type":"Text","formats":{"text/html":"https://www.gutenberg.org/ebooks/70549.html.images","application/epub+zip":"https://www.gutenberg.org/ebooks/70549.epub3.images","application/x-mobipocket-ebook":"https://www.gutenberg.org/ebooks/70549.kf8.images","text/plain; charset=us-ascii":"https://www.gutenberg.org/ebooks/70549.txt.utf-8","application/rdf+xml":"https://www.gutenberg.org/ebooks/70549.rdf","image/jpeg":"https://www.gutenberg.org/cache/epub/70549/pg70549.cover.medium.jpg","application/octet-stream":"https://www.gutenberg.org/files/70549/70549-0.zip"},"download_count":43},{"id":70670,"title":"Overtones, a book of temperaments : $b Richard Strauss, Parsifal, Verdi, Balzac, Flaubert, Nietzsche, and Turgénieff","authors":[{"name":"Huneker, James","birth_year":1857,"death_year":1921}],"translators":[],"subjects":["Music"],"bookshelves":[],"languages":["en"],"copyright":false,"media_type":"Text","formats":{"text/html":"https://www.gutenberg.org/ebooks/70670.html.images","application/epub+zip":"https://www.gutenberg.org/ebooks/70670.epub3.images","application/x-mobipocket-ebook":"https://www.gutenberg.org/ebooks/70670.kf8.images","text/plain; charset=us-ascii":"https://www.gutenberg.org/ebooks/70670.txt.utf-8","application/rdf+xml":"https://www.gutenberg.org/ebooks/70670.rdf","image/jpeg":"https://www.gutenberg.org/cache/epub/70670/pg70670.cover.medium.jpg","application/octet-stream":"https://www.gutenberg.org/files/70670/70670-0.zip"},"download_count":43},{"id":70671,"title":"Harvard episodes","authors":[{"name":"Flandrau, Charles Macomb","birth_year":1871,"death_year":1938}],"translators":[],"subjects":["College stories","College students -- Fiction","Harvard University -- Fiction","Short stories, American"],"bookshelves":[],"languages":["en"],"copyright":false,"media_type":"Text","formats":{"text/html":"https://www.gutenberg.org/ebooks/70671.html.images","application/epub+zip":"https://www.gutenberg.org/ebooks/70671.epub3.images","application/x-mobipocket-ebook":"https://www.gutenberg.org/ebooks/70671.kf8.images","text/plain; charset=us-ascii":"https://www.gutenberg.org/ebooks/70671.txt.utf-8","application/rdf+xml":"https://www.gutenberg.org/ebooks/70671.rdf","image/jpeg":"https://www.gutenberg.org/cache/epub/70671/pg70671.cover.medium.jpg","application/octet-stream":"https://www.gutenberg.org/files/70671/70671-0.zip"},"download_count":43},{"id":70769,"title":"Old times : $b A picture of social life at the end of the eighteenth century","authors":[{"name":"Ashton, John","birth_year":1834,"death_year":1911}],"translators":[],"subjects":["Great Britain -- Social life and customs"],"bookshelves":[],"languages":["en"],"copyright":false,"media_type":"Text","formats":{"text/html":"https://www.gutenberg.org/ebooks/70769.html.images","application/epub+zip":"https://www.gutenberg.org/ebooks/70769.epub3.images","application/x-mobipocket-ebook":"https://www.gutenberg.org/ebooks/70769.kf8.images","text/plain; charset=us-ascii":"https://www.gutenberg.org/ebooks/70769.txt.utf-8","application/rdf+xml":"https://www.gutenberg.org/ebooks/70769.rdf","image/jpeg":"https://www.gutenberg.org/cache/epub/70769/pg70769.cover.medium.jpg","application/octet-stream":"https://www.gutenberg.org/files/70769/70769-0.zip"},"download_count":43},{"id":70784,"title":"Money and trade considered : $b With a proposal for supplying the nation with money","authors":[{"name":"Law, John","birth_year":1671,"death_year":1729}],"translators":[],"subjects":["Banks and banking -- Scotland","Currency question -- Great Britain"],"bookshelves":[],"languages":["en"],"copyright":false,"media_type":"Text","formats":{"text/html":"https://www.gutenberg.org/ebooks/70784.html.images","application/epub+zip":"https://www.gutenberg.org/ebooks/70784.epub3.images","application/x-mobipocket-ebook":"https://www.gutenberg.org/ebooks/70784.kf8.images","text/plain; charset=us-ascii":"https://www.gutenberg.org/ebooks/70784.txt.utf-8","application/rdf+xml":"https://www.gutenberg.org/ebooks/70784.rdf","image/jpeg":"https://www.gutenberg.org/cache/epub/70784/pg70784.cover.medium.jpg","application/octet-stream":"https://www.gutenberg.org/files/70784/70784-0.zip"},"download_count":43},{"id":70853,"title":"Old and rare Scottish tartans : $b with historical introduction and descriptive notices","authors":[{"name":"Stewart, Donald William","birth_year":null,"death_year":null}],"translators":[],"subjects":["Tartans -- Scotland"],"bookshelves":[],"languages":["en"],"copyright":false,"media_type":"Text","formats":{"text/html":"https://www.gutenberg.org/ebooks/70853.html.images","application/epub+zip":"https://www.gutenberg.org/ebooks/70853.epub3.images","application/x-mobipocket-ebook":"https://www.gutenberg.org/ebooks/70853.kf8.images","text/plain; charset=us-ascii":"https://www.gutenberg.org/ebooks/70853.txt.utf-8","application/rdf+xml":"https://www.gutenberg.org/ebooks/70853.rdf","image/jpeg":"https://www.gutenberg.org/cache/epub/70853/pg70853.cover.medium.jpg","application/octet-stream":"https://www.gutenberg.org/files/70853/70853-0.zip"},"download_count":43},{"id":70866,"title":"Recollections of the eventful life of a soldier","authors":[{"name":"Donaldson, Joseph","birth_year":1793,"death_year":1830}],"translators":[],"subjects":["Peninsular War, 1807-1814 -- Personal narratives"],"bookshelves":[],"languages":["en"],"copyright":false,"media_type":"Text","formats":{"text/html":"https://www.gutenberg.org/ebooks/70866.html.images","application/epub+zip":"https://www.gutenberg.org/ebooks/70866.epub3.images","application/x-mobipocket-ebook":"https://www.gutenberg.org/ebooks/70866.kf8.images","text/plain; charset=us-ascii":"https://www.gutenberg.org/ebooks/70866.txt.utf-8","application/rdf+xml":"https://www.gutenberg.org/ebooks/70866.rdf","image/jpeg":"https://www.gutenberg.org/cache/epub/70866/pg70866.cover.medium.jpg","application/octet-stream":"https://www.gutenberg.org/files/70866/70866-0.zip"},"download_count":43},{"id":70942,"title":"Tish plays the game","authors":[{"name":"Rinehart, Mary Roberts","birth_year":1876,"death_year":1958}],"translators":[],"subjects":["Carberry, Letitia (Tish, fictitious character) -- Fiction","Female friendship -- Fiction","Humorous stories, American","Middle-aged women -- Fiction","Single women -- Fiction"],"bookshelves":[],"languages":["en"],"copyright":false,"media_type":"Text","formats":{"text/html":"https://www.gutenberg.org/ebooks/70942.html.images","application/epub+zip":"https://www.gutenberg.org/ebooks/70942.epub3.images","application/x-mobipocket-ebook":"https://www.gutenberg.org/ebooks/70942.kf8.images","text/plain; charset=us-ascii":"https://www.gutenberg.org/ebooks/70942.txt.utf-8","application/rdf+xml":"https://www.gutenberg.org/ebooks/70942.rdf","image/jpeg":"https://www.gutenberg.org/cache/epub/70942/pg70942.cover.medium.jpg","application/octet-stream":"https://www.gutenberg.org/files/70942/70942-0.zip"},"download_count":43},{"id":70959,"title":"Ikom folk stories from Southern Nigeria","authors":[{"name":"Dayrell, Elphinstone","birth_year":1869,"death_year":1917}],"translators":[],"subjects":["Folklore -- Nigeria, Southern","Tales -- Nigeria, Southern"],"bookshelves":[],"languages":["en"],"copyright":false,"media_type":"Text","formats":{"text/html":"https://www.gutenberg.org/ebooks/70959.html.images","application/epub+zip":"https://www.gutenberg.org/ebooks/70959.epub3.images","application/x-mobipocket-ebook":"https://www.gutenberg.org/ebooks/70959.kf8.images","text/plain; charset=us-ascii":"https://www.gutenberg.org/ebooks/70959.txt.utf-8","application/rdf+xml":"https://www.gutenberg.org/ebooks/70959.rdf","image/jpeg":"https://www.gutenberg.org/cache/epub/70959/pg70959.cover.medium.jpg","application/octet-stream":"https://www.gutenberg.org/files/70959/70959-0.zip"},"download_count":43},{"id":71067,"title":"Mary Rose : $b A play in three acts","authors":[{"name":"Barrie, J. M. (James Matthew)","birth_year":1860,"death_year":1937}],"translators":[],"subjects":["Aging -- Drama","Ghost plays","Missing persons -- Drama","Paranormal drama"],"bookshelves":[],"languages":["en"],"copyright":false,"media_type":"Text","formats":{"text/html":"https://www.gutenberg.org/ebooks/71067.html.images","application/epub+zip":"https://www.gutenberg.org/ebooks/71067.epub3.images","application/x-mobipocket-ebook":"https://www.gutenberg.org/ebooks/71067.kf8.images","text/plain; charset=us-ascii":"https://www.gutenberg.org/ebooks/71067.txt.utf-8","application/rdf+xml":"https://www.gutenberg.org/ebooks/71067.rdf","image/jpeg":"https://www.gutenberg.org/cache/epub/71067/pg71067.cover.medium.jpg","application/octet-stream":"https://www.gutenberg.org/files/71067/71067-0.zip"},"download_count":43},{"id":71128,"title":"Five little Peppers in the Little Brown House","authors":[{"name":"Sidney, Margaret","birth_year":1844,"death_year":1924}],"translators":[],"subjects":["Families -- Juvenile fiction","Fatherless families -- Juvenile fiction","Five Little Peppers (Fictitious characters) -- Juvenile fiction","Siblings -- Juvenile fiction"],"bookshelves":[],"languages":["en"],"copyright":false,"media_type":"Text","formats":{"text/html":"https://www.gutenberg.org/ebooks/71128.html.images","application/epub+zip":"https://www.gutenberg.org/ebooks/71128.epub3.images","application/x-mobipocket-ebook":"https://www.gutenberg.org/ebooks/71128.kf8.images","text/plain; charset=us-ascii":"https://www.gutenberg.org/ebooks/71128.txt.utf-8","application/rdf+xml":"https://www.gutenberg.org/ebooks/71128.rdf","image/jpeg":"https://www.gutenberg.org/cache/epub/71128/pg71128.cover.medium.jpg","application/octet-stream":"https://www.gutenberg.org/files/71128/71128-0.zip"},"download_count":43},{"id":71138,"title":"Pioneers of space : $b A trip to the Moon, Mars, and Venus","authors":[{"name":"Adamski, George","birth_year":1891,"death_year":1965}],"translators":[],"subjects":["Interplanetary voyages -- Fiction","Science fiction"],"bookshelves":[],"languages":["en"],"copyright":false,"media_type":"Text","formats":{"text/html":"https://www.gutenberg.org/ebooks/71138.html.images","application/epub+zip":"https://www.gutenberg.org/ebooks/71138.epub3.images","application/x-mobipocket-ebook":"https://www.gutenberg.org/ebooks/71138.kf8.images","text/plain; charset=us-ascii":"https://www.gutenberg.org/ebooks/71138.txt.utf-8","application/rdf+xml":"https://www.gutenberg.org/ebooks/71138.rdf","image/jpeg":"https://www.gutenberg.org/cache/epub/71138/pg71138.cover.medium.jpg","application/octet-stream":"https://www.gutenberg.org/files/71138/71138-0.zip"},"download_count":43},{"id":71581,"title":"American ideals, and other essays, social and political","authors":[{"name":"Roosevelt, Theodore","birth_year":1858,"death_year":1919}],"translators":[],"subjects":["National characteristics, American","United States -- Politics and government","United States -- Social conditions -- 1865-1918"],"bookshelves":[],"languages":["en"],"copyright":false,"media_type":"Text","formats":{"text/html":"https://www.gutenberg.org/ebooks/71581.html.images","application/epub+zip":"https://www.gutenberg.org/ebooks/71581.epub3.images","application/x-mobipocket-ebook":"https://www.gutenberg.org/ebooks/71581.kf8.images","text/plain; charset=us-ascii":"https://www.gutenberg.org/ebooks/71581.txt.utf-8","application/rdf+xml":"https://www.gutenberg.org/ebooks/71581.rdf","image/jpeg":"https://www.gutenberg.org/cache/epub/71581/pg71581.cover.medium.jpg","application/octet-stream":"https://www.gutenberg.org/files/71581/71581-h.zip"},"download_count":43},{"id":71595,"title":"Rhymes from the Russian : $b Being faithful translations of selections from the best Russian poets","authors":[],"translators":[{"name":"Pollen, John","birth_year":1848,"death_year":1923}],"subjects":["Russian poetry -- Translations into English"],"bookshelves":[],"languages":["en"],"copyright":false,"media_type":"Text","formats":{"text/html":"https://www.gutenberg.org/ebooks/71595.html.images","application/epub+zip":"https://www.gutenberg.org/ebooks/71595.epub3.images","application/x-mobipocket-ebook":"https://www.gutenberg.org/ebooks/71595.kf8.images","text/plain; charset=us-ascii":"https://www.gutenberg.org/ebooks/71595.txt.utf-8","application/rdf+xml":"https://www.gutenberg.org/ebooks/71595.rdf","image/jpeg":"https://www.gutenberg.org/cache/epub/71595/pg71595.cover.medium.jpg","application/octet-stream":"https://www.gutenberg.org/files/71595/71595-h.zip"},"download_count":43},{"id":71726,"title":"My three years in Manipur : $b and escape from the recent mutiny","authors":[{"name":"Grimwood, Ethel St. Clair","birth_year":1867,"death_year":1928}],"translators":[],"subjects":["Grimwood, Ethel St. Clair, 1867-1928","Manipur (India)"],"bookshelves":[],"languages":["en"],"copyright":false,"media_type":"Text","formats":{"text/html":"https://www.gutenberg.org/ebooks/71726.html.images","application/epub+zip":"https://www.gutenberg.org/ebooks/71726.epub3.images","application/x-mobipocket-ebook":"https://www.gutenberg.org/ebooks/71726.kf8.images","text/plain; charset=us-ascii":"https://www.gutenberg.org/ebooks/71726.txt.utf-8","application/rdf+xml":"https://www.gutenberg.org/ebooks/71726.rdf","image/jpeg":"https://www.gutenberg.org/cache/epub/71726/pg71726.cover.medium.jpg","application/octet-stream":"https://www.gutenberg.org/files/71726/71726-h.zip"},"download_count":43},{"id":71747,"title":"The film : $b Its use in popular education","authors":[{"name":"Jackson-Wrigley, M. (Maurice)","birth_year":1886,"death_year":1972}],"translators":[],"subjects":["Education","Motion pictures in education"],"bookshelves":[],"languages":["en"],"copyright":false,"media_type":"Text","formats":{"text/html":"https://www.gutenberg.org/ebooks/71747.html.images","application/epub+zip":"https://www.gutenberg.org/ebooks/71747.epub3.images","application/x-mobipocket-ebook":"https://www.gutenberg.org/ebooks/71747.kf8.images","text/plain; charset=us-ascii":"https://www.gutenberg.org/ebooks/71747.txt.utf-8","application/rdf+xml":"https://www.gutenberg.org/ebooks/71747.rdf","image/jpeg":"https://www.gutenberg.org/cache/epub/71747/pg71747.cover.medium.jpg","application/octet-stream":"https://www.gutenberg.org/files/71747/71747-h.zip"},"download_count":43},{"id":71796,"title":"The history of our Navy from its origin to the present day, 1775-1897, vol. 3 (of 4)","authors":[{"name":"Spears, John Randolph","birth_year":1850,"death_year":1936}],"translators":[],"subjects":["United States. Navy -- History","United States. Navy -- History -- Spanish-American War, 1898"],"bookshelves":[],"languages":["en"],"copyright":false,"media_type":"Text","formats":{"text/html":"https://www.gutenberg.org/ebooks/71796.html.images","application/epub+zip":"https://www.gutenberg.org/ebooks/71796.epub3.images","application/x-mobipocket-ebook":"https://www.gutenberg.org/ebooks/71796.kf8.images","text/plain; charset=us-ascii":"https://www.gutenberg.org/ebooks/71796.txt.utf-8","application/rdf+xml":"https://www.gutenberg.org/ebooks/71796.rdf","image/jpeg":"https://www.gutenberg.org/cache/epub/71796/pg71796.cover.medium.jpg","application/octet-stream":"https://www.gutenberg.org/cache/epub/71796/pg71796-h.zip"},"download_count":43},{"id":71819,"title":"The statistomat pitch","authors":[{"name":"Davis, Chandler","birth_year":1926,"death_year":2022}],"translators":[],"subjects":["Business -- Fiction","Sales personnel -- Fiction","Science fiction","Short stories"],"bookshelves":[],"languages":["en"],"copyright":false,"media_type":"Text","formats":{"text/html":"https://www.gutenberg.org/ebooks/71819.html.images","application/epub+zip":"https://www.gutenberg.org/ebooks/71819.epub3.images","application/x-mobipocket-ebook":"https://www.gutenberg.org/ebooks/71819.kf8.images","text/plain; charset=us-ascii":"https://www.gutenberg.org/ebooks/71819.txt.utf-8","application/rdf+xml":"https://www.gutenberg.org/ebooks/71819.rdf","image/jpeg":"https://www.gutenberg.org/cache/epub/71819/pg71819.cover.medium.jpg","application/octet-stream":"https://www.gutenberg.org/cache/epub/71819/pg71819-h.zip"},"download_count":43},{"id":71931,"title":"Chemical warfare","authors":[{"name":"Fries, Amos A. (Amos Alfred)","birth_year":1873,"death_year":1963},{"name":"West, Clarence J. (Clarence Jay)","birth_year":1886,"death_year":1953}],"translators":[],"subjects":["Gases, Asphyxiating and poisonous -- War use"],"bookshelves":[],"languages":["en"],"copyright":false,"media_type":"Text","formats":{"text/html":"https://www.gutenberg.org/ebooks/71931.html.images","application/epub+zip":"https://www.gutenberg.org/ebooks/71931.epub3.images","application/x-mobipocket-ebook":"https://www.gutenberg.org/ebooks/71931.kf8.images","text/plain; charset=us-ascii":"https://www.gutenberg.org/ebooks/71931.txt.utf-8","application/rdf+xml":"https://www.gutenberg.org/ebooks/71931.rdf","image/jpeg":"https://www.gutenberg.org/cache/epub/71931/pg71931.cover.medium.jpg","application/octet-stream":"https://www.gutenberg.org/cache/epub/71931/pg71931-h.zip"},"download_count":43},{"id":71943,"title":"Popular lessons in astronomy, on a new plan : $b in which some of the leading principles of the science are illustrated by actual comparisions, independent of the use of numbers","authors":[{"name":"Grund, Francis J. (Francis Joseph)","birth_year":1804,"death_year":1863}],"translators":[],"subjects":["Astronomy -- Juvenile literature"],"bookshelves":[],"languages":["en"],"copyright":false,"media_type":"Text","formats":{"text/html":"https://www.gutenberg.org/ebooks/71943.html.images","application/epub+zip":"https://www.gutenberg.org/ebooks/71943.epub3.images","application/x-mobipocket-ebook":"https://www.gutenberg.org/ebooks/71943.kf8.images","text/plain; charset=us-ascii":"https://www.gutenberg.org/ebooks/71943.txt.utf-8","application/rdf+xml":"https://www.gutenberg.org/ebooks/71943.rdf","image/jpeg":"https://www.gutenberg.org/cache/epub/71943/pg71943.cover.medium.jpg","application/octet-stream":"https://www.gutenberg.org/cache/epub/71943/pg71943-h.zip"},"download_count":43},{"id":71990,"title":"Dante","authors":[{"name":"Gardner, Edmund G.","birth_year":1869,"death_year":1935}],"translators":[],"subjects":["Dante Alighieri, 1265-1321"],"bookshelves":[],"languages":["en"],"copyright":false,"media_type":"Text","formats":{"text/html":"https://www.gutenberg.org/ebooks/71990.html.images","application/epub+zip":"https://www.gutenberg.org/ebooks/71990.epub3.images","application/x-mobipocket-ebook":"https://www.gutenberg.org/ebooks/71990.kf8.images","text/plain; charset=us-ascii":"https://www.gutenberg.org/ebooks/71990.txt.utf-8","application/rdf+xml":"https://www.gutenberg.org/ebooks/71990.rdf","image/jpeg":"https://www.gutenberg.org/cache/epub/71990/pg71990.cover.medium.jpg","application/octet-stream":"https://www.gutenberg.org/cache/epub/71990/pg71990-h.zip"},"download_count":43},{"id":72086,"title":"Gay-Neck : $b The story of a pigeon","authors":[{"name":"Mukerji, Dhan Gopal","birth_year":1890,"death_year":1936}],"translators":[],"subjects":["India -- Juvenile literature","Pigeons -- Juvenile literature"],"bookshelves":[],"languages":["en"],"copyright":false,"media_type":"Text","formats":{"text/html":"https://www.gutenberg.org/ebooks/72086.html.images","application/epub+zip":"https://www.gutenberg.org/ebooks/72086.epub3.images","application/x-mobipocket-ebook":"https://www.gutenberg.org/ebooks/72086.kf8.images","text/plain; charset=us-ascii":"https://www.gutenberg.org/ebooks/72086.txt.utf-8","application/rdf+xml":"https://www.gutenberg.org/ebooks/72086.rdf","image/jpeg":"https://www.gutenberg.org/cache/epub/72086/pg72086.cover.medium.jpg","application/octet-stream":"https://www.gutenberg.org/cache/epub/72086/pg72086-h.zip"},"download_count":43},{"id":72243,"title":"Bits from Blinkbonny; or, Bell o' the Manse : $b a tale of Scottish village life between 1841 and 1851","authors":[{"name":"Strathesk, John","birth_year":null,"death_year":null}],"translators":[],"subjects":["Scotland -- Social life and customs -- 19th century -- Fiction","Villages -- Fiction"],"bookshelves":[],"languages":["en"],"copyright":false,"media_type":"Text","formats":{"text/html":"https://www.gutenberg.org/ebooks/72243.html.images","application/epub+zip":"https://www.gutenberg.org/ebooks/72243.epub3.images","application/x-mobipocket-ebook":"https://www.gutenberg.org/ebooks/72243.kf8.images","text/plain; charset=us-ascii":"https://www.gutenberg.org/ebooks/72243.txt.utf-8","application/rdf+xml":"https://www.gutenberg.org/ebooks/72243.rdf","image/jpeg":"https://www.gutenberg.org/cache/epub/72243/pg72243.cover.medium.jpg","application/octet-stream":"https://www.gutenberg.org/cache/epub/72243/pg72243-h.zip"},"download_count":43},{"id":72315,"title":"Travels of Lady Hester Stanhope, Volume 2 (of 3)","authors":[{"name":"Stanhope, Hester, Lady","birth_year":1776,"death_year":1839}],"translators":[],"subjects":["British -- Middle East -- History -- 19th century","Middle East -- Description and travel","Stanhope, Hester, Lady, 1776-1839 -- Travel -- Middle East","Women travelers -- Middle East -- Biography"],"bookshelves":[],"languages":["en"],"copyright":false,"media_type":"Text","formats":{"text/html":"https://www.gutenberg.org/ebooks/72315.html.images","application/epub+zip":"https://www.gutenberg.org/ebooks/72315.epub3.images","application/x-mobipocket-ebook":"https://www.gutenberg.org/ebooks/72315.kf8.images","text/plain; charset=us-ascii":"https://www.gutenberg.org/ebooks/72315.txt.utf-8","application/rdf+xml":"https://www.gutenberg.org/ebooks/72315.rdf","image/jpeg":"https://www.gutenberg.org/cache/epub/72315/pg72315.cover.medium.jpg","application/octet-stream":"https://www.gutenberg.org/cache/epub/72315/pg72315-h.zip"},"download_count":43},{"id":249,"title":"French Cave Paintings","authors":[],"translators":[],"subjects":["Art, Prehistoric -- France -- Vallon-Pont-d'Arc","Cave paintings -- France -- Vallon-Pont-d'Arc","Chauvet Cave (France)"],"bookshelves":[],"languages":["en"],"copyright":true,"media_type":"Text","formats":{"text/html":"https://www.gutenberg.org/ebooks/249.html.images","application/epub+zip":"https://www.gutenberg.org/ebooks/249.epub3.images","application/x-mobipocket-ebook":"https://www.gutenberg.org/ebooks/249.kf8.images","text/plain; charset=us-ascii":"https://www.gutenberg.org/ebooks/249.txt.utf-8","application/rdf+xml":"https://www.gutenberg.org/ebooks/249.rdf","image/jpeg":"https://www.gutenberg.org/cache/epub/249/pg249.cover.medium.jpg","application/octet-stream":"https://www.gutenberg.org/files/249/249-0.zip"},"download_count":42},{"id":377,"title":"Kansas Women in Literature","authors":[{"name":"Barker, Nettie Garmer","birth_year":null,"death_year":null}],"translators":[],"subjects":["Kansas -- Biography","Kansas -- In literature","Women -- Kansas -- Intellectual life","Women and literature -- Kansas","Women authors, American -- Homes and haunts -- Kansas"],"bookshelves":[],"languages":["en"],"copyright":false,"media_type":"Text","formats":{"text/html":"https://www.gutenberg.org/ebooks/377.html.images","text/html; charset=us-ascii":"https://www.gutenberg.org/files/377/377-h/377-h.htm","application/epub+zip":"https://www.gutenberg.org/ebooks/377.epub3.images","application/x-mobipocket-ebook":"https://www.gutenberg.org/ebooks/377.kf8.images","text/plain; charset=us-ascii":"https://www.gutenberg.org/ebooks/377.txt.utf-8","application/rdf+xml":"https://www.gutenberg.org/ebooks/377.rdf","image/jpeg":"https://www.gutenberg.org/cache/epub/377/pg377.cover.medium.jpg","application/octet-stream":"https://www.gutenberg.org/cache/epub/377/pg377-h.zip"},"download_count":42}]}