{"count":58808,"next":"http://129.241.150.113:8000/books/?languages=en&page=1650","previous":"http://129.241.150.113:8000/books/?languages=en&page=1648","results":[{"id":6449,"title":"Little Journeys to the Homes of the Great - Volume 09: Little Journeys to the Homes of Great Reformers","authors":[{"name":"Hubbard, Elbert","birth_year":1856,"death_year":1915}],"translators":[],"subjects":["Reformers"],"bookshelves":[],"languages":["en"],"copyright":false,"media_type":"Text","formats":{"text/html":"https://www.gutenberg.org/ebooks/6449.html.images","application/epub+zip":"https://www.gutenberg.org/ebooks/6449.epub3.images","application/x-mobipocket-ebook":"https://www.gutenberg.org/ebooks/6449.kf8.images","text/plain; charset=us-ascii":"https://www.gutenberg.org/ebooks/6449.txt.utf-8","application/rdf+xml":"https://www.gutenberg.org/ebooks/6449.rdf","image/jpeg":"https://www.gutenberg.org/cache/epub/6449/pg6449.cover.medium.jpg","application/octet-stream":"https://www.gutenberg.org/cache/epub/6449/pg6449-h.zip"},"download_count":19},{"id":6575,"title":"The Purple Parasol","authors":[{"name":"McCutcheon, George Barr","birth_year":1866,"death_year":1928}],"translators":[],"subjects":["Lawyers -- Fiction","Love stories"],"bookshelves":[],"languages":["en"],"copyright":false,"media_type":"Text","formats":{"text/html":"https://www.gutenberg.org/ebooks/6575.html.images","application/epub+zip":"https://www.gutenberg.org/ebooks/6575.epub3.images","application/x-mobipocket-ebook":"https://www.gutenberg.org/ebooks/6575.kf8.images","text/plain; charset=us-ascii":"https://www.gutenberg.org/ebooks/6575.txt.utf-8","text/plain; charset=iso-8859-1":"https://www.gutenberg.org/files/6575/6575-8.txt","application/rdf+xml":"https://www.gutenberg.org/ebooks/6575.rdf","image/jpeg":"https://www.gutenberg.org/cache/epub/6575/pg6575.cover.medium.jpg","application/octet-stream":"https://www.gutenberg.org/cache/epub/6575/pg6575-h.zip"},"download_count":19},{"id":6578,"title":"The Man on the Box","authors":[{"name":"MacGrath, Harold","birth_year":1871,"death_year":1932}],"translators":[],"subjects":["Impostors and imposture -- Fiction","Love stories"],"bookshelves":[],"languages":["en"],"copyright":false,"media_type":"Text","formats":{"text/html":"https://www.gutenberg.org/ebooks/6578.html.images","application/epub+zip":"https://www.gutenberg.org/ebooks/6578.epub3.images","application/x-mobipocket-ebook":"https://www.gutenberg.org/ebooks/6578.kf8.images","text/plain; charset=us-ascii":"https://www.gutenberg.org/ebooks/6578.txt.utf-8","application/rdf+xml":"https://www.gutenberg.org/ebooks/6578.rdf","image/jpeg":"https://www.gutenberg.org/cache/epub/6578/pg6578.cover.medium.jpg","application/octet-stream":"https://www.gutenberg.org/cache/epub/6578/pg6578-h.zip"},"download_count":19},{"id":6592,"title":"Si'Wren of the Patriarchs","authors":[{"name":"Cheney, Roland","birth_year":null,"death_year":null}],"translators":[],"subjects":["Fiction"],"bookshelves":[],"languages":["en"],"copyright":true,"media_type":"Text","formats":{"text/html":"https://www.gutenberg.org/ebooks/6592.html.images","application/epub+zip":"https://www.gutenberg.org/ebooks/6592.epub3.images","application/x-mobipocket-ebook":"https://www.gutenberg.org/ebooks/6592.kf8.images","text/plain; charset=us-ascii":"https://www.gutenberg.org/ebooks/6592.txt.utf-8","application/rdf+xml":"https://www.gutenberg.org/ebooks/6592.rdf","image/jpeg":"https://www.gutenberg.org/cache/epub/6592/pg6592.cover.medium.jpg","application/octet-stream":"https://www.gutenberg.org/cache/epub/6592/pg6592-h.zip"},"download_count":19},{"id":6612,"title":"Myths and Legends of Our Own Land — Volume 07 : Along the Rocky Range","authors":[{"name":"Skinner, Charles M. (Charles Montgomery)","birth_year":1852,"death_year":1907}],"translators":[],"subjects":["Folklore -- United States"],"bookshelves":[],"languages":["en"],"copyright":false,"media_type":"Text","formats":{"text/html":"https://www.gutenberg.org/ebooks/6612.html.images","application/epub+zip":"https://www.gutenberg.org/ebooks/6612.epub3.images","application/x-mobipocket-ebook":"https://www.gutenberg.org/ebooks/6612.kf8.images","text/plain; charset=us-ascii":"https://www.gutenberg.org/ebooks/6612.txt.utf-8","application/rdf+xml":"https://www.gutenberg.org/ebooks/6612.rdf","image/jpeg":"https://www.gutenberg.org/cache/epub/6612/pg6612.cover.medium.jpg","application/octet-stream":"https://www.gutenberg.org/cache/epub/6612/pg6612-h.zip"},"download_count":19},{"id":6662,"title":"Little Citizens: The Humours of School Life","authors":[{"name":"Kelly, Myra","birth_year":1876,"death_year":1910}],"translators":[],"subjects":["Short stories","Students -- New York (State) -- New York -- Fiction","United States -- Social life and customs -- 20th century -- Fiction"],"bookshelves":[],"languages":["en"],"copyright":false,"media_type":"Text","formats":{"text/html":"https://www.gutenberg.org/ebooks/6662.html.images","application/epub+zip":"https://www.gutenberg.org/ebooks/6662.epub3.images","application/x-mobipocket-ebook":"https://www.gutenberg.org/ebooks/6662.kf8.images","text/plain; charset=us-ascii":"https://www.gutenberg.org/ebooks/6662.txt.utf-8","application/rdf+xml":"https://www.gutenberg.org/ebooks/6662.rdf","image/jpeg":"https://www.gutenberg.org/cache/epub/6662/pg6662.cover.medium.jpg","application/octet-stream":"https://www.gutenberg.org/cache/epub/6662/pg6662-h.zip"},"download_count":19},{"id":6670,"title":"Christmas Eve","authors":[{"name":"Browning, Robert","birth_year":1812,"death_year":1889}],"translators":[],"subjects":["Christmas -- Poetry"],"bookshelves":["Christmas"],"languages":["en"],"copyright":false,"media_type":"Text","formats":{"text/html":"https://www.gutenberg.org/ebooks/6670.html.images","text/html; charset=iso-8859-1":"https://www.gutenberg.org/files/6670/6670-h/6670-h.htm","application/epub+zip":"https://www.gutenberg.org/ebooks/6670.epub3.images","application/x-mobipocket-ebook":"https://www.gutenberg.org/ebooks/6670.kf8.images","text/plain; charset=us-ascii":"https://www.gutenberg.org/ebooks/6670.txt.utf-8","application/rdf+xml":"https://www.gutenberg.org/ebooks/6670.rdf","image/jpeg":"https://www.gutenberg.org/cache/epub/6670/pg6670.cover.medium.jpg","application/octet-stream":"https://www.gutenberg.org/cache/epub/6670/pg6670-h.zip"},"download_count":19},{"id":6874,"title":"Canada and the States","authors":[{"name":"Watkin, E. W. (Edward William), Sir","birth_year":1819,"death_year":1901}],"translators":[],"subjects":["Canada -- Description and travel","Canada -- History","United States -- Description and travel"],"bookshelves":[],"languages":["en"],"copyright":false,"media_type":"Text","formats":{"text/html":"https://www.gutenberg.org/ebooks/6874.html.images","application/epub+zip":"https://www.gutenberg.org/ebooks/6874.epub3.images","application/x-mobipocket-ebook":"https://www.gutenberg.org/ebooks/6874.kf8.images","text/plain; charset=us-ascii":"https://www.gutenberg.org/ebooks/6874.txt.utf-8","application/rdf+xml":"https://www.gutenberg.org/ebooks/6874.rdf","image/jpeg":"https://www.gutenberg.org/cache/epub/6874/pg6874.cover.medium.jpg","application/octet-stream":"https://www.gutenberg.org/cache/epub/6874/pg6874-h.zip"},"download_count":19},{"id":6883,"title":"The Life of Venerable Sister Margaret Bourgeois","authors":[{"name":"Anonymous","birth_year":null,"death_year":null}],"translators":[],"subjects":["Bourgeoys, Marguerite, Saint, 1620-1700"],"bookshelves":[],"languages":["en"],"copyright":false,"media_type":"Text","formats":{"text/html":"https://www.gutenberg.org/ebooks/6883.html.images","application/epub+zip":"https://www.gutenberg.org/ebooks/6883.epub3.images","application/x-mobipocket-ebook":"https://www.gutenberg.org/ebooks/6883.kf8.images","text/plain; charset=us-ascii":"https://www.gutenberg.org/ebooks/6883.txt.utf-8","application/rdf+xml":"https://www.gutenberg.org/ebooks/6883.rdf","image/jpeg":"https://www.gutenberg.org/cache/epub/6883/pg6883.cover.medium.jpg","application/octet-stream":"https://www.gutenberg.org/cache/epub/6883/pg6883-h.zip"},"download_count":19},{"id":7261,"title":"The Siksha-Patri of the Svami-Narayana Sect","authors":[],"translators":[{"name":"Monier-Williams, Monier, Sir","birth_year":1819,"death_year":1899}],"subjects":["Swami-Narayanis"],"bookshelves":[],"languages":["en"],"copyright":false,"media_type":"Text","formats":{"text/html":"https://www.gutenberg.org/ebooks/7261.html.images","text/html; charset=utf-8":"https://www.gutenberg.org/files/7261/7261-h/7261-h.htm","application/epub+zip":"https://www.gutenberg.org/ebooks/7261.epub3.images","application/x-mobipocket-ebook":"https://www.gutenberg.org/ebooks/7261.kf8.images","text/plain; charset=us-ascii":"https://www.gutenberg.org/ebooks/7261.txt.utf-8","text/plain; charset=utf-8":"https://www.gutenberg.org/files/7261/7261-0.txt","text/plain; charset=iso-8859-1":"https://www.gutenberg.org/files/7261/7261-8.txt","application/rdf+xml":"https://www.gutenberg.org/ebooks/7261.rdf","image/jpeg":"https://www.gutenberg.org/cache/epub/7261/pg7261.cover.medium.jpg","application/octet-stream":"https://www.gutenberg.org/cache/epub/7261/pg7261-h.zip"},"download_count":19},{"id":7527,"title":"The Little Daisy Girl and Other Poems","authors":[{"name":"Cheney, Roland","birth_year":null,"death_year":null},{"name":"Hedge-Cheney, Jacquelyn","birth_year":null,"death_year":null}],"translators":[],"subjects":["Poetry"],"bookshelves":[],"languages":["en"],"copyright":true,"media_type":"Text","formats":{"text/html":"https://www.gutenberg.org/ebooks/7527.html.images","text/html; charset=iso-8859-1":"https://www.gutenberg.org/files/7527/7527-h/7527-h.htm","application/epub+zip":"https://www.gutenberg.org/ebooks/7527.epub3.images","application/x-mobipocket-ebook":"https://www.gutenberg.org/ebooks/7527.kf8.images","text/plain; charset=us-ascii":"https://www.gutenberg.org/ebooks/7527.txt.utf-8","application/rdf+xml":"https://www.gutenberg.org/ebooks/7527.rdf","image/jpeg":"https://www.gutenberg.org/cache/epub/7527/pg7527.cover.medium.jpg","application/octet-stream":"https://www.gutenberg.org/cache/epub/7527/pg7527-h.zip"},"download_count":19},{"id":7578,"title":"Widger's Quotes and Images from L'Abbe Constantin by Ludovic Halévy: The French Immortals: Quotes and Images","authors":[{"name":"Halévy, Ludovic","birth_year":1834,"death_year":1908}],"translators":[],"subjects":["Quotations, French -- Translations into English"],"bookshelves":[],"languages":["en"],"copyright":false,"media_type":"Text","formats":{"text/html":"https://www.gutenberg.org/ebooks/7578.html.images","text/html; charset=us-ascii":"https://www.gutenberg.org/files/7578/7578-h/7578-h.htm","application/epub+zip":"https://www.gutenberg.org/ebooks/7578.epub3.images","application/x-mobipocket-ebook":"https://www.gutenberg.org/ebooks/7578.kf8.images","text/plain; charset=us-ascii":"https://www.gutenberg.org/ebooks/7578.txt.utf-8","application/rdf+xml":"https://www.gutenberg.org/ebooks/7578.rdf","image/jpeg":"https://www.gutenberg.org/cache/epub/7578/pg7578.cover.medium.jpg","application/octet-stream":"https://www.gutenberg.org/cache/epub/7578/pg7578-h.zip"},"download_count":19},{"id":7617,"title":"Pelham — Volume 03","authors":[{"name":"Lytton, Edward Bulwer Lytton, Baron","birth_year":1803,"death_year":1873}],"translators":[],"subjects":["Adventure stories","English fiction -- 19th century","Great Britain -- History -- 19th century -- Fiction"],"bookshelves":[],"languages":["en"],"copyright":false,"media_type":"Text","formats":{"text/html":"https://www.gutenberg.org/ebooks/7617.html.images","application/epub+zip":"https://www.gutenberg.org/ebooks/7617.epub3.images","application/x-mobipocket-ebook":"https://www.gutenberg.org/ebooks/7617.kf8.images","text/plain; charset=us-ascii":"https://www.gutenberg.org/ebooks/7617.txt.utf-8","application/rdf+xml":"https://www.gutenberg.org/ebooks/7617.rdf","image/jpeg":"https://www.gutenberg.org/cache/epub/7617/pg7617.cover.medium.jpg","application/octet-stream":"https://www.gutenberg.org/cache/epub/7617/pg7617-h.zip"},"download_count":19},{"id":7654,"title":"Kenelm Chillingly — Volume 05","authors":[{"name":"Lytton, Edward Bulwer Lytton, Baron","birth_year":1803,"death_year":1873}],"translators":[],"subjects":["English fiction -- 19th century"],"bookshelves":[],"languages":["en"],"copyright":false,"media_type":"Text","formats":{"text/html":"https://www.gutenberg.org/ebooks/7654.html.images","application/epub+zip":"https://www.gutenberg.org/ebooks/7654.epub3.images","application/x-mobipocket-ebook":"https://www.gutenberg.org/ebooks/7654.kf8.images","text/plain; charset=us-ascii":"https://www.gutenberg.org/ebooks/7654.txt.utf-8","application/rdf+xml":"https://www.gutenberg.org/ebooks/7654.rdf","image/jpeg":"https://www.gutenberg.org/cache/epub/7654/pg7654.cover.medium.jpg","application/octet-stream":"https://www.gutenberg.org/cache/epub/7654/pg7654-h.zip"},"download_count":19},{"id":7657,"title":"Kenelm Chillingly — Volume 08","authors":[{"name":"Lytton, Edward Bulwer Lytton, Baron","birth_year":1803,"death_year":1873}],"translators":[],"subjects":["English fiction -- 19th century"],"bookshelves":[],"languages":["en"],"copyright":false,"media_type":"Text","formats":{"text/html":"https://www.gutenberg.org/ebooks/7657.html.images","application/epub+zip":"https://www.gutenberg.org/ebooks/7657.epub3.images","application/x-mobipocket-ebook":"https://www.gutenberg.org/ebooks/7657.kf8.images","text/plain; charset=us-ascii":"https://www.gutenberg.org/ebooks/7657.txt.utf-8","application/rdf+xml":"https://www.gutenberg.org/ebooks/7657.rdf","image/jpeg":"https://www.gutenberg.org/cache/epub/7657/pg7657.cover.medium.jpg","application/octet-stream":"https://www.gutenberg.org/cache/epub/7657/pg7657-h.zip"},"download_count":19},{"id":7672,"title":"Harold : the Last of the Saxon Kings — Volume 01","authors":[{"name":"Lytton, Edward Bulwer Lytton, Baron","birth_year":1803,"death_year":1873}],"translators":[],"subjects":["Anglo-Saxons -- Kings and rulers -- Fiction","Biographical fiction","Great Britain -- History -- Edward, the Confessor, 1042-1066 -- Fiction","Great Britain -- Kings and rulers -- Fiction","Harold, King of England, 1022?-1066 -- Fiction","William I, King of England, 1027 or 8-1087 -- Fiction"],"bookshelves":["Historical Fiction"],"languages":["en"],"copyright":false,"media_type":"Text","formats":{"text/html":"https://www.gutenberg.org/ebooks/7672.html.images","application/epub+zip":"https://www.gutenberg.org/ebooks/7672.epub3.images","application/x-mobipocket-ebook":"https://www.gutenberg.org/ebooks/7672.kf8.images","text/plain; charset=us-ascii":"https://www.gutenberg.org/ebooks/7672.txt.utf-8","application/rdf+xml":"https://www.gutenberg.org/ebooks/7672.rdf","image/jpeg":"https://www.gutenberg.org/cache/epub/7672/pg7672.cover.medium.jpg","application/octet-stream":"https://www.gutenberg.org/cache/epub/7672/pg7672-h.zip"},"download_count":19},{"id":7680,"title":"Harold : the Last of the Saxon Kings — Volume 09","authors":[{"name":"Lytton, Edward Bulwer Lytton, Baron","birth_year":1803,"death_year":1873}],"translators":[],"subjects":["Anglo-Saxons -- Kings and rulers -- Fiction","Biographical fiction","Great Britain -- History -- Edward, the Confessor, 1042-1066 -- Fiction","Great Britain -- Kings and rulers -- Fiction","Harold, King of England, 1022?-1066 -- Fiction","William I, King of England, 1027 or 8-1087 -- Fiction"],"bookshelves":["Historical Fiction"],"languages":["en"],"copyright":false,"media_type":"Text","formats":{"text/html":"https://www.gutenberg.org/ebooks/7680.html.images","application/epub+zip":"https://www.gutenberg.org/ebooks/7680.epub3.images","application/x-mobipocket-ebook":"https://www.gutenberg.org/ebooks/7680.kf8.images","text/plain; charset=us-ascii":"https://www.gutenberg.org/ebooks/7680.txt.utf-8","application/rdf+xml":"https://www.gutenberg.org/ebooks/7680.rdf","image/jpeg":"https://www.gutenberg.org/cache/epub/7680/pg7680.cover.medium.jpg","application/octet-stream":"https://www.gutenberg.org/cache/epub/7680/pg7680-h.zip"},"download_count":19},{"id":7716,"title":"The Last of the Barons — Volume 02","authors":[{"name":"Lytton, Edward Bulwer Lytton, Baron","birth_year":1803,"death_year":1873}],"translators":[],"subjects":["Great Britain -- History -- Wars of the Roses, 1455-1485 -- Fiction","Warwick, Richard Neville, Earl of, 1428-1471 -- Fiction"],"bookshelves":["Historical Fiction"],"languages":["en"],"copyright":false,"media_type":"Text","formats":{"text/html":"https://www.gutenberg.org/ebooks/7716.html.images","application/epub+zip":"https://www.gutenberg.org/ebooks/7716.epub3.images","application/x-mobipocket-ebook":"https://www.gutenberg.org/ebooks/7716.kf8.images","text/plain; charset=us-ascii":"https://www.gutenberg.org/ebooks/7716.txt.utf-8","application/rdf+xml":"https://www.gutenberg.org/ebooks/7716.rdf","image/jpeg":"https://www.gutenberg.org/cache/epub/7716/pg7716.cover.medium.jpg","application/octet-stream":"https://www.gutenberg.org/cache/epub/7716/pg7716-h.zip"},"download_count":19},{"id":7723,"title":"The Last of the Barons — Volume 09","authors":[{"name":"Lytton, Edward Bulwer Lytton, Baron","birth_year":1803,"death_year":1873}],"translators":[],"subjects":["Great Britain -- History -- Wars of the Roses, 1455-1485 -- Fiction","Warwick, Richard Neville, Earl of, 1428-1471 -- Fiction"],"bookshelves":["Historical Fiction"],"languages":["en"],"copyright":false,"media_type":"Text","formats":{"text/html":"https://www.gutenberg.org/ebooks/7723.html.images","application/epub+zip":"https://www.gutenberg.org/ebooks/7723.epub3.images","application/x-mobipocket-ebook":"https://www.gutenberg.org/ebooks/7723.kf8.images","text/plain; charset=us-ascii":"https://www.gutenberg.org/ebooks/7723.txt.utf-8","application/rdf+xml":"https://www.gutenberg.org/ebooks/7723.rdf","image/jpeg":"https://www.gutenberg.org/cache/epub/7723/pg7723.cover.medium.jpg","application/octet-stream":"https://www.gutenberg.org/cache/epub/7723/pg7723-h.zip"},"download_count":19},{"id":7733,"title":"Paul Clifford — Volume 06","authors":[{"name":"Lytton, Edward Bulwer Lytton, Baron","birth_year":1803,"death_year":1873}],"translators":[],"subjects":["Brigands and robbers -- Fiction"],"bookshelves":[],"languages":["en"],"copyright":false,"media_type":"Text","formats":{"text/html":"https://www.gutenberg.org/ebooks/7733.html.images","application/epub+zip":"https://www.gutenberg.org/ebooks/7733.epub3.images","application/x-mobipocket-ebook":"https://www.gutenberg.org/ebooks/7733.kf8.images","text/plain; charset=us-ascii":"https://www.gutenberg.org/ebooks/7733.txt.utf-8","application/rdf+xml":"https://www.gutenberg.org/ebooks/7733.rdf","image/jpeg":"https://www.gutenberg.org/cache/epub/7733/pg7733.cover.medium.jpg","application/octet-stream":"https://www.gutenberg.org/cache/epub/7733/pg7733-h.zip"},"download_count":19},{"id":7760,"title":"Falkland, Book 4.","authors":[{"name":"Lytton, Edward Bulwer Lytton, Baron","birth_year":1803,"death_year":1873}],"translators":[],"subjects":["Fiction"],"bookshelves":[],"languages":["en"],"copyright":false,"media_type":"Text","formats":{"text/html":"https://www.gutenberg.org/ebooks/7760.html.images","application/epub+zip":"https://www.gutenberg.org/ebooks/7760.epub3.images","application/x-mobipocket-ebook":"https://www.gutenberg.org/ebooks/7760.kf8.images","text/plain; charset=us-ascii":"https://www.gutenberg.org/ebooks/7760.txt.utf-8","application/rdf+xml":"https://www.gutenberg.org/ebooks/7760.rdf","image/jpeg":"https://www.gutenberg.org/cache/epub/7760/pg7760.cover.medium.jpg","application/octet-stream":"https://www.gutenberg.org/cache/epub/7760/pg7760-h.zip"},"download_count":19},{"id":7788,"title":"Blindfolded","authors":[{"name":"Walcott, Earle Ashley","birth_year":1859,"death_year":1931}],"translators":[],"subjects":["San Francisco (Calif.) -- Fiction"],"bookshelves":[],"languages":["en"],"copyright":false,"media_type":"Text","formats":{"text/html":"https://www.gutenberg.org/ebooks/7788.html.images","text/html; charset=utf-8":"https://www.gutenberg.org/files/7788/7788-h/7788-h.htm","application/epub+zip":"https://www.gutenberg.org/ebooks/7788.epub3.images","application/x-mobipocket-ebook":"https://www.gutenberg.org/ebooks/7788.kf8.images","text/plain; charset=us-ascii":"https://www.gutenberg.org/ebooks/7788.txt.utf-8","text/plain; charset=utf-8":"https://www.gutenberg.org/files/7788/7788-0.txt","text/plain; charset=iso-8859-1":"https://www.gutenberg.org/files/7788/7788-8.txt","application/rdf+xml":"https://www.gutenberg.org/ebooks/7788.rdf","image/jpeg":"https://www.gutenberg.org/cache/epub/7788/pg7788.cover.medium.jpg","application/octet-stream":"https://www.gutenberg.org/cache/epub/7788/pg7788-h.zip"},"download_count":19},{"id":7919,"title":"American Historical and Literary Curiosities, Part 19.: Second Series","authors":[{"name":"Smith, J. Jay (John Jay)","birth_year":1798,"death_year":1881}],"translators":[],"subjects":["Autographs -- United States -- Facsimiles","United States -- History -- Revolution, 1775-1783 -- Sources"],"bookshelves":[],"languages":["en"],"copyright":false,"media_type":"Text","formats":{"text/html":"https://www.gutenberg.org/ebooks/7919.html.images","text/html; charset=iso-8859-1":"https://www.gutenberg.org/files/7919/7919-h/7919-h.htm","application/epub+zip":"https://www.gutenberg.org/ebooks/7919.epub3.images","application/x-mobipocket-ebook":"https://www.gutenberg.org/ebooks/7919.kf8.images","text/plain; charset=us-ascii":"https://www.gutenberg.org/ebooks/7919.txt.utf-8","text/plain; charset=iso-8859-1":"https://www.gutenberg.org/files/7919/7919.txt","application/rdf+xml":"https://www.gutenberg.org/ebooks/7919.rdf","image/jpeg":"https://www.gutenberg.org/cache/epub/7919/pg7919.cover.medium.jpg","application/octet-stream":"https://www.gutenberg.org/cache/epub/7919/pg7919-h.zip"},"download_count":19},{"id":7961,"title":"In and out of Three Normandy Inns","authors":[{"name":"Dodd, Anna Bowman","birth_year":1855,"death_year":1929}],"translators":[],"subjects":["Normandy (France) -- Description and travel"],"bookshelves":[],"languages":["en"],"copyright":false,"media_type":"Text","formats":{"text/html":"https://www.gutenberg.org/ebooks/7961.html.images","application/epub+zip":"https://www.gutenberg.org/ebooks/7961.epub3.images","application/x-mobipocket-ebook":"https://www.gutenberg.org/ebooks/7961.kf8.images","text/plain; charset=us-ascii":"https://www.gutenberg.org/ebooks/7961.txt.utf-8","text/plain; charset=iso-8859-1":"https://www.gutenberg.org/files/7961/7961-8.txt","application/rdf+xml":"https://www.gutenberg.org/ebooks/7961.rdf","image/jpeg":"https://www.gutenberg.org/cache/epub/7961/pg7961.cover.medium.jpg","application/octet-stream":"https://www.gutenberg.org/cache/epub/7961/pg7961-h.zip"},"download_count":19},{"id":8003,"title":"The Bible, King James version, Book 3: Leviticus","authors":[{"name":"Anonymous","birth_year":null,"death_year":null}],"translators":[],"subjects":["Bible. Leviticus"],"bookshelves":["Judaism"],"languages":["en"],"copyright":false,"media_type":"Text","formats":{"text/html":"https://www.gutenberg.org/ebooks/8003.html.images","application/epub+zip":"https://www.gutenberg.org/ebooks/8003.epub3.images","application/x-mobipocket-ebook":"https://www.gutenberg.org/ebooks/8003.kf8.images","text/plain; charset=us-ascii":"https://www.gutenberg.org/ebooks/8003.txt.utf-8","application/rdf+xml":"https://www.gutenberg.org/ebooks/8003.rdf","image/jpeg":"https://www.gutenberg.org/cache/epub/8003/pg8003.cover.medium.jpg","application/octet-stream":"https://www.gutenberg.org/cache/epub/8003/pg8003-h.zip"},"download_count":19},{"id":8008,"title":"The Bible, King James version, Book 8: Ruth","authors":[{"name":"Anonymous","birth_year":null,"death_year":null}],"translators":[],"subjects":["Bible. Ruth"],"bookshelves":["Judaism"],"languages":["en"],"copyright":false,"media_type":"Text","formats":{"text/html":"https://www.gutenberg.org/ebooks/8008.html.images","application/epub+zip":"https://www.gutenberg.org/ebooks/8008.epub3.images","application/x-mobipocket-ebook":"https://www.gutenberg.org/ebooks/8008.kf8.images","text/plain; charset=us-ascii":"https://www.gutenberg.org/ebooks/8008.txt.utf-8","application/rdf+xml":"https://www.gutenberg.org/ebooks/8008.rdf","image/jpeg":"https://www.gutenberg.org/cache/epub/8008/pg8008.cover.medium.jpg","application/octet-stream":"https://www.gutenberg.org/cache/epub/8008/pg8008-h.zip"},"download_count":19},{"id":8031,"title":"The Bible, King James version, Book 31: Obadiah","authors":[{"name":"Anonymous","birth_year":null,"death_year":null}],"translators":[],"subjects":["Bible. Obadiah"],"bookshelves":["Judaism"],"languages":["en"],"copyright":false,"media_type":"Text","formats":{"text/html":"https://www.gutenberg.org/ebooks/8031.html.images","application/epub+zip":"https://www.gutenberg.org/ebooks/8031.epub3.images","application/x-mobipocket-ebook":"https://www.gutenberg.org/ebooks/8031.kf8.images","text/plain; charset=us-ascii":"https://www.gutenberg.org/ebooks/8031.txt.utf-8","application/rdf+xml":"https://www.gutenberg.org/ebooks/8031.rdf","image/jpeg":"https://www.gutenberg.org/cache/epub/8031/pg8031.cover.medium.jpg","application/octet-stream":"https://www.gutenberg.org/cache/epub/8031/pg8031-h.zip"},"download_count":19},{"id":8131,"title":"The Misses Mallett (The Bridge Dividing)","authors":[{"name":"Young, E. H. (Emily Hilda)","birth_year":1880,"death_year":1949}],"translators":[],"subjects":["Fiction"],"bookshelves":[],"languages":["en"],"copyright":false,"media_type":"Text","formats":{"text/html":"https://www.gutenberg.org/ebooks/8131.html.images","application/epub+zip":"https://www.gutenberg.org/ebooks/8131.epub3.images","application/x-mobipocket-ebook":"https://www.gutenberg.org/ebooks/8131.kf8.images","text/plain; charset=us-ascii":"https://www.gutenberg.org/ebooks/8131.txt.utf-8","text/plain; charset=utf-8":"https://www.gutenberg.org/files/8131/8131-0.txt","application/rdf+xml":"https://www.gutenberg.org/ebooks/8131.rdf","image/jpeg":"https://www.gutenberg.org/cache/epub/8131/pg8131.cover.medium.jpg","application/octet-stream":"https://www.gutenberg.org/cache/epub/8131/pg8131-h.zip"},"download_count":19},{"id":8228,"title":"The World English Bible (WEB): Genesis","authors":[{"name":"Anonymous","birth_year":null,"death_year":null}],"translators":[],"subjects":["Bible. Genesis"],"bookshelves":[],"languages":["en"],"copyright":false,"media_type":"Text","formats":{"text/html":"https://www.gutenberg.org/ebooks/8228.html.images","application/epub+zip":"https://www.gutenberg.org/ebooks/8228.epub3.images","application/x-mobipocket-ebook":"https://www.gutenberg.org/ebooks/8228.kf8.images","text/plain; charset=us-ascii":"https://www.gutenberg.org/ebooks/8228.txt.utf-8","application/rdf+xml":"https://www.gutenberg.org/ebooks/8228.rdf","image/jpeg":"https://www.gutenberg.org/cache/epub/8228/pg8228.cover.medium.jpg","application/octet-stream":"https://www.gutenberg.org/cache/epub/8228/pg8228-h.zip"},"download_count":19},{"id":8245,"title":"The World English Bible (WEB): Job","authors":[{"name":"Anonymous","birth_year":null,"death_year":null}],"translators":[],"subjects":["Bible. Job"],"bookshelves":["Best Books Ever Listings"],"languages":["en"],"copyright":false,"media_type":"Text","formats":{"text/html":"https://www.gutenberg.org/ebooks/8245.html.images","application/epub+zip":"https://www.gutenberg.org/ebooks/8245.epub3.images","application/x-mobipocket-ebook":"https://www.gutenberg.org/ebooks/8245.kf8.images","text/plain; charset=us-ascii":"https://www.gutenberg.org/ebooks/8245.txt.utf-8","application/rdf+xml":"https://www.gutenberg.org/ebooks/8245.rdf","image/jpeg":"https://www.gutenberg.org/cache/epub/8245/pg8245.cover.medium.jpg","application/octet-stream":"https://www.gutenberg.org/cache/epub/8245/pg8245-h.zip"},"download_count":19},{"id":8286,"title":"The World English Bible (WEB): James","authors":[{"name":"Anonymous","birth_year":null,"death_year":null}],"translators":[],"subjects":["Bible. James"],"bookshelves":[],"languages":["en"],"copyright":false,"media_type":"Text","formats":{"text/html":"https://www.gutenberg.org/ebooks/8286.html.images","application/epub+zip":"https://www.gutenberg.org/ebooks/8286.epub3.images","application/x-mobipocket-ebook":"https://www.gutenberg.org/ebooks/8286.kf8.images","text/plain; charset=us-ascii":"https://www.gutenberg.org/ebooks/8286.txt.utf-8","application/rdf+xml":"https://www.gutenberg.org/ebooks/8286.rdf","image/jpeg":"https://www.gutenberg.org/cache/epub/8286/pg8286.cover.medium.jpg","application/octet-stream":"https://www.gutenberg.org/cache/epub/8286/pg8286-h.zip"},"download_count":19},{"id":8308,"title":"The Bible, Douay-Rheims, Book 08: Ruth: The Challoner Revision","authors":[],"translators":[],"subjects":["Bible. Ruth"],"bookshelves":[],"languages":["en"],"copyright":false,"media_type":"Text","formats":{"text/html":"https://www.gutenberg.org/ebooks/8308.html.images","application/epub+zip":"https://www.gutenberg.org/ebooks/8308.epub3.images","application/x-mobipocket-ebook":"https://www.gutenberg.org/ebooks/8308.kf8.images","text/plain; charset=us-ascii":"https://www.gutenberg.org/ebooks/8308.txt.utf-8","application/rdf+xml":"https://www.gutenberg.org/ebooks/8308.rdf","image/jpeg":"https://www.gutenberg.org/cache/epub/8308/pg8308.cover.medium.jpg","application/octet-stream":"https://www.gutenberg.org/cache/epub/8308/pg8308-h.zip"},"download_count":19}]}