{"count":58808,"next":"http://129.241.150.113:8000/books/?languages=en&page=1250","previous":"http://129.241.150.113:8000/books/?languages=en&page=1248","results":[{"id":69158,"title":"Doomsday on Ajiat","authors":[{"name":"Jones, Neil R.","birth_year":1909,"death_year":1988}],"translators":[],"subjects":["Cryonics -- Fiction","Cyborgs -- Fiction","Outer space -- Exploration -- Fiction","Science fiction"],"bookshelves":[],"languages":["en"],"copyright":false,"media_type":"Text","formats":{"text/html":"https://www.gutenberg.org/ebooks/69158.html.images","application/epub+zip":"https://www.gutenberg.org/ebooks/69158.epub3.images","application/x-mobipocket-ebook":"https://www.gutenberg.org/ebooks/69158.kf8.images","text/plain; charset=us-ascii":"https://www.gutenberg.org/ebooks/69158.txt.utf-8","application/rdf+xml":"https://www.gutenberg.org/ebooks/69158.rdf","image/jpeg":"https://www.gutenberg.org/cache/epub/69158/pg69158.cover.medium.jpg","application/octet-stream":"https://www.gutenberg.org/files/69158/69158-0.zip"},"download_count":30},{"id":69175,"title":"The seven stairs","authors":[{"name":"Brent, Stuart","birth_year":null,"death_year":null}],"translators":[],"subjects":["Booksellers and bookselling -- Illinois -- Chicago -- History -- 20th century","Booksellers and bookselling -- United States -- Biography","Brent, Stuart","Chicago (Ill.) -- Intellectual life -- 20th century"],"bookshelves":[],"languages":["en"],"copyright":false,"media_type":"Text","formats":{"text/html":"https://www.gutenberg.org/ebooks/69175.html.images","application/epub+zip":"https://www.gutenberg.org/ebooks/69175.epub3.images","application/x-mobipocket-ebook":"https://www.gutenberg.org/ebooks/69175.kf8.images","text/plain; charset=us-ascii":"https://www.gutenberg.org/ebooks/69175.txt.utf-8","application/rdf+xml":"https://www.gutenberg.org/ebooks/69175.rdf","image/jpeg":"https://www.gutenberg.org/cache/epub/69175/pg69175.cover.medium.jpg","application/octet-stream":"https://www.gutenberg.org/files/69175/69175-0.zip"},"download_count":30},{"id":69192,"title":"Under the mizzen mast: A voyage round the world","authors":[{"name":"Adams, Nehemiah","birth_year":1806,"death_year":1878}],"translators":[],"subjects":["Voyages around the world"],"bookshelves":[],"languages":["en"],"copyright":false,"media_type":"Text","formats":{"text/html":"https://www.gutenberg.org/ebooks/69192.html.images","application/epub+zip":"https://www.gutenberg.org/ebooks/69192.epub3.images","application/x-mobipocket-ebook":"https://www.gutenberg.org/ebooks/69192.kf8.images","text/plain; charset=us-ascii":"https://www.gutenberg.org/ebooks/69192.txt.utf-8","application/rdf+xml":"https://www.gutenberg.org/ebooks/69192.rdf","image/jpeg":"https://www.gutenberg.org/cache/epub/69192/pg69192.cover.medium.jpg","application/octet-stream":"https://www.gutenberg.org/files/69192/69192-0.zip"},"download_count":30},{"id":69198,"title":"A bird of passage","authors":[{"name":"Croker, B. M. (Bithia Mary)","birth_year":1848,"death_year":1920}],"translators":[],"subjects":["British -- India -- Fiction","British -- Ireland -- Fiction","Fathers and daughters -- Fiction","Man-woman relationships -- Fiction","Young women -- Fiction"],"bookshelves":[],"languages":["en"],"copyright":false,"media_type":"Text","formats":{"text/html":"https://www.gutenberg.org/ebooks/69198.html.images","application/epub+zip":"https://www.gutenberg.org/ebooks/69198.epub3.images","application/x-mobipocket-ebook":"https://www.gutenberg.org/ebooks/69198.kf8.images","text/plain; charset=us-ascii":"https://www.gutenberg.org/ebooks/69198.txt.utf-8","application/rdf+xml":"https://www.gutenberg.org/ebooks/69198.rdf","image/jpeg":"https://www.gutenberg.org/cache/epub/69198/pg69198.cover.medium.jpg","application/octet-stream":"https://www.gutenberg.org/files/69198/69198-0.zip"},"download_count":30},{"id":69224,"title":"The shadows of a great city: A romantic story","authors":[{"name":"White, Grace Miller","birth_year":1869,"death_year":1957},{"name":"Shewell, Livingston Robert","birth_year":1833,"death_year":1904}],"translators":[],"subjects":["Fiction"],"bookshelves":[],"languages":["en"],"copyright":false,"media_type":"Text","formats":{"text/html":"https://www.gutenberg.org/ebooks/69224.html.images","application/epub+zip":"https://www.gutenberg.org/ebooks/69224.epub3.images","application/x-mobipocket-ebook":"https://www.gutenberg.org/ebooks/69224.kf8.images","text/plain; charset=us-ascii":"https://www.gutenberg.org/ebooks/69224.txt.utf-8","application/rdf+xml":"https://www.gutenberg.org/ebooks/69224.rdf","image/jpeg":"https://www.gutenberg.org/cache/epub/69224/pg69224.cover.medium.jpg","application/octet-stream":"https://www.gutenberg.org/files/69224/69224-0.zip"},"download_count":30},{"id":69249,"title":"Sketches of Southern life","authors":[{"name":"Harper, Frances Ellen Watkins","birth_year":1825,"death_year":1911}],"translators":[],"subjects":["African Americans -- Poetry","Southern States -- Poetry"],"bookshelves":[],"languages":["en"],"copyright":false,"media_type":"Text","formats":{"text/html":"https://www.gutenberg.org/ebooks/69249.html.images","application/epub+zip":"https://www.gutenberg.org/ebooks/69249.epub3.images","application/x-mobipocket-ebook":"https://www.gutenberg.org/ebooks/69249.kf8.images","text/plain; charset=us-ascii":"https://www.gutenberg.org/ebooks/69249.txt.utf-8","application/rdf+xml":"https://www.gutenberg.org/ebooks/69249.rdf","image/jpeg":"https://www.gutenberg.org/cache/epub/69249/pg69249.cover.medium.jpg","application/octet-stream":"https://www.gutenberg.org/files/69249/69249-0.zip"},"download_count":30},{"id":69252,"title":"White spot","authors":[{"name":"Leinster, Murray","birth_year":1896,"death_year":1975}],"translators":[],"subjects":["Human-alien encounters -- Fiction","Interstellar travel -- Fiction","Life on other planets -- Fiction","Science fiction","Space travelers -- Fiction"],"bookshelves":[],"languages":["en"],"copyright":false,"media_type":"Text","formats":{"text/html":"https://www.gutenberg.org/ebooks/69252.html.images","application/epub+zip":"https://www.gutenberg.org/ebooks/69252.epub3.images","application/x-mobipocket-ebook":"https://www.gutenberg.org/ebooks/69252.kf8.images","text/plain; charset=us-ascii":"https://www.gutenberg.org/ebooks/69252.txt.utf-8","application/rdf+xml":"https://www.gutenberg.org/ebooks/69252.rdf","image/jpeg":"https://www.gutenberg.org/cache/epub/69252/pg69252.cover.medium.jpg","application/octet-stream":"https://www.gutenberg.org/files/69252/69252-0.zip"},"download_count":30},{"id":69264,"title":"Atomic Station","authors":[{"name":"Long, Frank Belknap","birth_year":1903,"death_year":1994}],"translators":[],"subjects":["Laboratories -- Fiction","Mutation (Biology) -- Fiction","Science fiction","Short stories","Space stations -- Fiction","Time dilatation -- Fiction"],"bookshelves":[],"languages":["en"],"copyright":false,"media_type":"Text","formats":{"text/html":"https://www.gutenberg.org/ebooks/69264.html.images","application/epub+zip":"https://www.gutenberg.org/ebooks/69264.epub3.images","application/x-mobipocket-ebook":"https://www.gutenberg.org/ebooks/69264.kf8.images","text/plain; charset=us-ascii":"https://www.gutenberg.org/ebooks/69264.txt.utf-8","application/rdf+xml":"https://www.gutenberg.org/ebooks/69264.rdf","image/jpeg":"https://www.gutenberg.org/cache/epub/69264/pg69264.cover.medium.jpg","application/octet-stream":"https://www.gutenberg.org/files/69264/69264-0.zip"},"download_count":30},{"id":69272,"title":"Life and literature in the Roman republic","authors":[{"name":"Frank, Tenney","birth_year":1876,"death_year":1939}],"translators":[],"subjects":["Latin literature -- History and criticism","Rome -- Intellectual life"],"bookshelves":[],"languages":["en"],"copyright":false,"media_type":"Text","formats":{"text/html":"https://www.gutenberg.org/ebooks/69272.html.images","application/epub+zip":"https://www.gutenberg.org/ebooks/69272.epub3.images","application/x-mobipocket-ebook":"https://www.gutenberg.org/ebooks/69272.kf8.images","text/plain; charset=us-ascii":"https://www.gutenberg.org/ebooks/69272.txt.utf-8","application/rdf+xml":"https://www.gutenberg.org/ebooks/69272.rdf","image/jpeg":"https://www.gutenberg.org/cache/epub/69272/pg69272.cover.medium.jpg","application/octet-stream":"https://www.gutenberg.org/files/69272/69272-0.zip"},"download_count":30},{"id":69360,"title":"The steeple-jack's instructor","authors":[{"name":"Murray, Clarence James","birth_year":null,"death_year":null}],"translators":[],"subjects":["Steeple-jacks"],"bookshelves":[],"languages":["en"],"copyright":false,"media_type":"Text","formats":{"text/html":"https://www.gutenberg.org/ebooks/69360.html.images","application/epub+zip":"https://www.gutenberg.org/ebooks/69360.epub3.images","application/x-mobipocket-ebook":"https://www.gutenberg.org/ebooks/69360.kf8.images","text/plain; charset=us-ascii":"https://www.gutenberg.org/ebooks/69360.txt.utf-8","application/rdf+xml":"https://www.gutenberg.org/ebooks/69360.rdf","image/jpeg":"https://www.gutenberg.org/cache/epub/69360/pg69360.cover.medium.jpg","application/octet-stream":"https://www.gutenberg.org/files/69360/69360-0.zip"},"download_count":30},{"id":69370,"title":"Leaves from our Tuscan kitchen; or, How to cook vegetables","authors":[{"name":"Ross, Janet","birth_year":1842,"death_year":1927}],"translators":[],"subjects":["Cooking (Vegetables)","Cooking, Italian -- Tuscan style"],"bookshelves":[],"languages":["en"],"copyright":false,"media_type":"Text","formats":{"text/html":"https://www.gutenberg.org/ebooks/69370.html.images","application/epub+zip":"https://www.gutenberg.org/ebooks/69370.epub3.images","application/x-mobipocket-ebook":"https://www.gutenberg.org/ebooks/69370.kf8.images","text/plain; charset=us-ascii":"https://www.gutenberg.org/ebooks/69370.txt.utf-8","application/rdf+xml":"https://www.gutenberg.org/ebooks/69370.rdf","image/jpeg":"https://www.gutenberg.org/cache/epub/69370/pg69370.cover.medium.jpg","application/octet-stream":"https://www.gutenberg.org/files/69370/69370-0.zip"},"download_count":30},{"id":69383,"title":"In Old Madras","authors":[{"name":"Croker, B. M. (Bithia Mary)","birth_year":1848,"death_year":1920}],"translators":[],"subjects":["British -- India -- Fiction","India -- History -- British occupation, 1765-1947 -- Fiction","Madras (India)","Missing persons -- Fiction"],"bookshelves":[],"languages":["en"],"copyright":false,"media_type":"Text","formats":{"text/html":"https://www.gutenberg.org/ebooks/69383.html.images","application/epub+zip":"https://www.gutenberg.org/ebooks/69383.epub3.images","application/x-mobipocket-ebook":"https://www.gutenberg.org/ebooks/69383.kf8.images","text/plain; charset=us-ascii":"https://www.gutenberg.org/ebooks/69383.txt.utf-8","application/rdf+xml":"https://www.gutenberg.org/ebooks/69383.rdf","image/jpeg":"https://www.gutenberg.org/cache/epub/69383/pg69383.cover.medium.jpg","application/octet-stream":"https://www.gutenberg.org/files/69383/69383-0.zip"},"download_count":30},{"id":69454,"title":"A defence of modern spiritualism","authors":[{"name":"Wallace, Alfred Russel","birth_year":1823,"death_year":1913}],"translators":[],"subjects":["Spiritualism"],"bookshelves":[],"languages":["en"],"copyright":false,"media_type":"Text","formats":{"text/html":"https://www.gutenberg.org/ebooks/69454.html.images","application/epub+zip":"https://www.gutenberg.org/ebooks/69454.epub3.images","application/x-mobipocket-ebook":"https://www.gutenberg.org/ebooks/69454.kf8.images","text/plain; charset=us-ascii":"https://www.gutenberg.org/ebooks/69454.txt.utf-8","application/rdf+xml":"https://www.gutenberg.org/ebooks/69454.rdf","image/jpeg":"https://www.gutenberg.org/cache/epub/69454/pg69454.cover.medium.jpg","application/octet-stream":"https://www.gutenberg.org/files/69454/69454-0.zip"},"download_count":30},{"id":69495,"title":"The professor's experiment: A novel, Vol. 2 (of 3)","authors":[{"name":"Duchess","birth_year":null,"death_year":1897}],"translators":[],"subjects":["Science fiction"],"bookshelves":[],"languages":["en"],"copyright":false,"media_type":"Text","formats":{"text/html":"https://www.gutenberg.org/ebooks/69495.html.images","application/epub+zip":"https://www.gutenberg.org/ebooks/69495.epub3.images","application/x-mobipocket-ebook":"https://www.gutenberg.org/ebooks/69495.kf8.images","text/plain; charset=us-ascii":"https://www.gutenberg.org/ebooks/69495.txt.utf-8","application/rdf+xml":"https://www.gutenberg.org/ebooks/69495.rdf","image/jpeg":"https://www.gutenberg.org/cache/epub/69495/pg69495.cover.medium.jpg","application/octet-stream":"https://www.gutenberg.org/files/69495/69495-0.zip"},"download_count":30},{"id":69530,"title":"The humour of Spain.","authors":[],"translators":[],"subjects":["Spanish wit and humor"],"bookshelves":[],"languages":["en"],"copyright":false,"media_type":"Text","formats":{"text/html":"https://www.gutenberg.org/ebooks/69530.html.images","application/epub+zip":"https://www.gutenberg.org/ebooks/69530.epub3.images","application/x-mobipocket-ebook":"https://www.gutenberg.org/ebooks/69530.kf8.images","text/plain; charset=us-ascii":"https://www.gutenberg.org/ebooks/69530.txt.utf-8","application/rdf+xml":"https://www.gutenberg.org/ebooks/69530.rdf","image/jpeg":"https://www.gutenberg.org/cache/epub/69530/pg69530.cover.medium.jpg","application/octet-stream":"https://www.gutenberg.org/files/69530/69530-0.zip"},"download_count":30},{"id":69564,"title":"The long way back","authors":[{"name":"Barrett, John","birth_year":null,"death_year":null}],"translators":[],"subjects":["Mars (Planet) -- Fiction","Science fiction","Short stories","Space ships -- Fiction","Survival -- Fiction"],"bookshelves":[],"languages":["en"],"copyright":false,"media_type":"Text","formats":{"text/html":"https://www.gutenberg.org/ebooks/69564.html.images","application/epub+zip":"https://www.gutenberg.org/ebooks/69564.epub3.images","application/x-mobipocket-ebook":"https://www.gutenberg.org/ebooks/69564.kf8.images","text/plain; charset=us-ascii":"https://www.gutenberg.org/ebooks/69564.txt.utf-8","application/rdf+xml":"https://www.gutenberg.org/ebooks/69564.rdf","image/jpeg":"https://www.gutenberg.org/cache/epub/69564/pg69564.cover.medium.jpg","application/octet-stream":"https://www.gutenberg.org/files/69564/69564-0.zip"},"download_count":30},{"id":69591,"title":"The conquest of the great Northwest, Volume 1 (of 2): $b Being the story of the adventurers of England known as the Hudson's Bay Company. New pages in the history of the Canadian northwest and western states","authors":[{"name":"Laut, Agnes C.","birth_year":1871,"death_year":1936}],"translators":[],"subjects":["Hudson Bay -- History","Hudson's Bay Company","Northwest, Canadian"],"bookshelves":[],"languages":["en"],"copyright":false,"media_type":"Text","formats":{"text/html":"https://www.gutenberg.org/ebooks/69591.html.images","application/epub+zip":"https://www.gutenberg.org/ebooks/69591.epub3.images","application/x-mobipocket-ebook":"https://www.gutenberg.org/ebooks/69591.kf8.images","text/plain; charset=us-ascii":"https://www.gutenberg.org/ebooks/69591.txt.utf-8","application/rdf+xml":"https://www.gutenberg.org/ebooks/69591.rdf","image/jpeg":"https://www.gutenberg.org/cache/epub/69591/pg69591.cover.medium.jpg","application/octet-stream":"https://www.gutenberg.org/files/69591/69591-0.zip"},"download_count":30},{"id":69599,"title":"Dorothea Beale: Principal of the Cheltenham Ladies' College, 1858-1906","authors":[{"name":"Shillito, Elizabeth Helen","birth_year":null,"death_year":null}],"translators":[],"subjects":["Beale, Dorothea, 1831-1906","Cheltenham Ladies' College"],"bookshelves":[],"languages":["en"],"copyright":false,"media_type":"Text","formats":{"text/html":"https://www.gutenberg.org/ebooks/69599.html.images","application/epub+zip":"https://www.gutenberg.org/ebooks/69599.epub3.images","application/x-mobipocket-ebook":"https://www.gutenberg.org/ebooks/69599.kf8.images","text/plain; charset=us-ascii":"https://www.gutenberg.org/ebooks/69599.txt.utf-8","application/rdf+xml":"https://www.gutenberg.org/ebooks/69599.rdf","image/jpeg":"https://www.gutenberg.org/cache/epub/69599/pg69599.cover.medium.jpg","application/octet-stream":"https://www.gutenberg.org/files/69599/69599-0.zip"},"download_count":30},{"id":69648,"title":"Roger Williams","authors":[{"name":"Hall, May Emery","birth_year":null,"death_year":null}],"translators":[],"subjects":["Williams, Roger, 1604?-1683"],"bookshelves":[],"languages":["en"],"copyright":false,"media_type":"Text","formats":{"text/html":"https://www.gutenberg.org/ebooks/69648.html.images","application/epub+zip":"https://www.gutenberg.org/ebooks/69648.epub3.images","application/x-mobipocket-ebook":"https://www.gutenberg.org/ebooks/69648.kf8.images","text/plain; charset=us-ascii":"https://www.gutenberg.org/ebooks/69648.txt.utf-8","application/rdf+xml":"https://www.gutenberg.org/ebooks/69648.rdf","image/jpeg":"https://www.gutenberg.org/cache/epub/69648/pg69648.cover.medium.jpg","application/octet-stream":"https://www.gutenberg.org/files/69648/69648-0.zip"},"download_count":30},{"id":69658,"title":"Quarantine","authors":[{"name":"Smith, George O. (George Oliver)","birth_year":1911,"death_year":1981}],"translators":[],"subjects":["Alloys -- Fiction","Science fiction","Short stories"],"bookshelves":[],"languages":["en"],"copyright":false,"media_type":"Text","formats":{"text/html":"https://www.gutenberg.org/ebooks/69658.html.images","application/epub+zip":"https://www.gutenberg.org/ebooks/69658.epub3.images","application/x-mobipocket-ebook":"https://www.gutenberg.org/ebooks/69658.kf8.images","text/plain; charset=us-ascii":"https://www.gutenberg.org/ebooks/69658.txt.utf-8","application/rdf+xml":"https://www.gutenberg.org/ebooks/69658.rdf","image/jpeg":"https://www.gutenberg.org/cache/epub/69658/pg69658.cover.medium.jpg","application/octet-stream":"https://www.gutenberg.org/files/69658/69658-0.zip"},"download_count":30},{"id":69686,"title":"The hand-book of the law of legacies: containing a statement of the nature of legacies, and the accidents to which they are subjects; together with the rights of legatees, and the causes and manner of the ademption, cumulation, and abatement of their bequests","authors":[{"name":"Anonymous","birth_year":null,"death_year":null}],"translators":[],"subjects":["Legacies -- Great Britain"],"bookshelves":[],"languages":["en"],"copyright":false,"media_type":"Text","formats":{"text/html":"https://www.gutenberg.org/ebooks/69686.html.images","application/epub+zip":"https://www.gutenberg.org/ebooks/69686.epub3.images","application/x-mobipocket-ebook":"https://www.gutenberg.org/ebooks/69686.kf8.images","text/plain; charset=us-ascii":"https://www.gutenberg.org/ebooks/69686.txt.utf-8","application/rdf+xml":"https://www.gutenberg.org/ebooks/69686.rdf","image/jpeg":"https://www.gutenberg.org/cache/epub/69686/pg69686.cover.medium.jpg","application/octet-stream":"https://www.gutenberg.org/files/69686/69686-0.zip"},"download_count":30},{"id":69702,"title":"A backwoods princess","authors":[{"name":"Footner, Hulbert","birth_year":1879,"death_year":1944}],"translators":[],"subjects":["Inheritance and succession -- Fiction","Northwest, Canadian -- Fiction","Trading posts -- Fiction","Young women -- Fiction"],"bookshelves":[],"languages":["en"],"copyright":false,"media_type":"Text","formats":{"text/html":"https://www.gutenberg.org/ebooks/69702.html.images","application/epub+zip":"https://www.gutenberg.org/ebooks/69702.epub3.images","application/x-mobipocket-ebook":"https://www.gutenberg.org/ebooks/69702.kf8.images","text/plain; charset=us-ascii":"https://www.gutenberg.org/ebooks/69702.txt.utf-8","application/rdf+xml":"https://www.gutenberg.org/ebooks/69702.rdf","image/jpeg":"https://www.gutenberg.org/cache/epub/69702/pg69702.cover.medium.jpg","application/octet-stream":"https://www.gutenberg.org/files/69702/69702-0.zip"},"download_count":30},{"id":69766,"title":"The training of teachers in the United States of America","authors":[{"name":"Bramwell, Amy Blanche","birth_year":null,"death_year":null},{"name":"Hughes, H. Millicent","birth_year":1863,"death_year":1942}],"translators":[],"subjects":["Teachers -- Training of -- United States"],"bookshelves":[],"languages":["en"],"copyright":false,"media_type":"Text","formats":{"text/html":"https://www.gutenberg.org/ebooks/69766.html.images","application/epub+zip":"https://www.gutenberg.org/ebooks/69766.epub3.images","application/x-mobipocket-ebook":"https://www.gutenberg.org/ebooks/69766.kf8.images","text/plain; charset=us-ascii":"https://www.gutenberg.org/ebooks/69766.txt.utf-8","application/rdf+xml":"https://www.gutenberg.org/ebooks/69766.rdf","image/jpeg":"https://www.gutenberg.org/cache/epub/69766/pg69766.cover.medium.jpg","application/octet-stream":"https://www.gutenberg.org/files/69766/69766-0.zip"},"download_count":30},{"id":69827,"title":"A manual on the origin and development of Washington","authors":[{"name":"Caemmerer, H. Paul (Hans Paul)","birth_year":1884,"death_year":1962}],"translators":[],"subjects":["Washington (D.C.) -- Description and travel","Washington (D.C.) -- History"],"bookshelves":[],"languages":["en"],"copyright":false,"media_type":"Text","formats":{"text/html":"https://www.gutenberg.org/ebooks/69827.html.images","application/epub+zip":"https://www.gutenberg.org/ebooks/69827.epub3.images","application/x-mobipocket-ebook":"https://www.gutenberg.org/ebooks/69827.kf8.images","text/plain; charset=us-ascii":"https://www.gutenberg.org/ebooks/69827.txt.utf-8","application/rdf+xml":"https://www.gutenberg.org/ebooks/69827.rdf","image/jpeg":"https://www.gutenberg.org/cache/epub/69827/pg69827.cover.medium.jpg","application/octet-stream":"https://www.gutenberg.org/files/69827/69827-0.zip"},"download_count":30},{"id":69943,"title":"The training of an infantry company","authors":[{"name":"Kirkpatrick, E. (Edward)","birth_year":1869,"death_year":null}],"translators":[],"subjects":["Great Britain. Army -- Infantry -- Drill and tactics","Infantry drill and tactics"],"bookshelves":[],"languages":["en"],"copyright":false,"media_type":"Text","formats":{"text/html":"https://www.gutenberg.org/ebooks/69943.html.images","application/epub+zip":"https://www.gutenberg.org/ebooks/69943.epub3.images","application/x-mobipocket-ebook":"https://www.gutenberg.org/ebooks/69943.kf8.images","text/plain; charset=us-ascii":"https://www.gutenberg.org/ebooks/69943.txt.utf-8","application/rdf+xml":"https://www.gutenberg.org/ebooks/69943.rdf","image/jpeg":"https://www.gutenberg.org/cache/epub/69943/pg69943.cover.medium.jpg","application/octet-stream":"https://www.gutenberg.org/files/69943/69943-0.zip"},"download_count":30},{"id":70100,"title":"The turner's companion: $b containing instructions in concentric, elliptic, and eccentric turning; also various plates of chucks, tools and instruments: and directions for using the eccentric cutter, drill, vertical cutter, and circular rest; with patterns, and instructions for working them.","authors":[{"name":"Anonymous","birth_year":null,"death_year":null}],"translators":[],"subjects":["Turning (Lathe work)"],"bookshelves":[],"languages":["en"],"copyright":false,"media_type":"Text","formats":{"text/html":"https://www.gutenberg.org/ebooks/70100.html.images","application/epub+zip":"https://www.gutenberg.org/ebooks/70100.epub3.images","application/x-mobipocket-ebook":"https://www.gutenberg.org/ebooks/70100.kf8.images","text/plain; charset=us-ascii":"https://www.gutenberg.org/ebooks/70100.txt.utf-8","application/rdf+xml":"https://www.gutenberg.org/ebooks/70100.rdf","image/jpeg":"https://www.gutenberg.org/cache/epub/70100/pg70100.cover.medium.jpg","application/octet-stream":"https://www.gutenberg.org/files/70100/70100-0.zip"},"download_count":30},{"id":70103,"title":"Chantemerle : $b A romance of the Vendean War","authors":[{"name":"Broster, D. K. (Dorothy Kathleen)","birth_year":1877,"death_year":1950},{"name":"Taylor, G. Winifred (Gertrude Winifred)","birth_year":1882,"death_year":null}],"translators":[],"subjects":["France -- History -- Revolution, 1789-1799 -- Fiction","France -- History -- Wars of the Vendée, 1793-1832 -- Fiction"],"bookshelves":[],"languages":["en"],"copyright":false,"media_type":"Text","formats":{"text/html":"https://www.gutenberg.org/ebooks/70103.html.images","application/epub+zip":"https://www.gutenberg.org/ebooks/70103.epub3.images","application/x-mobipocket-ebook":"https://www.gutenberg.org/ebooks/70103.kf8.images","text/plain; charset=us-ascii":"https://www.gutenberg.org/ebooks/70103.txt.utf-8","application/rdf+xml":"https://www.gutenberg.org/ebooks/70103.rdf","image/jpeg":"https://www.gutenberg.org/cache/epub/70103/pg70103.cover.medium.jpg","application/octet-stream":"https://www.gutenberg.org/files/70103/70103-0.zip"},"download_count":30},{"id":70151,"title":"Myra : $b the child of adoption : A romance of real life","authors":[{"name":"Stephens, Ann S. (Ann Sophia)","birth_year":1810,"death_year":1886}],"translators":[],"subjects":["Gaines, Myra Clark, 1805-1885 -- Fiction"],"bookshelves":[],"languages":["en"],"copyright":false,"media_type":"Text","formats":{"text/html":"https://www.gutenberg.org/ebooks/70151.html.images","application/epub+zip":"https://www.gutenberg.org/ebooks/70151.epub3.images","application/x-mobipocket-ebook":"https://www.gutenberg.org/ebooks/70151.kf8.images","text/plain; charset=us-ascii":"https://www.gutenberg.org/ebooks/70151.txt.utf-8","application/rdf+xml":"https://www.gutenberg.org/ebooks/70151.rdf","image/jpeg":"https://www.gutenberg.org/cache/epub/70151/pg70151.cover.medium.jpg","application/octet-stream":"https://www.gutenberg.org/files/70151/70151-0.zip"},"download_count":30},{"id":70163,"title":"Millbank; $b or, Roger Irving's ward. A novel","authors":[{"name":"Holmes, Mary Jane","birth_year":1825,"death_year":1907}],"translators":[],"subjects":["American fiction -- 19th century"],"bookshelves":[],"languages":["en"],"copyright":false,"media_type":"Text","formats":{"text/html":"https://www.gutenberg.org/ebooks/70163.html.images","application/epub+zip":"https://www.gutenberg.org/ebooks/70163.epub3.images","application/x-mobipocket-ebook":"https://www.gutenberg.org/ebooks/70163.kf8.images","text/plain; charset=us-ascii":"https://www.gutenberg.org/ebooks/70163.txt.utf-8","application/rdf+xml":"https://www.gutenberg.org/ebooks/70163.rdf","image/jpeg":"https://www.gutenberg.org/cache/epub/70163/pg70163.cover.medium.jpg","application/octet-stream":"https://www.gutenberg.org/files/70163/70163-0.zip"},"download_count":30},{"id":70167,"title":"The horrors of the Negro slavery existing in our West Indian islands: $b irrefragably demonstrated from official documents recently presented to the House of Commons","authors":[{"name":"Anonymous","birth_year":null,"death_year":null}],"translators":[],"subjects":["Enslaved persons -- West Indies -- Social conditions","Slave trade -- West Indies, British","Slavery -- Law and legislation -- Great Britain"],"bookshelves":[],"languages":["en"],"copyright":false,"media_type":"Text","formats":{"text/html":"https://www.gutenberg.org/ebooks/70167.html.images","application/epub+zip":"https://www.gutenberg.org/ebooks/70167.epub3.images","application/x-mobipocket-ebook":"https://www.gutenberg.org/ebooks/70167.kf8.images","text/plain; charset=us-ascii":"https://www.gutenberg.org/ebooks/70167.txt.utf-8","application/rdf+xml":"https://www.gutenberg.org/ebooks/70167.rdf","image/jpeg":"https://www.gutenberg.org/cache/epub/70167/pg70167.cover.medium.jpg","application/octet-stream":"https://www.gutenberg.org/files/70167/70167-0.zip"},"download_count":30},{"id":70207,"title":"The man with the iron mask","authors":[{"name":"Topin, Marius","birth_year":1838,"death_year":1895}],"translators":[{"name":"Vizetelly, Henry","birth_year":1820,"death_year":1894}],"subjects":["Mattioli, Ercole Antonio, conte, 1640-1703"],"bookshelves":[],"languages":["en"],"copyright":false,"media_type":"Text","formats":{"text/html":"https://www.gutenberg.org/ebooks/70207.html.images","application/epub+zip":"https://www.gutenberg.org/ebooks/70207.epub3.images","application/x-mobipocket-ebook":"https://www.gutenberg.org/ebooks/70207.kf8.images","text/plain; charset=us-ascii":"https://www.gutenberg.org/ebooks/70207.txt.utf-8","application/rdf+xml":"https://www.gutenberg.org/ebooks/70207.rdf","image/jpeg":"https://www.gutenberg.org/cache/epub/70207/pg70207.cover.medium.jpg","application/octet-stream":"https://www.gutenberg.org/files/70207/70207-0.zip"},"download_count":30},{"id":70217,"title":"Bruggil's bride","authors":[{"name":"Young, Robert F.","birth_year":1915,"death_year":1986}],"translators":[],"subjects":["Androids -- Fiction","Opera -- Fiction","Science fiction","Short stories","Space colonies -- Fiction"],"bookshelves":[],"languages":["en"],"copyright":false,"media_type":"Text","formats":{"text/html":"https://www.gutenberg.org/ebooks/70217.html.images","application/epub+zip":"https://www.gutenberg.org/ebooks/70217.epub3.images","application/x-mobipocket-ebook":"https://www.gutenberg.org/ebooks/70217.kf8.images","text/plain; charset=us-ascii":"https://www.gutenberg.org/ebooks/70217.txt.utf-8","application/rdf+xml":"https://www.gutenberg.org/ebooks/70217.rdf","image/jpeg":"https://www.gutenberg.org/cache/epub/70217/pg70217.cover.medium.jpg","application/octet-stream":"https://www.gutenberg.org/files/70217/70217-0.zip"},"download_count":30}]}