{"count":58808,"next":"http://129.241.150.113:8000/books/?languages=en&page=1786","previous":"http://129.241.150.113:8000/books/?languages=en&page=1784","results":[{"id":5411,"title":"The Memoirs of Count Grammont — Volume 03","authors":[{"name":"Hamilton, Anthony, Count","birth_year":null,"death_year":1720}],"translators":[],"subjects":["Gramont, Philibert, comte de, 1621-1707","Great Britain -- Court and courtiers -- Early works to 1800","Great Britain -- History -- Charles II, 1660-1685"],"bookshelves":[],"languages":["en"],"copyright":false,"media_type":"Text","formats":{"text/html":"https://www.gutenberg.org/ebooks/5411.html.images","application/epub+zip":"https://www.gutenberg.org/ebooks/5411.epub3.images","application/x-mobipocket-ebook":"https://www.gutenberg.org/ebooks/5411.kf8.images","text/plain; charset=us-ascii":"https://www.gutenberg.org/ebooks/5411.txt.utf-8","application/rdf+xml":"https://www.gutenberg.org/ebooks/5411.rdf","image/jpeg":"https://www.gutenberg.org/cache/epub/5411/pg5411.cover.medium.jpg","application/octet-stream":"https://www.gutenberg.org/cache/epub/5411/pg5411-h.zip"},"download_count":13},{"id":5445,"title":"Uarda : a Romance of Ancient Egypt — Volume 07","authors":[{"name":"Ebers, Georg","birth_year":1837,"death_year":1898}],"translators":[{"name":"Bell, Clara","birth_year":1834,"death_year":1927}],"subjects":["Egypt -- History -- To 332 B.C. -- Fiction","German fiction -- Translations into English"],"bookshelves":["Historical Fiction"],"languages":["en"],"copyright":false,"media_type":"Text","formats":{"text/html":"https://www.gutenberg.org/ebooks/5445.html.images","application/epub+zip":"https://www.gutenberg.org/ebooks/5445.epub3.images","application/x-mobipocket-ebook":"https://www.gutenberg.org/ebooks/5445.kf8.images","text/plain; charset=us-ascii":"https://www.gutenberg.org/ebooks/5445.txt.utf-8","application/rdf+xml":"https://www.gutenberg.org/ebooks/5445.rdf","image/jpeg":"https://www.gutenberg.org/cache/epub/5445/pg5445.cover.medium.jpg","application/octet-stream":"https://www.gutenberg.org/cache/epub/5445/pg5445-h.zip"},"download_count":13},{"id":5463,"title":"The Sisters — Volume 3","authors":[{"name":"Ebers, Georg","birth_year":1837,"death_year":1898}],"translators":[{"name":"Bell, Clara","birth_year":1834,"death_year":1927}],"subjects":["Egypt -- History -- 332-30 B.C. -- Fiction","German fiction -- Translations into English"],"bookshelves":["Historical Fiction"],"languages":["en"],"copyright":false,"media_type":"Text","formats":{"text/html":"https://www.gutenberg.org/ebooks/5463.html.images","application/epub+zip":"https://www.gutenberg.org/ebooks/5463.epub3.images","application/x-mobipocket-ebook":"https://www.gutenberg.org/ebooks/5463.kf8.images","text/plain; charset=us-ascii":"https://www.gutenberg.org/ebooks/5463.txt.utf-8","application/rdf+xml":"https://www.gutenberg.org/ebooks/5463.rdf","image/jpeg":"https://www.gutenberg.org/cache/epub/5463/pg5463.cover.medium.jpg","application/octet-stream":"https://www.gutenberg.org/cache/epub/5463/pg5463-h.zip"},"download_count":13},{"id":5470,"title":"Joshua — Volume 4","authors":[{"name":"Ebers, Georg","birth_year":1837,"death_year":1898}],"translators":[{"name":"Safford, Mary J.","birth_year":null,"death_year":null}],"subjects":["German fiction -- Translations into English","Palestine -- History -- Fiction"],"bookshelves":[],"languages":["en"],"copyright":false,"media_type":"Text","formats":{"text/html":"https://www.gutenberg.org/ebooks/5470.html.images","application/epub+zip":"https://www.gutenberg.org/ebooks/5470.epub3.images","application/x-mobipocket-ebook":"https://www.gutenberg.org/ebooks/5470.kf8.images","text/plain; charset=us-ascii":"https://www.gutenberg.org/ebooks/5470.txt.utf-8","application/rdf+xml":"https://www.gutenberg.org/ebooks/5470.rdf","image/jpeg":"https://www.gutenberg.org/cache/epub/5470/pg5470.cover.medium.jpg","application/octet-stream":"https://www.gutenberg.org/cache/epub/5470/pg5470-h.zip"},"download_count":13},{"id":5486,"title":"The Emperor — Volume 04","authors":[{"name":"Ebers, Georg","birth_year":1837,"death_year":1898}],"translators":[{"name":"Bell, Clara","birth_year":1834,"death_year":1927}],"subjects":["Egypt -- History -- 30 B.C.-640 A.D. -- Fiction","German fiction -- Translations into English","Hadrian, Emperor of Rome, 76-138 -- Fiction"],"bookshelves":[],"languages":["en"],"copyright":false,"media_type":"Text","formats":{"text/html":"https://www.gutenberg.org/ebooks/5486.html.images","application/epub+zip":"https://www.gutenberg.org/ebooks/5486.epub3.images","application/x-mobipocket-ebook":"https://www.gutenberg.org/ebooks/5486.kf8.images","text/plain; charset=us-ascii":"https://www.gutenberg.org/ebooks/5486.txt.utf-8","application/rdf+xml":"https://www.gutenberg.org/ebooks/5486.rdf","image/jpeg":"https://www.gutenberg.org/cache/epub/5486/pg5486.cover.medium.jpg","application/octet-stream":"https://www.gutenberg.org/cache/epub/5486/pg5486-h.zip"},"download_count":13},{"id":5508,"title":"Arachne — Volume 01","authors":[{"name":"Ebers, Georg","birth_year":1837,"death_year":1898}],"translators":[{"name":"Safford, Mary J.","birth_year":null,"death_year":null}],"subjects":["Egypt -- History -- 332-30 B.C. -- Fiction","German fiction -- Translations into English"],"bookshelves":[],"languages":["en"],"copyright":false,"media_type":"Text","formats":{"text/html":"https://www.gutenberg.org/ebooks/5508.html.images","application/epub+zip":"https://www.gutenberg.org/ebooks/5508.epub3.images","application/x-mobipocket-ebook":"https://www.gutenberg.org/ebooks/5508.kf8.images","text/plain; charset=us-ascii":"https://www.gutenberg.org/ebooks/5508.txt.utf-8","application/rdf+xml":"https://www.gutenberg.org/ebooks/5508.rdf","image/jpeg":"https://www.gutenberg.org/cache/epub/5508/pg5508.cover.medium.jpg","application/octet-stream":"https://www.gutenberg.org/cache/epub/5508/pg5508-h.zip"},"download_count":13},{"id":5520,"title":"The Bride of the Nile — Volume 04","authors":[{"name":"Ebers, Georg","birth_year":1837,"death_year":1898}],"translators":[{"name":"Bell, Clara","birth_year":1834,"death_year":1927}],"subjects":["Egypt -- History -- Fiction","German fiction -- Translations into English"],"bookshelves":["Historical Fiction"],"languages":["en"],"copyright":false,"media_type":"Text","formats":{"text/html":"https://www.gutenberg.org/ebooks/5520.html.images","application/epub+zip":"https://www.gutenberg.org/ebooks/5520.epub3.images","application/x-mobipocket-ebook":"https://www.gutenberg.org/ebooks/5520.kf8.images","text/plain; charset=us-ascii":"https://www.gutenberg.org/ebooks/5520.txt.utf-8","application/rdf+xml":"https://www.gutenberg.org/ebooks/5520.rdf","image/jpeg":"https://www.gutenberg.org/cache/epub/5520/pg5520.cover.medium.jpg","application/octet-stream":"https://www.gutenberg.org/cache/epub/5520/pg5520-h.zip"},"download_count":13},{"id":5527,"title":"The Bride of the Nile — Volume 11","authors":[{"name":"Ebers, Georg","birth_year":1837,"death_year":1898}],"translators":[{"name":"Bell, Clara","birth_year":1834,"death_year":1927}],"subjects":["Egypt -- History -- Fiction","German fiction -- Translations into English"],"bookshelves":["Historical Fiction"],"languages":["en"],"copyright":false,"media_type":"Text","formats":{"text/html":"https://www.gutenberg.org/ebooks/5527.html.images","application/epub+zip":"https://www.gutenberg.org/ebooks/5527.epub3.images","application/x-mobipocket-ebook":"https://www.gutenberg.org/ebooks/5527.kf8.images","text/plain; charset=us-ascii":"https://www.gutenberg.org/ebooks/5527.txt.utf-8","application/rdf+xml":"https://www.gutenberg.org/ebooks/5527.rdf","image/jpeg":"https://www.gutenberg.org/cache/epub/5527/pg5527.cover.medium.jpg","application/octet-stream":"https://www.gutenberg.org/cache/epub/5527/pg5527-h.zip"},"download_count":13},{"id":5532,"title":"A Thorny Path — Volume 03","authors":[{"name":"Ebers, Georg","birth_year":1837,"death_year":1898}],"translators":[{"name":"Bell, Clara","birth_year":1834,"death_year":1927}],"subjects":["Egypt -- History -- 30 B.C.-640 A.D. -- Fiction","German fiction -- Translations into English"],"bookshelves":[],"languages":["en"],"copyright":false,"media_type":"Text","formats":{"text/html":"https://www.gutenberg.org/ebooks/5532.html.images","application/epub+zip":"https://www.gutenberg.org/ebooks/5532.epub3.images","application/x-mobipocket-ebook":"https://www.gutenberg.org/ebooks/5532.kf8.images","text/plain; charset=us-ascii":"https://www.gutenberg.org/ebooks/5532.txt.utf-8","application/rdf+xml":"https://www.gutenberg.org/ebooks/5532.rdf","image/jpeg":"https://www.gutenberg.org/cache/epub/5532/pg5532.cover.medium.jpg","application/octet-stream":"https://www.gutenberg.org/cache/epub/5532/pg5532-h.zip"},"download_count":13},{"id":5539,"title":"A Thorny Path — Volume 10","authors":[{"name":"Ebers, Georg","birth_year":1837,"death_year":1898}],"translators":[{"name":"Bell, Clara","birth_year":1834,"death_year":1927}],"subjects":["Egypt -- History -- 30 B.C.-640 A.D. -- Fiction","German fiction -- Translations into English"],"bookshelves":[],"languages":["en"],"copyright":false,"media_type":"Text","formats":{"text/html":"https://www.gutenberg.org/ebooks/5539.html.images","application/epub+zip":"https://www.gutenberg.org/ebooks/5539.epub3.images","application/x-mobipocket-ebook":"https://www.gutenberg.org/ebooks/5539.kf8.images","text/plain; charset=us-ascii":"https://www.gutenberg.org/ebooks/5539.txt.utf-8","application/rdf+xml":"https://www.gutenberg.org/ebooks/5539.rdf","image/jpeg":"https://www.gutenberg.org/cache/epub/5539/pg5539.cover.medium.jpg","application/octet-stream":"https://www.gutenberg.org/cache/epub/5539/pg5539-h.zip"},"download_count":13},{"id":5543,"title":"In the Fire of the Forge: A Romance of Old Nuremberg — Volume 01","authors":[{"name":"Ebers, Georg","birth_year":1837,"death_year":1898}],"translators":[{"name":"Safford, Mary J.","birth_year":null,"death_year":null}],"subjects":["German fiction -- Translations into English","Nuremberg (Germany) -- Fiction"],"bookshelves":[],"languages":["en"],"copyright":false,"media_type":"Text","formats":{"text/html":"https://www.gutenberg.org/ebooks/5543.html.images","application/epub+zip":"https://www.gutenberg.org/ebooks/5543.epub3.images","application/x-mobipocket-ebook":"https://www.gutenberg.org/ebooks/5543.kf8.images","text/plain; charset=us-ascii":"https://www.gutenberg.org/ebooks/5543.txt.utf-8","application/rdf+xml":"https://www.gutenberg.org/ebooks/5543.rdf","image/jpeg":"https://www.gutenberg.org/cache/epub/5543/pg5543.cover.medium.jpg","application/octet-stream":"https://www.gutenberg.org/cache/epub/5543/pg5543-h.zip"},"download_count":13},{"id":5550,"title":"In the Fire of the Forge: A Romance of Old Nuremberg — Volume 08","authors":[{"name":"Ebers, Georg","birth_year":1837,"death_year":1898}],"translators":[{"name":"Safford, Mary J.","birth_year":null,"death_year":null}],"subjects":["German fiction -- Translations into English","Nuremberg (Germany) -- Fiction"],"bookshelves":[],"languages":["en"],"copyright":false,"media_type":"Text","formats":{"text/html":"https://www.gutenberg.org/ebooks/5550.html.images","application/epub+zip":"https://www.gutenberg.org/ebooks/5550.epub3.images","application/x-mobipocket-ebook":"https://www.gutenberg.org/ebooks/5550.kf8.images","text/plain; charset=us-ascii":"https://www.gutenberg.org/ebooks/5550.txt.utf-8","application/rdf+xml":"https://www.gutenberg.org/ebooks/5550.rdf","image/jpeg":"https://www.gutenberg.org/cache/epub/5550/pg5550.cover.medium.jpg","application/octet-stream":"https://www.gutenberg.org/cache/epub/5550/pg5550-h.zip"},"download_count":13},{"id":5587,"title":"In the Blue Pike — Complete","authors":[{"name":"Ebers, Georg","birth_year":1837,"death_year":1898}],"translators":[{"name":"Safford, Mary J.","birth_year":null,"death_year":null}],"subjects":["German fiction -- Translations into English","Germany -- Fiction"],"bookshelves":["Historical Fiction"],"languages":["en"],"copyright":false,"media_type":"Text","formats":{"text/html":"https://www.gutenberg.org/ebooks/5587.html.images","application/epub+zip":"https://www.gutenberg.org/ebooks/5587.epub3.images","application/x-mobipocket-ebook":"https://www.gutenberg.org/ebooks/5587.kf8.images","text/plain; charset=us-ascii":"https://www.gutenberg.org/ebooks/5587.txt.utf-8","application/rdf+xml":"https://www.gutenberg.org/ebooks/5587.rdf","image/jpeg":"https://www.gutenberg.org/cache/epub/5587/pg5587.cover.medium.jpg","application/octet-stream":"https://www.gutenberg.org/cache/epub/5587/pg5587-h.zip"},"download_count":13},{"id":5591,"title":"The Nuts: A Christmas Story for my Children and Grandchildren","authors":[{"name":"Ebers, Georg","birth_year":1837,"death_year":1898}],"translators":[],"subjects":["Christmas stories","German fiction -- Translations into English"],"bookshelves":[],"languages":["en"],"copyright":false,"media_type":"Text","formats":{"text/html":"https://www.gutenberg.org/ebooks/5591.html.images","application/epub+zip":"https://www.gutenberg.org/ebooks/5591.epub3.images","application/x-mobipocket-ebook":"https://www.gutenberg.org/ebooks/5591.kf8.images","text/plain; charset=us-ascii":"https://www.gutenberg.org/ebooks/5591.txt.utf-8","application/rdf+xml":"https://www.gutenberg.org/ebooks/5591.rdf","image/jpeg":"https://www.gutenberg.org/cache/epub/5591/pg5591.cover.medium.jpg","application/octet-stream":"https://www.gutenberg.org/cache/epub/5591/pg5591-h.zip"},"download_count":13},{"id":5750,"title":"St. George and St. Michael, Volume 1","authors":[{"name":"MacDonald, George","birth_year":1824,"death_year":1905}],"translators":[],"subjects":["Great Britain -- History -- Civil War, 1642-1649 -- Fiction"],"bookshelves":["Historical Fiction"],"languages":["en"],"copyright":false,"media_type":"Text","formats":{"text/html":"https://www.gutenberg.org/ebooks/5750.html.images","application/epub+zip":"https://www.gutenberg.org/ebooks/5750.epub3.images","application/x-mobipocket-ebook":"https://www.gutenberg.org/ebooks/5750.kf8.images","text/plain; charset=us-ascii":"https://www.gutenberg.org/ebooks/5750.txt.utf-8","application/rdf+xml":"https://www.gutenberg.org/ebooks/5750.rdf","image/jpeg":"https://www.gutenberg.org/cache/epub/5750/pg5750.cover.medium.jpg","application/octet-stream":"https://www.gutenberg.org/cache/epub/5750/pg5750-h.zip"},"download_count":13},{"id":5752,"title":"St. George and St. Michael, Volume 3","authors":[{"name":"MacDonald, George","birth_year":1824,"death_year":1905}],"translators":[],"subjects":["Great Britain -- History -- Civil War, 1642-1649 -- Fiction"],"bookshelves":[],"languages":["en"],"copyright":false,"media_type":"Text","formats":{"text/html":"https://www.gutenberg.org/ebooks/5752.html.images","application/epub+zip":"https://www.gutenberg.org/ebooks/5752.epub3.images","application/x-mobipocket-ebook":"https://www.gutenberg.org/ebooks/5752.kf8.images","text/plain; charset=us-ascii":"https://www.gutenberg.org/ebooks/5752.txt.utf-8","application/rdf+xml":"https://www.gutenberg.org/ebooks/5752.rdf","image/jpeg":"https://www.gutenberg.org/cache/epub/5752/pg5752.cover.medium.jpg","application/octet-stream":"https://www.gutenberg.org/cache/epub/5752/pg5752-h.zip"},"download_count":13},{"id":6035,"title":"The Triple Marriage","authors":[{"name":"Destouches, Néricault","birth_year":1680,"death_year":1754}],"translators":[{"name":"Morlock, Frank J.","birth_year":null,"death_year":null}],"subjects":["French drama (Comedy)","French drama -- Translations into English"],"bookshelves":[],"languages":["en"],"copyright":true,"media_type":"Text","formats":{"text/html":"https://www.gutenberg.org/ebooks/6035.html.images","application/epub+zip":"https://www.gutenberg.org/ebooks/6035.epub3.images","application/x-mobipocket-ebook":"https://www.gutenberg.org/ebooks/6035.kf8.images","text/plain; charset=us-ascii":"https://www.gutenberg.org/ebooks/6035.txt.utf-8","text/plain; charset=utf-8":"https://www.gutenberg.org/files/6035/6035-0.txt","application/rdf+xml":"https://www.gutenberg.org/ebooks/6035.rdf","image/jpeg":"https://www.gutenberg.org/cache/epub/6035/pg6035.cover.medium.jpg","application/octet-stream":"https://www.gutenberg.org/cache/epub/6035/pg6035-h.zip"},"download_count":13},{"id":6144,"title":"Report of Commemorative Services with the Sermons and Addresses at the Seabury Centenary, 1883-1885.","authors":[{"name":"Episcopal Church. Diocese of Connecticut","birth_year":null,"death_year":null}],"translators":[],"subjects":["Seabury, Samuel, 1729-1796"],"bookshelves":["Christianity"],"languages":["en"],"copyright":false,"media_type":"Text","formats":{"text/html":"https://www.gutenberg.org/ebooks/6144.html.images","application/epub+zip":"https://www.gutenberg.org/ebooks/6144.epub3.images","application/x-mobipocket-ebook":"https://www.gutenberg.org/ebooks/6144.kf8.images","text/plain; charset=us-ascii":"https://www.gutenberg.org/ebooks/6144.txt.utf-8","application/rdf+xml":"https://www.gutenberg.org/ebooks/6144.rdf","image/jpeg":"https://www.gutenberg.org/cache/epub/6144/pg6144.cover.medium.jpg","application/octet-stream":"https://www.gutenberg.org/cache/epub/6144/pg6144-h.zip"},"download_count":13},{"id":6178,"title":"Pierre and His People: Tales of the Far North. Volume 5.","authors":[{"name":"Parker, Gilbert","birth_year":1862,"death_year":1932}],"translators":[],"subjects":["Canada, Northern -- Fiction","Short stories, Canadian"],"bookshelves":[],"languages":["en"],"copyright":false,"media_type":"Text","formats":{"text/html":"https://www.gutenberg.org/ebooks/6178.html.images","application/epub+zip":"https://www.gutenberg.org/ebooks/6178.epub3.images","application/x-mobipocket-ebook":"https://www.gutenberg.org/ebooks/6178.kf8.images","text/plain; charset=us-ascii":"https://www.gutenberg.org/ebooks/6178.txt.utf-8","application/rdf+xml":"https://www.gutenberg.org/ebooks/6178.rdf","image/jpeg":"https://www.gutenberg.org/cache/epub/6178/pg6178.cover.medium.jpg","application/octet-stream":"https://www.gutenberg.org/cache/epub/6178/pg6178-h.zip"},"download_count":13},{"id":6182,"title":"A Romany of the Snows, vol. 3: Being a Continuation of the Personal Histories of \"Pierre and His People\" and the Last Existing Records of Pretty Pierre","authors":[{"name":"Parker, Gilbert","birth_year":1862,"death_year":1932}],"translators":[],"subjects":["Canada, Northern -- Fiction","Short stories, Canadian"],"bookshelves":[],"languages":["en"],"copyright":false,"media_type":"Text","formats":{"text/html":"https://www.gutenberg.org/ebooks/6182.html.images","application/epub+zip":"https://www.gutenberg.org/ebooks/6182.epub3.images","application/x-mobipocket-ebook":"https://www.gutenberg.org/ebooks/6182.kf8.images","text/plain; charset=us-ascii":"https://www.gutenberg.org/ebooks/6182.txt.utf-8","application/rdf+xml":"https://www.gutenberg.org/ebooks/6182.rdf","image/jpeg":"https://www.gutenberg.org/cache/epub/6182/pg6182.cover.medium.jpg","application/octet-stream":"https://www.gutenberg.org/cache/epub/6182/pg6182-h.zip"},"download_count":13},{"id":6188,"title":"Northern Lights, Volume 3.","authors":[{"name":"Parker, Gilbert","birth_year":1862,"death_year":1932}],"translators":[],"subjects":["Canada, Northern -- Fiction","Short stories, Canadian"],"bookshelves":[],"languages":["en"],"copyright":false,"media_type":"Text","formats":{"text/html":"https://www.gutenberg.org/ebooks/6188.html.images","application/epub+zip":"https://www.gutenberg.org/ebooks/6188.epub3.images","application/x-mobipocket-ebook":"https://www.gutenberg.org/ebooks/6188.kf8.images","text/plain; charset=us-ascii":"https://www.gutenberg.org/ebooks/6188.txt.utf-8","application/rdf+xml":"https://www.gutenberg.org/ebooks/6188.rdf","image/jpeg":"https://www.gutenberg.org/cache/epub/6188/pg6188.cover.medium.jpg","application/octet-stream":"https://www.gutenberg.org/cache/epub/6188/pg6188-h.zip"},"download_count":13},{"id":6199,"title":"Cumner's Son and Other South Sea Folk — Volume 05","authors":[{"name":"Parker, Gilbert","birth_year":1862,"death_year":1932}],"translators":[],"subjects":["Oceania -- Fiction"],"bookshelves":[],"languages":["en"],"copyright":false,"media_type":"Text","formats":{"text/html":"https://www.gutenberg.org/ebooks/6199.html.images","application/epub+zip":"https://www.gutenberg.org/ebooks/6199.epub3.images","application/x-mobipocket-ebook":"https://www.gutenberg.org/ebooks/6199.kf8.images","text/plain; charset=us-ascii":"https://www.gutenberg.org/ebooks/6199.txt.utf-8","application/rdf+xml":"https://www.gutenberg.org/ebooks/6199.rdf","image/jpeg":"https://www.gutenberg.org/cache/epub/6199/pg6199.cover.medium.jpg","application/octet-stream":"https://www.gutenberg.org/cache/epub/6199/pg6199-h.zip"},"download_count":13},{"id":6206,"title":"The Trail of the Sword, Volume 1","authors":[{"name":"Parker, Gilbert","birth_year":1862,"death_year":1932}],"translators":[],"subjects":["Canada -- History -- To 1763 (New France) -- Fiction"],"bookshelves":[],"languages":["en"],"copyright":false,"media_type":"Text","formats":{"application/rdf+xml":"https://www.gutenberg.org/ebooks/6206.rdf","text/html":"https://www.gutenberg.org/ebooks/6206.html.images","application/epub+zip":"https://www.gutenberg.org/ebooks/6206.epub3.images","application/x-mobipocket-ebook":"https://www.gutenberg.org/ebooks/6206.kf8.images","text/plain; charset=us-ascii":"https://www.gutenberg.org/ebooks/6206.txt.utf-8","image/jpeg":"https://www.gutenberg.org/cache/epub/6206/pg6206.cover.medium.jpg","application/octet-stream":"https://www.gutenberg.org/cache/epub/6206/pg6206-h.zip"},"download_count":13},{"id":6219,"title":"The Trespasser, Volume 1","authors":[{"name":"Parker, Gilbert","birth_year":1862,"death_year":1932}],"translators":[],"subjects":["Canadian fiction"],"bookshelves":[],"languages":["en"],"copyright":false,"media_type":"Text","formats":{"text/html":"https://www.gutenberg.org/ebooks/6219.html.images","application/epub+zip":"https://www.gutenberg.org/ebooks/6219.epub3.images","application/x-mobipocket-ebook":"https://www.gutenberg.org/ebooks/6219.kf8.images","text/plain; charset=us-ascii":"https://www.gutenberg.org/ebooks/6219.txt.utf-8","application/rdf+xml":"https://www.gutenberg.org/ebooks/6219.rdf","image/jpeg":"https://www.gutenberg.org/cache/epub/6219/pg6219.cover.medium.jpg","application/octet-stream":"https://www.gutenberg.org/cache/epub/6219/pg6219-h.zip"},"download_count":13},{"id":6239,"title":"The Lane That Had No Turning, Volume 3","authors":[{"name":"Parker, Gilbert","birth_year":1862,"death_year":1932}],"translators":[],"subjects":["Canadian fiction","Short stories"],"bookshelves":[],"languages":["en"],"copyright":false,"media_type":"Text","formats":{"text/html":"https://www.gutenberg.org/ebooks/6239.html.images","application/epub+zip":"https://www.gutenberg.org/ebooks/6239.epub3.images","application/x-mobipocket-ebook":"https://www.gutenberg.org/ebooks/6239.kf8.images","text/plain; charset=us-ascii":"https://www.gutenberg.org/ebooks/6239.txt.utf-8","application/rdf+xml":"https://www.gutenberg.org/ebooks/6239.rdf","image/jpeg":"https://www.gutenberg.org/cache/epub/6239/pg6239.cover.medium.jpg","application/octet-stream":"https://www.gutenberg.org/cache/epub/6239/pg6239-h.zip"},"download_count":13},{"id":6269,"title":"Embers, Volume 2.","authors":[{"name":"Parker, Gilbert","birth_year":1862,"death_year":1932}],"translators":[],"subjects":["Canadian poetry"],"bookshelves":[],"languages":["en"],"copyright":false,"media_type":"Text","formats":{"text/html":"https://www.gutenberg.org/ebooks/6269.html.images","application/epub+zip":"https://www.gutenberg.org/ebooks/6269.epub3.images","application/x-mobipocket-ebook":"https://www.gutenberg.org/ebooks/6269.kf8.images","text/plain; charset=us-ascii":"https://www.gutenberg.org/ebooks/6269.txt.utf-8","application/rdf+xml":"https://www.gutenberg.org/ebooks/6269.rdf","image/jpeg":"https://www.gutenberg.org/cache/epub/6269/pg6269.cover.medium.jpg","application/octet-stream":"https://www.gutenberg.org/cache/epub/6269/pg6269-h.zip"},"download_count":13},{"id":6283,"title":"The World for Sale, Volume 3.","authors":[{"name":"Parker, Gilbert","birth_year":1862,"death_year":1932}],"translators":[],"subjects":["Love stories","Northwest, Canadian -- Fiction"],"bookshelves":[],"languages":["en"],"copyright":false,"media_type":"Text","formats":{"text/html":"https://www.gutenberg.org/ebooks/6283.html.images","application/epub+zip":"https://www.gutenberg.org/ebooks/6283.epub3.images","application/x-mobipocket-ebook":"https://www.gutenberg.org/ebooks/6283.kf8.images","text/plain; charset=us-ascii":"https://www.gutenberg.org/ebooks/6283.txt.utf-8","application/rdf+xml":"https://www.gutenberg.org/ebooks/6283.rdf","image/jpeg":"https://www.gutenberg.org/cache/epub/6283/pg6283.cover.medium.jpg","application/octet-stream":"https://www.gutenberg.org/cache/epub/6283/pg6283-h.zip"},"download_count":13},{"id":6293,"title":"No Defense, Volume 2.","authors":[{"name":"Parker, Gilbert","birth_year":1862,"death_year":1932}],"translators":[],"subjects":["Fiction"],"bookshelves":[],"languages":["en"],"copyright":false,"media_type":"Text","formats":{"text/html":"https://www.gutenberg.org/ebooks/6293.html.images","application/epub+zip":"https://www.gutenberg.org/ebooks/6293.epub3.images","application/x-mobipocket-ebook":"https://www.gutenberg.org/ebooks/6293.kf8.images","text/plain; charset=us-ascii":"https://www.gutenberg.org/ebooks/6293.txt.utf-8","application/rdf+xml":"https://www.gutenberg.org/ebooks/6293.rdf","image/jpeg":"https://www.gutenberg.org/cache/epub/6293/pg6293.cover.medium.jpg","application/octet-stream":"https://www.gutenberg.org/cache/epub/6293/pg6293-h.zip"},"download_count":13},{"id":6297,"title":"Carnac's Folly, Volume 2.","authors":[{"name":"Parker, Gilbert","birth_year":1862,"death_year":1932}],"translators":[],"subjects":["Fiction"],"bookshelves":[],"languages":["en"],"copyright":false,"media_type":"Text","formats":{"text/html":"https://www.gutenberg.org/ebooks/6297.html.images","application/epub+zip":"https://www.gutenberg.org/ebooks/6297.epub3.images","application/x-mobipocket-ebook":"https://www.gutenberg.org/ebooks/6297.kf8.images","text/plain; charset=us-ascii":"https://www.gutenberg.org/ebooks/6297.txt.utf-8","application/rdf+xml":"https://www.gutenberg.org/ebooks/6297.rdf","image/jpeg":"https://www.gutenberg.org/cache/epub/6297/pg6297.cover.medium.jpg","application/octet-stream":"https://www.gutenberg.org/cache/epub/6297/pg6297-h.zip"},"download_count":13},{"id":6412,"title":"Nature's Serial Story","authors":[{"name":"Roe, Edward Payson","birth_year":1838,"death_year":1888}],"translators":[],"subjects":["Country life -- Fiction"],"bookshelves":[],"languages":["en"],"copyright":false,"media_type":"Text","formats":{"text/html":"https://www.gutenberg.org/ebooks/6412.html.images","application/epub+zip":"https://www.gutenberg.org/ebooks/6412.epub3.images","application/x-mobipocket-ebook":"https://www.gutenberg.org/ebooks/6412.kf8.images","text/plain; charset=us-ascii":"https://www.gutenberg.org/ebooks/6412.txt.utf-8","application/rdf+xml":"https://www.gutenberg.org/ebooks/6412.rdf","image/jpeg":"https://www.gutenberg.org/cache/epub/6412/pg6412.cover.medium.jpg","application/octet-stream":"https://www.gutenberg.org/cache/epub/6412/pg6412-h.zip"},"download_count":13},{"id":6730,"title":"Observations of a Retired Veteran","authors":[{"name":"Tinsley, Henry C.","birth_year":1834,"death_year":1902}],"translators":[],"subjects":["American essays -- 19th century"],"bookshelves":[],"languages":["en"],"copyright":false,"media_type":"Text","formats":{"text/html":"https://www.gutenberg.org/ebooks/6730.html.images","application/epub+zip":"https://www.gutenberg.org/ebooks/6730.epub3.images","application/x-mobipocket-ebook":"https://www.gutenberg.org/ebooks/6730.kf8.images","text/plain; charset=us-ascii":"https://www.gutenberg.org/ebooks/6730.txt.utf-8","application/rdf+xml":"https://www.gutenberg.org/ebooks/6730.rdf","image/jpeg":"https://www.gutenberg.org/cache/epub/6730/pg6730.cover.medium.jpg","application/octet-stream":"https://www.gutenberg.org/files/6730/6730.zip"},"download_count":13},{"id":6735,"title":"Over the Border: Acadia, the Home of \"Evangeline\"","authors":[{"name":"Chase, Eliza B. (Eliza Brown)","birth_year":null,"death_year":null}],"translators":[],"subjects":["Nova Scotia -- Description and travel"],"bookshelves":[],"languages":["en"],"copyright":false,"media_type":"Text","formats":{"text/html":"https://www.gutenberg.org/ebooks/6735.html.images","application/epub+zip":"https://www.gutenberg.org/ebooks/6735.epub3.images","application/x-mobipocket-ebook":"https://www.gutenberg.org/ebooks/6735.kf8.images","text/plain; charset=us-ascii":"https://www.gutenberg.org/ebooks/6735.txt.utf-8","text/plain; charset=iso-8859-1":"https://www.gutenberg.org/files/6735/6735.txt","application/rdf+xml":"https://www.gutenberg.org/ebooks/6735.rdf","image/jpeg":"https://www.gutenberg.org/cache/epub/6735/pg6735.cover.medium.jpg","application/octet-stream":"https://www.gutenberg.org/cache/epub/6735/pg6735-h.zip"},"download_count":13}]}