{"count":58808,"next":"http://129.241.150.113:8000/books/?languages=en&page=1332","previous":"http://129.241.150.113:8000/books/?languages=en&page=1330","results":[{"id":66792,"title":"Great leaders: Historic portraits from the great historians","authors":[],"translators":[],"subjects":["Biography"],"bookshelves":[],"languages":["en"],"copyright":false,"media_type":"Text","formats":{"text/html":"https://www.gutenberg.org/ebooks/66792.html.images","application/epub+zip":"https://www.gutenberg.org/ebooks/66792.epub3.images","application/x-mobipocket-ebook":"https://www.gutenberg.org/ebooks/66792.kf8.images","text/plain; charset=us-ascii":"https://www.gutenberg.org/ebooks/66792.txt.utf-8","application/rdf+xml":"https://www.gutenberg.org/ebooks/66792.rdf","image/jpeg":"https://www.gutenberg.org/cache/epub/66792/pg66792.cover.medium.jpg","application/octet-stream":"https://www.gutenberg.org/files/66792/66792-0.zip"},"download_count":28},{"id":66833,"title":"Stepping Westward","authors":[{"name":"Francis, M. E.","birth_year":null,"death_year":1930}],"translators":[],"subjects":["Country life -- Fiction","Dorset (England) -- Fiction","Lancashire (England) -- Fiction","Short stories"],"bookshelves":[],"languages":["en"],"copyright":false,"media_type":"Text","formats":{"text/html":"https://www.gutenberg.org/ebooks/66833.html.images","application/epub+zip":"https://www.gutenberg.org/ebooks/66833.epub3.images","application/x-mobipocket-ebook":"https://www.gutenberg.org/ebooks/66833.kf8.images","text/plain; charset=us-ascii":"https://www.gutenberg.org/ebooks/66833.txt.utf-8","application/rdf+xml":"https://www.gutenberg.org/ebooks/66833.rdf","image/jpeg":"https://www.gutenberg.org/cache/epub/66833/pg66833.cover.medium.jpg","application/octet-stream":"https://www.gutenberg.org/files/66833/66833-0.zip"},"download_count":28},{"id":66860,"title":"My Diary: North and South (vol. 1 of 2)","authors":[{"name":"Russell, William Howard, Sir","birth_year":1820,"death_year":1907}],"translators":[],"subjects":["Confederate States of America -- Description and travel","Russell, William Howard, Sir, 1820-1907 -- Diaries","Russell, William Howard, Sir, 1820-1907 -- Travel -- United States","United States -- Description and travel","United States -- History -- Civil War, 1861-1865 -- Personal narratives"],"bookshelves":[],"languages":["en"],"copyright":false,"media_type":"Text","formats":{"text/html":"https://www.gutenberg.org/ebooks/66860.html.images","application/epub+zip":"https://www.gutenberg.org/ebooks/66860.epub3.images","application/x-mobipocket-ebook":"https://www.gutenberg.org/ebooks/66860.kf8.images","text/plain; charset=us-ascii":"https://www.gutenberg.org/ebooks/66860.txt.utf-8","application/rdf+xml":"https://www.gutenberg.org/ebooks/66860.rdf","image/jpeg":"https://www.gutenberg.org/cache/epub/66860/pg66860.cover.medium.jpg","application/octet-stream":"https://www.gutenberg.org/files/66860/66860-0.zip"},"download_count":28},{"id":66861,"title":"History for ready reference, Volume 2, El Dorado to Greaves","authors":[{"name":"Larned, J. N. (Josephus Nelson)","birth_year":1836,"death_year":1913}],"translators":[],"subjects":["History -- Dictionaries"],"bookshelves":[],"languages":["en"],"copyright":false,"media_type":"Text","formats":{"text/html":"https://www.gutenberg.org/ebooks/66861.html.images","application/epub+zip":"https://www.gutenberg.org/ebooks/66861.epub3.images","application/x-mobipocket-ebook":"https://www.gutenberg.org/ebooks/66861.kf8.images","text/plain; charset=us-ascii":"https://www.gutenberg.org/ebooks/66861.txt.utf-8","application/rdf+xml":"https://www.gutenberg.org/ebooks/66861.rdf","image/jpeg":"https://www.gutenberg.org/cache/epub/66861/pg66861.cover.medium.jpg","application/octet-stream":"https://www.gutenberg.org/files/66861/66861-0.zip"},"download_count":28},{"id":66974,"title":"Virginia's Ranch Neighbors","authors":[{"name":"North, Grace May","birth_year":1876,"death_year":1960}],"translators":[],"subjects":["Arizona -- Juvenile fiction","Girls -- Juvenile fiction","Mystery fiction","Ranch life -- Juvenile fiction","Vacations -- Juvenile fiction"],"bookshelves":[],"languages":["en"],"copyright":false,"media_type":"Text","formats":{"text/html":"https://www.gutenberg.org/ebooks/66974.html.images","application/epub+zip":"https://www.gutenberg.org/ebooks/66974.epub3.images","application/x-mobipocket-ebook":"https://www.gutenberg.org/ebooks/66974.kf8.images","text/plain; charset=us-ascii":"https://www.gutenberg.org/ebooks/66974.txt.utf-8","application/rdf+xml":"https://www.gutenberg.org/ebooks/66974.rdf","image/jpeg":"https://www.gutenberg.org/cache/epub/66974/pg66974.cover.medium.jpg","application/octet-stream":"https://www.gutenberg.org/files/66974/66974-0.zip"},"download_count":28},{"id":67064,"title":"The Character and Happiness of Them That Die in the Lord: A sermon, preached Oct. 13, 1822, in Park Chapel, Chelsea, on occasion of the death of the late Rev. John Owen","authors":[{"name":"Dealtry, William","birth_year":1775,"death_year":1847}],"translators":[],"subjects":["Christian life -- Sermons","Church of England -- Sermons","Death -- Religious aspects -- Christianity -- Sermons","Owen, John, 1766-1822","Sermons, English -- 19th century"],"bookshelves":[],"languages":["en"],"copyright":false,"media_type":"Text","formats":{"text/html":"https://www.gutenberg.org/ebooks/67064.html.images","application/epub+zip":"https://www.gutenberg.org/ebooks/67064.epub3.images","application/x-mobipocket-ebook":"https://www.gutenberg.org/ebooks/67064.kf8.images","text/plain; charset=us-ascii":"https://www.gutenberg.org/ebooks/67064.txt.utf-8","application/rdf+xml":"https://www.gutenberg.org/ebooks/67064.rdf","image/jpeg":"https://www.gutenberg.org/cache/epub/67064/pg67064.cover.medium.jpg","application/octet-stream":"https://www.gutenberg.org/files/67064/67064-0.zip"},"download_count":28},{"id":67087,"title":"Mopsa the Fairy","authors":[{"name":"Ingelow, Jean","birth_year":1820,"death_year":1897}],"translators":[],"subjects":["Children -- Conduct of life -- Juvenile fiction","Conduct of life -- Juvenile fiction","Courts and courtiers -- Juvenile fiction","Fairies -- Juvenile fiction","Fairy tales","Fairyland (Imaginary place) -- Juvenile fiction","Magic -- Juvenile fiction","Queens -- Juvenile fiction","Voyages and travels -- Juvenile fiction"],"bookshelves":[],"languages":["en"],"copyright":false,"media_type":"Text","formats":{"text/html":"https://www.gutenberg.org/ebooks/67087.html.images","application/epub+zip":"https://www.gutenberg.org/ebooks/67087.epub3.images","application/x-mobipocket-ebook":"https://www.gutenberg.org/ebooks/67087.kf8.images","text/plain; charset=us-ascii":"https://www.gutenberg.org/ebooks/67087.txt.utf-8","application/rdf+xml":"https://www.gutenberg.org/ebooks/67087.rdf","image/jpeg":"https://www.gutenberg.org/cache/epub/67087/pg67087.cover.medium.jpg","application/octet-stream":"https://www.gutenberg.org/files/67087/67087-0.zip"},"download_count":28},{"id":67108,"title":"Hints on the History and Management of the Honey Bee: Being the Substance of Two Lectures Read Before the Members of the Hereford Literary, Philosophical, and Antiquarian Institution, in the Winter of 1850-51","authors":[{"name":"Bevan, Edward","birth_year":1770,"death_year":1860}],"translators":[],"subjects":["Bee culture","Bees"],"bookshelves":[],"languages":["en"],"copyright":false,"media_type":"Text","formats":{"text/html":"https://www.gutenberg.org/ebooks/67108.html.images","application/epub+zip":"https://www.gutenberg.org/ebooks/67108.epub3.images","application/x-mobipocket-ebook":"https://www.gutenberg.org/ebooks/67108.kf8.images","text/plain; charset=us-ascii":"https://www.gutenberg.org/ebooks/67108.txt.utf-8","application/rdf+xml":"https://www.gutenberg.org/ebooks/67108.rdf","image/jpeg":"https://www.gutenberg.org/cache/epub/67108/pg67108.cover.medium.jpg","application/octet-stream":"https://www.gutenberg.org/files/67108/67108-0.zip"},"download_count":28},{"id":67109,"title":"Practical House, Wagon and Automobile Painter: including sign painting, and valuable hints and recipes","authors":[{"name":"White, W. F.","birth_year":null,"death_year":null}],"translators":[],"subjects":["Alphabets","House painting","Painting, Industrial","Sign painting"],"bookshelves":[],"languages":["en"],"copyright":false,"media_type":"Text","formats":{"text/html":"https://www.gutenberg.org/ebooks/67109.html.images","application/epub+zip":"https://www.gutenberg.org/ebooks/67109.epub3.images","application/x-mobipocket-ebook":"https://www.gutenberg.org/ebooks/67109.kf8.images","text/plain; charset=us-ascii":"https://www.gutenberg.org/ebooks/67109.txt.utf-8","application/rdf+xml":"https://www.gutenberg.org/ebooks/67109.rdf","image/jpeg":"https://www.gutenberg.org/cache/epub/67109/pg67109.cover.medium.jpg","application/octet-stream":"https://www.gutenberg.org/files/67109/67109-0.zip"},"download_count":28},{"id":67169,"title":"The Rival Trappers: or, Old Pegs, The Mountaineer","authors":[{"name":"Aiken, Albert W.","birth_year":1846,"death_year":1894}],"translators":[],"subjects":["Dime novels","Frontier and pioneer life -- Fiction","Trappers -- Fiction"],"bookshelves":[],"languages":["en"],"copyright":false,"media_type":"Text","formats":{"text/html":"https://www.gutenberg.org/ebooks/67169.html.images","application/epub+zip":"https://www.gutenberg.org/ebooks/67169.epub3.images","application/x-mobipocket-ebook":"https://www.gutenberg.org/ebooks/67169.kf8.images","text/plain; charset=us-ascii":"https://www.gutenberg.org/ebooks/67169.txt.utf-8","application/rdf+xml":"https://www.gutenberg.org/ebooks/67169.rdf","image/jpeg":"https://www.gutenberg.org/cache/epub/67169/pg67169.cover.medium.jpg","application/octet-stream":"https://www.gutenberg.org/files/67169/67169-0.zip"},"download_count":28},{"id":67218,"title":"The Conscript Mother","authors":[{"name":"Herrick, Robert","birth_year":1868,"death_year":1938}],"translators":[],"subjects":["World War, 1914-1918 -- Fiction"],"bookshelves":[],"languages":["en"],"copyright":false,"media_type":"Text","formats":{"text/html":"https://www.gutenberg.org/ebooks/67218.html.images","application/epub+zip":"https://www.gutenberg.org/ebooks/67218.epub3.images","application/x-mobipocket-ebook":"https://www.gutenberg.org/ebooks/67218.kf8.images","text/plain; charset=us-ascii":"https://www.gutenberg.org/ebooks/67218.txt.utf-8","application/rdf+xml":"https://www.gutenberg.org/ebooks/67218.rdf","image/jpeg":"https://www.gutenberg.org/cache/epub/67218/pg67218.cover.medium.jpg","application/octet-stream":"https://www.gutenberg.org/files/67218/67218-0.zip"},"download_count":28},{"id":67306,"title":"The Laughter of Slim Malone","authors":[{"name":"Brand, Max","birth_year":1892,"death_year":1944}],"translators":[],"subjects":["Outlaws -- Fiction","Short stories","Western stories"],"bookshelves":[],"languages":["en"],"copyright":false,"media_type":"Text","formats":{"text/html":"https://www.gutenberg.org/ebooks/67306.html.images","application/epub+zip":"https://www.gutenberg.org/ebooks/67306.epub3.images","application/x-mobipocket-ebook":"https://www.gutenberg.org/ebooks/67306.kf8.images","text/plain; charset=us-ascii":"https://www.gutenberg.org/ebooks/67306.txt.utf-8","application/rdf+xml":"https://www.gutenberg.org/ebooks/67306.rdf","image/jpeg":"https://www.gutenberg.org/cache/epub/67306/pg67306.cover.medium.jpg","application/octet-stream":"https://www.gutenberg.org/files/67306/67306-0.zip"},"download_count":28},{"id":67329,"title":"Charles Robert Maturin: His Life and Works","authors":[{"name":"Idman, Niilo","birth_year":1889,"death_year":1977}],"translators":[],"subjects":["Maturin, Charles Robert, 1780-1824"],"bookshelves":[],"languages":["en"],"copyright":false,"media_type":"Text","formats":{"text/html":"https://www.gutenberg.org/ebooks/67329.html.images","application/epub+zip":"https://www.gutenberg.org/ebooks/67329.epub3.images","application/x-mobipocket-ebook":"https://www.gutenberg.org/ebooks/67329.kf8.images","text/plain; charset=us-ascii":"https://www.gutenberg.org/ebooks/67329.txt.utf-8","application/rdf+xml":"https://www.gutenberg.org/ebooks/67329.rdf","image/jpeg":"https://www.gutenberg.org/cache/epub/67329/pg67329.cover.medium.jpg","application/octet-stream":"https://www.gutenberg.org/files/67329/67329-0.zip"},"download_count":28},{"id":67346,"title":"The Meccas of the World: The Play of Modern Life in New York, Paris, Vienna, Madrid and London","authors":[{"name":"Cranston, Ruth","birth_year":1887,"death_year":1956}],"translators":[],"subjects":["London (England) -- Social life and customs","Madrid (Spain) -- Social life and customs","New York (N.Y.) -- Social life and customs","Paris (France) -- Social life and customs","Vienna (Austria) -- Social life and customs"],"bookshelves":[],"languages":["en"],"copyright":false,"media_type":"Text","formats":{"text/html":"https://www.gutenberg.org/ebooks/67346.html.images","application/epub+zip":"https://www.gutenberg.org/ebooks/67346.epub3.images","application/x-mobipocket-ebook":"https://www.gutenberg.org/ebooks/67346.kf8.images","text/plain; charset=us-ascii":"https://www.gutenberg.org/ebooks/67346.txt.utf-8","application/rdf+xml":"https://www.gutenberg.org/ebooks/67346.rdf","image/jpeg":"https://www.gutenberg.org/cache/epub/67346/pg67346.cover.medium.jpg","application/octet-stream":"https://www.gutenberg.org/files/67346/67346-0.zip"},"download_count":28},{"id":67461,"title":"The Sin of Monsieur Antoine, Volume 2 (of 2) and Leone Leoni","authors":[{"name":"Sand, George","birth_year":1804,"death_year":1876}],"translators":[{"name":"Ives, George Burnham","birth_year":1856,"death_year":1930}],"subjects":["French fiction -- 19th century"],"bookshelves":[],"languages":["en"],"copyright":false,"media_type":"Text","formats":{"text/html":"https://www.gutenberg.org/ebooks/67461.html.images","application/epub+zip":"https://www.gutenberg.org/ebooks/67461.epub3.images","application/x-mobipocket-ebook":"https://www.gutenberg.org/ebooks/67461.kf8.images","text/plain; charset=us-ascii":"https://www.gutenberg.org/ebooks/67461.txt.utf-8","application/rdf+xml":"https://www.gutenberg.org/ebooks/67461.rdf","image/jpeg":"https://www.gutenberg.org/cache/epub/67461/pg67461.cover.medium.jpg","application/octet-stream":"https://www.gutenberg.org/files/67461/67461-0.zip"},"download_count":28},{"id":67483,"title":"The Life and Work of William Tindale","authors":[{"name":"Cooper, William Barrett","birth_year":1857,"death_year":null}],"translators":[],"subjects":["Clergy -- England -- Biography","Tyndale, William, -1536"],"bookshelves":[],"languages":["en"],"copyright":false,"media_type":"Text","formats":{"text/html":"https://www.gutenberg.org/ebooks/67483.html.images","application/epub+zip":"https://www.gutenberg.org/ebooks/67483.epub3.images","application/x-mobipocket-ebook":"https://www.gutenberg.org/ebooks/67483.kf8.images","text/plain; charset=us-ascii":"https://www.gutenberg.org/ebooks/67483.txt.utf-8","application/rdf+xml":"https://www.gutenberg.org/ebooks/67483.rdf","image/jpeg":"https://www.gutenberg.org/cache/epub/67483/pg67483.cover.medium.jpg","application/octet-stream":"https://www.gutenberg.org/files/67483/67483-0.zip"},"download_count":28},{"id":67519,"title":"Bigfoot Joe, and Others: Figments of Fancy","authors":[{"name":"Bedford-Jones, H. (Henry)","birth_year":1887,"death_year":1949}],"translators":[],"subjects":["American literature"],"bookshelves":[],"languages":["en"],"copyright":false,"media_type":"Text","formats":{"text/html":"https://www.gutenberg.org/ebooks/67519.html.images","application/epub+zip":"https://www.gutenberg.org/ebooks/67519.epub3.images","application/x-mobipocket-ebook":"https://www.gutenberg.org/ebooks/67519.kf8.images","text/plain; charset=us-ascii":"https://www.gutenberg.org/ebooks/67519.txt.utf-8","application/rdf+xml":"https://www.gutenberg.org/ebooks/67519.rdf","image/jpeg":"https://www.gutenberg.org/cache/epub/67519/pg67519.cover.medium.jpg","application/octet-stream":"https://www.gutenberg.org/files/67519/67519-0.zip"},"download_count":28},{"id":67553,"title":"Etiquette for Little Folks","authors":[{"name":"Mackarness, Henry S., Mrs.","birth_year":1826,"death_year":1881}],"translators":[],"subjects":["Etiquette for children and teenagers -- Juvenile literature"],"bookshelves":[],"languages":["en"],"copyright":false,"media_type":"Text","formats":{"text/html":"https://www.gutenberg.org/ebooks/67553.html.images","application/epub+zip":"https://www.gutenberg.org/ebooks/67553.epub3.images","application/x-mobipocket-ebook":"https://www.gutenberg.org/ebooks/67553.kf8.images","text/plain; charset=us-ascii":"https://www.gutenberg.org/ebooks/67553.txt.utf-8","application/rdf+xml":"https://www.gutenberg.org/ebooks/67553.rdf","image/jpeg":"https://www.gutenberg.org/cache/epub/67553/pg67553.cover.medium.jpg","application/octet-stream":"https://www.gutenberg.org/files/67553/67553-0.zip"},"download_count":28},{"id":67580,"title":"Under the Skin","authors":[{"name":"Perri, Leslie","birth_year":1920,"death_year":1970}],"translators":[],"subjects":["Human-alien encounters -- Fiction","Journalists -- Fiction","Man-woman relationships -- Fiction","Mars (Planet) -- Fiction","Martians -- Fiction","Science fiction"],"bookshelves":[],"languages":["en"],"copyright":false,"media_type":"Text","formats":{"text/html":"https://www.gutenberg.org/ebooks/67580.html.images","application/epub+zip":"https://www.gutenberg.org/ebooks/67580.epub3.images","application/x-mobipocket-ebook":"https://www.gutenberg.org/ebooks/67580.kf8.images","text/plain; charset=us-ascii":"https://www.gutenberg.org/ebooks/67580.txt.utf-8","application/rdf+xml":"https://www.gutenberg.org/ebooks/67580.rdf","image/jpeg":"https://www.gutenberg.org/cache/epub/67580/pg67580.cover.medium.jpg","application/octet-stream":"https://www.gutenberg.org/files/67580/67580-0.zip"},"download_count":28},{"id":67654,"title":"The Rambler Club's Gold Mine","authors":[{"name":"Sheppard, W. Crispin (William Crispin)","birth_year":1871,"death_year":null}],"translators":[],"subjects":["Adventure stories","Boys -- Societies and clubs -- Juvenile fiction","Gold mines and mining -- Juvenile fiction","Washington (State) -- Juvenile fiction"],"bookshelves":[],"languages":["en"],"copyright":false,"media_type":"Text","formats":{"text/html":"https://www.gutenberg.org/ebooks/67654.html.images","application/epub+zip":"https://www.gutenberg.org/ebooks/67654.epub3.images","application/x-mobipocket-ebook":"https://www.gutenberg.org/ebooks/67654.kf8.images","text/plain; charset=us-ascii":"https://www.gutenberg.org/ebooks/67654.txt.utf-8","application/rdf+xml":"https://www.gutenberg.org/ebooks/67654.rdf","image/jpeg":"https://www.gutenberg.org/cache/epub/67654/pg67654.cover.medium.jpg","application/octet-stream":"https://www.gutenberg.org/files/67654/67654-0.zip"},"download_count":28},{"id":67733,"title":"A Girton Girl","authors":[{"name":"Edwards, Annie","birth_year":null,"death_year":1896}],"translators":[],"subjects":["Girton College (University of Cambridge) -- Fiction","Women college students -- Fiction"],"bookshelves":[],"languages":["en"],"copyright":false,"media_type":"Text","formats":{"text/html":"https://www.gutenberg.org/ebooks/67733.html.images","application/epub+zip":"https://www.gutenberg.org/ebooks/67733.epub3.images","application/x-mobipocket-ebook":"https://www.gutenberg.org/ebooks/67733.kf8.images","text/plain; charset=us-ascii":"https://www.gutenberg.org/ebooks/67733.txt.utf-8","application/rdf+xml":"https://www.gutenberg.org/ebooks/67733.rdf","image/jpeg":"https://www.gutenberg.org/cache/epub/67733/pg67733.cover.medium.jpg","application/octet-stream":"https://www.gutenberg.org/files/67733/67733-0.zip"},"download_count":28},{"id":67735,"title":"The North Shore Mystery","authors":[{"name":"Fletcher, Henry","birth_year":1856,"death_year":1932}],"translators":[],"subjects":["Australia -- Fiction","Detective and mystery stories","Murder -- Investigation -- Fiction","Sydney (N.S.W.) -- Fiction"],"bookshelves":[],"languages":["en"],"copyright":false,"media_type":"Text","formats":{"text/html":"https://www.gutenberg.org/ebooks/67735.html.images","application/epub+zip":"https://www.gutenberg.org/ebooks/67735.epub3.images","application/x-mobipocket-ebook":"https://www.gutenberg.org/ebooks/67735.kf8.images","text/plain; charset=us-ascii":"https://www.gutenberg.org/ebooks/67735.txt.utf-8","application/rdf+xml":"https://www.gutenberg.org/ebooks/67735.rdf","image/jpeg":"https://www.gutenberg.org/cache/epub/67735/pg67735.cover.medium.jpg","application/octet-stream":"https://www.gutenberg.org/files/67735/67735-0.zip"},"download_count":28},{"id":67739,"title":"The Evolution of Marriage and of the Family","authors":[{"name":"Letourneau, Ch. (Charles)","birth_year":1831,"death_year":1902}],"translators":[],"subjects":["Families","Marriage"],"bookshelves":[],"languages":["en"],"copyright":false,"media_type":"Text","formats":{"text/html":"https://www.gutenberg.org/ebooks/67739.html.images","application/epub+zip":"https://www.gutenberg.org/ebooks/67739.epub3.images","application/x-mobipocket-ebook":"https://www.gutenberg.org/ebooks/67739.kf8.images","text/plain; charset=us-ascii":"https://www.gutenberg.org/ebooks/67739.txt.utf-8","application/rdf+xml":"https://www.gutenberg.org/ebooks/67739.rdf","image/jpeg":"https://www.gutenberg.org/cache/epub/67739/pg67739.cover.medium.jpg","application/octet-stream":"https://www.gutenberg.org/files/67739/67739-0.zip"},"download_count":28},{"id":67879,"title":"Mayan Nomenclature","authors":[{"name":"Bowditch, Charles P. (Charles Pickering)","birth_year":1842,"death_year":1921}],"translators":[],"subjects":["Maya calendar"],"bookshelves":[],"languages":["en"],"copyright":false,"media_type":"Text","formats":{"text/html":"https://www.gutenberg.org/ebooks/67879.html.images","application/epub+zip":"https://www.gutenberg.org/ebooks/67879.epub3.images","application/x-mobipocket-ebook":"https://www.gutenberg.org/ebooks/67879.kf8.images","text/plain; charset=us-ascii":"https://www.gutenberg.org/ebooks/67879.txt.utf-8","application/rdf+xml":"https://www.gutenberg.org/ebooks/67879.rdf","image/jpeg":"https://www.gutenberg.org/cache/epub/67879/pg67879.cover.medium.jpg","application/octet-stream":"https://www.gutenberg.org/files/67879/67879-0.zip"},"download_count":28},{"id":67989,"title":"The Rambler Club Afloat","authors":[{"name":"Sheppard, W. Crispin (William Crispin)","birth_year":1871,"death_year":null}],"translators":[],"subjects":["Adventure stories","Boats and boating -- Juvenile fiction","Boys -- Societies and clubs -- Juvenile fiction","Mystery fiction"],"bookshelves":[],"languages":["en"],"copyright":false,"media_type":"Text","formats":{"text/html":"https://www.gutenberg.org/ebooks/67989.html.images","application/epub+zip":"https://www.gutenberg.org/ebooks/67989.epub3.images","application/x-mobipocket-ebook":"https://www.gutenberg.org/ebooks/67989.kf8.images","text/plain; charset=us-ascii":"https://www.gutenberg.org/ebooks/67989.txt.utf-8","application/rdf+xml":"https://www.gutenberg.org/ebooks/67989.rdf","image/jpeg":"https://www.gutenberg.org/cache/epub/67989/pg67989.cover.medium.jpg","application/octet-stream":"https://www.gutenberg.org/files/67989/67989-0.zip"},"download_count":28},{"id":68018,"title":"The Peak in Darien, With Some Other Inquiries Touching Concerns of the Soul and the Body: An Octave of Essays","authors":[{"name":"Cobbe, Frances Power","birth_year":1822,"death_year":1904}],"translators":[],"subjects":["Christianity","Death -- Religious aspects -- Christianity","Medicine -- Religious aspects -- Christianity","Women in Christianity"],"bookshelves":[],"languages":["en"],"copyright":false,"media_type":"Text","formats":{"text/html":"https://www.gutenberg.org/ebooks/68018.html.images","application/epub+zip":"https://www.gutenberg.org/ebooks/68018.epub3.images","application/x-mobipocket-ebook":"https://www.gutenberg.org/ebooks/68018.kf8.images","text/plain; charset=us-ascii":"https://www.gutenberg.org/ebooks/68018.txt.utf-8","application/rdf+xml":"https://www.gutenberg.org/ebooks/68018.rdf","image/jpeg":"https://www.gutenberg.org/cache/epub/68018/pg68018.cover.medium.jpg","application/octet-stream":"https://www.gutenberg.org/files/68018/68018-0.zip"},"download_count":28},{"id":68075,"title":"The Lenni Lenape, or Delaware Indians","authors":[{"name":"Walker, Edwin Robert","birth_year":1862,"death_year":1932}],"translators":[],"subjects":["Delaware Indians"],"bookshelves":[],"languages":["en"],"copyright":false,"media_type":"Text","formats":{"text/html":"https://www.gutenberg.org/ebooks/68075.html.images","application/epub+zip":"https://www.gutenberg.org/ebooks/68075.epub3.images","application/x-mobipocket-ebook":"https://www.gutenberg.org/ebooks/68075.kf8.images","text/plain; charset=us-ascii":"https://www.gutenberg.org/ebooks/68075.txt.utf-8","application/rdf+xml":"https://www.gutenberg.org/ebooks/68075.rdf","image/jpeg":"https://www.gutenberg.org/cache/epub/68075/pg68075.cover.medium.jpg","application/octet-stream":"https://www.gutenberg.org/files/68075/68075-0.zip"},"download_count":28},{"id":68128,"title":"Memorials of Old Dorset","authors":[],"translators":[],"subjects":["Dorset (England) -- Antiquities","Dorset (England) -- History"],"bookshelves":[],"languages":["en"],"copyright":false,"media_type":"Text","formats":{"text/html":"https://www.gutenberg.org/ebooks/68128.html.images","application/epub+zip":"https://www.gutenberg.org/ebooks/68128.epub3.images","application/x-mobipocket-ebook":"https://www.gutenberg.org/ebooks/68128.kf8.images","text/plain; charset=us-ascii":"https://www.gutenberg.org/ebooks/68128.txt.utf-8","application/rdf+xml":"https://www.gutenberg.org/ebooks/68128.rdf","image/jpeg":"https://www.gutenberg.org/cache/epub/68128/pg68128.cover.medium.jpg","application/octet-stream":"https://www.gutenberg.org/files/68128/68128-0.zip"},"download_count":28},{"id":68129,"title":"Carlyle's laugh, and other surprises","authors":[{"name":"Higginson, Thomas Wentworth","birth_year":1823,"death_year":1911}],"translators":[],"subjects":["American literature -- History and criticism","Authors, American"],"bookshelves":[],"languages":["en"],"copyright":false,"media_type":"Text","formats":{"text/html":"https://www.gutenberg.org/ebooks/68129.html.images","application/epub+zip":"https://www.gutenberg.org/ebooks/68129.epub3.images","application/x-mobipocket-ebook":"https://www.gutenberg.org/ebooks/68129.kf8.images","text/plain; charset=us-ascii":"https://www.gutenberg.org/ebooks/68129.txt.utf-8","application/rdf+xml":"https://www.gutenberg.org/ebooks/68129.rdf","image/jpeg":"https://www.gutenberg.org/cache/epub/68129/pg68129.cover.medium.jpg","application/octet-stream":"https://www.gutenberg.org/files/68129/68129-0.zip"},"download_count":28},{"id":68133,"title":"The history of the proceedings in the case of Margaret, commonly called Peg, only lawful sister to John Bull, Esq.","authors":[{"name":"Ferguson, Adam","birth_year":1723,"death_year":1816}],"translators":[],"subjects":["England -- Foreign relations -- Scotland -- Humor","Great Britain -- Politics and government -- 18th century -- Humor","Scotland -- Foreign relations -- England -- Humor"],"bookshelves":[],"languages":["en"],"copyright":false,"media_type":"Text","formats":{"text/html":"https://www.gutenberg.org/ebooks/68133.html.images","application/epub+zip":"https://www.gutenberg.org/ebooks/68133.epub3.images","application/x-mobipocket-ebook":"https://www.gutenberg.org/ebooks/68133.kf8.images","text/plain; charset=us-ascii":"https://www.gutenberg.org/ebooks/68133.txt.utf-8","application/rdf+xml":"https://www.gutenberg.org/ebooks/68133.rdf","image/jpeg":"https://www.gutenberg.org/cache/epub/68133/pg68133.cover.medium.jpg","application/octet-stream":"https://www.gutenberg.org/files/68133/68133-0.zip"},"download_count":28},{"id":68179,"title":"The triumph over Midian","authors":[{"name":"A. L. O. E.","birth_year":1821,"death_year":1893}],"translators":[],"subjects":["Children -- Conduct of life -- Juvenile fiction","Christian life -- Juvenile fiction","Clergy -- Juvenile fiction","Conduct of life -- Juvenile fiction","Death -- Juvenile fiction","Faith -- Juvenile fiction","Gideon (Biblical judge) -- Juvenile fiction","Good and evil -- Juvenile fiction","Jews -- Juvenile fiction","Midianites -- Juvenile fiction","Obedience -- Juvenile fiction"],"bookshelves":[],"languages":["en"],"copyright":false,"media_type":"Text","formats":{"text/html":"https://www.gutenberg.org/ebooks/68179.html.images","application/epub+zip":"https://www.gutenberg.org/ebooks/68179.epub3.images","application/x-mobipocket-ebook":"https://www.gutenberg.org/ebooks/68179.kf8.images","text/plain; charset=us-ascii":"https://www.gutenberg.org/ebooks/68179.txt.utf-8","application/rdf+xml":"https://www.gutenberg.org/ebooks/68179.rdf","image/jpeg":"https://www.gutenberg.org/cache/epub/68179/pg68179.cover.medium.jpg","application/octet-stream":"https://www.gutenberg.org/files/68179/68179-0.zip"},"download_count":28},{"id":68198,"title":"Forest Friends","authors":[{"name":"Dixon, Royal","birth_year":1885,"death_year":1962}],"translators":[],"subjects":["Animals -- Juvenile fiction"],"bookshelves":[],"languages":["en"],"copyright":false,"media_type":"Text","formats":{"text/html":"https://www.gutenberg.org/ebooks/68198.html.images","application/epub+zip":"https://www.gutenberg.org/ebooks/68198.epub3.images","application/x-mobipocket-ebook":"https://www.gutenberg.org/ebooks/68198.kf8.images","text/plain; charset=us-ascii":"https://www.gutenberg.org/ebooks/68198.txt.utf-8","application/rdf+xml":"https://www.gutenberg.org/ebooks/68198.rdf","image/jpeg":"https://www.gutenberg.org/cache/epub/68198/pg68198.cover.medium.jpg","application/octet-stream":"https://www.gutenberg.org/files/68198/68198-0.zip"},"download_count":28}]}