{"count":58808,"next":"http://129.241.150.113:8000/books/?languages=en&page=953","previous":"http://129.241.150.113:8000/books/?languages=en&page=951","results":[{"id":66942,"title":"The Building in Japan","authors":[{"name":"Takagi, Teijiro","birth_year":null,"death_year":null}],"translators":[],"subjects":["Architecture, Domestic -- Japan","Dwellings -- Japan -- Design and construction"],"bookshelves":[],"languages":["en"],"copyright":false,"media_type":"Text","formats":{"text/html":"https://www.gutenberg.org/ebooks/66942.html.images","application/epub+zip":"https://www.gutenberg.org/ebooks/66942.epub3.images","application/x-mobipocket-ebook":"https://www.gutenberg.org/ebooks/66942.kf8.images","text/plain; charset=us-ascii":"https://www.gutenberg.org/ebooks/66942.txt.utf-8","application/rdf+xml":"https://www.gutenberg.org/ebooks/66942.rdf","image/jpeg":"https://www.gutenberg.org/cache/epub/66942/pg66942.cover.medium.jpg","application/octet-stream":"https://www.gutenberg.org/files/66942/66942-0.zip"},"download_count":38},{"id":66954,"title":"Memories of My Life: Being My Personal, Professional, and Social Recollections as Woman and Artist","authors":[{"name":"Bernhardt, Sarah","birth_year":1844,"death_year":1923}],"translators":[],"subjects":["Actors -- Biography","Bernhardt, Sarah, 1844-1923","Women -- Biography"],"bookshelves":[],"languages":["en"],"copyright":false,"media_type":"Text","formats":{"text/html":"https://www.gutenberg.org/ebooks/66954.html.images","application/epub+zip":"https://www.gutenberg.org/ebooks/66954.epub3.images","application/x-mobipocket-ebook":"https://www.gutenberg.org/ebooks/66954.kf8.images","text/plain; charset=us-ascii":"https://www.gutenberg.org/ebooks/66954.txt.utf-8","application/rdf+xml":"https://www.gutenberg.org/ebooks/66954.rdf","image/jpeg":"https://www.gutenberg.org/cache/epub/66954/pg66954.cover.medium.jpg","application/octet-stream":"https://www.gutenberg.org/files/66954/66954-0.zip"},"download_count":38},{"id":67035,"title":"Stop in Time: A word in season, from a faithful friend, on a very serious subject","authors":[{"name":"Anonymous","birth_year":null,"death_year":null}],"translators":[],"subjects":["Chastity","Women -- Sexual behavior"],"bookshelves":[],"languages":["en"],"copyright":false,"media_type":"Text","formats":{"text/html":"https://www.gutenberg.org/ebooks/67035.html.images","application/epub+zip":"https://www.gutenberg.org/ebooks/67035.epub3.images","application/x-mobipocket-ebook":"https://www.gutenberg.org/ebooks/67035.kf8.images","text/plain; charset=us-ascii":"https://www.gutenberg.org/ebooks/67035.txt.utf-8","application/rdf+xml":"https://www.gutenberg.org/ebooks/67035.rdf","image/jpeg":"https://www.gutenberg.org/cache/epub/67035/pg67035.cover.medium.jpg","application/octet-stream":"https://www.gutenberg.org/files/67035/67035-0.zip"},"download_count":38},{"id":67156,"title":"Salve Venetia, gleanings from Venetian history; vol. II","authors":[{"name":"Crawford, F. Marion (Francis Marion)","birth_year":1854,"death_year":1909}],"translators":[],"subjects":["Venice (Italy) -- History"],"bookshelves":[],"languages":["en"],"copyright":false,"media_type":"Text","formats":{"text/html":"https://www.gutenberg.org/ebooks/67156.html.images","application/epub+zip":"https://www.gutenberg.org/ebooks/67156.epub3.images","application/x-mobipocket-ebook":"https://www.gutenberg.org/ebooks/67156.kf8.images","text/plain; charset=us-ascii":"https://www.gutenberg.org/ebooks/67156.txt.utf-8","application/rdf+xml":"https://www.gutenberg.org/ebooks/67156.rdf","image/jpeg":"https://www.gutenberg.org/cache/epub/67156/pg67156.cover.medium.jpg","application/octet-stream":"https://www.gutenberg.org/files/67156/67156-0.zip"},"download_count":38},{"id":67445,"title":"The Young Ice Whalers","authors":[{"name":"Packard, Winthrop","birth_year":1862,"death_year":1943}],"translators":[],"subjects":["Arctic regions -- Juvenile fiction","Inuit -- Juvenile fiction","Whaling -- Juvenile fiction"],"bookshelves":[],"languages":["en"],"copyright":false,"media_type":"Text","formats":{"text/html":"https://www.gutenberg.org/ebooks/67445.html.images","application/epub+zip":"https://www.gutenberg.org/ebooks/67445.epub3.images","application/x-mobipocket-ebook":"https://www.gutenberg.org/ebooks/67445.kf8.images","text/plain; charset=us-ascii":"https://www.gutenberg.org/ebooks/67445.txt.utf-8","application/rdf+xml":"https://www.gutenberg.org/ebooks/67445.rdf","image/jpeg":"https://www.gutenberg.org/cache/epub/67445/pg67445.cover.medium.jpg","application/octet-stream":"https://www.gutenberg.org/files/67445/67445-0.zip"},"download_count":38},{"id":67459,"title":"The Reign of William Rufus and the Accession of Henry the First, Volume 2 (of 2)","authors":[{"name":"Freeman, Edward A. (Edward Augustus)","birth_year":1823,"death_year":1892}],"translators":[],"subjects":["Great Britain -- History -- Henry I, 1100-1135","Great Britain -- History -- Norman period, 1066-1154","Great Britain -- History -- William II, Rufus, 1087-1100","Henry I, King of England, 1068-1135","Normans -- Great Britain","William II, King of England, 1056?-1100"],"bookshelves":[],"languages":["en"],"copyright":false,"media_type":"Text","formats":{"text/html":"https://www.gutenberg.org/ebooks/67459.html.images","application/epub+zip":"https://www.gutenberg.org/ebooks/67459.epub3.images","application/x-mobipocket-ebook":"https://www.gutenberg.org/ebooks/67459.kf8.images","text/plain; charset=us-ascii":"https://www.gutenberg.org/ebooks/67459.txt.utf-8","application/rdf+xml":"https://www.gutenberg.org/ebooks/67459.rdf","image/jpeg":"https://www.gutenberg.org/cache/epub/67459/pg67459.cover.medium.jpg","application/octet-stream":"https://www.gutenberg.org/files/67459/67459-0.zip"},"download_count":38},{"id":67648,"title":"Forty Years of It","authors":[{"name":"Whitlock, Brand","birth_year":1869,"death_year":1934}],"translators":[],"subjects":["United States -- Social conditions -- 1865-1918"],"bookshelves":[],"languages":["en"],"copyright":false,"media_type":"Text","formats":{"text/html":"https://www.gutenberg.org/ebooks/67648.html.images","application/epub+zip":"https://www.gutenberg.org/ebooks/67648.epub3.images","application/x-mobipocket-ebook":"https://www.gutenberg.org/ebooks/67648.kf8.images","text/plain; charset=us-ascii":"https://www.gutenberg.org/ebooks/67648.txt.utf-8","application/rdf+xml":"https://www.gutenberg.org/ebooks/67648.rdf","image/jpeg":"https://www.gutenberg.org/cache/epub/67648/pg67648.cover.medium.jpg","application/octet-stream":"https://www.gutenberg.org/files/67648/67648-0.zip"},"download_count":38},{"id":67704,"title":"Doctors: An Address delivered to the Students of the Medical School of the Middlesex Hospital, 1st October, 1908","authors":[{"name":"Kipling, Rudyard","birth_year":1865,"death_year":1936}],"translators":[],"subjects":["Physicians"],"bookshelves":[],"languages":["en"],"copyright":false,"media_type":"Text","formats":{"text/html":"https://www.gutenberg.org/ebooks/67704.html.images","application/epub+zip":"https://www.gutenberg.org/ebooks/67704.epub3.images","application/x-mobipocket-ebook":"https://www.gutenberg.org/ebooks/67704.kf8.images","text/plain; charset=us-ascii":"https://www.gutenberg.org/ebooks/67704.txt.utf-8","application/rdf+xml":"https://www.gutenberg.org/ebooks/67704.rdf","image/jpeg":"https://www.gutenberg.org/cache/epub/67704/pg67704.cover.medium.jpg","application/octet-stream":"https://www.gutenberg.org/files/67704/67704-0.zip"},"download_count":38},{"id":67851,"title":"The Jews in Great Britain: Being a Series of Six Lectures, Delivered in the Liverpool Collegiate Institution, on the Antiquities of the Jews in England.","authors":[{"name":"Margoliouth, Moses","birth_year":1820,"death_year":1881}],"translators":[],"subjects":["Jews -- Great Britain -- History"],"bookshelves":[],"languages":["en"],"copyright":false,"media_type":"Text","formats":{"text/html":"https://www.gutenberg.org/ebooks/67851.html.images","application/epub+zip":"https://www.gutenberg.org/ebooks/67851.epub3.images","application/x-mobipocket-ebook":"https://www.gutenberg.org/ebooks/67851.kf8.images","text/plain; charset=us-ascii":"https://www.gutenberg.org/ebooks/67851.txt.utf-8","application/rdf+xml":"https://www.gutenberg.org/ebooks/67851.rdf","image/jpeg":"https://www.gutenberg.org/cache/epub/67851/pg67851.cover.medium.jpg","application/octet-stream":"https://www.gutenberg.org/files/67851/67851-0.zip"},"download_count":38},{"id":67859,"title":"American Horological Journal, Vol. I, No. 1, July 1869: Devoted to Pratical Horology","authors":[],"translators":[],"subjects":["Clocks and watches -- Periodicals"],"bookshelves":[],"languages":["en"],"copyright":false,"media_type":"Text","formats":{"text/html":"https://www.gutenberg.org/ebooks/67859.html.images","application/epub+zip":"https://www.gutenberg.org/ebooks/67859.epub3.images","application/x-mobipocket-ebook":"https://www.gutenberg.org/ebooks/67859.kf8.images","text/plain; charset=us-ascii":"https://www.gutenberg.org/ebooks/67859.txt.utf-8","application/rdf+xml":"https://www.gutenberg.org/ebooks/67859.rdf","image/jpeg":"https://www.gutenberg.org/cache/epub/67859/pg67859.cover.medium.jpg","application/octet-stream":"https://www.gutenberg.org/files/67859/67859-0.zip"},"download_count":38},{"id":67928,"title":"The Cruise of the Royal Mail Steamer Dunottar Castle Round Scotland on Her Trial Trip","authors":[{"name":"Dalgleish, Walter Scott","birth_year":1834,"death_year":1897}],"translators":[],"subjects":["Dunottar Castle (Ship)","Scotland -- Description and travel"],"bookshelves":[],"languages":["en"],"copyright":false,"media_type":"Text","formats":{"text/html":"https://www.gutenberg.org/ebooks/67928.html.images","application/epub+zip":"https://www.gutenberg.org/ebooks/67928.epub3.images","application/x-mobipocket-ebook":"https://www.gutenberg.org/ebooks/67928.kf8.images","text/plain; charset=us-ascii":"https://www.gutenberg.org/ebooks/67928.txt.utf-8","application/rdf+xml":"https://www.gutenberg.org/ebooks/67928.rdf","image/jpeg":"https://www.gutenberg.org/cache/epub/67928/pg67928.cover.medium.jpg","application/octet-stream":"https://www.gutenberg.org/files/67928/67928-0.zip"},"download_count":38},{"id":67942,"title":"The honey bee: a manual of instruction in apiculture","authors":[{"name":"Benton, Frank","birth_year":1852,"death_year":1919}],"translators":[],"subjects":["Bee culture","Bees"],"bookshelves":[],"languages":["en"],"copyright":false,"media_type":"Text","formats":{"text/html":"https://www.gutenberg.org/ebooks/67942.html.images","application/epub+zip":"https://www.gutenberg.org/ebooks/67942.epub3.images","application/x-mobipocket-ebook":"https://www.gutenberg.org/ebooks/67942.kf8.images","text/plain; charset=us-ascii":"https://www.gutenberg.org/ebooks/67942.txt.utf-8","application/rdf+xml":"https://www.gutenberg.org/ebooks/67942.rdf","image/jpeg":"https://www.gutenberg.org/cache/epub/67942/pg67942.cover.medium.jpg","application/octet-stream":"https://www.gutenberg.org/files/67942/67942-0.zip"},"download_count":38},{"id":68032,"title":"Diabetes: Its Cause and Its Treatment With Insulin","authors":[{"name":"Wilder, Russell M. (Russell Morse)","birth_year":1885,"death_year":1959}],"translators":[],"subjects":["Diabetes","Insulin"],"bookshelves":[],"languages":["en"],"copyright":false,"media_type":"Text","formats":{"text/html":"https://www.gutenberg.org/ebooks/68032.html.images","application/epub+zip":"https://www.gutenberg.org/ebooks/68032.epub3.images","application/x-mobipocket-ebook":"https://www.gutenberg.org/ebooks/68032.kf8.images","text/plain; charset=us-ascii":"https://www.gutenberg.org/ebooks/68032.txt.utf-8","application/rdf+xml":"https://www.gutenberg.org/ebooks/68032.rdf","image/jpeg":"https://www.gutenberg.org/cache/epub/68032/pg68032.cover.medium.jpg","application/octet-stream":"https://www.gutenberg.org/files/68032/68032-0.zip"},"download_count":38},{"id":68062,"title":"The play that won","authors":[{"name":"Barbour, Ralph Henry","birth_year":1870,"death_year":1944}],"translators":[],"subjects":["Short stories, American","Sports -- Juvenile fiction"],"bookshelves":[],"languages":["en"],"copyright":false,"media_type":"Text","formats":{"text/html":"https://www.gutenberg.org/ebooks/68062.html.images","application/epub+zip":"https://www.gutenberg.org/ebooks/68062.epub3.images","application/x-mobipocket-ebook":"https://www.gutenberg.org/ebooks/68062.kf8.images","text/plain; charset=us-ascii":"https://www.gutenberg.org/ebooks/68062.txt.utf-8","application/rdf+xml":"https://www.gutenberg.org/ebooks/68062.rdf","image/jpeg":"https://www.gutenberg.org/cache/epub/68062/pg68062.cover.medium.jpg","application/octet-stream":"https://www.gutenberg.org/files/68062/68062-0.zip"},"download_count":38},{"id":68091,"title":"The Clevedon Case","authors":[{"name":"Oakley, John","birth_year":1868,"death_year":1945},{"name":"Oakley, Nancy (Novelist)","birth_year":null,"death_year":null}],"translators":[],"subjects":["Criminologists -- Fiction","Detective and mystery stories","England -- Fiction","Murder -- Investigation -- Fiction"],"bookshelves":[],"languages":["en"],"copyright":false,"media_type":"Text","formats":{"text/html":"https://www.gutenberg.org/ebooks/68091.html.images","application/epub+zip":"https://www.gutenberg.org/ebooks/68091.epub3.images","application/x-mobipocket-ebook":"https://www.gutenberg.org/ebooks/68091.kf8.images","text/plain; charset=us-ascii":"https://www.gutenberg.org/ebooks/68091.txt.utf-8","application/rdf+xml":"https://www.gutenberg.org/ebooks/68091.rdf","image/jpeg":"https://www.gutenberg.org/cache/epub/68091/pg68091.cover.medium.jpg","application/octet-stream":"https://www.gutenberg.org/files/68091/68091-0.zip"},"download_count":38},{"id":68301,"title":"Under the German shells","authors":[{"name":"Bourcier, Emmanuel","birth_year":1880,"death_year":1955}],"translators":[{"name":"Holt, George Nelson","birth_year":null,"death_year":null},{"name":"Holt, Mary Roxy Wilkins","birth_year":1869,"death_year":null}],"subjects":["World War, 1914-1918 -- Personal narratives, French"],"bookshelves":[],"languages":["en"],"copyright":false,"media_type":"Text","formats":{"text/html":"https://www.gutenberg.org/ebooks/68301.html.images","application/epub+zip":"https://www.gutenberg.org/ebooks/68301.epub3.images","application/x-mobipocket-ebook":"https://www.gutenberg.org/ebooks/68301.kf8.images","text/plain; charset=us-ascii":"https://www.gutenberg.org/ebooks/68301.txt.utf-8","application/rdf+xml":"https://www.gutenberg.org/ebooks/68301.rdf","image/jpeg":"https://www.gutenberg.org/cache/epub/68301/pg68301.cover.medium.jpg","application/octet-stream":"https://www.gutenberg.org/files/68301/68301-0.zip"},"download_count":38},{"id":68445,"title":"Indians of the Enchanted Desert","authors":[{"name":"Crane, Leo","birth_year":1881,"death_year":null}],"translators":[],"subjects":["Hopi Indians","Navajo Indians","Painted Desert (Ariz.)"],"bookshelves":[],"languages":["en"],"copyright":false,"media_type":"Text","formats":{"text/html":"https://www.gutenberg.org/ebooks/68445.html.images","application/epub+zip":"https://www.gutenberg.org/ebooks/68445.epub3.images","application/x-mobipocket-ebook":"https://www.gutenberg.org/ebooks/68445.kf8.images","text/plain; charset=us-ascii":"https://www.gutenberg.org/ebooks/68445.txt.utf-8","application/rdf+xml":"https://www.gutenberg.org/ebooks/68445.rdf","image/jpeg":"https://www.gutenberg.org/cache/epub/68445/pg68445.cover.medium.jpg","application/octet-stream":"https://www.gutenberg.org/files/68445/68445-0.zip"},"download_count":38},{"id":68463,"title":"The Salton Sea: An account of Harriman's fight with the Colorado River","authors":[{"name":"Kennan, George","birth_year":1845,"death_year":1924}],"translators":[],"subjects":["Harriman, Edward Henry, 1848-1909","Imperial Valley (Calif. and Mexico)","Salton Sea (Calif.)"],"bookshelves":[],"languages":["en"],"copyright":false,"media_type":"Text","formats":{"text/html":"https://www.gutenberg.org/ebooks/68463.html.images","application/epub+zip":"https://www.gutenberg.org/ebooks/68463.epub3.images","application/x-mobipocket-ebook":"https://www.gutenberg.org/ebooks/68463.kf8.images","text/plain; charset=us-ascii":"https://www.gutenberg.org/ebooks/68463.txt.utf-8","application/rdf+xml":"https://www.gutenberg.org/ebooks/68463.rdf","image/jpeg":"https://www.gutenberg.org/cache/epub/68463/pg68463.cover.medium.jpg","application/octet-stream":"https://www.gutenberg.org/files/68463/68463-0.zip"},"download_count":38},{"id":68614,"title":"Historic doorways of Old Salem","authors":[{"name":"Northend, Mary Harrod","birth_year":1850,"death_year":1926}],"translators":[],"subjects":["Architecture -- Massachusetts -- Salem","Architecture, Colonial","Doorways","Salem (Mass.) -- Buildings, structures, etc."],"bookshelves":[],"languages":["en"],"copyright":false,"media_type":"Text","formats":{"text/html":"https://www.gutenberg.org/ebooks/68614.html.images","application/epub+zip":"https://www.gutenberg.org/ebooks/68614.epub3.images","application/x-mobipocket-ebook":"https://www.gutenberg.org/ebooks/68614.kf8.images","text/plain; charset=us-ascii":"https://www.gutenberg.org/ebooks/68614.txt.utf-8","application/rdf+xml":"https://www.gutenberg.org/ebooks/68614.rdf","image/jpeg":"https://www.gutenberg.org/cache/epub/68614/pg68614.cover.medium.jpg","application/octet-stream":"https://www.gutenberg.org/files/68614/68614-0.zip"},"download_count":38},{"id":68625,"title":"The red wizard, or, the cave captive","authors":[{"name":"Ellis, Edward Sylvester","birth_year":1840,"death_year":1916}],"translators":[],"subjects":["Abduction -- Fiction","Dime novels","Indian captivities -- Fiction","Indian women -- Fiction","Indians of North America -- Fiction","Massacres -- Fiction","Physicians -- Fiction","Scouts (Reconnaissance) -- Fiction","Unrequited love -- Fiction","Wagon trains -- Fiction","West (U.S.) -- Fiction","Western stories"],"bookshelves":[],"languages":["en"],"copyright":false,"media_type":"Text","formats":{"text/html":"https://www.gutenberg.org/ebooks/68625.html.images","application/epub+zip":"https://www.gutenberg.org/ebooks/68625.epub3.images","application/x-mobipocket-ebook":"https://www.gutenberg.org/ebooks/68625.kf8.images","text/plain; charset=us-ascii":"https://www.gutenberg.org/ebooks/68625.txt.utf-8","application/rdf+xml":"https://www.gutenberg.org/ebooks/68625.rdf","image/jpeg":"https://www.gutenberg.org/cache/epub/68625/pg68625.cover.medium.jpg","application/octet-stream":"https://www.gutenberg.org/files/68625/68625-0.zip"},"download_count":38},{"id":68720,"title":"Prints and their makers: essays on engravers and etchers old and modern","authors":[],"translators":[],"subjects":["Engravers","Engraving","Etchers","Etching"],"bookshelves":[],"languages":["en"],"copyright":false,"media_type":"Text","formats":{"text/html":"https://www.gutenberg.org/ebooks/68720.html.images","application/epub+zip":"https://www.gutenberg.org/ebooks/68720.epub3.images","application/x-mobipocket-ebook":"https://www.gutenberg.org/ebooks/68720.kf8.images","text/plain; charset=us-ascii":"https://www.gutenberg.org/ebooks/68720.txt.utf-8","application/rdf+xml":"https://www.gutenberg.org/ebooks/68720.rdf","image/jpeg":"https://www.gutenberg.org/cache/epub/68720/pg68720.cover.medium.jpg","application/octet-stream":"https://www.gutenberg.org/files/68720/68720-0.zip"},"download_count":38},{"id":68765,"title":"Twenty-five years in the Secret Service: The recollections of a spy","authors":[{"name":"Le Caron, Henri","birth_year":1841,"death_year":1894}],"translators":[],"subjects":["Canada -- History -- Fenian Invasions, 1866-1870","Fenians","Irish Americans","Le Caron, Henri, 1841-1894","Secret service -- Great Britain -- Biography"],"bookshelves":[],"languages":["en"],"copyright":false,"media_type":"Text","formats":{"text/html":"https://www.gutenberg.org/ebooks/68765.html.images","application/epub+zip":"https://www.gutenberg.org/ebooks/68765.epub3.images","application/x-mobipocket-ebook":"https://www.gutenberg.org/ebooks/68765.kf8.images","text/plain; charset=us-ascii":"https://www.gutenberg.org/ebooks/68765.txt.utf-8","application/rdf+xml":"https://www.gutenberg.org/ebooks/68765.rdf","image/jpeg":"https://www.gutenberg.org/cache/epub/68765/pg68765.cover.medium.jpg","application/octet-stream":"https://www.gutenberg.org/files/68765/68765-0.zip"},"download_count":38},{"id":68963,"title":"A short history of the Norman Conquest of England","authors":[{"name":"Freeman, Edward A. (Edward Augustus)","birth_year":1823,"death_year":1892}],"translators":[],"subjects":["Great Britain -- History -- Anglo-Saxon period, 449-1066","Great Britain -- History -- Norman period, 1066-1154","Great Britain -- History -- To 1485"],"bookshelves":[],"languages":["en"],"copyright":false,"media_type":"Text","formats":{"text/html":"https://www.gutenberg.org/ebooks/68963.html.images","application/epub+zip":"https://www.gutenberg.org/ebooks/68963.epub3.images","application/x-mobipocket-ebook":"https://www.gutenberg.org/ebooks/68963.kf8.images","text/plain; charset=us-ascii":"https://www.gutenberg.org/ebooks/68963.txt.utf-8","application/rdf+xml":"https://www.gutenberg.org/ebooks/68963.rdf","image/jpeg":"https://www.gutenberg.org/cache/epub/68963/pg68963.cover.medium.jpg","application/octet-stream":"https://www.gutenberg.org/files/68963/68963-0.zip"},"download_count":38},{"id":69019,"title":"Elements of woodwork","authors":[{"name":"King, Charles A. (Charles Albert)","birth_year":1865,"death_year":null}],"translators":[],"subjects":["Woodwork (Manual training)"],"bookshelves":[],"languages":["en"],"copyright":false,"media_type":"Text","formats":{"text/html":"https://www.gutenberg.org/ebooks/69019.html.images","application/epub+zip":"https://www.gutenberg.org/ebooks/69019.epub3.images","application/x-mobipocket-ebook":"https://www.gutenberg.org/ebooks/69019.kf8.images","text/plain; charset=us-ascii":"https://www.gutenberg.org/ebooks/69019.txt.utf-8","application/rdf+xml":"https://www.gutenberg.org/ebooks/69019.rdf","image/jpeg":"https://www.gutenberg.org/cache/epub/69019/pg69019.cover.medium.jpg","application/octet-stream":"https://www.gutenberg.org/files/69019/69019-0.zip"},"download_count":38},{"id":69299,"title":"Men into space","authors":[{"name":"Leinster, Murray","birth_year":1896,"death_year":1975}],"translators":[],"subjects":["Astronauts -- Fiction","Outer space -- Exploration -- Fiction","Science fiction","Space travelers -- Fiction"],"bookshelves":[],"languages":["en"],"copyright":false,"media_type":"Text","formats":{"text/html":"https://www.gutenberg.org/ebooks/69299.html.images","application/epub+zip":"https://www.gutenberg.org/ebooks/69299.epub3.images","application/x-mobipocket-ebook":"https://www.gutenberg.org/ebooks/69299.kf8.images","text/plain; charset=us-ascii":"https://www.gutenberg.org/ebooks/69299.txt.utf-8","application/rdf+xml":"https://www.gutenberg.org/ebooks/69299.rdf","image/jpeg":"https://www.gutenberg.org/cache/epub/69299/pg69299.cover.medium.jpg","application/octet-stream":"https://www.gutenberg.org/files/69299/69299-0.zip"},"download_count":38},{"id":69421,"title":"The humour of Germany","authors":[],"translators":[],"subjects":["German wit and humor"],"bookshelves":[],"languages":["en"],"copyright":false,"media_type":"Text","formats":{"text/html":"https://www.gutenberg.org/ebooks/69421.html.images","application/epub+zip":"https://www.gutenberg.org/ebooks/69421.epub3.images","application/x-mobipocket-ebook":"https://www.gutenberg.org/ebooks/69421.kf8.images","text/plain; charset=us-ascii":"https://www.gutenberg.org/ebooks/69421.txt.utf-8","application/rdf+xml":"https://www.gutenberg.org/ebooks/69421.rdf","image/jpeg":"https://www.gutenberg.org/cache/epub/69421/pg69421.cover.medium.jpg","application/octet-stream":"https://www.gutenberg.org/files/69421/69421-0.zip"},"download_count":38},{"id":69746,"title":"The book of friendly giants","authors":[{"name":"Fuller, Eunice","birth_year":null,"death_year":null}],"translators":[],"subjects":["Giants -- Juvenile fiction"],"bookshelves":[],"languages":["en"],"copyright":false,"media_type":"Text","formats":{"text/html":"https://www.gutenberg.org/ebooks/69746.html.images","application/epub+zip":"https://www.gutenberg.org/ebooks/69746.epub3.images","application/x-mobipocket-ebook":"https://www.gutenberg.org/ebooks/69746.kf8.images","text/plain; charset=us-ascii":"https://www.gutenberg.org/ebooks/69746.txt.utf-8","application/rdf+xml":"https://www.gutenberg.org/ebooks/69746.rdf","image/jpeg":"https://www.gutenberg.org/cache/epub/69746/pg69746.cover.medium.jpg","application/octet-stream":"https://www.gutenberg.org/files/69746/69746-0.zip"},"download_count":38},{"id":69817,"title":"A kiss for Cinderella: A comedy","authors":[{"name":"Barrie, J. M. (James Matthew)","birth_year":1860,"death_year":1937}],"translators":[],"subjects":["Comedies","Fantasy drama","London (England) -- Drama","Man-woman relationships -- Drama","World War, 1914-1918 -- Drama"],"bookshelves":[],"languages":["en"],"copyright":false,"media_type":"Text","formats":{"text/html":"https://www.gutenberg.org/ebooks/69817.html.images","application/epub+zip":"https://www.gutenberg.org/ebooks/69817.epub3.images","application/x-mobipocket-ebook":"https://www.gutenberg.org/ebooks/69817.kf8.images","text/plain; charset=us-ascii":"https://www.gutenberg.org/ebooks/69817.txt.utf-8","application/rdf+xml":"https://www.gutenberg.org/ebooks/69817.rdf","image/jpeg":"https://www.gutenberg.org/cache/epub/69817/pg69817.cover.medium.jpg","application/octet-stream":"https://www.gutenberg.org/files/69817/69817-0.zip"},"download_count":38},{"id":69821,"title":"Consulate","authors":[{"name":"Tenn, William","birth_year":1920,"death_year":2010}],"translators":[],"subjects":["Human-alien encounters -- Fiction","Martians -- Fiction","Science fiction","Space flight to Mars -- Fiction"],"bookshelves":[],"languages":["en"],"copyright":false,"media_type":"Text","formats":{"text/html":"https://www.gutenberg.org/ebooks/69821.html.images","application/epub+zip":"https://www.gutenberg.org/ebooks/69821.epub3.images","application/x-mobipocket-ebook":"https://www.gutenberg.org/ebooks/69821.kf8.images","text/plain; charset=us-ascii":"https://www.gutenberg.org/ebooks/69821.txt.utf-8","application/rdf+xml":"https://www.gutenberg.org/ebooks/69821.rdf","image/jpeg":"https://www.gutenberg.org/cache/epub/69821/pg69821.cover.medium.jpg","application/octet-stream":"https://www.gutenberg.org/files/69821/69821-0.zip"},"download_count":38},{"id":69983,"title":"An original theory or new hypothesis of the universe: $b founded upon the laws of nature, and solving by mathematical principles the general phænomena of the visible creation; and particularly the via lactea ...","authors":[{"name":"Wright, Thomas","birth_year":1711,"death_year":1786}],"translators":[],"subjects":["Astronomy -- Early works to 1800"],"bookshelves":[],"languages":["en"],"copyright":false,"media_type":"Text","formats":{"text/html":"https://www.gutenberg.org/ebooks/69983.html.images","application/epub+zip":"https://www.gutenberg.org/ebooks/69983.epub3.images","application/x-mobipocket-ebook":"https://www.gutenberg.org/ebooks/69983.kf8.images","text/plain; charset=us-ascii":"https://www.gutenberg.org/ebooks/69983.txt.utf-8","application/rdf+xml":"https://www.gutenberg.org/ebooks/69983.rdf","image/jpeg":"https://www.gutenberg.org/cache/epub/69983/pg69983.cover.medium.jpg","application/octet-stream":"https://www.gutenberg.org/files/69983/69983-0.zip"},"download_count":38},{"id":70189,"title":"The sensitive plant","authors":[{"name":"Shelley, Percy Bysshe","birth_year":1792,"death_year":1822}],"translators":[],"subjects":["English poetry -- 19th century"],"bookshelves":[],"languages":["en"],"copyright":false,"media_type":"Text","formats":{"text/html":"https://www.gutenberg.org/ebooks/70189.html.images","application/epub+zip":"https://www.gutenberg.org/ebooks/70189.epub3.images","application/x-mobipocket-ebook":"https://www.gutenberg.org/ebooks/70189.kf8.images","text/plain; charset=us-ascii":"https://www.gutenberg.org/ebooks/70189.txt.utf-8","application/rdf+xml":"https://www.gutenberg.org/ebooks/70189.rdf","image/jpeg":"https://www.gutenberg.org/cache/epub/70189/pg70189.cover.medium.jpg","application/octet-stream":"https://www.gutenberg.org/files/70189/70189-0.zip"},"download_count":38},{"id":70229,"title":"Indian types of beauty","authors":[{"name":"Shufeldt, Robert W. (Robert Wilson)","birth_year":1850,"death_year":1934}],"translators":[],"subjects":["Beauty, Personal","Indian aesthetics","Indian women"],"bookshelves":[],"languages":["en"],"copyright":false,"media_type":"Text","formats":{"text/html":"https://www.gutenberg.org/ebooks/70229.html.images","application/epub+zip":"https://www.gutenberg.org/ebooks/70229.epub3.images","application/x-mobipocket-ebook":"https://www.gutenberg.org/ebooks/70229.kf8.images","text/plain; charset=us-ascii":"https://www.gutenberg.org/ebooks/70229.txt.utf-8","application/rdf+xml":"https://www.gutenberg.org/ebooks/70229.rdf","image/jpeg":"https://www.gutenberg.org/cache/epub/70229/pg70229.cover.medium.jpg","application/octet-stream":"https://www.gutenberg.org/files/70229/70229-0.zip"},"download_count":38}]}