{"count":58808,"next":"http://129.241.150.113:8000/books/?languages=en&page=1822","previous":"http://129.241.150.113:8000/books/?languages=en&page=1820","results":[{"id":6180,"title":"A Romany of the Snows, vol. 1: Being a Continuation of the Personal Histories of \"Pierre and His People\" and the Last Existing Records of Pretty Pierre","authors":[{"name":"Parker, Gilbert","birth_year":1862,"death_year":1932}],"translators":[],"subjects":["Canada, Northern -- Fiction","Short stories, Canadian"],"bookshelves":[],"languages":["en"],"copyright":false,"media_type":"Text","formats":{"text/html":"https://www.gutenberg.org/ebooks/6180.html.images","application/epub+zip":"https://www.gutenberg.org/ebooks/6180.epub3.images","application/x-mobipocket-ebook":"https://www.gutenberg.org/ebooks/6180.kf8.images","text/plain; charset=us-ascii":"https://www.gutenberg.org/ebooks/6180.txt.utf-8","application/rdf+xml":"https://www.gutenberg.org/ebooks/6180.rdf","image/jpeg":"https://www.gutenberg.org/cache/epub/6180/pg6180.cover.medium.jpg","application/octet-stream":"https://www.gutenberg.org/cache/epub/6180/pg6180-h.zip"},"download_count":9},{"id":6231,"title":"The Battle of the Strong: A Romance of Two Kingdoms — Volume 2","authors":[{"name":"Parker, Gilbert","birth_year":1862,"death_year":1932}],"translators":[],"subjects":["Anglo-French War, 1793-1802 -- Fiction","Channel Islands -- Fiction"],"bookshelves":["Bestsellers, American, 1895-1923"],"languages":["en"],"copyright":false,"media_type":"Text","formats":{"text/html":"https://www.gutenberg.org/ebooks/6231.html.images","application/epub+zip":"https://www.gutenberg.org/ebooks/6231.epub3.images","application/x-mobipocket-ebook":"https://www.gutenberg.org/ebooks/6231.kf8.images","text/plain; charset=us-ascii":"https://www.gutenberg.org/ebooks/6231.txt.utf-8","application/rdf+xml":"https://www.gutenberg.org/ebooks/6231.rdf","image/jpeg":"https://www.gutenberg.org/cache/epub/6231/pg6231.cover.medium.jpg","application/octet-stream":"https://www.gutenberg.org/cache/epub/6231/pg6231-h.zip"},"download_count":9},{"id":6550,"title":"The House of Mapuhi","authors":[{"name":"London, Jack","birth_year":1876,"death_year":1916}],"translators":[],"subjects":["Oceania -- Fiction","Short stories"],"bookshelves":[],"languages":["en"],"copyright":true,"media_type":"Sound","formats":{"text/plain; charset=us-ascii":"https://www.gutenberg.org/files/6550/6550-readme.txt","text/html; charset=us-ascii":"https://www.gutenberg.org/files/6550/6550-index.htm","audio/mpeg":"https://www.gutenberg.org/files/6550/mp3/6550-3.mp3","application/rdf+xml":"https://www.gutenberg.org/ebooks/6550.rdf"},"download_count":9},{"id":6743,"title":"Colonel Carter of Cartersville","authors":[{"name":"Smith, Francis Hopkinson","birth_year":1838,"death_year":1915}],"translators":[],"subjects":["Virginia -- Fiction"],"bookshelves":[],"languages":["en"],"copyright":false,"media_type":"Text","formats":{"text/html":"https://www.gutenberg.org/ebooks/6743.html.images","application/epub+zip":"https://www.gutenberg.org/ebooks/6743.epub3.images","application/x-mobipocket-ebook":"https://www.gutenberg.org/ebooks/6743.kf8.images","text/plain; charset=us-ascii":"https://www.gutenberg.org/ebooks/6743.txt.utf-8","application/rdf+xml":"https://www.gutenberg.org/ebooks/6743.rdf","image/jpeg":"https://www.gutenberg.org/cache/epub/6743/pg6743.cover.medium.jpg","application/octet-stream":"https://www.gutenberg.org/cache/epub/6743/pg6743-h.zip"},"download_count":9},{"id":7046,"title":"Annals and Reminiscences of Jamaica Plain","authors":[{"name":"Whitcomb, Harriet Manning","birth_year":null,"death_year":null}],"translators":[],"subjects":["Jamaica Plain (Boston, Mass.) -- History"],"bookshelves":[],"languages":["en"],"copyright":false,"media_type":"Text","formats":{"text/html":"https://www.gutenberg.org/ebooks/7046.html.images","application/epub+zip":"https://www.gutenberg.org/ebooks/7046.epub3.images","application/x-mobipocket-ebook":"https://www.gutenberg.org/ebooks/7046.kf8.images","text/plain; charset=us-ascii":"https://www.gutenberg.org/ebooks/7046.txt.utf-8","application/rdf+xml":"https://www.gutenberg.org/ebooks/7046.rdf","image/jpeg":"https://www.gutenberg.org/cache/epub/7046/pg7046.cover.medium.jpg","application/octet-stream":"https://www.gutenberg.org/cache/epub/7046/pg7046-h.zip"},"download_count":9},{"id":7394,"title":"The Poetical Works of Oliver Wendell Holmes — Volume 07: Songs of Many Seasons","authors":[{"name":"Holmes, Oliver Wendell","birth_year":1809,"death_year":1894}],"translators":[],"subjects":["American poetry"],"bookshelves":[],"languages":["en"],"copyright":false,"media_type":"Text","formats":{"text/html":"https://www.gutenberg.org/ebooks/7394.html.images","application/epub+zip":"https://www.gutenberg.org/ebooks/7394.epub3.images","application/x-mobipocket-ebook":"https://www.gutenberg.org/ebooks/7394.kf8.images","text/plain; charset=us-ascii":"https://www.gutenberg.org/ebooks/7394.txt.utf-8","application/rdf+xml":"https://www.gutenberg.org/ebooks/7394.rdf","image/jpeg":"https://www.gutenberg.org/cache/epub/7394/pg7394.cover.medium.jpg","application/octet-stream":"https://www.gutenberg.org/files/7394/7394-0.zip"},"download_count":9},{"id":7569,"title":"Widger's Quotes and Images from Gerfaut by Charles de Bernard: The French Immortals: Quotes And Images","authors":[{"name":"Bernard, Charles de","birth_year":1804,"death_year":1850}],"translators":[],"subjects":["Quotations, French -- Translations into English"],"bookshelves":[],"languages":["en"],"copyright":false,"media_type":"Text","formats":{"text/html":"https://www.gutenberg.org/ebooks/7569.html.images","text/html; charset=us-ascii":"https://www.gutenberg.org/files/7569/7569-h/7569.htm","application/epub+zip":"https://www.gutenberg.org/ebooks/7569.epub3.images","application/x-mobipocket-ebook":"https://www.gutenberg.org/ebooks/7569.kf8.images","text/plain; charset=us-ascii":"https://www.gutenberg.org/ebooks/7569.txt.utf-8","application/rdf+xml":"https://www.gutenberg.org/ebooks/7569.rdf","image/jpeg":"https://www.gutenberg.org/cache/epub/7569/pg7569.cover.medium.jpg","application/octet-stream":"https://www.gutenberg.org/cache/epub/7569/pg7569-h.zip"},"download_count":9},{"id":7598,"title":"The Caxtons: A Family Picture — Volume 13","authors":[{"name":"Lytton, Edward Bulwer Lytton, Baron","birth_year":1803,"death_year":1873}],"translators":[],"subjects":["English fiction -- 19th century","Families -- Fiction"],"bookshelves":[],"languages":["en"],"copyright":false,"media_type":"Text","formats":{"text/html":"https://www.gutenberg.org/ebooks/7598.html.images","application/epub+zip":"https://www.gutenberg.org/ebooks/7598.epub3.images","application/x-mobipocket-ebook":"https://www.gutenberg.org/ebooks/7598.kf8.images","text/plain; charset=us-ascii":"https://www.gutenberg.org/ebooks/7598.txt.utf-8","application/rdf+xml":"https://www.gutenberg.org/ebooks/7598.rdf","image/jpeg":"https://www.gutenberg.org/cache/epub/7598/pg7598.cover.medium.jpg","application/octet-stream":"https://www.gutenberg.org/cache/epub/7598/pg7598-h.zip"},"download_count":9},{"id":7633,"title":"The Disowned — Volume 03","authors":[{"name":"Lytton, Edward Bulwer Lytton, Baron","birth_year":1803,"death_year":1873}],"translators":[],"subjects":["English fiction -- 19th century"],"bookshelves":[],"languages":["en"],"copyright":false,"media_type":"Text","formats":{"text/html":"https://www.gutenberg.org/ebooks/7633.html.images","application/epub+zip":"https://www.gutenberg.org/ebooks/7633.epub3.images","application/x-mobipocket-ebook":"https://www.gutenberg.org/ebooks/7633.kf8.images","text/plain; charset=us-ascii":"https://www.gutenberg.org/ebooks/7633.txt.utf-8","application/rdf+xml":"https://www.gutenberg.org/ebooks/7633.rdf","image/jpeg":"https://www.gutenberg.org/cache/epub/7633/pg7633.cover.medium.jpg","application/octet-stream":"https://www.gutenberg.org/cache/epub/7633/pg7633-h.zip"},"download_count":9},{"id":7636,"title":"The Disowned — Volume 06","authors":[{"name":"Lytton, Edward Bulwer Lytton, Baron","birth_year":1803,"death_year":1873}],"translators":[],"subjects":["English fiction -- 19th century"],"bookshelves":[],"languages":["en"],"copyright":false,"media_type":"Text","formats":{"text/html":"https://www.gutenberg.org/ebooks/7636.html.images","application/epub+zip":"https://www.gutenberg.org/ebooks/7636.epub3.images","application/x-mobipocket-ebook":"https://www.gutenberg.org/ebooks/7636.kf8.images","text/plain; charset=us-ascii":"https://www.gutenberg.org/ebooks/7636.txt.utf-8","application/rdf+xml":"https://www.gutenberg.org/ebooks/7636.rdf","image/jpeg":"https://www.gutenberg.org/cache/epub/7636/pg7636.cover.medium.jpg","application/octet-stream":"https://www.gutenberg.org/cache/epub/7636/pg7636-h.zip"},"download_count":9},{"id":7637,"title":"The Disowned — Volume 07","authors":[{"name":"Lytton, Edward Bulwer Lytton, Baron","birth_year":1803,"death_year":1873}],"translators":[],"subjects":["English fiction -- 19th century"],"bookshelves":[],"languages":["en"],"copyright":false,"media_type":"Text","formats":{"text/html":"https://www.gutenberg.org/ebooks/7637.html.images","application/epub+zip":"https://www.gutenberg.org/ebooks/7637.epub3.images","application/x-mobipocket-ebook":"https://www.gutenberg.org/ebooks/7637.kf8.images","text/plain; charset=us-ascii":"https://www.gutenberg.org/ebooks/7637.txt.utf-8","application/rdf+xml":"https://www.gutenberg.org/ebooks/7637.rdf","image/jpeg":"https://www.gutenberg.org/cache/epub/7637/pg7637.cover.medium.jpg","application/octet-stream":"https://www.gutenberg.org/cache/epub/7637/pg7637-h.zip"},"download_count":9},{"id":7642,"title":"Ernest Maltravers — Volume 03","authors":[{"name":"Lytton, Edward Bulwer Lytton, Baron","birth_year":1803,"death_year":1873}],"translators":[],"subjects":["English fiction -- 19th century"],"bookshelves":[],"languages":["en"],"copyright":false,"media_type":"Text","formats":{"text/html":"https://www.gutenberg.org/ebooks/7642.html.images","application/epub+zip":"https://www.gutenberg.org/ebooks/7642.epub3.images","application/x-mobipocket-ebook":"https://www.gutenberg.org/ebooks/7642.kf8.images","text/plain; charset=us-ascii":"https://www.gutenberg.org/ebooks/7642.txt.utf-8","application/rdf+xml":"https://www.gutenberg.org/ebooks/7642.rdf","image/jpeg":"https://www.gutenberg.org/cache/epub/7642/pg7642.cover.medium.jpg","application/octet-stream":"https://www.gutenberg.org/cache/epub/7642/pg7642-h.zip"},"download_count":9},{"id":7648,"title":"Ernest Maltravers — Volume 09","authors":[{"name":"Lytton, Edward Bulwer Lytton, Baron","birth_year":1803,"death_year":1873}],"translators":[],"subjects":["English fiction -- 19th century"],"bookshelves":[],"languages":["en"],"copyright":false,"media_type":"Text","formats":{"text/html":"https://www.gutenberg.org/ebooks/7648.html.images","application/epub+zip":"https://www.gutenberg.org/ebooks/7648.epub3.images","application/x-mobipocket-ebook":"https://www.gutenberg.org/ebooks/7648.kf8.images","text/plain; charset=us-ascii":"https://www.gutenberg.org/ebooks/7648.txt.utf-8","application/rdf+xml":"https://www.gutenberg.org/ebooks/7648.rdf","image/jpeg":"https://www.gutenberg.org/cache/epub/7648/pg7648.cover.medium.jpg","application/octet-stream":"https://www.gutenberg.org/cache/epub/7648/pg7648-h.zip"},"download_count":9},{"id":7659,"title":"What Will He Do with It? — Volume 01","authors":[{"name":"Lytton, Edward Bulwer Lytton, Baron","birth_year":1803,"death_year":1873}],"translators":[],"subjects":["English fiction -- 19th century"],"bookshelves":[],"languages":["en"],"copyright":false,"media_type":"Text","formats":{"text/html":"https://www.gutenberg.org/ebooks/7659.html.images","application/epub+zip":"https://www.gutenberg.org/ebooks/7659.epub3.images","application/x-mobipocket-ebook":"https://www.gutenberg.org/ebooks/7659.kf8.images","text/plain; charset=us-ascii":"https://www.gutenberg.org/ebooks/7659.txt.utf-8","application/rdf+xml":"https://www.gutenberg.org/ebooks/7659.rdf","image/jpeg":"https://www.gutenberg.org/cache/epub/7659/pg7659.cover.medium.jpg","application/octet-stream":"https://www.gutenberg.org/cache/epub/7659/pg7659-h.zip"},"download_count":9},{"id":7670,"title":"What Will He Do with It? — Volume 12","authors":[{"name":"Lytton, Edward Bulwer Lytton, Baron","birth_year":1803,"death_year":1873}],"translators":[],"subjects":["English fiction -- 19th century"],"bookshelves":[],"languages":["en"],"copyright":false,"media_type":"Text","formats":{"text/html":"https://www.gutenberg.org/ebooks/7670.html.images","application/epub+zip":"https://www.gutenberg.org/ebooks/7670.epub3.images","application/x-mobipocket-ebook":"https://www.gutenberg.org/ebooks/7670.kf8.images","text/plain; charset=us-ascii":"https://www.gutenberg.org/ebooks/7670.txt.utf-8","application/rdf+xml":"https://www.gutenberg.org/ebooks/7670.rdf","image/jpeg":"https://www.gutenberg.org/cache/epub/7670/pg7670.cover.medium.jpg","application/octet-stream":"https://www.gutenberg.org/cache/epub/7670/pg7670-h.zip"},"download_count":9},{"id":7697,"title":"A Strange Story — Volume 06","authors":[{"name":"Lytton, Edward Bulwer Lytton, Baron","birth_year":1803,"death_year":1873}],"translators":[],"subjects":["English fiction -- 19th century"],"bookshelves":[],"languages":["en"],"copyright":false,"media_type":"Text","formats":{"text/html":"https://www.gutenberg.org/ebooks/7697.html.images","application/epub+zip":"https://www.gutenberg.org/ebooks/7697.epub3.images","application/x-mobipocket-ebook":"https://www.gutenberg.org/ebooks/7697.kf8.images","text/plain; charset=us-ascii":"https://www.gutenberg.org/ebooks/7697.txt.utf-8","application/rdf+xml":"https://www.gutenberg.org/ebooks/7697.rdf","image/jpeg":"https://www.gutenberg.org/cache/epub/7697/pg7697.cover.medium.jpg","application/octet-stream":"https://www.gutenberg.org/cache/epub/7697/pg7697-h.zip"},"download_count":9},{"id":7705,"title":"\"My Novel\" — Volume 04","authors":[{"name":"Lytton, Edward Bulwer Lytton, Baron","birth_year":1803,"death_year":1873}],"translators":[],"subjects":["Death -- Fiction","Domestic fiction","England -- Fiction","Germany -- Fiction","Inventors -- Fiction","Poets -- Fiction","Rhine River -- Fiction"],"bookshelves":[],"languages":["en"],"copyright":false,"media_type":"Text","formats":{"text/html":"https://www.gutenberg.org/ebooks/7705.html.images","application/epub+zip":"https://www.gutenberg.org/ebooks/7705.epub3.images","application/x-mobipocket-ebook":"https://www.gutenberg.org/ebooks/7705.kf8.images","text/plain; charset=us-ascii":"https://www.gutenberg.org/ebooks/7705.txt.utf-8","application/rdf+xml":"https://www.gutenberg.org/ebooks/7705.rdf","image/jpeg":"https://www.gutenberg.org/cache/epub/7705/pg7705.cover.medium.jpg","application/octet-stream":"https://www.gutenberg.org/cache/epub/7705/pg7705-h.zip"},"download_count":9},{"id":7724,"title":"The Last of the Barons — Volume 10","authors":[{"name":"Lytton, Edward Bulwer Lytton, Baron","birth_year":1803,"death_year":1873}],"translators":[],"subjects":["Great Britain -- History -- Wars of the Roses, 1455-1485 -- Fiction","Warwick, Richard Neville, Earl of, 1428-1471 -- Fiction"],"bookshelves":["Historical Fiction"],"languages":["en"],"copyright":false,"media_type":"Text","formats":{"text/html":"https://www.gutenberg.org/ebooks/7724.html.images","application/epub+zip":"https://www.gutenberg.org/ebooks/7724.epub3.images","application/x-mobipocket-ebook":"https://www.gutenberg.org/ebooks/7724.kf8.images","text/plain; charset=us-ascii":"https://www.gutenberg.org/ebooks/7724.txt.utf-8","application/rdf+xml":"https://www.gutenberg.org/ebooks/7724.rdf","image/jpeg":"https://www.gutenberg.org/cache/epub/7724/pg7724.cover.medium.jpg","application/octet-stream":"https://www.gutenberg.org/cache/epub/7724/pg7724-h.zip"},"download_count":9},{"id":7748,"title":"The Parisians — Volume 12","authors":[{"name":"Lytton, Edward Bulwer Lytton, Baron","birth_year":1803,"death_year":1873}],"translators":[],"subjects":["English fiction -- 19th century","Paris (France) -- Social life and customs -- 19th century -- Fiction"],"bookshelves":["Historical Fiction"],"languages":["en"],"copyright":false,"media_type":"Text","formats":{"text/html":"https://www.gutenberg.org/ebooks/7748.html.images","application/epub+zip":"https://www.gutenberg.org/ebooks/7748.epub3.images","application/x-mobipocket-ebook":"https://www.gutenberg.org/ebooks/7748.kf8.images","text/plain; charset=us-ascii":"https://www.gutenberg.org/ebooks/7748.txt.utf-8","application/rdf+xml":"https://www.gutenberg.org/ebooks/7748.rdf","image/jpeg":"https://www.gutenberg.org/cache/epub/7748/pg7748.cover.medium.jpg","application/octet-stream":"https://www.gutenberg.org/cache/epub/7748/pg7748-h.zip"},"download_count":9},{"id":7751,"title":"Godolphin, Volume 2.","authors":[{"name":"Lytton, Edward Bulwer Lytton, Baron","birth_year":1803,"death_year":1873}],"translators":[],"subjects":["England -- Social life and customs -- 19th century -- Fiction"],"bookshelves":[],"languages":["en"],"copyright":false,"media_type":"Text","formats":{"text/html":"https://www.gutenberg.org/ebooks/7751.html.images","application/epub+zip":"https://www.gutenberg.org/ebooks/7751.epub3.images","application/x-mobipocket-ebook":"https://www.gutenberg.org/ebooks/7751.kf8.images","text/plain; charset=us-ascii":"https://www.gutenberg.org/ebooks/7751.txt.utf-8","application/rdf+xml":"https://www.gutenberg.org/ebooks/7751.rdf","image/jpeg":"https://www.gutenberg.org/cache/epub/7751/pg7751.cover.medium.jpg","application/octet-stream":"https://www.gutenberg.org/cache/epub/7751/pg7751-h.zip"},"download_count":9},{"id":7808,"title":"Grand-Daddy Whiskers, M.D.","authors":[{"name":"Leonard, Nellie M. (Nellie Mabel)","birth_year":1875,"death_year":null}],"translators":[],"subjects":["Mice -- Juvenile fiction"],"bookshelves":[],"languages":["en"],"copyright":false,"media_type":"Text","formats":{"text/html":"https://www.gutenberg.org/ebooks/7808.html.images","text/html; charset=iso-8859-1":"https://www.gutenberg.org/files/7808/7808-h/7808-h.htm","application/epub+zip":"https://www.gutenberg.org/ebooks/7808.epub3.images","application/x-mobipocket-ebook":"https://www.gutenberg.org/ebooks/7808.kf8.images","text/plain; charset=us-ascii":"https://www.gutenberg.org/ebooks/7808.txt.utf-8","application/rdf+xml":"https://www.gutenberg.org/ebooks/7808.rdf","image/jpeg":"https://www.gutenberg.org/cache/epub/7808/pg7808.cover.medium.jpg","application/octet-stream":"https://www.gutenberg.org/cache/epub/7808/pg7808-h.zip"},"download_count":9},{"id":8029,"title":"The Bible, King James version, Book 29: Joel","authors":[{"name":"Anonymous","birth_year":null,"death_year":null}],"translators":[],"subjects":["Bible. Joel"],"bookshelves":["Judaism"],"languages":["en"],"copyright":false,"media_type":"Text","formats":{"text/html":"https://www.gutenberg.org/ebooks/8029.html.images","application/epub+zip":"https://www.gutenberg.org/ebooks/8029.epub3.images","application/x-mobipocket-ebook":"https://www.gutenberg.org/ebooks/8029.kf8.images","text/plain; charset=us-ascii":"https://www.gutenberg.org/ebooks/8029.txt.utf-8","application/rdf+xml":"https://www.gutenberg.org/ebooks/8029.rdf","image/jpeg":"https://www.gutenberg.org/cache/epub/8029/pg8029.cover.medium.jpg","application/octet-stream":"https://www.gutenberg.org/cache/epub/8029/pg8029-h.zip"},"download_count":9},{"id":8242,"title":"The World English Bible (WEB): Ezra","authors":[{"name":"Anonymous","birth_year":null,"death_year":null}],"translators":[],"subjects":["Bible. Ezra"],"bookshelves":[],"languages":["en"],"copyright":false,"media_type":"Text","formats":{"text/html":"https://www.gutenberg.org/ebooks/8242.html.images","application/epub+zip":"https://www.gutenberg.org/ebooks/8242.epub3.images","application/x-mobipocket-ebook":"https://www.gutenberg.org/ebooks/8242.kf8.images","text/plain; charset=us-ascii":"https://www.gutenberg.org/ebooks/8242.txt.utf-8","application/rdf+xml":"https://www.gutenberg.org/ebooks/8242.rdf","image/jpeg":"https://www.gutenberg.org/cache/epub/8242/pg8242.cover.medium.jpg","application/octet-stream":"https://www.gutenberg.org/cache/epub/8242/pg8242-h.zip"},"download_count":9},{"id":8250,"title":"The World English Bible (WEB): Isaiah","authors":[{"name":"Anonymous","birth_year":null,"death_year":null}],"translators":[],"subjects":["Bible. Isaiah"],"bookshelves":[],"languages":["en"],"copyright":false,"media_type":"Text","formats":{"text/html":"https://www.gutenberg.org/ebooks/8250.html.images","application/epub+zip":"https://www.gutenberg.org/ebooks/8250.epub3.images","application/x-mobipocket-ebook":"https://www.gutenberg.org/ebooks/8250.kf8.images","text/plain; charset=us-ascii":"https://www.gutenberg.org/ebooks/8250.txt.utf-8","application/rdf+xml":"https://www.gutenberg.org/ebooks/8250.rdf","image/jpeg":"https://www.gutenberg.org/cache/epub/8250/pg8250.cover.medium.jpg","application/octet-stream":"https://www.gutenberg.org/cache/epub/8250/pg8250-h.zip"},"download_count":9},{"id":8276,"title":"The World English Bible (WEB): Ephesians","authors":[{"name":"Anonymous","birth_year":null,"death_year":null}],"translators":[],"subjects":["Bible. Ephesians"],"bookshelves":[],"languages":["en"],"copyright":false,"media_type":"Text","formats":{"text/html":"https://www.gutenberg.org/ebooks/8276.html.images","application/epub+zip":"https://www.gutenberg.org/ebooks/8276.epub3.images","application/x-mobipocket-ebook":"https://www.gutenberg.org/ebooks/8276.kf8.images","text/plain; charset=us-ascii":"https://www.gutenberg.org/ebooks/8276.txt.utf-8","application/rdf+xml":"https://www.gutenberg.org/ebooks/8276.rdf","image/jpeg":"https://www.gutenberg.org/cache/epub/8276/pg8276.cover.medium.jpg","application/octet-stream":"https://www.gutenberg.org/cache/epub/8276/pg8276-h.zip"},"download_count":9},{"id":8290,"title":"The World English Bible (WEB): 2 John","authors":[{"name":"Anonymous","birth_year":null,"death_year":null}],"translators":[],"subjects":["Bible. Epistle of John, 2nd"],"bookshelves":[],"languages":["en"],"copyright":false,"media_type":"Text","formats":{"text/html":"https://www.gutenberg.org/ebooks/8290.html.images","application/epub+zip":"https://www.gutenberg.org/ebooks/8290.epub3.images","application/x-mobipocket-ebook":"https://www.gutenberg.org/ebooks/8290.kf8.images","text/plain; charset=us-ascii":"https://www.gutenberg.org/ebooks/8290.txt.utf-8","application/rdf+xml":"https://www.gutenberg.org/ebooks/8290.rdf","image/jpeg":"https://www.gutenberg.org/cache/epub/8290/pg8290.cover.medium.jpg","application/octet-stream":"https://www.gutenberg.org/cache/epub/8290/pg8290-h.zip"},"download_count":9},{"id":8326,"title":"The Bible, Douay-Rheims, Book 26: Ecclesiasticus: The Challoner Revision","authors":[],"translators":[],"subjects":["Bible. Apocrypha. Ecclesiasticus"],"bookshelves":[],"languages":["en"],"copyright":false,"media_type":"Text","formats":{"text/html":"https://www.gutenberg.org/ebooks/8326.html.images","application/epub+zip":"https://www.gutenberg.org/ebooks/8326.epub3.images","application/x-mobipocket-ebook":"https://www.gutenberg.org/ebooks/8326.kf8.images","text/plain; charset=us-ascii":"https://www.gutenberg.org/ebooks/8326.txt.utf-8","application/rdf+xml":"https://www.gutenberg.org/ebooks/8326.rdf","image/jpeg":"https://www.gutenberg.org/cache/epub/8326/pg8326.cover.medium.jpg","application/octet-stream":"https://www.gutenberg.org/cache/epub/8326/pg8326-h.zip"},"download_count":9},{"id":8336,"title":"The Bible, Douay-Rheims, Book 36: Abdias: The Challoner Revision","authors":[],"translators":[],"subjects":["Bible. Obadiah"],"bookshelves":[],"languages":["en"],"copyright":false,"media_type":"Text","formats":{"text/html":"https://www.gutenberg.org/ebooks/8336.html.images","application/epub+zip":"https://www.gutenberg.org/ebooks/8336.epub3.images","application/x-mobipocket-ebook":"https://www.gutenberg.org/ebooks/8336.kf8.images","text/plain; charset=us-ascii":"https://www.gutenberg.org/ebooks/8336.txt.utf-8","application/rdf+xml":"https://www.gutenberg.org/ebooks/8336.rdf","image/jpeg":"https://www.gutenberg.org/cache/epub/8336/pg8336.cover.medium.jpg","application/octet-stream":"https://www.gutenberg.org/cache/epub/8336/pg8336-h.zip"},"download_count":9},{"id":8351,"title":"The Bible, Douay-Rheims, Book 51: Acts: The Challoner Revision","authors":[],"translators":[],"subjects":["Bible. Acts"],"bookshelves":[],"languages":["en"],"copyright":false,"media_type":"Text","formats":{"text/html":"https://www.gutenberg.org/ebooks/8351.html.images","application/epub+zip":"https://www.gutenberg.org/ebooks/8351.epub3.images","application/x-mobipocket-ebook":"https://www.gutenberg.org/ebooks/8351.kf8.images","text/plain; charset=us-ascii":"https://www.gutenberg.org/ebooks/8351.txt.utf-8","application/rdf+xml":"https://www.gutenberg.org/ebooks/8351.rdf","image/jpeg":"https://www.gutenberg.org/cache/epub/8351/pg8351.cover.medium.jpg","application/octet-stream":"https://www.gutenberg.org/cache/epub/8351/pg8351-h.zip"},"download_count":9},{"id":8360,"title":"The Bible, Douay-Rheims, Book 60: 2 Thessalonians: The Challoner Revision","authors":[],"translators":[],"subjects":["Bible. Thessalonians, 2nd"],"bookshelves":[],"languages":["en"],"copyright":false,"media_type":"Text","formats":{"text/html":"https://www.gutenberg.org/ebooks/8360.html.images","application/epub+zip":"https://www.gutenberg.org/ebooks/8360.epub3.images","application/x-mobipocket-ebook":"https://www.gutenberg.org/ebooks/8360.kf8.images","text/plain; charset=us-ascii":"https://www.gutenberg.org/ebooks/8360.txt.utf-8","application/rdf+xml":"https://www.gutenberg.org/ebooks/8360.rdf","image/jpeg":"https://www.gutenberg.org/cache/epub/8360/pg8360.cover.medium.jpg","application/octet-stream":"https://www.gutenberg.org/cache/epub/8360/pg8360-h.zip"},"download_count":9},{"id":8366,"title":"The Bible, Douay-Rheims, Book 66: James: The Challoner Revision","authors":[],"translators":[],"subjects":["Bible. James"],"bookshelves":[],"languages":["en"],"copyright":false,"media_type":"Text","formats":{"text/html":"https://www.gutenberg.org/ebooks/8366.html.images","application/epub+zip":"https://www.gutenberg.org/ebooks/8366.epub3.images","application/x-mobipocket-ebook":"https://www.gutenberg.org/ebooks/8366.kf8.images","text/plain; charset=us-ascii":"https://www.gutenberg.org/ebooks/8366.txt.utf-8","application/rdf+xml":"https://www.gutenberg.org/ebooks/8366.rdf","image/jpeg":"https://www.gutenberg.org/cache/epub/8366/pg8366.cover.medium.jpg","application/octet-stream":"https://www.gutenberg.org/cache/epub/8366/pg8366-h.zip"},"download_count":9},{"id":8548,"title":"Pirke Avot: The Sayings of the Jewish Fathers","authors":[],"translators":[{"name":"Gorfinkle, Joseph I. (Joseph Isaac)","birth_year":1880,"death_year":null}],"subjects":["Mishnah. Avot"],"bookshelves":["Judaism"],"languages":["en"],"copyright":false,"media_type":"Text","formats":{"text/html":"https://www.gutenberg.org/ebooks/8548.html.images","application/epub+zip":"https://www.gutenberg.org/ebooks/8548.epub3.images","application/x-mobipocket-ebook":"https://www.gutenberg.org/ebooks/8548.kf8.images","text/plain; charset=us-ascii":"https://www.gutenberg.org/ebooks/8548.txt.utf-8","application/rdf+xml":"https://www.gutenberg.org/ebooks/8548.rdf","image/jpeg":"https://www.gutenberg.org/cache/epub/8548/pg8548.cover.medium.jpg","application/octet-stream":"https://www.gutenberg.org/cache/epub/8548/pg8548-h.zip"},"download_count":9}]}