{"count":58808,"next":"http://129.241.150.113:8000/books/?languages=en&page=1815","previous":"http://129.241.150.113:8000/books/?languages=en&page=1813","results":[{"id":65696,"title":"The Girl's Own Paper, Vol. VIII, No. 366, January 1, 1887","authors":[{"name":"Various","birth_year":null,"death_year":null}],"translators":[],"subjects":["Children's literature -- Periodicals"],"bookshelves":[],"languages":["en"],"copyright":false,"media_type":"Text","formats":{"text/html":"https://www.gutenberg.org/ebooks/65696.html.images","text/html; charset=utf-8":"https://www.gutenberg.org/files/65696/65696-h/65696-h.htm","application/epub+zip":"https://www.gutenberg.org/ebooks/65696.epub3.images","application/x-mobipocket-ebook":"https://www.gutenberg.org/ebooks/65696.kf8.images","text/plain; charset=us-ascii":"https://www.gutenberg.org/ebooks/65696.txt.utf-8","text/plain; charset=utf-8":"https://www.gutenberg.org/files/65696/65696-0.txt","application/rdf+xml":"https://www.gutenberg.org/ebooks/65696.rdf","image/jpeg":"https://www.gutenberg.org/cache/epub/65696/pg65696.cover.medium.jpg","application/octet-stream":"https://www.gutenberg.org/cache/epub/65696/pg65696-h.zip"},"download_count":11},{"id":65941,"title":"George Croghan","authors":[{"name":"Public Library of Fort Wayne and Allen County","birth_year":null,"death_year":null}],"translators":[],"subjects":["Croghan, George, 1791-1849"],"bookshelves":[],"languages":["en"],"copyright":false,"media_type":"Text","formats":{"text/html":"https://www.gutenberg.org/ebooks/65941.html.images","text/html; charset=utf-8":"https://www.gutenberg.org/files/65941/65941-h/65941-h.htm","application/epub+zip":"https://www.gutenberg.org/ebooks/65941.epub3.images","application/x-mobipocket-ebook":"https://www.gutenberg.org/ebooks/65941.kf8.images","text/plain; charset=us-ascii":"https://www.gutenberg.org/ebooks/65941.txt.utf-8","text/plain; charset=utf-8":"https://www.gutenberg.org/files/65941/65941-0.txt","application/rdf+xml":"https://www.gutenberg.org/ebooks/65941.rdf","image/jpeg":"https://www.gutenberg.org/cache/epub/65941/pg65941.cover.medium.jpg","application/octet-stream":"https://www.gutenberg.org/cache/epub/65941/pg65941-h.zip"},"download_count":11},{"id":66080,"title":"A Life's Story, In Poetry. Other Poems","authors":[{"name":"Woodcock, Dennison","birth_year":null,"death_year":null}],"translators":[],"subjects":["American poetry -- 20th century"],"bookshelves":[],"languages":["en"],"copyright":false,"media_type":"Text","formats":{"text/html":"https://www.gutenberg.org/ebooks/66080.html.images","text/html; charset=utf-8":"https://www.gutenberg.org/files/66080/66080-h/66080-h.htm","application/epub+zip":"https://www.gutenberg.org/ebooks/66080.epub3.images","application/x-mobipocket-ebook":"https://www.gutenberg.org/ebooks/66080.kf8.images","text/plain; charset=us-ascii":"https://www.gutenberg.org/ebooks/66080.txt.utf-8","text/plain; charset=utf-8":"https://www.gutenberg.org/files/66080/66080-0.txt","application/rdf+xml":"https://www.gutenberg.org/ebooks/66080.rdf","image/jpeg":"https://www.gutenberg.org/cache/epub/66080/pg66080.cover.medium.jpg","application/octet-stream":"https://www.gutenberg.org/cache/epub/66080/pg66080-h.zip"},"download_count":11},{"id":66367,"title":"Jenny: A Village Idyl","authors":[{"name":"Curtois, M. A. (Margaret Anne)","birth_year":null,"death_year":null}],"translators":[],"subjects":["England -- Fiction","Mothers -- Fiction","Siblings -- Fiction","Villages -- Fiction"],"bookshelves":[],"languages":["en"],"copyright":false,"media_type":"Text","formats":{"text/html":"https://www.gutenberg.org/ebooks/66367.html.images","application/epub+zip":"https://www.gutenberg.org/ebooks/66367.epub3.images","application/x-mobipocket-ebook":"https://www.gutenberg.org/ebooks/66367.kf8.images","text/plain; charset=us-ascii":"https://www.gutenberg.org/ebooks/66367.txt.utf-8","application/rdf+xml":"https://www.gutenberg.org/ebooks/66367.rdf","image/jpeg":"https://www.gutenberg.org/cache/epub/66367/pg66367.cover.medium.jpg","application/octet-stream":"https://www.gutenberg.org/files/66367/66367-0.zip"},"download_count":11},{"id":66425,"title":"The Girl's Own Paper, Vol. VIII, No. 373, February 19, 1887","authors":[{"name":"Various","birth_year":null,"death_year":null}],"translators":[],"subjects":["Children's literature -- Periodicals"],"bookshelves":[],"languages":["en"],"copyright":false,"media_type":"Text","formats":{"text/html":"https://www.gutenberg.org/ebooks/66425.html.images","application/epub+zip":"https://www.gutenberg.org/ebooks/66425.epub3.images","application/x-mobipocket-ebook":"https://www.gutenberg.org/ebooks/66425.kf8.images","text/plain; charset=us-ascii":"https://www.gutenberg.org/ebooks/66425.txt.utf-8","application/rdf+xml":"https://www.gutenberg.org/ebooks/66425.rdf","image/jpeg":"https://www.gutenberg.org/cache/epub/66425/pg66425.cover.medium.jpg","application/octet-stream":"https://www.gutenberg.org/files/66425/66425-0.zip"},"download_count":11},{"id":66888,"title":"A Merry Scout","authors":[{"name":"Brett, Edna Payson","birth_year":null,"death_year":null}],"translators":[],"subjects":["Children -- Juvenile fiction","Children's stories"],"bookshelves":[],"languages":["en"],"copyright":false,"media_type":"Text","formats":{"text/html":"https://www.gutenberg.org/ebooks/66888.html.images","application/epub+zip":"https://www.gutenberg.org/ebooks/66888.epub3.images","application/x-mobipocket-ebook":"https://www.gutenberg.org/ebooks/66888.kf8.images","text/plain; charset=us-ascii":"https://www.gutenberg.org/ebooks/66888.txt.utf-8","application/rdf+xml":"https://www.gutenberg.org/ebooks/66888.rdf","image/jpeg":"https://www.gutenberg.org/cache/epub/66888/pg66888.cover.medium.jpg","application/octet-stream":"https://www.gutenberg.org/files/66888/66888-0.zip"},"download_count":11},{"id":67113,"title":"Boy: A Sketch","authors":[{"name":"Corelli, Marie","birth_year":1855,"death_year":1924}],"translators":[],"subjects":["Boys -- Fiction","Dysfunctional families -- Fiction","England -- Fiction","Juvenile delinquents -- Fiction","Soldiers -- Fiction","South African War, 1899-1902 -- Fiction","Young men -- Fiction"],"bookshelves":[],"languages":["en"],"copyright":false,"media_type":"Text","formats":{"text/html":"https://www.gutenberg.org/ebooks/67113.html.images","application/epub+zip":"https://www.gutenberg.org/ebooks/67113.epub3.images","application/x-mobipocket-ebook":"https://www.gutenberg.org/ebooks/67113.kf8.images","text/plain; charset=us-ascii":"https://www.gutenberg.org/ebooks/67113.txt.utf-8","application/rdf+xml":"https://www.gutenberg.org/ebooks/67113.rdf","image/jpeg":"https://www.gutenberg.org/cache/epub/67113/pg67113.cover.medium.jpg","application/octet-stream":"https://www.gutenberg.org/files/67113/67113-0.zip"},"download_count":11},{"id":67207,"title":"The Box of Smiles, and Other Stories","authors":[{"name":"Smith, Laura Rountree","birth_year":1876,"death_year":1924}],"translators":[],"subjects":["Children -- Conduct of life -- Juvenile fiction","Children's stories","Fairies -- Juvenile fiction"],"bookshelves":[],"languages":["en"],"copyright":false,"media_type":"Text","formats":{"text/html":"https://www.gutenberg.org/ebooks/67207.html.images","application/epub+zip":"https://www.gutenberg.org/ebooks/67207.epub3.images","application/x-mobipocket-ebook":"https://www.gutenberg.org/ebooks/67207.kf8.images","text/plain; charset=us-ascii":"https://www.gutenberg.org/ebooks/67207.txt.utf-8","application/rdf+xml":"https://www.gutenberg.org/ebooks/67207.rdf","image/jpeg":"https://www.gutenberg.org/cache/epub/67207/pg67207.cover.medium.jpg","application/octet-stream":"https://www.gutenberg.org/files/67207/67207-0.zip"},"download_count":11},{"id":67565,"title":"Palkkapiian päiväkirja: Romaaninovelli","authors":[{"name":"Pennanen, Ain'Elisabet","birth_year":1881,"death_year":1945}],"translators":[],"subjects":["Finnish fiction -- 20th century"],"bookshelves":[],"languages":["en"],"copyright":false,"media_type":"Text","formats":{"text/html":"https://www.gutenberg.org/ebooks/67565.html.images","application/epub+zip":"https://www.gutenberg.org/ebooks/67565.epub3.images","image/jpeg":"https://www.gutenberg.org/files/67565/cover.jpg","application/x-mobipocket-ebook":"https://www.gutenberg.org/ebooks/67565.kf8.images","text/plain; charset=us-ascii":"https://www.gutenberg.org/ebooks/67565.txt.utf-8","application/rdf+xml":"https://www.gutenberg.org/ebooks/67565.rdf","application/octet-stream":"https://www.gutenberg.org/files/67565/67565-0.zip"},"download_count":11},{"id":67592,"title":"The Residuary Legatee; Or, The Posthumous Jest of the Late John Austin","authors":[{"name":"Stimson, Frederic Jesup","birth_year":1855,"death_year":1943}],"translators":[],"subjects":["Inheritance and succession -- Fiction"],"bookshelves":[],"languages":["en"],"copyright":false,"media_type":"Text","formats":{"text/html":"https://www.gutenberg.org/ebooks/67592.html.images","application/epub+zip":"https://www.gutenberg.org/ebooks/67592.epub3.images","application/x-mobipocket-ebook":"https://www.gutenberg.org/ebooks/67592.kf8.images","text/plain; charset=us-ascii":"https://www.gutenberg.org/ebooks/67592.txt.utf-8","application/rdf+xml":"https://www.gutenberg.org/ebooks/67592.rdf","image/jpeg":"https://www.gutenberg.org/cache/epub/67592/pg67592.cover.medium.jpg","application/octet-stream":"https://www.gutenberg.org/files/67592/67592-0.zip"},"download_count":11},{"id":67610,"title":"Three Loving Ladies","authors":[{"name":"Dowdall, Mrs.","birth_year":1876,"death_year":1939}],"translators":[],"subjects":["City and town life -- Fiction","England -- Social conditions -- 20th century -- Fiction","England -- Social life and customs -- 20th century -- Fiction","Families -- Fiction","Marriage -- Fiction","Social classes -- Fiction"],"bookshelves":[],"languages":["en"],"copyright":false,"media_type":"Text","formats":{"text/html":"https://www.gutenberg.org/ebooks/67610.html.images","application/epub+zip":"https://www.gutenberg.org/ebooks/67610.epub3.images","application/x-mobipocket-ebook":"https://www.gutenberg.org/ebooks/67610.kf8.images","text/plain; charset=us-ascii":"https://www.gutenberg.org/ebooks/67610.txt.utf-8","application/rdf+xml":"https://www.gutenberg.org/ebooks/67610.rdf","image/jpeg":"https://www.gutenberg.org/cache/epub/67610/pg67610.cover.medium.jpg","application/octet-stream":"https://www.gutenberg.org/files/67610/67610-0.zip"},"download_count":11},{"id":67944,"title":"A boy's-eye view of the Arctic","authors":[{"name":"Rawson, Kennett Longley","birth_year":1911,"death_year":1992}],"translators":[],"subjects":["Arctic regions","Bowdoin (Ship)","Cabin boys"],"bookshelves":[],"languages":["en"],"copyright":false,"media_type":"Text","formats":{"text/html":"https://www.gutenberg.org/ebooks/67944.html.images","application/epub+zip":"https://www.gutenberg.org/ebooks/67944.epub3.images","application/x-mobipocket-ebook":"https://www.gutenberg.org/ebooks/67944.kf8.images","text/plain; charset=us-ascii":"https://www.gutenberg.org/ebooks/67944.txt.utf-8","application/rdf+xml":"https://www.gutenberg.org/ebooks/67944.rdf","image/jpeg":"https://www.gutenberg.org/cache/epub/67944/pg67944.cover.medium.jpg","application/octet-stream":"https://www.gutenberg.org/files/67944/67944-0.zip"},"download_count":11},{"id":68083,"title":"A day at Happy Hollow School","authors":[{"name":"Van Derveer, Lettie Cook","birth_year":null,"death_year":null}],"translators":[],"subjects":["Schools -- Drama"],"bookshelves":[],"languages":["en"],"copyright":false,"media_type":"Text","formats":{"text/html":"https://www.gutenberg.org/ebooks/68083.html.images","application/epub+zip":"https://www.gutenberg.org/ebooks/68083.epub3.images","application/x-mobipocket-ebook":"https://www.gutenberg.org/ebooks/68083.kf8.images","text/plain; charset=us-ascii":"https://www.gutenberg.org/ebooks/68083.txt.utf-8","application/rdf+xml":"https://www.gutenberg.org/ebooks/68083.rdf","image/jpeg":"https://www.gutenberg.org/cache/epub/68083/pg68083.cover.medium.jpg","application/octet-stream":"https://www.gutenberg.org/files/68083/68083-0.zip"},"download_count":11},{"id":68424,"title":"Magic words: A tale for Christmas time","authors":[{"name":"Maceroni, Emilie","birth_year":null,"death_year":null}],"translators":[],"subjects":["Christmas stories"],"bookshelves":[],"languages":["en"],"copyright":false,"media_type":"Text","formats":{"text/html":"https://www.gutenberg.org/ebooks/68424.html.images","application/epub+zip":"https://www.gutenberg.org/ebooks/68424.epub3.images","application/x-mobipocket-ebook":"https://www.gutenberg.org/ebooks/68424.kf8.images","text/plain; charset=us-ascii":"https://www.gutenberg.org/ebooks/68424.txt.utf-8","application/rdf+xml":"https://www.gutenberg.org/ebooks/68424.rdf","image/jpeg":"https://www.gutenberg.org/cache/epub/68424/pg68424.cover.medium.jpg","application/octet-stream":"https://www.gutenberg.org/files/68424/68424-0.zip"},"download_count":11},{"id":68457,"title":"Right and wrong in Massachusetts","authors":[{"name":"Chapman, Maria Weston","birth_year":1806,"death_year":1885}],"translators":[],"subjects":["Antislavery movements -- Massachusetts -- Boston","Massachusetts Anti-slavery Society"],"bookshelves":[],"languages":["en"],"copyright":false,"media_type":"Text","formats":{"text/html":"https://www.gutenberg.org/ebooks/68457.html.images","application/epub+zip":"https://www.gutenberg.org/ebooks/68457.epub3.images","application/x-mobipocket-ebook":"https://www.gutenberg.org/ebooks/68457.kf8.images","text/plain; charset=us-ascii":"https://www.gutenberg.org/ebooks/68457.txt.utf-8","application/rdf+xml":"https://www.gutenberg.org/ebooks/68457.rdf","image/jpeg":"https://www.gutenberg.org/cache/epub/68457/pg68457.cover.medium.jpg","application/octet-stream":"https://www.gutenberg.org/files/68457/68457-0.zip"},"download_count":11},{"id":68539,"title":"The Shakespeare garden club: A fantasy","authors":[{"name":"Moran, Mabel M.","birth_year":null,"death_year":null}],"translators":[],"subjects":["Dramatists -- Drama","Shakespeare, William, 1564-1616 -- Drama"],"bookshelves":[],"languages":["en"],"copyright":false,"media_type":"Text","formats":{"text/html":"https://www.gutenberg.org/ebooks/68539.html.images","application/epub+zip":"https://www.gutenberg.org/ebooks/68539.epub3.images","application/x-mobipocket-ebook":"https://www.gutenberg.org/ebooks/68539.kf8.images","text/plain; charset=us-ascii":"https://www.gutenberg.org/ebooks/68539.txt.utf-8","application/rdf+xml":"https://www.gutenberg.org/ebooks/68539.rdf","image/jpeg":"https://www.gutenberg.org/cache/epub/68539/pg68539.cover.medium.jpg","application/octet-stream":"https://www.gutenberg.org/files/68539/68539-0.zip"},"download_count":11},{"id":68671,"title":"Sir Copp: A poem for the times, in six cantos","authors":[{"name":"Clarke, Thomas, active 1830-1872","birth_year":null,"death_year":null}],"translators":[],"subjects":["Copperhead movement -- Poetry","United States -- History -- Civil War, 1861-1865 -- Poetry","United States -- Politics and government -- 1861-1865 -- Poetry"],"bookshelves":[],"languages":["en"],"copyright":false,"media_type":"Text","formats":{"text/html":"https://www.gutenberg.org/ebooks/68671.html.images","application/epub+zip":"https://www.gutenberg.org/ebooks/68671.epub3.images","application/x-mobipocket-ebook":"https://www.gutenberg.org/ebooks/68671.kf8.images","text/plain; charset=us-ascii":"https://www.gutenberg.org/ebooks/68671.txt.utf-8","application/rdf+xml":"https://www.gutenberg.org/ebooks/68671.rdf","image/jpeg":"https://www.gutenberg.org/cache/epub/68671/pg68671.cover.medium.jpg","application/octet-stream":"https://www.gutenberg.org/files/68671/68671-0.zip"},"download_count":11},{"id":68698,"title":"Dick and Dr. Dan; Or, the boy monster hunters of the Bad Lands","authors":[{"name":"Little, C.","birth_year":null,"death_year":null}],"translators":[],"subjects":["Badlands (S.D. and Neb.) -- Juvenile fiction","Plesiosaurus -- Juvenile fiction","Science fiction"],"bookshelves":[],"languages":["en"],"copyright":false,"media_type":"Text","formats":{"text/html":"https://www.gutenberg.org/ebooks/68698.html.images","application/epub+zip":"https://www.gutenberg.org/ebooks/68698.epub3.images","application/x-mobipocket-ebook":"https://www.gutenberg.org/ebooks/68698.kf8.images","text/plain; charset=us-ascii":"https://www.gutenberg.org/ebooks/68698.txt.utf-8","application/rdf+xml":"https://www.gutenberg.org/ebooks/68698.rdf","image/jpeg":"https://www.gutenberg.org/cache/epub/68698/pg68698.cover.medium.jpg","application/octet-stream":"https://www.gutenberg.org/files/68698/68698-0.zip"},"download_count":11},{"id":68725,"title":"Snap: A legend of the Lone Mountain","authors":[{"name":"Phillipps-Wolley, Clive","birth_year":1854,"death_year":1918}],"translators":[],"subjects":["Canadian Rockies (B.C. and Alta.) -- Fiction","English fiction -- 19th century","Mountaineering -- Fiction"],"bookshelves":[],"languages":["en"],"copyright":false,"media_type":"Text","formats":{"text/html":"https://www.gutenberg.org/ebooks/68725.html.images","application/epub+zip":"https://www.gutenberg.org/ebooks/68725.epub3.images","application/x-mobipocket-ebook":"https://www.gutenberg.org/ebooks/68725.kf8.images","text/plain; charset=us-ascii":"https://www.gutenberg.org/ebooks/68725.txt.utf-8","application/rdf+xml":"https://www.gutenberg.org/ebooks/68725.rdf","image/jpeg":"https://www.gutenberg.org/cache/epub/68725/pg68725.cover.medium.jpg","application/octet-stream":"https://www.gutenberg.org/files/68725/68725-0.zip"},"download_count":11},{"id":68997,"title":"The Southern Literary Messenger, Vol. II., No. 6, May, 1836","authors":[{"name":"Various","birth_year":null,"death_year":null}],"translators":[],"subjects":["American literature -- 19th century -- Periodicals"],"bookshelves":[],"languages":["en"],"copyright":false,"media_type":"Text","formats":{"text/html":"https://www.gutenberg.org/ebooks/68997.html.images","application/epub+zip":"https://www.gutenberg.org/ebooks/68997.epub3.images","application/x-mobipocket-ebook":"https://www.gutenberg.org/ebooks/68997.kf8.images","text/plain; charset=us-ascii":"https://www.gutenberg.org/ebooks/68997.txt.utf-8","application/rdf+xml":"https://www.gutenberg.org/ebooks/68997.rdf","image/jpeg":"https://www.gutenberg.org/cache/epub/68997/pg68997.cover.medium.jpg","application/octet-stream":"https://www.gutenberg.org/files/68997/68997-0.zip"},"download_count":11},{"id":69109,"title":"The cretaceous birds of New Jersey","authors":[{"name":"Olson, Storrs L.","birth_year":1944,"death_year":2021},{"name":"Parris, David C.","birth_year":null,"death_year":null}],"translators":[],"subjects":["Birds, Fossil","Paleontology -- Cretaceous","Paleontology -- New Jersey"],"bookshelves":[],"languages":["en"],"copyright":false,"media_type":"Text","formats":{"text/html":"https://www.gutenberg.org/ebooks/69109.html.images","application/epub+zip":"https://www.gutenberg.org/ebooks/69109.epub3.images","application/x-mobipocket-ebook":"https://www.gutenberg.org/ebooks/69109.kf8.images","text/plain; charset=us-ascii":"https://www.gutenberg.org/ebooks/69109.txt.utf-8","application/rdf+xml":"https://www.gutenberg.org/ebooks/69109.rdf","image/jpeg":"https://www.gutenberg.org/cache/epub/69109/pg69109.cover.medium.jpg","application/octet-stream":"https://www.gutenberg.org/files/69109/69109-0.zip"},"download_count":11},{"id":69323,"title":"Black Nick, the hermit of the hills; or, The expiated crime: A story of Burgoyne's surrender","authors":[{"name":"Whittaker, Frederick","birth_year":1838,"death_year":1889}],"translators":[],"subjects":["Adventure stories","Burgoyne, John, 1722-1792 -- Fiction","Dime novels","Historical fiction","Mohawk Indians -- Fiction","United States -- History -- Revolution, 1775-1783 -- Fiction"],"bookshelves":[],"languages":["en"],"copyright":false,"media_type":"Text","formats":{"text/html":"https://www.gutenberg.org/ebooks/69323.html.images","application/epub+zip":"https://www.gutenberg.org/ebooks/69323.epub3.images","application/x-mobipocket-ebook":"https://www.gutenberg.org/ebooks/69323.kf8.images","text/plain; charset=us-ascii":"https://www.gutenberg.org/ebooks/69323.txt.utf-8","application/rdf+xml":"https://www.gutenberg.org/ebooks/69323.rdf","image/jpeg":"https://www.gutenberg.org/cache/epub/69323/pg69323.cover.medium.jpg","application/octet-stream":"https://www.gutenberg.org/files/69323/69323-0.zip"},"download_count":11},{"id":69450,"title":"An episode in the doings of the dualized","authors":[{"name":"Mason, Eveleen Laura","birth_year":1838,"death_year":1914}],"translators":[],"subjects":["Aphasia -- Fiction","Paralysis -- Fiction"],"bookshelves":[],"languages":["en"],"copyright":false,"media_type":"Text","formats":{"text/html":"https://www.gutenberg.org/ebooks/69450.html.images","application/epub+zip":"https://www.gutenberg.org/ebooks/69450.epub3.images","application/x-mobipocket-ebook":"https://www.gutenberg.org/ebooks/69450.kf8.images","text/plain; charset=us-ascii":"https://www.gutenberg.org/ebooks/69450.txt.utf-8","application/rdf+xml":"https://www.gutenberg.org/ebooks/69450.rdf","image/jpeg":"https://www.gutenberg.org/cache/epub/69450/pg69450.cover.medium.jpg","application/octet-stream":"https://www.gutenberg.org/files/69450/69450-0.zip"},"download_count":11},{"id":69690,"title":"Look out for paint: A farce comedy in three acts","authors":[{"name":"Shea, Cornelius","birth_year":1863,"death_year":1920}],"translators":[],"subjects":["Comedies","Farces","Impostors and imposture -- Drama","Mate selection -- Drama"],"bookshelves":[],"languages":["en"],"copyright":false,"media_type":"Text","formats":{"text/html":"https://www.gutenberg.org/ebooks/69690.html.images","application/epub+zip":"https://www.gutenberg.org/ebooks/69690.epub3.images","application/x-mobipocket-ebook":"https://www.gutenberg.org/ebooks/69690.kf8.images","text/plain; charset=us-ascii":"https://www.gutenberg.org/ebooks/69690.txt.utf-8","application/rdf+xml":"https://www.gutenberg.org/ebooks/69690.rdf","image/jpeg":"https://www.gutenberg.org/cache/epub/69690/pg69690.cover.medium.jpg","application/octet-stream":"https://www.gutenberg.org/files/69690/69690-0.zip"},"download_count":11},{"id":69761,"title":"The sinking of the Titanic, and other poems","authors":[{"name":"Stahl, Clarence Victor","birth_year":1885,"death_year":1973}],"translators":[],"subjects":["American poetry -- 20th century","Titanic (Steamship) -- Poetry"],"bookshelves":[],"languages":["en"],"copyright":false,"media_type":"Text","formats":{"text/html":"https://www.gutenberg.org/ebooks/69761.html.images","application/epub+zip":"https://www.gutenberg.org/ebooks/69761.epub3.images","application/x-mobipocket-ebook":"https://www.gutenberg.org/ebooks/69761.kf8.images","text/plain; charset=us-ascii":"https://www.gutenberg.org/ebooks/69761.txt.utf-8","application/rdf+xml":"https://www.gutenberg.org/ebooks/69761.rdf","image/jpeg":"https://www.gutenberg.org/cache/epub/69761/pg69761.cover.medium.jpg","application/octet-stream":"https://www.gutenberg.org/files/69761/69761-0.zip"},"download_count":11},{"id":70006,"title":"The hermit thrush","authors":[{"name":"Mathews, F. Schuyler (Ferdinand Schuyler)","birth_year":1854,"death_year":1938}],"translators":[],"subjects":["American poetry -- 19th century","Hermit thrush -- Poetry","New Hampshire -- Poetry"],"bookshelves":[],"languages":["en"],"copyright":false,"media_type":"Text","formats":{"text/html":"https://www.gutenberg.org/ebooks/70006.html.images","application/epub+zip":"https://www.gutenberg.org/ebooks/70006.epub3.images","application/x-mobipocket-ebook":"https://www.gutenberg.org/ebooks/70006.kf8.images","text/plain; charset=us-ascii":"https://www.gutenberg.org/ebooks/70006.txt.utf-8","application/rdf+xml":"https://www.gutenberg.org/ebooks/70006.rdf","image/jpeg":"https://www.gutenberg.org/cache/epub/70006/pg70006.cover.medium.jpg","application/octet-stream":"https://www.gutenberg.org/files/70006/70006-0.zip"},"download_count":11},{"id":70851,"title":"The heiress of Greenhurst : $b An autobiography","authors":[{"name":"Stephens, Ann S. (Ann Sophia)","birth_year":1810,"death_year":1886}],"translators":[],"subjects":["American fiction -- 19th century"],"bookshelves":[],"languages":["en"],"copyright":false,"media_type":"Text","formats":{"text/html":"https://www.gutenberg.org/ebooks/70851.html.images","application/epub+zip":"https://www.gutenberg.org/ebooks/70851.epub3.images","application/x-mobipocket-ebook":"https://www.gutenberg.org/ebooks/70851.kf8.images","text/plain; charset=us-ascii":"https://www.gutenberg.org/ebooks/70851.txt.utf-8","application/rdf+xml":"https://www.gutenberg.org/ebooks/70851.rdf","image/jpeg":"https://www.gutenberg.org/cache/epub/70851/pg70851.cover.medium.jpg","application/octet-stream":"https://www.gutenberg.org/files/70851/70851-0.zip"},"download_count":11},{"id":71082,"title":"Political and commercial geology and the world's mineral resources","authors":[],"translators":[],"subjects":["Geology, Economic","Mines and mineral resources"],"bookshelves":[],"languages":["en"],"copyright":false,"media_type":"Text","formats":{"text/html":"https://www.gutenberg.org/ebooks/71082.html.images","application/epub+zip":"https://www.gutenberg.org/ebooks/71082.epub3.images","application/x-mobipocket-ebook":"https://www.gutenberg.org/ebooks/71082.kf8.images","text/plain; charset=us-ascii":"https://www.gutenberg.org/ebooks/71082.txt.utf-8","application/rdf+xml":"https://www.gutenberg.org/ebooks/71082.rdf","image/jpeg":"https://www.gutenberg.org/cache/epub/71082/pg71082.cover.medium.jpg","application/octet-stream":"https://www.gutenberg.org/files/71082/71082-0.zip"},"download_count":11},{"id":71508,"title":"The coat without a seam, and other poems","authors":[{"name":"Cone, Helen Gray","birth_year":1859,"death_year":1934}],"translators":[],"subjects":["American poetry -- 20th century"],"bookshelves":[],"languages":["en"],"copyright":false,"media_type":"Text","formats":{"text/html":"https://www.gutenberg.org/ebooks/71508.html.images","application/epub+zip":"https://www.gutenberg.org/ebooks/71508.epub3.images","application/x-mobipocket-ebook":"https://www.gutenberg.org/ebooks/71508.kf8.images","text/plain; charset=us-ascii":"https://www.gutenberg.org/ebooks/71508.txt.utf-8","application/rdf+xml":"https://www.gutenberg.org/ebooks/71508.rdf","image/jpeg":"https://www.gutenberg.org/cache/epub/71508/pg71508.cover.medium.jpg","application/octet-stream":"https://www.gutenberg.org/files/71508/71508-h.zip"},"download_count":11},{"id":2209,"title":"Human Genome Project, rough draft, Chromosome Number 09","authors":[{"name":"Human Genome Project","birth_year":null,"death_year":null}],"translators":[],"subjects":["Human Genome Project","Human gene mapping","Human genetics","Nucleotide sequence"],"bookshelves":[],"languages":["en"],"copyright":false,"media_type":"Dataset","formats":{"text/plain; charset=us-ascii":"https://www.gutenberg.org/files/2209/2209.zip","application/rdf+xml":"https://www.gutenberg.org/ebooks/2209.rdf"},"download_count":10},{"id":2214,"title":"Human Genome Project, rough draft, Chromosome Number 14","authors":[{"name":"Human Genome Project","birth_year":null,"death_year":null}],"translators":[],"subjects":["Human Genome Project","Human gene mapping","Human genetics","Nucleotide sequence"],"bookshelves":[],"languages":["en"],"copyright":false,"media_type":"Dataset","formats":{"text/plain; charset=us-ascii":"https://www.gutenberg.org/files/2214/2214.zip","application/rdf+xml":"https://www.gutenberg.org/ebooks/2214.rdf"},"download_count":10},{"id":2216,"title":"Human Genome Project, rough draft, Chromosome Number 16","authors":[{"name":"Human Genome Project","birth_year":null,"death_year":null}],"translators":[],"subjects":["Human Genome Project","Human gene mapping","Human genetics","Nucleotide sequence"],"bookshelves":[],"languages":["en"],"copyright":false,"media_type":"Dataset","formats":{"text/plain; charset=us-ascii":"https://www.gutenberg.org/files/2216/2216.zip","application/rdf+xml":"https://www.gutenberg.org/ebooks/2216.rdf"},"download_count":10}]}