{"count":58808,"next":"http://129.241.150.113:8000/books/?languages=en&page=1648","previous":"http://129.241.150.113:8000/books/?languages=en&page=1646","results":[{"id":4403,"title":"The Shaving of Shagpat; an Arabian entertainment — Volume 3","authors":[{"name":"Meredith, George","birth_year":1828,"death_year":1909}],"translators":[],"subjects":["Arab countries -- Fiction","Fantasy fiction, English"],"bookshelves":[],"languages":["en"],"copyright":false,"media_type":"Text","formats":{"text/html":"https://www.gutenberg.org/ebooks/4403.html.images","application/epub+zip":"https://www.gutenberg.org/ebooks/4403.epub3.images","application/x-mobipocket-ebook":"https://www.gutenberg.org/ebooks/4403.kf8.images","text/plain; charset=us-ascii":"https://www.gutenberg.org/ebooks/4403.txt.utf-8","application/rdf+xml":"https://www.gutenberg.org/ebooks/4403.rdf","image/jpeg":"https://www.gutenberg.org/cache/epub/4403/pg4403.cover.medium.jpg","application/octet-stream":"https://www.gutenberg.org/cache/epub/4403/pg4403-h.zip"},"download_count":19},{"id":4419,"title":"Sandra Belloni — Volume 7","authors":[{"name":"Meredith, George","birth_year":1828,"death_year":1909}],"translators":[],"subjects":["English fiction -- 19th century"],"bookshelves":[],"languages":["en"],"copyright":false,"media_type":"Text","formats":{"text/html":"https://www.gutenberg.org/ebooks/4419.html.images","application/epub+zip":"https://www.gutenberg.org/ebooks/4419.epub3.images","application/x-mobipocket-ebook":"https://www.gutenberg.org/ebooks/4419.kf8.images","text/plain; charset=us-ascii":"https://www.gutenberg.org/ebooks/4419.txt.utf-8","application/rdf+xml":"https://www.gutenberg.org/ebooks/4419.rdf","image/jpeg":"https://www.gutenberg.org/cache/epub/4419/pg4419.cover.medium.jpg","application/octet-stream":"https://www.gutenberg.org/cache/epub/4419/pg4419-h.zip"},"download_count":19},{"id":4440,"title":"Vittoria — Volume 6","authors":[{"name":"Meredith, George","birth_year":1828,"death_year":1909}],"translators":[],"subjects":["Historical fiction","Italy -- History -- Revolution of 1848 -- Fiction","War stories"],"bookshelves":["Historical Fiction"],"languages":["en"],"copyright":false,"media_type":"Text","formats":{"text/html":"https://www.gutenberg.org/ebooks/4440.html.images","application/epub+zip":"https://www.gutenberg.org/ebooks/4440.epub3.images","application/x-mobipocket-ebook":"https://www.gutenberg.org/ebooks/4440.kf8.images","text/plain; charset=us-ascii":"https://www.gutenberg.org/ebooks/4440.txt.utf-8","application/rdf+xml":"https://www.gutenberg.org/ebooks/4440.rdf","image/jpeg":"https://www.gutenberg.org/cache/epub/4440/pg4440.cover.medium.jpg","application/octet-stream":"https://www.gutenberg.org/cache/epub/4440/pg4440-h.zip"},"download_count":19},{"id":4450,"title":"The Adventures of Harry Richmond — Volume 7","authors":[{"name":"Meredith, George","birth_year":1828,"death_year":1909}],"translators":[],"subjects":["Adventure and adventurers -- Fiction"],"bookshelves":[],"languages":["en"],"copyright":false,"media_type":"Text","formats":{"text/html":"https://www.gutenberg.org/ebooks/4450.html.images","application/epub+zip":"https://www.gutenberg.org/ebooks/4450.epub3.images","application/x-mobipocket-ebook":"https://www.gutenberg.org/ebooks/4450.kf8.images","text/plain; charset=us-ascii":"https://www.gutenberg.org/ebooks/4450.txt.utf-8","application/rdf+xml":"https://www.gutenberg.org/ebooks/4450.rdf","image/jpeg":"https://www.gutenberg.org/cache/epub/4450/pg4450.cover.medium.jpg","application/octet-stream":"https://www.gutenberg.org/cache/epub/4450/pg4450-h.zip"},"download_count":19},{"id":4455,"title":"Beauchamp's Career — Volume 3","authors":[{"name":"Meredith, George","birth_year":1828,"death_year":1909}],"translators":[],"subjects":["English fiction -- 19th century"],"bookshelves":[],"languages":["en"],"copyright":false,"media_type":"Text","formats":{"text/html":"https://www.gutenberg.org/ebooks/4455.html.images","application/epub+zip":"https://www.gutenberg.org/ebooks/4455.epub3.images","application/x-mobipocket-ebook":"https://www.gutenberg.org/ebooks/4455.kf8.images","text/plain; charset=us-ascii":"https://www.gutenberg.org/ebooks/4455.txt.utf-8","application/rdf+xml":"https://www.gutenberg.org/ebooks/4455.rdf","image/jpeg":"https://www.gutenberg.org/cache/epub/4455/pg4455.cover.medium.jpg","application/octet-stream":"https://www.gutenberg.org/cache/epub/4455/pg4455-h.zip"},"download_count":19},{"id":4471,"title":"One of Our Conquerors — Volume 1","authors":[{"name":"Meredith, George","birth_year":1828,"death_year":1909}],"translators":[],"subjects":["England -- Social conditions -- 19th century -- Fiction","English fiction -- 19th century","Great Britain -- Politics and government -- 19th century -- Fiction"],"bookshelves":[],"languages":["en"],"copyright":false,"media_type":"Text","formats":{"text/html":"https://www.gutenberg.org/ebooks/4471.html.images","application/epub+zip":"https://www.gutenberg.org/ebooks/4471.epub3.images","application/x-mobipocket-ebook":"https://www.gutenberg.org/ebooks/4471.kf8.images","text/plain; charset=us-ascii":"https://www.gutenberg.org/ebooks/4471.txt.utf-8","application/rdf+xml":"https://www.gutenberg.org/ebooks/4471.rdf","image/jpeg":"https://www.gutenberg.org/cache/epub/4471/pg4471.cover.medium.jpg","application/octet-stream":"https://www.gutenberg.org/cache/epub/4471/pg4471-h.zip"},"download_count":19},{"id":4472,"title":"One of Our Conquerors — Volume 2","authors":[{"name":"Meredith, George","birth_year":1828,"death_year":1909}],"translators":[],"subjects":["England -- Social conditions -- 19th century -- Fiction","English fiction -- 19th century","Great Britain -- Politics and government -- 19th century -- Fiction"],"bookshelves":[],"languages":["en"],"copyright":false,"media_type":"Text","formats":{"text/html":"https://www.gutenberg.org/ebooks/4472.html.images","application/epub+zip":"https://www.gutenberg.org/ebooks/4472.epub3.images","application/x-mobipocket-ebook":"https://www.gutenberg.org/ebooks/4472.kf8.images","text/plain; charset=us-ascii":"https://www.gutenberg.org/ebooks/4472.txt.utf-8","application/rdf+xml":"https://www.gutenberg.org/ebooks/4472.rdf","image/jpeg":"https://www.gutenberg.org/cache/epub/4472/pg4472.cover.medium.jpg","application/octet-stream":"https://www.gutenberg.org/cache/epub/4472/pg4472-h.zip"},"download_count":19},{"id":4492,"title":"Farina","authors":[{"name":"Meredith, George","birth_year":1828,"death_year":1909}],"translators":[],"subjects":["Germany -- Fiction"],"bookshelves":[],"languages":["en"],"copyright":false,"media_type":"Text","formats":{"text/html":"https://www.gutenberg.org/ebooks/4492.html.images","application/epub+zip":"https://www.gutenberg.org/ebooks/4492.epub3.images","application/x-mobipocket-ebook":"https://www.gutenberg.org/ebooks/4492.kf8.images","text/plain; charset=us-ascii":"https://www.gutenberg.org/ebooks/4492.txt.utf-8","application/rdf+xml":"https://www.gutenberg.org/ebooks/4492.rdf","image/jpeg":"https://www.gutenberg.org/cache/epub/4492/pg4492.cover.medium.jpg","application/octet-stream":"https://www.gutenberg.org/cache/epub/4492/pg4492-h.zip"},"download_count":19},{"id":4534,"title":"Sylvia's Lovers — Volume 1","authors":[{"name":"Gaskell, Elizabeth Cleghorn","birth_year":1810,"death_year":1865}],"translators":[],"subjects":["Historical fiction","Man-woman relationships -- Fiction","Women -- England -- Fiction","Yorkshire (England) -- Fiction"],"bookshelves":[],"languages":["en"],"copyright":false,"media_type":"Text","formats":{"text/html":"https://www.gutenberg.org/ebooks/4534.html.images","text/html; charset=iso-8859-1":"https://www.gutenberg.org/files/4534/4534-h/4534-h.htm","application/epub+zip":"https://www.gutenberg.org/ebooks/4534.epub3.images","application/x-mobipocket-ebook":"https://www.gutenberg.org/ebooks/4534.kf8.images","text/plain; charset=us-ascii":"https://www.gutenberg.org/ebooks/4534.txt.utf-8","application/rdf+xml":"https://www.gutenberg.org/ebooks/4534.rdf","image/jpeg":"https://www.gutenberg.org/cache/epub/4534/pg4534.cover.medium.jpg","application/octet-stream":"https://www.gutenberg.org/cache/epub/4534/pg4534-h.zip"},"download_count":19},{"id":4582,"title":"Björnstjerne Björnson, 1832-1910","authors":[{"name":"Payne, William Morton","birth_year":1858,"death_year":1919}],"translators":[],"subjects":["Bjørnson, Bjørnstjerne, 1832-1910"],"bookshelves":[],"languages":["en"],"copyright":false,"media_type":"Text","formats":{"text/html":"https://www.gutenberg.org/ebooks/4582.html.images","text/html; charset=iso-8859-1":"https://www.gutenberg.org/files/4582/4582-h/4582-h.htm","application/epub+zip":"https://www.gutenberg.org/ebooks/4582.epub3.images","application/x-mobipocket-ebook":"https://www.gutenberg.org/ebooks/4582.kf8.images","text/plain; charset=us-ascii":"https://www.gutenberg.org/ebooks/4582.txt.utf-8","text/plain; charset=iso-8859-1":"https://www.gutenberg.org/files/4582/4582-8.txt","application/rdf+xml":"https://www.gutenberg.org/ebooks/4582.rdf","image/jpeg":"https://www.gutenberg.org/cache/epub/4582/pg4582.cover.medium.jpg","application/octet-stream":"https://www.gutenberg.org/cache/epub/4582/pg4582-h.zip"},"download_count":19},{"id":4623,"title":"The Son of My Friend","authors":[{"name":"Arthur, T. S. (Timothy Shay)","birth_year":1809,"death_year":1885}],"translators":[],"subjects":["Temperance -- Fiction"],"bookshelves":[],"languages":["en"],"copyright":false,"media_type":"Text","formats":{"text/html":"https://www.gutenberg.org/ebooks/4623.html.images","text/html; charset=iso-8859-1":"https://www.gutenberg.org/files/4623/4623-h/4623-h.htm","application/epub+zip":"https://www.gutenberg.org/ebooks/4623.epub3.images","application/x-mobipocket-ebook":"https://www.gutenberg.org/ebooks/4623.kf8.images","text/plain; charset=us-ascii":"https://www.gutenberg.org/ebooks/4623.txt.utf-8","application/rdf+xml":"https://www.gutenberg.org/ebooks/4623.rdf","image/jpeg":"https://www.gutenberg.org/cache/epub/4623/pg4623.cover.medium.jpg","application/octet-stream":"https://www.gutenberg.org/cache/epub/4623/pg4623-h.zip"},"download_count":19},{"id":4632,"title":"The Good Time Coming","authors":[{"name":"Arthur, T. S. (Timothy Shay)","birth_year":1809,"death_year":1885}],"translators":[],"subjects":["Fiction"],"bookshelves":[],"languages":["en"],"copyright":false,"media_type":"Text","formats":{"text/html":"https://www.gutenberg.org/ebooks/4632.html.images","text/html; charset=iso-8859-1":"https://www.gutenberg.org/files/4632/4632-h/4632-h.htm","application/epub+zip":"https://www.gutenberg.org/ebooks/4632.epub3.images","application/x-mobipocket-ebook":"https://www.gutenberg.org/ebooks/4632.kf8.images","text/plain; charset=us-ascii":"https://www.gutenberg.org/ebooks/4632.txt.utf-8","application/rdf+xml":"https://www.gutenberg.org/ebooks/4632.rdf","image/jpeg":"https://www.gutenberg.org/cache/epub/4632/pg4632.cover.medium.jpg","application/octet-stream":"https://www.gutenberg.org/cache/epub/4632/pg4632-h.zip"},"download_count":19},{"id":4653,"title":"God's Good Man: A Simple Love Story","authors":[{"name":"Corelli, Marie","birth_year":1855,"death_year":1924}],"translators":[],"subjects":["Fiction","Love stories"],"bookshelves":[],"languages":["en"],"copyright":false,"media_type":"Text","formats":{"text/html":"https://www.gutenberg.org/ebooks/4653.html.images","application/epub+zip":"https://www.gutenberg.org/ebooks/4653.epub3.images","application/x-mobipocket-ebook":"https://www.gutenberg.org/ebooks/4653.kf8.images","text/plain; charset=us-ascii":"https://www.gutenberg.org/ebooks/4653.txt.utf-8","application/rdf+xml":"https://www.gutenberg.org/ebooks/4653.rdf","image/jpeg":"https://www.gutenberg.org/cache/epub/4653/pg4653.cover.medium.jpg","application/octet-stream":"https://www.gutenberg.org/cache/epub/4653/pg4653-h.zip"},"download_count":19},{"id":4669,"title":"Town and Country; Or, Life at Home and Abroad, Without and Within Us","authors":[{"name":"Adams, John S. (John Stowell)","birth_year":null,"death_year":1893}],"translators":[],"subjects":["American poetry -- 19th century","Short stories, American","United States -- Social life and customs -- Fiction","United States -- Social life and customs -- Poetry"],"bookshelves":[],"languages":["en"],"copyright":false,"media_type":"Text","formats":{"text/html":"https://www.gutenberg.org/ebooks/4669.html.images","application/epub+zip":"https://www.gutenberg.org/ebooks/4669.epub3.images","application/x-mobipocket-ebook":"https://www.gutenberg.org/ebooks/4669.kf8.images","text/plain; charset=us-ascii":"https://www.gutenberg.org/ebooks/4669.txt.utf-8","application/rdf+xml":"https://www.gutenberg.org/ebooks/4669.rdf","image/jpeg":"https://www.gutenberg.org/cache/epub/4669/pg4669.cover.medium.jpg","application/octet-stream":"https://www.gutenberg.org/cache/epub/4669/pg4669-h.zip"},"download_count":19},{"id":4739,"title":"Fly Leaves","authors":[{"name":"Calverley, Charles Stuart","birth_year":1831,"death_year":1884}],"translators":[],"subjects":["English poetry -- 19th century"],"bookshelves":[],"languages":["en"],"copyright":false,"media_type":"Text","formats":{"text/html":"https://www.gutenberg.org/ebooks/4739.html.images","application/epub+zip":"https://www.gutenberg.org/ebooks/4739.epub3.images","application/x-mobipocket-ebook":"https://www.gutenberg.org/ebooks/4739.kf8.images","text/plain; charset=us-ascii":"https://www.gutenberg.org/ebooks/4739.txt.utf-8","text/plain; charset=utf-8":"https://www.gutenberg.org/files/4739/4739-0.txt","application/rdf+xml":"https://www.gutenberg.org/ebooks/4739.rdf","image/jpeg":"https://www.gutenberg.org/cache/epub/4739/pg4739.cover.medium.jpg","application/octet-stream":"https://www.gutenberg.org/cache/epub/4739/pg4739-h.zip"},"download_count":19},{"id":4838,"title":"History of the United Netherlands from the Death of William the Silent to the Twelve Year's Truce, 1584-85a","authors":[{"name":"Motley, John Lothrop","birth_year":1814,"death_year":1877}],"translators":[],"subjects":["Netherlands -- History -- Eighty Years' War, 1568-1648"],"bookshelves":[],"languages":["en"],"copyright":false,"media_type":"Text","formats":{"text/html":"https://www.gutenberg.org/ebooks/4838.html.images","application/epub+zip":"https://www.gutenberg.org/ebooks/4838.epub3.images","application/x-mobipocket-ebook":"https://www.gutenberg.org/ebooks/4838.kf8.images","text/plain; charset=us-ascii":"https://www.gutenberg.org/ebooks/4838.txt.utf-8","application/rdf+xml":"https://www.gutenberg.org/ebooks/4838.rdf","image/jpeg":"https://www.gutenberg.org/cache/epub/4838/pg4838.cover.medium.jpg","application/octet-stream":"https://www.gutenberg.org/cache/epub/4838/pg4838-h.zip"},"download_count":19},{"id":4839,"title":"History of the United Netherlands from the Death of William the Silent to the Twelve Year's Truce, 1585b","authors":[{"name":"Motley, John Lothrop","birth_year":1814,"death_year":1877}],"translators":[],"subjects":["Netherlands -- History -- Eighty Years' War, 1568-1648"],"bookshelves":[],"languages":["en"],"copyright":false,"media_type":"Text","formats":{"text/html":"https://www.gutenberg.org/ebooks/4839.html.images","application/epub+zip":"https://www.gutenberg.org/ebooks/4839.epub3.images","application/x-mobipocket-ebook":"https://www.gutenberg.org/ebooks/4839.kf8.images","text/plain; charset=us-ascii":"https://www.gutenberg.org/ebooks/4839.txt.utf-8","application/rdf+xml":"https://www.gutenberg.org/ebooks/4839.rdf","image/jpeg":"https://www.gutenberg.org/cache/epub/4839/pg4839.cover.medium.jpg","application/octet-stream":"https://www.gutenberg.org/cache/epub/4839/pg4839-h.zip"},"download_count":19},{"id":4883,"title":"History of the United Netherlands from the Death of William the Silent to the Twelve Year's Truce, 1609","authors":[{"name":"Motley, John Lothrop","birth_year":1814,"death_year":1877}],"translators":[],"subjects":["Netherlands -- History -- Eighty Years' War, 1568-1648"],"bookshelves":[],"languages":["en"],"copyright":false,"media_type":"Text","formats":{"text/html":"https://www.gutenberg.org/ebooks/4883.html.images","application/epub+zip":"https://www.gutenberg.org/ebooks/4883.epub3.images","application/x-mobipocket-ebook":"https://www.gutenberg.org/ebooks/4883.kf8.images","text/plain; charset=us-ascii":"https://www.gutenberg.org/ebooks/4883.txt.utf-8","application/rdf+xml":"https://www.gutenberg.org/ebooks/4883.rdf","image/jpeg":"https://www.gutenberg.org/cache/epub/4883/pg4883.cover.medium.jpg","application/octet-stream":"https://www.gutenberg.org/cache/epub/4883/pg4883-h.zip"},"download_count":19},{"id":4899,"title":"Life and Death of John of Barneveld — Complete (1609-1623)","authors":[{"name":"Motley, John Lothrop","birth_year":1814,"death_year":1877}],"translators":[],"subjects":["Oldenbarnevelt, Johan van, 1547-1619","Thirty Years' War, 1618-1648"],"bookshelves":[],"languages":["en"],"copyright":false,"media_type":"Text","formats":{"text/html":"https://www.gutenberg.org/ebooks/4899.html.images","application/epub+zip":"https://www.gutenberg.org/ebooks/4899.epub3.images","application/x-mobipocket-ebook":"https://www.gutenberg.org/ebooks/4899.kf8.images","text/plain; charset=us-ascii":"https://www.gutenberg.org/ebooks/4899.txt.utf-8","application/rdf+xml":"https://www.gutenberg.org/ebooks/4899.rdf","image/jpeg":"https://www.gutenberg.org/cache/epub/4899/pg4899.cover.medium.jpg","application/octet-stream":"https://www.gutenberg.org/cache/epub/4899/pg4899-h.zip"},"download_count":19},{"id":4954,"title":"Laicus; Or, the Experiences of a Layman in a Country Parish.","authors":[{"name":"Abbott, Lyman","birth_year":1835,"death_year":1922}],"translators":[],"subjects":["Christian fiction","New York (State) -- Fiction","Parishes -- Fiction"],"bookshelves":[],"languages":["en"],"copyright":false,"media_type":"Text","formats":{"text/html":"https://www.gutenberg.org/ebooks/4954.html.images","application/epub+zip":"https://www.gutenberg.org/ebooks/4954.epub3.images","application/x-mobipocket-ebook":"https://www.gutenberg.org/ebooks/4954.kf8.images","text/plain; charset=us-ascii":"https://www.gutenberg.org/ebooks/4954.txt.utf-8","application/rdf+xml":"https://www.gutenberg.org/ebooks/4954.rdf","image/jpeg":"https://www.gutenberg.org/cache/epub/4954/pg4954.cover.medium.jpg","application/octet-stream":"https://www.gutenberg.org/cache/epub/4954/pg4954-h.zip"},"download_count":19},{"id":5021,"title":"State of the Union Addresses","authors":[{"name":"Fillmore, Millard","birth_year":1800,"death_year":1874}],"translators":[],"subjects":["Presidents -- United States -- Messages","United States -- Politics and government -- Sources"],"bookshelves":[],"languages":["en"],"copyright":false,"media_type":"Text","formats":{"text/html":"https://www.gutenberg.org/ebooks/5021.html.images","text/html; charset=iso-8859-1":"https://www.gutenberg.org/files/5021/5021-h/5021-h.htm","application/epub+zip":"https://www.gutenberg.org/ebooks/5021.epub3.images","application/x-mobipocket-ebook":"https://www.gutenberg.org/ebooks/5021.kf8.images","text/plain; charset=us-ascii":"https://www.gutenberg.org/ebooks/5021.txt.utf-8","application/rdf+xml":"https://www.gutenberg.org/ebooks/5021.rdf","image/jpeg":"https://www.gutenberg.org/cache/epub/5021/pg5021.cover.medium.jpg","application/octet-stream":"https://www.gutenberg.org/cache/epub/5021/pg5021-h.zip"},"download_count":19},{"id":5031,"title":"State of the Union Addresses","authors":[{"name":"McKinley, William","birth_year":1843,"death_year":1901}],"translators":[],"subjects":["Presidents -- United States -- Messages","United States -- Politics and government -- Sources"],"bookshelves":[],"languages":["en"],"copyright":false,"media_type":"Text","formats":{"text/html":"https://www.gutenberg.org/ebooks/5031.html.images","application/epub+zip":"https://www.gutenberg.org/ebooks/5031.epub3.images","application/x-mobipocket-ebook":"https://www.gutenberg.org/ebooks/5031.kf8.images","text/plain; charset=us-ascii":"https://www.gutenberg.org/ebooks/5031.txt.utf-8","application/rdf+xml":"https://www.gutenberg.org/ebooks/5031.rdf","image/jpeg":"https://www.gutenberg.org/cache/epub/5031/pg5031.cover.medium.jpg","application/octet-stream":"https://www.gutenberg.org/cache/epub/5031/pg5031-h.zip"},"download_count":19},{"id":5036,"title":"State of the Union Addresses","authors":[{"name":"Coolidge, Calvin","birth_year":1872,"death_year":1933}],"translators":[],"subjects":["Presidents -- United States -- Messages","United States -- Politics and government -- Sources"],"bookshelves":[],"languages":["en"],"copyright":false,"media_type":"Text","formats":{"text/html":"https://www.gutenberg.org/ebooks/5036.html.images","text/html; charset=iso-8859-1":"https://www.gutenberg.org/files/5036/5036-h/5036-h.htm","application/epub+zip":"https://www.gutenberg.org/ebooks/5036.epub3.images","application/x-mobipocket-ebook":"https://www.gutenberg.org/ebooks/5036.kf8.images","text/plain; charset=us-ascii":"https://www.gutenberg.org/ebooks/5036.txt.utf-8","application/rdf+xml":"https://www.gutenberg.org/ebooks/5036.rdf","image/jpeg":"https://www.gutenberg.org/cache/epub/5036/pg5036.cover.medium.jpg","application/octet-stream":"https://www.gutenberg.org/cache/epub/5036/pg5036-h.zip"},"download_count":19},{"id":5055,"title":"Plays : First Series","authors":[{"name":"Galsworthy, John","birth_year":1867,"death_year":1933}],"translators":[],"subjects":["England -- Drama"],"bookshelves":[],"languages":["en"],"copyright":false,"media_type":"Text","formats":{"text/html":"https://www.gutenberg.org/ebooks/5055.html.images","application/epub+zip":"https://www.gutenberg.org/ebooks/5055.epub3.images","application/x-mobipocket-ebook":"https://www.gutenberg.org/ebooks/5055.kf8.images","text/plain; charset=us-ascii":"https://www.gutenberg.org/ebooks/5055.txt.utf-8","application/rdf+xml":"https://www.gutenberg.org/ebooks/5055.rdf","image/jpeg":"https://www.gutenberg.org/cache/epub/5055/pg5055.cover.medium.jpg","application/octet-stream":"https://www.gutenberg.org/cache/epub/5055/pg5055-h.zip"},"download_count":19},{"id":5172,"title":"Aladdin O'Brien","authors":[{"name":"Morris, Gouverneur","birth_year":1876,"death_year":1953}],"translators":[],"subjects":["American fiction -- 20th century","United States -- History -- Civil War, 1861-1865 -- Fiction"],"bookshelves":[],"languages":["en"],"copyright":false,"media_type":"Text","formats":{"text/html":"https://www.gutenberg.org/ebooks/5172.html.images","text/html; charset=utf-8":"https://www.gutenberg.org/files/5172/5172-h/5172-h.htm","application/epub+zip":"https://www.gutenberg.org/ebooks/5172.epub3.images","application/x-mobipocket-ebook":"https://www.gutenberg.org/ebooks/5172.kf8.images","text/plain; charset=us-ascii":"https://www.gutenberg.org/ebooks/5172.txt.utf-8","text/plain; charset=utf-8":"https://www.gutenberg.org/files/5172/5172-0.txt","application/rdf+xml":"https://www.gutenberg.org/ebooks/5172.rdf","image/jpeg":"https://www.gutenberg.org/cache/epub/5172/pg5172.cover.medium.jpg","application/octet-stream":"https://www.gutenberg.org/cache/epub/5172/pg5172-h.zip"},"download_count":19},{"id":5208,"title":"The Parish Register","authors":[{"name":"Crabbe, George","birth_year":1754,"death_year":1832}],"translators":[],"subjects":["English poetry"],"bookshelves":[],"languages":["en"],"copyright":false,"media_type":"Text","formats":{"text/html":"https://www.gutenberg.org/ebooks/5208.html.images","text/html; charset=us-ascii":"https://www.gutenberg.org/files/5208/5208-h/5208-h.htm","application/epub+zip":"https://www.gutenberg.org/ebooks/5208.epub3.images","application/x-mobipocket-ebook":"https://www.gutenberg.org/ebooks/5208.kf8.images","text/plain; charset=us-ascii":"https://www.gutenberg.org/ebooks/5208.txt.utf-8","application/rdf+xml":"https://www.gutenberg.org/ebooks/5208.rdf","image/jpeg":"https://www.gutenberg.org/cache/epub/5208/pg5208.cover.medium.jpg","application/octet-stream":"https://www.gutenberg.org/cache/epub/5208/pg5208-h.zip"},"download_count":19},{"id":5209,"title":"Miscellaneous Poems","authors":[{"name":"Crabbe, George","birth_year":1754,"death_year":1832}],"translators":[],"subjects":["English poetry -- 19th century"],"bookshelves":[],"languages":["en"],"copyright":false,"media_type":"Text","formats":{"text/html":"https://www.gutenberg.org/ebooks/5209.html.images","text/html; charset=us-ascii":"https://www.gutenberg.org/files/5209/5209-h/5209-h.htm","application/epub+zip":"https://www.gutenberg.org/ebooks/5209.epub3.images","application/x-mobipocket-ebook":"https://www.gutenberg.org/ebooks/5209.kf8.images","text/plain; charset=us-ascii":"https://www.gutenberg.org/ebooks/5209.txt.utf-8","application/rdf+xml":"https://www.gutenberg.org/ebooks/5209.rdf","image/jpeg":"https://www.gutenberg.org/cache/epub/5209/pg5209.cover.medium.jpg","application/octet-stream":"https://www.gutenberg.org/cache/epub/5209/pg5209-h.zip"},"download_count":19},{"id":5220,"title":"The Satyricon — Volume 03: Encolpius and His Companions","authors":[{"name":"Petronius Arbiter","birth_year":20,"death_year":66}],"translators":[{"name":"Firebaugh, W. C.","birth_year":null,"death_year":null}],"subjects":["Rome -- Fiction","Satire, Latin -- Translations into English"],"bookshelves":[],"languages":["en"],"copyright":false,"media_type":"Text","formats":{"text/html":"https://www.gutenberg.org/ebooks/5220.html.images","text/html; charset=iso-8859-1":"https://www.gutenberg.org/files/5220/5220-h/5220-h.htm","application/epub+zip":"https://www.gutenberg.org/ebooks/5220.epub3.images","application/x-mobipocket-ebook":"https://www.gutenberg.org/ebooks/5220.kf8.images","text/plain; charset=us-ascii":"https://www.gutenberg.org/ebooks/5220.txt.utf-8","application/rdf+xml":"https://www.gutenberg.org/ebooks/5220.rdf","image/jpeg":"https://www.gutenberg.org/cache/epub/5220/pg5220.cover.medium.jpg","application/octet-stream":"https://www.gutenberg.org/cache/epub/5220/pg5220-h.zip"},"download_count":19},{"id":5262,"title":"Curly and Floppy Twistytail (The Funny Piggie Boys)","authors":[{"name":"Garis, Howard Roger","birth_year":1873,"death_year":1962}],"translators":[],"subjects":["Animals -- Juvenile fiction","Swine -- Juvenile fiction"],"bookshelves":[],"languages":["en"],"copyright":false,"media_type":"Text","formats":{"text/html":"https://www.gutenberg.org/ebooks/5262.html.images","application/epub+zip":"https://www.gutenberg.org/ebooks/5262.epub3.images","application/x-mobipocket-ebook":"https://www.gutenberg.org/ebooks/5262.kf8.images","text/plain; charset=us-ascii":"https://www.gutenberg.org/ebooks/5262.txt.utf-8","application/rdf+xml":"https://www.gutenberg.org/ebooks/5262.rdf","image/jpeg":"https://www.gutenberg.org/cache/epub/5262/pg5262.cover.medium.jpg","application/octet-stream":"https://www.gutenberg.org/cache/epub/5262/pg5262-h.zip"},"download_count":19},{"id":5362,"title":"The Inside of the Cup — Volume 07","authors":[{"name":"Churchill, Winston","birth_year":1871,"death_year":1947}],"translators":[],"subjects":["Attitude change -- Fiction","Christian ethics -- Fiction","Christian life -- Fiction","Conscience -- Religious aspects -- Fiction"],"bookshelves":["Bestsellers, American, 1895-1923"],"languages":["en"],"copyright":false,"media_type":"Text","formats":{"text/html":"https://www.gutenberg.org/ebooks/5362.html.images","application/epub+zip":"https://www.gutenberg.org/ebooks/5362.epub3.images","application/x-mobipocket-ebook":"https://www.gutenberg.org/ebooks/5362.kf8.images","text/plain; charset=us-ascii":"https://www.gutenberg.org/ebooks/5362.txt.utf-8","application/rdf+xml":"https://www.gutenberg.org/ebooks/5362.rdf","image/jpeg":"https://www.gutenberg.org/cache/epub/5362/pg5362.cover.medium.jpg","application/octet-stream":"https://www.gutenberg.org/cache/epub/5362/pg5362-h.zip"},"download_count":19},{"id":5394,"title":"The Crisis — Volume 07","authors":[{"name":"Churchill, Winston","birth_year":1871,"death_year":1947}],"translators":[],"subjects":["United States -- History -- Civil War, 1861-1865 -- Fiction"],"bookshelves":["Bestsellers, American, 1895-1923","US Civil War"],"languages":["en"],"copyright":false,"media_type":"Text","formats":{"text/html":"https://www.gutenberg.org/ebooks/5394.html.images","application/epub+zip":"https://www.gutenberg.org/ebooks/5394.epub3.images","application/x-mobipocket-ebook":"https://www.gutenberg.org/ebooks/5394.kf8.images","text/plain; charset=us-ascii":"https://www.gutenberg.org/ebooks/5394.txt.utf-8","application/rdf+xml":"https://www.gutenberg.org/ebooks/5394.rdf","image/jpeg":"https://www.gutenberg.org/cache/epub/5394/pg5394.cover.medium.jpg","application/octet-stream":"https://www.gutenberg.org/cache/epub/5394/pg5394-h.zip"},"download_count":19},{"id":5409,"title":"The Memoirs of Count Grammont — Volume 01","authors":[{"name":"Hamilton, Anthony, Count","birth_year":null,"death_year":1720}],"translators":[],"subjects":["Gramont, Philibert, comte de, 1621-1707","Great Britain -- Court and courtiers -- Early works to 1800","Great Britain -- History -- Charles II, 1660-1685"],"bookshelves":[],"languages":["en"],"copyright":false,"media_type":"Text","formats":{"text/html":"https://www.gutenberg.org/ebooks/5409.html.images","application/epub+zip":"https://www.gutenberg.org/ebooks/5409.epub3.images","application/x-mobipocket-ebook":"https://www.gutenberg.org/ebooks/5409.kf8.images","text/plain; charset=us-ascii":"https://www.gutenberg.org/ebooks/5409.txt.utf-8","application/rdf+xml":"https://www.gutenberg.org/ebooks/5409.rdf","image/jpeg":"https://www.gutenberg.org/cache/epub/5409/pg5409.cover.medium.jpg","application/octet-stream":"https://www.gutenberg.org/cache/epub/5409/pg5409-h.zip"},"download_count":19}]}