{"count":58808,"next":"http://129.241.150.113:8000/books/?languages=en&page=1834","previous":"http://129.241.150.113:8000/books/?languages=en&page=1832","results":[{"id":3519,"title":"Human Genome Project, Chromosome Number 19","authors":[{"name":"Human Genome Project","birth_year":null,"death_year":null}],"translators":[],"subjects":["Human Genome Project","Human gene mapping","Human genetics","Nucleotide sequence"],"bookshelves":[],"languages":["en"],"copyright":false,"media_type":"Dataset","formats":{"text/plain; charset=us-ascii":"https://www.gutenberg.org/files/3519/3519.zip","application/rdf+xml":"https://www.gutenberg.org/ebooks/3519.rdf"},"download_count":4},{"id":4477,"title":"Lord Ormont and His Aminta — Volume 1","authors":[{"name":"Meredith, George","birth_year":1828,"death_year":1909}],"translators":[],"subjects":["English fiction -- 19th century"],"bookshelves":[],"languages":["en"],"copyright":false,"media_type":"Text","formats":{"text/html":"https://www.gutenberg.org/ebooks/4477.html.images","application/epub+zip":"https://www.gutenberg.org/ebooks/4477.epub3.images","application/x-mobipocket-ebook":"https://www.gutenberg.org/ebooks/4477.kf8.images","text/plain; charset=us-ascii":"https://www.gutenberg.org/ebooks/4477.txt.utf-8","application/rdf+xml":"https://www.gutenberg.org/ebooks/4477.rdf","image/jpeg":"https://www.gutenberg.org/cache/epub/4477/pg4477.cover.medium.jpg","application/octet-stream":"https://www.gutenberg.org/cache/epub/4477/pg4477-h.zip"},"download_count":4},{"id":7603,"title":"The Caxtons: A Family Picture — Volume 17","authors":[{"name":"Lytton, Edward Bulwer Lytton, Baron","birth_year":1803,"death_year":1873}],"translators":[],"subjects":["English fiction -- 19th century","Families -- Fiction"],"bookshelves":[],"languages":["en"],"copyright":false,"media_type":"Text","formats":{"text/html":"https://www.gutenberg.org/ebooks/7603.html.images","application/epub+zip":"https://www.gutenberg.org/ebooks/7603.epub3.images","application/x-mobipocket-ebook":"https://www.gutenberg.org/ebooks/7603.kf8.images","text/plain; charset=us-ascii":"https://www.gutenberg.org/ebooks/7603.txt.utf-8","application/rdf+xml":"https://www.gutenberg.org/ebooks/7603.rdf","image/jpeg":"https://www.gutenberg.org/cache/epub/7603/pg7603.cover.medium.jpg","application/octet-stream":"https://www.gutenberg.org/cache/epub/7603/pg7603-h.zip"},"download_count":4},{"id":10200,"title":"To Edison from Colonel Gouraud, Introducing Mr. Gladstone: The Phonograph's Salutation","authors":[],"translators":[],"subjects":["Edison, Thomas A. (Thomas Alva), 1847-1931","Phonograph"],"bookshelves":[],"languages":["en"],"copyright":false,"media_type":"Sound","formats":{"text/plain; charset=us-ascii":"https://www.gutenberg.org/files/10200/10200-m/10200-m-readme.txt","audio/mpeg":"https://www.gutenberg.org/files/10200/10200-m/10200-m-001.mp3","application/rdf+xml":"https://www.gutenberg.org/ebooks/10200.rdf"},"download_count":4},{"id":11785,"title":"Human Genome Project, Build 34, Chromosome Number 11","authors":[{"name":"Human Genome Project","birth_year":null,"death_year":null}],"translators":[],"subjects":["Nucleotide sequence"],"bookshelves":[],"languages":["en"],"copyright":false,"media_type":"Dataset","formats":{"text/plain":"https://www.gutenberg.org/files/11785/11785.zip","application/rdf+xml":"https://www.gutenberg.org/ebooks/11785.rdf"},"download_count":4},{"id":15525,"title":"Miriam's Schooling and Other Papers","authors":[{"name":"White, William Hale","birth_year":1831,"death_year":1913}],"translators":[],"subjects":["Short stories"],"bookshelves":[],"languages":["en"],"copyright":false,"media_type":"Text","formats":{"text/html":"https://www.gutenberg.org/ebooks/15525.html.images","application/epub+zip":"https://www.gutenberg.org/ebooks/15525.epub3.images","application/x-mobipocket-ebook":"https://www.gutenberg.org/ebooks/15525.kf8.images","text/plain; charset=us-ascii":"https://www.gutenberg.org/ebooks/15525.txt.utf-8","application/rdf+xml":"https://www.gutenberg.org/ebooks/15525.rdf","image/jpeg":"https://www.gutenberg.org/cache/epub/15525/pg15525.cover.medium.jpg","application/octet-stream":"https://www.gutenberg.org/cache/epub/15525/pg15525-h.zip"},"download_count":4},{"id":54509,"title":"The Irish Penny Journal, Vol. 1 No. 24, December 12, 1840","authors":[{"name":"Various","birth_year":null,"death_year":null}],"translators":[],"subjects":["Ireland -- Periodicals"],"bookshelves":[],"languages":["en"],"copyright":false,"media_type":"Text","formats":{"text/html":"https://www.gutenberg.org/ebooks/54509.html.images","text/html; charset=utf-8":"https://www.gutenberg.org/files/54509/54509-h/54509-h.htm","application/epub+zip":"https://www.gutenberg.org/ebooks/54509.epub3.images","application/x-mobipocket-ebook":"https://www.gutenberg.org/ebooks/54509.kf8.images","text/plain; charset=us-ascii":"https://www.gutenberg.org/ebooks/54509.txt.utf-8","text/plain; charset=utf-8":"https://www.gutenberg.org/files/54509/54509-0.txt","application/rdf+xml":"https://www.gutenberg.org/ebooks/54509.rdf","image/jpeg":"https://www.gutenberg.org/cache/epub/54509/pg54509.cover.medium.jpg","application/octet-stream":"https://www.gutenberg.org/cache/epub/54509/pg54509-h.zip"},"download_count":4},{"id":54748,"title":"The Irish Penny Journal, Vol. 1 No. 32, February 6, 1841","authors":[{"name":"Various","birth_year":null,"death_year":null}],"translators":[],"subjects":["Ireland -- Periodicals"],"bookshelves":[],"languages":["en"],"copyright":false,"media_type":"Text","formats":{"text/html":"https://www.gutenberg.org/ebooks/54748.html.images","text/html; charset=utf-8":"https://www.gutenberg.org/files/54748/54748-h/54748-h.htm","application/epub+zip":"https://www.gutenberg.org/ebooks/54748.epub3.images","application/x-mobipocket-ebook":"https://www.gutenberg.org/ebooks/54748.kf8.images","text/plain; charset=us-ascii":"https://www.gutenberg.org/ebooks/54748.txt.utf-8","text/plain; charset=utf-8":"https://www.gutenberg.org/files/54748/54748-0.txt","application/rdf+xml":"https://www.gutenberg.org/ebooks/54748.rdf","image/jpeg":"https://www.gutenberg.org/cache/epub/54748/pg54748.cover.medium.jpg","application/octet-stream":"https://www.gutenberg.org/cache/epub/54748/pg54748-h.zip"},"download_count":4},{"id":55306,"title":"The Irish Penny Journal, Vol. 1 No. 45, May 8, 1841","authors":[{"name":"Various","birth_year":null,"death_year":null}],"translators":[],"subjects":["Ireland -- Periodicals"],"bookshelves":[],"languages":["en"],"copyright":false,"media_type":"Text","formats":{"application/rdf+xml":"https://www.gutenberg.org/ebooks/55306.rdf","text/html":"https://www.gutenberg.org/ebooks/55306.html.images","text/html; charset=utf-8":"https://www.gutenberg.org/files/55306/55306-h/55306-h.htm","application/epub+zip":"https://www.gutenberg.org/ebooks/55306.epub3.images","application/x-mobipocket-ebook":"https://www.gutenberg.org/ebooks/55306.kf8.images","text/plain; charset=us-ascii":"https://www.gutenberg.org/ebooks/55306.txt.utf-8","text/plain; charset=utf-8":"https://www.gutenberg.org/files/55306/55306-0.txt","image/jpeg":"https://www.gutenberg.org/cache/epub/55306/pg55306.cover.medium.jpg","application/octet-stream":"https://www.gutenberg.org/cache/epub/55306/pg55306-h.zip"},"download_count":4},{"id":55357,"title":"The Irish Penny Journal, Vol. 1 No. 46, May 15, 1841","authors":[{"name":"Various","birth_year":null,"death_year":null}],"translators":[],"subjects":["Ireland -- Periodicals"],"bookshelves":[],"languages":["en"],"copyright":false,"media_type":"Text","formats":{"text/html":"https://www.gutenberg.org/ebooks/55357.html.images","text/html; charset=utf-8":"https://www.gutenberg.org/files/55357/55357-h/55357-h.htm","application/epub+zip":"https://www.gutenberg.org/ebooks/55357.epub3.images","application/x-mobipocket-ebook":"https://www.gutenberg.org/ebooks/55357.kf8.images","text/plain; charset=us-ascii":"https://www.gutenberg.org/ebooks/55357.txt.utf-8","text/plain; charset=utf-8":"https://www.gutenberg.org/files/55357/55357-0.txt","application/rdf+xml":"https://www.gutenberg.org/ebooks/55357.rdf","image/jpeg":"https://www.gutenberg.org/cache/epub/55357/pg55357.cover.medium.jpg","application/octet-stream":"https://www.gutenberg.org/cache/epub/55357/pg55357-h.zip"},"download_count":4},{"id":56228,"title":"Poems","authors":[{"name":"Bass, Cora C.","birth_year":null,"death_year":null}],"translators":[],"subjects":["American poetry"],"bookshelves":[],"languages":["en"],"copyright":false,"media_type":"Text","formats":{"text/html":"https://www.gutenberg.org/ebooks/56228.html.images","text/html; charset=utf-8":"https://www.gutenberg.org/files/56228/56228-h/56228-h.htm","application/epub+zip":"https://www.gutenberg.org/ebooks/56228.epub3.images","application/x-mobipocket-ebook":"https://www.gutenberg.org/ebooks/56228.kf8.images","text/plain; charset=us-ascii":"https://www.gutenberg.org/ebooks/56228.txt.utf-8","text/plain; charset=utf-8":"https://www.gutenberg.org/files/56228/56228-0.txt","application/rdf+xml":"https://www.gutenberg.org/ebooks/56228.rdf","image/jpeg":"https://www.gutenberg.org/cache/epub/56228/pg56228.cover.medium.jpg","application/octet-stream":"https://www.gutenberg.org/cache/epub/56228/pg56228-h.zip"},"download_count":4},{"id":61372,"title":"The Cruise of the Catalpa: A Poem","authors":[{"name":"Breslin, John (John Joseph)","birth_year":null,"death_year":1887}],"translators":[],"subjects":["Catalpa (Bark) -- Poetry","Fenians -- Poetry"],"bookshelves":[],"languages":["en"],"copyright":false,"media_type":"Text","formats":{"text/html":"https://www.gutenberg.org/ebooks/61372.html.images","text/html; charset=utf-8":"https://www.gutenberg.org/files/61372/61372-h/61372-h.htm","application/epub+zip":"https://www.gutenberg.org/ebooks/61372.epub3.images","application/x-mobipocket-ebook":"https://www.gutenberg.org/ebooks/61372.kf8.images","text/plain; charset=us-ascii":"https://www.gutenberg.org/ebooks/61372.txt.utf-8","text/plain; charset=utf-8":"https://www.gutenberg.org/files/61372/61372-0.txt","application/rdf+xml":"https://www.gutenberg.org/ebooks/61372.rdf","image/jpeg":"https://www.gutenberg.org/cache/epub/61372/pg61372.cover.medium.jpg","application/octet-stream":"https://www.gutenberg.org/cache/epub/61372/pg61372-h.zip"},"download_count":4},{"id":70306,"title":"Torwood's trust : $b A novel (Vol. 2 of 3)","authors":[{"name":"Everett-Green, Evelyn","birth_year":1856,"death_year":1932}],"translators":[],"subjects":["English fiction -- 19th century"],"bookshelves":[],"languages":["en"],"copyright":false,"media_type":"Text","formats":{"text/html":"https://www.gutenberg.org/ebooks/70306.html.images","application/epub+zip":"https://www.gutenberg.org/ebooks/70306.epub3.images","application/x-mobipocket-ebook":"https://www.gutenberg.org/ebooks/70306.kf8.images","text/plain; charset=us-ascii":"https://www.gutenberg.org/ebooks/70306.txt.utf-8","application/rdf+xml":"https://www.gutenberg.org/ebooks/70306.rdf","image/jpeg":"https://www.gutenberg.org/cache/epub/70306/pg70306.cover.medium.jpg","application/octet-stream":"https://www.gutenberg.org/files/70306/70306-0.zip"},"download_count":4},{"id":70307,"title":"Torwood's trust : $b A novel (Vol. 3 of 3)","authors":[{"name":"Everett-Green, Evelyn","birth_year":1856,"death_year":1932}],"translators":[],"subjects":["English fiction -- 19th century"],"bookshelves":[],"languages":["en"],"copyright":false,"media_type":"Text","formats":{"text/html":"https://www.gutenberg.org/ebooks/70307.html.images","application/epub+zip":"https://www.gutenberg.org/ebooks/70307.epub3.images","application/x-mobipocket-ebook":"https://www.gutenberg.org/ebooks/70307.kf8.images","text/plain; charset=us-ascii":"https://www.gutenberg.org/ebooks/70307.txt.utf-8","application/rdf+xml":"https://www.gutenberg.org/ebooks/70307.rdf","image/jpeg":"https://www.gutenberg.org/cache/epub/70307/pg70307.cover.medium.jpg","application/octet-stream":"https://www.gutenberg.org/files/70307/70307-0.zip"},"download_count":4},{"id":1073,"title":"No title","authors":[],"translators":[],"subjects":[],"bookshelves":[],"languages":["en"],"copyright":false,"media_type":"Text","formats":{"application/rdf+xml":"https://www.gutenberg.org/ebooks/1073.rdf"},"download_count":3},{"id":3515,"title":"Human Genome Project, Chromosome Number 15","authors":[{"name":"Human Genome Project","birth_year":null,"death_year":null}],"translators":[],"subjects":["Human Genome Project","Human gene mapping","Human genetics","Nucleotide sequence"],"bookshelves":[],"languages":["en"],"copyright":false,"media_type":"Dataset","formats":{"text/plain; charset=us-ascii":"https://www.gutenberg.org/files/3515/3515.zip","application/rdf+xml":"https://www.gutenberg.org/ebooks/3515.rdf"},"download_count":3},{"id":3516,"title":"Human Genome Project, Chromosome Number 16","authors":[{"name":"Human Genome Project","birth_year":null,"death_year":null}],"translators":[],"subjects":["Human Genome Project","Human gene mapping","Human genetics","Nucleotide sequence"],"bookshelves":[],"languages":["en"],"copyright":false,"media_type":"Dataset","formats":{"text/plain; charset=us-ascii":"https://www.gutenberg.org/files/3516/3516.zip","application/rdf+xml":"https://www.gutenberg.org/ebooks/3516.rdf"},"download_count":3},{"id":3517,"title":"Human Genome Project, Chromosome Number 17","authors":[{"name":"Human Genome Project","birth_year":null,"death_year":null}],"translators":[],"subjects":["Human Genome Project","Human gene mapping","Human genetics","Nucleotide sequence"],"bookshelves":[],"languages":["en"],"copyright":false,"media_type":"Dataset","formats":{"text/plain; charset=us-ascii":"https://www.gutenberg.org/files/3517/3517.zip","application/rdf+xml":"https://www.gutenberg.org/ebooks/3517.rdf"},"download_count":3},{"id":3520,"title":"Human Genome Project, Chromosome Number 20","authors":[{"name":"Human Genome Project","birth_year":null,"death_year":null}],"translators":[],"subjects":["Human Genome Project","Human gene mapping","Human genetics","Nucleotide sequence"],"bookshelves":[],"languages":["en"],"copyright":false,"media_type":"Dataset","formats":{"text/plain; charset=us-ascii":"https://www.gutenberg.org/files/3520/3520.zip","application/rdf+xml":"https://www.gutenberg.org/ebooks/3520.rdf"},"download_count":3},{"id":3522,"title":"Human Genome Project, Chromosome Number 22","authors":[{"name":"Human Genome Project","birth_year":null,"death_year":null}],"translators":[],"subjects":["Human Genome Project","Human gene mapping","Human genetics","Nucleotide sequence"],"bookshelves":[],"languages":["en"],"copyright":false,"media_type":"Dataset","formats":{"text/plain; charset=us-ascii":"https://www.gutenberg.org/files/3522/3522.zip","application/rdf+xml":"https://www.gutenberg.org/ebooks/3522.rdf"},"download_count":3},{"id":7601,"title":"The Caxtons: A Family Picture — Volume 15","authors":[{"name":"Lytton, Edward Bulwer Lytton, Baron","birth_year":1803,"death_year":1873}],"translators":[],"subjects":["English fiction -- 19th century","Families -- Fiction"],"bookshelves":[],"languages":["en"],"copyright":false,"media_type":"Text","formats":{"text/html":"https://www.gutenberg.org/ebooks/7601.html.images","application/epub+zip":"https://www.gutenberg.org/ebooks/7601.epub3.images","application/x-mobipocket-ebook":"https://www.gutenberg.org/ebooks/7601.kf8.images","text/plain; charset=us-ascii":"https://www.gutenberg.org/ebooks/7601.txt.utf-8","application/rdf+xml":"https://www.gutenberg.org/ebooks/7601.rdf","image/jpeg":"https://www.gutenberg.org/cache/epub/7601/pg7601.cover.medium.jpg","application/octet-stream":"https://www.gutenberg.org/cache/epub/7601/pg7601-h.zip"},"download_count":3},{"id":10154,"title":"Voice Trial - Kinetophone Actor Audition","authors":[{"name":"Schultz, Siegfried Von","birth_year":null,"death_year":null}],"translators":[],"subjects":["Auditions"],"bookshelves":[],"languages":["en"],"copyright":false,"media_type":"Sound","formats":{"text/plain; charset=us-ascii":"https://www.gutenberg.org/files/10154/10154-m/10154-m-readme.txt","audio/mpeg":"https://www.gutenberg.org/files/10154/10154-m/10154-m-001.mp3","application/rdf+xml":"https://www.gutenberg.org/ebooks/10154.rdf"},"download_count":3},{"id":10934,"title":"Punchinello, Volume 2, No. 39, December 24, 1870.","authors":[{"name":"Various","birth_year":null,"death_year":null}],"translators":[],"subjects":["American wit and humor -- Periodicals"],"bookshelves":["Punchinello"],"languages":["en"],"copyright":false,"media_type":"Text","formats":{"text/html":"https://www.gutenberg.org/ebooks/10934.html.images","text/html; charset=iso-8859-1":"https://www.gutenberg.org/files/10934/10934-h/10934-h.htm","application/epub+zip":"https://www.gutenberg.org/ebooks/10934.epub3.images","application/x-mobipocket-ebook":"https://www.gutenberg.org/ebooks/10934.kf8.images","text/plain; charset=us-ascii":"https://www.gutenberg.org/ebooks/10934.txt.utf-8","text/plain; charset=iso-8859-1":"https://www.gutenberg.org/files/10934/10934-8.txt","text/plain":"https://www.gutenberg.org/files/10934/10934.zip","application/rdf+xml":"https://www.gutenberg.org/ebooks/10934.rdf","image/jpeg":"https://www.gutenberg.org/cache/epub/10934/pg10934.cover.medium.jpg","application/octet-stream":"https://www.gutenberg.org/cache/epub/10934/pg10934-h.zip"},"download_count":3},{"id":55182,"title":"The Irish Penny Journal, Vol. 1 No. 41, April 10, 1841","authors":[{"name":"Various","birth_year":null,"death_year":null}],"translators":[],"subjects":["Ireland -- Periodicals"],"bookshelves":[],"languages":["en"],"copyright":false,"media_type":"Text","formats":{"text/html":"https://www.gutenberg.org/ebooks/55182.html.images","text/html; charset=utf-8":"https://www.gutenberg.org/files/55182/55182-h/55182-h.htm","application/epub+zip":"https://www.gutenberg.org/ebooks/55182.epub3.images","application/x-mobipocket-ebook":"https://www.gutenberg.org/ebooks/55182.kf8.images","text/plain; charset=us-ascii":"https://www.gutenberg.org/ebooks/55182.txt.utf-8","text/plain; charset=utf-8":"https://www.gutenberg.org/files/55182/55182-0.txt","application/rdf+xml":"https://www.gutenberg.org/ebooks/55182.rdf","image/jpeg":"https://www.gutenberg.org/cache/epub/55182/pg55182.cover.medium.jpg","application/octet-stream":"https://www.gutenberg.org/cache/epub/55182/pg55182-h.zip"},"download_count":3},{"id":70039,"title":"First harvests : $b An episode in the life of Mrs. Levison Gower : A satire without a moral","authors":[{"name":"Stimson, Frederic Jesup","birth_year":1855,"death_year":1943}],"translators":[],"subjects":["American fiction -- 19th century"],"bookshelves":[],"languages":["en"],"copyright":false,"media_type":"Text","formats":{"text/html":"https://www.gutenberg.org/ebooks/70039.html.images","application/epub+zip":"https://www.gutenberg.org/ebooks/70039.epub3.images","application/x-mobipocket-ebook":"https://www.gutenberg.org/ebooks/70039.kf8.images","text/plain; charset=us-ascii":"https://www.gutenberg.org/ebooks/70039.txt.utf-8","application/rdf+xml":"https://www.gutenberg.org/ebooks/70039.rdf","image/jpeg":"https://www.gutenberg.org/cache/epub/70039/pg70039.cover.medium.jpg","application/octet-stream":"https://www.gutenberg.org/files/70039/70039-0.zip"},"download_count":3},{"id":1255,"title":"No title","authors":[],"translators":[],"subjects":[],"bookshelves":[],"languages":["en"],"copyright":false,"media_type":"Text","formats":{"application/rdf+xml":"https://www.gutenberg.org/ebooks/1255.rdf"},"download_count":2},{"id":3514,"title":"Human Genome Project, Chromosome Number 14","authors":[{"name":"Human Genome Project","birth_year":null,"death_year":null}],"translators":[],"subjects":["Human Genome Project","Human gene mapping","Human genetics","Nucleotide sequence"],"bookshelves":[],"languages":["en"],"copyright":false,"media_type":"Dataset","formats":{"text/plain; charset=us-ascii":"https://www.gutenberg.org/files/3514/3514.zip","application/rdf+xml":"https://www.gutenberg.org/ebooks/3514.rdf"},"download_count":2},{"id":53866,"title":"Thoughts on the Proposed Inclosure of Waltham (commonly called Epping) and Hainault Forests: In which a new plan is suggested for disafforesting the same: with the heads of the bill now proposed for that purpose","authors":[{"name":"Street, Thomas","birth_year":null,"death_year":null}],"translators":[],"subjects":["Epping Forest (England : Forest)","Hainault (London, England)"],"bookshelves":[],"languages":["en"],"copyright":false,"media_type":"Text","formats":{"text/html":"https://www.gutenberg.org/ebooks/53866.html.images","application/epub+zip":"https://www.gutenberg.org/ebooks/53866.epub3.images","application/x-mobipocket-ebook":"https://www.gutenberg.org/ebooks/53866.kf8.images","text/plain; charset=us-ascii":"https://www.gutenberg.org/ebooks/53866.txt.utf-8","text/plain; charset=utf-8":"https://www.gutenberg.org/files/53866/53866-0.txt","application/rdf+xml":"https://www.gutenberg.org/ebooks/53866.rdf","image/jpeg":"https://www.gutenberg.org/cache/epub/53866/pg53866.cover.medium.jpg","application/octet-stream":"https://www.gutenberg.org/cache/epub/53866/pg53866-h.zip"},"download_count":2},{"id":23966,"title":"The Song My Paddle Sings","authors":[{"name":"Johnson, E. Pauline","birth_year":1861,"death_year":1913}],"translators":[],"subjects":["Canadian poetry","Canoes and canoeing -- Poetry"],"bookshelves":[],"languages":["en"],"copyright":false,"media_type":"Sound","formats":{"text/plain":"https://www.gutenberg.org/files/23966/23966-readme.txt","text/html":"https://www.gutenberg.org/files/23966/23966-index.html","audio/ogg":"https://www.gutenberg.org/files/23966/ogg/23966-01.ogg","audio/mp4":"https://www.gutenberg.org/files/23966/m4b/23966-01.m4b","audio/mpeg":"https://www.gutenberg.org/files/23966/mp3/23966-01.mp3","application/rdf+xml":"https://www.gutenberg.org/ebooks/23966.rdf"},"download_count":0},{"id":72797,"title":"Ten years in Burma","authors":[{"name":"Smith, Julius","birth_year":null,"death_year":null}],"translators":[],"subjects":["Burma -- Description and travel","Burma -- Social life and customs","Methodist Episcopal Church -- Missions","Missionaries -- Burma -- Biography","Smith, Julius"],"bookshelves":[],"languages":["en"],"copyright":false,"media_type":"Text","formats":{"text/html":"https://www.gutenberg.org/ebooks/72797.html.images","application/epub+zip":"https://www.gutenberg.org/ebooks/72797.epub3.images","application/x-mobipocket-ebook":"https://www.gutenberg.org/ebooks/72797.kf8.images","text/plain; charset=us-ascii":"https://www.gutenberg.org/ebooks/72797.txt.utf-8","application/rdf+xml":"https://www.gutenberg.org/ebooks/72797.rdf","image/jpeg":"https://www.gutenberg.org/cache/epub/72797/pg72797.cover.medium.jpg","application/octet-stream":"https://www.gutenberg.org/cache/epub/72797/pg72797-h.zip"},"download_count":0},{"id":72800,"title":"The quantum postulate and the recent development of atomic theory","authors":[{"name":"Bohr, Niels","birth_year":1885,"death_year":1962}],"translators":[],"subjects":["Atoms","Quantum theory"],"bookshelves":[],"languages":["en"],"copyright":false,"media_type":"Text","formats":{"text/html":"https://www.gutenberg.org/ebooks/72800.html.images","application/epub+zip":"https://www.gutenberg.org/ebooks/72800.epub3.images","application/x-mobipocket-ebook":"https://www.gutenberg.org/ebooks/72800.kf8.images","application/rdf+xml":"https://www.gutenberg.org/ebooks/72800.rdf","image/jpeg":"https://www.gutenberg.org/cache/epub/72800/pg72800.cover.medium.jpg","application/octet-stream":"https://www.gutenberg.org/cache/epub/72800/pg72800-h.zip"},"download_count":0},{"id":72803,"title":"American Indian Weekly Vol. 1, No. 2","authors":[{"name":"Dair, Spencer","birth_year":null,"death_year":null}],"translators":[],"subjects":["Dime novels -- Periodicals","Frontier and pioneer life -- United States -- Periodicals","Indians of North America -- Periodicals","Western stories"],"bookshelves":[],"languages":["en"],"copyright":false,"media_type":"Text","formats":{"text/html":"https://www.gutenberg.org/ebooks/72803.html.images","application/epub+zip":"https://www.gutenberg.org/ebooks/72803.epub3.images","application/x-mobipocket-ebook":"https://www.gutenberg.org/ebooks/72803.kf8.images","text/plain; charset=us-ascii":"https://www.gutenberg.org/ebooks/72803.txt.utf-8","application/rdf+xml":"https://www.gutenberg.org/ebooks/72803.rdf","image/jpeg":"https://www.gutenberg.org/cache/epub/72803/pg72803.cover.medium.jpg","application/octet-stream":"https://www.gutenberg.org/cache/epub/72803/pg72803-h.zip"},"download_count":0}]}