{"count":58808,"next":"http://129.241.150.113:8000/books/?languages=en&page=421","previous":"http://129.241.150.113:8000/books/?languages=en&page=419","results":[{"id":65376,"title":"Twenty Years of My Life","authors":[{"name":"Sladen, Douglas Brooke Wheelton","birth_year":1856,"death_year":1947}],"translators":[],"subjects":["Authors -- Biography","Sladen, Douglas Brooke Wheelton, 1856-1947"],"bookshelves":[],"languages":["en"],"copyright":false,"media_type":"Text","formats":{"text/html":"https://www.gutenberg.org/ebooks/65376.html.images","text/html; charset=utf-8":"https://www.gutenberg.org/files/65376/65376-h/65376-h.htm","application/epub+zip":"https://www.gutenberg.org/ebooks/65376.epub3.images","application/x-mobipocket-ebook":"https://www.gutenberg.org/ebooks/65376.kf8.images","text/plain; charset=us-ascii":"https://www.gutenberg.org/ebooks/65376.txt.utf-8","text/plain; charset=utf-8":"https://www.gutenberg.org/files/65376/65376-0.txt","application/rdf+xml":"https://www.gutenberg.org/ebooks/65376.rdf","image/jpeg":"https://www.gutenberg.org/cache/epub/65376/pg65376.cover.medium.jpg","application/octet-stream":"https://www.gutenberg.org/cache/epub/65376/pg65376-h.zip"},"download_count":70},{"id":65659,"title":"The Incomplete Theft","authors":[{"name":"Garrett, Randall","birth_year":1927,"death_year":1987},{"name":"Silverberg, Robert","birth_year":1935,"death_year":null}],"translators":[],"subjects":["Science fiction","Short stories","Space ships -- Fiction","Spy stories"],"bookshelves":[],"languages":["en"],"copyright":false,"media_type":"Text","formats":{"text/html":"https://www.gutenberg.org/ebooks/65659.html.images","text/html; charset=utf-8":"https://www.gutenberg.org/files/65659/65659-h/65659-h.htm","application/epub+zip":"https://www.gutenberg.org/ebooks/65659.epub3.images","application/x-mobipocket-ebook":"https://www.gutenberg.org/ebooks/65659.kf8.images","text/plain; charset=us-ascii":"https://www.gutenberg.org/ebooks/65659.txt.utf-8","text/plain; charset=utf-8":"https://www.gutenberg.org/files/65659/65659-0.txt","application/rdf+xml":"https://www.gutenberg.org/ebooks/65659.rdf","image/jpeg":"https://www.gutenberg.org/cache/epub/65659/pg65659.cover.medium.jpg","application/octet-stream":"https://www.gutenberg.org/cache/epub/65659/pg65659-h.zip"},"download_count":70},{"id":65901,"title":"Heart of the World","authors":[{"name":"Haggard, H. Rider (Henry Rider)","birth_year":1856,"death_year":1925}],"translators":[],"subjects":["Adventure stories","Fantasy fiction"],"bookshelves":[],"languages":["en"],"copyright":false,"media_type":"Text","formats":{"text/html":"https://www.gutenberg.org/ebooks/65901.html.images","text/html; charset=utf-8":"https://www.gutenberg.org/files/65901/65901-h/65901-h.htm","application/epub+zip":"https://www.gutenberg.org/ebooks/65901.epub3.images","application/x-mobipocket-ebook":"https://www.gutenberg.org/ebooks/65901.kf8.images","text/plain; charset=us-ascii":"https://www.gutenberg.org/ebooks/65901.txt.utf-8","text/plain; charset=utf-8":"https://www.gutenberg.org/files/65901/65901-0.txt","application/rdf+xml":"https://www.gutenberg.org/ebooks/65901.rdf","image/jpeg":"https://www.gutenberg.org/cache/epub/65901/pg65901.cover.medium.jpg","application/octet-stream":"https://www.gutenberg.org/cache/epub/65901/pg65901-h.zip"},"download_count":70},{"id":66124,"title":"The Starlight Wonder Book","authors":[{"name":"Beston, Henry","birth_year":1888,"death_year":1968}],"translators":[],"subjects":["Children's stories","Fairy tales"],"bookshelves":[],"languages":["en"],"copyright":false,"media_type":"Text","formats":{"text/html":"https://www.gutenberg.org/ebooks/66124.html.images","text/html; charset=utf-8":"https://www.gutenberg.org/files/66124/66124-h/66124-h.htm","application/epub+zip":"https://www.gutenberg.org/ebooks/66124.epub3.images","application/x-mobipocket-ebook":"https://www.gutenberg.org/ebooks/66124.kf8.images","text/plain; charset=us-ascii":"https://www.gutenberg.org/ebooks/66124.txt.utf-8","text/plain; charset=utf-8":"https://www.gutenberg.org/files/66124/66124-0.txt","application/rdf+xml":"https://www.gutenberg.org/ebooks/66124.rdf","image/jpeg":"https://www.gutenberg.org/cache/epub/66124/pg66124.cover.medium.jpg","application/octet-stream":"https://www.gutenberg.org/cache/epub/66124/pg66124-h.zip"},"download_count":70},{"id":66320,"title":"The Young Diana: An Experiment of the Future","authors":[{"name":"Corelli, Marie","birth_year":1855,"death_year":1924}],"translators":[],"subjects":["Experiments -- Fiction","Psychological fiction","Rejuvenation -- Fiction","Science fiction","Single women -- Fiction"],"bookshelves":[],"languages":["en"],"copyright":false,"media_type":"Text","formats":{"text/html":"https://www.gutenberg.org/ebooks/66320.html.images","application/epub+zip":"https://www.gutenberg.org/ebooks/66320.epub3.images","application/x-mobipocket-ebook":"https://www.gutenberg.org/ebooks/66320.kf8.images","text/plain; charset=us-ascii":"https://www.gutenberg.org/ebooks/66320.txt.utf-8","application/rdf+xml":"https://www.gutenberg.org/ebooks/66320.rdf","image/jpeg":"https://www.gutenberg.org/cache/epub/66320/pg66320.cover.medium.jpg","application/octet-stream":"https://www.gutenberg.org/files/66320/66320-0.zip"},"download_count":70},{"id":68043,"title":"Fossil plants, Vol. 1: [A text-book] for students of botany and geology","authors":[{"name":"Seward, A. C. (Albert Charles)","birth_year":1863,"death_year":1941}],"translators":[],"subjects":["Paleobotany"],"bookshelves":[],"languages":["en"],"copyright":false,"media_type":"Text","formats":{"text/html":"https://www.gutenberg.org/ebooks/68043.html.images","application/epub+zip":"https://www.gutenberg.org/ebooks/68043.epub3.images","application/x-mobipocket-ebook":"https://www.gutenberg.org/ebooks/68043.kf8.images","text/plain; charset=us-ascii":"https://www.gutenberg.org/ebooks/68043.txt.utf-8","application/rdf+xml":"https://www.gutenberg.org/ebooks/68043.rdf","image/jpeg":"https://www.gutenberg.org/cache/epub/68043/pg68043.cover.medium.jpg","application/octet-stream":"https://www.gutenberg.org/files/68043/68043-0.zip"},"download_count":70},{"id":69174,"title":"The golden verses of Pythagoras","authors":[{"name":"Fabre d'Olivet, Antoine","birth_year":1767,"death_year":1825},{"name":"Pythagoras","birth_year":null,"death_year":null}],"translators":[{"name":"Redfield, Nayán Louise","birth_year":null,"death_year":null}],"subjects":["Poetry -- History and criticism","Pythagoras and Pythagorean school"],"bookshelves":[],"languages":["en"],"copyright":false,"media_type":"Text","formats":{"text/html":"https://www.gutenberg.org/ebooks/69174.html.images","application/epub+zip":"https://www.gutenberg.org/ebooks/69174.epub3.images","application/x-mobipocket-ebook":"https://www.gutenberg.org/ebooks/69174.kf8.images","text/plain; charset=us-ascii":"https://www.gutenberg.org/ebooks/69174.txt.utf-8","application/rdf+xml":"https://www.gutenberg.org/ebooks/69174.rdf","image/jpeg":"https://www.gutenberg.org/cache/epub/69174/pg69174.cover.medium.jpg","application/octet-stream":"https://www.gutenberg.org/files/69174/69174-0.zip"},"download_count":70},{"id":69284,"title":"Essay on Burns","authors":[{"name":"Carlyle, Thomas","birth_year":1795,"death_year":1881}],"translators":[],"subjects":["Burns, Robert, 1759-1796"],"bookshelves":[],"languages":["en"],"copyright":false,"media_type":"Text","formats":{"text/html":"https://www.gutenberg.org/ebooks/69284.html.images","application/epub+zip":"https://www.gutenberg.org/ebooks/69284.epub3.images","application/x-mobipocket-ebook":"https://www.gutenberg.org/ebooks/69284.kf8.images","text/plain; charset=us-ascii":"https://www.gutenberg.org/ebooks/69284.txt.utf-8","application/rdf+xml":"https://www.gutenberg.org/ebooks/69284.rdf","image/jpeg":"https://www.gutenberg.org/cache/epub/69284/pg69284.cover.medium.jpg","application/octet-stream":"https://www.gutenberg.org/files/69284/69284-0.zip"},"download_count":70},{"id":69485,"title":"Letters on the equality of the sexes, and the condition of woman","authors":[{"name":"Grimké, Sarah","birth_year":1792,"death_year":1873}],"translators":[],"subjects":["Women -- History","Women -- United States","Women's rights -- United States"],"bookshelves":[],"languages":["en"],"copyright":false,"media_type":"Text","formats":{"text/html":"https://www.gutenberg.org/ebooks/69485.html.images","application/epub+zip":"https://www.gutenberg.org/ebooks/69485.epub3.images","application/x-mobipocket-ebook":"https://www.gutenberg.org/ebooks/69485.kf8.images","text/plain; charset=us-ascii":"https://www.gutenberg.org/ebooks/69485.txt.utf-8","application/rdf+xml":"https://www.gutenberg.org/ebooks/69485.rdf","image/jpeg":"https://www.gutenberg.org/cache/epub/69485/pg69485.cover.medium.jpg","application/octet-stream":"https://www.gutenberg.org/files/69485/69485-0.zip"},"download_count":70},{"id":70060,"title":"Paul Bunyan","authors":[{"name":"Stevens, James","birth_year":1892,"death_year":1971}],"translators":[],"subjects":["Bunyan, Paul (Legendary character)"],"bookshelves":[],"languages":["en"],"copyright":false,"media_type":"Text","formats":{"text/html":"https://www.gutenberg.org/ebooks/70060.html.images","application/epub+zip":"https://www.gutenberg.org/ebooks/70060.epub3.images","application/x-mobipocket-ebook":"https://www.gutenberg.org/ebooks/70060.kf8.images","text/plain; charset=us-ascii":"https://www.gutenberg.org/ebooks/70060.txt.utf-8","application/rdf+xml":"https://www.gutenberg.org/ebooks/70060.rdf","image/jpeg":"https://www.gutenberg.org/cache/epub/70060/pg70060.cover.medium.jpg","application/octet-stream":"https://www.gutenberg.org/files/70060/70060-0.zip"},"download_count":70},{"id":70895,"title":"Notes on witchcraft","authors":[{"name":"Kittredge, George Lyman","birth_year":1860,"death_year":1941}],"translators":[],"subjects":["Witchcraft"],"bookshelves":[],"languages":["en"],"copyright":false,"media_type":"Text","formats":{"text/html":"https://www.gutenberg.org/ebooks/70895.html.images","application/epub+zip":"https://www.gutenberg.org/ebooks/70895.epub3.images","application/x-mobipocket-ebook":"https://www.gutenberg.org/ebooks/70895.kf8.images","text/plain; charset=us-ascii":"https://www.gutenberg.org/ebooks/70895.txt.utf-8","application/rdf+xml":"https://www.gutenberg.org/ebooks/70895.rdf","image/jpeg":"https://www.gutenberg.org/cache/epub/70895/pg70895.cover.medium.jpg","application/octet-stream":"https://www.gutenberg.org/files/70895/70895-0.zip"},"download_count":70},{"id":71042,"title":"Poster advertising : $b Being a talk on the subject of posting as an advertising medium, with helpful hints and sensible suggestions to poster advertisers, and with thirty-two pages of full color reproductions of posters used by national advertisers","authors":[{"name":"Hawkins, George Henry Edward","birth_year":null,"death_year":null}],"translators":[],"subjects":["Advertising","Posters"],"bookshelves":[],"languages":["en"],"copyright":false,"media_type":"Text","formats":{"text/html":"https://www.gutenberg.org/ebooks/71042.html.images","application/epub+zip":"https://www.gutenberg.org/ebooks/71042.epub3.images","application/x-mobipocket-ebook":"https://www.gutenberg.org/ebooks/71042.kf8.images","text/plain; charset=us-ascii":"https://www.gutenberg.org/ebooks/71042.txt.utf-8","application/rdf+xml":"https://www.gutenberg.org/ebooks/71042.rdf","image/jpeg":"https://www.gutenberg.org/cache/epub/71042/pg71042.cover.medium.jpg","application/octet-stream":"https://www.gutenberg.org/files/71042/71042-0.zip"},"download_count":70},{"id":71659,"title":"Toffee haunts a ghost","authors":[{"name":"Farrell, Henry","birth_year":1920,"death_year":2006}],"translators":[],"subjects":["Fantasy fiction","Science fiction","Subconsciousness -- Fiction"],"bookshelves":[],"languages":["en"],"copyright":false,"media_type":"Text","formats":{"text/html":"https://www.gutenberg.org/ebooks/71659.html.images","application/epub+zip":"https://www.gutenberg.org/ebooks/71659.epub3.images","application/x-mobipocket-ebook":"https://www.gutenberg.org/ebooks/71659.kf8.images","text/plain; charset=us-ascii":"https://www.gutenberg.org/ebooks/71659.txt.utf-8","application/rdf+xml":"https://www.gutenberg.org/ebooks/71659.rdf","image/jpeg":"https://www.gutenberg.org/cache/epub/71659/pg71659.cover.medium.jpg","application/octet-stream":"https://www.gutenberg.org/files/71659/71659-h.zip"},"download_count":70},{"id":71827,"title":"Anthropology","authors":[{"name":"Kroeber, A. L. (Alfred Louis)","birth_year":1876,"death_year":1960}],"translators":[],"subjects":["Anthropology"],"bookshelves":[],"languages":["en"],"copyright":false,"media_type":"Text","formats":{"text/html":"https://www.gutenberg.org/ebooks/71827.html.images","application/epub+zip":"https://www.gutenberg.org/ebooks/71827.epub3.images","application/x-mobipocket-ebook":"https://www.gutenberg.org/ebooks/71827.kf8.images","text/plain; charset=us-ascii":"https://www.gutenberg.org/ebooks/71827.txt.utf-8","application/rdf+xml":"https://www.gutenberg.org/ebooks/71827.rdf","image/jpeg":"https://www.gutenberg.org/cache/epub/71827/pg71827.cover.medium.jpg","application/octet-stream":"https://www.gutenberg.org/cache/epub/71827/pg71827-h.zip"},"download_count":70},{"id":71906,"title":"The adopted son : $b or, illustrations of the Lord's prayer","authors":[{"name":"A. L. O. E.","birth_year":1821,"death_year":1893}],"translators":[],"subjects":["Adopted children -- Juvenile fiction","Christian life -- Juvenile fiction","Lord's prayer -- Juvenile fiction"],"bookshelves":[],"languages":["en"],"copyright":false,"media_type":"Text","formats":{"text/html":"https://www.gutenberg.org/ebooks/71906.html.images","application/epub+zip":"https://www.gutenberg.org/ebooks/71906.epub3.images","application/x-mobipocket-ebook":"https://www.gutenberg.org/ebooks/71906.kf8.images","text/plain; charset=us-ascii":"https://www.gutenberg.org/ebooks/71906.txt.utf-8","application/rdf+xml":"https://www.gutenberg.org/ebooks/71906.rdf","image/jpeg":"https://www.gutenberg.org/cache/epub/71906/pg71906.cover.medium.jpg","application/octet-stream":"https://www.gutenberg.org/cache/epub/71906/pg71906-h.zip"},"download_count":70},{"id":71942,"title":"Plants and their children","authors":[{"name":"Parsons, Frances Theodora","birth_year":1861,"death_year":1952}],"translators":[],"subjects":["Botany -- Juvenile literature","Plants -- Juvenile literature"],"bookshelves":[],"languages":["en"],"copyright":false,"media_type":"Text","formats":{"text/html":"https://www.gutenberg.org/ebooks/71942.html.images","application/epub+zip":"https://www.gutenberg.org/ebooks/71942.epub3.images","application/x-mobipocket-ebook":"https://www.gutenberg.org/ebooks/71942.kf8.images","text/plain; charset=us-ascii":"https://www.gutenberg.org/ebooks/71942.txt.utf-8","application/rdf+xml":"https://www.gutenberg.org/ebooks/71942.rdf","image/jpeg":"https://www.gutenberg.org/cache/epub/71942/pg71942.cover.medium.jpg","application/octet-stream":"https://www.gutenberg.org/cache/epub/71942/pg71942-h.zip"},"download_count":70},{"id":71973,"title":"The shades of Toffee","authors":[{"name":"Farrell, Henry","birth_year":1920,"death_year":2006}],"translators":[],"subjects":["Fantasy fiction","Science fiction","Spouses -- Fiction","Subconsciousness -- Fiction"],"bookshelves":[],"languages":["en"],"copyright":false,"media_type":"Text","formats":{"text/html":"https://www.gutenberg.org/ebooks/71973.html.images","application/epub+zip":"https://www.gutenberg.org/ebooks/71973.epub3.images","application/x-mobipocket-ebook":"https://www.gutenberg.org/ebooks/71973.kf8.images","text/plain; charset=us-ascii":"https://www.gutenberg.org/ebooks/71973.txt.utf-8","application/rdf+xml":"https://www.gutenberg.org/ebooks/71973.rdf","image/jpeg":"https://www.gutenberg.org/cache/epub/71973/pg71973.cover.medium.jpg","application/octet-stream":"https://www.gutenberg.org/cache/epub/71973/pg71973-h.zip"},"download_count":70},{"id":72120,"title":"Mr. Replogle's dream","authors":[{"name":"Smith, Evelyn E.","birth_year":1922,"death_year":2000}],"translators":[],"subjects":["Art -- Fiction","Robots -- Fiction","Science fiction","Short stories"],"bookshelves":[],"languages":["en"],"copyright":false,"media_type":"Text","formats":{"text/html":"https://www.gutenberg.org/ebooks/72120.html.images","application/epub+zip":"https://www.gutenberg.org/ebooks/72120.epub3.images","application/x-mobipocket-ebook":"https://www.gutenberg.org/ebooks/72120.kf8.images","text/plain; charset=us-ascii":"https://www.gutenberg.org/ebooks/72120.txt.utf-8","application/rdf+xml":"https://www.gutenberg.org/ebooks/72120.rdf","image/jpeg":"https://www.gutenberg.org/cache/epub/72120/pg72120.cover.medium.jpg","application/octet-stream":"https://www.gutenberg.org/cache/epub/72120/pg72120-h.zip"},"download_count":70},{"id":72133,"title":"The octopus : $b or, The \"devil-fish\" of fiction and of fact","authors":[{"name":"Lee, Henry","birth_year":1826,"death_year":1888}],"translators":[],"subjects":["Cephalopoda","Cuttlefish","Octopuses","Squids"],"bookshelves":[],"languages":["en"],"copyright":false,"media_type":"Text","formats":{"application/rdf+xml":"https://www.gutenberg.org/ebooks/72133.rdf","text/html":"https://www.gutenberg.org/ebooks/72133.html.images","application/epub+zip":"https://www.gutenberg.org/ebooks/72133.epub3.images","application/x-mobipocket-ebook":"https://www.gutenberg.org/ebooks/72133.kf8.images","text/plain; charset=us-ascii":"https://www.gutenberg.org/ebooks/72133.txt.utf-8","image/jpeg":"https://www.gutenberg.org/cache/epub/72133/pg72133.cover.medium.jpg","application/octet-stream":"https://www.gutenberg.org/cache/epub/72133/pg72133-h.zip"},"download_count":70},{"id":72208,"title":"The whirlwind","authors":[{"name":"Phillpotts, Eden","birth_year":1862,"death_year":1960}],"translators":[],"subjects":["Dartmoor (England) -- Fiction","Man-woman relationships -- Fiction"],"bookshelves":[],"languages":["en"],"copyright":false,"media_type":"Text","formats":{"text/html":"https://www.gutenberg.org/ebooks/72208.html.images","application/epub+zip":"https://www.gutenberg.org/ebooks/72208.epub3.images","application/x-mobipocket-ebook":"https://www.gutenberg.org/ebooks/72208.kf8.images","text/plain; charset=us-ascii":"https://www.gutenberg.org/ebooks/72208.txt.utf-8","application/rdf+xml":"https://www.gutenberg.org/ebooks/72208.rdf","image/jpeg":"https://www.gutenberg.org/cache/epub/72208/pg72208.cover.medium.jpg","application/octet-stream":"https://www.gutenberg.org/cache/epub/72208/pg72208-h.zip"},"download_count":70},{"id":72232,"title":"An index to the collected works of William Hazlitt","authors":[{"name":"Hazlitt, William","birth_year":1778,"death_year":1830}],"translators":[],"subjects":["English essays -- 19th century","Indexes"],"bookshelves":[],"languages":["en"],"copyright":false,"media_type":"Text","formats":{"text/html":"https://www.gutenberg.org/ebooks/72232.html.images","application/epub+zip":"https://www.gutenberg.org/ebooks/72232.epub3.images","application/x-mobipocket-ebook":"https://www.gutenberg.org/ebooks/72232.kf8.images","text/plain; charset=us-ascii":"https://www.gutenberg.org/ebooks/72232.txt.utf-8","application/rdf+xml":"https://www.gutenberg.org/ebooks/72232.rdf","image/jpeg":"https://www.gutenberg.org/cache/epub/72232/pg72232.cover.medium.jpg","application/octet-stream":"https://www.gutenberg.org/cache/epub/72232/pg72232-h.zip"},"download_count":70},{"id":72387,"title":"The Delinquent, Vol. IV, No. 6, June, 1914","authors":[{"name":"Various","birth_year":null,"death_year":null}],"translators":[],"subjects":["Prisons -- Periodicals"],"bookshelves":[],"languages":["en"],"copyright":false,"media_type":"Text","formats":{"text/html":"https://www.gutenberg.org/ebooks/72387.html.images","application/epub+zip":"https://www.gutenberg.org/ebooks/72387.epub3.images","application/x-mobipocket-ebook":"https://www.gutenberg.org/ebooks/72387.kf8.images","text/plain; charset=us-ascii":"https://www.gutenberg.org/ebooks/72387.txt.utf-8","application/rdf+xml":"https://www.gutenberg.org/ebooks/72387.rdf","image/jpeg":"https://www.gutenberg.org/cache/epub/72387/pg72387.cover.medium.jpg","application/octet-stream":"https://www.gutenberg.org/cache/epub/72387/pg72387-h.zip"},"download_count":70},{"id":286,"title":"Laddie: A True Blue Story","authors":[{"name":"Stratton-Porter, Gene","birth_year":1863,"death_year":1924}],"translators":[],"subjects":["Didactic fiction","Indiana -- Fiction"],"bookshelves":["Bestsellers, American, 1895-1923"],"languages":["en"],"copyright":false,"media_type":"Text","formats":{"text/html":"https://www.gutenberg.org/ebooks/286.html.images","application/epub+zip":"https://www.gutenberg.org/ebooks/286.epub3.images","application/x-mobipocket-ebook":"https://www.gutenberg.org/ebooks/286.kf8.images","text/plain; charset=us-ascii":"https://www.gutenberg.org/ebooks/286.txt.utf-8","application/rdf+xml":"https://www.gutenberg.org/ebooks/286.rdf","image/jpeg":"https://www.gutenberg.org/cache/epub/286/pg286.cover.medium.jpg","application/octet-stream":"https://www.gutenberg.org/files/286/286-0.zip"},"download_count":69},{"id":342,"title":"Margaret Ogilvy","authors":[{"name":"Barrie, J. M. (James Matthew)","birth_year":1860,"death_year":1937}],"translators":[],"subjects":["Barrie, Margaret Ogilvy"],"bookshelves":["Bestsellers, American, 1895-1923"],"languages":["en"],"copyright":false,"media_type":"Text","formats":{"text/html":"https://www.gutenberg.org/ebooks/342.html.images","application/epub+zip":"https://www.gutenberg.org/ebooks/342.epub3.images","application/x-mobipocket-ebook":"https://www.gutenberg.org/ebooks/342.kf8.images","text/plain; charset=us-ascii":"https://www.gutenberg.org/ebooks/342.txt.utf-8","text/plain; charset=utf-8":"https://www.gutenberg.org/files/342/342-0.txt","application/rdf+xml":"https://www.gutenberg.org/ebooks/342.rdf","image/jpeg":"https://www.gutenberg.org/cache/epub/342/pg342.cover.medium.jpg","application/octet-stream":"https://www.gutenberg.org/cache/epub/342/pg342-h.zip"},"download_count":69},{"id":680,"title":"The Golden Threshold","authors":[{"name":"Naidu, Sarojini","birth_year":1879,"death_year":1949}],"translators":[],"subjects":["Indic poetry (English)"],"bookshelves":["India"],"languages":["en"],"copyright":false,"media_type":"Text","formats":{"text/html":"https://www.gutenberg.org/ebooks/680.html.images","application/epub+zip":"https://www.gutenberg.org/ebooks/680.epub3.images","application/x-mobipocket-ebook":"https://www.gutenberg.org/ebooks/680.kf8.images","text/plain; charset=us-ascii":"https://www.gutenberg.org/ebooks/680.txt.utf-8","application/rdf+xml":"https://www.gutenberg.org/ebooks/680.rdf","image/jpeg":"https://www.gutenberg.org/cache/epub/680/pg680.cover.medium.jpg","application/octet-stream":"https://www.gutenberg.org/cache/epub/680/pg680-h.zip"},"download_count":69},{"id":1670,"title":"Luther's Little Instruction Book: The Small Catechism of Martin Luther","authors":[{"name":"Luther, Martin","birth_year":1483,"death_year":1546}],"translators":[{"name":"Smith, Robert E.","birth_year":null,"death_year":null}],"subjects":["Lutheran Church -- Catechisms -- English"],"bookshelves":["Christianity"],"languages":["en"],"copyright":false,"media_type":"Text","formats":{"text/html":"https://www.gutenberg.org/ebooks/1670.html.images","application/epub+zip":"https://www.gutenberg.org/ebooks/1670.epub3.images","application/x-mobipocket-ebook":"https://www.gutenberg.org/ebooks/1670.kf8.images","text/plain; charset=us-ascii":"https://www.gutenberg.org/ebooks/1670.txt.utf-8","application/rdf+xml":"https://www.gutenberg.org/ebooks/1670.rdf","image/jpeg":"https://www.gutenberg.org/cache/epub/1670/pg1670.cover.medium.jpg","application/octet-stream":"https://www.gutenberg.org/cache/epub/1670/pg1670-h.zip"},"download_count":69},{"id":1873,"title":"Gambara","authors":[{"name":"Balzac, Honoré de","birth_year":1799,"death_year":1850}],"translators":[],"subjects":["French fiction -- Translations into English"],"bookshelves":[],"languages":["en"],"copyright":false,"media_type":"Text","formats":{"text/html":"https://www.gutenberg.org/ebooks/1873.html.images","text/html; charset=utf-8":"https://www.gutenberg.org/files/1873/1873-h/1873-h.htm","application/epub+zip":"https://www.gutenberg.org/ebooks/1873.epub3.images","application/x-mobipocket-ebook":"https://www.gutenberg.org/ebooks/1873.kf8.images","text/plain; charset=us-ascii":"https://www.gutenberg.org/ebooks/1873.txt.utf-8","text/plain; charset=utf-8":"https://www.gutenberg.org/files/1873/1873-0.txt","application/rdf+xml":"https://www.gutenberg.org/ebooks/1873.rdf","image/jpeg":"https://www.gutenberg.org/cache/epub/1873/pg1873.cover.medium.jpg","application/octet-stream":"https://www.gutenberg.org/cache/epub/1873/pg1873-h.zip"},"download_count":69},{"id":1924,"title":"Many Voices: Poems","authors":[{"name":"Nesbit, E. (Edith)","birth_year":1858,"death_year":1924}],"translators":[],"subjects":["English poetry"],"bookshelves":[],"languages":["en"],"copyright":false,"media_type":"Text","formats":{"text/html":"https://www.gutenberg.org/ebooks/1924.html.images","application/epub+zip":"https://www.gutenberg.org/ebooks/1924.epub3.images","application/x-mobipocket-ebook":"https://www.gutenberg.org/ebooks/1924.kf8.images","text/plain; charset=us-ascii":"https://www.gutenberg.org/ebooks/1924.txt.utf-8","text/plain; charset=utf-8":"https://www.gutenberg.org/files/1924/1924-0.txt","application/rdf+xml":"https://www.gutenberg.org/ebooks/1924.rdf","image/jpeg":"https://www.gutenberg.org/cache/epub/1924/pg1924.cover.medium.jpg","application/octet-stream":"https://www.gutenberg.org/cache/epub/1924/pg1924-h.zip"},"download_count":69},{"id":2284,"title":"Animal Heroes","authors":[{"name":"Seton, Ernest Thompson","birth_year":1860,"death_year":1946}],"translators":[],"subjects":["Animals -- Anecdotes","Animals -- Fiction","Animals -- Folklore"],"bookshelves":["Children's Instructional Books"],"languages":["en"],"copyright":false,"media_type":"Text","formats":{"text/html":"https://www.gutenberg.org/ebooks/2284.html.images","text/html; charset=iso-8859-1":"https://www.gutenberg.org/files/2284/2284-h/2284-h.htm","application/epub+zip":"https://www.gutenberg.org/ebooks/2284.epub3.images","application/x-mobipocket-ebook":"https://www.gutenberg.org/ebooks/2284.kf8.images","text/plain; charset=us-ascii":"https://www.gutenberg.org/ebooks/2284.txt.utf-8","text/plain; charset=iso-8859-1":"https://www.gutenberg.org/files/2284/2284-8.txt","application/rdf+xml":"https://www.gutenberg.org/ebooks/2284.rdf","image/jpeg":"https://www.gutenberg.org/cache/epub/2284/pg2284.cover.medium.jpg","application/octet-stream":"https://www.gutenberg.org/cache/epub/2284/pg2284-h.zip"},"download_count":69},{"id":2351,"title":"John Halifax, Gentleman","authors":[{"name":"Craik, Dinah Maria Mulock","birth_year":1826,"death_year":1887}],"translators":[],"subjects":["England -- Social conditions -- 19th century -- Fiction","Industrial revolution -- England -- Fiction","Orphans -- Fiction","Working class -- England -- Fiction"],"bookshelves":[],"languages":["en"],"copyright":false,"media_type":"Text","formats":{"text/html":"https://www.gutenberg.org/ebooks/2351.html.images","text/html; charset=iso-8859-1":"https://www.gutenberg.org/files/2351/2351-h/2351-h.htm","application/epub+zip":"https://www.gutenberg.org/ebooks/2351.epub3.images","application/x-mobipocket-ebook":"https://www.gutenberg.org/ebooks/2351.kf8.images","text/plain; charset=us-ascii":"https://www.gutenberg.org/ebooks/2351.txt.utf-8","application/rdf+xml":"https://www.gutenberg.org/ebooks/2351.rdf","image/jpeg":"https://www.gutenberg.org/cache/epub/2351/pg2351.cover.medium.jpg","application/octet-stream":"https://www.gutenberg.org/cache/epub/2351/pg2351-h.zip"},"download_count":69},{"id":2920,"title":"Four Short Plays","authors":[{"name":"Galsworthy, John","birth_year":1867,"death_year":1933}],"translators":[],"subjects":["English drama"],"bookshelves":["One Act Plays"],"languages":["en"],"copyright":false,"media_type":"Text","formats":{"text/html":"https://www.gutenberg.org/ebooks/2920.html.images","text/html; charset=us-ascii":"https://www.gutenberg.org/files/2920/2920-h/2920-h.htm","application/epub+zip":"https://www.gutenberg.org/ebooks/2920.epub3.images","application/x-mobipocket-ebook":"https://www.gutenberg.org/ebooks/2920.kf8.images","text/plain; charset=us-ascii":"https://www.gutenberg.org/ebooks/2920.txt.utf-8","application/rdf+xml":"https://www.gutenberg.org/ebooks/2920.rdf","image/jpeg":"https://www.gutenberg.org/cache/epub/2920/pg2920.cover.medium.jpg","application/octet-stream":"https://www.gutenberg.org/cache/epub/2920/pg2920-h.zip"},"download_count":69},{"id":3418,"title":"Captain Brassbound's Conversion","authors":[{"name":"Shaw, Bernard","birth_year":1856,"death_year":1950}],"translators":[],"subjects":["British -- Morocco -- Drama","English drama (Comedy)","Man-woman relationships -- Drama","Pirates -- Drama","Revenge -- Drama","Self-actualization (Psychology) -- Drama"],"bookshelves":[],"languages":["en"],"copyright":false,"media_type":"Text","formats":{"text/html":"https://www.gutenberg.org/ebooks/3418.html.images","text/html; charset=iso-8859-1":"https://www.gutenberg.org/files/3418/3418-h/3418-h.htm","application/epub+zip":"https://www.gutenberg.org/ebooks/3418.epub3.images","application/x-mobipocket-ebook":"https://www.gutenberg.org/ebooks/3418.kf8.images","text/plain; charset=us-ascii":"https://www.gutenberg.org/ebooks/3418.txt.utf-8","text/plain; charset=utf-8":"https://www.gutenberg.org/files/3418/3418-0.txt","application/rdf+xml":"https://www.gutenberg.org/ebooks/3418.rdf","image/jpeg":"https://www.gutenberg.org/cache/epub/3418/pg3418.cover.medium.jpg","application/octet-stream":"https://www.gutenberg.org/cache/epub/3418/pg3418-h.zip"},"download_count":69}]}