{"count":58808,"next":"http://129.241.150.113:8000/books/?languages=en&page=740","previous":"http://129.241.150.113:8000/books/?languages=en&page=738","results":[{"id":66905,"title":"The Collected Works of Ambrose Bierce, Volume 11: Antepenultimata","authors":[{"name":"Bierce, Ambrose","birth_year":1842,"death_year":1913}],"translators":[],"subjects":["American essays","American literature"],"bookshelves":[],"languages":["en"],"copyright":false,"media_type":"Text","formats":{"text/html":"https://www.gutenberg.org/ebooks/66905.html.images","application/epub+zip":"https://www.gutenberg.org/ebooks/66905.epub3.images","application/x-mobipocket-ebook":"https://www.gutenberg.org/ebooks/66905.kf8.images","text/plain; charset=us-ascii":"https://www.gutenberg.org/ebooks/66905.txt.utf-8","application/rdf+xml":"https://www.gutenberg.org/ebooks/66905.rdf","image/jpeg":"https://www.gutenberg.org/cache/epub/66905/pg66905.cover.medium.jpg","application/octet-stream":"https://www.gutenberg.org/files/66905/66905-0.zip"},"download_count":46},{"id":66940,"title":"In a Yellow Wood","authors":[{"name":"Vidal, Gore","birth_year":1925,"death_year":2012}],"translators":[],"subjects":["Choice (Psychology) -- Fiction","Man-woman relationships -- Fiction","New York (N.Y.) -- Social conditions -- 20th century -- Fiction","Stockbrokers -- Fiction","World War, 1939-1945 -- Veterans -- Fiction"],"bookshelves":[],"languages":["en"],"copyright":false,"media_type":"Text","formats":{"text/html":"https://www.gutenberg.org/ebooks/66940.html.images","application/epub+zip":"https://www.gutenberg.org/ebooks/66940.epub3.images","application/x-mobipocket-ebook":"https://www.gutenberg.org/ebooks/66940.kf8.images","text/plain; charset=us-ascii":"https://www.gutenberg.org/ebooks/66940.txt.utf-8","application/rdf+xml":"https://www.gutenberg.org/ebooks/66940.rdf","image/jpeg":"https://www.gutenberg.org/cache/epub/66940/pg66940.cover.medium.jpg","application/octet-stream":"https://www.gutenberg.org/files/66940/66940-0.zip"},"download_count":46},{"id":67477,"title":"Bee-keeping for the Many; or, The management of the common and Ligurian honey bee: Including the selection of hives and a bee-keeper's calendar","authors":[{"name":"Payne, J. H.","birth_year":null,"death_year":null}],"translators":[],"subjects":["Bee culture","Bees"],"bookshelves":[],"languages":["en"],"copyright":false,"media_type":"Text","formats":{"text/html":"https://www.gutenberg.org/ebooks/67477.html.images","application/epub+zip":"https://www.gutenberg.org/ebooks/67477.epub3.images","application/x-mobipocket-ebook":"https://www.gutenberg.org/ebooks/67477.kf8.images","text/plain; charset=us-ascii":"https://www.gutenberg.org/ebooks/67477.txt.utf-8","application/rdf+xml":"https://www.gutenberg.org/ebooks/67477.rdf","image/jpeg":"https://www.gutenberg.org/cache/epub/67477/pg67477.cover.medium.jpg","application/octet-stream":"https://www.gutenberg.org/files/67477/67477-0.zip"},"download_count":46},{"id":67570,"title":"The Play-day Book: New Stories for Little Folks","authors":[{"name":"Fern, Fanny","birth_year":1811,"death_year":1872}],"translators":[],"subjects":["Children's stories"],"bookshelves":[],"languages":["en"],"copyright":false,"media_type":"Text","formats":{"text/html":"https://www.gutenberg.org/ebooks/67570.html.images","application/epub+zip":"https://www.gutenberg.org/ebooks/67570.epub3.images","application/x-mobipocket-ebook":"https://www.gutenberg.org/ebooks/67570.kf8.images","text/plain; charset=us-ascii":"https://www.gutenberg.org/ebooks/67570.txt.utf-8","application/rdf+xml":"https://www.gutenberg.org/ebooks/67570.rdf","image/jpeg":"https://www.gutenberg.org/cache/epub/67570/pg67570.cover.medium.jpg","application/octet-stream":"https://www.gutenberg.org/files/67570/67570-0.zip"},"download_count":46},{"id":67702,"title":"Crashing Suns","authors":[{"name":"Hamilton, Edmond","birth_year":1904,"death_year":1977}],"translators":[],"subjects":["Adventure stories","Science fiction"],"bookshelves":[],"languages":["en"],"copyright":false,"media_type":"Text","formats":{"text/html":"https://www.gutenberg.org/ebooks/67702.html.images","application/epub+zip":"https://www.gutenberg.org/ebooks/67702.epub3.images","application/x-mobipocket-ebook":"https://www.gutenberg.org/ebooks/67702.kf8.images","text/plain; charset=us-ascii":"https://www.gutenberg.org/ebooks/67702.txt.utf-8","application/rdf+xml":"https://www.gutenberg.org/ebooks/67702.rdf","image/jpeg":"https://www.gutenberg.org/cache/epub/67702/pg67702.cover.medium.jpg","application/octet-stream":"https://www.gutenberg.org/files/67702/67702-0.zip"},"download_count":46},{"id":67761,"title":"Stories from the Crusades","authors":[{"name":"Kelman, Janet Harvey","birth_year":null,"death_year":null}],"translators":[],"subjects":["Crusades -- Juvenile literature"],"bookshelves":[],"languages":["en"],"copyright":false,"media_type":"Text","formats":{"text/html":"https://www.gutenberg.org/ebooks/67761.html.images","application/epub+zip":"https://www.gutenberg.org/ebooks/67761.epub3.images","application/x-mobipocket-ebook":"https://www.gutenberg.org/ebooks/67761.kf8.images","text/plain; charset=us-ascii":"https://www.gutenberg.org/ebooks/67761.txt.utf-8","application/rdf+xml":"https://www.gutenberg.org/ebooks/67761.rdf","image/jpeg":"https://www.gutenberg.org/cache/epub/67761/pg67761.cover.medium.jpg","application/octet-stream":"https://www.gutenberg.org/files/67761/67761-0.zip"},"download_count":46},{"id":67903,"title":"The pillars of Hercules : $b or, A narrative of travels in Spain and Morocco in 1848; vol. 1","authors":[{"name":"Urquhart, David","birth_year":1805,"death_year":1877}],"translators":[],"subjects":["Morocco -- Description and travel","Spain -- Description and travel"],"bookshelves":[],"languages":["en"],"copyright":false,"media_type":"Text","formats":{"text/html":"https://www.gutenberg.org/ebooks/67903.html.images","application/epub+zip":"https://www.gutenberg.org/ebooks/67903.epub3.images","application/x-mobipocket-ebook":"https://www.gutenberg.org/ebooks/67903.kf8.images","text/plain; charset=us-ascii":"https://www.gutenberg.org/ebooks/67903.txt.utf-8","application/rdf+xml":"https://www.gutenberg.org/ebooks/67903.rdf","image/jpeg":"https://www.gutenberg.org/cache/epub/67903/pg67903.cover.medium.jpg","application/octet-stream":"https://www.gutenberg.org/files/67903/67903-0.zip"},"download_count":46},{"id":67921,"title":"Poseidon's paradise: the romance of Atlantis","authors":[{"name":"Birkmaier, Elizabeth G.","birth_year":1847,"death_year":1912}],"translators":[],"subjects":["Atlantis (Legendary place) -- Fiction","Fantasy fiction"],"bookshelves":[],"languages":["en"],"copyright":false,"media_type":"Text","formats":{"text/html":"https://www.gutenberg.org/ebooks/67921.html.images","application/epub+zip":"https://www.gutenberg.org/ebooks/67921.epub3.images","application/x-mobipocket-ebook":"https://www.gutenberg.org/ebooks/67921.kf8.images","text/plain; charset=us-ascii":"https://www.gutenberg.org/ebooks/67921.txt.utf-8","application/rdf+xml":"https://www.gutenberg.org/ebooks/67921.rdf","image/jpeg":"https://www.gutenberg.org/cache/epub/67921/pg67921.cover.medium.jpg","application/octet-stream":"https://www.gutenberg.org/files/67921/67921-0.zip"},"download_count":46},{"id":67954,"title":"The Life of Clara Barton, Founder of the American Red Cross (Vol. 2 of 2)","authors":[{"name":"Barton, William E. (William Eleazar)","birth_year":1861,"death_year":1930}],"translators":[],"subjects":["American National Red Cross -- Biography","Barton, Clara, 1821-1912","Nurses -- United States -- Biography"],"bookshelves":[],"languages":["en"],"copyright":false,"media_type":"Text","formats":{"text/html":"https://www.gutenberg.org/ebooks/67954.html.images","application/epub+zip":"https://www.gutenberg.org/ebooks/67954.epub3.images","application/x-mobipocket-ebook":"https://www.gutenberg.org/ebooks/67954.kf8.images","text/plain; charset=us-ascii":"https://www.gutenberg.org/ebooks/67954.txt.utf-8","application/rdf+xml":"https://www.gutenberg.org/ebooks/67954.rdf","image/jpeg":"https://www.gutenberg.org/cache/epub/67954/pg67954.cover.medium.jpg","application/octet-stream":"https://www.gutenberg.org/files/67954/67954-0.zip"},"download_count":46},{"id":68107,"title":"Juke-Box","authors":[{"name":"Moore, C. L. (Catherine Lucile)","birth_year":1911,"death_year":1987},{"name":"Kuttner, Henry","birth_year":1915,"death_year":1958}],"translators":[],"subjects":["Bars (Drinking establishments) -- Fiction","Jukeboxes -- Fiction","Science fiction","Short stories"],"bookshelves":[],"languages":["en"],"copyright":false,"media_type":"Text","formats":{"text/html":"https://www.gutenberg.org/ebooks/68107.html.images","application/epub+zip":"https://www.gutenberg.org/ebooks/68107.epub3.images","application/x-mobipocket-ebook":"https://www.gutenberg.org/ebooks/68107.kf8.images","text/plain; charset=us-ascii":"https://www.gutenberg.org/ebooks/68107.txt.utf-8","application/rdf+xml":"https://www.gutenberg.org/ebooks/68107.rdf","image/jpeg":"https://www.gutenberg.org/cache/epub/68107/pg68107.cover.medium.jpg","application/octet-stream":"https://www.gutenberg.org/files/68107/68107-0.zip"},"download_count":46},{"id":68331,"title":"Planet of Sand","authors":[{"name":"Leinster, Murray","birth_year":1896,"death_year":1975}],"translators":[],"subjects":["Castaways -- Fiction","Escaped prisoners -- Fiction","Human-alien encounters -- Fiction","Life on other planets -- Fiction","Man-woman relationships -- Fiction","Science fiction"],"bookshelves":[],"languages":["en"],"copyright":false,"media_type":"Text","formats":{"text/html":"https://www.gutenberg.org/ebooks/68331.html.images","application/epub+zip":"https://www.gutenberg.org/ebooks/68331.epub3.images","application/x-mobipocket-ebook":"https://www.gutenberg.org/ebooks/68331.kf8.images","text/plain; charset=us-ascii":"https://www.gutenberg.org/ebooks/68331.txt.utf-8","application/rdf+xml":"https://www.gutenberg.org/ebooks/68331.rdf","image/jpeg":"https://www.gutenberg.org/cache/epub/68331/pg68331.cover.medium.jpg","application/octet-stream":"https://www.gutenberg.org/files/68331/68331-0.zip"},"download_count":46},{"id":68411,"title":"Bellarion the Fortunate: A romance","authors":[{"name":"Sabatini, Rafael","birth_year":1875,"death_year":1950}],"translators":[],"subjects":["Italy -- History -- 1268-1492 -- Fiction"],"bookshelves":[],"languages":["en"],"copyright":false,"media_type":"Text","formats":{"text/html":"https://www.gutenberg.org/ebooks/68411.html.images","application/epub+zip":"https://www.gutenberg.org/ebooks/68411.epub3.images","application/x-mobipocket-ebook":"https://www.gutenberg.org/ebooks/68411.kf8.images","text/plain; charset=us-ascii":"https://www.gutenberg.org/ebooks/68411.txt.utf-8","application/rdf+xml":"https://www.gutenberg.org/ebooks/68411.rdf","image/jpeg":"https://www.gutenberg.org/cache/epub/68411/pg68411.cover.medium.jpg","application/octet-stream":"https://www.gutenberg.org/files/68411/68411-0.zip"},"download_count":46},{"id":68462,"title":"Einstein and the universe: A popular exposition of the famous theory","authors":[{"name":"Nordmann, Charles","birth_year":1881,"death_year":1940}],"translators":[{"name":"McCabe, Joseph","birth_year":1867,"death_year":1955}],"subjects":["Einstein, Albert, 1879-1955","Gravitation","Relativity (Physics)"],"bookshelves":[],"languages":["en"],"copyright":false,"media_type":"Text","formats":{"text/html":"https://www.gutenberg.org/ebooks/68462.html.images","application/epub+zip":"https://www.gutenberg.org/ebooks/68462.epub3.images","application/x-mobipocket-ebook":"https://www.gutenberg.org/ebooks/68462.kf8.images","text/plain; charset=us-ascii":"https://www.gutenberg.org/ebooks/68462.txt.utf-8","application/rdf+xml":"https://www.gutenberg.org/ebooks/68462.rdf","image/jpeg":"https://www.gutenberg.org/cache/epub/68462/pg68462.cover.medium.jpg","application/octet-stream":"https://www.gutenberg.org/files/68462/68462-0.zip"},"download_count":46},{"id":68599,"title":"The unseen blushers","authors":[{"name":"Bester, Alfred","birth_year":1913,"death_year":1987}],"translators":[],"subjects":["Pulp literature -- Authorship -- Fiction","Science fiction","Short stories","Time travel -- Fiction"],"bookshelves":[],"languages":["en"],"copyright":false,"media_type":"Text","formats":{"text/html":"https://www.gutenberg.org/ebooks/68599.html.images","application/epub+zip":"https://www.gutenberg.org/ebooks/68599.epub3.images","application/x-mobipocket-ebook":"https://www.gutenberg.org/ebooks/68599.kf8.images","text/plain; charset=us-ascii":"https://www.gutenberg.org/ebooks/68599.txt.utf-8","application/rdf+xml":"https://www.gutenberg.org/ebooks/68599.rdf","image/jpeg":"https://www.gutenberg.org/cache/epub/68599/pg68599.cover.medium.jpg","application/octet-stream":"https://www.gutenberg.org/files/68599/68599-0.zip"},"download_count":46},{"id":68628,"title":"The skeleton key","authors":[{"name":"Capes, Bernard","birth_year":1854,"death_year":1918}],"translators":[],"subjects":["Detective and mystery stories","Hampshire (England) -- Fiction","Man-woman relationships -- Fiction","Murder -- Investigation -- Fiction"],"bookshelves":[],"languages":["en"],"copyright":false,"media_type":"Text","formats":{"text/html":"https://www.gutenberg.org/ebooks/68628.html.images","application/epub+zip":"https://www.gutenberg.org/ebooks/68628.epub3.images","application/x-mobipocket-ebook":"https://www.gutenberg.org/ebooks/68628.kf8.images","text/plain; charset=us-ascii":"https://www.gutenberg.org/ebooks/68628.txt.utf-8","application/rdf+xml":"https://www.gutenberg.org/ebooks/68628.rdf","image/jpeg":"https://www.gutenberg.org/cache/epub/68628/pg68628.cover.medium.jpg","application/octet-stream":"https://www.gutenberg.org/files/68628/68628-0.zip"},"download_count":46},{"id":68629,"title":"The Crowded Street","authors":[{"name":"Holtby, Winifred","birth_year":1898,"death_year":1935}],"translators":[],"subjects":["Mothers and daughters -- Fiction","Sisters -- Fiction","Women -- Social conditions -- 20th century -- Fiction","World War, 1914-1918 -- England -- Fiction","Yorkshire (England) -- Fiction","Young women -- Fiction"],"bookshelves":[],"languages":["en"],"copyright":false,"media_type":"Text","formats":{"text/html":"https://www.gutenberg.org/ebooks/68629.html.images","application/epub+zip":"https://www.gutenberg.org/ebooks/68629.epub3.images","application/x-mobipocket-ebook":"https://www.gutenberg.org/ebooks/68629.kf8.images","text/plain; charset=us-ascii":"https://www.gutenberg.org/ebooks/68629.txt.utf-8","application/rdf+xml":"https://www.gutenberg.org/ebooks/68629.rdf","image/jpeg":"https://www.gutenberg.org/cache/epub/68629/pg68629.cover.medium.jpg","application/octet-stream":"https://www.gutenberg.org/files/68629/68629-0.zip"},"download_count":46},{"id":68672,"title":"The lives of celebrated travellers, Vol. 1. (of 3)","authors":[{"name":"St. John, James Augustus","birth_year":1795,"death_year":1875}],"translators":[],"subjects":["Adventure and adventurers -- Biography","Explorers -- Biography","Travelers -- Biography"],"bookshelves":[],"languages":["en"],"copyright":false,"media_type":"Text","formats":{"text/html":"https://www.gutenberg.org/ebooks/68672.html.images","application/epub+zip":"https://www.gutenberg.org/ebooks/68672.epub3.images","application/x-mobipocket-ebook":"https://www.gutenberg.org/ebooks/68672.kf8.images","text/plain; charset=us-ascii":"https://www.gutenberg.org/ebooks/68672.txt.utf-8","application/rdf+xml":"https://www.gutenberg.org/ebooks/68672.rdf","image/jpeg":"https://www.gutenberg.org/cache/epub/68672/pg68672.cover.medium.jpg","application/octet-stream":"https://www.gutenberg.org/files/68672/68672-0.zip"},"download_count":46},{"id":68771,"title":"The soul of Lilith","authors":[{"name":"Corelli, Marie","birth_year":1855,"death_year":1924}],"translators":[],"subjects":["Elixir of life -- Fiction","Lilith (Semitic mythology) -- Fiction","Paranormal fiction"],"bookshelves":[],"languages":["en"],"copyright":false,"media_type":"Text","formats":{"text/html":"https://www.gutenberg.org/ebooks/68771.html.images","application/epub+zip":"https://www.gutenberg.org/ebooks/68771.epub3.images","application/x-mobipocket-ebook":"https://www.gutenberg.org/ebooks/68771.kf8.images","text/plain; charset=us-ascii":"https://www.gutenberg.org/ebooks/68771.txt.utf-8","application/rdf+xml":"https://www.gutenberg.org/ebooks/68771.rdf","image/jpeg":"https://www.gutenberg.org/cache/epub/68771/pg68771.cover.medium.jpg","application/octet-stream":"https://www.gutenberg.org/files/68771/68771-0.zip"},"download_count":46},{"id":69168,"title":"The phantom hunter; or, love after death","authors":[{"name":"Ellis, Edward Sylvester","birth_year":1840,"death_year":1916}],"translators":[],"subjects":["Arson investigation -- Fiction","Attempted murder -- Fiction","Detective and mystery stories","Dime novels","False imprisonment -- Fiction","Frontier and pioneer life -- Fiction","Girty, Simon, 1741-1818 -- Fiction","Guardian and ward -- Fiction","Kentucky -- Fiction","Unrequited love -- Fiction","Western stories","Wyandot Indians -- Fiction"],"bookshelves":[],"languages":["en"],"copyright":false,"media_type":"Text","formats":{"text/html":"https://www.gutenberg.org/ebooks/69168.html.images","application/epub+zip":"https://www.gutenberg.org/ebooks/69168.epub3.images","application/x-mobipocket-ebook":"https://www.gutenberg.org/ebooks/69168.kf8.images","text/plain; charset=us-ascii":"https://www.gutenberg.org/ebooks/69168.txt.utf-8","application/rdf+xml":"https://www.gutenberg.org/ebooks/69168.rdf","image/jpeg":"https://www.gutenberg.org/cache/epub/69168/pg69168.cover.medium.jpg","application/octet-stream":"https://www.gutenberg.org/files/69168/69168-0.zip"},"download_count":46},{"id":69188,"title":"Maida's little house","authors":[{"name":"Gillmore, Inez Haynes","birth_year":1873,"death_year":1970}],"translators":[],"subjects":["Children of the rich -- Juvenile fiction","Friendship -- Juvenile fiction","Girls -- Juvenile fiction","Summer -- Juvenile fiction"],"bookshelves":[],"languages":["en"],"copyright":false,"media_type":"Text","formats":{"text/html":"https://www.gutenberg.org/ebooks/69188.html.images","application/epub+zip":"https://www.gutenberg.org/ebooks/69188.epub3.images","application/x-mobipocket-ebook":"https://www.gutenberg.org/ebooks/69188.kf8.images","text/plain; charset=us-ascii":"https://www.gutenberg.org/ebooks/69188.txt.utf-8","application/rdf+xml":"https://www.gutenberg.org/ebooks/69188.rdf","image/jpeg":"https://www.gutenberg.org/cache/epub/69188/pg69188.cover.medium.jpg","application/octet-stream":"https://www.gutenberg.org/files/69188/69188-0.zip"},"download_count":46},{"id":69261,"title":"A vagrant wife","authors":[{"name":"Warden, Florence","birth_year":1857,"death_year":1929}],"translators":[],"subjects":["English fiction -- 19th century"],"bookshelves":[],"languages":["en"],"copyright":false,"media_type":"Text","formats":{"text/html":"https://www.gutenberg.org/ebooks/69261.html.images","application/epub+zip":"https://www.gutenberg.org/ebooks/69261.epub3.images","application/x-mobipocket-ebook":"https://www.gutenberg.org/ebooks/69261.kf8.images","text/plain; charset=us-ascii":"https://www.gutenberg.org/ebooks/69261.txt.utf-8","application/rdf+xml":"https://www.gutenberg.org/ebooks/69261.rdf","image/jpeg":"https://www.gutenberg.org/cache/epub/69261/pg69261.cover.medium.jpg","application/octet-stream":"https://www.gutenberg.org/files/69261/69261-0.zip"},"download_count":46},{"id":69281,"title":"The secret spring","authors":[{"name":"Benoît, Pierre","birth_year":1886,"death_year":1962}],"translators":[],"subjects":["French -- Germany -- Fiction","French fiction -- Translations into English","Mystery fiction","Nobility -- Germany -- Fiction"],"bookshelves":[],"languages":["en"],"copyright":false,"media_type":"Text","formats":{"text/html":"https://www.gutenberg.org/ebooks/69281.html.images","application/epub+zip":"https://www.gutenberg.org/ebooks/69281.epub3.images","application/x-mobipocket-ebook":"https://www.gutenberg.org/ebooks/69281.kf8.images","text/plain; charset=us-ascii":"https://www.gutenberg.org/ebooks/69281.txt.utf-8","application/rdf+xml":"https://www.gutenberg.org/ebooks/69281.rdf","image/jpeg":"https://www.gutenberg.org/cache/epub/69281/pg69281.cover.medium.jpg","application/octet-stream":"https://www.gutenberg.org/files/69281/69281-0.zip"},"download_count":46},{"id":69328,"title":"The nightless city; or, The \"history of the Yoshiwara Yūkwaku\"","authors":[{"name":"De Becker, J. E. (Joseph Ernest)","birth_year":1863,"death_year":1929}],"translators":[],"subjects":["Geishas -- Japan -- Tokyo -- History","Prostitution -- Japan -- Tokyo -- History","Tokyo (Japan) -- Social life and customs","Yoshiwara (Tokyo, Japan) -- History"],"bookshelves":[],"languages":["en"],"copyright":false,"media_type":"Text","formats":{"text/html":"https://www.gutenberg.org/ebooks/69328.html.images","application/epub+zip":"https://www.gutenberg.org/ebooks/69328.epub3.images","application/x-mobipocket-ebook":"https://www.gutenberg.org/ebooks/69328.kf8.images","text/plain; charset=us-ascii":"https://www.gutenberg.org/ebooks/69328.txt.utf-8","application/rdf+xml":"https://www.gutenberg.org/ebooks/69328.rdf","image/jpeg":"https://www.gutenberg.org/cache/epub/69328/pg69328.cover.medium.jpg","application/octet-stream":"https://www.gutenberg.org/files/69328/69328-0.zip"},"download_count":46},{"id":69435,"title":"Rhoda of the Underground","authors":[{"name":"Kelly, Florence Finch","birth_year":1858,"death_year":1939}],"translators":[],"subjects":["Slavery -- United States -- Fiction","Underground Railroad -- Fiction"],"bookshelves":[],"languages":["en"],"copyright":false,"media_type":"Text","formats":{"text/html":"https://www.gutenberg.org/ebooks/69435.html.images","application/epub+zip":"https://www.gutenberg.org/ebooks/69435.epub3.images","application/x-mobipocket-ebook":"https://www.gutenberg.org/ebooks/69435.kf8.images","text/plain; charset=us-ascii":"https://www.gutenberg.org/ebooks/69435.txt.utf-8","application/rdf+xml":"https://www.gutenberg.org/ebooks/69435.rdf","image/jpeg":"https://www.gutenberg.org/cache/epub/69435/pg69435.cover.medium.jpg","application/octet-stream":"https://www.gutenberg.org/files/69435/69435-0.zip"},"download_count":46},{"id":69482,"title":"The cats' Arabian nights, or, King Grimalkum","authors":[{"name":"Diaz, Abby Morton","birth_year":1821,"death_year":1904}],"translators":[],"subjects":["Animals -- Juvenile fiction","Cats -- Juvenile fiction","Children's stories","Cruelty -- Juvenile fiction","Fantasy literature","Human-animal relationships -- Juvenile fiction","Pets -- Juvenile fiction"],"bookshelves":[],"languages":["en"],"copyright":false,"media_type":"Text","formats":{"text/html":"https://www.gutenberg.org/ebooks/69482.html.images","application/epub+zip":"https://www.gutenberg.org/ebooks/69482.epub3.images","application/x-mobipocket-ebook":"https://www.gutenberg.org/ebooks/69482.kf8.images","text/plain; charset=us-ascii":"https://www.gutenberg.org/ebooks/69482.txt.utf-8","application/rdf+xml":"https://www.gutenberg.org/ebooks/69482.rdf","image/jpeg":"https://www.gutenberg.org/cache/epub/69482/pg69482.cover.medium.jpg","application/octet-stream":"https://www.gutenberg.org/files/69482/69482-0.zip"},"download_count":46},{"id":69580,"title":"Colonial facts and fictions: Humorous sketches","authors":[{"name":"Milne, John","birth_year":1850,"death_year":1913}],"translators":[],"subjects":["Australia -- Description and travel","New Zealand -- Description and travel"],"bookshelves":[],"languages":["en"],"copyright":false,"media_type":"Text","formats":{"text/html":"https://www.gutenberg.org/ebooks/69580.html.images","application/epub+zip":"https://www.gutenberg.org/ebooks/69580.epub3.images","application/x-mobipocket-ebook":"https://www.gutenberg.org/ebooks/69580.kf8.images","text/plain; charset=us-ascii":"https://www.gutenberg.org/ebooks/69580.txt.utf-8","application/rdf+xml":"https://www.gutenberg.org/ebooks/69580.rdf","image/jpeg":"https://www.gutenberg.org/cache/epub/69580/pg69580.cover.medium.jpg","application/octet-stream":"https://www.gutenberg.org/files/69580/69580-0.zip"},"download_count":46},{"id":69719,"title":"Galactic heritage","authors":[{"name":"Long, Frank Belknap","birth_year":1903,"death_year":1994}],"translators":[],"subjects":["Carnivals -- Fiction","Inventions -- Fiction","Psychic ability -- Fiction","Science fiction","Short stories"],"bookshelves":[],"languages":["en"],"copyright":false,"media_type":"Text","formats":{"text/html":"https://www.gutenberg.org/ebooks/69719.html.images","application/epub+zip":"https://www.gutenberg.org/ebooks/69719.epub3.images","application/x-mobipocket-ebook":"https://www.gutenberg.org/ebooks/69719.kf8.images","text/plain; charset=us-ascii":"https://www.gutenberg.org/ebooks/69719.txt.utf-8","application/rdf+xml":"https://www.gutenberg.org/ebooks/69719.rdf","image/jpeg":"https://www.gutenberg.org/cache/epub/69719/pg69719.cover.medium.jpg","application/octet-stream":"https://www.gutenberg.org/files/69719/69719-0.zip"},"download_count":46},{"id":69888,"title":"The instinct of workmanship, and the state of industrial arts","authors":[{"name":"Veblen, Thorstein","birth_year":1857,"death_year":1929}],"translators":[],"subjects":["Industrial arts -- History","Industries -- History","Technology -- History","Workmanship -- History"],"bookshelves":[],"languages":["en"],"copyright":false,"media_type":"Text","formats":{"text/html":"https://www.gutenberg.org/ebooks/69888.html.images","application/epub+zip":"https://www.gutenberg.org/ebooks/69888.epub3.images","application/x-mobipocket-ebook":"https://www.gutenberg.org/ebooks/69888.kf8.images","text/plain; charset=us-ascii":"https://www.gutenberg.org/ebooks/69888.txt.utf-8","application/rdf+xml":"https://www.gutenberg.org/ebooks/69888.rdf","image/jpeg":"https://www.gutenberg.org/cache/epub/69888/pg69888.cover.medium.jpg","application/octet-stream":"https://www.gutenberg.org/files/69888/69888-0.zip"},"download_count":46},{"id":69930,"title":"The unconscious : $b The fundamentals of human personality, normal and abnormal","authors":[{"name":"Prince, Morton","birth_year":1854,"death_year":1929}],"translators":[],"subjects":["Psychology, Pathological","Subconsciousness"],"bookshelves":[],"languages":["en"],"copyright":false,"media_type":"Text","formats":{"text/html":"https://www.gutenberg.org/ebooks/69930.html.images","application/epub+zip":"https://www.gutenberg.org/ebooks/69930.epub3.images","application/x-mobipocket-ebook":"https://www.gutenberg.org/ebooks/69930.kf8.images","text/plain; charset=us-ascii":"https://www.gutenberg.org/ebooks/69930.txt.utf-8","application/rdf+xml":"https://www.gutenberg.org/ebooks/69930.rdf","image/jpeg":"https://www.gutenberg.org/cache/epub/69930/pg69930.cover.medium.jpg","application/octet-stream":"https://www.gutenberg.org/files/69930/69930-0.zip"},"download_count":46},{"id":70032,"title":"Zanzibar; city, island, and coast. Vol. 2 (of 2)","authors":[{"name":"Burton, Richard Francis, Sir","birth_year":1821,"death_year":1890}],"translators":[],"subjects":["Africa, East -- Description and travel","Ethnology -- Tanzania -- Zanzibar","Zanzibar -- Description and travel"],"bookshelves":[],"languages":["en"],"copyright":false,"media_type":"Text","formats":{"text/html":"https://www.gutenberg.org/ebooks/70032.html.images","application/epub+zip":"https://www.gutenberg.org/ebooks/70032.epub3.images","application/x-mobipocket-ebook":"https://www.gutenberg.org/ebooks/70032.kf8.images","text/plain; charset=us-ascii":"https://www.gutenberg.org/ebooks/70032.txt.utf-8","application/rdf+xml":"https://www.gutenberg.org/ebooks/70032.rdf","image/jpeg":"https://www.gutenberg.org/cache/epub/70032/pg70032.cover.medium.jpg","application/octet-stream":"https://www.gutenberg.org/files/70032/70032-0.zip"},"download_count":46},{"id":70457,"title":"Tumbling river range","authors":[{"name":"Tuttle, W. C. (Wilbur C.)","birth_year":1883,"death_year":1969}],"translators":[],"subjects":["Cowboys -- Fiction","Hartley, Hashknife (Fictitious character) -- Fiction","Stevens, Sleepy (Fictitious character) -- Fiction","Western stories"],"bookshelves":[],"languages":["en"],"copyright":false,"media_type":"Text","formats":{"text/html":"https://www.gutenberg.org/ebooks/70457.html.images","application/epub+zip":"https://www.gutenberg.org/ebooks/70457.epub3.images","application/x-mobipocket-ebook":"https://www.gutenberg.org/ebooks/70457.kf8.images","text/plain; charset=us-ascii":"https://www.gutenberg.org/ebooks/70457.txt.utf-8","application/rdf+xml":"https://www.gutenberg.org/ebooks/70457.rdf","image/jpeg":"https://www.gutenberg.org/cache/epub/70457/pg70457.cover.medium.jpg","application/octet-stream":"https://www.gutenberg.org/files/70457/70457-0.zip"},"download_count":46},{"id":70644,"title":"Caroline the Illustrious, vol. 1 (of 2) : $b Queen-Consort of George II. and sometime Queen-Regent; a study of her life and time","authors":[{"name":"Wilkins, W. H. (William Henry)","birth_year":1860,"death_year":1905}],"translators":[],"subjects":["Caroline, Queen, consort of George II, King of Great Britain, 1683-1737"],"bookshelves":[],"languages":["en"],"copyright":false,"media_type":"Text","formats":{"text/html":"https://www.gutenberg.org/ebooks/70644.html.images","application/epub+zip":"https://www.gutenberg.org/ebooks/70644.epub3.images","application/x-mobipocket-ebook":"https://www.gutenberg.org/ebooks/70644.kf8.images","text/plain; charset=us-ascii":"https://www.gutenberg.org/ebooks/70644.txt.utf-8","application/rdf+xml":"https://www.gutenberg.org/ebooks/70644.rdf","image/jpeg":"https://www.gutenberg.org/cache/epub/70644/pg70644.cover.medium.jpg","application/octet-stream":"https://www.gutenberg.org/files/70644/70644-0.zip"},"download_count":46}]}