{"count":58808,"next":"http://129.241.150.113:8000/books/?languages=en&page=1799","previous":"http://129.241.150.113:8000/books/?languages=en&page=1797","results":[{"id":5485,"title":"The Emperor — Volume 03","authors":[{"name":"Ebers, Georg","birth_year":1837,"death_year":1898}],"translators":[{"name":"Bell, Clara","birth_year":1834,"death_year":1927}],"subjects":["Egypt -- History -- 30 B.C.-640 A.D. -- Fiction","German fiction -- Translations into English","Hadrian, Emperor of Rome, 76-138 -- Fiction"],"bookshelves":[],"languages":["en"],"copyright":false,"media_type":"Text","formats":{"text/html":"https://www.gutenberg.org/ebooks/5485.html.images","application/epub+zip":"https://www.gutenberg.org/ebooks/5485.epub3.images","application/x-mobipocket-ebook":"https://www.gutenberg.org/ebooks/5485.kf8.images","text/plain; charset=us-ascii":"https://www.gutenberg.org/ebooks/5485.txt.utf-8","application/rdf+xml":"https://www.gutenberg.org/ebooks/5485.rdf","image/jpeg":"https://www.gutenberg.org/cache/epub/5485/pg5485.cover.medium.jpg","application/octet-stream":"https://www.gutenberg.org/cache/epub/5485/pg5485-h.zip"},"download_count":12},{"id":5506,"title":"Serapis — Volume 06","authors":[{"name":"Ebers, Georg","birth_year":1837,"death_year":1898}],"translators":[{"name":"Bell, Clara","birth_year":1834,"death_year":1927}],"subjects":["Egypt -- History -- 30 B.C.-640 A.D. -- Fiction","German fiction -- Translations into English"],"bookshelves":[],"languages":["en"],"copyright":false,"media_type":"Text","formats":{"text/html":"https://www.gutenberg.org/ebooks/5506.html.images","application/epub+zip":"https://www.gutenberg.org/ebooks/5506.epub3.images","application/x-mobipocket-ebook":"https://www.gutenberg.org/ebooks/5506.kf8.images","text/plain; charset=us-ascii":"https://www.gutenberg.org/ebooks/5506.txt.utf-8","application/rdf+xml":"https://www.gutenberg.org/ebooks/5506.rdf","image/jpeg":"https://www.gutenberg.org/cache/epub/5506/pg5506.cover.medium.jpg","application/octet-stream":"https://www.gutenberg.org/cache/epub/5506/pg5506-h.zip"},"download_count":12},{"id":5546,"title":"In the Fire of the Forge: A Romance of Old Nuremberg — Volume 04","authors":[{"name":"Ebers, Georg","birth_year":1837,"death_year":1898}],"translators":[{"name":"Safford, Mary J.","birth_year":null,"death_year":null}],"subjects":["German fiction -- Translations into English","Nuremberg (Germany) -- Fiction"],"bookshelves":[],"languages":["en"],"copyright":false,"media_type":"Text","formats":{"text/html":"https://www.gutenberg.org/ebooks/5546.html.images","application/epub+zip":"https://www.gutenberg.org/ebooks/5546.epub3.images","application/x-mobipocket-ebook":"https://www.gutenberg.org/ebooks/5546.kf8.images","text/plain; charset=us-ascii":"https://www.gutenberg.org/ebooks/5546.txt.utf-8","application/rdf+xml":"https://www.gutenberg.org/ebooks/5546.rdf","image/jpeg":"https://www.gutenberg.org/cache/epub/5546/pg5546.cover.medium.jpg","application/octet-stream":"https://www.gutenberg.org/cache/epub/5546/pg5546-h.zip"},"download_count":12},{"id":5547,"title":"In the Fire of the Forge: A Romance of Old Nuremberg — Volume 05","authors":[{"name":"Ebers, Georg","birth_year":1837,"death_year":1898}],"translators":[{"name":"Safford, Mary J.","birth_year":null,"death_year":null}],"subjects":["German fiction -- Translations into English","Nuremberg (Germany) -- Fiction"],"bookshelves":[],"languages":["en"],"copyright":false,"media_type":"Text","formats":{"text/html":"https://www.gutenberg.org/ebooks/5547.html.images","application/epub+zip":"https://www.gutenberg.org/ebooks/5547.epub3.images","application/x-mobipocket-ebook":"https://www.gutenberg.org/ebooks/5547.kf8.images","text/plain; charset=us-ascii":"https://www.gutenberg.org/ebooks/5547.txt.utf-8","application/rdf+xml":"https://www.gutenberg.org/ebooks/5547.rdf","image/jpeg":"https://www.gutenberg.org/cache/epub/5547/pg5547.cover.medium.jpg","application/octet-stream":"https://www.gutenberg.org/cache/epub/5547/pg5547-h.zip"},"download_count":12},{"id":5566,"title":"Barbara Blomberg — Volume 06","authors":[{"name":"Ebers, Georg","birth_year":1837,"death_year":1898}],"translators":[{"name":"Safford, Mary J.","birth_year":null,"death_year":null}],"subjects":["German fiction -- Translations into English","Holy Roman Empire -- History -- Charles V, 1519-1556 -- Fiction"],"bookshelves":["Historical Fiction"],"languages":["en"],"copyright":false,"media_type":"Text","formats":{"text/html":"https://www.gutenberg.org/ebooks/5566.html.images","application/epub+zip":"https://www.gutenberg.org/ebooks/5566.epub3.images","application/x-mobipocket-ebook":"https://www.gutenberg.org/ebooks/5566.kf8.images","text/plain; charset=us-ascii":"https://www.gutenberg.org/ebooks/5566.txt.utf-8","application/rdf+xml":"https://www.gutenberg.org/ebooks/5566.rdf","image/jpeg":"https://www.gutenberg.org/cache/epub/5566/pg5566.cover.medium.jpg","application/octet-stream":"https://www.gutenberg.org/cache/epub/5566/pg5566-h.zip"},"download_count":12},{"id":5578,"title":"The Burgomaster's Wife — Volume 01","authors":[{"name":"Ebers, Georg","birth_year":1837,"death_year":1898}],"translators":[{"name":"Safford, Mary J.","birth_year":null,"death_year":null}],"subjects":["German fiction -- Translations into English","Netherlands -- History -- Eighty Years' War, 1568-1648 -- Fiction"],"bookshelves":[],"languages":["en"],"copyright":false,"media_type":"Text","formats":{"application/rdf+xml":"https://www.gutenberg.org/ebooks/5578.rdf","text/html":"https://www.gutenberg.org/ebooks/5578.html.images","application/epub+zip":"https://www.gutenberg.org/ebooks/5578.epub3.images","application/x-mobipocket-ebook":"https://www.gutenberg.org/ebooks/5578.kf8.images","text/plain; charset=us-ascii":"https://www.gutenberg.org/ebooks/5578.txt.utf-8","image/jpeg":"https://www.gutenberg.org/cache/epub/5578/pg5578.cover.medium.jpg","application/octet-stream":"https://www.gutenberg.org/cache/epub/5578/pg5578-h.zip"},"download_count":12},{"id":5596,"title":"The Story of My Life — Volume 04","authors":[{"name":"Ebers, Georg","birth_year":1837,"death_year":1898}],"translators":[{"name":"Safford, Mary J.","birth_year":null,"death_year":null}],"subjects":["Ebers, Georg, 1837-1898"],"bookshelves":[],"languages":["en"],"copyright":false,"media_type":"Text","formats":{"text/html":"https://www.gutenberg.org/ebooks/5596.html.images","application/epub+zip":"https://www.gutenberg.org/ebooks/5596.epub3.images","application/x-mobipocket-ebook":"https://www.gutenberg.org/ebooks/5596.kf8.images","text/plain; charset=us-ascii":"https://www.gutenberg.org/ebooks/5596.txt.utf-8","application/rdf+xml":"https://www.gutenberg.org/ebooks/5596.rdf","image/jpeg":"https://www.gutenberg.org/cache/epub/5596/pg5596.cover.medium.jpg","application/octet-stream":"https://www.gutenberg.org/cache/epub/5596/pg5596-h.zip"},"download_count":12},{"id":5663,"title":"The Prose of Alfred Lichtenstein","authors":[{"name":"Lichtenstein, Alfred","birth_year":1889,"death_year":1914}],"translators":[],"subjects":["Fiction"],"bookshelves":[],"languages":["en"],"copyright":false,"media_type":"Text","formats":{"text/html":"https://www.gutenberg.org/ebooks/5663.html.images","application/epub+zip":"https://www.gutenberg.org/ebooks/5663.epub3.images","application/x-mobipocket-ebook":"https://www.gutenberg.org/ebooks/5663.kf8.images","text/plain; charset=us-ascii":"https://www.gutenberg.org/ebooks/5663.txt.utf-8","application/rdf+xml":"https://www.gutenberg.org/ebooks/5663.rdf","image/jpeg":"https://www.gutenberg.org/cache/epub/5663/pg5663.cover.medium.jpg","application/octet-stream":"https://www.gutenberg.org/cache/epub/5663/pg5663-h.zip"},"download_count":12},{"id":5806,"title":"The Pot Boiler: A Comedy in Four Acts","authors":[{"name":"Sinclair, Upton","birth_year":1878,"death_year":1968}],"translators":[],"subjects":["Comedies"],"bookshelves":[],"languages":["en"],"copyright":false,"media_type":"Text","formats":{"text/html":"https://www.gutenberg.org/ebooks/5806.html.images","text/html; charset=us-ascii":"https://www.gutenberg.org/files/5806/5806-h/5806-h.htm","application/epub+zip":"https://www.gutenberg.org/ebooks/5806.epub3.images","application/x-mobipocket-ebook":"https://www.gutenberg.org/ebooks/5806.kf8.images","text/plain; charset=us-ascii":"https://www.gutenberg.org/ebooks/5806.txt.utf-8","application/rdf+xml":"https://www.gutenberg.org/ebooks/5806.rdf","image/jpeg":"https://www.gutenberg.org/cache/epub/5806/pg5806.cover.medium.jpg","application/octet-stream":"https://www.gutenberg.org/cache/epub/5806/pg5806-h.zip"},"download_count":12},{"id":5966,"title":"What's Mine's Mine — Volume 1","authors":[{"name":"MacDonald, George","birth_year":1824,"death_year":1905}],"translators":[],"subjects":["Christian fiction","Highlands (Scotland) -- Fiction"],"bookshelves":[],"languages":["en"],"copyright":false,"media_type":"Text","formats":{"text/html":"https://www.gutenberg.org/ebooks/5966.html.images","application/epub+zip":"https://www.gutenberg.org/ebooks/5966.epub3.images","application/x-mobipocket-ebook":"https://www.gutenberg.org/ebooks/5966.kf8.images","text/plain; charset=us-ascii":"https://www.gutenberg.org/ebooks/5966.txt.utf-8","application/rdf+xml":"https://www.gutenberg.org/ebooks/5966.rdf","image/jpeg":"https://www.gutenberg.org/cache/epub/5966/pg5966.cover.medium.jpg","application/octet-stream":"https://www.gutenberg.org/cache/epub/5966/pg5966-h.zip"},"download_count":12},{"id":6034,"title":"Rhyme and Reason Volume Two","authors":[{"name":"Dom","birth_year":null,"death_year":null}],"translators":[],"subjects":["Poetry"],"bookshelves":[],"languages":["en"],"copyright":true,"media_type":"Text","formats":{"text/html":"https://www.gutenberg.org/ebooks/6034.html.images","application/epub+zip":"https://www.gutenberg.org/ebooks/6034.epub3.images","application/x-mobipocket-ebook":"https://www.gutenberg.org/ebooks/6034.kf8.images","text/plain; charset=us-ascii":"https://www.gutenberg.org/ebooks/6034.txt.utf-8","application/rdf+xml":"https://www.gutenberg.org/ebooks/6034.rdf","image/jpeg":"https://www.gutenberg.org/cache/epub/6034/pg6034.cover.medium.jpg","application/octet-stream":"https://www.gutenberg.org/cache/epub/6034/pg6034-h.zip"},"download_count":12},{"id":6174,"title":"Pierre and His People: Tales of the Far North. Volume 1.","authors":[{"name":"Parker, Gilbert","birth_year":1862,"death_year":1932}],"translators":[],"subjects":["Canada, Northern -- Fiction","Short stories, Canadian"],"bookshelves":[],"languages":["en"],"copyright":false,"media_type":"Text","formats":{"text/html":"https://www.gutenberg.org/ebooks/6174.html.images","application/epub+zip":"https://www.gutenberg.org/ebooks/6174.epub3.images","application/x-mobipocket-ebook":"https://www.gutenberg.org/ebooks/6174.kf8.images","text/plain; charset=us-ascii":"https://www.gutenberg.org/ebooks/6174.txt.utf-8","application/rdf+xml":"https://www.gutenberg.org/ebooks/6174.rdf","image/jpeg":"https://www.gutenberg.org/cache/epub/6174/pg6174.cover.medium.jpg","application/octet-stream":"https://www.gutenberg.org/cache/epub/6174/pg6174-h.zip"},"download_count":12},{"id":6193,"title":"Mrs. Falchion, Volume 2.","authors":[{"name":"Parker, Gilbert","birth_year":1862,"death_year":1932}],"translators":[],"subjects":["Canadian fiction"],"bookshelves":[],"languages":["en"],"copyright":false,"media_type":"Text","formats":{"text/html":"https://www.gutenberg.org/ebooks/6193.html.images","application/epub+zip":"https://www.gutenberg.org/ebooks/6193.epub3.images","application/x-mobipocket-ebook":"https://www.gutenberg.org/ebooks/6193.kf8.images","text/plain; charset=us-ascii":"https://www.gutenberg.org/ebooks/6193.txt.utf-8","application/rdf+xml":"https://www.gutenberg.org/ebooks/6193.rdf","image/jpeg":"https://www.gutenberg.org/cache/epub/6193/pg6193.cover.medium.jpg","application/octet-stream":"https://www.gutenberg.org/cache/epub/6193/pg6193-h.zip"},"download_count":12},{"id":6203,"title":"When Valmond Came to Pontiac: The Story of a Lost Napoleon. Volume 2.","authors":[{"name":"Parker, Gilbert","birth_year":1862,"death_year":1932}],"translators":[],"subjects":["Canadian fiction"],"bookshelves":[],"languages":["en"],"copyright":false,"media_type":"Text","formats":{"text/html":"https://www.gutenberg.org/ebooks/6203.html.images","application/epub+zip":"https://www.gutenberg.org/ebooks/6203.epub3.images","application/x-mobipocket-ebook":"https://www.gutenberg.org/ebooks/6203.kf8.images","text/plain; charset=us-ascii":"https://www.gutenberg.org/ebooks/6203.txt.utf-8","application/rdf+xml":"https://www.gutenberg.org/ebooks/6203.rdf","image/jpeg":"https://www.gutenberg.org/cache/epub/6203/pg6203.cover.medium.jpg","application/octet-stream":"https://www.gutenberg.org/cache/epub/6203/pg6203-h.zip"},"download_count":12},{"id":6212,"title":"The Translation of a Savage, Volume 2","authors":[{"name":"Parker, Gilbert","birth_year":1862,"death_year":1932}],"translators":[],"subjects":["England -- Social life and customs -- Fiction","Indians of North America -- Fiction","Married people -- Fiction"],"bookshelves":[],"languages":["en"],"copyright":false,"media_type":"Text","formats":{"text/html":"https://www.gutenberg.org/ebooks/6212.html.images","application/epub+zip":"https://www.gutenberg.org/ebooks/6212.epub3.images","application/x-mobipocket-ebook":"https://www.gutenberg.org/ebooks/6212.kf8.images","text/plain; charset=us-ascii":"https://www.gutenberg.org/ebooks/6212.txt.utf-8","application/rdf+xml":"https://www.gutenberg.org/ebooks/6212.rdf","image/jpeg":"https://www.gutenberg.org/cache/epub/6212/pg6212.cover.medium.jpg","application/octet-stream":"https://www.gutenberg.org/cache/epub/6212/pg6212-h.zip"},"download_count":12},{"id":6551,"title":"Crome Yellow","authors":[{"name":"Huxley, Aldous","birth_year":1894,"death_year":1963}],"translators":[],"subjects":["Country homes -- Fiction","England -- Fiction","Humorous stories","Intellectuals -- Fiction","Satire"],"bookshelves":[],"languages":["en"],"copyright":true,"media_type":"Sound","formats":{"text/plain; charset=us-ascii":"https://www.gutenberg.org/files/6551/6551-readme.txt","text/html; charset=iso-8859-1":"https://www.gutenberg.org/files/6551/6551-index.htm","audio/mpeg":"https://www.gutenberg.org/files/6551/mp3/6551-3.mp3","application/rdf+xml":"https://www.gutenberg.org/ebooks/6551.rdf"},"download_count":12},{"id":6553,"title":"Wessex Tales","authors":[{"name":"Hardy, Thomas","birth_year":1840,"death_year":1928}],"translators":[],"subjects":["England -- Social life and customs -- 19th century -- Fiction","Wessex (England) -- Fiction"],"bookshelves":[],"languages":["en"],"copyright":true,"media_type":"Sound","formats":{"text/plain; charset=us-ascii":"https://www.gutenberg.org/files/6553/6553-readme.txt","text/html; charset=iso-8859-1":"https://www.gutenberg.org/files/6553/6553-index.htm","audio/mpeg":"https://www.gutenberg.org/files/6553/mp3/6553-000.mp3","application/rdf+xml":"https://www.gutenberg.org/ebooks/6553.rdf","application/octet-stream":"https://www.gutenberg.org/files/6553/6553-mp3.zip"},"download_count":12},{"id":6747,"title":"The Log of the Empire State","authors":[{"name":"Shaffer, Geneve L. A.","birth_year":1888,"death_year":1976}],"translators":[],"subjects":["Empire State (Steamship)"],"bookshelves":[],"languages":["en"],"copyright":false,"media_type":"Text","formats":{"text/html":"https://www.gutenberg.org/ebooks/6747.html.images","application/epub+zip":"https://www.gutenberg.org/ebooks/6747.epub3.images","application/x-mobipocket-ebook":"https://www.gutenberg.org/ebooks/6747.kf8.images","text/plain; charset=us-ascii":"https://www.gutenberg.org/ebooks/6747.txt.utf-8","application/rdf+xml":"https://www.gutenberg.org/ebooks/6747.rdf","image/jpeg":"https://www.gutenberg.org/cache/epub/6747/pg6747.cover.medium.jpg","application/octet-stream":"https://www.gutenberg.org/cache/epub/6747/pg6747-h.zip"},"download_count":12},{"id":6901,"title":"The Happy Adventurers","authors":[{"name":"Middleton, Lydia Miller","birth_year":1866,"death_year":1934}],"translators":[],"subjects":["Fiction"],"bookshelves":[],"languages":["en"],"copyright":false,"media_type":"Text","formats":{"text/html":"https://www.gutenberg.org/ebooks/6901.html.images","application/epub+zip":"https://www.gutenberg.org/ebooks/6901.epub3.images","application/x-mobipocket-ebook":"https://www.gutenberg.org/ebooks/6901.kf8.images","text/plain; charset=us-ascii":"https://www.gutenberg.org/ebooks/6901.txt.utf-8","text/plain; charset=utf-8":"https://www.gutenberg.org/files/6901/6901-0.txt","application/rdf+xml":"https://www.gutenberg.org/ebooks/6901.rdf","image/jpeg":"https://www.gutenberg.org/cache/epub/6901/pg6901.cover.medium.jpg","application/octet-stream":"https://www.gutenberg.org/cache/epub/6901/pg6901-h.zip"},"download_count":12},{"id":7122,"title":"The Emigrant Mechanic and Other Tales in Verse: Together with Numerous Songs Upon Canadian Subjects","authors":[{"name":"Cowherd, Thomas","birth_year":1817,"death_year":1907}],"translators":[],"subjects":["Poetry"],"bookshelves":[],"languages":["en"],"copyright":false,"media_type":"Text","formats":{"text/html":"https://www.gutenberg.org/ebooks/7122.html.images","application/epub+zip":"https://www.gutenberg.org/ebooks/7122.epub3.images","application/x-mobipocket-ebook":"https://www.gutenberg.org/ebooks/7122.kf8.images","text/plain; charset=us-ascii":"https://www.gutenberg.org/ebooks/7122.txt.utf-8","application/rdf+xml":"https://www.gutenberg.org/ebooks/7122.rdf","image/jpeg":"https://www.gutenberg.org/cache/epub/7122/pg7122.cover.medium.jpg","application/octet-stream":"https://www.gutenberg.org/cache/epub/7122/pg7122-h.zip"},"download_count":12},{"id":7625,"title":"Devereux — Volume 02","authors":[{"name":"Lytton, Edward Bulwer Lytton, Baron","birth_year":1803,"death_year":1873}],"translators":[],"subjects":["Great Britain -- History -- Anne, 1702-1714 -- Fiction"],"bookshelves":[],"languages":["en"],"copyright":false,"media_type":"Text","formats":{"text/html":"https://www.gutenberg.org/ebooks/7625.html.images","application/epub+zip":"https://www.gutenberg.org/ebooks/7625.epub3.images","application/x-mobipocket-ebook":"https://www.gutenberg.org/ebooks/7625.kf8.images","text/plain; charset=us-ascii":"https://www.gutenberg.org/ebooks/7625.txt.utf-8","application/rdf+xml":"https://www.gutenberg.org/ebooks/7625.rdf","image/jpeg":"https://www.gutenberg.org/cache/epub/7625/pg7625.cover.medium.jpg","application/octet-stream":"https://www.gutenberg.org/cache/epub/7625/pg7625-h.zip"},"download_count":12},{"id":7644,"title":"Ernest Maltravers — Volume 05","authors":[{"name":"Lytton, Edward Bulwer Lytton, Baron","birth_year":1803,"death_year":1873}],"translators":[],"subjects":["English fiction -- 19th century"],"bookshelves":[],"languages":["en"],"copyright":false,"media_type":"Text","formats":{"text/html":"https://www.gutenberg.org/ebooks/7644.html.images","application/epub+zip":"https://www.gutenberg.org/ebooks/7644.epub3.images","application/x-mobipocket-ebook":"https://www.gutenberg.org/ebooks/7644.kf8.images","text/plain; charset=us-ascii":"https://www.gutenberg.org/ebooks/7644.txt.utf-8","application/rdf+xml":"https://www.gutenberg.org/ebooks/7644.rdf","image/jpeg":"https://www.gutenberg.org/cache/epub/7644/pg7644.cover.medium.jpg","application/octet-stream":"https://www.gutenberg.org/cache/epub/7644/pg7644-h.zip"},"download_count":12},{"id":7668,"title":"What Will He Do with It? — Volume 10","authors":[{"name":"Lytton, Edward Bulwer Lytton, Baron","birth_year":1803,"death_year":1873}],"translators":[],"subjects":["English fiction -- 19th century"],"bookshelves":[],"languages":["en"],"copyright":false,"media_type":"Text","formats":{"text/html":"https://www.gutenberg.org/ebooks/7668.html.images","application/epub+zip":"https://www.gutenberg.org/ebooks/7668.epub3.images","application/x-mobipocket-ebook":"https://www.gutenberg.org/ebooks/7668.kf8.images","text/plain; charset=us-ascii":"https://www.gutenberg.org/ebooks/7668.txt.utf-8","application/rdf+xml":"https://www.gutenberg.org/ebooks/7668.rdf","image/jpeg":"https://www.gutenberg.org/cache/epub/7668/pg7668.cover.medium.jpg","application/octet-stream":"https://www.gutenberg.org/cache/epub/7668/pg7668-h.zip"},"download_count":12},{"id":7677,"title":"Harold : the Last of the Saxon Kings — Volume 06","authors":[{"name":"Lytton, Edward Bulwer Lytton, Baron","birth_year":1803,"death_year":1873}],"translators":[],"subjects":["Anglo-Saxons -- Kings and rulers -- Fiction","Biographical fiction","Great Britain -- History -- Edward, the Confessor, 1042-1066 -- Fiction","Great Britain -- Kings and rulers -- Fiction","Harold, King of England, 1022?-1066 -- Fiction","William I, King of England, 1027 or 8-1087 -- Fiction"],"bookshelves":["Historical Fiction"],"languages":["en"],"copyright":false,"media_type":"Text","formats":{"text/html":"https://www.gutenberg.org/ebooks/7677.html.images","application/epub+zip":"https://www.gutenberg.org/ebooks/7677.epub3.images","application/x-mobipocket-ebook":"https://www.gutenberg.org/ebooks/7677.kf8.images","text/plain; charset=us-ascii":"https://www.gutenberg.org/ebooks/7677.txt.utf-8","application/rdf+xml":"https://www.gutenberg.org/ebooks/7677.rdf","image/jpeg":"https://www.gutenberg.org/cache/epub/7677/pg7677.cover.medium.jpg","application/octet-stream":"https://www.gutenberg.org/cache/epub/7677/pg7677-h.zip"},"download_count":12},{"id":7679,"title":"Harold : the Last of the Saxon Kings — Volume 08","authors":[{"name":"Lytton, Edward Bulwer Lytton, Baron","birth_year":1803,"death_year":1873}],"translators":[],"subjects":["Anglo-Saxons -- Kings and rulers -- Fiction","Biographical fiction","Great Britain -- History -- Edward, the Confessor, 1042-1066 -- Fiction","Great Britain -- Kings and rulers -- Fiction","Harold, King of England, 1022?-1066 -- Fiction","William I, King of England, 1027 or 8-1087 -- Fiction"],"bookshelves":["Historical Fiction"],"languages":["en"],"copyright":false,"media_type":"Text","formats":{"text/html":"https://www.gutenberg.org/ebooks/7679.html.images","application/epub+zip":"https://www.gutenberg.org/ebooks/7679.epub3.images","application/x-mobipocket-ebook":"https://www.gutenberg.org/ebooks/7679.kf8.images","text/plain; charset=us-ascii":"https://www.gutenberg.org/ebooks/7679.txt.utf-8","application/rdf+xml":"https://www.gutenberg.org/ebooks/7679.rdf","image/jpeg":"https://www.gutenberg.org/cache/epub/7679/pg7679.cover.medium.jpg","application/octet-stream":"https://www.gutenberg.org/cache/epub/7679/pg7679-h.zip"},"download_count":12},{"id":7803,"title":"The Story of Sugar","authors":[{"name":"Bassett, Sara Ware","birth_year":1872,"death_year":1968}],"translators":[],"subjects":["Sugar -- Juvenile literature"],"bookshelves":["Children's Instructional Books"],"languages":["en"],"copyright":false,"media_type":"Text","formats":{"text/html":"https://www.gutenberg.org/ebooks/7803.html.images","text/html; charset=iso-8859-1":"https://www.gutenberg.org/files/7803/7803-h/7803-h.htm","application/epub+zip":"https://www.gutenberg.org/ebooks/7803.epub3.images","application/x-mobipocket-ebook":"https://www.gutenberg.org/ebooks/7803.kf8.images","text/plain; charset=us-ascii":"https://www.gutenberg.org/ebooks/7803.txt.utf-8","text/plain; charset=iso-8859-1":"https://www.gutenberg.org/files/7803/7803-8.txt","application/rdf+xml":"https://www.gutenberg.org/ebooks/7803.rdf","image/jpeg":"https://www.gutenberg.org/cache/epub/7803/pg7803.cover.medium.jpg","application/octet-stream":"https://www.gutenberg.org/cache/epub/7803/pg7803-h.zip"},"download_count":12},{"id":7968,"title":"Lying Prophets: A Novel","authors":[{"name":"Phillpotts, Eden","birth_year":1862,"death_year":1960}],"translators":[],"subjects":["Man-woman relationships -- Fiction"],"bookshelves":[],"languages":["en"],"copyright":false,"media_type":"Text","formats":{"text/html":"https://www.gutenberg.org/ebooks/7968.html.images","application/epub+zip":"https://www.gutenberg.org/ebooks/7968.epub3.images","application/x-mobipocket-ebook":"https://www.gutenberg.org/ebooks/7968.kf8.images","text/plain; charset=us-ascii":"https://www.gutenberg.org/ebooks/7968.txt.utf-8","text/plain; charset=iso-8859-1":"https://www.gutenberg.org/files/7968/7968-8.txt","application/rdf+xml":"https://www.gutenberg.org/ebooks/7968.rdf","image/jpeg":"https://www.gutenberg.org/cache/epub/7968/pg7968.cover.medium.jpg","application/octet-stream":"https://www.gutenberg.org/cache/epub/7968/pg7968-h.zip"},"download_count":12},{"id":8016,"title":"The Bible, King James version, Book 16: Nehemiah","authors":[{"name":"Anonymous","birth_year":null,"death_year":null}],"translators":[],"subjects":["Bible. Nehemiah"],"bookshelves":["Judaism"],"languages":["en"],"copyright":false,"media_type":"Text","formats":{"text/html":"https://www.gutenberg.org/ebooks/8016.html.images","application/epub+zip":"https://www.gutenberg.org/ebooks/8016.epub3.images","application/x-mobipocket-ebook":"https://www.gutenberg.org/ebooks/8016.kf8.images","text/plain; charset=us-ascii":"https://www.gutenberg.org/ebooks/8016.txt.utf-8","application/rdf+xml":"https://www.gutenberg.org/ebooks/8016.rdf","image/jpeg":"https://www.gutenberg.org/cache/epub/8016/pg8016.cover.medium.jpg","application/octet-stream":"https://www.gutenberg.org/cache/epub/8016/pg8016-h.zip"},"download_count":12},{"id":8048,"title":"The Bible, King James version, Book 48: Galatians","authors":[{"name":"Anonymous","birth_year":null,"death_year":null}],"translators":[],"subjects":["Bible. Galatians"],"bookshelves":[],"languages":["en"],"copyright":false,"media_type":"Text","formats":{"text/html":"https://www.gutenberg.org/ebooks/8048.html.images","application/epub+zip":"https://www.gutenberg.org/ebooks/8048.epub3.images","application/x-mobipocket-ebook":"https://www.gutenberg.org/ebooks/8048.kf8.images","text/plain; charset=us-ascii":"https://www.gutenberg.org/ebooks/8048.txt.utf-8","application/rdf+xml":"https://www.gutenberg.org/ebooks/8048.rdf","image/jpeg":"https://www.gutenberg.org/cache/epub/8048/pg8048.cover.medium.jpg","application/octet-stream":"https://www.gutenberg.org/cache/epub/8048/pg8048-h.zip"},"download_count":12},{"id":8050,"title":"The Bible, King James version, Book 50: Philippians","authors":[{"name":"Anonymous","birth_year":null,"death_year":null}],"translators":[],"subjects":["Bible. Philippians"],"bookshelves":[],"languages":["en"],"copyright":false,"media_type":"Text","formats":{"text/html":"https://www.gutenberg.org/ebooks/8050.html.images","application/epub+zip":"https://www.gutenberg.org/ebooks/8050.epub3.images","application/x-mobipocket-ebook":"https://www.gutenberg.org/ebooks/8050.kf8.images","text/plain; charset=us-ascii":"https://www.gutenberg.org/ebooks/8050.txt.utf-8","application/rdf+xml":"https://www.gutenberg.org/ebooks/8050.rdf","image/jpeg":"https://www.gutenberg.org/cache/epub/8050/pg8050.cover.medium.jpg","application/octet-stream":"https://www.gutenberg.org/cache/epub/8050/pg8050-h.zip"},"download_count":12},{"id":8051,"title":"The Bible, King James version, Book 51: Colossians","authors":[{"name":"Anonymous","birth_year":null,"death_year":null}],"translators":[],"subjects":["Bible. Colossians"],"bookshelves":[],"languages":["en"],"copyright":false,"media_type":"Text","formats":{"text/html":"https://www.gutenberg.org/ebooks/8051.html.images","application/epub+zip":"https://www.gutenberg.org/ebooks/8051.epub3.images","application/x-mobipocket-ebook":"https://www.gutenberg.org/ebooks/8051.kf8.images","text/plain; charset=us-ascii":"https://www.gutenberg.org/ebooks/8051.txt.utf-8","application/rdf+xml":"https://www.gutenberg.org/ebooks/8051.rdf","image/jpeg":"https://www.gutenberg.org/cache/epub/8051/pg8051.cover.medium.jpg","application/octet-stream":"https://www.gutenberg.org/cache/epub/8051/pg8051-h.zip"},"download_count":12},{"id":8061,"title":"The Bible, King James version, Book 61: 2 Peter","authors":[{"name":"Anonymous","birth_year":null,"death_year":null}],"translators":[],"subjects":["Bible. Peter, 2nd"],"bookshelves":[],"languages":["en"],"copyright":false,"media_type":"Text","formats":{"text/html":"https://www.gutenberg.org/ebooks/8061.html.images","application/epub+zip":"https://www.gutenberg.org/ebooks/8061.epub3.images","application/x-mobipocket-ebook":"https://www.gutenberg.org/ebooks/8061.kf8.images","text/plain; charset=us-ascii":"https://www.gutenberg.org/ebooks/8061.txt.utf-8","application/rdf+xml":"https://www.gutenberg.org/ebooks/8061.rdf","image/jpeg":"https://www.gutenberg.org/cache/epub/8061/pg8061.cover.medium.jpg","application/octet-stream":"https://www.gutenberg.org/cache/epub/8061/pg8061-h.zip"},"download_count":12}]}