{"count":58808,"next":"http://129.241.150.113:8000/books/?languages=en&page=1835","previous":"http://129.241.150.113:8000/books/?languages=en&page=1833","results":[{"id":72806,"title":"Itinerarium curiosum (centuria II) : $b or, an account of the antiquities, and remarkable curiosities in nature or art, observed in travels through Great Britain. To which is added, the Itinerary of Richard of Cirencester, monk of Westminster. With an account of that author and his work","authors":[{"name":"Stukeley, William","birth_year":1687,"death_year":1765}],"translators":[],"subjects":["Great Britain -- Antiquities -- Early works to 1800","Great Britain -- Description and travel -- Early works to 1800"],"bookshelves":[],"languages":["en"],"copyright":false,"media_type":"Text","formats":{"text/html":"https://www.gutenberg.org/ebooks/72806.html.images","application/epub+zip":"https://www.gutenberg.org/ebooks/72806.epub3.images","application/x-mobipocket-ebook":"https://www.gutenberg.org/ebooks/72806.kf8.images","text/plain; charset=us-ascii":"https://www.gutenberg.org/ebooks/72806.txt.utf-8","application/rdf+xml":"https://www.gutenberg.org/ebooks/72806.rdf","image/jpeg":"https://www.gutenberg.org/cache/epub/72806/pg72806.cover.medium.jpg","application/octet-stream":"https://www.gutenberg.org/cache/epub/72806/pg72806-h.zip"},"download_count":0},{"id":72807,"title":"Idylls of the Skillet Fork","authors":[{"name":"Wild, Payson Sibley","birth_year":1869,"death_year":1951}],"translators":[],"subjects":["Country life -- United States -- Poetry","Dialect poetry, American"],"bookshelves":[],"languages":["en"],"copyright":false,"media_type":"Text","formats":{"text/html":"https://www.gutenberg.org/ebooks/72807.html.images","application/epub+zip":"https://www.gutenberg.org/ebooks/72807.epub3.images","application/x-mobipocket-ebook":"https://www.gutenberg.org/ebooks/72807.kf8.images","text/plain; charset=us-ascii":"https://www.gutenberg.org/ebooks/72807.txt.utf-8","application/rdf+xml":"https://www.gutenberg.org/ebooks/72807.rdf","image/jpeg":"https://www.gutenberg.org/cache/epub/72807/pg72807.cover.medium.jpg","application/octet-stream":"https://www.gutenberg.org/cache/epub/72807/pg72807-h.zip"},"download_count":0},{"id":72811,"title":"A winter in retirement : $b or scattered leaves","authors":[{"name":"Washburn, Hannah Blaney","birth_year":null,"death_year":null}],"translators":[],"subjects":[],"bookshelves":[],"languages":["en"],"copyright":false,"media_type":"Text","formats":{"text/html":"https://www.gutenberg.org/ebooks/72811.html.images","application/epub+zip":"https://www.gutenberg.org/ebooks/72811.epub3.images","application/x-mobipocket-ebook":"https://www.gutenberg.org/ebooks/72811.kf8.images","text/plain; charset=us-ascii":"https://www.gutenberg.org/ebooks/72811.txt.utf-8","application/rdf+xml":"https://www.gutenberg.org/ebooks/72811.rdf","image/jpeg":"https://www.gutenberg.org/cache/epub/72811/pg72811.cover.medium.jpg","application/octet-stream":"https://www.gutenberg.org/cache/epub/72811/pg72811-h.zip"},"download_count":0},{"id":72812,"title":"Port Sunlight","authors":[{"name":"Davison, T. Raffles","birth_year":null,"death_year":null}],"translators":[],"subjects":[],"bookshelves":[],"languages":["en"],"copyright":false,"media_type":"Text","formats":{"text/html":"https://www.gutenberg.org/ebooks/72812.html.images","application/epub+zip":"https://www.gutenberg.org/ebooks/72812.epub3.images","application/x-mobipocket-ebook":"https://www.gutenberg.org/ebooks/72812.kf8.images","text/plain; charset=us-ascii":"https://www.gutenberg.org/ebooks/72812.txt.utf-8","application/rdf+xml":"https://www.gutenberg.org/ebooks/72812.rdf","image/jpeg":"https://www.gutenberg.org/cache/epub/72812/pg72812.cover.medium.jpg","application/octet-stream":"https://www.gutenberg.org/cache/epub/72812/pg72812-h.zip"},"download_count":0},{"id":72813,"title":"The family Robinson Crusoe : $b or, journal of a father shipwrecked, with his wife and children, on an uninhabited island.","authors":[{"name":"Wyss, Johann David","birth_year":1743,"death_year":1818}],"translators":[],"subjects":[],"bookshelves":[],"languages":["en"],"copyright":false,"media_type":"Text","formats":{"text/html":"https://www.gutenberg.org/ebooks/72813.html.images","application/epub+zip":"https://www.gutenberg.org/ebooks/72813.epub3.images","application/x-mobipocket-ebook":"https://www.gutenberg.org/ebooks/72813.kf8.images","text/plain; charset=us-ascii":"https://www.gutenberg.org/ebooks/72813.txt.utf-8","application/rdf+xml":"https://www.gutenberg.org/ebooks/72813.rdf","image/jpeg":"https://www.gutenberg.org/cache/epub/72813/pg72813.cover.medium.jpg","application/octet-stream":"https://www.gutenberg.org/cache/epub/72813/pg72813-h.zip"},"download_count":0},{"id":72814,"title":"An imperial lover","authors":[{"name":"Taylor, Mary Imlay","birth_year":1878,"death_year":1938}],"translators":[],"subjects":[],"bookshelves":[],"languages":["en"],"copyright":false,"media_type":"Text","formats":{"text/html":"https://www.gutenberg.org/ebooks/72814.html.images","application/epub+zip":"https://www.gutenberg.org/ebooks/72814.epub3.images","application/x-mobipocket-ebook":"https://www.gutenberg.org/ebooks/72814.kf8.images","text/plain; charset=us-ascii":"https://www.gutenberg.org/ebooks/72814.txt.utf-8","application/rdf+xml":"https://www.gutenberg.org/ebooks/72814.rdf","image/jpeg":"https://www.gutenberg.org/cache/epub/72814/pg72814.cover.medium.jpg","application/octet-stream":"https://www.gutenberg.org/cache/epub/72814/pg72814-h.zip"},"download_count":0},{"id":72816,"title":"The case with nine solutions","authors":[{"name":"Connington, J. J.","birth_year":1880,"death_year":1947}],"translators":[],"subjects":[],"bookshelves":[],"languages":["en"],"copyright":false,"media_type":"Text","formats":{"text/html":"https://www.gutenberg.org/ebooks/72816.html.images","application/epub+zip":"https://www.gutenberg.org/ebooks/72816.epub3.images","application/x-mobipocket-ebook":"https://www.gutenberg.org/ebooks/72816.kf8.images","text/plain; charset=us-ascii":"https://www.gutenberg.org/ebooks/72816.txt.utf-8","application/rdf+xml":"https://www.gutenberg.org/ebooks/72816.rdf","image/jpeg":"https://www.gutenberg.org/cache/epub/72816/pg72816.cover.medium.jpg","application/octet-stream":"https://www.gutenberg.org/cache/epub/72816/pg72816-h.zip"},"download_count":0},{"id":72817,"title":"Warships and their story","authors":[{"name":"Fletcher, Richard A.","birth_year":null,"death_year":null}],"translators":[],"subjects":[],"bookshelves":[],"languages":["en"],"copyright":false,"media_type":"Text","formats":{"text/html":"https://www.gutenberg.org/ebooks/72817.html.images","application/epub+zip":"https://www.gutenberg.org/ebooks/72817.epub3.images","application/x-mobipocket-ebook":"https://www.gutenberg.org/ebooks/72817.kf8.images","text/plain; charset=us-ascii":"https://www.gutenberg.org/ebooks/72817.txt.utf-8","application/rdf+xml":"https://www.gutenberg.org/ebooks/72817.rdf","image/jpeg":"https://www.gutenberg.org/cache/epub/72817/pg72817.cover.medium.jpg","application/octet-stream":"https://www.gutenberg.org/cache/epub/72817/pg72817-h.zip"},"download_count":0},{"id":72818,"title":"Tibet & Nepal : $b Painted and Described","authors":[{"name":"Landor, Arnold Henry Savage","birth_year":1865,"death_year":1924}],"translators":[],"subjects":[],"bookshelves":[],"languages":["en"],"copyright":false,"media_type":"Text","formats":{"text/html":"https://www.gutenberg.org/ebooks/72818.html.images","application/epub+zip":"https://www.gutenberg.org/ebooks/72818.epub3.images","application/x-mobipocket-ebook":"https://www.gutenberg.org/ebooks/72818.kf8.images","text/plain; charset=us-ascii":"https://www.gutenberg.org/ebooks/72818.txt.utf-8","application/rdf+xml":"https://www.gutenberg.org/ebooks/72818.rdf","image/jpeg":"https://www.gutenberg.org/cache/epub/72818/pg72818.cover.medium.jpg","application/octet-stream":"https://www.gutenberg.org/cache/epub/72818/pg72818-h.zip"},"download_count":0},{"id":72820,"title":"The man who won","authors":[{"name":"Reynolds, Baillie, Mrs.","birth_year":null,"death_year":null}],"translators":[],"subjects":[],"bookshelves":[],"languages":["en"],"copyright":false,"media_type":"Text","formats":{"text/html":"https://www.gutenberg.org/files/72820/72820-h/72820-h.htm","text/plain; charset=us-ascii":"https://www.gutenberg.org/files/72820/72820-0.txt"},"download_count":0},{"id":72822,"title":"Famous composers and their works, Vol. 3 (of 4)","authors":[{"name":"Various","birth_year":null,"death_year":null}],"translators":[],"subjects":[],"bookshelves":[],"languages":["en"],"copyright":false,"media_type":"Text","formats":{"text/html":"https://www.gutenberg.org/ebooks/72822.html.images","application/epub+zip":"https://www.gutenberg.org/ebooks/72822.epub3.images","application/x-mobipocket-ebook":"https://www.gutenberg.org/ebooks/72822.kf8.images","text/plain; charset=us-ascii":"https://www.gutenberg.org/ebooks/72822.txt.utf-8","application/rdf+xml":"https://www.gutenberg.org/ebooks/72822.rdf","image/jpeg":"https://www.gutenberg.org/cache/epub/72822/pg72822.cover.medium.jpg","application/octet-stream":"https://www.gutenberg.org/cache/epub/72822/pg72822-h.zip"},"download_count":0},{"id":72823,"title":"A journey to Central Africa : $b Or, Life and landscapes from Egypt to the Negro kingdoms of the White Nile","authors":[{"name":"Taylor, Bayard","birth_year":1825,"death_year":1878}],"translators":[],"subjects":[],"bookshelves":[],"languages":["en"],"copyright":false,"media_type":"Text","formats":{"text/html":"https://www.gutenberg.org/ebooks/72823.html.images","application/epub+zip":"https://www.gutenberg.org/ebooks/72823.epub3.images","application/x-mobipocket-ebook":"https://www.gutenberg.org/ebooks/72823.kf8.images","text/plain; charset=us-ascii":"https://www.gutenberg.org/ebooks/72823.txt.utf-8","application/rdf+xml":"https://www.gutenberg.org/ebooks/72823.rdf","image/jpeg":"https://www.gutenberg.org/cache/epub/72823/pg72823.cover.medium.jpg","application/octet-stream":"https://www.gutenberg.org/cache/epub/72823/pg72823-h.zip"},"download_count":0},{"id":72824,"title":"The mystery of the blue train","authors":[{"name":"Christie, Agatha","birth_year":1890,"death_year":1976}],"translators":[],"subjects":[],"bookshelves":[],"languages":["en"],"copyright":false,"media_type":"Text","formats":{"text/html":"https://www.gutenberg.org/ebooks/72824.html.images","application/epub+zip":"https://www.gutenberg.org/ebooks/72824.epub3.images","application/x-mobipocket-ebook":"https://www.gutenberg.org/ebooks/72824.kf8.images","text/plain; charset=us-ascii":"https://www.gutenberg.org/ebooks/72824.txt.utf-8","application/rdf+xml":"https://www.gutenberg.org/ebooks/72824.rdf","image/jpeg":"https://www.gutenberg.org/cache/epub/72824/pg72824.cover.medium.jpg","application/octet-stream":"https://www.gutenberg.org/cache/epub/72824/pg72824-h.zip"},"download_count":0},{"id":72825,"title":"Captain Shannon","authors":[{"name":"Kernahan, Coulson","birth_year":1858,"death_year":1943}],"translators":[],"subjects":[],"bookshelves":[],"languages":["en"],"copyright":false,"media_type":"Text","formats":{"text/html":"https://www.gutenberg.org/ebooks/72825.html.images","application/epub+zip":"https://www.gutenberg.org/ebooks/72825.epub3.images","application/x-mobipocket-ebook":"https://www.gutenberg.org/ebooks/72825.kf8.images","text/plain; charset=us-ascii":"https://www.gutenberg.org/ebooks/72825.txt.utf-8","application/rdf+xml":"https://www.gutenberg.org/ebooks/72825.rdf","image/jpeg":"https://www.gutenberg.org/cache/epub/72825/pg72825.cover.medium.jpg","application/octet-stream":"https://www.gutenberg.org/cache/epub/72825/pg72825-h.zip"},"download_count":0},{"id":72826,"title":"The foster-sisters : $b A story in the days of Wesley and Whitfield","authors":[{"name":"Guernsey, Lucy Ellen","birth_year":1826,"death_year":1899}],"translators":[],"subjects":[],"bookshelves":[],"languages":["en"],"copyright":false,"media_type":"Text","formats":{"text/html":"https://www.gutenberg.org/files/72826/72826-h/72826-h.htm","text/plain; charset=us-ascii":"https://www.gutenberg.org/files/72826/72826-0.txt"},"download_count":0},{"id":72827,"title":"Nonsense for old and young","authors":[{"name":"Field, Eugene","birth_year":1850,"death_year":1895}],"translators":[],"subjects":[],"bookshelves":[],"languages":["en"],"copyright":false,"media_type":"Text","formats":{"text/html":"https://www.gutenberg.org/files/72827/72827-h/72827-h.htm","text/plain; charset=us-ascii":"https://www.gutenberg.org/files/72827/72827-0.txt"},"download_count":0},{"id":72830,"title":"The island of stone money","authors":[{"name":"Furness, William Henry","birth_year":1866,"death_year":1920}],"translators":[],"subjects":[],"bookshelves":[],"languages":["en"],"copyright":false,"media_type":"Text","formats":{"text/html":"https://www.gutenberg.org/files/72830/72830-h/72830-h.htm","text/plain; charset=us-ascii":"https://www.gutenberg.org/files/72830/72830-0.txt"},"download_count":0},{"id":72831,"title":"Left-over foods and how to use them : $b with suggestions regarding the preservation of foods in the home","authors":[{"name":"Hiller, Elizabeth O.","birth_year":null,"death_year":null}],"translators":[],"subjects":[],"bookshelves":[],"languages":["en"],"copyright":false,"media_type":"Text","formats":{"text/html":"https://www.gutenberg.org/files/72831/72831-h/72831-h.htm","text/plain; charset=us-ascii":"https://www.gutenberg.org/files/72831/72831-0.txt"},"download_count":0},{"id":72835,"title":"Garment cutting in the twentieth century : $b Consisting of a series of articles on garment cutting and making","authors":[{"name":"Hertzer, Günther F.","birth_year":null,"death_year":null}],"translators":[],"subjects":[],"bookshelves":[],"languages":["en"],"copyright":false,"media_type":"Text","formats":{"text/html":"https://www.gutenberg.org/files/72835/72835-h/72835-h.htm","text/plain; charset=us-ascii":"https://www.gutenberg.org/files/72835/72835-0.txt"},"download_count":0},{"id":72837,"title":"Blackwood's Edinburgh magazine, Vol. 71, No. 439, May, 1852","authors":[{"name":"Various","birth_year":null,"death_year":null}],"translators":[],"subjects":[],"bookshelves":[],"languages":["en"],"copyright":false,"media_type":"Text","formats":{"text/html":"https://www.gutenberg.org/files/72837/72837-h/72837-h.htm","text/plain; charset=us-ascii":"https://www.gutenberg.org/files/72837/72837-0.txt"},"download_count":0},{"id":72838,"title":"Blackwood's Edinburgh magazine, Vol. 71, No. 439, May, 1852","authors":[{"name":"Various","birth_year":null,"death_year":null}],"translators":[],"subjects":[],"bookshelves":[],"languages":["en"],"copyright":false,"media_type":"Text","formats":{"text/html":"https://www.gutenberg.org/ebooks/72838.html.images","application/epub+zip":"https://www.gutenberg.org/ebooks/72838.epub3.images","application/x-mobipocket-ebook":"https://www.gutenberg.org/ebooks/72838.kf8.images","text/plain; charset=us-ascii":"https://www.gutenberg.org/ebooks/72838.txt.utf-8","application/rdf+xml":"https://www.gutenberg.org/ebooks/72838.rdf","image/jpeg":"https://www.gutenberg.org/cache/epub/72838/pg72838.cover.medium.jpg","application/octet-stream":"https://www.gutenberg.org/cache/epub/72838/pg72838-h.zip"},"download_count":0},{"id":72839,"title":"The promised land : $b Bible stories retold","authors":[{"name":"Shaw, Catharine","birth_year":null,"death_year":null}],"translators":[],"subjects":[],"bookshelves":[],"languages":["en"],"copyright":false,"media_type":"Text","formats":{"text/html":"https://www.gutenberg.org/files/72839/72839-h/72839-h.htm","text/plain; charset=us-ascii":"https://www.gutenberg.org/files/72839/72839-0.txt"},"download_count":0},{"id":72840,"title":"The missing chums","authors":[{"name":"Dixon, Franklin W.","birth_year":null,"death_year":null}],"translators":[],"subjects":[],"bookshelves":[],"languages":["en"],"copyright":false,"media_type":"Text","formats":{"text/html":"https://www.gutenberg.org/files/72840/72840-h/72840-h.htm","text/plain; charset=us-ascii":"https://www.gutenberg.org/files/72840/72840-0.txt"},"download_count":0},{"id":72843,"title":"Carrying out the city plan : $b The practical application of American law in the execution of city plans","authors":[{"name":"Shurtleff, Flavel","birth_year":null,"death_year":null}],"translators":[],"subjects":[],"bookshelves":[],"languages":["en"],"copyright":false,"media_type":"Text","formats":{"text/html":"https://www.gutenberg.org/files/72843/72843-h/72843-h.htm","text/plain; charset=us-ascii":"https://www.gutenberg.org/files/72843/72843-0.txt"},"download_count":0},{"id":72846,"title":"History of the United States of America, Volume 7 (of 9) : $b During the second administration of James Madison","authors":[{"name":"Adams, Henry","birth_year":1838,"death_year":1918}],"translators":[],"subjects":[],"bookshelves":[],"languages":["en"],"copyright":false,"media_type":"Text","formats":{"text/html":"https://www.gutenberg.org/files/72846/72846-h/72846-h.htm","text/plain; charset=us-ascii":"https://www.gutenberg.org/files/72846/72846-0.txt"},"download_count":0},{"id":72847,"title":"Steam-ships : $b The story of their development to the present day","authors":[{"name":"Fletcher, R. A.","birth_year":null,"death_year":null}],"translators":[],"subjects":[],"bookshelves":[],"languages":["en"],"copyright":false,"media_type":"Text","formats":{"text/html":"https://www.gutenberg.org/files/72847/72847-h/72847-h.htm","text/plain; charset=us-ascii":"https://www.gutenberg.org/files/72847/72847-0.txt"},"download_count":0},{"id":72848,"title":"Masterpieces of the masters of fiction","authors":[{"name":"Foulke, William Dudley","birth_year":null,"death_year":null}],"translators":[],"subjects":[],"bookshelves":[],"languages":["en"],"copyright":false,"media_type":"Text","formats":{"text/html":"https://www.gutenberg.org/files/72848/72848-h/72848-h.htm","text/plain; charset=us-ascii":"https://www.gutenberg.org/files/72848/72848-0.txt"},"download_count":0},{"id":72849,"title":"A private chivalry","authors":[{"name":"Lynde, Francis","birth_year":1856,"death_year":1930}],"translators":[],"subjects":[],"bookshelves":[],"languages":["en"],"copyright":false,"media_type":"Text","formats":{"text/html":"https://www.gutenberg.org/files/72849/72849-h/72849-h.htm","text/plain; charset=us-ascii":"https://www.gutenberg.org/files/72849/72849-0.txt"},"download_count":0},{"id":72852,"title":"The age of the crusades","authors":[{"name":"Ludlow, James M. (James Meeker)","birth_year":1841,"death_year":1932}],"translators":[],"subjects":[],"bookshelves":[],"languages":["en"],"copyright":false,"media_type":"Text","formats":{"text/html":"https://www.gutenberg.org/files/72852/72852-h/72852-h.htm","text/plain; charset=us-ascii":"https://www.gutenberg.org/files/72852/72852-0.txt"},"download_count":0},{"id":72854,"title":"The invading asteroid","authors":[{"name":"Wellman, Manly Wade","birth_year":1903,"death_year":1986}],"translators":[],"subjects":[],"bookshelves":[],"languages":["en"],"copyright":false,"media_type":"Text","formats":{"text/html":"https://www.gutenberg.org/files/72854/72854-h/72854-h.htm","text/plain; charset=us-ascii":"https://www.gutenberg.org/files/72854/72854-0.txt"},"download_count":0},{"id":72855,"title":"The unpleasantness at the Bellona Club","authors":[{"name":"Sayers, Dorothy L. (Dorothy Leigh)","birth_year":1893,"death_year":1957}],"translators":[],"subjects":[],"bookshelves":[],"languages":["en"],"copyright":false,"media_type":"Text","formats":{"text/html":"https://www.gutenberg.org/files/72855/72855-h/72855-h.htm","text/plain; charset=us-ascii":"https://www.gutenberg.org/files/72855/72855-0.txt"},"download_count":0},{"id":72859,"title":"Ships of the seven seas","authors":[{"name":"Daniel, Hawthorne","birth_year":null,"death_year":null}],"translators":[],"subjects":[],"bookshelves":[],"languages":["en"],"copyright":false,"media_type":"Text","formats":{"text/html":"https://www.gutenberg.org/files/72859/72859-h/72859-h.htm","text/plain; charset=us-ascii":"https://www.gutenberg.org/files/72859/72859-0.txt"},"download_count":0}]}