{"count":58808,"next":"http://129.241.150.113:8000/books/?languages=en&page=1807","previous":"http://129.241.150.113:8000/books/?languages=en&page=1805","results":[{"id":68029,"title":"The Yale Literary Magazine (Vol. LXXXVIII, No. 5, February 1923)","authors":[{"name":"Various","birth_year":null,"death_year":null}],"translators":[],"subjects":["College students' writings, American -- Connecticut -- New Haven -- Periodicals","Yale University -- Periodicals"],"bookshelves":[],"languages":["en"],"copyright":false,"media_type":"Text","formats":{"text/html":"https://www.gutenberg.org/ebooks/68029.html.images","application/epub+zip":"https://www.gutenberg.org/ebooks/68029.epub3.images","application/x-mobipocket-ebook":"https://www.gutenberg.org/ebooks/68029.kf8.images","text/plain; charset=us-ascii":"https://www.gutenberg.org/ebooks/68029.txt.utf-8","application/rdf+xml":"https://www.gutenberg.org/ebooks/68029.rdf","image/jpeg":"https://www.gutenberg.org/cache/epub/68029/pg68029.cover.medium.jpg","application/octet-stream":"https://www.gutenberg.org/files/68029/68029-0.zip"},"download_count":12},{"id":68147,"title":"Please pass the cream: A comedy","authors":[{"name":"Holmes, Charles Nevers","birth_year":null,"death_year":null}],"translators":[],"subjects":["Comedies","Husband and wife -- Drama","Manners and customs -- Drama"],"bookshelves":[],"languages":["en"],"copyright":false,"media_type":"Text","formats":{"text/html":"https://www.gutenberg.org/ebooks/68147.html.images","application/epub+zip":"https://www.gutenberg.org/ebooks/68147.epub3.images","application/x-mobipocket-ebook":"https://www.gutenberg.org/ebooks/68147.kf8.images","text/plain; charset=us-ascii":"https://www.gutenberg.org/ebooks/68147.txt.utf-8","application/rdf+xml":"https://www.gutenberg.org/ebooks/68147.rdf","image/jpeg":"https://www.gutenberg.org/cache/epub/68147/pg68147.cover.medium.jpg","application/octet-stream":"https://www.gutenberg.org/files/68147/68147-0.zip"},"download_count":12},{"id":68464,"title":"Specifications for street roadway pavements: with instructions to inspectors on street paving work","authors":[{"name":"Whinery, Samuel","birth_year":1845,"death_year":null}],"translators":[],"subjects":["Pavements -- Specifications"],"bookshelves":[],"languages":["en"],"copyright":false,"media_type":"Text","formats":{"text/html":"https://www.gutenberg.org/ebooks/68464.html.images","application/epub+zip":"https://www.gutenberg.org/ebooks/68464.epub3.images","application/x-mobipocket-ebook":"https://www.gutenberg.org/ebooks/68464.kf8.images","text/plain; charset=us-ascii":"https://www.gutenberg.org/ebooks/68464.txt.utf-8","application/rdf+xml":"https://www.gutenberg.org/ebooks/68464.rdf","image/jpeg":"https://www.gutenberg.org/cache/epub/68464/pg68464.cover.medium.jpg","application/octet-stream":"https://www.gutenberg.org/files/68464/68464-0.zip"},"download_count":12},{"id":68492,"title":"The story of iron","authors":[{"name":"Samuel, Elizabeth Ida","birth_year":1860,"death_year":null}],"translators":[],"subjects":["Boys -- Juvenile fiction","Iron industry and trade -- Juvenile fiction","Orphans -- Fiction"],"bookshelves":[],"languages":["en"],"copyright":false,"media_type":"Text","formats":{"text/html":"https://www.gutenberg.org/ebooks/68492.html.images","application/epub+zip":"https://www.gutenberg.org/ebooks/68492.epub3.images","application/x-mobipocket-ebook":"https://www.gutenberg.org/ebooks/68492.kf8.images","text/plain; charset=us-ascii":"https://www.gutenberg.org/ebooks/68492.txt.utf-8","application/rdf+xml":"https://www.gutenberg.org/ebooks/68492.rdf","image/jpeg":"https://www.gutenberg.org/cache/epub/68492/pg68492.cover.medium.jpg","application/octet-stream":"https://www.gutenberg.org/files/68492/68492-0.zip"},"download_count":12},{"id":68532,"title":"Little Hickory; or, Ragged Rob's young republic","authors":[{"name":"Browne, George Waldo","birth_year":1851,"death_year":1930}],"translators":[],"subjects":["Adventure stories","Poor -- Fiction","Teenage boys -- Fiction"],"bookshelves":[],"languages":["en"],"copyright":false,"media_type":"Text","formats":{"text/html":"https://www.gutenberg.org/ebooks/68532.html.images","application/epub+zip":"https://www.gutenberg.org/ebooks/68532.epub3.images","application/x-mobipocket-ebook":"https://www.gutenberg.org/ebooks/68532.kf8.images","text/plain; charset=us-ascii":"https://www.gutenberg.org/ebooks/68532.txt.utf-8","application/rdf+xml":"https://www.gutenberg.org/ebooks/68532.rdf","image/jpeg":"https://www.gutenberg.org/cache/epub/68532/pg68532.cover.medium.jpg","application/octet-stream":"https://www.gutenberg.org/files/68532/68532-0.zip"},"download_count":12},{"id":68908,"title":"Mother Bunny and her flowers","authors":[{"name":"Smith, Laura Rountree","birth_year":1876,"death_year":1924}],"translators":[],"subjects":["Gardening -- Juvenile fiction","Plants -- Juvenile fiction","Rabbits -- Juvenile fiction"],"bookshelves":[],"languages":["en"],"copyright":false,"media_type":"Text","formats":{"text/html":"https://www.gutenberg.org/ebooks/68908.html.images","application/epub+zip":"https://www.gutenberg.org/ebooks/68908.epub3.images","application/x-mobipocket-ebook":"https://www.gutenberg.org/ebooks/68908.kf8.images","text/plain; charset=us-ascii":"https://www.gutenberg.org/ebooks/68908.txt.utf-8","application/rdf+xml":"https://www.gutenberg.org/ebooks/68908.rdf","image/jpeg":"https://www.gutenberg.org/cache/epub/68908/pg68908.cover.medium.jpg","application/octet-stream":"https://www.gutenberg.org/files/68908/68908-0.zip"},"download_count":12},{"id":69032,"title":"Nick Carter weekly  No. 186, July 21, 1900: Nick Carter rescues a daughter; or, The junior partner's strange behavior.","authors":[{"name":"Carter, Nicholas (House name)","birth_year":null,"death_year":null}],"translators":[],"subjects":["Detective and mystery stories, American -- Periodicals","Popular literature -- Periodicals"],"bookshelves":[],"languages":["en"],"copyright":false,"media_type":"Text","formats":{"text/html":"https://www.gutenberg.org/ebooks/69032.html.images","application/epub+zip":"https://www.gutenberg.org/ebooks/69032.epub3.images","application/x-mobipocket-ebook":"https://www.gutenberg.org/ebooks/69032.kf8.images","text/plain; charset=us-ascii":"https://www.gutenberg.org/ebooks/69032.txt.utf-8","application/rdf+xml":"https://www.gutenberg.org/ebooks/69032.rdf","image/jpeg":"https://www.gutenberg.org/cache/epub/69032/pg69032.cover.medium.jpg","application/octet-stream":"https://www.gutenberg.org/files/69032/69032-0.zip"},"download_count":12},{"id":69086,"title":"The Review, Vol. 1, No. 6, June 1911","authors":[{"name":"Various","birth_year":null,"death_year":null}],"translators":[],"subjects":["Prisons -- Periodicals"],"bookshelves":[],"languages":["en"],"copyright":false,"media_type":"Text","formats":{"text/html":"https://www.gutenberg.org/ebooks/69086.html.images","application/epub+zip":"https://www.gutenberg.org/ebooks/69086.epub3.images","application/x-mobipocket-ebook":"https://www.gutenberg.org/ebooks/69086.kf8.images","text/plain; charset=us-ascii":"https://www.gutenberg.org/ebooks/69086.txt.utf-8","application/rdf+xml":"https://www.gutenberg.org/ebooks/69086.rdf","image/jpeg":"https://www.gutenberg.org/cache/epub/69086/pg69086.cover.medium.jpg","application/octet-stream":"https://www.gutenberg.org/files/69086/69086-0.zip"},"download_count":12},{"id":69097,"title":"Christmas in Austria; or, Fritzl's friends","authors":[{"name":"Bartlett, Frances","birth_year":null,"death_year":null}],"translators":[],"subjects":["Austria -- Juvenile fiction","Boys -- Juvenile fiction","Christmas stories","Kings and rulers -- Juvenile fiction","Orphans -- Juvenile fiction","Poor children -- Juvenile fiction"],"bookshelves":[],"languages":["en"],"copyright":false,"media_type":"Text","formats":{"text/html":"https://www.gutenberg.org/ebooks/69097.html.images","application/epub+zip":"https://www.gutenberg.org/ebooks/69097.epub3.images","application/x-mobipocket-ebook":"https://www.gutenberg.org/ebooks/69097.kf8.images","text/plain; charset=us-ascii":"https://www.gutenberg.org/ebooks/69097.txt.utf-8","application/rdf+xml":"https://www.gutenberg.org/ebooks/69097.rdf","image/jpeg":"https://www.gutenberg.org/cache/epub/69097/pg69097.cover.medium.jpg","application/octet-stream":"https://www.gutenberg.org/files/69097/69097-0.zip"},"download_count":12},{"id":69269,"title":"Shakespeare and His Love: A Play in Four Acts and an Epilogue","authors":[{"name":"Harris, Frank","birth_year":1856,"death_year":1931}],"translators":[],"subjects":["Fitton, Mary, 1578?-1641 -- Drama","Man-woman relationships -- Drama","Shakespeare, William, 1564-1616 -- Drama"],"bookshelves":[],"languages":["en"],"copyright":false,"media_type":"Text","formats":{"text/html":"https://www.gutenberg.org/ebooks/69269.html.images","application/epub+zip":"https://www.gutenberg.org/ebooks/69269.epub3.images","application/x-mobipocket-ebook":"https://www.gutenberg.org/ebooks/69269.kf8.images","text/plain; charset=us-ascii":"https://www.gutenberg.org/ebooks/69269.txt.utf-8","application/rdf+xml":"https://www.gutenberg.org/ebooks/69269.rdf","image/jpeg":"https://www.gutenberg.org/cache/epub/69269/pg69269.cover.medium.jpg","application/octet-stream":"https://www.gutenberg.org/files/69269/69269-0.zip"},"download_count":12},{"id":69489,"title":"The Wellfields: A novel. Vol. 3 of 3","authors":[{"name":"Fothergill, Jessie","birth_year":1851,"death_year":1891}],"translators":[],"subjects":["English fiction -- 19th century"],"bookshelves":[],"languages":["en"],"copyright":false,"media_type":"Text","formats":{"text/html":"https://www.gutenberg.org/ebooks/69489.html.images","application/epub+zip":"https://www.gutenberg.org/ebooks/69489.epub3.images","application/x-mobipocket-ebook":"https://www.gutenberg.org/ebooks/69489.kf8.images","text/plain; charset=us-ascii":"https://www.gutenberg.org/ebooks/69489.txt.utf-8","application/rdf+xml":"https://www.gutenberg.org/ebooks/69489.rdf","image/jpeg":"https://www.gutenberg.org/cache/epub/69489/pg69489.cover.medium.jpg","application/octet-stream":"https://www.gutenberg.org/files/69489/69489-0.zip"},"download_count":12},{"id":69555,"title":"Cactus and pine: Songs of the Southwest","authors":[{"name":"Hall, Sharlot Mabridth","birth_year":1870,"death_year":1943}],"translators":[],"subjects":["Southwestern States -- Poetry"],"bookshelves":[],"languages":["en"],"copyright":false,"media_type":"Text","formats":{"text/html":"https://www.gutenberg.org/ebooks/69555.html.images","application/epub+zip":"https://www.gutenberg.org/ebooks/69555.epub3.images","application/x-mobipocket-ebook":"https://www.gutenberg.org/ebooks/69555.kf8.images","text/plain; charset=us-ascii":"https://www.gutenberg.org/ebooks/69555.txt.utf-8","application/rdf+xml":"https://www.gutenberg.org/ebooks/69555.rdf","image/jpeg":"https://www.gutenberg.org/cache/epub/69555/pg69555.cover.medium.jpg","application/octet-stream":"https://www.gutenberg.org/files/69555/69555-0.zip"},"download_count":12},{"id":69633,"title":"Jungle night","authors":[{"name":"Beebe, William","birth_year":1877,"death_year":1962}],"translators":[],"subjects":["Jungles","Natural history -- Guyana"],"bookshelves":[],"languages":["en"],"copyright":false,"media_type":"Text","formats":{"text/html":"https://www.gutenberg.org/ebooks/69633.html.images","application/epub+zip":"https://www.gutenberg.org/ebooks/69633.epub3.images","application/x-mobipocket-ebook":"https://www.gutenberg.org/ebooks/69633.kf8.images","text/plain; charset=us-ascii":"https://www.gutenberg.org/ebooks/69633.txt.utf-8","application/rdf+xml":"https://www.gutenberg.org/ebooks/69633.rdf","image/jpeg":"https://www.gutenberg.org/cache/epub/69633/pg69633.cover.medium.jpg","application/octet-stream":"https://www.gutenberg.org/files/69633/69633-0.zip"},"download_count":12},{"id":69638,"title":"Nineteen hundred? A forecast and a story","authors":[{"name":"Farningham, Marianne","birth_year":1834,"death_year":1909}],"translators":[],"subjects":["Christian life -- Fiction","England -- Social conditions -- Fiction","Reformers -- Fiction"],"bookshelves":[],"languages":["en"],"copyright":false,"media_type":"Text","formats":{"text/html":"https://www.gutenberg.org/ebooks/69638.html.images","application/epub+zip":"https://www.gutenberg.org/ebooks/69638.epub3.images","application/x-mobipocket-ebook":"https://www.gutenberg.org/ebooks/69638.kf8.images","text/plain; charset=us-ascii":"https://www.gutenberg.org/ebooks/69638.txt.utf-8","application/rdf+xml":"https://www.gutenberg.org/ebooks/69638.rdf","image/jpeg":"https://www.gutenberg.org/cache/epub/69638/pg69638.cover.medium.jpg","application/octet-stream":"https://www.gutenberg.org/files/69638/69638-0.zip"},"download_count":12},{"id":69678,"title":"Memoirs of a millionaire","authors":[{"name":"Mead, Lucia True Ames","birth_year":1856,"death_year":1936}],"translators":[],"subjects":["Boston (Mass.) -- Fiction","Women philanthropists -- Fiction"],"bookshelves":[],"languages":["en"],"copyright":false,"media_type":"Text","formats":{"text/html":"https://www.gutenberg.org/ebooks/69678.html.images","application/epub+zip":"https://www.gutenberg.org/ebooks/69678.epub3.images","application/x-mobipocket-ebook":"https://www.gutenberg.org/ebooks/69678.kf8.images","text/plain; charset=us-ascii":"https://www.gutenberg.org/ebooks/69678.txt.utf-8","application/rdf+xml":"https://www.gutenberg.org/ebooks/69678.rdf","image/jpeg":"https://www.gutenberg.org/cache/epub/69678/pg69678.cover.medium.jpg","application/octet-stream":"https://www.gutenberg.org/files/69678/69678-0.zip"},"download_count":12},{"id":69711,"title":"The star dreamer: A romance","authors":[{"name":"Castle, Egerton","birth_year":1858,"death_year":1920},{"name":"Castle, Agnes","birth_year":1860,"death_year":1922}],"translators":[],"subjects":["Great Britain -- History -- George IV, 1820-1830 -- Fiction","Love stories","Widows -- Fiction"],"bookshelves":[],"languages":["en"],"copyright":false,"media_type":"Text","formats":{"text/html":"https://www.gutenberg.org/ebooks/69711.html.images","application/epub+zip":"https://www.gutenberg.org/ebooks/69711.epub3.images","application/x-mobipocket-ebook":"https://www.gutenberg.org/ebooks/69711.kf8.images","text/plain; charset=us-ascii":"https://www.gutenberg.org/ebooks/69711.txt.utf-8","application/rdf+xml":"https://www.gutenberg.org/ebooks/69711.rdf","image/jpeg":"https://www.gutenberg.org/cache/epub/69711/pg69711.cover.medium.jpg","application/octet-stream":"https://www.gutenberg.org/files/69711/69711-0.zip"},"download_count":12},{"id":69776,"title":"Four little Blossoms through the holidays","authors":[{"name":"Hawley, Mabel C.","birth_year":null,"death_year":null}],"translators":[],"subjects":["Arson -- Juvenile fiction","Christmas -- Juvenile fiction","Family -- Juvenile fiction","Holidays -- Juvenile fiction","Schools -- Juvenile fiction","Siblings -- Juvenile fiction","Thanksgiving Day -- Juvenile fiction","Tramps -- Juvenile fiction","Twins -- Juvenile fiction"],"bookshelves":[],"languages":["en"],"copyright":false,"media_type":"Text","formats":{"text/html":"https://www.gutenberg.org/ebooks/69776.html.images","application/epub+zip":"https://www.gutenberg.org/ebooks/69776.epub3.images","application/x-mobipocket-ebook":"https://www.gutenberg.org/ebooks/69776.kf8.images","text/plain; charset=us-ascii":"https://www.gutenberg.org/ebooks/69776.txt.utf-8","application/rdf+xml":"https://www.gutenberg.org/ebooks/69776.rdf","image/jpeg":"https://www.gutenberg.org/cache/epub/69776/pg69776.cover.medium.jpg","application/octet-stream":"https://www.gutenberg.org/files/69776/69776-0.zip"},"download_count":12},{"id":69849,"title":"Mr. Arnold: A romance of the Revolution","authors":[{"name":"Lynde, Francis","birth_year":1856,"death_year":1930}],"translators":[],"subjects":["Arnold, Benedict, 1741-1801 -- Fiction"],"bookshelves":[],"languages":["en"],"copyright":false,"media_type":"Text","formats":{"text/html":"https://www.gutenberg.org/ebooks/69849.html.images","application/epub+zip":"https://www.gutenberg.org/ebooks/69849.epub3.images","application/x-mobipocket-ebook":"https://www.gutenberg.org/ebooks/69849.kf8.images","text/plain; charset=us-ascii":"https://www.gutenberg.org/ebooks/69849.txt.utf-8","application/rdf+xml":"https://www.gutenberg.org/ebooks/69849.rdf","image/jpeg":"https://www.gutenberg.org/cache/epub/69849/pg69849.cover.medium.jpg","application/octet-stream":"https://www.gutenberg.org/files/69849/69849-0.zip"},"download_count":12},{"id":69867,"title":"The Southern Literary Messenger, Vol. II., No. 8, July, 1836","authors":[{"name":"Various","birth_year":null,"death_year":null}],"translators":[],"subjects":["American literature -- 19th century -- Periodicals"],"bookshelves":[],"languages":["en"],"copyright":false,"media_type":"Text","formats":{"text/html":"https://www.gutenberg.org/ebooks/69867.html.images","application/epub+zip":"https://www.gutenberg.org/ebooks/69867.epub3.images","application/x-mobipocket-ebook":"https://www.gutenberg.org/ebooks/69867.kf8.images","text/plain; charset=us-ascii":"https://www.gutenberg.org/ebooks/69867.txt.utf-8","application/rdf+xml":"https://www.gutenberg.org/ebooks/69867.rdf","image/jpeg":"https://www.gutenberg.org/cache/epub/69867/pg69867.cover.medium.jpg","application/octet-stream":"https://www.gutenberg.org/files/69867/69867-0.zip"},"download_count":12},{"id":70120,"title":"The Blackguard","authors":[{"name":"Pocock, Roger","birth_year":1865,"death_year":1941}],"translators":[],"subjects":["Canada -- Fiction","North West Mounted Police (Canada) -- Fiction"],"bookshelves":[],"languages":["en"],"copyright":false,"media_type":"Text","formats":{"text/html":"https://www.gutenberg.org/ebooks/70120.html.images","application/epub+zip":"https://www.gutenberg.org/ebooks/70120.epub3.images","application/x-mobipocket-ebook":"https://www.gutenberg.org/ebooks/70120.kf8.images","text/plain; charset=us-ascii":"https://www.gutenberg.org/ebooks/70120.txt.utf-8","application/rdf+xml":"https://www.gutenberg.org/ebooks/70120.rdf","image/jpeg":"https://www.gutenberg.org/cache/epub/70120/pg70120.cover.medium.jpg","application/octet-stream":"https://www.gutenberg.org/files/70120/70120-0.zip"},"download_count":12},{"id":70426,"title":"Men of Marlowe's","authors":[{"name":"Dudeney, Henry, Mrs.","birth_year":1866,"death_year":1945}],"translators":[],"subjects":["City and town life -- Fiction","Death -- Fiction","England -- Fiction","Short stories, English"],"bookshelves":[],"languages":["en"],"copyright":false,"media_type":"Text","formats":{"text/html":"https://www.gutenberg.org/ebooks/70426.html.images","application/epub+zip":"https://www.gutenberg.org/ebooks/70426.epub3.images","application/x-mobipocket-ebook":"https://www.gutenberg.org/ebooks/70426.kf8.images","text/plain; charset=us-ascii":"https://www.gutenberg.org/ebooks/70426.txt.utf-8","application/rdf+xml":"https://www.gutenberg.org/ebooks/70426.rdf","image/jpeg":"https://www.gutenberg.org/cache/epub/70426/pg70426.cover.medium.jpg","application/octet-stream":"https://www.gutenberg.org/files/70426/70426-0.zip"},"download_count":12},{"id":70521,"title":"The hermit's Christmas","authors":[{"name":"Burrell, David De Forest","birth_year":1876,"death_year":null}],"translators":[],"subjects":["Christian fiction","Christian life -- Fiction","Christmas stories"],"bookshelves":[],"languages":["en"],"copyright":false,"media_type":"Text","formats":{"text/html":"https://www.gutenberg.org/ebooks/70521.html.images","application/epub+zip":"https://www.gutenberg.org/ebooks/70521.epub3.images","application/x-mobipocket-ebook":"https://www.gutenberg.org/ebooks/70521.kf8.images","text/plain; charset=us-ascii":"https://www.gutenberg.org/ebooks/70521.txt.utf-8","application/rdf+xml":"https://www.gutenberg.org/ebooks/70521.rdf","image/jpeg":"https://www.gutenberg.org/cache/epub/70521/pg70521.cover.medium.jpg","application/octet-stream":"https://www.gutenberg.org/files/70521/70521-0.zip"},"download_count":12},{"id":70921,"title":"The little cap : $b Or, The lost heir of Sternfelden","authors":[{"name":"Dundas, Mrs. (Louisa Maria)","birth_year":1806,"death_year":1895}],"translators":[],"subjects":["Adopted children -- Juvenile fiction","Families -- Juvenile fiction","Metz (France) -- History -- Siege, 1552 -- Juvenile fiction","Soldiers -- Juvenile fiction"],"bookshelves":[],"languages":["en"],"copyright":false,"media_type":"Text","formats":{"text/html":"https://www.gutenberg.org/ebooks/70921.html.images","application/epub+zip":"https://www.gutenberg.org/ebooks/70921.epub3.images","application/x-mobipocket-ebook":"https://www.gutenberg.org/ebooks/70921.kf8.images","text/plain; charset=us-ascii":"https://www.gutenberg.org/ebooks/70921.txt.utf-8","application/rdf+xml":"https://www.gutenberg.org/ebooks/70921.rdf","image/jpeg":"https://www.gutenberg.org/cache/epub/70921/pg70921.cover.medium.jpg","application/octet-stream":"https://www.gutenberg.org/files/70921/70921-0.zip"},"download_count":12},{"id":71098,"title":"Dorothy Harcourt's secret : $b Sequel to \"A deed without a name\"","authors":[{"name":"Southworth, Emma Dorothy Eliza Nevitte","birth_year":1819,"death_year":1899}],"translators":[],"subjects":["American fiction -- 19th century"],"bookshelves":[],"languages":["en"],"copyright":false,"media_type":"Text","formats":{"text/html":"https://www.gutenberg.org/ebooks/71098.html.images","application/epub+zip":"https://www.gutenberg.org/ebooks/71098.epub3.images","application/x-mobipocket-ebook":"https://www.gutenberg.org/ebooks/71098.kf8.images","text/plain; charset=us-ascii":"https://www.gutenberg.org/ebooks/71098.txt.utf-8","application/rdf+xml":"https://www.gutenberg.org/ebooks/71098.rdf","image/jpeg":"https://www.gutenberg.org/cache/epub/71098/pg71098.cover.medium.jpg","application/octet-stream":"https://www.gutenberg.org/files/71098/71098-0.zip"},"download_count":12},{"id":71235,"title":"Widows grave and otherwise","authors":[],"translators":[],"subjects":["Quotations","Widows"],"bookshelves":[],"languages":["en"],"copyright":false,"media_type":"Text","formats":{"text/html":"https://www.gutenberg.org/ebooks/71235.html.images","application/epub+zip":"https://www.gutenberg.org/ebooks/71235.epub3.images","application/x-mobipocket-ebook":"https://www.gutenberg.org/ebooks/71235.kf8.images","text/plain; charset=us-ascii":"https://www.gutenberg.org/ebooks/71235.txt.utf-8","application/rdf+xml":"https://www.gutenberg.org/ebooks/71235.rdf","image/jpeg":"https://www.gutenberg.org/cache/epub/71235/pg71235.cover.medium.jpg","application/octet-stream":"https://www.gutenberg.org/files/71235/71235-0.zip"},"download_count":12},{"id":2155,"title":"Phyllis of Philistia","authors":[{"name":"Moore, Frank Frankfort","birth_year":1855,"death_year":1931}],"translators":[],"subjects":["Fiction"],"bookshelves":[],"languages":["en"],"copyright":false,"media_type":"Text","formats":{"text/html":"https://www.gutenberg.org/ebooks/2155.html.images","text/html; charset=utf-8":"https://www.gutenberg.org/files/2155/2155-h/2155-h.htm","application/epub+zip":"https://www.gutenberg.org/ebooks/2155.epub3.images","application/x-mobipocket-ebook":"https://www.gutenberg.org/ebooks/2155.kf8.images","text/plain; charset=us-ascii":"https://www.gutenberg.org/ebooks/2155.txt.utf-8","text/plain; charset=utf-8":"https://www.gutenberg.org/files/2155/2155-0.txt","application/rdf+xml":"https://www.gutenberg.org/ebooks/2155.rdf","image/jpeg":"https://www.gutenberg.org/cache/epub/2155/pg2155.cover.medium.jpg","application/octet-stream":"https://www.gutenberg.org/cache/epub/2155/pg2155-h.zip"},"download_count":11},{"id":2202,"title":"Human Genome Project, rough draft, Chromosome Number 02","authors":[{"name":"Human Genome Project","birth_year":null,"death_year":null}],"translators":[],"subjects":["Human Genome Project","Human gene mapping","Human genetics","Nucleotide sequence"],"bookshelves":[],"languages":["en"],"copyright":false,"media_type":"Dataset","formats":{"text/plain; charset=us-ascii":"https://www.gutenberg.org/files/2202/2202.zip","application/rdf+xml":"https://www.gutenberg.org/ebooks/2202.rdf"},"download_count":11},{"id":2315,"title":"The Flag-Raising","authors":[{"name":"Wiggin, Kate Douglas Smith","birth_year":1856,"death_year":1923}],"translators":[],"subjects":["Short stories","United States -- Juvenile fiction"],"bookshelves":["Children's Literature"],"languages":["en"],"copyright":false,"media_type":"Text","formats":{"text/html":"https://www.gutenberg.org/ebooks/2315.html.images","text/html; charset=iso-8859-1":"https://www.gutenberg.org/files/2315/2315-h/2315-h.htm","application/epub+zip":"https://www.gutenberg.org/ebooks/2315.epub3.images","application/x-mobipocket-ebook":"https://www.gutenberg.org/ebooks/2315.kf8.images","text/plain; charset=us-ascii":"https://www.gutenberg.org/ebooks/2315.txt.utf-8","application/rdf+xml":"https://www.gutenberg.org/ebooks/2315.rdf","image/jpeg":"https://www.gutenberg.org/cache/epub/2315/pg2315.cover.medium.jpg","application/octet-stream":"https://www.gutenberg.org/cache/epub/2315/pg2315-h.zip"},"download_count":11},{"id":2474,"title":"The Circus Boys on the Flying Rings; Or, Making the Start in the Sawdust Life","authors":[{"name":"Darlington, Edgar B. P.","birth_year":null,"death_year":null}],"translators":[],"subjects":["Adventure stories","Circus -- Juvenile fiction"],"bookshelves":[],"languages":["en"],"copyright":false,"media_type":"Text","formats":{"text/html":"https://www.gutenberg.org/ebooks/2474.html.images","text/html; charset=utf-8":"https://www.gutenberg.org/files/2474/2474-h/2474-h.htm","application/epub+zip":"https://www.gutenberg.org/ebooks/2474.epub3.images","application/x-mobipocket-ebook":"https://www.gutenberg.org/ebooks/2474.kf8.images","text/plain; charset=us-ascii":"https://www.gutenberg.org/ebooks/2474.txt.utf-8","text/plain; charset=utf-8":"https://www.gutenberg.org/files/2474/2474-0.txt","application/rdf+xml":"https://www.gutenberg.org/ebooks/2474.rdf","image/jpeg":"https://www.gutenberg.org/cache/epub/2474/pg2474.cover.medium.jpg","application/octet-stream":"https://www.gutenberg.org/cache/epub/2474/pg2474-h.zip"},"download_count":11},{"id":3109,"title":"Fashions in Literature","authors":[{"name":"Warner, Charles Dudley","birth_year":1829,"death_year":1900}],"translators":[],"subjects":["Literature"],"bookshelves":[],"languages":["en"],"copyright":false,"media_type":"Text","formats":{"text/html":"https://www.gutenberg.org/ebooks/3109.html.images","application/epub+zip":"https://www.gutenberg.org/ebooks/3109.epub3.images","application/x-mobipocket-ebook":"https://www.gutenberg.org/ebooks/3109.kf8.images","text/plain; charset=us-ascii":"https://www.gutenberg.org/ebooks/3109.txt.utf-8","application/rdf+xml":"https://www.gutenberg.org/ebooks/3109.rdf","image/jpeg":"https://www.gutenberg.org/cache/epub/3109/pg3109.cover.medium.jpg","application/octet-stream":"https://www.gutenberg.org/cache/epub/3109/pg3109-h.zip"},"download_count":11},{"id":3928,"title":"Prince Zilah — Volume 2","authors":[{"name":"Claretie, Jules","birth_year":1840,"death_year":1913}],"translators":[],"subjects":["Paris (France) -- Fiction"],"bookshelves":[],"languages":["en"],"copyright":false,"media_type":"Text","formats":{"text/html":"https://www.gutenberg.org/ebooks/3928.html.images","application/epub+zip":"https://www.gutenberg.org/ebooks/3928.epub3.images","application/x-mobipocket-ebook":"https://www.gutenberg.org/ebooks/3928.kf8.images","text/plain; charset=us-ascii":"https://www.gutenberg.org/ebooks/3928.txt.utf-8","application/rdf+xml":"https://www.gutenberg.org/ebooks/3928.rdf","image/jpeg":"https://www.gutenberg.org/cache/epub/3928/pg3928.cover.medium.jpg","application/octet-stream":"https://www.gutenberg.org/cache/epub/3928/pg3928-h.zip"},"download_count":11},{"id":3929,"title":"Prince Zilah — Volume 3","authors":[{"name":"Claretie, Jules","birth_year":1840,"death_year":1913}],"translators":[],"subjects":["Paris (France) -- Fiction"],"bookshelves":[],"languages":["en"],"copyright":false,"media_type":"Text","formats":{"text/html":"https://www.gutenberg.org/ebooks/3929.html.images","application/epub+zip":"https://www.gutenberg.org/ebooks/3929.epub3.images","application/x-mobipocket-ebook":"https://www.gutenberg.org/ebooks/3929.kf8.images","text/plain; charset=us-ascii":"https://www.gutenberg.org/ebooks/3929.txt.utf-8","application/rdf+xml":"https://www.gutenberg.org/ebooks/3929.rdf","image/jpeg":"https://www.gutenberg.org/cache/epub/3929/pg3929.cover.medium.jpg","application/octet-stream":"https://www.gutenberg.org/cache/epub/3929/pg3929-h.zip"},"download_count":11}]}