{"count":58808,"next":"http://129.241.150.113:8000/books/?languages=en&page=1783","previous":"http://129.241.150.113:8000/books/?languages=en&page=1781","results":[{"id":68232,"title":"The story of the Thirty-Third N. Y. S. Vols: or two years campaigning in Virginia and Maryland","authors":[{"name":"Judd, David Wright","birth_year":1838,"death_year":1888}],"translators":[],"subjects":["United States -- History -- Civil War, 1861-1865 -- Regimental histories","United States. Army. New York Infantry Regiment, 33rd (1861-1863)"],"bookshelves":[],"languages":["en"],"copyright":false,"media_type":"Text","formats":{"text/html":"https://www.gutenberg.org/ebooks/68232.html.images","application/epub+zip":"https://www.gutenberg.org/ebooks/68232.epub3.images","application/x-mobipocket-ebook":"https://www.gutenberg.org/ebooks/68232.kf8.images","text/plain; charset=us-ascii":"https://www.gutenberg.org/ebooks/68232.txt.utf-8","application/rdf+xml":"https://www.gutenberg.org/ebooks/68232.rdf","image/jpeg":"https://www.gutenberg.org/cache/epub/68232/pg68232.cover.medium.jpg","application/octet-stream":"https://www.gutenberg.org/files/68232/68232-0.zip"},"download_count":14},{"id":68351,"title":"In the three zones","authors":[{"name":"Stimson, Frederic Jesup","birth_year":1855,"death_year":1943}],"translators":[],"subjects":["American fiction -- 19th century"],"bookshelves":[],"languages":["en"],"copyright":false,"media_type":"Text","formats":{"text/html":"https://www.gutenberg.org/ebooks/68351.html.images","application/epub+zip":"https://www.gutenberg.org/ebooks/68351.epub3.images","application/x-mobipocket-ebook":"https://www.gutenberg.org/ebooks/68351.kf8.images","text/plain; charset=us-ascii":"https://www.gutenberg.org/ebooks/68351.txt.utf-8","application/rdf+xml":"https://www.gutenberg.org/ebooks/68351.rdf","image/jpeg":"https://www.gutenberg.org/cache/epub/68351/pg68351.cover.medium.jpg","application/octet-stream":"https://www.gutenberg.org/files/68351/68351-0.zip"},"download_count":14},{"id":68429,"title":"Donkeys to bald pate","authors":[{"name":"Mines, Samuel","birth_year":1909,"death_year":1998}],"translators":[],"subjects":["College teachers -- Fiction","Mules -- Fiction","Science fiction","Short stories"],"bookshelves":[],"languages":["en"],"copyright":false,"media_type":"Text","formats":{"text/html":"https://www.gutenberg.org/ebooks/68429.html.images","application/epub+zip":"https://www.gutenberg.org/ebooks/68429.epub3.images","application/x-mobipocket-ebook":"https://www.gutenberg.org/ebooks/68429.kf8.images","text/plain; charset=us-ascii":"https://www.gutenberg.org/ebooks/68429.txt.utf-8","application/rdf+xml":"https://www.gutenberg.org/ebooks/68429.rdf","image/jpeg":"https://www.gutenberg.org/cache/epub/68429/pg68429.cover.medium.jpg","application/octet-stream":"https://www.gutenberg.org/files/68429/68429-0.zip"},"download_count":14},{"id":68504,"title":"Down the line with John Henry","authors":[{"name":"Hobart, George V. (George Vere)","birth_year":1867,"death_year":1926}],"translators":[],"subjects":["Americanisms -- Fiction","Humorous stories","Short stories","Upper class -- United States -- Fiction","Young men -- Fiction"],"bookshelves":[],"languages":["en"],"copyright":false,"media_type":"Text","formats":{"text/html":"https://www.gutenberg.org/ebooks/68504.html.images","application/epub+zip":"https://www.gutenberg.org/ebooks/68504.epub3.images","application/x-mobipocket-ebook":"https://www.gutenberg.org/ebooks/68504.kf8.images","text/plain; charset=us-ascii":"https://www.gutenberg.org/ebooks/68504.txt.utf-8","application/rdf+xml":"https://www.gutenberg.org/ebooks/68504.rdf","image/jpeg":"https://www.gutenberg.org/cache/epub/68504/pg68504.cover.medium.jpg","application/octet-stream":"https://www.gutenberg.org/files/68504/68504-0.zip"},"download_count":14},{"id":68552,"title":"The flying chance","authors":[{"name":"McCreagh, Gordon","birth_year":1889,"death_year":1953}],"translators":[],"subjects":["World War, 1914-1918 -- Aerial operations -- Fiction","World War, 1914-1918 -- Naval operations -- Fiction"],"bookshelves":[],"languages":["en"],"copyright":false,"media_type":"Text","formats":{"text/html":"https://www.gutenberg.org/ebooks/68552.html.images","application/epub+zip":"https://www.gutenberg.org/ebooks/68552.epub3.images","application/x-mobipocket-ebook":"https://www.gutenberg.org/ebooks/68552.kf8.images","text/plain; charset=us-ascii":"https://www.gutenberg.org/ebooks/68552.txt.utf-8","application/rdf+xml":"https://www.gutenberg.org/ebooks/68552.rdf","image/jpeg":"https://www.gutenberg.org/cache/epub/68552/pg68552.cover.medium.jpg","application/octet-stream":"https://www.gutenberg.org/files/68552/68552-0.zip"},"download_count":14},{"id":68895,"title":"A soldier's mother in France","authors":[{"name":"Dorr, Rheta Childe","birth_year":1866,"death_year":1948}],"translators":[],"subjects":["World War, 1914-1918 -- Personal narratives, American"],"bookshelves":[],"languages":["en"],"copyright":false,"media_type":"Text","formats":{"text/html":"https://www.gutenberg.org/ebooks/68895.html.images","application/epub+zip":"https://www.gutenberg.org/ebooks/68895.epub3.images","application/x-mobipocket-ebook":"https://www.gutenberg.org/ebooks/68895.kf8.images","text/plain; charset=us-ascii":"https://www.gutenberg.org/ebooks/68895.txt.utf-8","application/rdf+xml":"https://www.gutenberg.org/ebooks/68895.rdf","image/jpeg":"https://www.gutenberg.org/cache/epub/68895/pg68895.cover.medium.jpg","application/octet-stream":"https://www.gutenberg.org/files/68895/68895-0.zip"},"download_count":14},{"id":68916,"title":"Modern literature: a novel, Volume 2 (of 3)","authors":[{"name":"Bisset, Robert","birth_year":1759,"death_year":1805}],"translators":[],"subjects":["England -- Social life and customs -- 18th century -- Fiction"],"bookshelves":[],"languages":["en"],"copyright":false,"media_type":"Text","formats":{"text/html":"https://www.gutenberg.org/ebooks/68916.html.images","application/epub+zip":"https://www.gutenberg.org/ebooks/68916.epub3.images","application/x-mobipocket-ebook":"https://www.gutenberg.org/ebooks/68916.kf8.images","text/plain; charset=us-ascii":"https://www.gutenberg.org/ebooks/68916.txt.utf-8","application/rdf+xml":"https://www.gutenberg.org/ebooks/68916.rdf","image/jpeg":"https://www.gutenberg.org/cache/epub/68916/pg68916.cover.medium.jpg","application/octet-stream":"https://www.gutenberg.org/files/68916/68916-0.zip"},"download_count":14},{"id":68919,"title":"The promotion of the admiral, and other sea comedies","authors":[{"name":"Roberts, Morley","birth_year":1857,"death_year":1942}],"translators":[],"subjects":["English fiction -- 20th century","Sea stories, English","Short stories, English"],"bookshelves":[],"languages":["en"],"copyright":false,"media_type":"Text","formats":{"text/html":"https://www.gutenberg.org/ebooks/68919.html.images","application/epub+zip":"https://www.gutenberg.org/ebooks/68919.epub3.images","application/x-mobipocket-ebook":"https://www.gutenberg.org/ebooks/68919.kf8.images","text/plain; charset=us-ascii":"https://www.gutenberg.org/ebooks/68919.txt.utf-8","application/rdf+xml":"https://www.gutenberg.org/ebooks/68919.rdf","image/jpeg":"https://www.gutenberg.org/cache/epub/68919/pg68919.cover.medium.jpg","application/octet-stream":"https://www.gutenberg.org/files/68919/68919-0.zip"},"download_count":14},{"id":69053,"title":"The conservation of energy","authors":[{"name":"Stewart, Balfour","birth_year":1828,"death_year":1887}],"translators":[],"subjects":["Force and energy"],"bookshelves":[],"languages":["en"],"copyright":false,"media_type":"Text","formats":{"text/html":"https://www.gutenberg.org/ebooks/69053.html.images","application/epub+zip":"https://www.gutenberg.org/ebooks/69053.epub3.images","application/x-mobipocket-ebook":"https://www.gutenberg.org/ebooks/69053.kf8.images","text/plain; charset=us-ascii":"https://www.gutenberg.org/ebooks/69053.txt.utf-8","application/rdf+xml":"https://www.gutenberg.org/ebooks/69053.rdf","image/jpeg":"https://www.gutenberg.org/cache/epub/69053/pg69053.cover.medium.jpg","application/octet-stream":"https://www.gutenberg.org/files/69053/69053-0.zip"},"download_count":14},{"id":69090,"title":"A dissuasion to Great-Britain and the colonies, from the slave trade to Africa","authors":[{"name":"Swan, James","birth_year":1754,"death_year":1830}],"translators":[],"subjects":["Slave trade -- Early works to 1800"],"bookshelves":[],"languages":["en"],"copyright":false,"media_type":"Text","formats":{"text/html":"https://www.gutenberg.org/ebooks/69090.html.images","application/epub+zip":"https://www.gutenberg.org/ebooks/69090.epub3.images","application/x-mobipocket-ebook":"https://www.gutenberg.org/ebooks/69090.kf8.images","text/plain; charset=us-ascii":"https://www.gutenberg.org/ebooks/69090.txt.utf-8","application/rdf+xml":"https://www.gutenberg.org/ebooks/69090.rdf","image/jpeg":"https://www.gutenberg.org/cache/epub/69090/pg69090.cover.medium.jpg","application/octet-stream":"https://www.gutenberg.org/files/69090/69090-0.zip"},"download_count":14},{"id":69112,"title":"The quest for the rose of Sharon","authors":[{"name":"Stevenson, Burton Egbert","birth_year":1872,"death_year":1962}],"translators":[],"subjects":["Families -- Fiction","Inheritance and succession -- Fiction","Mystery fiction"],"bookshelves":[],"languages":["en"],"copyright":false,"media_type":"Text","formats":{"text/html":"https://www.gutenberg.org/ebooks/69112.html.images","application/epub+zip":"https://www.gutenberg.org/ebooks/69112.epub3.images","application/x-mobipocket-ebook":"https://www.gutenberg.org/ebooks/69112.kf8.images","text/plain; charset=us-ascii":"https://www.gutenberg.org/ebooks/69112.txt.utf-8","application/rdf+xml":"https://www.gutenberg.org/ebooks/69112.rdf","image/jpeg":"https://www.gutenberg.org/cache/epub/69112/pg69112.cover.medium.jpg","application/octet-stream":"https://www.gutenberg.org/files/69112/69112-0.zip"},"download_count":14},{"id":69233,"title":"Examination of the Rev. Mr. Harris's scriptural researches on the licitness of the slave trade","authors":[{"name":"Ramsay, James","birth_year":1733,"death_year":1789}],"translators":[],"subjects":["Harris, R. (Raymund). Scriptural researches on the licitness of the slave trade","Slave trade -- Early works to 1800"],"bookshelves":[],"languages":["en"],"copyright":false,"media_type":"Text","formats":{"text/html":"https://www.gutenberg.org/ebooks/69233.html.images","application/epub+zip":"https://www.gutenberg.org/ebooks/69233.epub3.images","application/x-mobipocket-ebook":"https://www.gutenberg.org/ebooks/69233.kf8.images","text/plain; charset=us-ascii":"https://www.gutenberg.org/ebooks/69233.txt.utf-8","application/rdf+xml":"https://www.gutenberg.org/ebooks/69233.rdf","image/jpeg":"https://www.gutenberg.org/cache/epub/69233/pg69233.cover.medium.jpg","application/octet-stream":"https://www.gutenberg.org/files/69233/69233-0.zip"},"download_count":14},{"id":69248,"title":"Atlanta offering: Poems","authors":[{"name":"Harper, Frances Ellen Watkins","birth_year":1825,"death_year":1911}],"translators":[],"subjects":["African Americans -- Poetry"],"bookshelves":[],"languages":["en"],"copyright":false,"media_type":"Text","formats":{"text/html":"https://www.gutenberg.org/ebooks/69248.html.images","application/epub+zip":"https://www.gutenberg.org/ebooks/69248.epub3.images","application/x-mobipocket-ebook":"https://www.gutenberg.org/ebooks/69248.kf8.images","text/plain; charset=us-ascii":"https://www.gutenberg.org/ebooks/69248.txt.utf-8","application/rdf+xml":"https://www.gutenberg.org/ebooks/69248.rdf","image/jpeg":"https://www.gutenberg.org/cache/epub/69248/pg69248.cover.medium.jpg","application/octet-stream":"https://www.gutenberg.org/files/69248/69248-0.zip"},"download_count":14},{"id":69283,"title":"The necessity of disinterment, under existing circumstances","authors":[{"name":"Cooke, William","birth_year":1802,"death_year":1834}],"translators":[],"subjects":["Body snatching","Human dissection"],"bookshelves":[],"languages":["en"],"copyright":false,"media_type":"Text","formats":{"text/html":"https://www.gutenberg.org/ebooks/69283.html.images","application/epub+zip":"https://www.gutenberg.org/ebooks/69283.epub3.images","application/x-mobipocket-ebook":"https://www.gutenberg.org/ebooks/69283.kf8.images","text/plain; charset=us-ascii":"https://www.gutenberg.org/ebooks/69283.txt.utf-8","application/rdf+xml":"https://www.gutenberg.org/ebooks/69283.rdf","image/jpeg":"https://www.gutenberg.org/cache/epub/69283/pg69283.cover.medium.jpg","application/octet-stream":"https://www.gutenberg.org/files/69283/69283-0.zip"},"download_count":14},{"id":69296,"title":"Addresses in America, 1919","authors":[{"name":"Galsworthy, John","birth_year":1867,"death_year":1933}],"translators":[],"subjects":["Galsworthy, John, 1867-1933 -- Travel -- United States","Speeches, addresses, etc., English"],"bookshelves":[],"languages":["en"],"copyright":false,"media_type":"Text","formats":{"text/html":"https://www.gutenberg.org/ebooks/69296.html.images","application/epub+zip":"https://www.gutenberg.org/ebooks/69296.epub3.images","application/x-mobipocket-ebook":"https://www.gutenberg.org/ebooks/69296.kf8.images","text/plain; charset=us-ascii":"https://www.gutenberg.org/ebooks/69296.txt.utf-8","application/rdf+xml":"https://www.gutenberg.org/ebooks/69296.rdf","image/jpeg":"https://www.gutenberg.org/cache/epub/69296/pg69296.cover.medium.jpg","application/octet-stream":"https://www.gutenberg.org/files/69296/69296-0.zip"},"download_count":14},{"id":69428,"title":"The Wellfields: A novel. Vol. 1 of 3","authors":[{"name":"Fothergill, Jessie","birth_year":1851,"death_year":1891}],"translators":[],"subjects":["English fiction -- 19th century"],"bookshelves":[],"languages":["en"],"copyright":false,"media_type":"Text","formats":{"text/html":"https://www.gutenberg.org/ebooks/69428.html.images","application/epub+zip":"https://www.gutenberg.org/ebooks/69428.epub3.images","application/x-mobipocket-ebook":"https://www.gutenberg.org/ebooks/69428.kf8.images","text/plain; charset=us-ascii":"https://www.gutenberg.org/ebooks/69428.txt.utf-8","application/rdf+xml":"https://www.gutenberg.org/ebooks/69428.rdf","image/jpeg":"https://www.gutenberg.org/cache/epub/69428/pg69428.cover.medium.jpg","application/octet-stream":"https://www.gutenberg.org/files/69428/69428-0.zip"},"download_count":14},{"id":69491,"title":"The Ohio naturalist, Vol. 1, No. 8, June 1901","authors":[{"name":"Ohio State University. Biological Club","birth_year":null,"death_year":null}],"translators":[],"subjects":["Natural history -- Ohio -- Periodicals","Natural history -- Periodicals","Science -- Periodicals"],"bookshelves":[],"languages":["en"],"copyright":false,"media_type":"Text","formats":{"text/html":"https://www.gutenberg.org/ebooks/69491.html.images","application/epub+zip":"https://www.gutenberg.org/ebooks/69491.epub3.images","application/x-mobipocket-ebook":"https://www.gutenberg.org/ebooks/69491.kf8.images","text/plain; charset=us-ascii":"https://www.gutenberg.org/ebooks/69491.txt.utf-8","application/rdf+xml":"https://www.gutenberg.org/ebooks/69491.rdf","image/jpeg":"https://www.gutenberg.org/cache/epub/69491/pg69491.cover.medium.jpg","application/octet-stream":"https://www.gutenberg.org/files/69491/69491-0.zip"},"download_count":14},{"id":69496,"title":"The professor's experiment: A novel, Vol. 3 (of 3)","authors":[{"name":"Duchess","birth_year":null,"death_year":1897}],"translators":[],"subjects":["Science fiction"],"bookshelves":[],"languages":["en"],"copyright":false,"media_type":"Text","formats":{"text/html":"https://www.gutenberg.org/ebooks/69496.html.images","application/epub+zip":"https://www.gutenberg.org/ebooks/69496.epub3.images","application/x-mobipocket-ebook":"https://www.gutenberg.org/ebooks/69496.kf8.images","text/plain; charset=us-ascii":"https://www.gutenberg.org/ebooks/69496.txt.utf-8","application/rdf+xml":"https://www.gutenberg.org/ebooks/69496.rdf","image/jpeg":"https://www.gutenberg.org/cache/epub/69496/pg69496.cover.medium.jpg","application/octet-stream":"https://www.gutenberg.org/files/69496/69496-0.zip"},"download_count":14},{"id":69629,"title":"The Princess Casamassima (Volume 2 of 2)","authors":[{"name":"James, Henry","birth_year":1843,"death_year":1916}],"translators":[],"subjects":["London (England) -- Social life and customs -- 19th century -- Fiction"],"bookshelves":[],"languages":["en"],"copyright":false,"media_type":"Text","formats":{"text/html":"https://www.gutenberg.org/ebooks/69629.html.images","application/epub+zip":"https://www.gutenberg.org/ebooks/69629.epub3.images","application/x-mobipocket-ebook":"https://www.gutenberg.org/ebooks/69629.kf8.images","text/plain; charset=us-ascii":"https://www.gutenberg.org/ebooks/69629.txt.utf-8","application/rdf+xml":"https://www.gutenberg.org/ebooks/69629.rdf","image/jpeg":"https://www.gutenberg.org/cache/epub/69629/pg69629.cover.medium.jpg","application/octet-stream":"https://www.gutenberg.org/files/69629/69629-0.zip"},"download_count":14},{"id":69640,"title":"Woodburn Grange: A story of English country life; vol. 1 of 3","authors":[{"name":"Howitt, William","birth_year":1792,"death_year":1879}],"translators":[],"subjects":["Religious fiction"],"bookshelves":[],"languages":["en"],"copyright":false,"media_type":"Text","formats":{"text/html":"https://www.gutenberg.org/ebooks/69640.html.images","application/epub+zip":"https://www.gutenberg.org/ebooks/69640.epub3.images","application/x-mobipocket-ebook":"https://www.gutenberg.org/ebooks/69640.kf8.images","text/plain; charset=us-ascii":"https://www.gutenberg.org/ebooks/69640.txt.utf-8","application/rdf+xml":"https://www.gutenberg.org/ebooks/69640.rdf","image/jpeg":"https://www.gutenberg.org/cache/epub/69640/pg69640.cover.medium.jpg","application/octet-stream":"https://www.gutenberg.org/files/69640/69640-0.zip"},"download_count":14},{"id":69644,"title":"Nazareth: a morality in one act","authors":[{"name":"Housman, Laurence","birth_year":1865,"death_year":1959}],"translators":[],"subjects":["Jesus Christ -- Drama","Mysteries and miracle-plays"],"bookshelves":[],"languages":["en"],"copyright":false,"media_type":"Text","formats":{"text/html":"https://www.gutenberg.org/ebooks/69644.html.images","application/epub+zip":"https://www.gutenberg.org/ebooks/69644.epub3.images","application/x-mobipocket-ebook":"https://www.gutenberg.org/ebooks/69644.kf8.images","text/plain; charset=us-ascii":"https://www.gutenberg.org/ebooks/69644.txt.utf-8","application/rdf+xml":"https://www.gutenberg.org/ebooks/69644.rdf","image/jpeg":"https://www.gutenberg.org/cache/epub/69644/pg69644.cover.medium.jpg","application/octet-stream":"https://www.gutenberg.org/files/69644/69644-0.zip"},"download_count":14},{"id":69740,"title":"The Review, Vol. 1, No. 8, August 1911","authors":[{"name":"Various","birth_year":null,"death_year":null}],"translators":[],"subjects":["Prisons -- Periodicals"],"bookshelves":[],"languages":["en"],"copyright":false,"media_type":"Text","formats":{"text/html":"https://www.gutenberg.org/ebooks/69740.html.images","application/epub+zip":"https://www.gutenberg.org/ebooks/69740.epub3.images","application/x-mobipocket-ebook":"https://www.gutenberg.org/ebooks/69740.kf8.images","text/plain; charset=us-ascii":"https://www.gutenberg.org/ebooks/69740.txt.utf-8","application/rdf+xml":"https://www.gutenberg.org/ebooks/69740.rdf","image/jpeg":"https://www.gutenberg.org/cache/epub/69740/pg69740.cover.medium.jpg","application/octet-stream":"https://www.gutenberg.org/files/69740/69740-0.zip"},"download_count":14},{"id":69803,"title":"Australia—Fortune land","authors":[{"name":"O'Hargan, Roderick","birth_year":null,"death_year":null}],"translators":[],"subjects":["Australia -- Gold discoveries"],"bookshelves":[],"languages":["en"],"copyright":false,"media_type":"Text","formats":{"text/html":"https://www.gutenberg.org/ebooks/69803.html.images","application/epub+zip":"https://www.gutenberg.org/ebooks/69803.epub3.images","application/x-mobipocket-ebook":"https://www.gutenberg.org/ebooks/69803.kf8.images","text/plain; charset=us-ascii":"https://www.gutenberg.org/ebooks/69803.txt.utf-8","application/rdf+xml":"https://www.gutenberg.org/ebooks/69803.rdf","image/jpeg":"https://www.gutenberg.org/cache/epub/69803/pg69803.cover.medium.jpg","application/octet-stream":"https://www.gutenberg.org/files/69803/69803-0.zip"},"download_count":14},{"id":69895,"title":"The farm and the woodlot","authors":[{"name":"Barton, J. E.","birth_year":null,"death_year":null}],"translators":[],"subjects":["Woodlots"],"bookshelves":[],"languages":["en"],"copyright":false,"media_type":"Text","formats":{"text/html":"https://www.gutenberg.org/ebooks/69895.html.images","application/epub+zip":"https://www.gutenberg.org/ebooks/69895.epub3.images","application/x-mobipocket-ebook":"https://www.gutenberg.org/ebooks/69895.kf8.images","text/plain; charset=us-ascii":"https://www.gutenberg.org/ebooks/69895.txt.utf-8","application/rdf+xml":"https://www.gutenberg.org/ebooks/69895.rdf","image/jpeg":"https://www.gutenberg.org/cache/epub/69895/pg69895.cover.medium.jpg","application/octet-stream":"https://www.gutenberg.org/files/69895/69895-0.zip"},"download_count":14},{"id":69910,"title":"The cranberry","authors":[{"name":"Bradley Fertilizer Company","birth_year":null,"death_year":null}],"translators":[],"subjects":["Cranberries"],"bookshelves":[],"languages":["en"],"copyright":false,"media_type":"Text","formats":{"text/html":"https://www.gutenberg.org/ebooks/69910.html.images","application/epub+zip":"https://www.gutenberg.org/ebooks/69910.epub3.images","application/x-mobipocket-ebook":"https://www.gutenberg.org/ebooks/69910.kf8.images","text/plain; charset=us-ascii":"https://www.gutenberg.org/ebooks/69910.txt.utf-8","application/rdf+xml":"https://www.gutenberg.org/ebooks/69910.rdf","image/jpeg":"https://www.gutenberg.org/cache/epub/69910/pg69910.cover.medium.jpg","application/octet-stream":"https://www.gutenberg.org/files/69910/69910-0.zip"},"download_count":14},{"id":69924,"title":"A list of books published by Chatto & Windus","authors":[{"name":"Chatto & Windus (Firm)","birth_year":null,"death_year":null}],"translators":[],"subjects":["Chatto & Windus (Firm) -- Catalogs","Publishers' catalogs -- England -- London"],"bookshelves":[],"languages":["en"],"copyright":false,"media_type":"Text","formats":{"text/html":"https://www.gutenberg.org/ebooks/69924.html.images","application/epub+zip":"https://www.gutenberg.org/ebooks/69924.epub3.images","application/x-mobipocket-ebook":"https://www.gutenberg.org/ebooks/69924.kf8.images","text/plain; charset=us-ascii":"https://www.gutenberg.org/ebooks/69924.txt.utf-8","application/rdf+xml":"https://www.gutenberg.org/ebooks/69924.rdf","image/jpeg":"https://www.gutenberg.org/cache/epub/69924/pg69924.cover.medium.jpg","application/octet-stream":"https://www.gutenberg.org/files/69924/69924-0.zip"},"download_count":14},{"id":69927,"title":"Case of Filaria loa","authors":[{"name":"Robertson, Douglas Argyll","birth_year":1837,"death_year":1909}],"translators":[],"subjects":["Filarial worms","Loaiasis"],"bookshelves":[],"languages":["en"],"copyright":false,"media_type":"Text","formats":{"text/html":"https://www.gutenberg.org/ebooks/69927.html.images","application/epub+zip":"https://www.gutenberg.org/ebooks/69927.epub3.images","application/x-mobipocket-ebook":"https://www.gutenberg.org/ebooks/69927.kf8.images","text/plain; charset=us-ascii":"https://www.gutenberg.org/ebooks/69927.txt.utf-8","application/rdf+xml":"https://www.gutenberg.org/ebooks/69927.rdf","image/jpeg":"https://www.gutenberg.org/cache/epub/69927/pg69927.cover.medium.jpg","application/octet-stream":"https://www.gutenberg.org/files/69927/69927-0.zip"},"download_count":14},{"id":70076,"title":"The Tusayan ritual : $b A study on the influence of environment on aboriginal cults","authors":[{"name":"Fewkes, Jesse Walter","birth_year":1850,"death_year":1930}],"translators":[],"subjects":["Hopi Indians -- Religion","Hopi Indians -- Rites and ceremonies","Indians of North America","Indians of North America -- Arizona -- Rites and ceremonies","Snake dance"],"bookshelves":[],"languages":["en"],"copyright":false,"media_type":"Text","formats":{"text/html":"https://www.gutenberg.org/ebooks/70076.html.images","application/epub+zip":"https://www.gutenberg.org/ebooks/70076.epub3.images","application/x-mobipocket-ebook":"https://www.gutenberg.org/ebooks/70076.kf8.images","text/plain; charset=us-ascii":"https://www.gutenberg.org/ebooks/70076.txt.utf-8","application/rdf+xml":"https://www.gutenberg.org/ebooks/70076.rdf","image/jpeg":"https://www.gutenberg.org/cache/epub/70076/pg70076.cover.medium.jpg","application/octet-stream":"https://www.gutenberg.org/files/70076/70076-0.zip"},"download_count":14},{"id":70077,"title":"Beyond the sunset","authors":[{"name":"Smith, Arthur D. Howden (Arthur Douglas Howden)","birth_year":1887,"death_year":1945}],"translators":[],"subjects":["Adventure stories","Grief -- Fiction","Indian mythology -- North America -- Fiction","Indians of North America -- Fiction","Race relations -- Fiction"],"bookshelves":[],"languages":["en"],"copyright":false,"media_type":"Text","formats":{"text/html":"https://www.gutenberg.org/ebooks/70077.html.images","application/epub+zip":"https://www.gutenberg.org/ebooks/70077.epub3.images","application/x-mobipocket-ebook":"https://www.gutenberg.org/ebooks/70077.kf8.images","text/plain; charset=us-ascii":"https://www.gutenberg.org/ebooks/70077.txt.utf-8","application/rdf+xml":"https://www.gutenberg.org/ebooks/70077.rdf","image/jpeg":"https://www.gutenberg.org/cache/epub/70077/pg70077.cover.medium.jpg","application/octet-stream":"https://www.gutenberg.org/files/70077/70077-0.zip"},"download_count":14},{"id":70078,"title":"The heathery; or, A monograph of the genus Erica. vol. 2","authors":[{"name":"Andrews, Henry Cranke, active 1799-1828","birth_year":null,"death_year":null}],"translators":[],"subjects":["Ericas","Ericas -- Pictorial works"],"bookshelves":[],"languages":["en"],"copyright":false,"media_type":"Text","formats":{"text/html":"https://www.gutenberg.org/ebooks/70078.html.images","application/epub+zip":"https://www.gutenberg.org/ebooks/70078.epub3.images","application/x-mobipocket-ebook":"https://www.gutenberg.org/ebooks/70078.kf8.images","text/plain; charset=us-ascii":"https://www.gutenberg.org/ebooks/70078.txt.utf-8","application/rdf+xml":"https://www.gutenberg.org/ebooks/70078.rdf","image/jpeg":"https://www.gutenberg.org/cache/epub/70078/pg70078.cover.medium.jpg","application/octet-stream":"https://www.gutenberg.org/files/70078/70078-0.zip"},"download_count":14},{"id":70085,"title":"The heathery; or, A monograph of the genus Erica. vol. 4","authors":[{"name":"Andrews, Henry Cranke, active 1799-1828","birth_year":null,"death_year":null}],"translators":[],"subjects":["Ericas","Ericas -- Pictorial works"],"bookshelves":[],"languages":["en"],"copyright":false,"media_type":"Text","formats":{"text/html":"https://www.gutenberg.org/ebooks/70085.html.images","application/epub+zip":"https://www.gutenberg.org/ebooks/70085.epub3.images","application/x-mobipocket-ebook":"https://www.gutenberg.org/ebooks/70085.kf8.images","text/plain; charset=us-ascii":"https://www.gutenberg.org/ebooks/70085.txt.utf-8","application/rdf+xml":"https://www.gutenberg.org/ebooks/70085.rdf","image/jpeg":"https://www.gutenberg.org/cache/epub/70085/pg70085.cover.medium.jpg","application/octet-stream":"https://www.gutenberg.org/files/70085/70085-0.zip"},"download_count":14},{"id":70097,"title":"A new note in the Christmas Carol","authors":[{"name":"Mingins, Clara Wood","birth_year":1860,"death_year":null}],"translators":[],"subjects":["Christian life -- Fiction","Christmas stories","Missing children -- Fiction","Motherless families -- Fiction"],"bookshelves":[],"languages":["en"],"copyright":false,"media_type":"Text","formats":{"text/html":"https://www.gutenberg.org/ebooks/70097.html.images","application/epub+zip":"https://www.gutenberg.org/ebooks/70097.epub3.images","application/x-mobipocket-ebook":"https://www.gutenberg.org/ebooks/70097.kf8.images","text/plain; charset=us-ascii":"https://www.gutenberg.org/ebooks/70097.txt.utf-8","application/rdf+xml":"https://www.gutenberg.org/ebooks/70097.rdf","image/jpeg":"https://www.gutenberg.org/cache/epub/70097/pg70097.cover.medium.jpg","application/octet-stream":"https://www.gutenberg.org/files/70097/70097-0.zip"},"download_count":14}]}