{"count":58808,"next":"http://129.241.150.113:8000/books/?languages=en&page=1767","previous":"http://129.241.150.113:8000/books/?languages=en&page=1765","results":[{"id":66267,"title":"Chambers's Journal of Popular Literature, Science, and Art, Fifth Series, No. 39, Vol. I, September 27, 1884","authors":[{"name":"Various","birth_year":null,"death_year":null}],"translators":[],"subjects":["Periodicals"],"bookshelves":[],"languages":["en"],"copyright":false,"media_type":"Text","formats":{"text/html":"https://www.gutenberg.org/ebooks/66267.html.images","application/epub+zip":"https://www.gutenberg.org/ebooks/66267.epub3.images","application/x-mobipocket-ebook":"https://www.gutenberg.org/ebooks/66267.kf8.images","text/plain; charset=us-ascii":"https://www.gutenberg.org/ebooks/66267.txt.utf-8","application/rdf+xml":"https://www.gutenberg.org/ebooks/66267.rdf","image/jpeg":"https://www.gutenberg.org/cache/epub/66267/pg66267.cover.medium.jpg","application/octet-stream":"https://www.gutenberg.org/files/66267/66267-0.zip"},"download_count":15},{"id":66282,"title":"A Soldier's Home Is Battle","authors":[{"name":"Stone, Lowell","birth_year":null,"death_year":null}],"translators":[],"subjects":["Nuclear warfare -- Fiction","Science fiction","Short stories","Soldiers -- Fiction"],"bookshelves":[],"languages":["en"],"copyright":false,"media_type":"Text","formats":{"text/html":"https://www.gutenberg.org/ebooks/66282.html.images","application/epub+zip":"https://www.gutenberg.org/ebooks/66282.epub3.images","application/x-mobipocket-ebook":"https://www.gutenberg.org/ebooks/66282.kf8.images","text/plain; charset=us-ascii":"https://www.gutenberg.org/ebooks/66282.txt.utf-8","application/rdf+xml":"https://www.gutenberg.org/ebooks/66282.rdf","image/jpeg":"https://www.gutenberg.org/cache/epub/66282/pg66282.cover.medium.jpg","application/octet-stream":"https://www.gutenberg.org/files/66282/66282-0.zip"},"download_count":15},{"id":66364,"title":"Guide to the Norris Geyser Basin","authors":[{"name":"Algard, George A.","birth_year":1941,"death_year":2012}],"translators":[],"subjects":["Norris Geyser Basin (Wyo.) -- Guidebooks"],"bookshelves":[],"languages":["en"],"copyright":false,"media_type":"Text","formats":{"text/html":"https://www.gutenberg.org/ebooks/66364.html.images","application/epub+zip":"https://www.gutenberg.org/ebooks/66364.epub3.images","application/x-mobipocket-ebook":"https://www.gutenberg.org/ebooks/66364.kf8.images","text/plain; charset=us-ascii":"https://www.gutenberg.org/ebooks/66364.txt.utf-8","application/rdf+xml":"https://www.gutenberg.org/ebooks/66364.rdf","image/jpeg":"https://www.gutenberg.org/cache/epub/66364/pg66364.cover.medium.jpg","application/octet-stream":"https://www.gutenberg.org/files/66364/66364-0.zip"},"download_count":15},{"id":66580,"title":"Colville of the Guards, Volume 1 (of 3)","authors":[{"name":"Grant, James","birth_year":1822,"death_year":1887}],"translators":[],"subjects":["British -- Afghanistan -- Fiction","Soldiers -- Fiction"],"bookshelves":[],"languages":["en"],"copyright":false,"media_type":"Text","formats":{"text/html":"https://www.gutenberg.org/ebooks/66580.html.images","application/epub+zip":"https://www.gutenberg.org/ebooks/66580.epub3.images","application/x-mobipocket-ebook":"https://www.gutenberg.org/ebooks/66580.kf8.images","text/plain; charset=us-ascii":"https://www.gutenberg.org/ebooks/66580.txt.utf-8","application/rdf+xml":"https://www.gutenberg.org/ebooks/66580.rdf","image/jpeg":"https://www.gutenberg.org/cache/epub/66580/pg66580.cover.medium.jpg","application/octet-stream":"https://www.gutenberg.org/files/66580/66580-0.zip"},"download_count":15},{"id":66634,"title":"Guide to the Canyon Area","authors":[{"name":"United States. National Park Service","birth_year":null,"death_year":null},{"name":"Yellowstone Library and Museum Association","birth_year":null,"death_year":null}],"translators":[],"subjects":["Grand Canyon of the Yellowstone (Wyo.) -- Guidebooks"],"bookshelves":[],"languages":["en"],"copyright":false,"media_type":"Text","formats":{"text/html":"https://www.gutenberg.org/ebooks/66634.html.images","application/epub+zip":"https://www.gutenberg.org/ebooks/66634.epub3.images","application/x-mobipocket-ebook":"https://www.gutenberg.org/ebooks/66634.kf8.images","text/plain; charset=us-ascii":"https://www.gutenberg.org/ebooks/66634.txt.utf-8","application/rdf+xml":"https://www.gutenberg.org/ebooks/66634.rdf","image/jpeg":"https://www.gutenberg.org/cache/epub/66634/pg66634.cover.medium.jpg","application/octet-stream":"https://www.gutenberg.org/files/66634/66634-0.zip"},"download_count":15},{"id":66635,"title":"Chambers's Journal of Popular Literature, Science, and Art, Fifth Series, No. 49, Vol. I, December 6, 1884","authors":[{"name":"Various","birth_year":null,"death_year":null}],"translators":[],"subjects":["Periodicals"],"bookshelves":[],"languages":["en"],"copyright":false,"media_type":"Text","formats":{"text/html":"https://www.gutenberg.org/ebooks/66635.html.images","application/epub+zip":"https://www.gutenberg.org/ebooks/66635.epub3.images","application/x-mobipocket-ebook":"https://www.gutenberg.org/ebooks/66635.kf8.images","text/plain; charset=us-ascii":"https://www.gutenberg.org/ebooks/66635.txt.utf-8","application/rdf+xml":"https://www.gutenberg.org/ebooks/66635.rdf","image/jpeg":"https://www.gutenberg.org/cache/epub/66635/pg66635.cover.medium.jpg","application/octet-stream":"https://www.gutenberg.org/files/66635/66635-0.zip"},"download_count":15},{"id":66830,"title":"The Girl's Own Paper, Vol. VIII, No. 375, March 5, 1887","authors":[{"name":"Various","birth_year":null,"death_year":null}],"translators":[],"subjects":["Children's literature -- Periodicals"],"bookshelves":[],"languages":["en"],"copyright":false,"media_type":"Text","formats":{"text/html":"https://www.gutenberg.org/ebooks/66830.html.images","application/epub+zip":"https://www.gutenberg.org/ebooks/66830.epub3.images","application/x-mobipocket-ebook":"https://www.gutenberg.org/ebooks/66830.kf8.images","text/plain; charset=us-ascii":"https://www.gutenberg.org/ebooks/66830.txt.utf-8","application/rdf+xml":"https://www.gutenberg.org/ebooks/66830.rdf","image/jpeg":"https://www.gutenberg.org/cache/epub/66830/pg66830.cover.medium.jpg","application/octet-stream":"https://www.gutenberg.org/files/66830/66830-0.zip"},"download_count":15},{"id":66856,"title":"Hilaire Belloc: No Alienated Man; A Study in Christian Integration","authors":[{"name":"Wilhelmsen, Frederick D.","birth_year":1923,"death_year":1996}],"translators":[],"subjects":["Authors, English -- 20th century -- Biography","Belloc, Hilaire, 1870-1953"],"bookshelves":[],"languages":["en"],"copyright":false,"media_type":"Text","formats":{"text/html":"https://www.gutenberg.org/ebooks/66856.html.images","application/epub+zip":"https://www.gutenberg.org/ebooks/66856.epub3.images","application/x-mobipocket-ebook":"https://www.gutenberg.org/ebooks/66856.kf8.images","text/plain; charset=us-ascii":"https://www.gutenberg.org/ebooks/66856.txt.utf-8","application/rdf+xml":"https://www.gutenberg.org/ebooks/66856.rdf","image/jpeg":"https://www.gutenberg.org/cache/epub/66856/pg66856.cover.medium.jpg","application/octet-stream":"https://www.gutenberg.org/files/66856/66856-0.zip"},"download_count":15},{"id":67007,"title":"An Attempt to Investigate the Seat of Animal Life","authors":[{"name":"Curtis, Henry","birth_year":1792,"death_year":1862}],"translators":[],"subjects":["Life (Biology)","Thesis (M.D.)"],"bookshelves":[],"languages":["en"],"copyright":false,"media_type":"Text","formats":{"text/html":"https://www.gutenberg.org/ebooks/67007.html.images","application/epub+zip":"https://www.gutenberg.org/ebooks/67007.epub3.images","application/x-mobipocket-ebook":"https://www.gutenberg.org/ebooks/67007.kf8.images","text/plain; charset=us-ascii":"https://www.gutenberg.org/ebooks/67007.txt.utf-8","application/rdf+xml":"https://www.gutenberg.org/ebooks/67007.rdf","image/jpeg":"https://www.gutenberg.org/cache/epub/67007/pg67007.cover.medium.jpg","application/octet-stream":"https://www.gutenberg.org/files/67007/67007-0.zip"},"download_count":15},{"id":67047,"title":"The Little Review, December 1915 (Vol. 2, No. 9)","authors":[{"name":"Various","birth_year":null,"death_year":null}],"translators":[],"subjects":["Literature, Modern -- 20th century -- Periodicals"],"bookshelves":[],"languages":["en"],"copyright":false,"media_type":"Text","formats":{"text/html":"https://www.gutenberg.org/ebooks/67047.html.images","application/epub+zip":"https://www.gutenberg.org/ebooks/67047.epub3.images","application/x-mobipocket-ebook":"https://www.gutenberg.org/ebooks/67047.kf8.images","text/plain; charset=us-ascii":"https://www.gutenberg.org/ebooks/67047.txt.utf-8","application/rdf+xml":"https://www.gutenberg.org/ebooks/67047.rdf","image/jpeg":"https://www.gutenberg.org/cache/epub/67047/pg67047.cover.medium.jpg","application/octet-stream":"https://www.gutenberg.org/files/67047/67047-0.zip"},"download_count":15},{"id":67069,"title":"Apollo and Marsyas, and Other Poems","authors":[{"name":"Lee-Hamilton, Eugene","birth_year":1845,"death_year":1907}],"translators":[],"subjects":["English poetry -- 19th century"],"bookshelves":[],"languages":["en"],"copyright":false,"media_type":"Text","formats":{"text/html":"https://www.gutenberg.org/ebooks/67069.html.images","application/epub+zip":"https://www.gutenberg.org/ebooks/67069.epub3.images","application/x-mobipocket-ebook":"https://www.gutenberg.org/ebooks/67069.kf8.images","text/plain; charset=us-ascii":"https://www.gutenberg.org/ebooks/67069.txt.utf-8","application/rdf+xml":"https://www.gutenberg.org/ebooks/67069.rdf","image/jpeg":"https://www.gutenberg.org/cache/epub/67069/pg67069.cover.medium.jpg","application/octet-stream":"https://www.gutenberg.org/files/67069/67069-0.zip"},"download_count":15},{"id":67093,"title":"Sidelights on Negro Soldiers","authors":[{"name":"Williams, Charles H. (Charles Halston)","birth_year":1886,"death_year":null}],"translators":[],"subjects":["World War, 1914-1918 -- Participation, African American"],"bookshelves":[],"languages":["en"],"copyright":false,"media_type":"Text","formats":{"text/html":"https://www.gutenberg.org/ebooks/67093.html.images","application/epub+zip":"https://www.gutenberg.org/ebooks/67093.epub3.images","application/x-mobipocket-ebook":"https://www.gutenberg.org/ebooks/67093.kf8.images","text/plain; charset=us-ascii":"https://www.gutenberg.org/ebooks/67093.txt.utf-8","application/rdf+xml":"https://www.gutenberg.org/ebooks/67093.rdf","image/jpeg":"https://www.gutenberg.org/cache/epub/67093/pg67093.cover.medium.jpg","application/octet-stream":"https://www.gutenberg.org/files/67093/67093-0.zip"},"download_count":15},{"id":67270,"title":"The American Navy","authors":[{"name":"Chadwick, French Ensor","birth_year":1844,"death_year":1919}],"translators":[],"subjects":["United States -- History, Naval","United States. Navy -- History"],"bookshelves":[],"languages":["en"],"copyright":false,"media_type":"Text","formats":{"text/html":"https://www.gutenberg.org/ebooks/67270.html.images","application/epub+zip":"https://www.gutenberg.org/ebooks/67270.epub3.images","application/x-mobipocket-ebook":"https://www.gutenberg.org/ebooks/67270.kf8.images","text/plain; charset=us-ascii":"https://www.gutenberg.org/ebooks/67270.txt.utf-8","application/rdf+xml":"https://www.gutenberg.org/ebooks/67270.rdf","image/jpeg":"https://www.gutenberg.org/cache/epub/67270/pg67270.cover.medium.jpg","application/octet-stream":"https://www.gutenberg.org/files/67270/67270-0.zip"},"download_count":15},{"id":67271,"title":"Chit-chat, or Short Tales in Short Words","authors":[{"name":"Budden, Maria Elizabeth","birth_year":null,"death_year":1832}],"translators":[],"subjects":["Children's stories, American"],"bookshelves":[],"languages":["en"],"copyright":false,"media_type":"Text","formats":{"text/html":"https://www.gutenberg.org/ebooks/67271.html.images","application/epub+zip":"https://www.gutenberg.org/ebooks/67271.epub3.images","application/x-mobipocket-ebook":"https://www.gutenberg.org/ebooks/67271.kf8.images","text/plain; charset=us-ascii":"https://www.gutenberg.org/ebooks/67271.txt.utf-8","application/rdf+xml":"https://www.gutenberg.org/ebooks/67271.rdf","image/jpeg":"https://www.gutenberg.org/cache/epub/67271/pg67271.cover.medium.jpg","application/octet-stream":"https://www.gutenberg.org/files/67271/67271-0.zip"},"download_count":15},{"id":67321,"title":"The Co-opolitan: A Story of the Co-operative Commonwealth of Idaho","authors":[{"name":"Forbush, Zebina","birth_year":null,"death_year":null}],"translators":[],"subjects":["Cooperative societies -- Fiction","Idaho -- Fiction","Utopian fiction","Utopias -- Fiction"],"bookshelves":[],"languages":["en"],"copyright":false,"media_type":"Text","formats":{"text/html":"https://www.gutenberg.org/ebooks/67321.html.images","application/epub+zip":"https://www.gutenberg.org/ebooks/67321.epub3.images","application/x-mobipocket-ebook":"https://www.gutenberg.org/ebooks/67321.kf8.images","text/plain; charset=us-ascii":"https://www.gutenberg.org/ebooks/67321.txt.utf-8","application/rdf+xml":"https://www.gutenberg.org/ebooks/67321.rdf","image/jpeg":"https://www.gutenberg.org/cache/epub/67321/pg67321.cover.medium.jpg","application/octet-stream":"https://www.gutenberg.org/files/67321/67321-0.zip"},"download_count":15},{"id":67374,"title":"Caleb Conover, Railroader","authors":[{"name":"Terhune, Albert Payson","birth_year":1872,"death_year":1942}],"translators":[],"subjects":["American fiction -- 20th century","Political fiction","Railroad stories","West (U.S.) -- Fiction"],"bookshelves":[],"languages":["en"],"copyright":false,"media_type":"Text","formats":{"text/html":"https://www.gutenberg.org/ebooks/67374.html.images","application/epub+zip":"https://www.gutenberg.org/ebooks/67374.epub3.images","application/x-mobipocket-ebook":"https://www.gutenberg.org/ebooks/67374.kf8.images","text/plain; charset=us-ascii":"https://www.gutenberg.org/ebooks/67374.txt.utf-8","application/rdf+xml":"https://www.gutenberg.org/ebooks/67374.rdf","image/jpeg":"https://www.gutenberg.org/cache/epub/67374/pg67374.cover.medium.jpg","application/octet-stream":"https://www.gutenberg.org/files/67374/67374-0.zip"},"download_count":15},{"id":67412,"title":"The Corsican Lovers","authors":[{"name":"Pidgin, Charles Felton","birth_year":1844,"death_year":1923}],"translators":[],"subjects":["Corsica (France) -- Fiction"],"bookshelves":[],"languages":["en"],"copyright":false,"media_type":"Text","formats":{"text/html":"https://www.gutenberg.org/ebooks/67412.html.images","application/epub+zip":"https://www.gutenberg.org/ebooks/67412.epub3.images","application/x-mobipocket-ebook":"https://www.gutenberg.org/ebooks/67412.kf8.images","text/plain; charset=us-ascii":"https://www.gutenberg.org/ebooks/67412.txt.utf-8","application/rdf+xml":"https://www.gutenberg.org/ebooks/67412.rdf","image/jpeg":"https://www.gutenberg.org/cache/epub/67412/pg67412.cover.medium.jpg","application/octet-stream":"https://www.gutenberg.org/files/67412/67412-0.zip"},"download_count":15},{"id":67447,"title":"An Authentic History of the Cato-Street Conspiracy: With the trials at large of the conspirators, for high treason and murder, a description of their weapons and combustible machines, and every particular connected with the rise, progress, discovery, and termination of the horrid plot","authors":[{"name":"Wilkinson, George Theodore","birth_year":null,"death_year":null}],"translators":[],"subjects":["Cato Street Conspiracy, 1820","Great Britain -- History -- George IV, 1820-1830","Thistlewood, Arthur, 1770-1820 -- Trials, litigation, etc.","Trials (Murder) -- England -- London","Trials (Treason) -- England -- London"],"bookshelves":[],"languages":["en"],"copyright":false,"media_type":"Text","formats":{"text/html":"https://www.gutenberg.org/ebooks/67447.html.images","application/epub+zip":"https://www.gutenberg.org/ebooks/67447.epub3.images","application/x-mobipocket-ebook":"https://www.gutenberg.org/ebooks/67447.kf8.images","text/plain; charset=us-ascii":"https://www.gutenberg.org/ebooks/67447.txt.utf-8","application/rdf+xml":"https://www.gutenberg.org/ebooks/67447.rdf","image/jpeg":"https://www.gutenberg.org/cache/epub/67447/pg67447.cover.medium.jpg","application/octet-stream":"https://www.gutenberg.org/files/67447/67447-0.zip"},"download_count":15},{"id":67496,"title":"Over the Wire","authors":[{"name":"Jones, Eugene","birth_year":null,"death_year":null}],"translators":[],"subjects":["Ghost stories","Railroad stories","Short stories","Telegraphers -- Fiction"],"bookshelves":[],"languages":["en"],"copyright":false,"media_type":"Text","formats":{"text/html":"https://www.gutenberg.org/ebooks/67496.html.images","application/epub+zip":"https://www.gutenberg.org/ebooks/67496.epub3.images","application/x-mobipocket-ebook":"https://www.gutenberg.org/ebooks/67496.kf8.images","text/plain; charset=us-ascii":"https://www.gutenberg.org/ebooks/67496.txt.utf-8","application/rdf+xml":"https://www.gutenberg.org/ebooks/67496.rdf","image/jpeg":"https://www.gutenberg.org/cache/epub/67496/pg67496.cover.medium.jpg","application/octet-stream":"https://www.gutenberg.org/files/67496/67496-0.zip"},"download_count":15},{"id":67562,"title":"Our Village in War-time","authors":[{"name":"Martyn, S. T. (Sarah Towne)","birth_year":1805,"death_year":1879}],"translators":[],"subjects":["Soldiers -- Services for -- United States -- Juvenile fiction","Sunday school literature","United States -- History -- Civil War, 1861-1865 -- Juvenile fiction"],"bookshelves":[],"languages":["en"],"copyright":false,"media_type":"Text","formats":{"text/html":"https://www.gutenberg.org/ebooks/67562.html.images","application/epub+zip":"https://www.gutenberg.org/ebooks/67562.epub3.images","application/x-mobipocket-ebook":"https://www.gutenberg.org/ebooks/67562.kf8.images","text/plain; charset=us-ascii":"https://www.gutenberg.org/ebooks/67562.txt.utf-8","application/rdf+xml":"https://www.gutenberg.org/ebooks/67562.rdf","image/jpeg":"https://www.gutenberg.org/cache/epub/67562/pg67562.cover.medium.jpg","application/octet-stream":"https://www.gutenberg.org/files/67562/67562-0.zip"},"download_count":15},{"id":67641,"title":"Idealia, a Utopian Dream; or, Resthaven","authors":[{"name":"Thompson, H. Alfarata Chapman (Harriet Alfarata Chapman)","birth_year":1871,"death_year":1922}],"translators":[],"subjects":["Utopian fiction","Utopias -- Fiction"],"bookshelves":[],"languages":["en"],"copyright":false,"media_type":"Text","formats":{"text/html":"https://www.gutenberg.org/ebooks/67641.html.images","application/epub+zip":"https://www.gutenberg.org/ebooks/67641.epub3.images","application/x-mobipocket-ebook":"https://www.gutenberg.org/ebooks/67641.kf8.images","text/plain; charset=us-ascii":"https://www.gutenberg.org/ebooks/67641.txt.utf-8","application/rdf+xml":"https://www.gutenberg.org/ebooks/67641.rdf","image/jpeg":"https://www.gutenberg.org/cache/epub/67641/pg67641.cover.medium.jpg","application/octet-stream":"https://www.gutenberg.org/files/67641/67641-0.zip"},"download_count":15},{"id":67689,"title":"Cousin Lucy at Play: By the Author of the Rollo Books","authors":[{"name":"Abbott, Jacob","birth_year":1803,"death_year":1879}],"translators":[],"subjects":["Amusements -- Juvenile fiction","Children -- Conduct of life -- Juvenile fiction","Conduct of life -- Juvenile fiction","Games -- Juvenile fiction","Reading -- Juvenile fiction","Siblings -- Juvenile fiction"],"bookshelves":[],"languages":["en"],"copyright":false,"media_type":"Text","formats":{"text/html":"https://www.gutenberg.org/ebooks/67689.html.images","application/epub+zip":"https://www.gutenberg.org/ebooks/67689.epub3.images","application/x-mobipocket-ebook":"https://www.gutenberg.org/ebooks/67689.kf8.images","text/plain; charset=us-ascii":"https://www.gutenberg.org/ebooks/67689.txt.utf-8","application/rdf+xml":"https://www.gutenberg.org/ebooks/67689.rdf","image/jpeg":"https://www.gutenberg.org/cache/epub/67689/pg67689.cover.medium.jpg","application/octet-stream":"https://www.gutenberg.org/files/67689/67689-0.zip"},"download_count":15},{"id":67781,"title":"Bully Bull Frog and His Home in Rainbow Valley","authors":[{"name":"Fry, Elizabeth Stafford","birth_year":null,"death_year":null}],"translators":[],"subjects":["Animals -- Juvenile fiction","Frogs -- Juvenile fiction"],"bookshelves":[],"languages":["en"],"copyright":false,"media_type":"Text","formats":{"text/html":"https://www.gutenberg.org/ebooks/67781.html.images","application/epub+zip":"https://www.gutenberg.org/ebooks/67781.epub3.images","application/x-mobipocket-ebook":"https://www.gutenberg.org/ebooks/67781.kf8.images","text/plain; charset=us-ascii":"https://www.gutenberg.org/ebooks/67781.txt.utf-8","application/rdf+xml":"https://www.gutenberg.org/ebooks/67781.rdf","image/jpeg":"https://www.gutenberg.org/cache/epub/67781/pg67781.cover.medium.jpg","application/octet-stream":"https://www.gutenberg.org/files/67781/67781-0.zip"},"download_count":15},{"id":67881,"title":"Hilda Strafford: A California Story","authors":[{"name":"Harraden, Beatrice","birth_year":1864,"death_year":1936}],"translators":[],"subjects":["California -- Fiction","Married women -- Fiction","Ranches -- Fiction"],"bookshelves":[],"languages":["en"],"copyright":false,"media_type":"Text","formats":{"text/html":"https://www.gutenberg.org/ebooks/67881.html.images","application/epub+zip":"https://www.gutenberg.org/ebooks/67881.epub3.images","application/x-mobipocket-ebook":"https://www.gutenberg.org/ebooks/67881.kf8.images","text/plain; charset=us-ascii":"https://www.gutenberg.org/ebooks/67881.txt.utf-8","application/rdf+xml":"https://www.gutenberg.org/ebooks/67881.rdf","image/jpeg":"https://www.gutenberg.org/cache/epub/67881/pg67881.cover.medium.jpg","application/octet-stream":"https://www.gutenberg.org/files/67881/67881-0.zip"},"download_count":15},{"id":67957,"title":"Mr. Keegan's Elopement","authors":[{"name":"Churchill, Winston","birth_year":1871,"death_year":1947}],"translators":[],"subjects":["Elopement -- Fiction","Madeira Islands -- Fiction","United States. Navy -- Officers -- Fiction"],"bookshelves":[],"languages":["en"],"copyright":false,"media_type":"Text","formats":{"text/html":"https://www.gutenberg.org/ebooks/67957.html.images","application/epub+zip":"https://www.gutenberg.org/ebooks/67957.epub3.images","application/x-mobipocket-ebook":"https://www.gutenberg.org/ebooks/67957.kf8.images","text/plain; charset=us-ascii":"https://www.gutenberg.org/ebooks/67957.txt.utf-8","application/rdf+xml":"https://www.gutenberg.org/ebooks/67957.rdf","image/jpeg":"https://www.gutenberg.org/cache/epub/67957/pg67957.cover.medium.jpg","application/octet-stream":"https://www.gutenberg.org/files/67957/67957-0.zip"},"download_count":15},{"id":68013,"title":"Fors Clavigera (Volume 5 of 8): Letters to the workmen and labourers of Great Britain","authors":[{"name":"Ruskin, John","birth_year":1819,"death_year":1900}],"translators":[],"subjects":["Aesthetics","Conduct of life","Great Britain -- Social conditions -- 19th century","Social problems","Working class -- Great Britain"],"bookshelves":[],"languages":["en"],"copyright":false,"media_type":"Text","formats":{"text/html":"https://www.gutenberg.org/ebooks/68013.html.images","application/epub+zip":"https://www.gutenberg.org/ebooks/68013.epub3.images","application/x-mobipocket-ebook":"https://www.gutenberg.org/ebooks/68013.kf8.images","text/plain; charset=us-ascii":"https://www.gutenberg.org/ebooks/68013.txt.utf-8","application/rdf+xml":"https://www.gutenberg.org/ebooks/68013.rdf","image/jpeg":"https://www.gutenberg.org/cache/epub/68013/pg68013.cover.medium.jpg","application/octet-stream":"https://www.gutenberg.org/files/68013/68013-0.zip"},"download_count":15},{"id":68021,"title":"The Yale Literary Magazine (Vol. LXXXVIII, No. 3, December 1922)","authors":[{"name":"Various","birth_year":null,"death_year":null}],"translators":[],"subjects":["College students' writings, American -- Connecticut -- New Haven -- Periodicals","Yale University -- Periodicals"],"bookshelves":[],"languages":["en"],"copyright":false,"media_type":"Text","formats":{"text/html":"https://www.gutenberg.org/ebooks/68021.html.images","application/epub+zip":"https://www.gutenberg.org/ebooks/68021.epub3.images","application/x-mobipocket-ebook":"https://www.gutenberg.org/ebooks/68021.kf8.images","text/plain; charset=us-ascii":"https://www.gutenberg.org/ebooks/68021.txt.utf-8","application/rdf+xml":"https://www.gutenberg.org/ebooks/68021.rdf","image/jpeg":"https://www.gutenberg.org/cache/epub/68021/pg68021.cover.medium.jpg","application/octet-stream":"https://www.gutenberg.org/files/68021/68021-0.zip"},"download_count":15},{"id":68048,"title":"The Big Mogul","authors":[{"name":"Lincoln, Joseph Crosby","birth_year":1870,"death_year":1944}],"translators":[],"subjects":["American fiction -- 20th century"],"bookshelves":[],"languages":["en"],"copyright":false,"media_type":"Text","formats":{"text/html":"https://www.gutenberg.org/ebooks/68048.html.images","application/epub+zip":"https://www.gutenberg.org/ebooks/68048.epub3.images","application/x-mobipocket-ebook":"https://www.gutenberg.org/ebooks/68048.kf8.images","text/plain; charset=us-ascii":"https://www.gutenberg.org/ebooks/68048.txt.utf-8","application/rdf+xml":"https://www.gutenberg.org/ebooks/68048.rdf","image/jpeg":"https://www.gutenberg.org/cache/epub/68048/pg68048.cover.medium.jpg","application/octet-stream":"https://www.gutenberg.org/files/68048/68048-0.zip"},"download_count":15},{"id":68063,"title":"The Red Vineyard","authors":[{"name":"Murdoch, B. J. (Benedict Joseph)","birth_year":1886,"death_year":1973}],"translators":[],"subjects":["Murdoch, B. J. (Benedict Joseph), 1886-1973","World War, 1914-1918 -- Chaplains -- Canada -- Biography","World War, 1914-1918 -- Personal narratives, Canadian"],"bookshelves":[],"languages":["en"],"copyright":false,"media_type":"Text","formats":{"text/html":"https://www.gutenberg.org/ebooks/68063.html.images","application/epub+zip":"https://www.gutenberg.org/ebooks/68063.epub3.images","application/x-mobipocket-ebook":"https://www.gutenberg.org/ebooks/68063.kf8.images","text/plain; charset=us-ascii":"https://www.gutenberg.org/ebooks/68063.txt.utf-8","application/rdf+xml":"https://www.gutenberg.org/ebooks/68063.rdf","image/jpeg":"https://www.gutenberg.org/cache/epub/68063/pg68063.cover.medium.jpg","application/octet-stream":"https://www.gutenberg.org/files/68063/68063-0.zip"},"download_count":15},{"id":68194,"title":"Love and tea: A comedy-drama of colonial times in two acts","authors":[{"name":"See, Anna Phillips","birth_year":null,"death_year":null}],"translators":[],"subjects":["United States -- History -- Revolution, 1775-1783 -- Drama"],"bookshelves":[],"languages":["en"],"copyright":false,"media_type":"Text","formats":{"text/html":"https://www.gutenberg.org/ebooks/68194.html.images","application/epub+zip":"https://www.gutenberg.org/ebooks/68194.epub3.images","application/x-mobipocket-ebook":"https://www.gutenberg.org/ebooks/68194.kf8.images","text/plain; charset=us-ascii":"https://www.gutenberg.org/ebooks/68194.txt.utf-8","application/rdf+xml":"https://www.gutenberg.org/ebooks/68194.rdf","image/jpeg":"https://www.gutenberg.org/cache/epub/68194/pg68194.cover.medium.jpg","application/octet-stream":"https://www.gutenberg.org/files/68194/68194-0.zip"},"download_count":15},{"id":68204,"title":"Ballads from the Danish and Original Verses","authors":[{"name":"Smith-Dampier, E. M.","birth_year":null,"death_year":null}],"translators":[],"subjects":["Danish poetry -- Translations into English","English poetry"],"bookshelves":[],"languages":["en"],"copyright":false,"media_type":"Text","formats":{"text/html":"https://www.gutenberg.org/ebooks/68204.html.images","application/epub+zip":"https://www.gutenberg.org/ebooks/68204.epub3.images","application/x-mobipocket-ebook":"https://www.gutenberg.org/ebooks/68204.kf8.images","text/plain; charset=us-ascii":"https://www.gutenberg.org/ebooks/68204.txt.utf-8","application/rdf+xml":"https://www.gutenberg.org/ebooks/68204.rdf","image/jpeg":"https://www.gutenberg.org/cache/epub/68204/pg68204.cover.medium.jpg","application/octet-stream":"https://www.gutenberg.org/files/68204/68204-0.zip"},"download_count":15},{"id":68248,"title":"My twin kitties","authors":[{"name":"Deihl, Edna Groff","birth_year":1881,"death_year":1935}],"translators":[],"subjects":["Animal welfare -- Juvenile fiction","Cats -- Juvenile fiction","Children and animals -- Juvenile fiction","Girls -- Juvenile fiction","Human-animal relationships -- Juvenile fiction","Kittens -- Juvenile fiction","Pets -- Juvenile fiction"],"bookshelves":[],"languages":["en"],"copyright":false,"media_type":"Text","formats":{"text/html":"https://www.gutenberg.org/ebooks/68248.html.images","application/epub+zip":"https://www.gutenberg.org/ebooks/68248.epub3.images","application/x-mobipocket-ebook":"https://www.gutenberg.org/ebooks/68248.kf8.images","text/plain; charset=us-ascii":"https://www.gutenberg.org/ebooks/68248.txt.utf-8","application/rdf+xml":"https://www.gutenberg.org/ebooks/68248.rdf","image/jpeg":"https://www.gutenberg.org/cache/epub/68248/pg68248.cover.medium.jpg","application/octet-stream":"https://www.gutenberg.org/files/68248/68248-0.zip"},"download_count":15}]}