{"count":58808,"next":"http://129.241.150.113:8000/books/?languages=en&page=1054","previous":"http://129.241.150.113:8000/books/?languages=en&page=1052","results":[{"id":68134,"title":"The book of earth","authors":[{"name":"Noyes, Alfred","birth_year":1880,"death_year":1958}],"translators":[],"subjects":["Scientists -- Poetry"],"bookshelves":[],"languages":["en"],"copyright":false,"media_type":"Text","formats":{"text/html":"https://www.gutenberg.org/ebooks/68134.html.images","application/epub+zip":"https://www.gutenberg.org/ebooks/68134.epub3.images","application/x-mobipocket-ebook":"https://www.gutenberg.org/ebooks/68134.kf8.images","text/plain; charset=us-ascii":"https://www.gutenberg.org/ebooks/68134.txt.utf-8","application/rdf+xml":"https://www.gutenberg.org/ebooks/68134.rdf","image/jpeg":"https://www.gutenberg.org/cache/epub/68134/pg68134.cover.medium.jpg","application/octet-stream":"https://www.gutenberg.org/files/68134/68134-0.zip"},"download_count":35},{"id":68202,"title":"Noon","authors":[{"name":"Kuttner, Henry","birth_year":1915,"death_year":1958}],"translators":[],"subjects":["Science fiction","Short stories","Time travel -- Fiction"],"bookshelves":[],"languages":["en"],"copyright":false,"media_type":"Text","formats":{"text/html":"https://www.gutenberg.org/ebooks/68202.html.images","application/epub+zip":"https://www.gutenberg.org/ebooks/68202.epub3.images","application/x-mobipocket-ebook":"https://www.gutenberg.org/ebooks/68202.kf8.images","text/plain; charset=us-ascii":"https://www.gutenberg.org/ebooks/68202.txt.utf-8","application/rdf+xml":"https://www.gutenberg.org/ebooks/68202.rdf","image/jpeg":"https://www.gutenberg.org/cache/epub/68202/pg68202.cover.medium.jpg","application/octet-stream":"https://www.gutenberg.org/files/68202/68202-0.zip"},"download_count":35},{"id":68215,"title":"The answer","authors":[{"name":"Smith, George O. (George Oliver)","birth_year":1911,"death_year":1981}],"translators":[],"subjects":["Dictators -- Fiction","Nuclear reactors -- Fiction","Science fiction","Short stories","United Nations -- Fiction"],"bookshelves":[],"languages":["en"],"copyright":false,"media_type":"Text","formats":{"text/html":"https://www.gutenberg.org/ebooks/68215.html.images","application/epub+zip":"https://www.gutenberg.org/ebooks/68215.epub3.images","application/x-mobipocket-ebook":"https://www.gutenberg.org/ebooks/68215.kf8.images","text/plain; charset=us-ascii":"https://www.gutenberg.org/ebooks/68215.txt.utf-8","application/rdf+xml":"https://www.gutenberg.org/ebooks/68215.rdf","image/jpeg":"https://www.gutenberg.org/cache/epub/68215/pg68215.cover.medium.jpg","application/octet-stream":"https://www.gutenberg.org/files/68215/68215-0.zip"},"download_count":35},{"id":68280,"title":"Latent Image","authors":[{"name":"Smith, George O. (George Oliver)","birth_year":1911,"death_year":1981}],"translators":[],"subjects":["Pluto (Dwarf planet) -- Fiction","Science fiction","Space flight -- Fiction","Space ships -- Fiction","Spouses -- Fiction"],"bookshelves":[],"languages":["en"],"copyright":false,"media_type":"Text","formats":{"text/html":"https://www.gutenberg.org/ebooks/68280.html.images","application/epub+zip":"https://www.gutenberg.org/ebooks/68280.epub3.images","application/x-mobipocket-ebook":"https://www.gutenberg.org/ebooks/68280.kf8.images","text/plain; charset=us-ascii":"https://www.gutenberg.org/ebooks/68280.txt.utf-8","application/rdf+xml":"https://www.gutenberg.org/ebooks/68280.rdf","image/jpeg":"https://www.gutenberg.org/cache/epub/68280/pg68280.cover.medium.jpg","application/octet-stream":"https://www.gutenberg.org/files/68280/68280-0.zip"},"download_count":35},{"id":68300,"title":"The phantom tracker; or, The prisoner of the hill cave","authors":[{"name":"Dewey, Frederick H.","birth_year":null,"death_year":null}],"translators":[],"subjects":["Abduction -- Fiction","Apache Indians -- Fiction","Arizona -- Fiction","Comanche Indians -- Fiction","Dime novels","Frontier and pioneer life -- Fiction","Ghost stories","Mexicans -- Fiction","Mexico -- Fiction","Outlaws -- Fiction","Wagon trains -- Fiction"],"bookshelves":[],"languages":["en"],"copyright":false,"media_type":"Text","formats":{"text/html":"https://www.gutenberg.org/ebooks/68300.html.images","application/epub+zip":"https://www.gutenberg.org/ebooks/68300.epub3.images","application/x-mobipocket-ebook":"https://www.gutenberg.org/ebooks/68300.kf8.images","text/plain; charset=us-ascii":"https://www.gutenberg.org/ebooks/68300.txt.utf-8","application/rdf+xml":"https://www.gutenberg.org/ebooks/68300.rdf","image/jpeg":"https://www.gutenberg.org/cache/epub/68300/pg68300.cover.medium.jpg","application/octet-stream":"https://www.gutenberg.org/files/68300/68300-0.zip"},"download_count":35},{"id":68572,"title":"My mother India","authors":[{"name":"Saund, Dalip Singh","birth_year":1899,"death_year":1973}],"translators":[],"subjects":["India -- Economic conditions -- 1918-1947","India -- Politics and government -- 1919-1947","India -- Social conditions"],"bookshelves":[],"languages":["en"],"copyright":false,"media_type":"Text","formats":{"text/html":"https://www.gutenberg.org/ebooks/68572.html.images","application/epub+zip":"https://www.gutenberg.org/ebooks/68572.epub3.images","application/x-mobipocket-ebook":"https://www.gutenberg.org/ebooks/68572.kf8.images","text/plain; charset=us-ascii":"https://www.gutenberg.org/ebooks/68572.txt.utf-8","application/rdf+xml":"https://www.gutenberg.org/ebooks/68572.rdf","image/jpeg":"https://www.gutenberg.org/cache/epub/68572/pg68572.cover.medium.jpg","application/octet-stream":"https://www.gutenberg.org/files/68572/68572-0.zip"},"download_count":35},{"id":68646,"title":"Hours with the Mystics: A Contribution to the History of Religious Opinion","authors":[{"name":"Vaughan, Robert Alfred","birth_year":1823,"death_year":1857}],"translators":[],"subjects":["Mysticism -- History"],"bookshelves":[],"languages":["en"],"copyright":false,"media_type":"Text","formats":{"text/html":"https://www.gutenberg.org/ebooks/68646.html.images","application/epub+zip":"https://www.gutenberg.org/ebooks/68646.epub3.images","application/x-mobipocket-ebook":"https://www.gutenberg.org/ebooks/68646.kf8.images","text/plain; charset=us-ascii":"https://www.gutenberg.org/ebooks/68646.txt.utf-8","application/rdf+xml":"https://www.gutenberg.org/ebooks/68646.rdf","image/jpeg":"https://www.gutenberg.org/cache/epub/68646/pg68646.cover.medium.jpg","application/octet-stream":"https://www.gutenberg.org/files/68646/68646-0.zip"},"download_count":35},{"id":68685,"title":"Moon-madness, and other fantasies","authors":[{"name":"Gouraud, Aimée Crocker","birth_year":1864,"death_year":1941}],"translators":[],"subjects":["Short stories, American","Women -- Fiction"],"bookshelves":[],"languages":["en"],"copyright":false,"media_type":"Text","formats":{"text/html":"https://www.gutenberg.org/ebooks/68685.html.images","application/epub+zip":"https://www.gutenberg.org/ebooks/68685.epub3.images","application/x-mobipocket-ebook":"https://www.gutenberg.org/ebooks/68685.kf8.images","text/plain; charset=us-ascii":"https://www.gutenberg.org/ebooks/68685.txt.utf-8","application/rdf+xml":"https://www.gutenberg.org/ebooks/68685.rdf","image/jpeg":"https://www.gutenberg.org/cache/epub/68685/pg68685.cover.medium.jpg","application/octet-stream":"https://www.gutenberg.org/files/68685/68685-0.zip"},"download_count":35},{"id":68823,"title":"Habits and men, with remnants of record touching the makers of both","authors":[{"name":"Doran, Dr. (John)","birth_year":1807,"death_year":1878}],"translators":[],"subjects":["Manners and customs"],"bookshelves":[],"languages":["en"],"copyright":false,"media_type":"Text","formats":{"text/html":"https://www.gutenberg.org/ebooks/68823.html.images","application/epub+zip":"https://www.gutenberg.org/ebooks/68823.epub3.images","application/x-mobipocket-ebook":"https://www.gutenberg.org/ebooks/68823.kf8.images","text/plain; charset=us-ascii":"https://www.gutenberg.org/ebooks/68823.txt.utf-8","application/rdf+xml":"https://www.gutenberg.org/ebooks/68823.rdf","image/jpeg":"https://www.gutenberg.org/cache/epub/68823/pg68823.cover.medium.jpg","application/octet-stream":"https://www.gutenberg.org/files/68823/68823-0.zip"},"download_count":35},{"id":68833,"title":"The entertaining story of King Brondé, his Lily and his Rosebud","authors":[{"name":"Diaz, Abby Morton","birth_year":1821,"death_year":1904}],"translators":[],"subjects":["Courts and courtiers -- Juvenile fiction","Fairies -- Juvenile fiction","Fairy tales","Parent and child -- Juvenile fiction","Pride and vanity -- Juvenile fiction","Romance fiction","Wisdom -- Juvenile fiction"],"bookshelves":[],"languages":["en"],"copyright":false,"media_type":"Text","formats":{"text/html":"https://www.gutenberg.org/ebooks/68833.html.images","application/epub+zip":"https://www.gutenberg.org/ebooks/68833.epub3.images","application/x-mobipocket-ebook":"https://www.gutenberg.org/ebooks/68833.kf8.images","text/plain; charset=us-ascii":"https://www.gutenberg.org/ebooks/68833.txt.utf-8","application/rdf+xml":"https://www.gutenberg.org/ebooks/68833.rdf","image/jpeg":"https://www.gutenberg.org/cache/epub/68833/pg68833.cover.medium.jpg","application/octet-stream":"https://www.gutenberg.org/files/68833/68833-0.zip"},"download_count":35},{"id":68842,"title":"The penultimate trump","authors":[{"name":"Ettinger, R. C. W. (Robert C. W.)","birth_year":1918,"death_year":2011}],"translators":[],"subjects":["Cryonics -- Fiction","Rich people -- Fiction","Science fiction"],"bookshelves":[],"languages":["en"],"copyright":false,"media_type":"Text","formats":{"text/html":"https://www.gutenberg.org/ebooks/68842.html.images","application/epub+zip":"https://www.gutenberg.org/ebooks/68842.epub3.images","application/x-mobipocket-ebook":"https://www.gutenberg.org/ebooks/68842.kf8.images","text/plain; charset=us-ascii":"https://www.gutenberg.org/ebooks/68842.txt.utf-8","application/rdf+xml":"https://www.gutenberg.org/ebooks/68842.rdf","image/jpeg":"https://www.gutenberg.org/cache/epub/68842/pg68842.cover.medium.jpg","application/octet-stream":"https://www.gutenberg.org/files/68842/68842-0.zip"},"download_count":35},{"id":68891,"title":"The alley cat's kitten","authors":[{"name":"Fuller, Caroline","birth_year":1873,"death_year":null}],"translators":[],"subjects":["Cats -- Juvenile fiction"],"bookshelves":[],"languages":["en"],"copyright":false,"media_type":"Text","formats":{"text/html":"https://www.gutenberg.org/ebooks/68891.html.images","application/epub+zip":"https://www.gutenberg.org/ebooks/68891.epub3.images","application/x-mobipocket-ebook":"https://www.gutenberg.org/ebooks/68891.kf8.images","text/plain; charset=us-ascii":"https://www.gutenberg.org/ebooks/68891.txt.utf-8","application/rdf+xml":"https://www.gutenberg.org/ebooks/68891.rdf","image/jpeg":"https://www.gutenberg.org/cache/epub/68891/pg68891.cover.medium.jpg","application/octet-stream":"https://www.gutenberg.org/files/68891/68891-0.zip"},"download_count":35},{"id":68913,"title":"The Iroquois; or, the bright side of Indian character","authors":[{"name":"Johnson, Anna C. (Anna Cummings)","birth_year":1818,"death_year":1892}],"translators":[],"subjects":["Iroquois Indians -- Social life and customs"],"bookshelves":[],"languages":["en"],"copyright":false,"media_type":"Text","formats":{"text/html":"https://www.gutenberg.org/ebooks/68913.html.images","application/epub+zip":"https://www.gutenberg.org/ebooks/68913.epub3.images","application/x-mobipocket-ebook":"https://www.gutenberg.org/ebooks/68913.kf8.images","text/plain; charset=us-ascii":"https://www.gutenberg.org/ebooks/68913.txt.utf-8","application/rdf+xml":"https://www.gutenberg.org/ebooks/68913.rdf","image/jpeg":"https://www.gutenberg.org/cache/epub/68913/pg68913.cover.medium.jpg","application/octet-stream":"https://www.gutenberg.org/files/68913/68913-0.zip"},"download_count":35},{"id":68926,"title":"Stories and ballads for young folks","authors":[{"name":"Alden, Ellen Tracy","birth_year":null,"death_year":null}],"translators":[],"subjects":["Children -- Conduct of life -- Juvenile literature","Children's poetry","Children's stories","Conduct of life -- Juvenile literature"],"bookshelves":[],"languages":["en"],"copyright":false,"media_type":"Text","formats":{"text/html":"https://www.gutenberg.org/ebooks/68926.html.images","application/epub+zip":"https://www.gutenberg.org/ebooks/68926.epub3.images","application/x-mobipocket-ebook":"https://www.gutenberg.org/ebooks/68926.kf8.images","text/plain; charset=us-ascii":"https://www.gutenberg.org/ebooks/68926.txt.utf-8","application/rdf+xml":"https://www.gutenberg.org/ebooks/68926.rdf","image/jpeg":"https://www.gutenberg.org/cache/epub/68926/pg68926.cover.medium.jpg","application/octet-stream":"https://www.gutenberg.org/files/68926/68926-0.zip"},"download_count":35},{"id":69049,"title":"The flowering plants of Africa: An analytical key to the genera of African phanerograms","authors":[{"name":"Thonner, Franz","birth_year":1863,"death_year":1928}],"translators":[],"subjects":["Angiosperms -- Africa","Plants -- Africa"],"bookshelves":[],"languages":["en"],"copyright":false,"media_type":"Text","formats":{"text/html":"https://www.gutenberg.org/ebooks/69049.html.images","application/epub+zip":"https://www.gutenberg.org/ebooks/69049.epub3.images","application/x-mobipocket-ebook":"https://www.gutenberg.org/ebooks/69049.kf8.images","text/plain; charset=us-ascii":"https://www.gutenberg.org/ebooks/69049.txt.utf-8","application/rdf+xml":"https://www.gutenberg.org/ebooks/69049.rdf","image/jpeg":"https://www.gutenberg.org/cache/epub/69049/pg69049.cover.medium.jpg","application/octet-stream":"https://www.gutenberg.org/files/69049/69049-0.zip"},"download_count":35},{"id":69153,"title":"François the waif","authors":[{"name":"Sand, George","birth_year":1804,"death_year":1876}],"translators":[{"name":"Sedgwick, Jane Minot","birth_year":null,"death_year":null}],"subjects":["Country life -- Fiction","French fiction -- Translations into English","Peasants -- France -- Fiction"],"bookshelves":[],"languages":["en"],"copyright":false,"media_type":"Text","formats":{"text/html":"https://www.gutenberg.org/ebooks/69153.html.images","application/epub+zip":"https://www.gutenberg.org/ebooks/69153.epub3.images","application/x-mobipocket-ebook":"https://www.gutenberg.org/ebooks/69153.kf8.images","text/plain; charset=us-ascii":"https://www.gutenberg.org/ebooks/69153.txt.utf-8","application/rdf+xml":"https://www.gutenberg.org/ebooks/69153.rdf","image/jpeg":"https://www.gutenberg.org/cache/epub/69153/pg69153.cover.medium.jpg","application/octet-stream":"https://www.gutenberg.org/files/69153/69153-0.zip"},"download_count":35},{"id":69200,"title":"Little Jack Rabbit and Mr. Wicked Wolf","authors":[{"name":"Cory, David","birth_year":1872,"death_year":1966}],"translators":[],"subjects":["Animals -- Juvenile fiction","Christmas -- Juvenile fiction","Christmas stories","Rabbits -- Juvenile fiction","Wolves -- Juvenile fiction"],"bookshelves":[],"languages":["en"],"copyright":false,"media_type":"Text","formats":{"text/html":"https://www.gutenberg.org/ebooks/69200.html.images","application/epub+zip":"https://www.gutenberg.org/ebooks/69200.epub3.images","application/x-mobipocket-ebook":"https://www.gutenberg.org/ebooks/69200.kf8.images","text/plain; charset=us-ascii":"https://www.gutenberg.org/ebooks/69200.txt.utf-8","application/rdf+xml":"https://www.gutenberg.org/ebooks/69200.rdf","image/jpeg":"https://www.gutenberg.org/cache/epub/69200/pg69200.cover.medium.jpg","application/octet-stream":"https://www.gutenberg.org/files/69200/69200-0.zip"},"download_count":35},{"id":69232,"title":"Slave of eternity","authors":[{"name":"Aycock, Roger D.","birth_year":1914,"death_year":2004}],"translators":[],"subjects":["Immortality -- Fiction","Robots -- Fiction","Science fiction","Short stories"],"bookshelves":[],"languages":["en"],"copyright":false,"media_type":"Text","formats":{"text/html":"https://www.gutenberg.org/ebooks/69232.html.images","application/epub+zip":"https://www.gutenberg.org/ebooks/69232.epub3.images","application/x-mobipocket-ebook":"https://www.gutenberg.org/ebooks/69232.kf8.images","text/plain; charset=us-ascii":"https://www.gutenberg.org/ebooks/69232.txt.utf-8","application/rdf+xml":"https://www.gutenberg.org/ebooks/69232.rdf","image/jpeg":"https://www.gutenberg.org/cache/epub/69232/pg69232.cover.medium.jpg","application/octet-stream":"https://www.gutenberg.org/files/69232/69232-0.zip"},"download_count":35},{"id":69406,"title":"Eminent doctors: Their lives and their work; Vol. 1 of 2","authors":[{"name":"Bettany, G. T. (George Thomas)","birth_year":1850,"death_year":1891}],"translators":[],"subjects":["Medicine -- Great Britain -- History","Physicians -- Great Britain"],"bookshelves":[],"languages":["en"],"copyright":false,"media_type":"Text","formats":{"text/html":"https://www.gutenberg.org/ebooks/69406.html.images","application/epub+zip":"https://www.gutenberg.org/ebooks/69406.epub3.images","application/x-mobipocket-ebook":"https://www.gutenberg.org/ebooks/69406.kf8.images","text/plain; charset=us-ascii":"https://www.gutenberg.org/ebooks/69406.txt.utf-8","application/rdf+xml":"https://www.gutenberg.org/ebooks/69406.rdf","image/jpeg":"https://www.gutenberg.org/cache/epub/69406/pg69406.cover.medium.jpg","application/octet-stream":"https://www.gutenberg.org/files/69406/69406-0.zip"},"download_count":35},{"id":69543,"title":"Around the world in eighty minutes: Photographic reproductions of the most magnificent edifices, the most interesting remains and the most beautiful scenes on the earth's surface","authors":[{"name":"Walsh, William S.","birth_year":1854,"death_year":1919}],"translators":[],"subjects":["Historic sites -- Pictorial works","Views"],"bookshelves":[],"languages":["en"],"copyright":false,"media_type":"Text","formats":{"text/html":"https://www.gutenberg.org/ebooks/69543.html.images","application/epub+zip":"https://www.gutenberg.org/ebooks/69543.epub3.images","application/x-mobipocket-ebook":"https://www.gutenberg.org/ebooks/69543.kf8.images","text/plain; charset=us-ascii":"https://www.gutenberg.org/ebooks/69543.txt.utf-8","application/rdf+xml":"https://www.gutenberg.org/ebooks/69543.rdf","image/jpeg":"https://www.gutenberg.org/cache/epub/69543/pg69543.cover.medium.jpg","application/octet-stream":"https://www.gutenberg.org/files/69543/69543-0.zip"},"download_count":35},{"id":69589,"title":"To-morrow and to-morrow ... a novel","authors":[{"name":"McKenna, Stephen","birth_year":1888,"death_year":1967}],"translators":[],"subjects":["Great Britain -- History -- George V, 1910-1936 -- Fiction","Man-woman relationships -- Fiction","Spouses -- Fiction"],"bookshelves":[],"languages":["en"],"copyright":false,"media_type":"Text","formats":{"text/html":"https://www.gutenberg.org/ebooks/69589.html.images","application/epub+zip":"https://www.gutenberg.org/ebooks/69589.epub3.images","application/x-mobipocket-ebook":"https://www.gutenberg.org/ebooks/69589.kf8.images","text/plain; charset=us-ascii":"https://www.gutenberg.org/ebooks/69589.txt.utf-8","application/rdf+xml":"https://www.gutenberg.org/ebooks/69589.rdf","image/jpeg":"https://www.gutenberg.org/cache/epub/69589/pg69589.cover.medium.jpg","application/octet-stream":"https://www.gutenberg.org/files/69589/69589-0.zip"},"download_count":35},{"id":69647,"title":"Indian tales of the great ones among men, women, and bird-people","authors":[{"name":"Sorabji, Cornelia","birth_year":1866,"death_year":1954}],"translators":[],"subjects":["Tales -- India"],"bookshelves":[],"languages":["en"],"copyright":false,"media_type":"Text","formats":{"text/html":"https://www.gutenberg.org/ebooks/69647.html.images","application/epub+zip":"https://www.gutenberg.org/ebooks/69647.epub3.images","application/x-mobipocket-ebook":"https://www.gutenberg.org/ebooks/69647.kf8.images","text/plain; charset=us-ascii":"https://www.gutenberg.org/ebooks/69647.txt.utf-8","application/rdf+xml":"https://www.gutenberg.org/ebooks/69647.rdf","image/jpeg":"https://www.gutenberg.org/cache/epub/69647/pg69647.cover.medium.jpg","application/octet-stream":"https://www.gutenberg.org/files/69647/69647-0.zip"},"download_count":35},{"id":69684,"title":"Red blight","authors":[{"name":"Knight, Mary","birth_year":1898,"death_year":1996}],"translators":[],"subjects":["China -- History -- 1945-","Communism -- China"],"bookshelves":[],"languages":["en"],"copyright":false,"media_type":"Text","formats":{"text/html":"https://www.gutenberg.org/ebooks/69684.html.images","application/epub+zip":"https://www.gutenberg.org/ebooks/69684.epub3.images","application/x-mobipocket-ebook":"https://www.gutenberg.org/ebooks/69684.kf8.images","text/plain; charset=us-ascii":"https://www.gutenberg.org/ebooks/69684.txt.utf-8","application/rdf+xml":"https://www.gutenberg.org/ebooks/69684.rdf","image/jpeg":"https://www.gutenberg.org/cache/epub/69684/pg69684.cover.medium.jpg","application/octet-stream":"https://www.gutenberg.org/files/69684/69684-0.zip"},"download_count":35},{"id":69767,"title":"All about miniature plants and gardens indoors and out","authors":[{"name":"Brilmayer, Bernice","birth_year":null,"death_year":null}],"translators":[],"subjects":["Gardens, Miniature","Miniature plants"],"bookshelves":[],"languages":["en"],"copyright":false,"media_type":"Text","formats":{"text/html":"https://www.gutenberg.org/ebooks/69767.html.images","application/epub+zip":"https://www.gutenberg.org/ebooks/69767.epub3.images","application/x-mobipocket-ebook":"https://www.gutenberg.org/ebooks/69767.kf8.images","text/plain; charset=us-ascii":"https://www.gutenberg.org/ebooks/69767.txt.utf-8","application/rdf+xml":"https://www.gutenberg.org/ebooks/69767.rdf","image/jpeg":"https://www.gutenberg.org/cache/epub/69767/pg69767.cover.medium.jpg","application/octet-stream":"https://www.gutenberg.org/files/69767/69767-0.zip"},"download_count":35},{"id":69808,"title":"Numa Roumestan","authors":[{"name":"Daudet, Alphonse","birth_year":1840,"death_year":1897}],"translators":[{"name":"De Kay, Charles","birth_year":1848,"death_year":1935}],"subjects":["France -- History -- Third Republic, 1870-1940 -- Fiction","French fiction -- Translations into English","Man-woman relationships -- Fiction","Politicians -- Fiction","Social classes -- Fiction","Spouses -- Fiction"],"bookshelves":[],"languages":["en"],"copyright":false,"media_type":"Text","formats":{"text/html":"https://www.gutenberg.org/ebooks/69808.html.images","application/epub+zip":"https://www.gutenberg.org/ebooks/69808.epub3.images","application/x-mobipocket-ebook":"https://www.gutenberg.org/ebooks/69808.kf8.images","text/plain; charset=us-ascii":"https://www.gutenberg.org/ebooks/69808.txt.utf-8","application/rdf+xml":"https://www.gutenberg.org/ebooks/69808.rdf","image/jpeg":"https://www.gutenberg.org/cache/epub/69808/pg69808.cover.medium.jpg","application/octet-stream":"https://www.gutenberg.org/files/69808/69808-0.zip"},"download_count":35},{"id":69993,"title":"Ireland's disease","authors":[{"name":"Daryl, Philippe","birth_year":1844,"death_year":1909}],"translators":[],"subjects":["Ireland -- Description and travel","Ireland -- Social conditions"],"bookshelves":[],"languages":["en"],"copyright":false,"media_type":"Text","formats":{"text/html":"https://www.gutenberg.org/ebooks/69993.html.images","application/epub+zip":"https://www.gutenberg.org/ebooks/69993.epub3.images","application/x-mobipocket-ebook":"https://www.gutenberg.org/ebooks/69993.kf8.images","text/plain; charset=us-ascii":"https://www.gutenberg.org/ebooks/69993.txt.utf-8","application/rdf+xml":"https://www.gutenberg.org/ebooks/69993.rdf","image/jpeg":"https://www.gutenberg.org/cache/epub/69993/pg69993.cover.medium.jpg","application/octet-stream":"https://www.gutenberg.org/files/69993/69993-0.zip"},"download_count":35},{"id":70068,"title":"Good housing that pays: $b A study of the aims and the accomplishment of the Octavia Hill Association, 1896-1917","authors":[{"name":"Waldo, Fullerton L. (Fullerton Leonard)","birth_year":1877,"death_year":1933}],"translators":[],"subjects":["Housing -- Pennsylvania -- Philadelphia","Octavia Hill Association","Tenement-houses -- Pennsylvania -- Philadelphia","Working class -- Dwellings"],"bookshelves":[],"languages":["en"],"copyright":false,"media_type":"Text","formats":{"text/html":"https://www.gutenberg.org/ebooks/70068.html.images","application/epub+zip":"https://www.gutenberg.org/ebooks/70068.epub3.images","application/x-mobipocket-ebook":"https://www.gutenberg.org/ebooks/70068.kf8.images","text/plain; charset=us-ascii":"https://www.gutenberg.org/ebooks/70068.txt.utf-8","application/rdf+xml":"https://www.gutenberg.org/ebooks/70068.rdf","image/jpeg":"https://www.gutenberg.org/cache/epub/70068/pg70068.cover.medium.jpg","application/octet-stream":"https://www.gutenberg.org/files/70068/70068-0.zip"},"download_count":35},{"id":70122,"title":"The conquest of the great Northwest, Volume 2 (of 2): $b Being the story of the adventurers of England known as the Hudson's Bay Company, new pages in the history of the Canadian northwest and western states","authors":[{"name":"Laut, Agnes C.","birth_year":1871,"death_year":1936}],"translators":[],"subjects":["Hudson Bay -- History","Hudson's Bay Company","Northwest, Canadian"],"bookshelves":[],"languages":["en"],"copyright":false,"media_type":"Text","formats":{"text/html":"https://www.gutenberg.org/ebooks/70122.html.images","application/epub+zip":"https://www.gutenberg.org/ebooks/70122.epub3.images","application/x-mobipocket-ebook":"https://www.gutenberg.org/ebooks/70122.kf8.images","text/plain; charset=us-ascii":"https://www.gutenberg.org/ebooks/70122.txt.utf-8","application/rdf+xml":"https://www.gutenberg.org/ebooks/70122.rdf","image/jpeg":"https://www.gutenberg.org/cache/epub/70122/pg70122.cover.medium.jpg","application/octet-stream":"https://www.gutenberg.org/files/70122/70122-0.zip"},"download_count":35},{"id":70225,"title":"The fortunate calamity","authors":[{"name":"Pansy","birth_year":1841,"death_year":1930}],"translators":[],"subjects":["Aunts -- Juvenile fiction","Christian life -- Juvenile fiction","Families -- Juvenile fiction"],"bookshelves":[],"languages":["en"],"copyright":false,"media_type":"Text","formats":{"text/html":"https://www.gutenberg.org/ebooks/70225.html.images","application/epub+zip":"https://www.gutenberg.org/ebooks/70225.epub3.images","application/x-mobipocket-ebook":"https://www.gutenberg.org/ebooks/70225.kf8.images","text/plain; charset=us-ascii":"https://www.gutenberg.org/ebooks/70225.txt.utf-8","application/rdf+xml":"https://www.gutenberg.org/ebooks/70225.rdf","image/jpeg":"https://www.gutenberg.org/cache/epub/70225/pg70225.cover.medium.jpg","application/octet-stream":"https://www.gutenberg.org/files/70225/70225-0.zip"},"download_count":35},{"id":70431,"title":"Between two thieves","authors":[{"name":"Dehan, Richard","birth_year":1863,"death_year":1932}],"translators":[],"subjects":["Crimean War, 1853-1856 -- Fiction","Historical fiction","Man-woman relationships -- Fiction","Napoleon III, Emperor of the French, 1808-1873 -- Fiction","Nurses -- Fiction","Soldiers -- Fiction"],"bookshelves":[],"languages":["en"],"copyright":false,"media_type":"Text","formats":{"text/html":"https://www.gutenberg.org/ebooks/70431.html.images","application/epub+zip":"https://www.gutenberg.org/ebooks/70431.epub3.images","application/x-mobipocket-ebook":"https://www.gutenberg.org/ebooks/70431.kf8.images","text/plain; charset=us-ascii":"https://www.gutenberg.org/ebooks/70431.txt.utf-8","application/rdf+xml":"https://www.gutenberg.org/ebooks/70431.rdf","image/jpeg":"https://www.gutenberg.org/cache/epub/70431/pg70431.cover.medium.jpg","application/octet-stream":"https://www.gutenberg.org/files/70431/70431-0.zip"},"download_count":35},{"id":70440,"title":"The awakening","authors":[{"name":"Bordeaux, Henry","birth_year":1870,"death_year":1963}],"translators":[{"name":"Davis, Ruth Helen","birth_year":null,"death_year":null}],"subjects":["French fiction -- Translations into English"],"bookshelves":[],"languages":["en"],"copyright":false,"media_type":"Text","formats":{"text/html":"https://www.gutenberg.org/ebooks/70440.html.images","application/epub+zip":"https://www.gutenberg.org/ebooks/70440.epub3.images","application/x-mobipocket-ebook":"https://www.gutenberg.org/ebooks/70440.kf8.images","text/plain; charset=us-ascii":"https://www.gutenberg.org/ebooks/70440.txt.utf-8","application/rdf+xml":"https://www.gutenberg.org/ebooks/70440.rdf","image/jpeg":"https://www.gutenberg.org/cache/epub/70440/pg70440.cover.medium.jpg","application/octet-stream":"https://www.gutenberg.org/files/70440/70440-0.zip"},"download_count":35},{"id":70523,"title":"Remarks on the speeches of William Paul Clerk, and John Hall of Otterburn, Esq : $b Executed at Tyburn for rebellion, the 13th of July, 1716","authors":[{"name":"Defoe, Daniel","birth_year":null,"death_year":1731}],"translators":[],"subjects":["Hall, John, -1716 -- Trials, litigation, etc.","Jacobite Rebellion, 1715","Nonjurors","Paul, William, 1678-1716 -- Trials, litigation, etc.","Trials (Treason) -- Great Britain -- Early works to 1800"],"bookshelves":[],"languages":["en"],"copyright":false,"media_type":"Text","formats":{"text/html":"https://www.gutenberg.org/ebooks/70523.html.images","application/epub+zip":"https://www.gutenberg.org/ebooks/70523.epub3.images","application/x-mobipocket-ebook":"https://www.gutenberg.org/ebooks/70523.kf8.images","text/plain; charset=us-ascii":"https://www.gutenberg.org/ebooks/70523.txt.utf-8","application/rdf+xml":"https://www.gutenberg.org/ebooks/70523.rdf","image/jpeg":"https://www.gutenberg.org/cache/epub/70523/pg70523.cover.medium.jpg","application/octet-stream":"https://www.gutenberg.org/files/70523/70523-0.zip"},"download_count":35}]}