{"count":58808,"next":"http://129.241.150.113:8000/books/?languages=en&page=1838","previous":"http://129.241.150.113:8000/books/?languages=en&page=1836","results":[{"id":72960,"title":"Shipwrecks on Cape Cod","authors":[{"name":"Small, Isaac M.","birth_year":null,"death_year":null}],"translators":[],"subjects":[],"bookshelves":[],"languages":["en"],"copyright":false,"media_type":"Text","formats":{"text/html":"https://www.gutenberg.org/files/72960/72960-h/72960-h.htm","text/plain; charset=us-ascii":"https://www.gutenberg.org/files/72960/72960-0.txt"},"download_count":0},{"id":72961,"title":"Buddenbrooks, volume 1 of 2","authors":[{"name":"Mann, Thomas","birth_year":1875,"death_year":1955}],"translators":[{"name":"Lowe-Porter, Helen Tracy","birth_year":null,"death_year":null}],"subjects":[],"bookshelves":[],"languages":["en"],"copyright":false,"media_type":"Text","formats":{"text/html":"https://www.gutenberg.org/files/72961/72961-h/72961-h.htm","text/plain; charset=us-ascii":"https://www.gutenberg.org/files/72961/72961-0.txt"},"download_count":0},{"id":72962,"title":"Buddenbrooks, volume 2 of 2","authors":[{"name":"Mann, Thomas","birth_year":1875,"death_year":1955}],"translators":[{"name":"Lowe-Porter, Helen Tracy","birth_year":null,"death_year":null}],"subjects":[],"bookshelves":[],"languages":["en"],"copyright":false,"media_type":"Text","formats":{"text/html":"https://www.gutenberg.org/files/72962/72962-h/72962-h.htm","text/plain; charset=us-ascii":"https://www.gutenberg.org/files/72962/72962-0.txt"},"download_count":0},{"id":72963,"title":"The nature of the physical world","authors":[{"name":"Eddington, Arthur Stanley, Sir","birth_year":1882,"death_year":1944}],"translators":[],"subjects":[],"bookshelves":[],"languages":["en"],"copyright":false,"media_type":"Text","formats":{"text/html":"https://www.gutenberg.org/files/72963/72963-h/72963-h.htm"},"download_count":0},{"id":72966,"title":"The horror at Red Hook","authors":[{"name":"Lovecraft, H. P. (Howard Phillips)","birth_year":1890,"death_year":1937}],"translators":[],"subjects":[],"bookshelves":[],"languages":["en"],"copyright":false,"media_type":"Text","formats":{"text/html":"https://www.gutenberg.org/files/72966/72966-h/72966-h.htm","text/plain; charset=us-ascii":"https://www.gutenberg.org/files/72966/72966-0.txt"},"download_count":0},{"id":72967,"title":"Chalk face","authors":[{"name":"Frank, Waldo David","birth_year":1889,"death_year":1967}],"translators":[],"subjects":[],"bookshelves":[],"languages":["en"],"copyright":false,"media_type":"Text","formats":{"text/html":"https://www.gutenberg.org/files/72967/72967-h/72967-h.htm","text/plain; charset=us-ascii":"https://www.gutenberg.org/files/72967/72967-0.txt"},"download_count":0},{"id":72969,"title":"The girl from nowhere","authors":[{"name":"Reynolds, Baillie, Mrs.","birth_year":1861,"death_year":1939}],"translators":[],"subjects":[],"bookshelves":[],"languages":["en"],"copyright":false,"media_type":"Text","formats":{"text/html":"https://www.gutenberg.org/files/72969/72969-h/72969-h.htm","text/plain; charset=us-ascii":"https://www.gutenberg.org/files/72969/72969-0.txt"},"download_count":0},{"id":72970,"title":"Harebell's friend","authors":[{"name":"Le Feuvre, Amy","birth_year":null,"death_year":1929}],"translators":[],"subjects":[],"bookshelves":[],"languages":["en"],"copyright":false,"media_type":"Text","formats":{"text/html":"https://www.gutenberg.org/files/72970/72970-h/72970-h.htm","text/plain; charset=us-ascii":"https://www.gutenberg.org/files/72970/72970-0.txt"},"download_count":0},{"id":72971,"title":"A Dead Man's Diary Written After His Decease","authors":[{"name":"Kernahan, Coulson","birth_year":1858,"death_year":1943}],"translators":[],"subjects":[],"bookshelves":[],"languages":["en"],"copyright":false,"media_type":"Text","formats":{"text/html":"https://www.gutenberg.org/files/72971/72971-h/72971-h.htm","text/plain; charset=us-ascii":"https://www.gutenberg.org/files/72971/72971-0.txt"},"download_count":0},{"id":72972,"title":"Money for nothing","authors":[{"name":"Wodehouse, P. G. (Pelham Grenville)","birth_year":1881,"death_year":1975}],"translators":[],"subjects":[],"bookshelves":[],"languages":["en"],"copyright":false,"media_type":"Text","formats":{"text/html":"https://www.gutenberg.org/files/72972/72972-h/72972-h.htm","text/plain; charset=us-ascii":"https://www.gutenberg.org/files/72972/72972-0.txt"},"download_count":0},{"id":72974,"title":"Recollections of James Anthony Gardner : $b Commander R.N. (1775–1814)","authors":[{"name":"Gardner, James Anthony","birth_year":null,"death_year":null}],"translators":[],"subjects":[],"bookshelves":[],"languages":["en"],"copyright":false,"media_type":"Text","formats":{"text/html":"https://www.gutenberg.org/files/72974/72974-h/72974-h.htm","text/plain; charset=us-ascii":"https://www.gutenberg.org/files/72974/72974-0.txt"},"download_count":0},{"id":72981,"title":"Philosophy","authors":[{"name":"Russell, Bertrand","birth_year":1872,"death_year":1970}],"translators":[],"subjects":[],"bookshelves":[],"languages":["en"],"copyright":false,"media_type":"Text","formats":{"text/html":"https://www.gutenberg.org/files/72981/72981-h/72981-h.htm","text/plain; charset=us-ascii":"https://www.gutenberg.org/files/72981/72981-0.txt"},"download_count":0},{"id":72983,"title":"Mabel's mishap","authors":[{"name":"Blanchard, Amy Ella","birth_year":1856,"death_year":1926}],"translators":[],"subjects":[],"bookshelves":[],"languages":["en"],"copyright":false,"media_type":"Text","formats":{"text/html":"https://www.gutenberg.org/files/72983/72983-h/72983-h.htm","text/plain; charset=us-ascii":"https://www.gutenberg.org/files/72983/72983-0.txt"},"download_count":0},{"id":72985,"title":"The tower","authors":[{"name":"Yeats, W. B. (William Butler)","birth_year":1865,"death_year":1939}],"translators":[],"subjects":[],"bookshelves":[],"languages":["en"],"copyright":false,"media_type":"Text","formats":{"text/html":"https://www.gutenberg.org/files/72985/72985-h/72985-h.htm","text/plain; charset=us-ascii":"https://www.gutenberg.org/files/72985/72985-0.txt"},"download_count":0},{"id":72986,"title":"The Cheyne mystery","authors":[{"name":"Crofts, Freeman Wills","birth_year":1879,"death_year":1957}],"translators":[],"subjects":[],"bookshelves":[],"languages":["en"],"copyright":false,"media_type":"Text","formats":{"text/html":"https://www.gutenberg.org/files/72986/72986-h/72986-h.htm","text/plain; charset=us-ascii":"https://www.gutenberg.org/files/72986/72986-0.txt"},"download_count":0},{"id":72987,"title":"Michael Robartes and the dancer","authors":[{"name":"Yeats, W. B. (William Butler)","birth_year":1865,"death_year":1939}],"translators":[],"subjects":[],"bookshelves":[],"languages":["en"],"copyright":false,"media_type":"Text","formats":{"text/html":"https://www.gutenberg.org/files/72987/72987-h/72987-h.htm","text/plain; charset=us-ascii":"https://www.gutenberg.org/files/72987/72987-0.txt"},"download_count":0},{"id":72988,"title":"Religion and ceremonies of the Lenape","authors":[{"name":"Harrington, Mark Raymond","birth_year":null,"death_year":null}],"translators":[],"subjects":[],"bookshelves":[],"languages":["en"],"copyright":false,"media_type":"Text","formats":{"text/html":"https://www.gutenberg.org/files/72988/72988-h/72988-h.htm","text/plain; charset=us-ascii":"https://www.gutenberg.org/files/72988/72988-0.txt"},"download_count":0},{"id":72989,"title":"Jinrikisha days in Japan","authors":[{"name":"Scidmore, Eliza Ruhamah","birth_year":1856,"death_year":1928}],"translators":[],"subjects":[],"bookshelves":[],"languages":["en"],"copyright":false,"media_type":"Text","formats":{"text/html":"https://www.gutenberg.org/files/72989/72989-h/72989-h.htm","text/plain; charset=us-ascii":"https://www.gutenberg.org/files/72989/72989-0.txt"},"download_count":0},{"id":72991,"title":"Compulsory manumission : $b Or, an examination of the actual state of the West India question","authors":[{"name":"M'Donnell, Alexander","birth_year":null,"death_year":null}],"translators":[],"subjects":[],"bookshelves":[],"languages":["en"],"copyright":false,"media_type":"Text","formats":{"text/html":"https://www.gutenberg.org/files/72991/72991-h/72991-h.htm","text/plain; charset=us-ascii":"https://www.gutenberg.org/files/72991/72991-0.txt"},"download_count":0},{"id":72995,"title":"The treatise of Benvenuto Cellini on goldsmithing and sculpture","authors":[{"name":"Cellini, Benvenuto","birth_year":1500,"death_year":1571}],"translators":[],"subjects":[],"bookshelves":[],"languages":["en"],"copyright":false,"media_type":"Text","formats":{"text/html":"https://www.gutenberg.org/files/72995/72995-h/72995-h.htm","text/plain; charset=us-ascii":"https://www.gutenberg.org/files/72995/72995-0.txt"},"download_count":0},{"id":72996,"title":"Tough yarns : $b A series of naval tales and sketches to please all hands, from the swabs on the shoulders down to the swabs in the head","authors":[{"name":"Sailor, The Old","birth_year":null,"death_year":null}],"translators":[],"subjects":[],"bookshelves":[],"languages":["en"],"copyright":false,"media_type":"Text","formats":{"text/html":"https://www.gutenberg.org/files/72996/72996-h/72996-h.htm","text/plain; charset=us-ascii":"https://www.gutenberg.org/files/72996/72996-0.txt"},"download_count":0},{"id":72997,"title":"Transplanted : $b A novel","authors":[{"name":"Atherton, Gertrude Franklin Horn","birth_year":1857,"death_year":1948}],"translators":[],"subjects":[],"bookshelves":[],"languages":["en"],"copyright":false,"media_type":"Text","formats":{"text/html":"https://www.gutenberg.org/files/72997/72997-h/72997-h.htm","text/plain; charset=us-ascii":"https://www.gutenberg.org/files/72997/72997-0.txt"},"download_count":0},{"id":72998,"title":"Worth his while","authors":[{"name":"Blanchard, Amy Ella","birth_year":1856,"death_year":1926}],"translators":[],"subjects":[],"bookshelves":[],"languages":["en"],"copyright":false,"media_type":"Text","formats":{"text/html":"https://www.gutenberg.org/files/72998/72998-h/72998-h.htm","text/plain; charset=us-ascii":"https://www.gutenberg.org/files/72998/72998-0.txt"},"download_count":0},{"id":73000,"title":"The Mediaeval Stage, Volume 1 (of 2)","authors":[{"name":"Chambers, E. K. (Edmund Kerchever)","birth_year":1866,"death_year":1954}],"translators":[],"subjects":[],"bookshelves":[],"languages":["en"],"copyright":false,"media_type":"Text","formats":{"text/html":"https://www.gutenberg.org/files/73000/73000-h/73000-h.htm","text/plain; charset=us-ascii":"https://www.gutenberg.org/files/73000/73000-0.txt"},"download_count":0},{"id":73001,"title":"Rube Burrow, king of outlaws, and his band of train robbers : $b An accurate and faithful history of their exploits and adventures","authors":[{"name":"Agee, George W.","birth_year":null,"death_year":null}],"translators":[],"subjects":[],"bookshelves":[],"languages":["en"],"copyright":false,"media_type":"Text","formats":{"text/html":"https://www.gutenberg.org/files/73001/73001-h/73001-h.htm","text/plain; charset=us-ascii":"https://www.gutenberg.org/files/73001/73001-0.txt"},"download_count":0},{"id":73004,"title":"The Cumulative Book Review Digest, v. 16, 1920 : $b Sixteenth annual accumulation reviews of 1920 books","authors":[{"name":"Various","birth_year":null,"death_year":null}],"translators":[],"subjects":[],"bookshelves":[],"languages":["en"],"copyright":false,"media_type":"Text","formats":{"text/html":"https://www.gutenberg.org/files/73004/73004-h/73004-h.htm","text/plain; charset=us-ascii":"https://www.gutenberg.org/files/73004/73004-0.txt"},"download_count":0},{"id":73005,"title":"Pussy Meow : $b The autobiography of a cat","authors":[{"name":"Patteson, S. Louise (Susanna Louise)","birth_year":1853,"death_year":1922}],"translators":[],"subjects":[],"bookshelves":[],"languages":["en"],"copyright":false,"media_type":"Text","formats":{"text/html":"https://www.gutenberg.org/files/73005/73005-h/73005-h.htm","text/plain; charset=us-ascii":"https://www.gutenberg.org/files/73005/73005-0.txt"},"download_count":0},{"id":73008,"title":"The Curlytops at Cherry Farm : $b Or: Vacation days in the country","authors":[{"name":"Garis, Howard Roger","birth_year":1873,"death_year":1962}],"translators":[],"subjects":[],"bookshelves":[],"languages":["en"],"copyright":false,"media_type":"Text","formats":{"text/html":"https://www.gutenberg.org/files/73008/73008-h/73008-h.htm","text/plain; charset=us-ascii":"https://www.gutenberg.org/files/73008/73008-0.txt"},"download_count":0},{"id":73009,"title":"How animals talk : $b And other pleasant studies of birds and beast","authors":[{"name":"Long, William J. (William Joseph)","birth_year":1867,"death_year":1952}],"translators":[],"subjects":[],"bookshelves":[],"languages":["en"],"copyright":false,"media_type":"Text","formats":{"text/html":"https://www.gutenberg.org/files/73009/73009-h/73009-h.htm","text/plain; charset=us-ascii":"https://www.gutenberg.org/files/73009/73009-0.txt"},"download_count":0},{"id":73011,"title":"The house at Pooh corner","authors":[{"name":"Milne, A. A. (Alan Alexander)","birth_year":1882,"death_year":1956}],"translators":[],"subjects":[],"bookshelves":[],"languages":["en"],"copyright":false,"media_type":"Text","formats":{"text/html":"https://www.gutenberg.org/files/73011/73011-h/73011-h.htm","text/plain; charset=us-ascii":"https://www.gutenberg.org/files/73011/73011-0.txt"},"download_count":0},{"id":73012,"title":"The works of the Reverend George Whitefield, Vol. 3 (of 6) : $b Containing all his sermons and tracts, etc.","authors":[{"name":"Whitefield, George","birth_year":1714,"death_year":1770}],"translators":[],"subjects":[],"bookshelves":[],"languages":["en"],"copyright":false,"media_type":"Text","formats":{"text/html":"https://www.gutenberg.org/files/73012/73012-h/73012-h.htm","text/plain; charset=us-ascii":"https://www.gutenberg.org/files/73012/73012-0.txt"},"download_count":0},{"id":73013,"title":"How to hypnotize, Multum in parvo library, vol. 3, no. 28, April, 1896 : $b The science of controlling the minds of others","authors":[{"name":"Anonymous","birth_year":null,"death_year":null}],"translators":[],"subjects":[],"bookshelves":[],"languages":["en"],"copyright":false,"media_type":"Text","formats":{"text/html":"https://www.gutenberg.org/files/73013/73013-h/73013-h.htm","text/plain; charset=us-ascii":"https://www.gutenberg.org/files/73013/73013-0.txt"},"download_count":0}]}