{"count":58808,"next":"http://129.241.150.113:8000/books/?languages=en&page=1836","previous":"http://129.241.150.113:8000/books/?languages=en&page=1834","results":[{"id":72861,"title":"Head-hunters : $b Black, white, and brown","authors":[{"name":"Haddon, Alfred C. (Alfred Cort)","birth_year":1855,"death_year":1940}],"translators":[],"subjects":[],"bookshelves":[],"languages":["en"],"copyright":false,"media_type":"Text","formats":{"text/html":"https://www.gutenberg.org/files/72861/72861-h/72861-h.htm","text/plain; charset=us-ascii":"https://www.gutenberg.org/files/72861/72861-0.txt"},"download_count":0},{"id":72862,"title":"Catching of the whale and seal : $b or, Henry Acton's conversation to his son William on the whale and seal fishery","authors":[{"name":"Acton, Henry","birth_year":null,"death_year":null}],"translators":[],"subjects":[],"bookshelves":[],"languages":["en"],"copyright":false,"media_type":"Text","formats":{"text/html":"https://www.gutenberg.org/files/72862/72862-h/72862-h.htm","text/plain; charset=us-ascii":"https://www.gutenberg.org/files/72862/72862-0.txt"},"download_count":0},{"id":72863,"title":"The Pennant","authors":[{"name":"Tomlinson, Everett T. (Everett Titsworth)","birth_year":1859,"death_year":1931}],"translators":[],"subjects":[],"bookshelves":[],"languages":["en"],"copyright":false,"media_type":"Text","formats":{"text/html":"https://www.gutenberg.org/files/72863/72863-h/72863-h.htm","text/plain; charset=us-ascii":"https://www.gutenberg.org/files/72863/72863-0.txt"},"download_count":0},{"id":72864,"title":"Flowers and fruit from the writings of Harriet Beecher Stowe","authors":[{"name":"Stowe, Harriet Beecher","birth_year":1811,"death_year":1896}],"translators":[],"subjects":[],"bookshelves":[],"languages":["en"],"copyright":false,"media_type":"Text","formats":{"text/html":"https://www.gutenberg.org/files/72864/72864-h/72864-h.htm","text/plain; charset=us-ascii":"https://www.gutenberg.org/files/72864/72864-0.txt"},"download_count":0},{"id":72865,"title":"The glory of the Pharaohs","authors":[{"name":"Weigall, Arthur E. P. Brome (Arthur Edward Pearse Brome)","birth_year":1880,"death_year":1934}],"translators":[],"subjects":[],"bookshelves":[],"languages":["en"],"copyright":false,"media_type":"Text","formats":{"text/html":"https://www.gutenberg.org/files/72865/72865-h/72865-h.htm","text/plain; charset=us-ascii":"https://www.gutenberg.org/files/72865/72865-0.txt"},"download_count":0},{"id":72870,"title":"The crystal claw","authors":[{"name":"Le Queux, William","birth_year":1864,"death_year":1927}],"translators":[],"subjects":[],"bookshelves":[],"languages":["en"],"copyright":false,"media_type":"Text","formats":{"text/html":"https://www.gutenberg.org/files/72870/72870-h/72870-h.htm","text/plain; charset=us-ascii":"https://www.gutenberg.org/files/72870/72870-0.txt"},"download_count":0},{"id":72873,"title":"Gloria","authors":[{"name":"Turner, G. Frederic","birth_year":null,"death_year":null}],"translators":[],"subjects":[],"bookshelves":[],"languages":["en"],"copyright":false,"media_type":"Text","formats":{"text/html":"https://www.gutenberg.org/files/72873/72873-h/72873-h.htm","text/plain; charset=us-ascii":"https://www.gutenberg.org/files/72873/72873-0.txt"},"download_count":0},{"id":72875,"title":"The A B C of atoms","authors":[{"name":"Russell, Bertrand","birth_year":1872,"death_year":1970}],"translators":[],"subjects":[],"bookshelves":[],"languages":["en"],"copyright":false,"media_type":"Text","formats":{"text/html":"https://www.gutenberg.org/files/72875/72875-h/72875-h.htm"},"download_count":0},{"id":72881,"title":"The Irish Guards in the Great War, Volume 2 (of 2) : $b The Second Battalion and Appendices","authors":[{"name":"Kipling, Rudyard","birth_year":1865,"death_year":1936}],"translators":[],"subjects":[],"bookshelves":[],"languages":["en"],"copyright":false,"media_type":"Text","formats":{"text/html":"https://www.gutenberg.org/files/72881/72881-h/72881-h.htm","text/plain; charset=us-ascii":"https://www.gutenberg.org/files/72881/72881-0.txt"},"download_count":0},{"id":72882,"title":"The face of China : $b Travels in east, north, central and western China","authors":[{"name":"Kemp, E. G. (Emily Georgiana)","birth_year":1860,"death_year":1939}],"translators":[],"subjects":[],"bookshelves":[],"languages":["en"],"copyright":false,"media_type":"Text","formats":{"text/html":"https://www.gutenberg.org/ebooks/72882.html.images","application/epub+zip":"https://www.gutenberg.org/ebooks/72882.epub3.images","application/x-mobipocket-ebook":"https://www.gutenberg.org/ebooks/72882.kf8.images","text/plain; charset=us-ascii":"https://www.gutenberg.org/ebooks/72882.txt.utf-8","application/rdf+xml":"https://www.gutenberg.org/ebooks/72882.rdf","image/jpeg":"https://www.gutenberg.org/cache/epub/72882/pg72882.cover.medium.jpg","application/octet-stream":"https://www.gutenberg.org/cache/epub/72882/pg72882-h.zip"},"download_count":0},{"id":72883,"title":"The Layton Court mystery","authors":[{"name":"Berkeley, Anthony","birth_year":1893,"death_year":1971}],"translators":[],"subjects":[],"bookshelves":[],"languages":["en"],"copyright":false,"media_type":"Text","formats":{"text/html":"https://www.gutenberg.org/files/72883/72883-h/72883-h.htm","text/plain; charset=us-ascii":"https://www.gutenberg.org/files/72883/72883-0.txt"},"download_count":0},{"id":72884,"title":"History of the United States of America, Volume 6 (of 9) : $b During the first administration of James Madison, 1809-1813","authors":[{"name":"Adams, Henry","birth_year":1838,"death_year":1918}],"translators":[],"subjects":[],"bookshelves":[],"languages":["en"],"copyright":false,"media_type":"Text","formats":{"text/html":"https://www.gutenberg.org/files/72884/72884-h/72884-h.htm","text/plain; charset=us-ascii":"https://www.gutenberg.org/files/72884/72884-0.txt"},"download_count":0},{"id":72886,"title":"Infantry training, 1905","authors":[{"name":"Anonymous","birth_year":null,"death_year":null}],"translators":[],"subjects":[],"bookshelves":[],"languages":["en"],"copyright":false,"media_type":"Text","formats":{"text/html":"https://www.gutenberg.org/files/72886/72886-h/72886-h.htm","text/plain; charset=us-ascii":"https://www.gutenberg.org/files/72886/72886-0.txt"},"download_count":0},{"id":72890,"title":"The eternal moment and other stories","authors":[{"name":"Forster, E. M. (Edward Morgan)","birth_year":1879,"death_year":1970}],"translators":[],"subjects":[],"bookshelves":[],"languages":["en"],"copyright":false,"media_type":"Text","formats":{"text/html":"https://www.gutenberg.org/files/72890/72890-h/72890-h.htm","text/plain; charset=us-ascii":"https://www.gutenberg.org/files/72890/72890-0.txt"},"download_count":0},{"id":72891,"title":"The wild fawn","authors":[{"name":"Taylor, Mary Imlay","birth_year":1878,"death_year":1938}],"translators":[],"subjects":[],"bookshelves":[],"languages":["en"],"copyright":false,"media_type":"Text","formats":{"text/html":"https://www.gutenberg.org/files/72891/72891-h/72891-h.htm","text/plain; charset=us-ascii":"https://www.gutenberg.org/files/72891/72891-0.txt"},"download_count":0},{"id":72892,"title":"How to become an inventor : $b Containing experiments in photography, hydraulics, galvanism and electricity, magnetism, heat, and the wonders of the microscope","authors":[{"name":"Warford, Aaron A.","birth_year":null,"death_year":null}],"translators":[],"subjects":[],"bookshelves":[],"languages":["en"],"copyright":false,"media_type":"Text","formats":{"text/html":"https://www.gutenberg.org/files/72892/72892-h/72892-h.htm","text/plain; charset=us-ascii":"https://www.gutenberg.org/files/72892/72892-0.txt"},"download_count":0},{"id":72893,"title":"Captain fly-by-night","authors":[{"name":"McCulley, Johnston","birth_year":1883,"death_year":1958}],"translators":[],"subjects":[],"bookshelves":[],"languages":["en"],"copyright":false,"media_type":"Text","formats":{"text/html":"https://www.gutenberg.org/files/72893/72893-h/72893-h.htm","text/plain; charset=us-ascii":"https://www.gutenberg.org/files/72893/72893-0.txt"},"download_count":0},{"id":72894,"title":"On the mode of communication of cholera","authors":[{"name":"Snow, John","birth_year":1813,"death_year":1858}],"translators":[],"subjects":[],"bookshelves":[],"languages":["en"],"copyright":false,"media_type":"Text","formats":{"text/html":"https://www.gutenberg.org/files/72894/72894-h/72894-h.htm","text/plain; charset=us-ascii":"https://www.gutenberg.org/files/72894/72894-0.txt"},"download_count":0},{"id":72897,"title":"International Library of Technology, v. 333: Hardware, Estimating, and Mill Design","authors":[{"name":"Various","birth_year":null,"death_year":null}],"translators":[],"subjects":[],"bookshelves":[],"languages":["en"],"copyright":false,"media_type":"Text","formats":{"text/html":"https://www.gutenberg.org/files/72897/72897-h/72897-h.htm","text/plain; charset=us-ascii":"https://www.gutenberg.org/files/72897/72897-0.txt"},"download_count":0},{"id":77279,"title":"What to eat and when","authors":[{"name":"Cocroft, Susanna","birth_year":1862,"death_year":1940}],"translators":[],"subjects":["Digestion","Food","Nutrition"],"bookshelves":[],"languages":["en"],"copyright":false,"media_type":"Text","formats":{},"download_count":0},{"id":72901,"title":"By the gods beloved","authors":[{"name":"Orczy, Emmuska Orczy, Baroness","birth_year":1865,"death_year":1947}],"translators":[],"subjects":[],"bookshelves":[],"languages":["en"],"copyright":false,"media_type":"Text","formats":{"text/html":"https://www.gutenberg.org/files/72901/72901-h/72901-h.htm","text/plain; charset=us-ascii":"https://www.gutenberg.org/files/72901/72901-0.txt"},"download_count":0},{"id":72902,"title":"Learning to fly in the U.S. Army : $b a manual of aviation practice","authors":[{"name":"Fales, Elisha Noel","birth_year":null,"death_year":null}],"translators":[],"subjects":[],"bookshelves":[],"languages":["en"],"copyright":false,"media_type":"Text","formats":{"text/html":"https://www.gutenberg.org/files/72902/72902-h/72902-h.htm","text/plain; charset=us-ascii":"https://www.gutenberg.org/files/72902/72902-0.txt"},"download_count":0},{"id":72903,"title":"Songs of Ukraina, with Ruthenian poems","authors":[{"name":"Livesay, Florence Randal","birth_year":null,"death_year":null}],"translators":[],"subjects":[],"bookshelves":[],"languages":["en"],"copyright":false,"media_type":"Text","formats":{"text/html":"https://www.gutenberg.org/files/72903/72903-h/72903-h.htm","text/plain; charset=us-ascii":"https://www.gutenberg.org/files/72903/72903-0.txt"},"download_count":0},{"id":72904,"title":"Within these walls","authors":[{"name":"Hughes, Rupert","birth_year":1872,"death_year":1956}],"translators":[],"subjects":[],"bookshelves":[],"languages":["en"],"copyright":false,"media_type":"Text","formats":{"text/html":"https://www.gutenberg.org/files/72904/72904-h/72904-h.htm","text/plain; charset=us-ascii":"https://www.gutenberg.org/files/72904/72904-0.txt"},"download_count":0},{"id":72906,"title":"The way of the spirit","authors":[{"name":"Haggard, H. Rider (Henry Rider)","birth_year":1856,"death_year":1925}],"translators":[],"subjects":[],"bookshelves":[],"languages":["en"],"copyright":false,"media_type":"Text","formats":{"text/html":"https://www.gutenberg.org/files/72906/72906-h/72906-h.htm","text/plain; charset=us-ascii":"https://www.gutenberg.org/files/72906/72906-0.txt"},"download_count":0},{"id":72907,"title":"When the Moon fell","authors":[{"name":"Colladay, Morrison","birth_year":null,"death_year":null}],"translators":[],"subjects":[],"bookshelves":[],"languages":["en"],"copyright":false,"media_type":"Text","formats":{"text/html":"https://www.gutenberg.org/files/72907/72907-h/72907-h.htm","text/plain; charset=us-ascii":"https://www.gutenberg.org/files/72907/72907-0.txt"},"download_count":0},{"id":72908,"title":"The cardinal's musketeer","authors":[{"name":"Taylor, Mary Imlay","birth_year":1878,"death_year":1938}],"translators":[],"subjects":[],"bookshelves":[],"languages":["en"],"copyright":false,"media_type":"Text","formats":{"text/html":"https://www.gutenberg.org/files/72908/72908-h/72908-h.htm","text/plain; charset=us-ascii":"https://www.gutenberg.org/files/72908/72908-0.txt"},"download_count":0},{"id":72909,"title":"Tumbleweeds","authors":[{"name":"Evarts, Hal G. (Hal George)","birth_year":1887,"death_year":1934}],"translators":[],"subjects":[],"bookshelves":[],"languages":["en"],"copyright":false,"media_type":"Text","formats":{"text/html":"https://www.gutenberg.org/files/72909/72909-h/72909-h.htm","text/plain; charset=us-ascii":"https://www.gutenberg.org/files/72909/72909-0.txt"},"download_count":0},{"id":72910,"title":"On the art of writing fiction","authors":[{"name":"Baring-Gould, S. (Sabine)","birth_year":1834,"death_year":1924},{"name":"Walford, Lucy Bethia","birth_year":1845,"death_year":1915},{"name":"Gray, Maxwell","birth_year":null,"death_year":null},{"name":"Macquoid, Katharine Sarah","birth_year":null,"death_year":null},{"name":"Norris, W. E. (William Edward)","birth_year":1847,"death_year":1925}],"translators":[],"subjects":[],"bookshelves":[],"languages":["en"],"copyright":false,"media_type":"Text","formats":{"text/html":"https://www.gutenberg.org/files/72910/72910-h/72910-h.htm","text/plain; charset=us-ascii":"https://www.gutenberg.org/files/72910/72910-0.txt"},"download_count":0},{"id":72911,"title":"The botanist's repository for new and rare plants; vols 3 & 4","authors":[{"name":"Andrews, Henry Cranke, active 1799-1828","birth_year":null,"death_year":null}],"translators":[],"subjects":[],"bookshelves":[],"languages":["en"],"copyright":false,"media_type":"Text","formats":{"text/html":"https://www.gutenberg.org/files/72911/72911-h/72911-h.htm","text/plain; charset=us-ascii":"https://www.gutenberg.org/files/72911/72911-0.txt"},"download_count":0},{"id":72913,"title":"Beyond the stars","authors":[{"name":"Cummings, Ray","birth_year":1887,"death_year":1957}],"translators":[],"subjects":[],"bookshelves":[],"languages":["en"],"copyright":false,"media_type":"Text","formats":{"text/html":"https://www.gutenberg.org/files/72913/72913-h/72913-h.htm","text/plain; charset=us-ascii":"https://www.gutenberg.org/files/72913/72913-0.txt"},"download_count":0},{"id":72914,"title":"The man on the meteor","authors":[{"name":"Cummings, Ray","birth_year":1887,"death_year":1957}],"translators":[],"subjects":[],"bookshelves":[],"languages":["en"],"copyright":false,"media_type":"Text","formats":{"text/html":"https://www.gutenberg.org/files/72914/72914-h/72914-h.htm","text/plain; charset=us-ascii":"https://www.gutenberg.org/files/72914/72914-0.txt"},"download_count":0}]}