{"count":58808,"next":"http://129.241.150.113:8000/books/?languages=en&page=1731","previous":"http://129.241.150.113:8000/books/?languages=en&page=1729","results":[{"id":5291,"title":"Tales and Novels of J. de La Fontaine — Volume 17","authors":[{"name":"La Fontaine, Jean de","birth_year":1621,"death_year":1695}],"translators":[],"subjects":["Fables, French -- Translations into English","French poetry -- Translations into English"],"bookshelves":[],"languages":["en"],"copyright":false,"media_type":"Text","formats":{"text/html":"https://www.gutenberg.org/ebooks/5291.html.images","application/epub+zip":"https://www.gutenberg.org/ebooks/5291.epub3.images","application/x-mobipocket-ebook":"https://www.gutenberg.org/ebooks/5291.kf8.images","text/plain; charset=us-ascii":"https://www.gutenberg.org/ebooks/5291.txt.utf-8","application/rdf+xml":"https://www.gutenberg.org/ebooks/5291.rdf","image/jpeg":"https://www.gutenberg.org/cache/epub/5291/pg5291.cover.medium.jpg","application/octet-stream":"https://www.gutenberg.org/cache/epub/5291/pg5291-h.zip"},"download_count":16},{"id":5303,"title":"The Little Hunchback Zia","authors":[{"name":"Burnett, Frances Hodgson","birth_year":1849,"death_year":1924}],"translators":[],"subjects":["Christmas stories"],"bookshelves":["Children's Literature"],"languages":["en"],"copyright":false,"media_type":"Text","formats":{"text/html":"https://www.gutenberg.org/ebooks/5303.html.images","application/epub+zip":"https://www.gutenberg.org/ebooks/5303.epub3.images","application/x-mobipocket-ebook":"https://www.gutenberg.org/ebooks/5303.kf8.images","text/plain; charset=us-ascii":"https://www.gutenberg.org/ebooks/5303.txt.utf-8","application/rdf+xml":"https://www.gutenberg.org/ebooks/5303.rdf","image/jpeg":"https://www.gutenberg.org/cache/epub/5303/pg5303.cover.medium.jpg","application/octet-stream":"https://www.gutenberg.org/cache/epub/5303/pg5303-h.zip"},"download_count":16},{"id":5309,"title":"\"Miss Lou\"","authors":[{"name":"Roe, Edward Payson","birth_year":1838,"death_year":1888}],"translators":[],"subjects":["United States -- History -- Civil War, 1861-1865 -- Fiction"],"bookshelves":["US Civil War"],"languages":["en"],"copyright":false,"media_type":"Text","formats":{"text/html":"https://www.gutenberg.org/ebooks/5309.html.images","application/epub+zip":"https://www.gutenberg.org/ebooks/5309.epub3.images","application/x-mobipocket-ebook":"https://www.gutenberg.org/ebooks/5309.kf8.images","text/plain; charset=us-ascii":"https://www.gutenberg.org/ebooks/5309.txt.utf-8","application/rdf+xml":"https://www.gutenberg.org/ebooks/5309.rdf","image/jpeg":"https://www.gutenberg.org/cache/epub/5309/pg5309.cover.medium.jpg","application/octet-stream":"https://www.gutenberg.org/cache/epub/5309/pg5309-h.zip"},"download_count":16},{"id":5331,"title":"NATURAE","authors":[{"name":"Dom","birth_year":null,"death_year":null}],"translators":[],"subjects":["Literature"],"bookshelves":[],"languages":["en"],"copyright":true,"media_type":"Text","formats":{"text/html":"https://www.gutenberg.org/ebooks/5331.html.images","application/epub+zip":"https://www.gutenberg.org/ebooks/5331.epub3.images","text/rtf":"https://www.gutenberg.org/files/5331/5331-r.rtf","application/x-mobipocket-ebook":"https://www.gutenberg.org/ebooks/5331.kf8.images","text/plain; charset=us-ascii":"https://www.gutenberg.org/ebooks/5331.txt.utf-8","application/rdf+xml":"https://www.gutenberg.org/ebooks/5331.rdf","image/jpeg":"https://www.gutenberg.org/cache/epub/5331/pg5331.cover.medium.jpg","application/octet-stream":"https://www.gutenberg.org/files/5331/5331-r.zip"},"download_count":16},{"id":5351,"title":"If I Were King","authors":[{"name":"McCarthy, Justin H. (Justin Huntly)","birth_year":1860,"death_year":1936}],"translators":[],"subjects":["France -- History -- Louis XI, 1461-1483 -- Fiction","Villon, François, 1431-1463 -- Fiction"],"bookshelves":[],"languages":["en"],"copyright":false,"media_type":"Text","formats":{"text/html":"https://www.gutenberg.org/ebooks/5351.html.images","application/epub+zip":"https://www.gutenberg.org/ebooks/5351.epub3.images","application/x-mobipocket-ebook":"https://www.gutenberg.org/ebooks/5351.kf8.images","text/plain; charset=us-ascii":"https://www.gutenberg.org/ebooks/5351.txt.utf-8","text/plain; charset=iso-8859-1":"https://www.gutenberg.org/files/5351/5351.txt","application/rdf+xml":"https://www.gutenberg.org/ebooks/5351.rdf","image/jpeg":"https://www.gutenberg.org/cache/epub/5351/pg5351.cover.medium.jpg","application/octet-stream":"https://www.gutenberg.org/cache/epub/5351/pg5351-h.zip"},"download_count":16},{"id":5368,"title":"Richard Carvel — Volume 04","authors":[{"name":"Churchill, Winston","birth_year":1871,"death_year":1947}],"translators":[],"subjects":["Maryland -- History -- Fiction","United States -- History -- Revolution, 1775-1783 -- Fiction"],"bookshelves":["Bestsellers, American, 1895-1923"],"languages":["en"],"copyright":false,"media_type":"Text","formats":{"text/html":"https://www.gutenberg.org/ebooks/5368.html.images","application/epub+zip":"https://www.gutenberg.org/ebooks/5368.epub3.images","application/x-mobipocket-ebook":"https://www.gutenberg.org/ebooks/5368.kf8.images","text/plain; charset=us-ascii":"https://www.gutenberg.org/ebooks/5368.txt.utf-8","application/rdf+xml":"https://www.gutenberg.org/ebooks/5368.rdf","image/jpeg":"https://www.gutenberg.org/cache/epub/5368/pg5368.cover.medium.jpg","application/octet-stream":"https://www.gutenberg.org/cache/epub/5368/pg5368-h.zip"},"download_count":16},{"id":5372,"title":"Richard Carvel — Volume 08","authors":[{"name":"Churchill, Winston","birth_year":1871,"death_year":1947}],"translators":[],"subjects":["Maryland -- History -- Fiction","United States -- History -- Revolution, 1775-1783 -- Fiction"],"bookshelves":["Bestsellers, American, 1895-1923"],"languages":["en"],"copyright":false,"media_type":"Text","formats":{"text/html":"https://www.gutenberg.org/ebooks/5372.html.images","application/epub+zip":"https://www.gutenberg.org/ebooks/5372.epub3.images","application/x-mobipocket-ebook":"https://www.gutenberg.org/ebooks/5372.kf8.images","text/plain; charset=us-ascii":"https://www.gutenberg.org/ebooks/5372.txt.utf-8","application/rdf+xml":"https://www.gutenberg.org/ebooks/5372.rdf","image/jpeg":"https://www.gutenberg.org/cache/epub/5372/pg5372.cover.medium.jpg","application/octet-stream":"https://www.gutenberg.org/cache/epub/5372/pg5372-h.zip"},"download_count":16},{"id":5383,"title":"The Celebrity, Volume 01","authors":[{"name":"Churchill, Winston","birth_year":1871,"death_year":1947}],"translators":[],"subjects":["Authors -- Fiction","Authorship -- Fiction","Celebrities -- Fiction"],"bookshelves":[],"languages":["en"],"copyright":false,"media_type":"Text","formats":{"text/html":"https://www.gutenberg.org/ebooks/5383.html.images","application/epub+zip":"https://www.gutenberg.org/ebooks/5383.epub3.images","application/x-mobipocket-ebook":"https://www.gutenberg.org/ebooks/5383.kf8.images","text/plain; charset=us-ascii":"https://www.gutenberg.org/ebooks/5383.txt.utf-8","application/rdf+xml":"https://www.gutenberg.org/ebooks/5383.rdf","image/jpeg":"https://www.gutenberg.org/cache/epub/5383/pg5383.cover.medium.jpg","application/octet-stream":"https://www.gutenberg.org/cache/epub/5383/pg5383-h.zip"},"download_count":16},{"id":5395,"title":"The Crisis — Volume 08","authors":[{"name":"Churchill, Winston","birth_year":1871,"death_year":1947}],"translators":[],"subjects":["United States -- History -- Civil War, 1861-1865 -- Fiction"],"bookshelves":["Bestsellers, American, 1895-1923","US Civil War"],"languages":["en"],"copyright":false,"media_type":"Text","formats":{"text/html":"https://www.gutenberg.org/ebooks/5395.html.images","application/epub+zip":"https://www.gutenberg.org/ebooks/5395.epub3.images","application/x-mobipocket-ebook":"https://www.gutenberg.org/ebooks/5395.kf8.images","text/plain; charset=us-ascii":"https://www.gutenberg.org/ebooks/5395.txt.utf-8","application/rdf+xml":"https://www.gutenberg.org/ebooks/5395.rdf","image/jpeg":"https://www.gutenberg.org/cache/epub/5395/pg5395.cover.medium.jpg","application/octet-stream":"https://www.gutenberg.org/cache/epub/5395/pg5395-h.zip"},"download_count":16},{"id":5476,"title":"Cleopatra — Volume 04","authors":[{"name":"Ebers, Georg","birth_year":1837,"death_year":1898}],"translators":[{"name":"Safford, Mary J.","birth_year":null,"death_year":null}],"subjects":["Biographical fiction","Cleopatra, Queen of Egypt, -30 B.C. -- Fiction","Egypt -- History -- 332-30 B.C. -- Fiction","German fiction -- Translations into English","Queens -- Egypt -- Fiction"],"bookshelves":["Historical Fiction"],"languages":["en"],"copyright":false,"media_type":"Text","formats":{"text/html":"https://www.gutenberg.org/ebooks/5476.html.images","application/epub+zip":"https://www.gutenberg.org/ebooks/5476.epub3.images","application/x-mobipocket-ebook":"https://www.gutenberg.org/ebooks/5476.kf8.images","text/plain; charset=us-ascii":"https://www.gutenberg.org/ebooks/5476.txt.utf-8","application/rdf+xml":"https://www.gutenberg.org/ebooks/5476.rdf","image/jpeg":"https://www.gutenberg.org/cache/epub/5476/pg5476.cover.medium.jpg","application/octet-stream":"https://www.gutenberg.org/cache/epub/5476/pg5476-h.zip"},"download_count":16},{"id":5487,"title":"The Emperor — Volume 05","authors":[{"name":"Ebers, Georg","birth_year":1837,"death_year":1898}],"translators":[{"name":"Bell, Clara","birth_year":1834,"death_year":1927}],"subjects":["Egypt -- History -- 30 B.C.-640 A.D. -- Fiction","German fiction -- Translations into English","Hadrian, Emperor of Rome, 76-138 -- Fiction"],"bookshelves":[],"languages":["en"],"copyright":false,"media_type":"Text","formats":{"text/html":"https://www.gutenberg.org/ebooks/5487.html.images","application/epub+zip":"https://www.gutenberg.org/ebooks/5487.epub3.images","application/x-mobipocket-ebook":"https://www.gutenberg.org/ebooks/5487.kf8.images","text/plain; charset=us-ascii":"https://www.gutenberg.org/ebooks/5487.txt.utf-8","application/rdf+xml":"https://www.gutenberg.org/ebooks/5487.rdf","image/jpeg":"https://www.gutenberg.org/cache/epub/5487/pg5487.cover.medium.jpg","application/octet-stream":"https://www.gutenberg.org/cache/epub/5487/pg5487-h.zip"},"download_count":16},{"id":5494,"title":"Homo Sum — Volume 01","authors":[{"name":"Ebers, Georg","birth_year":1837,"death_year":1898}],"translators":[{"name":"Bell, Clara","birth_year":1834,"death_year":1927}],"subjects":["Church history -- 4th century -- Fiction","German fiction -- Translations into English"],"bookshelves":["Historical Fiction"],"languages":["en"],"copyright":false,"media_type":"Text","formats":{"text/html":"https://www.gutenberg.org/ebooks/5494.html.images","application/epub+zip":"https://www.gutenberg.org/ebooks/5494.epub3.images","application/x-mobipocket-ebook":"https://www.gutenberg.org/ebooks/5494.kf8.images","text/plain; charset=us-ascii":"https://www.gutenberg.org/ebooks/5494.txt.utf-8","application/rdf+xml":"https://www.gutenberg.org/ebooks/5494.rdf","image/jpeg":"https://www.gutenberg.org/cache/epub/5494/pg5494.cover.medium.jpg","application/octet-stream":"https://www.gutenberg.org/cache/epub/5494/pg5494-h.zip"},"download_count":16},{"id":5498,"title":"Homo Sum — Volume 05","authors":[{"name":"Ebers, Georg","birth_year":1837,"death_year":1898}],"translators":[{"name":"Bell, Clara","birth_year":1834,"death_year":1927}],"subjects":["Church history -- 4th century -- Fiction","German fiction -- Translations into English"],"bookshelves":["Historical Fiction"],"languages":["en"],"copyright":false,"media_type":"Text","formats":{"text/html":"https://www.gutenberg.org/ebooks/5498.html.images","application/epub+zip":"https://www.gutenberg.org/ebooks/5498.epub3.images","application/x-mobipocket-ebook":"https://www.gutenberg.org/ebooks/5498.kf8.images","text/plain; charset=us-ascii":"https://www.gutenberg.org/ebooks/5498.txt.utf-8","application/rdf+xml":"https://www.gutenberg.org/ebooks/5498.rdf","image/jpeg":"https://www.gutenberg.org/cache/epub/5498/pg5498.cover.medium.jpg","application/octet-stream":"https://www.gutenberg.org/cache/epub/5498/pg5498-h.zip"},"download_count":16},{"id":5510,"title":"Arachne — Volume 03","authors":[{"name":"Ebers, Georg","birth_year":1837,"death_year":1898}],"translators":[{"name":"Safford, Mary J.","birth_year":null,"death_year":null}],"subjects":["Egypt -- History -- 332-30 B.C. -- Fiction","German fiction -- Translations into English"],"bookshelves":[],"languages":["en"],"copyright":false,"media_type":"Text","formats":{"text/html":"https://www.gutenberg.org/ebooks/5510.html.images","application/epub+zip":"https://www.gutenberg.org/ebooks/5510.epub3.images","application/x-mobipocket-ebook":"https://www.gutenberg.org/ebooks/5510.kf8.images","text/plain; charset=us-ascii":"https://www.gutenberg.org/ebooks/5510.txt.utf-8","application/rdf+xml":"https://www.gutenberg.org/ebooks/5510.rdf","image/jpeg":"https://www.gutenberg.org/cache/epub/5510/pg5510.cover.medium.jpg","application/octet-stream":"https://www.gutenberg.org/cache/epub/5510/pg5510-h.zip"},"download_count":16},{"id":5519,"title":"The Bride of the Nile — Volume 03","authors":[{"name":"Ebers, Georg","birth_year":1837,"death_year":1898}],"translators":[{"name":"Bell, Clara","birth_year":1834,"death_year":1927}],"subjects":["Egypt -- History -- Fiction","German fiction -- Translations into English"],"bookshelves":["Historical Fiction"],"languages":["en"],"copyright":false,"media_type":"Text","formats":{"text/html":"https://www.gutenberg.org/ebooks/5519.html.images","application/epub+zip":"https://www.gutenberg.org/ebooks/5519.epub3.images","application/x-mobipocket-ebook":"https://www.gutenberg.org/ebooks/5519.kf8.images","text/plain; charset=us-ascii":"https://www.gutenberg.org/ebooks/5519.txt.utf-8","application/rdf+xml":"https://www.gutenberg.org/ebooks/5519.rdf","image/jpeg":"https://www.gutenberg.org/cache/epub/5519/pg5519.cover.medium.jpg","application/octet-stream":"https://www.gutenberg.org/cache/epub/5519/pg5519-h.zip"},"download_count":16},{"id":5524,"title":"The Bride of the Nile — Volume 08","authors":[{"name":"Ebers, Georg","birth_year":1837,"death_year":1898}],"translators":[{"name":"Bell, Clara","birth_year":1834,"death_year":1927}],"subjects":["Egypt -- History -- Fiction","German fiction -- Translations into English"],"bookshelves":["Historical Fiction"],"languages":["en"],"copyright":false,"media_type":"Text","formats":{"text/html":"https://www.gutenberg.org/ebooks/5524.html.images","application/epub+zip":"https://www.gutenberg.org/ebooks/5524.epub3.images","application/x-mobipocket-ebook":"https://www.gutenberg.org/ebooks/5524.kf8.images","text/plain; charset=us-ascii":"https://www.gutenberg.org/ebooks/5524.txt.utf-8","application/rdf+xml":"https://www.gutenberg.org/ebooks/5524.rdf","image/jpeg":"https://www.gutenberg.org/cache/epub/5524/pg5524.cover.medium.jpg","application/octet-stream":"https://www.gutenberg.org/cache/epub/5524/pg5524-h.zip"},"download_count":16},{"id":5526,"title":"The Bride of the Nile — Volume 10","authors":[{"name":"Ebers, Georg","birth_year":1837,"death_year":1898}],"translators":[{"name":"Bell, Clara","birth_year":1834,"death_year":1927}],"subjects":["Egypt -- History -- Fiction","German fiction -- Translations into English"],"bookshelves":["Historical Fiction"],"languages":["en"],"copyright":false,"media_type":"Text","formats":{"text/html":"https://www.gutenberg.org/ebooks/5526.html.images","application/epub+zip":"https://www.gutenberg.org/ebooks/5526.epub3.images","application/x-mobipocket-ebook":"https://www.gutenberg.org/ebooks/5526.kf8.images","text/plain; charset=us-ascii":"https://www.gutenberg.org/ebooks/5526.txt.utf-8","application/rdf+xml":"https://www.gutenberg.org/ebooks/5526.rdf","image/jpeg":"https://www.gutenberg.org/cache/epub/5526/pg5526.cover.medium.jpg","application/octet-stream":"https://www.gutenberg.org/cache/epub/5526/pg5526-h.zip"},"download_count":16},{"id":5531,"title":"A Thorny Path — Volume 02","authors":[{"name":"Ebers, Georg","birth_year":1837,"death_year":1898}],"translators":[{"name":"Bell, Clara","birth_year":1834,"death_year":1927}],"subjects":["Egypt -- History -- 30 B.C.-640 A.D. -- Fiction","German fiction -- Translations into English"],"bookshelves":[],"languages":["en"],"copyright":false,"media_type":"Text","formats":{"text/html":"https://www.gutenberg.org/ebooks/5531.html.images","application/epub+zip":"https://www.gutenberg.org/ebooks/5531.epub3.images","application/x-mobipocket-ebook":"https://www.gutenberg.org/ebooks/5531.kf8.images","text/plain; charset=us-ascii":"https://www.gutenberg.org/ebooks/5531.txt.utf-8","application/rdf+xml":"https://www.gutenberg.org/ebooks/5531.rdf","image/jpeg":"https://www.gutenberg.org/cache/epub/5531/pg5531.cover.medium.jpg","application/octet-stream":"https://www.gutenberg.org/cache/epub/5531/pg5531-h.zip"},"download_count":16},{"id":5556,"title":"Margery (Gred): A Tale Of Old Nuremberg — Volume 05","authors":[{"name":"Ebers, Georg","birth_year":1837,"death_year":1898}],"translators":[{"name":"Bell, Clara","birth_year":1834,"death_year":1927}],"subjects":["German fiction -- Translations into English","Nuremberg (Germany) -- Fiction"],"bookshelves":[],"languages":["en"],"copyright":false,"media_type":"Text","formats":{"text/html":"https://www.gutenberg.org/ebooks/5556.html.images","application/epub+zip":"https://www.gutenberg.org/ebooks/5556.epub3.images","application/x-mobipocket-ebook":"https://www.gutenberg.org/ebooks/5556.kf8.images","text/plain; charset=us-ascii":"https://www.gutenberg.org/ebooks/5556.txt.utf-8","application/rdf+xml":"https://www.gutenberg.org/ebooks/5556.rdf","image/jpeg":"https://www.gutenberg.org/cache/epub/5556/pg5556.cover.medium.jpg","application/octet-stream":"https://www.gutenberg.org/cache/epub/5556/pg5556-h.zip"},"download_count":16},{"id":5558,"title":"Margery (Gred): A Tale Of Old Nuremberg — Volume 07","authors":[{"name":"Ebers, Georg","birth_year":1837,"death_year":1898}],"translators":[{"name":"Bell, Clara","birth_year":1834,"death_year":1927}],"subjects":["German fiction -- Translations into English","Nuremberg (Germany) -- Fiction"],"bookshelves":[],"languages":["en"],"copyright":false,"media_type":"Text","formats":{"text/html":"https://www.gutenberg.org/ebooks/5558.html.images","application/epub+zip":"https://www.gutenberg.org/ebooks/5558.epub3.images","application/x-mobipocket-ebook":"https://www.gutenberg.org/ebooks/5558.kf8.images","text/plain; charset=us-ascii":"https://www.gutenberg.org/ebooks/5558.txt.utf-8","application/rdf+xml":"https://www.gutenberg.org/ebooks/5558.rdf","image/jpeg":"https://www.gutenberg.org/cache/epub/5558/pg5558.cover.medium.jpg","application/octet-stream":"https://www.gutenberg.org/cache/epub/5558/pg5558-h.zip"},"download_count":16},{"id":5570,"title":"Barbara Blomberg — Volume 10","authors":[{"name":"Ebers, Georg","birth_year":1837,"death_year":1898}],"translators":[{"name":"Safford, Mary J.","birth_year":null,"death_year":null}],"subjects":["German fiction -- Translations into English","Holy Roman Empire -- History -- Charles V, 1519-1556 -- Fiction"],"bookshelves":["Historical Fiction"],"languages":["en"],"copyright":false,"media_type":"Text","formats":{"text/html":"https://www.gutenberg.org/ebooks/5570.html.images","application/epub+zip":"https://www.gutenberg.org/ebooks/5570.epub3.images","application/x-mobipocket-ebook":"https://www.gutenberg.org/ebooks/5570.kf8.images","text/plain; charset=us-ascii":"https://www.gutenberg.org/ebooks/5570.txt.utf-8","application/rdf+xml":"https://www.gutenberg.org/ebooks/5570.rdf","image/jpeg":"https://www.gutenberg.org/cache/epub/5570/pg5570.cover.medium.jpg","application/octet-stream":"https://www.gutenberg.org/cache/epub/5570/pg5570-h.zip"},"download_count":16},{"id":5581,"title":"The Burgomaster's Wife — Volume 04","authors":[{"name":"Ebers, Georg","birth_year":1837,"death_year":1898}],"translators":[{"name":"Safford, Mary J.","birth_year":null,"death_year":null}],"subjects":["German fiction -- Translations into English","Netherlands -- History -- Eighty Years' War, 1568-1648 -- Fiction"],"bookshelves":[],"languages":["en"],"copyright":false,"media_type":"Text","formats":{"text/html":"https://www.gutenberg.org/ebooks/5581.html.images","application/epub+zip":"https://www.gutenberg.org/ebooks/5581.epub3.images","application/x-mobipocket-ebook":"https://www.gutenberg.org/ebooks/5581.kf8.images","text/plain; charset=us-ascii":"https://www.gutenberg.org/ebooks/5581.txt.utf-8","application/rdf+xml":"https://www.gutenberg.org/ebooks/5581.rdf","image/jpeg":"https://www.gutenberg.org/cache/epub/5581/pg5581.cover.medium.jpg","application/octet-stream":"https://www.gutenberg.org/cache/epub/5581/pg5581-h.zip"},"download_count":16},{"id":5582,"title":"The Burgomaster's Wife — Volume 05","authors":[{"name":"Ebers, Georg","birth_year":1837,"death_year":1898}],"translators":[{"name":"Safford, Mary J.","birth_year":null,"death_year":null}],"subjects":["German fiction -- Translations into English","Netherlands -- History -- Eighty Years' War, 1568-1648 -- Fiction"],"bookshelves":[],"languages":["en"],"copyright":false,"media_type":"Text","formats":{"text/html":"https://www.gutenberg.org/ebooks/5582.html.images","application/epub+zip":"https://www.gutenberg.org/ebooks/5582.epub3.images","application/x-mobipocket-ebook":"https://www.gutenberg.org/ebooks/5582.kf8.images","text/plain; charset=us-ascii":"https://www.gutenberg.org/ebooks/5582.txt.utf-8","application/rdf+xml":"https://www.gutenberg.org/ebooks/5582.rdf","image/jpeg":"https://www.gutenberg.org/cache/epub/5582/pg5582.cover.medium.jpg","application/octet-stream":"https://www.gutenberg.org/cache/epub/5582/pg5582-h.zip"},"download_count":16},{"id":5598,"title":"The Story of My Life — Volume 06","authors":[{"name":"Ebers, Georg","birth_year":1837,"death_year":1898}],"translators":[{"name":"Safford, Mary J.","birth_year":null,"death_year":null}],"subjects":["Ebers, Georg, 1837-1898"],"bookshelves":[],"languages":["en"],"copyright":false,"media_type":"Text","formats":{"text/html":"https://www.gutenberg.org/ebooks/5598.html.images","application/epub+zip":"https://www.gutenberg.org/ebooks/5598.epub3.images","application/x-mobipocket-ebook":"https://www.gutenberg.org/ebooks/5598.kf8.images","text/plain; charset=us-ascii":"https://www.gutenberg.org/ebooks/5598.txt.utf-8","application/rdf+xml":"https://www.gutenberg.org/ebooks/5598.rdf","image/jpeg":"https://www.gutenberg.org/cache/epub/5598/pg5598.cover.medium.jpg","application/octet-stream":"https://www.gutenberg.org/cache/epub/5598/pg5598-h.zip"},"download_count":16},{"id":5626,"title":"The Motormaniacs","authors":[{"name":"Osbourne, Lloyd","birth_year":1868,"death_year":1947}],"translators":[],"subjects":["United States -- Social life and customs -- 20th century -- Fiction"],"bookshelves":[],"languages":["en"],"copyright":false,"media_type":"Text","formats":{"text/html":"https://www.gutenberg.org/ebooks/5626.html.images","application/epub+zip":"https://www.gutenberg.org/ebooks/5626.epub3.images","application/x-mobipocket-ebook":"https://www.gutenberg.org/ebooks/5626.kf8.images","text/plain; charset=us-ascii":"https://www.gutenberg.org/ebooks/5626.txt.utf-8","application/rdf+xml":"https://www.gutenberg.org/ebooks/5626.rdf","image/jpeg":"https://www.gutenberg.org/cache/epub/5626/pg5626.cover.medium.jpg","application/octet-stream":"https://www.gutenberg.org/cache/epub/5626/pg5626-h.zip"},"download_count":16},{"id":5716,"title":"Memoirs (Vieux Souvenirs) of the Prince de Joinville","authors":[{"name":"Joinville, François-Ferdinand-Philippe-Louis-Marie d'Orléans, prince de","birth_year":1818,"death_year":1900}],"translators":[{"name":"Loyd, Mary, Lady","birth_year":1853,"death_year":1936}],"subjects":["France -- History -- Louis Philippe, 1830-1848","France -- History -- Restoration, 1814-1830","Joinville, François-Ferdinand-Philippe-Louis-Marie d'Orléans, prince de, 1818-1900"],"bookshelves":[],"languages":["en"],"copyright":false,"media_type":"Text","formats":{"text/html":"https://www.gutenberg.org/ebooks/5716.html.images","application/epub+zip":"https://www.gutenberg.org/ebooks/5716.epub3.images","application/x-mobipocket-ebook":"https://www.gutenberg.org/ebooks/5716.kf8.images","text/plain; charset=us-ascii":"https://www.gutenberg.org/ebooks/5716.txt.utf-8","application/rdf+xml":"https://www.gutenberg.org/ebooks/5716.rdf","image/jpeg":"https://www.gutenberg.org/cache/epub/5716/pg5716.cover.medium.jpg","application/octet-stream":"https://www.gutenberg.org/cache/epub/5716/pg5716-h.zip"},"download_count":16},{"id":5789,"title":"Personal Recollections of Early Melbourne and Victoria","authors":[{"name":"Westgarth, William","birth_year":1815,"death_year":1889}],"translators":[],"subjects":["Victoria -- Description and travel"],"bookshelves":[],"languages":["en"],"copyright":false,"media_type":"Text","formats":{"text/html":"https://www.gutenberg.org/ebooks/5789.html.images","application/epub+zip":"https://www.gutenberg.org/ebooks/5789.epub3.images","application/x-mobipocket-ebook":"https://www.gutenberg.org/ebooks/5789.kf8.images","text/plain; charset=us-ascii":"https://www.gutenberg.org/ebooks/5789.txt.utf-8","application/rdf+xml":"https://www.gutenberg.org/ebooks/5789.rdf","image/jpeg":"https://www.gutenberg.org/cache/epub/5789/pg5789.cover.medium.jpg","application/octet-stream":"https://www.gutenberg.org/cache/epub/5789/pg5789-h.zip"},"download_count":16},{"id":5867,"title":"Rataplan, a Rogue Elephant; and Other Stories","authors":[{"name":"Velvin, Ellen","birth_year":null,"death_year":1918}],"translators":[],"subjects":["Animals -- Juvenile fiction"],"bookshelves":[],"languages":["en"],"copyright":false,"media_type":"Text","formats":{"text/html":"https://www.gutenberg.org/ebooks/5867.html.images","application/epub+zip":"https://www.gutenberg.org/ebooks/5867.epub3.images","application/x-mobipocket-ebook":"https://www.gutenberg.org/ebooks/5867.kf8.images","text/plain; charset=us-ascii":"https://www.gutenberg.org/ebooks/5867.txt.utf-8","application/rdf+xml":"https://www.gutenberg.org/ebooks/5867.rdf","image/jpeg":"https://www.gutenberg.org/cache/epub/5867/pg5867.cover.medium.jpg","application/octet-stream":"https://www.gutenberg.org/cache/epub/5867/pg5867-h.zip"},"download_count":16},{"id":5876,"title":"Ten Englishmen of the Nineteenth Century","authors":[{"name":"Joy, James Richard","birth_year":1863,"death_year":1957}],"translators":[],"subjects":["England -- Biography"],"bookshelves":[],"languages":["en"],"copyright":false,"media_type":"Text","formats":{"text/html":"https://www.gutenberg.org/ebooks/5876.html.images","application/epub+zip":"https://www.gutenberg.org/ebooks/5876.epub3.images","application/x-mobipocket-ebook":"https://www.gutenberg.org/ebooks/5876.kf8.images","text/plain; charset=us-ascii":"https://www.gutenberg.org/ebooks/5876.txt.utf-8","application/rdf+xml":"https://www.gutenberg.org/ebooks/5876.rdf","image/jpeg":"https://www.gutenberg.org/cache/epub/5876/pg5876.cover.medium.jpg","application/octet-stream":"https://www.gutenberg.org/cache/epub/5876/pg5876-h.zip"},"download_count":16},{"id":5947,"title":"Billy Bunny and Uncle Bull Frog","authors":[{"name":"Cory, David","birth_year":1872,"death_year":1966}],"translators":[],"subjects":["Animals -- Juvenile fiction","Frogs -- Juvenile fiction","Rabbits -- Juvenile fiction"],"bookshelves":[],"languages":["en"],"copyright":false,"media_type":"Text","formats":{"text/html":"https://www.gutenberg.org/ebooks/5947.html.images","application/epub+zip":"https://www.gutenberg.org/ebooks/5947.epub3.images","application/x-mobipocket-ebook":"https://www.gutenberg.org/ebooks/5947.kf8.images","text/plain; charset=us-ascii":"https://www.gutenberg.org/ebooks/5947.txt.utf-8","application/rdf+xml":"https://www.gutenberg.org/ebooks/5947.rdf","image/jpeg":"https://www.gutenberg.org/cache/epub/5947/pg5947.cover.medium.jpg","application/octet-stream":"https://www.gutenberg.org/cache/epub/5947/pg5947-h.zip"},"download_count":16},{"id":6003,"title":"Story of Aeneas","authors":[{"name":"Clarke, Michael","birth_year":null,"death_year":1916}],"translators":[],"subjects":["Aeneas (Legendary character)","Virgil. Aeneis"],"bookshelves":[],"languages":["en"],"copyright":false,"media_type":"Text","formats":{"text/html":"https://www.gutenberg.org/ebooks/6003.html.images","application/epub+zip":"https://www.gutenberg.org/ebooks/6003.epub3.images","application/x-mobipocket-ebook":"https://www.gutenberg.org/ebooks/6003.kf8.images","text/plain; charset=us-ascii":"https://www.gutenberg.org/ebooks/6003.txt.utf-8","application/rdf+xml":"https://www.gutenberg.org/ebooks/6003.rdf","image/jpeg":"https://www.gutenberg.org/cache/epub/6003/pg6003.cover.medium.jpg","application/octet-stream":"https://www.gutenberg.org/cache/epub/6003/pg6003-h.zip"},"download_count":16},{"id":6123,"title":"Theological Essays and Other Papers — Volume 1","authors":[{"name":"De Quincey, Thomas","birth_year":1785,"death_year":1859}],"translators":[],"subjects":["English essays -- 19th century"],"bookshelves":[],"languages":["en"],"copyright":false,"media_type":"Text","formats":{"text/html":"https://www.gutenberg.org/ebooks/6123.html.images","application/epub+zip":"https://www.gutenberg.org/ebooks/6123.epub3.images","application/x-mobipocket-ebook":"https://www.gutenberg.org/ebooks/6123.kf8.images","text/plain; charset=us-ascii":"https://www.gutenberg.org/ebooks/6123.txt.utf-8","text/plain; charset=utf-8":"https://www.gutenberg.org/files/6123/6123-0.txt","application/rdf+xml":"https://www.gutenberg.org/ebooks/6123.rdf","image/jpeg":"https://www.gutenberg.org/cache/epub/6123/pg6123.cover.medium.jpg","application/octet-stream":"https://www.gutenberg.org/cache/epub/6123/pg6123-h.zip"},"download_count":16}]}