{"count":58808,"next":"http://129.241.150.113:8000/books/?languages=en&page=1837","previous":"http://129.241.150.113:8000/books/?languages=en&page=1835","results":[{"id":72916,"title":"Through deserts and oases of central Asia","authors":[{"name":"Sykes, Percy, Sir","birth_year":1867,"death_year":1945},{"name":"Sykes, Ella Constance","birth_year":null,"death_year":null}],"translators":[],"subjects":[],"bookshelves":[],"languages":["en"],"copyright":false,"media_type":"Text","formats":{"text/html":"https://www.gutenberg.org/files/72916/72916-h/72916-h.htm","text/plain; charset=us-ascii":"https://www.gutenberg.org/files/72916/72916-0.txt"},"download_count":0},{"id":72917,"title":"The reaping","authors":[{"name":"Taylor, Mary Imlay","birth_year":1878,"death_year":1938}],"translators":[],"subjects":[],"bookshelves":[],"languages":["en"],"copyright":false,"media_type":"Text","formats":{"text/html":"https://www.gutenberg.org/files/72917/72917-h/72917-h.htm","text/plain; charset=us-ascii":"https://www.gutenberg.org/files/72917/72917-0.txt"},"download_count":0},{"id":72918,"title":"The flight of the heron","authors":[{"name":"Broster, D. K. (Dorothy Kathleen)","birth_year":1877,"death_year":1950}],"translators":[],"subjects":[],"bookshelves":[],"languages":["en"],"copyright":false,"media_type":"Text","formats":{"text/html":"https://www.gutenberg.org/files/72918/72918-h/72918-h.htm","text/plain; charset=us-ascii":"https://www.gutenberg.org/files/72918/72918-0.txt"},"download_count":0},{"id":72919,"title":"The gold hunters : $b A first-hand picture of life in California mining camps in the early fifties","authors":[{"name":"Borthwick, J. D.","birth_year":null,"death_year":null}],"translators":[],"subjects":[],"bookshelves":[],"languages":["en"],"copyright":false,"media_type":"Text","formats":{"text/html":"https://www.gutenberg.org/files/72919/72919-h/72919-h.htm","text/plain; charset=us-ascii":"https://www.gutenberg.org/files/72919/72919-0.txt"},"download_count":0},{"id":72921,"title":"Terence's Andrian, a comedy, in five acts : $b Translated into English prose, with critical and explanatory notes.","authors":[{"name":"Kane, William T. (William Terence)","birth_year":1880,"death_year":1946}],"translators":[{"name":"W. R. Goodluck, Jun.","birth_year":null,"death_year":null}],"subjects":[],"bookshelves":[],"languages":["en"],"copyright":false,"media_type":"Text","formats":{"text/html":"https://www.gutenberg.org/files/72921/72921-h/72921-h.htm","text/plain; charset=us-ascii":"https://www.gutenberg.org/files/72921/72921-0.txt"},"download_count":0},{"id":72922,"title":"Authors and their public in ancient times","authors":[{"name":"Putnam, George Haven","birth_year":1844,"death_year":1930}],"translators":[],"subjects":[],"bookshelves":[],"languages":["en"],"copyright":false,"media_type":"Text","formats":{"text/html":"https://www.gutenberg.org/files/72922/72922-h/72922-h.htm","text/plain; charset=us-ascii":"https://www.gutenberg.org/files/72922/72922-0.txt"},"download_count":0},{"id":72924,"title":"Social Civics","authors":[{"name":"Munro, William Bennett","birth_year":1875,"death_year":1957}],"translators":[],"subjects":[],"bookshelves":[],"languages":["en"],"copyright":false,"media_type":"Text","formats":{"text/html":"https://www.gutenberg.org/files/72924/72924-h/72924-h.htm","text/plain; charset=us-ascii":"https://www.gutenberg.org/files/72924/72924-0.txt"},"download_count":0},{"id":72926,"title":"The murders in Praed Street","authors":[{"name":"Rhode, John","birth_year":null,"death_year":null}],"translators":[],"subjects":[],"bookshelves":[],"languages":["en"],"copyright":false,"media_type":"Text","formats":{"text/html":"https://www.gutenberg.org/files/72926/72926-h/72926-h.htm","text/plain; charset=us-ascii":"https://www.gutenberg.org/files/72926/72926-0.txt"},"download_count":0},{"id":72927,"title":"The victory","authors":[{"name":"Seawell, Molly Elliot","birth_year":1860,"death_year":1916}],"translators":[],"subjects":[],"bookshelves":[],"languages":["en"],"copyright":false,"media_type":"Text","formats":{"text/html":"https://www.gutenberg.org/files/72927/72927-h/72927-h.htm","text/plain; charset=us-ascii":"https://www.gutenberg.org/files/72927/72927-0.txt"},"download_count":0},{"id":72928,"title":"Ten minute stories","authors":[{"name":"Blackwood, Algernon","birth_year":1869,"death_year":1951}],"translators":[],"subjects":[],"bookshelves":[],"languages":["en"],"copyright":false,"media_type":"Text","formats":{"text/html":"https://www.gutenberg.org/files/72928/72928-h/72928-h.htm","text/plain; charset=us-ascii":"https://www.gutenberg.org/files/72928/72928-0.txt"},"download_count":0},{"id":72929,"title":"Chambers's Journal of Popular Literature, Science, and Art, fifth series, no. 135, vol. III, July 31, 1886","authors":[{"name":"Various","birth_year":null,"death_year":null}],"translators":[],"subjects":[],"bookshelves":[],"languages":["en"],"copyright":false,"media_type":"Text","formats":{"text/html":"https://www.gutenberg.org/files/72929/72929-h/72929-h.htm","text/plain; charset=us-ascii":"https://www.gutenberg.org/files/72929/72929-0.txt"},"download_count":0},{"id":72930,"title":"The juggler","authors":[{"name":"Craddock, Charles Egbert","birth_year":1850,"death_year":1922}],"translators":[],"subjects":[],"bookshelves":[],"languages":["en"],"copyright":false,"media_type":"Text","formats":{"text/html":"https://www.gutenberg.org/files/72930/72930-h/72930-h.htm","text/plain; charset=us-ascii":"https://www.gutenberg.org/files/72930/72930-0.txt"},"download_count":0},{"id":72932,"title":"Korea","authors":[{"name":"Hamilton, A. (Angus)","birth_year":1874,"death_year":1913}],"translators":[],"subjects":[],"bookshelves":[],"languages":["en"],"copyright":false,"media_type":"Text","formats":{"text/html":"https://www.gutenberg.org/files/72932/72932-h/72932-h.htm","text/plain; charset=us-ascii":"https://www.gutenberg.org/files/72932/72932-0.txt"},"download_count":0},{"id":72933,"title":"Miss Devereux, spinster","authors":[{"name":"Giberne, Agnes","birth_year":1845,"death_year":1939}],"translators":[],"subjects":[],"bookshelves":[],"languages":["en"],"copyright":false,"media_type":"Text","formats":{"text/html":"https://www.gutenberg.org/files/72933/72933-h/72933-h.htm","text/plain; charset=us-ascii":"https://www.gutenberg.org/files/72933/72933-0.txt"},"download_count":0},{"id":72934,"title":"Orders conceived and published by the Lord Major and Aldermen of the City of London, concerning the infection of the plague","authors":[{"name":"Anonymous","birth_year":null,"death_year":null}],"translators":[],"subjects":[],"bookshelves":[],"languages":["en"],"copyright":false,"media_type":"Text","formats":{"text/html":"https://www.gutenberg.org/files/72934/72934-h/72934-h.htm","text/plain; charset=us-ascii":"https://www.gutenberg.org/files/72934/72934-0.txt"},"download_count":0},{"id":72935,"title":"Chambers's Journal of Popular Literature, Science, and Art, fifth series, no. 136, vol. III, August 7, 1886","authors":[{"name":"Various","birth_year":null,"death_year":null}],"translators":[],"subjects":[],"bookshelves":[],"languages":["en"],"copyright":false,"media_type":"Text","formats":{"text/html":"https://www.gutenberg.org/files/72935/72935-h/72935-h.htm","text/plain; charset=us-ascii":"https://www.gutenberg.org/files/72935/72935-0.txt"},"download_count":0},{"id":72936,"title":"The life of Jean Henri Fabre, the entomologist, 1823-1910","authors":[{"name":"Fabre, Augustin","birth_year":null,"death_year":null}],"translators":[{"name":"Miall, Bernard","birth_year":1876,"death_year":1953}],"subjects":[],"bookshelves":[],"languages":["en"],"copyright":false,"media_type":"Text","formats":{"text/html":"https://www.gutenberg.org/files/72936/72936-h/72936-h.htm","text/plain; charset=us-ascii":"https://www.gutenberg.org/files/72936/72936-0.txt"},"download_count":0},{"id":72938,"title":"Tarzan, lord of the jungle","authors":[{"name":"Burroughs, Edgar Rice","birth_year":1875,"death_year":1950}],"translators":[],"subjects":[],"bookshelves":[],"languages":["en"],"copyright":false,"media_type":"Text","formats":{"text/html":"https://www.gutenberg.org/files/72938/72938-h/72938-h.htm","text/plain; charset=us-ascii":"https://www.gutenberg.org/files/72938/72938-0.txt"},"download_count":0},{"id":72940,"title":"The magazine of history with notes and queries, Vol. II, No. 4, October 1905","authors":[{"name":"Various","birth_year":null,"death_year":null}],"translators":[],"subjects":[],"bookshelves":[],"languages":["en"],"copyright":false,"media_type":"Text","formats":{"text/html":"https://www.gutenberg.org/files/72940/72940-h/72940-h.htm","text/plain; charset=us-ascii":"https://www.gutenberg.org/files/72940/72940-0.txt"},"download_count":0},{"id":72941,"title":"The Review, Volume I, No. 9, September 1911","authors":[{"name":"Various","birth_year":null,"death_year":null}],"translators":[],"subjects":[],"bookshelves":[],"languages":["en"],"copyright":false,"media_type":"Text","formats":{"text/html":"https://www.gutenberg.org/files/72941/72941-h/72941-h.htm","text/plain; charset=us-ascii":"https://www.gutenberg.org/files/72941/72941-0.txt"},"download_count":0},{"id":72942,"title":"Rhythm rides the rocket","authors":[{"name":"Olsen, Bob","birth_year":null,"death_year":null}],"translators":[],"subjects":[],"bookshelves":[],"languages":["en"],"copyright":false,"media_type":"Text","formats":{"text/html":"https://www.gutenberg.org/files/72942/72942-h/72942-h.htm","text/plain; charset=us-ascii":"https://www.gutenberg.org/files/72942/72942-0.txt"},"download_count":0},{"id":72943,"title":"When the Sun went out","authors":[{"name":"Stone, Leslie F.","birth_year":null,"death_year":null}],"translators":[],"subjects":[],"bookshelves":[],"languages":["en"],"copyright":false,"media_type":"Text","formats":{"text/html":"https://www.gutenberg.org/files/72943/72943-h/72943-h.htm","text/plain; charset=us-ascii":"https://www.gutenberg.org/files/72943/72943-0.txt"},"download_count":0},{"id":72944,"title":"School-life at Winchester College : $b or, the reminiscences of a Winchester junior under the old régime, 1835-40.","authors":[{"name":"Mansfield, Robert Blachford","birth_year":null,"death_year":null}],"translators":[],"subjects":[],"bookshelves":[],"languages":["en"],"copyright":false,"media_type":"Text","formats":{"text/html":"https://www.gutenberg.org/files/72944/72944-h/72944-h.htm","text/plain; charset=us-ascii":"https://www.gutenberg.org/files/72944/72944-0.txt"},"download_count":0},{"id":72945,"title":"Mrs. Harter","authors":[{"name":"Delafield, E. M.","birth_year":1890,"death_year":1943}],"translators":[],"subjects":[],"bookshelves":[],"languages":["en"],"copyright":false,"media_type":"Text","formats":{"text/html":"https://www.gutenberg.org/files/72945/72945-h/72945-h.htm","text/plain; charset=us-ascii":"https://www.gutenberg.org/files/72945/72945-0.txt"},"download_count":0},{"id":72946,"title":"Turrets, towers, and temples : $b The great buildings of the world, as seen and described by famous writers","authors":[],"translators":[],"subjects":[],"bookshelves":[],"languages":["en"],"copyright":false,"media_type":"Text","formats":{"text/html":"https://www.gutenberg.org/files/72946/72946-h/72946-h.htm","text/plain; charset=us-ascii":"https://www.gutenberg.org/files/72946/72946-0.txt"},"download_count":0},{"id":72948,"title":"Annihilation","authors":[{"name":"Ostrander, Isabel","birth_year":1883,"death_year":1924}],"translators":[],"subjects":[],"bookshelves":[],"languages":["en"],"copyright":false,"media_type":"Text","formats":{"text/html":"https://www.gutenberg.org/files/72948/72948-h/72948-h.htm","text/plain; charset=us-ascii":"https://www.gutenberg.org/files/72948/72948-0.txt"},"download_count":0},{"id":72949,"title":"Blackwood's Edinburgh magazine, Vol. 72, No. 442, August, 1852","authors":[{"name":"Various","birth_year":null,"death_year":null}],"translators":[],"subjects":[],"bookshelves":[],"languages":["en"],"copyright":false,"media_type":"Text","formats":{"text/html":"https://www.gutenberg.org/files/72949/72949-h/72949-h.htm","text/plain; charset=us-ascii":"https://www.gutenberg.org/files/72949/72949-0.txt"},"download_count":0},{"id":72950,"title":"The Bunnikins-Bunnies and the moon king","authors":[{"name":"Davidson, Edith B.","birth_year":null,"death_year":null}],"translators":[],"subjects":[],"bookshelves":[],"languages":["en"],"copyright":false,"media_type":"Text","formats":{"text/html":"https://www.gutenberg.org/files/72950/72950-h/72950-h.htm","text/plain; charset=us-ascii":"https://www.gutenberg.org/files/72950/72950-0.txt"},"download_count":0},{"id":72953,"title":"Studies of trees in winter : $b A description of the deciduous trees of northeastern America","authors":[{"name":"Huntington, Annie Oakes","birth_year":null,"death_year":null}],"translators":[],"subjects":[],"bookshelves":[],"languages":["en"],"copyright":false,"media_type":"Text","formats":{"text/html":"https://www.gutenberg.org/files/72953/72953-h/72953-h.htm","text/plain; charset=us-ascii":"https://www.gutenberg.org/files/72953/72953-0.txt"},"download_count":0},{"id":72955,"title":"The Girl's Own Paper, vol. VIII., no. 377, March 19, 1887","authors":[{"name":"Various","birth_year":null,"death_year":null}],"translators":[],"subjects":[],"bookshelves":[],"languages":["en"],"copyright":false,"media_type":"Text","formats":{"text/html":"https://www.gutenberg.org/files/72955/72955-h/72955-h.htm","text/plain; charset=us-ascii":"https://www.gutenberg.org/files/72955/72955-0.txt"},"download_count":0},{"id":72957,"title":"The aristocrats","authors":[{"name":"Atherton, Gertrude Franklin Horn","birth_year":1857,"death_year":1948}],"translators":[],"subjects":[],"bookshelves":[],"languages":["en"],"copyright":false,"media_type":"Text","formats":{"text/html":"https://www.gutenberg.org/files/72957/72957-h/72957-h.htm","text/plain; charset=us-ascii":"https://www.gutenberg.org/files/72957/72957-0.txt"},"download_count":0},{"id":72958,"title":"Hunting for hidden gold","authors":[{"name":"Dixon, Franklin W.","birth_year":null,"death_year":null}],"translators":[],"subjects":[],"bookshelves":[],"languages":["en"],"copyright":false,"media_type":"Text","formats":{"text/html":"https://www.gutenberg.org/files/72958/72958-h/72958-h.htm","text/plain; charset=us-ascii":"https://www.gutenberg.org/files/72958/72958-0.txt"},"download_count":0}]}