{"count":58808,"next":"http://129.241.150.113:8000/books/?languages=en&page=1340","previous":"http://129.241.150.113:8000/books/?languages=en&page=1338","results":[{"id":8523,"title":"Val d'Arno: Ten Lectures on the Tuscan Art Directly Antecedent to the Florentine Year of Victories; Given Before the University of Oxford in Michaelmas Term, 1873","authors":[{"name":"Ruskin, John","birth_year":1819,"death_year":1900}],"translators":[],"subjects":["Art -- Italy -- Tuscany"],"bookshelves":[],"languages":["en"],"copyright":false,"media_type":"Text","formats":{"text/html":"https://www.gutenberg.org/ebooks/8523.html.images","text/html; charset=iso-8859-1":"https://www.gutenberg.org/files/8523/8523-h/8523-h.htm","application/epub+zip":"https://www.gutenberg.org/ebooks/8523.epub3.images","application/x-mobipocket-ebook":"https://www.gutenberg.org/ebooks/8523.kf8.images","text/plain; charset=us-ascii":"https://www.gutenberg.org/ebooks/8523.txt.utf-8","text/plain; charset=iso-8859-1":"https://www.gutenberg.org/files/8523/8523-8.txt","application/rdf+xml":"https://www.gutenberg.org/ebooks/8523.rdf","image/jpeg":"https://www.gutenberg.org/cache/epub/8523/pg8523.cover.medium.jpg","application/octet-stream":"https://www.gutenberg.org/cache/epub/8523/pg8523-h.zip"},"download_count":27},{"id":8532,"title":"Andivius Hedulio: Adventures of a Roman Nobleman in the Days of the Empire","authors":[{"name":"White, Edward Lucas","birth_year":1866,"death_year":1934}],"translators":[],"subjects":["Historical fiction","Nobility -- Fiction","Rome -- History -- Empire, 30 B.C.-476 A.D. -- Fiction"],"bookshelves":[],"languages":["en"],"copyright":false,"media_type":"Text","formats":{"text/html":"https://www.gutenberg.org/ebooks/8532.html.images","application/epub+zip":"https://www.gutenberg.org/ebooks/8532.epub3.images","application/x-mobipocket-ebook":"https://www.gutenberg.org/ebooks/8532.kf8.images","text/plain; charset=us-ascii":"https://www.gutenberg.org/ebooks/8532.txt.utf-8","text/plain; charset=iso-8859-1":"https://www.gutenberg.org/files/8532/8532-8.txt","application/rdf+xml":"https://www.gutenberg.org/ebooks/8532.rdf","image/jpeg":"https://www.gutenberg.org/cache/epub/8532/pg8532.cover.medium.jpg","application/octet-stream":"https://www.gutenberg.org/cache/epub/8532/pg8532-h.zip"},"download_count":27},{"id":8618,"title":"The Parasite","authors":[{"name":"Doyle, Arthur Conan","birth_year":1859,"death_year":1930}],"translators":[],"subjects":["Horror tales","Mesmerism -- Fiction"],"bookshelves":[],"languages":["en"],"copyright":true,"media_type":"Sound","formats":{"text/plain; charset=us-ascii":"https://www.gutenberg.org/files/8618/8618-readme.txt","text/html; charset=iso-8859-1":"https://www.gutenberg.org/files/8618/8618-index.htm","audio/mpeg":"https://www.gutenberg.org/files/8618/mp3/8618-000.mp3","application/rdf+xml":"https://www.gutenberg.org/ebooks/8618.rdf"},"download_count":27},{"id":8708,"title":"The Doré Bible Gallery, Volume 8","authors":[],"translators":[],"subjects":["Bible -- Illustrations"],"bookshelves":[],"languages":["en"],"copyright":false,"media_type":"Text","formats":{"text/html":"https://www.gutenberg.org/ebooks/8708.html.images","text/html; charset=iso-8859-1":"https://www.gutenberg.org/files/8708/8708-h/8708-h.htm","application/epub+zip":"https://www.gutenberg.org/ebooks/8708.epub3.images","application/x-mobipocket-ebook":"https://www.gutenberg.org/ebooks/8708.kf8.images","text/plain; charset=us-ascii":"https://www.gutenberg.org/ebooks/8708.txt.utf-8","application/rdf+xml":"https://www.gutenberg.org/ebooks/8708.rdf","image/jpeg":"https://www.gutenberg.org/cache/epub/8708/pg8708.cover.medium.jpg","application/octet-stream":"https://www.gutenberg.org/cache/epub/8708/pg8708-h.zip"},"download_count":27},{"id":8731,"title":"Five Sermons","authors":[{"name":"Whipple, Henry Benjamin","birth_year":1822,"death_year":1901}],"translators":[],"subjects":["Sermons, American"],"bookshelves":["Christianity"],"languages":["en"],"copyright":false,"media_type":"Text","formats":{"text/html":"https://www.gutenberg.org/ebooks/8731.html.images","application/epub+zip":"https://www.gutenberg.org/ebooks/8731.epub3.images","application/x-mobipocket-ebook":"https://www.gutenberg.org/ebooks/8731.kf8.images","text/plain; charset=us-ascii":"https://www.gutenberg.org/ebooks/8731.txt.utf-8","text/plain; charset=iso-8859-1":"https://www.gutenberg.org/files/8731/8731-8.txt","application/rdf+xml":"https://www.gutenberg.org/ebooks/8731.rdf","image/jpeg":"https://www.gutenberg.org/cache/epub/8731/pg8731.cover.medium.jpg","application/octet-stream":"https://www.gutenberg.org/cache/epub/8731/pg8731-h.zip"},"download_count":27},{"id":8761,"title":"The Oakdale Affair","authors":[{"name":"Burroughs, Edgar Rice","birth_year":1875,"death_year":1950}],"translators":[],"subjects":["Adventure stories"],"bookshelves":["Adventure"],"languages":["en"],"copyright":true,"media_type":"Sound","formats":{"text/plain; charset=us-ascii":"https://www.gutenberg.org/files/8761/8761-readme.txt","text/html; charset=iso-8859-1":"https://www.gutenberg.org/files/8761/8761-index.htm","audio/mpeg":"https://www.gutenberg.org/files/8761/mp3/8761-000.mp3","application/rdf+xml":"https://www.gutenberg.org/ebooks/8761.rdf","application/octet-stream":"https://www.gutenberg.org/files/8761/8761-mp3.zip"},"download_count":27},{"id":8768,"title":"Tarzan the Terrible","authors":[{"name":"Burroughs, Edgar Rice","birth_year":1875,"death_year":1950}],"translators":[],"subjects":["Adventure stories","Fantasy fiction","Tarzan (Fictitious character) -- Fiction"],"bookshelves":["Adventure","Movie Books"],"languages":["en"],"copyright":true,"media_type":"Sound","formats":{"text/plain; charset=us-ascii":"https://www.gutenberg.org/files/8768/8768-readme.txt","text/html; charset=iso-8859-1":"https://www.gutenberg.org/files/8768/8768-index.htm","audio/mpeg":"https://www.gutenberg.org/files/8768/mp3/8768-000.mp3","application/rdf+xml":"https://www.gutenberg.org/ebooks/8768.rdf","application/octet-stream":"https://www.gutenberg.org/files/8768/8768-mp3.zip"},"download_count":27},{"id":8777,"title":"Authors and Friends","authors":[{"name":"Fields, Annie","birth_year":1834,"death_year":1915}],"translators":[],"subjects":["Authors, American -- 19th century -- Biography","Emerson, Ralph Waldo, 1803-1882","Holmes, Oliver Wendell, 1809-1894","Longfellow, Henry Wadsworth, 1807-1882","Stowe, Harriet Beecher, 1811-1896","Tennyson, Alfred Tennyson, Baron, 1809-1892","Tennyson, Emily Sellwood Tennyson, Baroness, 1813-1896","Thaxter, Celia, 1835-1894","Whittier, John Greenleaf, 1807-1892"],"bookshelves":[],"languages":["en"],"copyright":false,"media_type":"Text","formats":{"text/html":"https://www.gutenberg.org/ebooks/8777.html.images","application/epub+zip":"https://www.gutenberg.org/ebooks/8777.epub3.images","application/x-mobipocket-ebook":"https://www.gutenberg.org/ebooks/8777.kf8.images","text/plain; charset=us-ascii":"https://www.gutenberg.org/ebooks/8777.txt.utf-8","text/plain; charset=iso-8859-1":"https://www.gutenberg.org/files/8777/8777-8.txt","application/rdf+xml":"https://www.gutenberg.org/ebooks/8777.rdf","image/jpeg":"https://www.gutenberg.org/cache/epub/8777/pg8777.cover.medium.jpg","application/octet-stream":"https://www.gutenberg.org/cache/epub/8777/pg8777-h.zip"},"download_count":27},{"id":8797,"title":"The Divine Comedy by Dante, Illustrated, Paradise, Volume 2","authors":[{"name":"Dante Alighieri","birth_year":1265,"death_year":1321}],"translators":[{"name":"Cary, Henry Francis","birth_year":1772,"death_year":1844}],"subjects":["Epic poetry, Italian -- Translations into English","Italian poetry -- To 1400 -- Translations into English"],"bookshelves":[],"languages":["en"],"copyright":false,"media_type":"Text","formats":{"text/html":"https://www.gutenberg.org/ebooks/8797.html.images","text/html; charset=iso-8859-1":"https://www.gutenberg.org/files/8797/8797-h/8797-h.htm","application/epub+zip":"https://www.gutenberg.org/ebooks/8797.epub3.images","application/x-mobipocket-ebook":"https://www.gutenberg.org/ebooks/8797.kf8.images","text/plain; charset=us-ascii":"https://www.gutenberg.org/ebooks/8797.txt.utf-8","application/rdf+xml":"https://www.gutenberg.org/ebooks/8797.rdf","image/jpeg":"https://www.gutenberg.org/cache/epub/8797/pg8797.cover.medium.jpg","application/octet-stream":"https://www.gutenberg.org/cache/epub/8797/pg8797-h.zip"},"download_count":27},{"id":8816,"title":"Quo Vadis, a Narrative of the Time of Nero","authors":[{"name":"Sienkiewicz, Henryk","birth_year":1846,"death_year":1916}],"translators":[],"subjects":["Christian fiction","Church history -- Primitive and early church, ca. 30-600 -- Fiction","Historical fiction","Rome -- History -- Nero, 54-68 -- Fiction"],"bookshelves":["Bestsellers, American, 1895-1923","Historical Fiction"],"languages":["en"],"copyright":true,"media_type":"Sound","formats":{"text/plain; charset=us-ascii":"https://www.gutenberg.org/files/8816/8816-readme.txt","text/html; charset=iso-8859-1":"https://www.gutenberg.org/files/8816/8816-index.htm","audio/mpeg":"https://www.gutenberg.org/files/8816/mp3/8816-000.mp3","application/rdf+xml":"https://www.gutenberg.org/ebooks/8816.rdf","application/octet-stream":"https://www.gutenberg.org/files/8816/8816-mp3.zip"},"download_count":27},{"id":8832,"title":"Weymouth New Testament in Modern Speech, Acts","authors":[{"name":"Weymouth, Richard Francis","birth_year":1822,"death_year":1902}],"translators":[],"subjects":["Bible. Acts"],"bookshelves":[],"languages":["en"],"copyright":false,"media_type":"Text","formats":{"text/html":"https://www.gutenberg.org/ebooks/8832.html.images","application/epub+zip":"https://www.gutenberg.org/ebooks/8832.epub3.images","application/x-mobipocket-ebook":"https://www.gutenberg.org/ebooks/8832.kf8.images","text/plain; charset=us-ascii":"https://www.gutenberg.org/ebooks/8832.txt.utf-8","application/rdf+xml":"https://www.gutenberg.org/ebooks/8832.rdf","image/jpeg":"https://www.gutenberg.org/cache/epub/8832/pg8832.cover.medium.jpg","application/octet-stream":"https://www.gutenberg.org/cache/epub/8832/pg8832-h.zip"},"download_count":27},{"id":8943,"title":"Adela Cathcart, Volume 3","authors":[{"name":"MacDonald, George","birth_year":1824,"death_year":1905}],"translators":[],"subjects":["Christian fiction","Scotland -- Fiction"],"bookshelves":[],"languages":["en"],"copyright":false,"media_type":"Text","formats":{"text/html":"https://www.gutenberg.org/ebooks/8943.html.images","application/epub+zip":"https://www.gutenberg.org/ebooks/8943.epub3.images","application/x-mobipocket-ebook":"https://www.gutenberg.org/ebooks/8943.kf8.images","text/plain; charset=us-ascii":"https://www.gutenberg.org/ebooks/8943.txt.utf-8","application/rdf+xml":"https://www.gutenberg.org/ebooks/8943.rdf","image/jpeg":"https://www.gutenberg.org/cache/epub/8943/pg8943.cover.medium.jpg","application/octet-stream":"https://www.gutenberg.org/cache/epub/8943/pg8943-h.zip"},"download_count":27},{"id":9008,"title":"A Horse's Tale","authors":[{"name":"Twain, Mark","birth_year":1835,"death_year":1910}],"translators":[],"subjects":["Fiction"],"bookshelves":[],"languages":["en"],"copyright":true,"media_type":"Sound","formats":{"text/plain; charset=us-ascii":"https://www.gutenberg.org/files/9008/9008-readme.txt","text/html; charset=iso-8859-1":"https://www.gutenberg.org/files/9008/9008-index.htm","audio/mpeg":"https://www.gutenberg.org/files/9008/mp3/9008-000.mp3","application/rdf+xml":"https://www.gutenberg.org/ebooks/9008.rdf","application/octet-stream":"https://www.gutenberg.org/files/9008/9008-mp3.zip"},"download_count":27},{"id":9179,"title":"The Bride of the Mistletoe","authors":[{"name":"Allen, James Lane","birth_year":1849,"death_year":1925}],"translators":[],"subjects":["Married people -- Fiction","Psychological fiction"],"bookshelves":[],"languages":["en"],"copyright":false,"media_type":"Text","formats":{"text/html":"https://www.gutenberg.org/ebooks/9179.html.images","text/html; charset=utf-8":"https://www.gutenberg.org/files/9179/9179-h/9179-h.htm","application/epub+zip":"https://www.gutenberg.org/ebooks/9179.epub3.images","application/x-mobipocket-ebook":"https://www.gutenberg.org/ebooks/9179.kf8.images","text/plain; charset=us-ascii":"https://www.gutenberg.org/ebooks/9179.txt.utf-8","text/plain; charset=utf-8":"https://www.gutenberg.org/files/9179/9179-0.txt","text/plain; charset=iso-8859-1":"https://www.gutenberg.org/files/9179/9179-8.txt","application/rdf+xml":"https://www.gutenberg.org/ebooks/9179.rdf","image/jpeg":"https://www.gutenberg.org/cache/epub/9179/pg9179.cover.medium.jpg","application/octet-stream":"https://www.gutenberg.org/cache/epub/9179/pg9179-h.zip"},"download_count":27},{"id":9213,"title":"The Seven Vagabonds (From \"Twice Told Tales\")","authors":[{"name":"Hawthorne, Nathaniel","birth_year":1804,"death_year":1864}],"translators":[],"subjects":["Historical fiction, American","New England -- Social life and customs -- Fiction","Short stories"],"bookshelves":["Children's Literature"],"languages":["en"],"copyright":false,"media_type":"Text","formats":{"text/html":"https://www.gutenberg.org/ebooks/9213.html.images","text/html; charset=utf-8":"https://www.gutenberg.org/files/9213/9213-h/9213-h.htm","application/epub+zip":"https://www.gutenberg.org/ebooks/9213.epub3.images","application/x-mobipocket-ebook":"https://www.gutenberg.org/ebooks/9213.kf8.images","text/plain; charset=us-ascii":"https://www.gutenberg.org/ebooks/9213.txt.utf-8","text/plain; charset=utf-8":"https://www.gutenberg.org/files/9213/9213-0.txt","application/rdf+xml":"https://www.gutenberg.org/ebooks/9213.rdf","image/jpeg":"https://www.gutenberg.org/cache/epub/9213/pg9213.cover.medium.jpg","application/octet-stream":"https://www.gutenberg.org/cache/epub/9213/pg9213-h.zip"},"download_count":27},{"id":9289,"title":"Tales of Men and Ghosts","authors":[{"name":"Wharton, Edith","birth_year":1862,"death_year":1937}],"translators":[],"subjects":["American fiction -- 20th century","Short stories"],"bookshelves":[],"languages":["en"],"copyright":true,"media_type":"Sound","formats":{"text/plain; charset=us-ascii":"https://www.gutenberg.org/files/9289/9289-readme.txt","text/html; charset=iso-8859-1":"https://www.gutenberg.org/files/9289/9289-index.htm","audio/mpeg":"https://www.gutenberg.org/files/9289/mp3/9289-000.mp3","application/rdf+xml":"https://www.gutenberg.org/ebooks/9289.rdf","application/octet-stream":"https://www.gutenberg.org/files/9289/9289-mp3.zip"},"download_count":27},{"id":9318,"title":"A Doctor of the Old School — Volume 4","authors":[{"name":"Maclaren, Ian","birth_year":1850,"death_year":1907}],"translators":[],"subjects":["Physicians -- Fiction"],"bookshelves":[],"languages":["en"],"copyright":false,"media_type":"Text","formats":{"text/html":"https://www.gutenberg.org/ebooks/9318.html.images","text/html; charset=iso-8859-1":"https://www.gutenberg.org/files/9318/9318-h/9318-h.htm","application/epub+zip":"https://www.gutenberg.org/ebooks/9318.epub3.images","application/x-mobipocket-ebook":"https://www.gutenberg.org/ebooks/9318.kf8.images","text/plain; charset=us-ascii":"https://www.gutenberg.org/ebooks/9318.txt.utf-8","application/rdf+xml":"https://www.gutenberg.org/ebooks/9318.rdf","image/jpeg":"https://www.gutenberg.org/cache/epub/9318/pg9318.cover.medium.jpg","application/octet-stream":"https://www.gutenberg.org/cache/epub/9318/pg9318-h.zip"},"download_count":27},{"id":9322,"title":"The Nation in a Nutshell","authors":[{"name":"Towle, George M. (George Makepeace)","birth_year":1841,"death_year":1893}],"translators":[],"subjects":["United States -- History -- Outlines, syllabi, etc."],"bookshelves":[],"languages":["en"],"copyright":false,"media_type":"Text","formats":{"text/html":"https://www.gutenberg.org/ebooks/9322.html.images","text/html; charset=iso-8859-1":"https://www.gutenberg.org/files/9322/9322-h/9322-h.htm","application/epub+zip":"https://www.gutenberg.org/ebooks/9322.epub3.images","application/x-mobipocket-ebook":"https://www.gutenberg.org/ebooks/9322.kf8.images","text/plain; charset=us-ascii":"https://www.gutenberg.org/ebooks/9322.txt.utf-8","text/plain; charset=iso-8859-1":"https://www.gutenberg.org/files/9322/9322-8.txt","application/rdf+xml":"https://www.gutenberg.org/ebooks/9322.rdf","image/jpeg":"https://www.gutenberg.org/cache/epub/9322/pg9322.cover.medium.jpg","application/octet-stream":"https://www.gutenberg.org/cache/epub/9322/pg9322-h.zip"},"download_count":27},{"id":9332,"title":"Georgie's Present, or, Tales of Newfoundland","authors":[{"name":"Brightwell, C. L. (Cecilia Lucy)","birth_year":1811,"death_year":1875}],"translators":[],"subjects":["Newfoundland and Labrador -- Fiction"],"bookshelves":[],"languages":["en"],"copyright":false,"media_type":"Text","formats":{"text/html":"https://www.gutenberg.org/ebooks/9332.html.images","text/html; charset=utf-8":"https://www.gutenberg.org/files/9332/9332-h/9332-h.htm","application/epub+zip":"https://www.gutenberg.org/ebooks/9332.epub3.images","application/x-mobipocket-ebook":"https://www.gutenberg.org/ebooks/9332.kf8.images","text/plain; charset=us-ascii":"https://www.gutenberg.org/ebooks/9332.txt.utf-8","text/plain; charset=utf-8":"https://www.gutenberg.org/files/9332/9332-0.txt","application/rdf+xml":"https://www.gutenberg.org/ebooks/9332.rdf","image/jpeg":"https://www.gutenberg.org/cache/epub/9332/pg9332.cover.medium.jpg","application/octet-stream":"https://www.gutenberg.org/cache/epub/9332/pg9332-h.zip"},"download_count":27},{"id":9402,"title":"Be Courteous, or, Religion, the True Refiner","authors":[{"name":"Maxwell, M. H. (Mary H.)","birth_year":1815,"death_year":1891}],"translators":[],"subjects":["Charity","Conduct of life -- Religious aspects","Methodist Church -- Juvenile literature","Sunday school literature"],"bookshelves":[],"languages":["en"],"copyright":false,"media_type":"Text","formats":{"text/html":"https://www.gutenberg.org/ebooks/9402.html.images","application/epub+zip":"https://www.gutenberg.org/ebooks/9402.epub3.images","application/x-mobipocket-ebook":"https://www.gutenberg.org/ebooks/9402.kf8.images","text/plain; charset=us-ascii":"https://www.gutenberg.org/ebooks/9402.txt.utf-8","application/rdf+xml":"https://www.gutenberg.org/ebooks/9402.rdf","image/jpeg":"https://www.gutenberg.org/cache/epub/9402/pg9402.cover.medium.jpg","application/octet-stream":"https://www.gutenberg.org/cache/epub/9402/pg9402-h.zip"},"download_count":27},{"id":9449,"title":"Samantha among the Brethren — Volume 7","authors":[{"name":"Holley, Marietta","birth_year":1836,"death_year":1926}],"translators":[],"subjects":["Methodism -- Humor","Women in church work -- Methodist church -- Humor","Women's rights -- Humor"],"bookshelves":["Humor"],"languages":["en"],"copyright":false,"media_type":"Text","formats":{"text/html":"https://www.gutenberg.org/ebooks/9449.html.images","text/html; charset=iso-8859-1":"https://www.gutenberg.org/files/9449/9449-h/9449-h.htm","application/epub+zip":"https://www.gutenberg.org/ebooks/9449.epub3.images","application/x-mobipocket-ebook":"https://www.gutenberg.org/ebooks/9449.kf8.images","text/plain; charset=us-ascii":"https://www.gutenberg.org/ebooks/9449.txt.utf-8","text/plain; charset=iso-8859-1":"https://www.gutenberg.org/files/9449/9449-8.txt","application/rdf+xml":"https://www.gutenberg.org/ebooks/9449.rdf","image/jpeg":"https://www.gutenberg.org/cache/epub/9449/pg9449.cover.medium.jpg","application/octet-stream":"https://www.gutenberg.org/cache/epub/9449/pg9449-h.zip"},"download_count":27},{"id":9466,"title":"The Quest of Happy Hearts","authors":[{"name":"Hay, Kathleen","birth_year":null,"death_year":null}],"translators":[],"subjects":["Aunts -- Juvenile fiction","Christian life -- Juvenile fiction","Conduct of life -- Juvenile fiction","Siblings -- Juvenile fiction"],"bookshelves":[],"languages":["en"],"copyright":false,"media_type":"Text","formats":{"text/html":"https://www.gutenberg.org/ebooks/9466.html.images","application/epub+zip":"https://www.gutenberg.org/ebooks/9466.epub3.images","application/x-mobipocket-ebook":"https://www.gutenberg.org/ebooks/9466.kf8.images","text/plain; charset=us-ascii":"https://www.gutenberg.org/ebooks/9466.txt.utf-8","application/rdf+xml":"https://www.gutenberg.org/ebooks/9466.rdf","image/jpeg":"https://www.gutenberg.org/cache/epub/9466/pg9466.cover.medium.jpg","application/octet-stream":"https://www.gutenberg.org/cache/epub/9466/pg9466-h.zip"},"download_count":27},{"id":9488,"title":"The Line of Love; Dizain des Mariages","authors":[{"name":"Cabell, James Branch","birth_year":1879,"death_year":1958}],"translators":[],"subjects":["Fantasy fiction","Historical fiction","Middle Ages -- Fiction"],"bookshelves":["Fantasy"],"languages":["en"],"copyright":false,"media_type":"Text","formats":{"text/html":"https://www.gutenberg.org/ebooks/9488.html.images","application/epub+zip":"https://www.gutenberg.org/ebooks/9488.epub3.images","application/x-mobipocket-ebook":"https://www.gutenberg.org/ebooks/9488.kf8.images","text/plain; charset=us-ascii":"https://www.gutenberg.org/ebooks/9488.txt.utf-8","text/plain; charset=iso-8859-1":"https://www.gutenberg.org/files/9488/9488-8.txt","application/rdf+xml":"https://www.gutenberg.org/ebooks/9488.rdf","image/jpeg":"https://www.gutenberg.org/cache/epub/9488/pg9488.cover.medium.jpg","application/octet-stream":"https://www.gutenberg.org/cache/epub/9488/pg9488-h.zip"},"download_count":27},{"id":9507,"title":"The Coryston Family: A Novel","authors":[{"name":"Ward, Humphry, Mrs.","birth_year":1851,"death_year":1920}],"translators":[],"subjects":["England -- Social life and customs -- 20th century -- Fiction","Families -- Fiction","Mother and child -- Fiction","Political fiction"],"bookshelves":[],"languages":["en"],"copyright":false,"media_type":"Text","formats":{"text/html":"https://www.gutenberg.org/ebooks/9507.html.images","text/html; charset=iso-8859-1":"https://www.gutenberg.org/files/9507/9507-h/9507-h.htm","application/epub+zip":"https://www.gutenberg.org/ebooks/9507.epub3.images","application/x-mobipocket-ebook":"https://www.gutenberg.org/ebooks/9507.kf8.images","text/plain; charset=us-ascii":"https://www.gutenberg.org/ebooks/9507.txt.utf-8","text/plain; charset=iso-8859-1":"https://www.gutenberg.org/files/9507/9507-8.txt","application/rdf+xml":"https://www.gutenberg.org/ebooks/9507.rdf","image/jpeg":"https://www.gutenberg.org/cache/epub/9507/pg9507.cover.medium.jpg","application/octet-stream":"https://www.gutenberg.org/cache/epub/9507/pg9507-h.zip"},"download_count":27},{"id":9520,"title":"The Bedford-Row Conspiracy","authors":[{"name":"Thackeray, William Makepeace","birth_year":1811,"death_year":1863}],"translators":[],"subjects":["England -- Social life and customs -- 19th century -- Fiction"],"bookshelves":[],"languages":["en"],"copyright":true,"media_type":"Sound","formats":{"text/plain; charset=us-ascii":"https://www.gutenberg.org/files/9520/9520-readme.txt","text/html; charset=iso-8859-1":"https://www.gutenberg.org/files/9520/9520-index.htm","audio/mpeg":"https://www.gutenberg.org/files/9520/mp3/9520-000.mp3","application/rdf+xml":"https://www.gutenberg.org/ebooks/9520.rdf","application/octet-stream":"https://www.gutenberg.org/files/9520/9520-mp3.zip"},"download_count":27},{"id":9955,"title":"Bertha Garlan","authors":[{"name":"Schnitzler, Arthur","birth_year":1862,"death_year":1931}],"translators":[],"subjects":["Austria -- Fiction","Man-woman relationships -- Fiction","Women -- Fiction"],"bookshelves":[],"languages":["en"],"copyright":false,"media_type":"Text","formats":{"text/html":"https://www.gutenberg.org/ebooks/9955.html.images","application/epub+zip":"https://www.gutenberg.org/ebooks/9955.epub3.images","application/x-mobipocket-ebook":"https://www.gutenberg.org/ebooks/9955.kf8.images","text/plain; charset=us-ascii":"https://www.gutenberg.org/ebooks/9955.txt.utf-8","text/plain; charset=iso-8859-1":"https://www.gutenberg.org/files/9955/9955-8.txt","application/rdf+xml":"https://www.gutenberg.org/ebooks/9955.rdf","image/jpeg":"https://www.gutenberg.org/cache/epub/9955/pg9955.cover.medium.jpg","application/octet-stream":"https://www.gutenberg.org/cache/epub/9955/pg9955-h.zip"},"download_count":27},{"id":9965,"title":"An Enemy to the King: From the Recently Discovered Memoirs of the Sieur de la Tournoire","authors":[{"name":"Stephens, Robert Neilson","birth_year":1867,"death_year":1906}],"translators":[],"subjects":["France -- History -- Henry IV, 1589-1610 -- Fiction"],"bookshelves":[],"languages":["en"],"copyright":false,"media_type":"Text","formats":{"text/html":"https://www.gutenberg.org/ebooks/9965.html.images","application/epub+zip":"https://www.gutenberg.org/ebooks/9965.epub3.images","application/x-mobipocket-ebook":"https://www.gutenberg.org/ebooks/9965.kf8.images","text/plain; charset=us-ascii":"https://www.gutenberg.org/ebooks/9965.txt.utf-8","text/plain; charset=iso-8859-1":"https://www.gutenberg.org/files/9965/9965-8.txt","application/rdf+xml":"https://www.gutenberg.org/ebooks/9965.rdf","image/jpeg":"https://www.gutenberg.org/cache/epub/9965/pg9965.cover.medium.jpg","application/octet-stream":"https://www.gutenberg.org/cache/epub/9965/pg9965-h.zip"},"download_count":27},{"id":9975,"title":"Paris War Days: Diary of an American","authors":[{"name":"Barnard, Charles Inman","birth_year":1850,"death_year":1942}],"translators":[],"subjects":["Paris (France) -- History -- 1914-1918","World War, 1914-1918 -- Personal narratives"],"bookshelves":["World War I"],"languages":["en"],"copyright":false,"media_type":"Text","formats":{"text/html":"https://www.gutenberg.org/ebooks/9975.html.images","application/epub+zip":"https://www.gutenberg.org/ebooks/9975.epub3.images","application/x-mobipocket-ebook":"https://www.gutenberg.org/ebooks/9975.kf8.images","text/plain; charset=us-ascii":"https://www.gutenberg.org/ebooks/9975.txt.utf-8","text/plain; charset=iso-8859-1":"https://www.gutenberg.org/files/9975/9975-8.txt","application/rdf+xml":"https://www.gutenberg.org/ebooks/9975.rdf","image/jpeg":"https://www.gutenberg.org/cache/epub/9975/pg9975.cover.medium.jpg","application/octet-stream":"https://www.gutenberg.org/cache/epub/9975/pg9975-h.zip"},"download_count":27},{"id":10023,"title":"There's Pippins and Cheese to Come","authors":[{"name":"Brooks, Charles S. (Charles Stephen)","birth_year":1878,"death_year":1934}],"translators":[],"subjects":["Essays"],"bookshelves":["Bibliomania"],"languages":["en"],"copyright":false,"media_type":"Text","formats":{"text/html":"https://www.gutenberg.org/ebooks/10023.html.images","application/epub+zip":"https://www.gutenberg.org/ebooks/10023.epub3.images","application/x-mobipocket-ebook":"https://www.gutenberg.org/ebooks/10023.kf8.images","text/plain; charset=us-ascii":"https://www.gutenberg.org/ebooks/10023.txt.utf-8","application/rdf+xml":"https://www.gutenberg.org/ebooks/10023.rdf","image/jpeg":"https://www.gutenberg.org/cache/epub/10023/pg10023.cover.medium.jpg","application/octet-stream":"https://www.gutenberg.org/cache/epub/10023/pg10023-h.zip"},"download_count":27},{"id":10037,"title":"A Beautiful Possibility","authors":[{"name":"Black, Edith Ferguson","birth_year":1857,"death_year":1936}],"translators":[],"subjects":["Christian life -- Fiction","Orphans -- Fiction"],"bookshelves":[],"languages":["en"],"copyright":false,"media_type":"Text","formats":{"text/html":"https://www.gutenberg.org/ebooks/10037.html.images","application/epub+zip":"https://www.gutenberg.org/ebooks/10037.epub3.images","application/x-mobipocket-ebook":"https://www.gutenberg.org/ebooks/10037.kf8.images","text/plain; charset=us-ascii":"https://www.gutenberg.org/ebooks/10037.txt.utf-8","text/plain; charset=iso-8859-1":"https://www.gutenberg.org/files/10037/10037-8.txt","application/rdf+xml":"https://www.gutenberg.org/ebooks/10037.rdf","image/jpeg":"https://www.gutenberg.org/cache/epub/10037/pg10037.cover.medium.jpg","application/octet-stream":"https://www.gutenberg.org/cache/epub/10037/pg10037-h.zip"},"download_count":27},{"id":10043,"title":"Klondyke Nuggets: A Brief Description of the Great Gold Regions in the Northwest","authors":[{"name":"Ladue, Joseph","birth_year":1855,"death_year":1900}],"translators":[],"subjects":["Alaska -- Gold discoveries","Klondike River Valley (Yukon) -- Gold discoveries"],"bookshelves":[],"languages":["en"],"copyright":false,"media_type":"Text","formats":{"text/html":"https://www.gutenberg.org/ebooks/10043.html.images","application/epub+zip":"https://www.gutenberg.org/ebooks/10043.epub3.images","application/x-mobipocket-ebook":"https://www.gutenberg.org/ebooks/10043.kf8.images","text/plain; charset=us-ascii":"https://www.gutenberg.org/ebooks/10043.txt.utf-8","text/plain; charset=iso-8859-1":"https://www.gutenberg.org/files/10043/10043-8.txt","application/rdf+xml":"https://www.gutenberg.org/ebooks/10043.rdf","image/jpeg":"https://www.gutenberg.org/cache/epub/10043/pg10043.cover.medium.jpg","application/octet-stream":"https://www.gutenberg.org/cache/epub/10043/pg10043-h.zip"},"download_count":27},{"id":10203,"title":"Big Ben Clock Tower of Westminster: Striking half past 10, quarter to 11, and 11 o'clock","authors":[],"translators":[],"subjects":["Big Ben (Tower clock)","Clock chimes"],"bookshelves":[],"languages":["en"],"copyright":false,"media_type":"Sound","formats":{"text/plain; charset=us-ascii":"https://www.gutenberg.org/files/10203/10203-m/10203-m-readme.txt","audio/mpeg":"https://www.gutenberg.org/files/10203/10203-m/10203-m-001.mp3","application/rdf+xml":"https://www.gutenberg.org/ebooks/10203.rdf"},"download_count":27}]}