{"count":58808,"next":"http://129.241.150.113:8000/books/?languages=en&page=1168","previous":"http://129.241.150.113:8000/books/?languages=en&page=1166","results":[{"id":69093,"title":"History of scientific ideas","authors":[{"name":"Whewell, William","birth_year":1794,"death_year":1866}],"translators":[],"subjects":["Science -- Philosophy"],"bookshelves":[],"languages":["en"],"copyright":false,"media_type":"Text","formats":{"text/html":"https://www.gutenberg.org/ebooks/69093.html.images","application/epub+zip":"https://www.gutenberg.org/ebooks/69093.epub3.images","application/x-mobipocket-ebook":"https://www.gutenberg.org/ebooks/69093.kf8.images","text/plain; charset=us-ascii":"https://www.gutenberg.org/ebooks/69093.txt.utf-8","application/rdf+xml":"https://www.gutenberg.org/ebooks/69093.rdf","image/jpeg":"https://www.gutenberg.org/cache/epub/69093/pg69093.cover.medium.jpg","application/octet-stream":"https://www.gutenberg.org/files/69093/69093-0.zip"},"download_count":32},{"id":69111,"title":"A gallop among American scenery: or, Sketches of American scenes and military adventure","authors":[{"name":"Silliman, Augustus E. (Augustus Ely)","birth_year":1807,"death_year":1884}],"translators":[],"subjects":["Atlantic States -- Description and travel"],"bookshelves":[],"languages":["en"],"copyright":false,"media_type":"Text","formats":{"text/html":"https://www.gutenberg.org/ebooks/69111.html.images","application/epub+zip":"https://www.gutenberg.org/ebooks/69111.epub3.images","application/x-mobipocket-ebook":"https://www.gutenberg.org/ebooks/69111.kf8.images","text/plain; charset=us-ascii":"https://www.gutenberg.org/ebooks/69111.txt.utf-8","application/rdf+xml":"https://www.gutenberg.org/ebooks/69111.rdf","image/jpeg":"https://www.gutenberg.org/cache/epub/69111/pg69111.cover.medium.jpg","application/octet-stream":"https://www.gutenberg.org/files/69111/69111-0.zip"},"download_count":32},{"id":69139,"title":"Nothing","authors":[{"name":"Wollheim, Donald A.","birth_year":1914,"death_year":1990}],"translators":[],"subjects":["Bombings -- Fiction","Science fiction","Short stories","World War, 1939-1945 -- Fiction"],"bookshelves":[],"languages":["en"],"copyright":false,"media_type":"Text","formats":{"text/html":"https://www.gutenberg.org/ebooks/69139.html.images","application/epub+zip":"https://www.gutenberg.org/ebooks/69139.epub3.images","application/x-mobipocket-ebook":"https://www.gutenberg.org/ebooks/69139.kf8.images","text/plain; charset=us-ascii":"https://www.gutenberg.org/ebooks/69139.txt.utf-8","application/rdf+xml":"https://www.gutenberg.org/ebooks/69139.rdf","image/jpeg":"https://www.gutenberg.org/cache/epub/69139/pg69139.cover.medium.jpg","application/octet-stream":"https://www.gutenberg.org/files/69139/69139-0.zip"},"download_count":32},{"id":69220,"title":"History of the war in the Peninsula and in the south of France from the year 1807 to the year 1814, vol. 5","authors":[{"name":"Napier, William Francis Patrick","birth_year":1785,"death_year":1860}],"translators":[],"subjects":["Peninsular War, 1807-1814"],"bookshelves":[],"languages":["en"],"copyright":false,"media_type":"Text","formats":{"text/html":"https://www.gutenberg.org/ebooks/69220.html.images","application/epub+zip":"https://www.gutenberg.org/ebooks/69220.epub3.images","application/x-mobipocket-ebook":"https://www.gutenberg.org/ebooks/69220.kf8.images","text/plain; charset=us-ascii":"https://www.gutenberg.org/ebooks/69220.txt.utf-8","application/rdf+xml":"https://www.gutenberg.org/ebooks/69220.rdf","image/jpeg":"https://www.gutenberg.org/cache/epub/69220/pg69220.cover.medium.jpg","application/octet-stream":"https://www.gutenberg.org/files/69220/69220-0.zip"},"download_count":32},{"id":69265,"title":"Bimbo, the pirate: A comedy","authors":[{"name":"Tarkington, Booth","birth_year":1869,"death_year":1946}],"translators":[],"subjects":["American drama -- 20th century","Comedies","Pirates -- Drama"],"bookshelves":[],"languages":["en"],"copyright":false,"media_type":"Text","formats":{"text/html":"https://www.gutenberg.org/ebooks/69265.html.images","application/epub+zip":"https://www.gutenberg.org/ebooks/69265.epub3.images","application/x-mobipocket-ebook":"https://www.gutenberg.org/ebooks/69265.kf8.images","text/plain; charset=us-ascii":"https://www.gutenberg.org/ebooks/69265.txt.utf-8","application/rdf+xml":"https://www.gutenberg.org/ebooks/69265.rdf","image/jpeg":"https://www.gutenberg.org/cache/epub/69265/pg69265.cover.medium.jpg","application/octet-stream":"https://www.gutenberg.org/files/69265/69265-0.zip"},"download_count":32},{"id":69321,"title":"Historical sketches of old Charing.: The hospital and chapel of Saint Mary Roncevall. Eleanor of Castile, Queen of England, and the monuments erected in her memory.","authors":[{"name":"Galloway, James, Sir","birth_year":1862,"death_year":1922}],"translators":[],"subjects":["Eleanor, Queen, consort of Edward I, King of England, -1290 -- Monuments","Hospital of St. Mary Rounceval"],"bookshelves":[],"languages":["en"],"copyright":false,"media_type":"Text","formats":{"text/html":"https://www.gutenberg.org/ebooks/69321.html.images","application/epub+zip":"https://www.gutenberg.org/ebooks/69321.epub3.images","application/x-mobipocket-ebook":"https://www.gutenberg.org/ebooks/69321.kf8.images","text/plain; charset=us-ascii":"https://www.gutenberg.org/ebooks/69321.txt.utf-8","application/rdf+xml":"https://www.gutenberg.org/ebooks/69321.rdf","image/jpeg":"https://www.gutenberg.org/cache/epub/69321/pg69321.cover.medium.jpg","application/octet-stream":"https://www.gutenberg.org/files/69321/69321-0.zip"},"download_count":32},{"id":69330,"title":"Life of Sir Walter Scott, with Abbotsford Notanda","authors":[{"name":"Chambers, Robert","birth_year":1802,"death_year":1871},{"name":"Carruthers, Robert","birth_year":1799,"death_year":1878}],"translators":[],"subjects":["Scott, Walter, 1771-1832"],"bookshelves":[],"languages":["en"],"copyright":false,"media_type":"Text","formats":{"text/html":"https://www.gutenberg.org/ebooks/69330.html.images","application/epub+zip":"https://www.gutenberg.org/ebooks/69330.epub3.images","application/x-mobipocket-ebook":"https://www.gutenberg.org/ebooks/69330.kf8.images","text/plain; charset=us-ascii":"https://www.gutenberg.org/ebooks/69330.txt.utf-8","application/rdf+xml":"https://www.gutenberg.org/ebooks/69330.rdf","image/jpeg":"https://www.gutenberg.org/cache/epub/69330/pg69330.cover.medium.jpg","application/octet-stream":"https://www.gutenberg.org/files/69330/69330-0.zip"},"download_count":32},{"id":69464,"title":"Light from the spirit world: The pilgrimage of Thomas Paine and others to the seventh circle in the spirit world","authors":[{"name":"Hammond, C. (Charles)","birth_year":null,"death_year":1859}],"translators":[],"subjects":["Paine, Thomas, 1737-1809 -- Spiritualistic interpretations","Spirit writings"],"bookshelves":[],"languages":["en"],"copyright":false,"media_type":"Text","formats":{"text/html":"https://www.gutenberg.org/ebooks/69464.html.images","application/epub+zip":"https://www.gutenberg.org/ebooks/69464.epub3.images","application/x-mobipocket-ebook":"https://www.gutenberg.org/ebooks/69464.kf8.images","text/plain; charset=us-ascii":"https://www.gutenberg.org/ebooks/69464.txt.utf-8","application/rdf+xml":"https://www.gutenberg.org/ebooks/69464.rdf","image/jpeg":"https://www.gutenberg.org/cache/epub/69464/pg69464.cover.medium.jpg","application/octet-stream":"https://www.gutenberg.org/files/69464/69464-0.zip"},"download_count":32},{"id":69531,"title":"Advice to young men and boys: A series of addresses delivered by B. B. Comegys to the pupils of Girard College","authors":[{"name":"Comegys, B. B. (Benjamin Bartis)","birth_year":1819,"death_year":1900}],"translators":[],"subjects":["Conduct of life","Girard College"],"bookshelves":[],"languages":["en"],"copyright":false,"media_type":"Text","formats":{"text/html":"https://www.gutenberg.org/ebooks/69531.html.images","application/epub+zip":"https://www.gutenberg.org/ebooks/69531.epub3.images","application/x-mobipocket-ebook":"https://www.gutenberg.org/ebooks/69531.kf8.images","text/plain; charset=us-ascii":"https://www.gutenberg.org/ebooks/69531.txt.utf-8","application/rdf+xml":"https://www.gutenberg.org/ebooks/69531.rdf","image/jpeg":"https://www.gutenberg.org/cache/epub/69531/pg69531.cover.medium.jpg","application/octet-stream":"https://www.gutenberg.org/files/69531/69531-0.zip"},"download_count":32},{"id":69549,"title":"The painted room","authors":[{"name":"Wilson, Margaret","birth_year":1882,"death_year":1973}],"translators":[],"subjects":["Families -- Fiction","First loves -- Fiction","Mate selection -- Fiction","Middle West -- Fiction","United States -- Social life and customs -- 20th century -- Fiction"],"bookshelves":[],"languages":["en"],"copyright":false,"media_type":"Text","formats":{"text/html":"https://www.gutenberg.org/ebooks/69549.html.images","application/epub+zip":"https://www.gutenberg.org/ebooks/69549.epub3.images","application/x-mobipocket-ebook":"https://www.gutenberg.org/ebooks/69549.kf8.images","text/plain; charset=us-ascii":"https://www.gutenberg.org/ebooks/69549.txt.utf-8","application/rdf+xml":"https://www.gutenberg.org/ebooks/69549.rdf","image/jpeg":"https://www.gutenberg.org/cache/epub/69549/pg69549.cover.medium.jpg","application/octet-stream":"https://www.gutenberg.org/files/69549/69549-0.zip"},"download_count":32},{"id":69939,"title":"Essays in medical sociology, Volume 1 (of 2)","authors":[{"name":"Blackwell, Elizabeth","birth_year":1821,"death_year":1910}],"translators":[],"subjects":["Prostitution","Sexual ethics","Social medicine"],"bookshelves":[],"languages":["en"],"copyright":false,"media_type":"Text","formats":{"text/html":"https://www.gutenberg.org/ebooks/69939.html.images","application/epub+zip":"https://www.gutenberg.org/ebooks/69939.epub3.images","application/x-mobipocket-ebook":"https://www.gutenberg.org/ebooks/69939.kf8.images","text/plain; charset=us-ascii":"https://www.gutenberg.org/ebooks/69939.txt.utf-8","application/rdf+xml":"https://www.gutenberg.org/ebooks/69939.rdf","image/jpeg":"https://www.gutenberg.org/cache/epub/69939/pg69939.cover.medium.jpg","application/octet-stream":"https://www.gutenberg.org/files/69939/69939-0.zip"},"download_count":32},{"id":70115,"title":"The Creator, and what we may know of the method of creation","authors":[{"name":"Dallinger, W. H. (William Henry)","birth_year":1842,"death_year":1909}],"translators":[],"subjects":["Creation","Evolution","God","Religion and science"],"bookshelves":[],"languages":["en"],"copyright":false,"media_type":"Text","formats":{"text/html":"https://www.gutenberg.org/ebooks/70115.html.images","application/epub+zip":"https://www.gutenberg.org/ebooks/70115.epub3.images","application/x-mobipocket-ebook":"https://www.gutenberg.org/ebooks/70115.kf8.images","text/plain; charset=us-ascii":"https://www.gutenberg.org/ebooks/70115.txt.utf-8","application/rdf+xml":"https://www.gutenberg.org/ebooks/70115.rdf","image/jpeg":"https://www.gutenberg.org/cache/epub/70115/pg70115.cover.medium.jpg","application/octet-stream":"https://www.gutenberg.org/files/70115/70115-0.zip"},"download_count":32},{"id":70147,"title":"The psychology of the poet Shelley","authors":[{"name":"Carpenter, Edward","birth_year":1844,"death_year":1929},{"name":"Barnard, Guy Christian","birth_year":1896,"death_year":1976}],"translators":[],"subjects":["Poetry -- Authorship -- Psychological aspects","Poets, English -- 19th century -- Psychology","Shelley, Percy Bysshe, 1792-1822 -- Psychology"],"bookshelves":[],"languages":["en"],"copyright":false,"media_type":"Text","formats":{"text/html":"https://www.gutenberg.org/ebooks/70147.html.images","application/epub+zip":"https://www.gutenberg.org/ebooks/70147.epub3.images","application/x-mobipocket-ebook":"https://www.gutenberg.org/ebooks/70147.kf8.images","text/plain; charset=us-ascii":"https://www.gutenberg.org/ebooks/70147.txt.utf-8","application/rdf+xml":"https://www.gutenberg.org/ebooks/70147.rdf","image/jpeg":"https://www.gutenberg.org/cache/epub/70147/pg70147.cover.medium.jpg","application/octet-stream":"https://www.gutenberg.org/files/70147/70147-0.zip"},"download_count":32},{"id":70150,"title":"An A. B. C. of every-day people : $b Good, bad & indifferent","authors":[{"name":"Farrow, G. E. (George Edward)","birth_year":1862,"death_year":1919}],"translators":[],"subjects":["Alphabet books","Alphabet rhymes","English language -- Alphabet -- Juvenile literature"],"bookshelves":[],"languages":["en"],"copyright":false,"media_type":"Text","formats":{"text/html":"https://www.gutenberg.org/ebooks/70150.html.images","application/epub+zip":"https://www.gutenberg.org/ebooks/70150.epub3.images","application/x-mobipocket-ebook":"https://www.gutenberg.org/ebooks/70150.kf8.images","text/plain; charset=us-ascii":"https://www.gutenberg.org/ebooks/70150.txt.utf-8","application/rdf+xml":"https://www.gutenberg.org/ebooks/70150.rdf","image/jpeg":"https://www.gutenberg.org/cache/epub/70150/pg70150.cover.medium.jpg","application/octet-stream":"https://www.gutenberg.org/files/70150/70150-0.zip"},"download_count":32},{"id":70194,"title":"Motor-car principles; the gasoline automobile","authors":[{"name":"Whitman, Roger B. (Roger Bradbury)","birth_year":1875,"death_year":1942}],"translators":[],"subjects":["Automobiles"],"bookshelves":[],"languages":["en"],"copyright":false,"media_type":"Text","formats":{"text/html":"https://www.gutenberg.org/ebooks/70194.html.images","application/epub+zip":"https://www.gutenberg.org/ebooks/70194.epub3.images","application/x-mobipocket-ebook":"https://www.gutenberg.org/ebooks/70194.kf8.images","text/plain; charset=us-ascii":"https://www.gutenberg.org/ebooks/70194.txt.utf-8","application/rdf+xml":"https://www.gutenberg.org/ebooks/70194.rdf","image/jpeg":"https://www.gutenberg.org/cache/epub/70194/pg70194.cover.medium.jpg","application/octet-stream":"https://www.gutenberg.org/files/70194/70194-0.zip"},"download_count":32},{"id":70233,"title":"The duplicate death","authors":[{"name":"Fox-Davies, Arthur Charles","birth_year":1871,"death_year":1928}],"translators":[],"subjects":["England -- Fiction","Inheritance and succession -- Fiction","Lawyers -- Fiction","Murder -- Investigation -- Fiction","Mystery fiction"],"bookshelves":[],"languages":["en"],"copyright":false,"media_type":"Text","formats":{"text/html":"https://www.gutenberg.org/ebooks/70233.html.images","application/epub+zip":"https://www.gutenberg.org/ebooks/70233.epub3.images","application/x-mobipocket-ebook":"https://www.gutenberg.org/ebooks/70233.kf8.images","text/plain; charset=us-ascii":"https://www.gutenberg.org/ebooks/70233.txt.utf-8","application/rdf+xml":"https://www.gutenberg.org/ebooks/70233.rdf","image/jpeg":"https://www.gutenberg.org/cache/epub/70233/pg70233.cover.medium.jpg","application/octet-stream":"https://www.gutenberg.org/files/70233/70233-0.zip"},"download_count":32},{"id":70251,"title":"Yesterday's doors","authors":[{"name":"Burks, Arthur J.","birth_year":1898,"death_year":1974}],"translators":[],"subjects":["Amnesiacs -- Fiction","Psychological fiction","Reincarnation -- Fiction","Science fiction"],"bookshelves":[],"languages":["en"],"copyright":false,"media_type":"Text","formats":{"text/html":"https://www.gutenberg.org/ebooks/70251.html.images","application/epub+zip":"https://www.gutenberg.org/ebooks/70251.epub3.images","application/x-mobipocket-ebook":"https://www.gutenberg.org/ebooks/70251.kf8.images","text/plain; charset=us-ascii":"https://www.gutenberg.org/ebooks/70251.txt.utf-8","application/rdf+xml":"https://www.gutenberg.org/ebooks/70251.rdf","image/jpeg":"https://www.gutenberg.org/cache/epub/70251/pg70251.cover.medium.jpg","application/octet-stream":"https://www.gutenberg.org/files/70251/70251-0.zip"},"download_count":32},{"id":70344,"title":"Odds and ends","authors":[{"name":"Croker, B. M. (Bithia Mary)","birth_year":1848,"death_year":1920}],"translators":[],"subjects":["Ireland -- Fiction","Short stories, English -- Irish authors"],"bookshelves":[],"languages":["en"],"copyright":false,"media_type":"Text","formats":{"text/html":"https://www.gutenberg.org/ebooks/70344.html.images","application/epub+zip":"https://www.gutenberg.org/ebooks/70344.epub3.images","application/x-mobipocket-ebook":"https://www.gutenberg.org/ebooks/70344.kf8.images","text/plain; charset=us-ascii":"https://www.gutenberg.org/ebooks/70344.txt.utf-8","application/rdf+xml":"https://www.gutenberg.org/ebooks/70344.rdf","image/jpeg":"https://www.gutenberg.org/cache/epub/70344/pg70344.cover.medium.jpg","application/octet-stream":"https://www.gutenberg.org/files/70344/70344-0.zip"},"download_count":32},{"id":70357,"title":"The Jumano Indians","authors":[{"name":"Hodge, Frederick Webb","birth_year":1864,"death_year":1956}],"translators":[],"subjects":["Jumano Indians"],"bookshelves":[],"languages":["en"],"copyright":false,"media_type":"Text","formats":{"text/html":"https://www.gutenberg.org/ebooks/70357.html.images","application/epub+zip":"https://www.gutenberg.org/ebooks/70357.epub3.images","application/x-mobipocket-ebook":"https://www.gutenberg.org/ebooks/70357.kf8.images","text/plain; charset=us-ascii":"https://www.gutenberg.org/ebooks/70357.txt.utf-8","application/rdf+xml":"https://www.gutenberg.org/ebooks/70357.rdf","image/jpeg":"https://www.gutenberg.org/cache/epub/70357/pg70357.cover.medium.jpg","application/octet-stream":"https://www.gutenberg.org/files/70357/70357-0.zip"},"download_count":32},{"id":70361,"title":"The terror","authors":[{"name":"Coppel, Alfred","birth_year":1921,"death_year":2004}],"translators":[],"subjects":["Cold War -- Fiction","Science fiction","Short stories","Space travelers -- Fiction"],"bookshelves":[],"languages":["en"],"copyright":false,"media_type":"Text","formats":{"text/html":"https://www.gutenberg.org/ebooks/70361.html.images","application/epub+zip":"https://www.gutenberg.org/ebooks/70361.epub3.images","application/x-mobipocket-ebook":"https://www.gutenberg.org/ebooks/70361.kf8.images","text/plain; charset=us-ascii":"https://www.gutenberg.org/ebooks/70361.txt.utf-8","application/rdf+xml":"https://www.gutenberg.org/ebooks/70361.rdf","image/jpeg":"https://www.gutenberg.org/cache/epub/70361/pg70361.cover.medium.jpg","application/octet-stream":"https://www.gutenberg.org/files/70361/70361-0.zip"},"download_count":32},{"id":70381,"title":"The Abbey of St. Albans from 1300 to the dissolution of the monasteries : $b The Stanhope essay, 1911","authors":[{"name":"Galbraith, V. H. (Vivian Hunter)","birth_year":1889,"death_year":1976}],"translators":[],"subjects":["Monastic and religious life -- England -- St. Albans -- History -- Middle Ages, 600-1500","Monasticism and religious orders -- England -- St. Albans -- History -- Middle Ages, 600-1500","St. Albans Abbey"],"bookshelves":[],"languages":["en"],"copyright":false,"media_type":"Text","formats":{"text/html":"https://www.gutenberg.org/ebooks/70381.html.images","application/epub+zip":"https://www.gutenberg.org/ebooks/70381.epub3.images","application/x-mobipocket-ebook":"https://www.gutenberg.org/ebooks/70381.kf8.images","text/plain; charset=us-ascii":"https://www.gutenberg.org/ebooks/70381.txt.utf-8","application/rdf+xml":"https://www.gutenberg.org/ebooks/70381.rdf","image/jpeg":"https://www.gutenberg.org/cache/epub/70381/pg70381.cover.medium.jpg","application/octet-stream":"https://www.gutenberg.org/files/70381/70381-0.zip"},"download_count":32},{"id":70437,"title":"The eagle's masque","authors":[{"name":"Tit, Tom, active approximately 1808","birth_year":null,"death_year":null}],"translators":[],"subjects":["Birds -- Juvenile poetry","Children's poetry"],"bookshelves":[],"languages":["en"],"copyright":false,"media_type":"Text","formats":{"text/html":"https://www.gutenberg.org/ebooks/70437.html.images","application/epub+zip":"https://www.gutenberg.org/ebooks/70437.epub3.images","application/x-mobipocket-ebook":"https://www.gutenberg.org/ebooks/70437.kf8.images","text/plain; charset=us-ascii":"https://www.gutenberg.org/ebooks/70437.txt.utf-8","application/rdf+xml":"https://www.gutenberg.org/ebooks/70437.rdf","image/jpeg":"https://www.gutenberg.org/cache/epub/70437/pg70437.cover.medium.jpg","application/octet-stream":"https://www.gutenberg.org/files/70437/70437-0.zip"},"download_count":32},{"id":70445,"title":"Host and Guest : $b a book about dinners, dinner-giving, wines, and desserts","authors":[{"name":"Kirwan, A. V. (Andrew Valentine)","birth_year":1804,"death_year":1870}],"translators":[],"subjects":["Dinners and dining","Wine and wine making"],"bookshelves":[],"languages":["en"],"copyright":false,"media_type":"Text","formats":{"text/html":"https://www.gutenberg.org/ebooks/70445.html.images","application/epub+zip":"https://www.gutenberg.org/ebooks/70445.epub3.images","application/x-mobipocket-ebook":"https://www.gutenberg.org/ebooks/70445.kf8.images","text/plain; charset=us-ascii":"https://www.gutenberg.org/ebooks/70445.txt.utf-8","application/rdf+xml":"https://www.gutenberg.org/ebooks/70445.rdf","image/jpeg":"https://www.gutenberg.org/cache/epub/70445/pg70445.cover.medium.jpg","application/octet-stream":"https://www.gutenberg.org/files/70445/70445-0.zip"},"download_count":32},{"id":70590,"title":"Dark recess","authors":[{"name":"Smith, George O. (George Oliver)","birth_year":1911,"death_year":1981}],"translators":[],"subjects":["Hypnotism -- Fiction","Man-woman relationships -- Fiction","Physicists -- Fiction","Psychiatrists -- Fiction","Psychological fiction","Science fiction"],"bookshelves":[],"languages":["en"],"copyright":false,"media_type":"Text","formats":{"text/html":"https://www.gutenberg.org/ebooks/70590.html.images","application/epub+zip":"https://www.gutenberg.org/ebooks/70590.epub3.images","application/x-mobipocket-ebook":"https://www.gutenberg.org/ebooks/70590.kf8.images","text/plain; charset=us-ascii":"https://www.gutenberg.org/ebooks/70590.txt.utf-8","application/rdf+xml":"https://www.gutenberg.org/ebooks/70590.rdf","image/jpeg":"https://www.gutenberg.org/cache/epub/70590/pg70590.cover.medium.jpg","application/octet-stream":"https://www.gutenberg.org/files/70590/70590-0.zip"},"download_count":32},{"id":70623,"title":"The deadly thinkers","authors":[{"name":"Beyer, William Gray","birth_year":null,"death_year":null}],"translators":[],"subjects":["Artificial intelligence -- Fiction","Computers -- Fiction","Psychic ability -- Fiction","Science fiction"],"bookshelves":[],"languages":["en"],"copyright":false,"media_type":"Text","formats":{"text/html":"https://www.gutenberg.org/ebooks/70623.html.images","application/epub+zip":"https://www.gutenberg.org/ebooks/70623.epub3.images","application/x-mobipocket-ebook":"https://www.gutenberg.org/ebooks/70623.kf8.images","text/plain; charset=us-ascii":"https://www.gutenberg.org/ebooks/70623.txt.utf-8","application/rdf+xml":"https://www.gutenberg.org/ebooks/70623.rdf","image/jpeg":"https://www.gutenberg.org/cache/epub/70623/pg70623.cover.medium.jpg","application/octet-stream":"https://www.gutenberg.org/files/70623/70623-0.zip"},"download_count":32},{"id":70668,"title":"Needler","authors":[{"name":"Garrett, Randall","birth_year":1927,"death_year":1987}],"translators":[],"subjects":["Human-alien encounters -- Fiction","Science fiction","War stories","Weapons -- Fiction"],"bookshelves":[],"languages":["en"],"copyright":false,"media_type":"Text","formats":{"text/html":"https://www.gutenberg.org/ebooks/70668.html.images","application/epub+zip":"https://www.gutenberg.org/ebooks/70668.epub3.images","application/x-mobipocket-ebook":"https://www.gutenberg.org/ebooks/70668.kf8.images","text/plain; charset=us-ascii":"https://www.gutenberg.org/ebooks/70668.txt.utf-8","application/rdf+xml":"https://www.gutenberg.org/ebooks/70668.rdf","image/jpeg":"https://www.gutenberg.org/cache/epub/70668/pg70668.cover.medium.jpg","application/octet-stream":"https://www.gutenberg.org/files/70668/70668-0.zip"},"download_count":32},{"id":70787,"title":"Under the absolute Amir","authors":[{"name":"Martin, Frank A.","birth_year":null,"death_year":null}],"translators":[],"subjects":["'Abd al-Rahman Khan, Amir of Afghanistan, -1901","Afghanistan -- History","Kabul (Afghanistan)"],"bookshelves":[],"languages":["en"],"copyright":false,"media_type":"Text","formats":{"text/html":"https://www.gutenberg.org/ebooks/70787.html.images","application/epub+zip":"https://www.gutenberg.org/ebooks/70787.epub3.images","application/x-mobipocket-ebook":"https://www.gutenberg.org/ebooks/70787.kf8.images","text/plain; charset=us-ascii":"https://www.gutenberg.org/ebooks/70787.txt.utf-8","application/rdf+xml":"https://www.gutenberg.org/ebooks/70787.rdf","image/jpeg":"https://www.gutenberg.org/cache/epub/70787/pg70787.cover.medium.jpg","application/octet-stream":"https://www.gutenberg.org/files/70787/70787-0.zip"},"download_count":32},{"id":70813,"title":"Hand-book on cheese making","authors":[{"name":"Newell, George E.","birth_year":null,"death_year":null}],"translators":[],"subjects":["Cheese"],"bookshelves":[],"languages":["en"],"copyright":false,"media_type":"Text","formats":{"text/html":"https://www.gutenberg.org/ebooks/70813.html.images","application/epub+zip":"https://www.gutenberg.org/ebooks/70813.epub3.images","application/x-mobipocket-ebook":"https://www.gutenberg.org/ebooks/70813.kf8.images","text/plain; charset=us-ascii":"https://www.gutenberg.org/ebooks/70813.txt.utf-8","application/rdf+xml":"https://www.gutenberg.org/ebooks/70813.rdf","image/jpeg":"https://www.gutenberg.org/cache/epub/70813/pg70813.cover.medium.jpg","application/octet-stream":"https://www.gutenberg.org/files/70813/70813-0.zip"},"download_count":32},{"id":70913,"title":"Harilek : $b A romance","authors":[{"name":"Gompertz, Martin Louis Alan","birth_year":1886,"death_year":1951}],"translators":[],"subjects":["Adventure stories","Asia, Central -- Fiction","Fantasy fiction","Love stories","Science fiction"],"bookshelves":[],"languages":["en"],"copyright":false,"media_type":"Text","formats":{"text/html":"https://www.gutenberg.org/ebooks/70913.html.images","application/epub+zip":"https://www.gutenberg.org/ebooks/70913.epub3.images","application/x-mobipocket-ebook":"https://www.gutenberg.org/ebooks/70913.kf8.images","text/plain; charset=us-ascii":"https://www.gutenberg.org/ebooks/70913.txt.utf-8","application/rdf+xml":"https://www.gutenberg.org/ebooks/70913.rdf","image/jpeg":"https://www.gutenberg.org/cache/epub/70913/pg70913.cover.medium.jpg","application/octet-stream":"https://www.gutenberg.org/files/70913/70913-0.zip"},"download_count":32},{"id":71158,"title":"Three textile raw materials and their manufacture","authors":[{"name":"International Acceptance Bank","birth_year":null,"death_year":null}],"translators":[],"subjects":["Textile fabrics","Textile fibers","Textile industry"],"bookshelves":[],"languages":["en"],"copyright":false,"media_type":"Text","formats":{"text/html":"https://www.gutenberg.org/ebooks/71158.html.images","application/epub+zip":"https://www.gutenberg.org/ebooks/71158.epub3.images","application/x-mobipocket-ebook":"https://www.gutenberg.org/ebooks/71158.kf8.images","text/plain; charset=us-ascii":"https://www.gutenberg.org/ebooks/71158.txt.utf-8","application/rdf+xml":"https://www.gutenberg.org/ebooks/71158.rdf","image/jpeg":"https://www.gutenberg.org/cache/epub/71158/pg71158.cover.medium.jpg","application/octet-stream":"https://www.gutenberg.org/files/71158/71158-0.zip"},"download_count":32},{"id":71178,"title":"Dora","authors":[{"name":"Tennyson, Alfred Tennyson, Baron","birth_year":1809,"death_year":1892}],"translators":[],"subjects":["Families -- Poetry"],"bookshelves":[],"languages":["en"],"copyright":false,"media_type":"Text","formats":{"text/html":"https://www.gutenberg.org/ebooks/71178.html.images","application/epub+zip":"https://www.gutenberg.org/ebooks/71178.epub3.images","application/x-mobipocket-ebook":"https://www.gutenberg.org/ebooks/71178.kf8.images","text/plain; charset=us-ascii":"https://www.gutenberg.org/ebooks/71178.txt.utf-8","application/rdf+xml":"https://www.gutenberg.org/ebooks/71178.rdf","image/jpeg":"https://www.gutenberg.org/cache/epub/71178/pg71178.cover.medium.jpg","application/octet-stream":"https://www.gutenberg.org/files/71178/71178-0.zip"},"download_count":32},{"id":71194,"title":"The history of the condition of women, in various ages and nations (vol. 2 of 2) : $b Comprising the women of Europe, America, and South Sea Islands","authors":[{"name":"Child, Lydia Maria","birth_year":1802,"death_year":1880}],"translators":[],"subjects":["Women -- History","Women -- Social conditions"],"bookshelves":[],"languages":["en"],"copyright":false,"media_type":"Text","formats":{"text/html":"https://www.gutenberg.org/ebooks/71194.html.images","application/epub+zip":"https://www.gutenberg.org/ebooks/71194.epub3.images","application/x-mobipocket-ebook":"https://www.gutenberg.org/ebooks/71194.kf8.images","text/plain; charset=us-ascii":"https://www.gutenberg.org/ebooks/71194.txt.utf-8","application/rdf+xml":"https://www.gutenberg.org/ebooks/71194.rdf","image/jpeg":"https://www.gutenberg.org/cache/epub/71194/pg71194.cover.medium.jpg","application/octet-stream":"https://www.gutenberg.org/files/71194/71194-0.zip"},"download_count":32}]}