{"count":58808,"next":"http://129.241.150.113:8000/books/?languages=en&page=1167","previous":"http://129.241.150.113:8000/books/?languages=en&page=1165","results":[{"id":66981,"title":"Law Rustlers","authors":[{"name":"Tuttle, W. C. (Wilbur C.)","birth_year":1883,"death_year":1969}],"translators":[],"subjects":["Adventure stories","Hartley, Hashknife (Fictitious character) -- Fiction","Stevens, Sleepy (Fictitious character) -- Fiction","Western stories"],"bookshelves":[],"languages":["en"],"copyright":false,"media_type":"Text","formats":{"text/html":"https://www.gutenberg.org/ebooks/66981.html.images","application/epub+zip":"https://www.gutenberg.org/ebooks/66981.epub3.images","application/x-mobipocket-ebook":"https://www.gutenberg.org/ebooks/66981.kf8.images","text/plain; charset=us-ascii":"https://www.gutenberg.org/ebooks/66981.txt.utf-8","application/rdf+xml":"https://www.gutenberg.org/ebooks/66981.rdf","image/jpeg":"https://www.gutenberg.org/cache/epub/66981/pg66981.cover.medium.jpg","application/octet-stream":"https://www.gutenberg.org/files/66981/66981-0.zip"},"download_count":32},{"id":67135,"title":"The Lives of Celebrated Travellers, Vol. 3 (of 3)","authors":[{"name":"St. John, James Augustus","birth_year":1795,"death_year":1875}],"translators":[],"subjects":["Adventure and adventurers -- Biography","Explorers -- Biography","Travelers -- Biography"],"bookshelves":[],"languages":["en"],"copyright":false,"media_type":"Text","formats":{"text/html":"https://www.gutenberg.org/ebooks/67135.html.images","application/epub+zip":"https://www.gutenberg.org/ebooks/67135.epub3.images","application/x-mobipocket-ebook":"https://www.gutenberg.org/ebooks/67135.kf8.images","text/plain; charset=us-ascii":"https://www.gutenberg.org/ebooks/67135.txt.utf-8","application/rdf+xml":"https://www.gutenberg.org/ebooks/67135.rdf","image/jpeg":"https://www.gutenberg.org/cache/epub/67135/pg67135.cover.medium.jpg","application/octet-stream":"https://www.gutenberg.org/files/67135/67135-0.zip"},"download_count":32},{"id":67151,"title":"The Proofs of Christ's Resurrection; from a Lawyer's Standpoint","authors":[{"name":"Morrison, Charles R. (Charles Robert)","birth_year":1819,"death_year":1893}],"translators":[],"subjects":["Apologetics","Jesus Christ -- Resurrection"],"bookshelves":[],"languages":["en"],"copyright":false,"media_type":"Text","formats":{"text/html":"https://www.gutenberg.org/ebooks/67151.html.images","application/epub+zip":"https://www.gutenberg.org/ebooks/67151.epub3.images","application/x-mobipocket-ebook":"https://www.gutenberg.org/ebooks/67151.kf8.images","text/plain; charset=us-ascii":"https://www.gutenberg.org/ebooks/67151.txt.utf-8","application/rdf+xml":"https://www.gutenberg.org/ebooks/67151.rdf","image/jpeg":"https://www.gutenberg.org/cache/epub/67151/pg67151.cover.medium.jpg","application/octet-stream":"https://www.gutenberg.org/files/67151/67151-0.zip"},"download_count":32},{"id":67259,"title":"The Big Idea","authors":[{"name":"Cummings, Ray","birth_year":1887,"death_year":1957}],"translators":[],"subjects":["Coal mines and mining -- Fiction","Factories -- Fiction","Inventions -- Fiction","Man-woman relationships -- Fiction","Young men -- Fiction"],"bookshelves":[],"languages":["en"],"copyright":false,"media_type":"Text","formats":{"text/html":"https://www.gutenberg.org/ebooks/67259.html.images","application/epub+zip":"https://www.gutenberg.org/ebooks/67259.epub3.images","application/x-mobipocket-ebook":"https://www.gutenberg.org/ebooks/67259.kf8.images","text/plain; charset=us-ascii":"https://www.gutenberg.org/ebooks/67259.txt.utf-8","application/rdf+xml":"https://www.gutenberg.org/ebooks/67259.rdf","image/jpeg":"https://www.gutenberg.org/cache/epub/67259/pg67259.cover.medium.jpg","application/octet-stream":"https://www.gutenberg.org/files/67259/67259-0.zip"},"download_count":32},{"id":67371,"title":"Bokwala: The Story of a Congo Victim","authors":[{"name":"Congo resident","birth_year":null,"death_year":null}],"translators":[],"subjects":["Congo (Democratic Republic) -- Social conditions","Forced labor -- Congo (Democratic Republic)","Slavery -- Congo (Democratic Republic)"],"bookshelves":[],"languages":["en"],"copyright":false,"media_type":"Text","formats":{"text/html":"https://www.gutenberg.org/ebooks/67371.html.images","application/epub+zip":"https://www.gutenberg.org/ebooks/67371.epub3.images","application/x-mobipocket-ebook":"https://www.gutenberg.org/ebooks/67371.kf8.images","text/plain; charset=us-ascii":"https://www.gutenberg.org/ebooks/67371.txt.utf-8","application/rdf+xml":"https://www.gutenberg.org/ebooks/67371.rdf","image/jpeg":"https://www.gutenberg.org/cache/epub/67371/pg67371.cover.medium.jpg","application/octet-stream":"https://www.gutenberg.org/files/67371/67371-0.zip"},"download_count":32},{"id":67422,"title":"The Black Cat (Vol. I, No. 1, October 1895)","authors":[{"name":"Various","birth_year":null,"death_year":null}],"translators":[],"subjects":["Short stories, American -- Periodicals"],"bookshelves":[],"languages":["en"],"copyright":false,"media_type":"Text","formats":{"text/html":"https://www.gutenberg.org/ebooks/67422.html.images","application/epub+zip":"https://www.gutenberg.org/ebooks/67422.epub3.images","application/x-mobipocket-ebook":"https://www.gutenberg.org/ebooks/67422.kf8.images","text/plain; charset=us-ascii":"https://www.gutenberg.org/ebooks/67422.txt.utf-8","application/rdf+xml":"https://www.gutenberg.org/ebooks/67422.rdf","image/jpeg":"https://www.gutenberg.org/cache/epub/67422/pg67422.cover.medium.jpg","application/octet-stream":"https://www.gutenberg.org/files/67422/67422-0.zip"},"download_count":32},{"id":67458,"title":"The Reign of William Rufus and the Accession of Henry the First, Volume 1 (of 2)","authors":[{"name":"Freeman, Edward A. (Edward Augustus)","birth_year":1823,"death_year":1892}],"translators":[],"subjects":["Great Britain -- History -- Henry I, 1100-1135","Great Britain -- History -- Norman period, 1066-1154","Great Britain -- History -- William II, Rufus, 1087-1100","Henry I, King of England, 1068-1135","Normans -- Great Britain","William II, King of England, 1056?-1100"],"bookshelves":[],"languages":["en"],"copyright":false,"media_type":"Text","formats":{"text/html":"https://www.gutenberg.org/ebooks/67458.html.images","application/epub+zip":"https://www.gutenberg.org/ebooks/67458.epub3.images","application/x-mobipocket-ebook":"https://www.gutenberg.org/ebooks/67458.kf8.images","text/plain; charset=us-ascii":"https://www.gutenberg.org/ebooks/67458.txt.utf-8","application/rdf+xml":"https://www.gutenberg.org/ebooks/67458.rdf","image/jpeg":"https://www.gutenberg.org/cache/epub/67458/pg67458.cover.medium.jpg","application/octet-stream":"https://www.gutenberg.org/files/67458/67458-0.zip"},"download_count":32},{"id":67460,"title":"The Sin of Monsieur Antoine, Volume 1 (of 2)","authors":[{"name":"Sand, George","birth_year":1804,"death_year":1876}],"translators":[{"name":"Ives, George Burnham","birth_year":1856,"death_year":1930}],"subjects":["French fiction -- 19th century"],"bookshelves":[],"languages":["en"],"copyright":false,"media_type":"Text","formats":{"text/html":"https://www.gutenberg.org/ebooks/67460.html.images","application/epub+zip":"https://www.gutenberg.org/ebooks/67460.epub3.images","application/x-mobipocket-ebook":"https://www.gutenberg.org/ebooks/67460.kf8.images","text/plain; charset=us-ascii":"https://www.gutenberg.org/ebooks/67460.txt.utf-8","application/rdf+xml":"https://www.gutenberg.org/ebooks/67460.rdf","image/jpeg":"https://www.gutenberg.org/cache/epub/67460/pg67460.cover.medium.jpg","application/octet-stream":"https://www.gutenberg.org/files/67460/67460-0.zip"},"download_count":32},{"id":67473,"title":"The Negro in Tennessee, 1790-1865","authors":[{"name":"Patterson, C. Perry (Caleb Perry)","birth_year":1880,"death_year":1971}],"translators":[],"subjects":["African Americans -- Tennessee","Slavery -- Tennessee"],"bookshelves":[],"languages":["en"],"copyright":false,"media_type":"Text","formats":{"text/html":"https://www.gutenberg.org/ebooks/67473.html.images","application/epub+zip":"https://www.gutenberg.org/ebooks/67473.epub3.images","application/x-mobipocket-ebook":"https://www.gutenberg.org/ebooks/67473.kf8.images","text/plain; charset=us-ascii":"https://www.gutenberg.org/ebooks/67473.txt.utf-8","application/rdf+xml":"https://www.gutenberg.org/ebooks/67473.rdf","image/jpeg":"https://www.gutenberg.org/cache/epub/67473/pg67473.cover.medium.jpg","application/octet-stream":"https://www.gutenberg.org/files/67473/67473-0.zip"},"download_count":32},{"id":67521,"title":"Tomorrow's tangle","authors":[{"name":"Bonner, Geraldine","birth_year":1870,"death_year":1930}],"translators":[],"subjects":["Frontier and pioneer life -- Fiction","Miners -- Fiction","San Francisco (Calif.) -- Fiction","Singers -- Fiction"],"bookshelves":[],"languages":["en"],"copyright":false,"media_type":"Text","formats":{"text/html":"https://www.gutenberg.org/ebooks/67521.html.images","application/epub+zip":"https://www.gutenberg.org/ebooks/67521.epub3.images","application/x-mobipocket-ebook":"https://www.gutenberg.org/ebooks/67521.kf8.images","text/plain; charset=us-ascii":"https://www.gutenberg.org/ebooks/67521.txt.utf-8","application/rdf+xml":"https://www.gutenberg.org/ebooks/67521.rdf","image/jpeg":"https://www.gutenberg.org/cache/epub/67521/pg67521.cover.medium.jpg","application/octet-stream":"https://www.gutenberg.org/files/67521/67521-0.zip"},"download_count":32},{"id":67539,"title":"\"Around the Circle\": One Thousand Miles Through the Rocky Mountains","authors":[{"name":"Denver and Rio Grande Railroad Company","birth_year":null,"death_year":null}],"translators":[],"subjects":["Colorado -- Guidebooks","Railroad travel -- Colorado","Rocky Mountains -- Guidebooks"],"bookshelves":[],"languages":["en"],"copyright":false,"media_type":"Text","formats":{"text/html":"https://www.gutenberg.org/ebooks/67539.html.images","application/epub+zip":"https://www.gutenberg.org/ebooks/67539.epub3.images","application/x-mobipocket-ebook":"https://www.gutenberg.org/ebooks/67539.kf8.images","text/plain; charset=us-ascii":"https://www.gutenberg.org/ebooks/67539.txt.utf-8","application/rdf+xml":"https://www.gutenberg.org/ebooks/67539.rdf","image/jpeg":"https://www.gutenberg.org/cache/epub/67539/pg67539.cover.medium.jpg","application/octet-stream":"https://www.gutenberg.org/files/67539/67539-0.zip"},"download_count":32},{"id":67551,"title":"With Grenfell on the Labrador","authors":[{"name":"Waldo, Fullerton L. (Fullerton Leonard)","birth_year":1877,"death_year":1933}],"translators":[],"subjects":["Grenfell, Wilfred Thomason, Sir, 1865-1940"],"bookshelves":[],"languages":["en"],"copyright":false,"media_type":"Text","formats":{"text/html":"https://www.gutenberg.org/ebooks/67551.html.images","application/epub+zip":"https://www.gutenberg.org/ebooks/67551.epub3.images","application/x-mobipocket-ebook":"https://www.gutenberg.org/ebooks/67551.kf8.images","text/plain; charset=us-ascii":"https://www.gutenberg.org/ebooks/67551.txt.utf-8","application/rdf+xml":"https://www.gutenberg.org/ebooks/67551.rdf","image/jpeg":"https://www.gutenberg.org/cache/epub/67551/pg67551.cover.medium.jpg","application/octet-stream":"https://www.gutenberg.org/files/67551/67551-0.zip"},"download_count":32},{"id":67560,"title":"All the World Over: Interesting Stories of Travel, Thrilling Adventure and Home Life","authors":[{"name":"Pratt, Ella Farman","birth_year":1837,"death_year":1907},{"name":"Bell, Lucia Chase","birth_year":null,"death_year":null},{"name":"Converse, Frank H.","birth_year":null,"death_year":null},{"name":"Stockton, Louise","birth_year":1838,"death_year":1914}],"translators":[],"subjects":["Adventure and adventurers -- Juvenile literature","Children's literature","Children's poetry","Children's stories","Families -- Juvenile literature","Voyages and travels -- Juvenile literature"],"bookshelves":[],"languages":["en"],"copyright":false,"media_type":"Text","formats":{"text/html":"https://www.gutenberg.org/ebooks/67560.html.images","application/epub+zip":"https://www.gutenberg.org/ebooks/67560.epub3.images","application/x-mobipocket-ebook":"https://www.gutenberg.org/ebooks/67560.kf8.images","text/plain; charset=us-ascii":"https://www.gutenberg.org/ebooks/67560.txt.utf-8","application/rdf+xml":"https://www.gutenberg.org/ebooks/67560.rdf","image/jpeg":"https://www.gutenberg.org/cache/epub/67560/pg67560.cover.medium.jpg","application/octet-stream":"https://www.gutenberg.org/files/67560/67560-0.zip"},"download_count":32},{"id":67668,"title":"Hints to Travellers, Scientific and General, Vol. 2: Tenth edition, revised and corrected","authors":[{"name":"Royal Geographical Society (Great Britain)","birth_year":null,"death_year":null}],"translators":[],"subjects":["Scientific expeditions -- Handbooks, manuals, etc.","Spherical astronomy","Topographical surveying"],"bookshelves":[],"languages":["en"],"copyright":false,"media_type":"Text","formats":{"text/html":"https://www.gutenberg.org/ebooks/67668.html.images","application/epub+zip":"https://www.gutenberg.org/ebooks/67668.epub3.images","application/x-mobipocket-ebook":"https://www.gutenberg.org/ebooks/67668.kf8.images","text/plain; charset=us-ascii":"https://www.gutenberg.org/ebooks/67668.txt.utf-8","application/rdf+xml":"https://www.gutenberg.org/ebooks/67668.rdf","image/jpeg":"https://www.gutenberg.org/cache/epub/67668/pg67668.cover.medium.jpg","application/octet-stream":"https://www.gutenberg.org/files/67668/67668-0.zip"},"download_count":32},{"id":67703,"title":"The Master Spirit","authors":[{"name":"Magnay, William, Sir","birth_year":1855,"death_year":1917}],"translators":[],"subjects":["Adventure stories","Countesses -- Fiction","Lawyers -- Fiction","London (England) -- Fiction","Love stories","Trials (Murder) -- Fiction"],"bookshelves":[],"languages":["en"],"copyright":false,"media_type":"Text","formats":{"text/html":"https://www.gutenberg.org/ebooks/67703.html.images","application/epub+zip":"https://www.gutenberg.org/ebooks/67703.epub3.images","application/x-mobipocket-ebook":"https://www.gutenberg.org/ebooks/67703.kf8.images","text/plain; charset=us-ascii":"https://www.gutenberg.org/ebooks/67703.txt.utf-8","application/rdf+xml":"https://www.gutenberg.org/ebooks/67703.rdf","image/jpeg":"https://www.gutenberg.org/cache/epub/67703/pg67703.cover.medium.jpg","application/octet-stream":"https://www.gutenberg.org/files/67703/67703-0.zip"},"download_count":32},{"id":67759,"title":"The Demon Trapper of Umbagog: A Thrilling Tale of the Maine Forests","authors":[{"name":"Thompson, Daniel P. (Daniel Pierce)","birth_year":1795,"death_year":1868}],"translators":[],"subjects":["Frontier and pioneer life -- Fiction","Maine -- Fiction","Trappers -- Fiction"],"bookshelves":[],"languages":["en"],"copyright":false,"media_type":"Text","formats":{"text/html":"https://www.gutenberg.org/ebooks/67759.html.images","application/epub+zip":"https://www.gutenberg.org/ebooks/67759.epub3.images","application/x-mobipocket-ebook":"https://www.gutenberg.org/ebooks/67759.kf8.images","text/plain; charset=us-ascii":"https://www.gutenberg.org/ebooks/67759.txt.utf-8","application/rdf+xml":"https://www.gutenberg.org/ebooks/67759.rdf","image/jpeg":"https://www.gutenberg.org/cache/epub/67759/pg67759.cover.medium.jpg","application/octet-stream":"https://www.gutenberg.org/files/67759/67759-0.zip"},"download_count":32},{"id":67845,"title":"Ireland: The People's History of Ireland, Volume 1 (of 2)","authors":[{"name":"Finerty, John F. (John Frederick)","birth_year":1846,"death_year":1908}],"translators":[],"subjects":["Ireland -- History"],"bookshelves":[],"languages":["en"],"copyright":false,"media_type":"Text","formats":{"text/html":"https://www.gutenberg.org/ebooks/67845.html.images","application/epub+zip":"https://www.gutenberg.org/ebooks/67845.epub3.images","application/x-mobipocket-ebook":"https://www.gutenberg.org/ebooks/67845.kf8.images","text/plain; charset=us-ascii":"https://www.gutenberg.org/ebooks/67845.txt.utf-8","application/rdf+xml":"https://www.gutenberg.org/ebooks/67845.rdf","image/jpeg":"https://www.gutenberg.org/cache/epub/67845/pg67845.cover.medium.jpg","application/octet-stream":"https://www.gutenberg.org/files/67845/67845-0.zip"},"download_count":32},{"id":67980,"title":"The life and times of the Rev. Samuel Wesley: Rector of Epworth and father of the Revs. John and Charles Wesley, the founders of the Methodists","authors":[{"name":"Tyerman, L. (Luke)","birth_year":1819,"death_year":1889}],"translators":[],"subjects":["Church of England -- Clergy -- Biography","Wesley, Samuel, 1662-1735"],"bookshelves":[],"languages":["en"],"copyright":false,"media_type":"Text","formats":{"text/html":"https://www.gutenberg.org/ebooks/67980.html.images","application/epub+zip":"https://www.gutenberg.org/ebooks/67980.epub3.images","application/x-mobipocket-ebook":"https://www.gutenberg.org/ebooks/67980.kf8.images","text/plain; charset=us-ascii":"https://www.gutenberg.org/ebooks/67980.txt.utf-8","application/rdf+xml":"https://www.gutenberg.org/ebooks/67980.rdf","image/jpeg":"https://www.gutenberg.org/cache/epub/67980/pg67980.cover.medium.jpg","application/octet-stream":"https://www.gutenberg.org/files/67980/67980-0.zip"},"download_count":32},{"id":68003,"title":"The Long Way","authors":[{"name":"Smith, George O. (George Oliver)","birth_year":1911,"death_year":1981}],"translators":[],"subjects":["Engineers -- Fiction","Lawyers -- Fiction","Science fiction","Space stations -- Fiction","Technology -- Fiction"],"bookshelves":[],"languages":["en"],"copyright":false,"media_type":"Text","formats":{"text/html":"https://www.gutenberg.org/ebooks/68003.html.images","application/epub+zip":"https://www.gutenberg.org/ebooks/68003.epub3.images","application/x-mobipocket-ebook":"https://www.gutenberg.org/ebooks/68003.kf8.images","text/plain; charset=us-ascii":"https://www.gutenberg.org/ebooks/68003.txt.utf-8","application/rdf+xml":"https://www.gutenberg.org/ebooks/68003.rdf","image/jpeg":"https://www.gutenberg.org/cache/epub/68003/pg68003.cover.medium.jpg","application/octet-stream":"https://www.gutenberg.org/files/68003/68003-0.zip"},"download_count":32},{"id":68017,"title":"Hazel","authors":[{"name":"Ovington, Mary White","birth_year":1865,"death_year":1951}],"translators":[],"subjects":["African Americans -- Juvenile fiction"],"bookshelves":[],"languages":["en"],"copyright":false,"media_type":"Text","formats":{"text/html":"https://www.gutenberg.org/ebooks/68017.html.images","application/epub+zip":"https://www.gutenberg.org/ebooks/68017.epub3.images","application/x-mobipocket-ebook":"https://www.gutenberg.org/ebooks/68017.kf8.images","text/plain; charset=us-ascii":"https://www.gutenberg.org/ebooks/68017.txt.utf-8","application/rdf+xml":"https://www.gutenberg.org/ebooks/68017.rdf","image/jpeg":"https://www.gutenberg.org/cache/epub/68017/pg68017.cover.medium.jpg","application/octet-stream":"https://www.gutenberg.org/files/68017/68017-0.zip"},"download_count":32},{"id":68031,"title":"\"How Can I Help to Abolish Slavery?\" or, Counsels to the Newly Converted","authors":[{"name":"Chapman, Maria Weston","birth_year":1806,"death_year":1885}],"translators":[],"subjects":["Abolitionists","American Anti-Slavery Society","Antislavery movements -- United States"],"bookshelves":[],"languages":["en"],"copyright":false,"media_type":"Text","formats":{"text/html":"https://www.gutenberg.org/ebooks/68031.html.images","application/epub+zip":"https://www.gutenberg.org/ebooks/68031.epub3.images","application/x-mobipocket-ebook":"https://www.gutenberg.org/ebooks/68031.kf8.images","text/plain; charset=us-ascii":"https://www.gutenberg.org/ebooks/68031.txt.utf-8","application/rdf+xml":"https://www.gutenberg.org/ebooks/68031.rdf","image/jpeg":"https://www.gutenberg.org/cache/epub/68031/pg68031.cover.medium.jpg","application/octet-stream":"https://www.gutenberg.org/files/68031/68031-0.zip"},"download_count":32},{"id":68101,"title":"Yermah the Dorado: The story of a lost race","authors":[{"name":"Wait, Frona Eunice","birth_year":1859,"death_year":1946}],"translators":[],"subjects":["Fantasy fiction","Geographical myths -- Fiction"],"bookshelves":[],"languages":["en"],"copyright":false,"media_type":"Text","formats":{"text/html":"https://www.gutenberg.org/ebooks/68101.html.images","application/epub+zip":"https://www.gutenberg.org/ebooks/68101.epub3.images","application/x-mobipocket-ebook":"https://www.gutenberg.org/ebooks/68101.kf8.images","text/plain; charset=us-ascii":"https://www.gutenberg.org/ebooks/68101.txt.utf-8","application/rdf+xml":"https://www.gutenberg.org/ebooks/68101.rdf","image/jpeg":"https://www.gutenberg.org/cache/epub/68101/pg68101.cover.medium.jpg","application/octet-stream":"https://www.gutenberg.org/files/68101/68101-0.zip"},"download_count":32},{"id":68208,"title":"Circle of Confusion","authors":[{"name":"Smith, George O. (George Oliver)","birth_year":1911,"death_year":1981}],"translators":[],"subjects":["Planets -- Environmental engineering -- Fiction","Pluto (Dwarf planet) -- Fiction","Science fiction"],"bookshelves":[],"languages":["en"],"copyright":false,"media_type":"Text","formats":{"text/html":"https://www.gutenberg.org/ebooks/68208.html.images","application/epub+zip":"https://www.gutenberg.org/ebooks/68208.epub3.images","application/x-mobipocket-ebook":"https://www.gutenberg.org/ebooks/68208.kf8.images","text/plain; charset=us-ascii":"https://www.gutenberg.org/ebooks/68208.txt.utf-8","application/rdf+xml":"https://www.gutenberg.org/ebooks/68208.rdf","image/jpeg":"https://www.gutenberg.org/cache/epub/68208/pg68208.cover.medium.jpg","application/octet-stream":"https://www.gutenberg.org/files/68208/68208-0.zip"},"download_count":32},{"id":68253,"title":"Thunder in the void","authors":[{"name":"Kuttner, Henry","birth_year":1915,"death_year":1958}],"translators":[],"subjects":["Human-alien encounters -- Fiction","Science fiction","Space flight -- Fiction"],"bookshelves":[],"languages":["en"],"copyright":false,"media_type":"Text","formats":{"text/html":"https://www.gutenberg.org/ebooks/68253.html.images","application/epub+zip":"https://www.gutenberg.org/ebooks/68253.epub3.images","application/x-mobipocket-ebook":"https://www.gutenberg.org/ebooks/68253.kf8.images","text/plain; charset=us-ascii":"https://www.gutenberg.org/ebooks/68253.txt.utf-8","application/rdf+xml":"https://www.gutenberg.org/ebooks/68253.rdf","image/jpeg":"https://www.gutenberg.org/cache/epub/68253/pg68253.cover.medium.jpg","application/octet-stream":"https://www.gutenberg.org/files/68253/68253-0.zip"},"download_count":32},{"id":68316,"title":"The Cornhill Magazine (Vol. I, No. 3, March 1860)","authors":[{"name":"Various","birth_year":null,"death_year":null}],"translators":[],"subjects":["England -- Periodicals","English literature -- Periodicals","Short stories, English -- Periodicals"],"bookshelves":[],"languages":["en"],"copyright":false,"media_type":"Text","formats":{"text/html":"https://www.gutenberg.org/ebooks/68316.html.images","application/epub+zip":"https://www.gutenberg.org/ebooks/68316.epub3.images","application/x-mobipocket-ebook":"https://www.gutenberg.org/ebooks/68316.kf8.images","text/plain; charset=us-ascii":"https://www.gutenberg.org/ebooks/68316.txt.utf-8","application/rdf+xml":"https://www.gutenberg.org/ebooks/68316.rdf","image/jpeg":"https://www.gutenberg.org/cache/epub/68316/pg68316.cover.medium.jpg","application/octet-stream":"https://www.gutenberg.org/files/68316/68316-0.zip"},"download_count":32},{"id":68340,"title":"A landscape painter","authors":[{"name":"James, Henry","birth_year":1843,"death_year":1916}],"translators":[],"subjects":["American fiction -- 19th century","Manners and customs -- Fiction"],"bookshelves":[],"languages":["en"],"copyright":false,"media_type":"Text","formats":{"text/html":"https://www.gutenberg.org/ebooks/68340.html.images","application/epub+zip":"https://www.gutenberg.org/ebooks/68340.epub3.images","application/x-mobipocket-ebook":"https://www.gutenberg.org/ebooks/68340.kf8.images","text/plain; charset=us-ascii":"https://www.gutenberg.org/ebooks/68340.txt.utf-8","application/rdf+xml":"https://www.gutenberg.org/ebooks/68340.rdf","image/jpeg":"https://www.gutenberg.org/cache/epub/68340/pg68340.cover.medium.jpg","application/octet-stream":"https://www.gutenberg.org/files/68340/68340-0.zip"},"download_count":32},{"id":68423,"title":"The story of Abraham Lincoln","authors":[{"name":"Hamilton, Mary Agnes","birth_year":1884,"death_year":1966}],"translators":[],"subjects":["Lincoln, Abraham, 1809-1865 -- Juvenile literature"],"bookshelves":[],"languages":["en"],"copyright":false,"media_type":"Text","formats":{"text/html":"https://www.gutenberg.org/ebooks/68423.html.images","application/epub+zip":"https://www.gutenberg.org/ebooks/68423.epub3.images","application/x-mobipocket-ebook":"https://www.gutenberg.org/ebooks/68423.kf8.images","text/plain; charset=us-ascii":"https://www.gutenberg.org/ebooks/68423.txt.utf-8","application/rdf+xml":"https://www.gutenberg.org/ebooks/68423.rdf","image/jpeg":"https://www.gutenberg.org/cache/epub/68423/pg68423.cover.medium.jpg","application/octet-stream":"https://www.gutenberg.org/files/68423/68423-0.zip"},"download_count":32},{"id":68697,"title":"Toying with fate; or, Nick Carter's narrow shave","authors":[{"name":"Carter, Nicholas (House name)","birth_year":null,"death_year":null}],"translators":[],"subjects":["Detective and mystery stories","New York (N.Y.) -- Fiction"],"bookshelves":[],"languages":["en"],"copyright":false,"media_type":"Text","formats":{"text/html":"https://www.gutenberg.org/ebooks/68697.html.images","application/epub+zip":"https://www.gutenberg.org/ebooks/68697.epub3.images","application/x-mobipocket-ebook":"https://www.gutenberg.org/ebooks/68697.kf8.images","text/plain; charset=us-ascii":"https://www.gutenberg.org/ebooks/68697.txt.utf-8","application/rdf+xml":"https://www.gutenberg.org/ebooks/68697.rdf","image/jpeg":"https://www.gutenberg.org/cache/epub/68697/pg68697.cover.medium.jpg","application/octet-stream":"https://www.gutenberg.org/files/68697/68697-0.zip"},"download_count":32},{"id":68747,"title":"Incwadi Yami; or, twenty years' personal experience in South Africa","authors":[{"name":"Matthews, J. W. (Josiah Wright)","birth_year":1841,"death_year":1916}],"translators":[],"subjects":["Diamond mines and mining -- South Africa","South Africa -- Description and travel"],"bookshelves":[],"languages":["en"],"copyright":false,"media_type":"Text","formats":{"text/html":"https://www.gutenberg.org/ebooks/68747.html.images","application/epub+zip":"https://www.gutenberg.org/ebooks/68747.epub3.images","application/x-mobipocket-ebook":"https://www.gutenberg.org/ebooks/68747.kf8.images","text/plain; charset=us-ascii":"https://www.gutenberg.org/ebooks/68747.txt.utf-8","application/rdf+xml":"https://www.gutenberg.org/ebooks/68747.rdf","image/jpeg":"https://www.gutenberg.org/cache/epub/68747/pg68747.cover.medium.jpg","application/octet-stream":"https://www.gutenberg.org/files/68747/68747-0.zip"},"download_count":32},{"id":68820,"title":"Ajax, for example","authors":[{"name":"Tuttle, W. C. (Wilbur C.)","birth_year":1883,"death_year":1969}],"translators":[],"subjects":["Harper, Ike (Fictitious character) -- Fiction","Humorous stories","Scientists -- Fiction","Simpkins, Magpie (Fictitious character) -- Fiction","Western stories"],"bookshelves":[],"languages":["en"],"copyright":false,"media_type":"Text","formats":{"text/html":"https://www.gutenberg.org/ebooks/68820.html.images","application/epub+zip":"https://www.gutenberg.org/ebooks/68820.epub3.images","application/x-mobipocket-ebook":"https://www.gutenberg.org/ebooks/68820.kf8.images","text/plain; charset=us-ascii":"https://www.gutenberg.org/ebooks/68820.txt.utf-8","application/rdf+xml":"https://www.gutenberg.org/ebooks/68820.rdf","image/jpeg":"https://www.gutenberg.org/cache/epub/68820/pg68820.cover.medium.jpg","application/octet-stream":"https://www.gutenberg.org/files/68820/68820-0.zip"},"download_count":32},{"id":69026,"title":"Essays on the Latin Orient","authors":[{"name":"Miller, William","birth_year":1864,"death_year":1945}],"translators":[],"subjects":["Balkan Peninsula","Greece -- History","Latin Orient"],"bookshelves":[],"languages":["en"],"copyright":false,"media_type":"Text","formats":{"text/html":"https://www.gutenberg.org/ebooks/69026.html.images","application/epub+zip":"https://www.gutenberg.org/ebooks/69026.epub3.images","application/x-mobipocket-ebook":"https://www.gutenberg.org/ebooks/69026.kf8.images","text/plain; charset=us-ascii":"https://www.gutenberg.org/ebooks/69026.txt.utf-8","application/rdf+xml":"https://www.gutenberg.org/ebooks/69026.rdf","image/jpeg":"https://www.gutenberg.org/cache/epub/69026/pg69026.cover.medium.jpg","application/octet-stream":"https://www.gutenberg.org/files/69026/69026-0.zip"},"download_count":32},{"id":69043,"title":"Chair backs","authors":[{"name":"American Thread Company","birth_year":null,"death_year":null}],"translators":[],"subjects":["Crocheting -- Patterns","Doilies","Knitting -- Patterns","Tatting -- Patterns"],"bookshelves":[],"languages":["en"],"copyright":false,"media_type":"Text","formats":{"text/html":"https://www.gutenberg.org/ebooks/69043.html.images","application/epub+zip":"https://www.gutenberg.org/ebooks/69043.epub3.images","application/x-mobipocket-ebook":"https://www.gutenberg.org/ebooks/69043.kf8.images","text/plain; charset=us-ascii":"https://www.gutenberg.org/ebooks/69043.txt.utf-8","application/rdf+xml":"https://www.gutenberg.org/ebooks/69043.rdf","image/jpeg":"https://www.gutenberg.org/cache/epub/69043/pg69043.cover.medium.jpg","application/octet-stream":"https://www.gutenberg.org/files/69043/69043-0.zip"},"download_count":32}]}