{"count":58808,"next":"http://129.241.150.113:8000/books/?languages=en&page=1652","previous":"http://129.241.150.113:8000/books/?languages=en&page=1650","results":[{"id":9560,"title":"The Vaudois Teacher, and other poems: Part 1 From Volume I of The Works of John Greenleaf Whittier","authors":[{"name":"Whittier, John Greenleaf","birth_year":1807,"death_year":1892}],"translators":[],"subjects":["American poetry -- 19th century"],"bookshelves":[],"languages":["en"],"copyright":false,"media_type":"Text","formats":{"text/html":"https://www.gutenberg.org/ebooks/9560.html.images","application/epub+zip":"https://www.gutenberg.org/ebooks/9560.epub3.images","application/x-mobipocket-ebook":"https://www.gutenberg.org/ebooks/9560.kf8.images","text/plain; charset=us-ascii":"https://www.gutenberg.org/ebooks/9560.txt.utf-8","application/rdf+xml":"https://www.gutenberg.org/ebooks/9560.rdf","image/jpeg":"https://www.gutenberg.org/cache/epub/9560/pg9560.cover.medium.jpg","application/octet-stream":"https://www.gutenberg.org/cache/epub/9560/pg9560-h.zip"},"download_count":19},{"id":9588,"title":"My Summer with Dr. Singletary: Part 2 from Volume V of The Works of John Greenleaf Whittier","authors":[{"name":"Whittier, John Greenleaf","birth_year":1807,"death_year":1892}],"translators":[],"subjects":["American literature"],"bookshelves":[],"languages":["en"],"copyright":false,"media_type":"Text","formats":{"text/html":"https://www.gutenberg.org/ebooks/9588.html.images","application/epub+zip":"https://www.gutenberg.org/ebooks/9588.epub3.images","application/x-mobipocket-ebook":"https://www.gutenberg.org/ebooks/9588.kf8.images","text/plain; charset=us-ascii":"https://www.gutenberg.org/ebooks/9588.txt.utf-8","application/rdf+xml":"https://www.gutenberg.org/ebooks/9588.rdf","image/jpeg":"https://www.gutenberg.org/cache/epub/9588/pg9588.cover.medium.jpg","application/octet-stream":"https://www.gutenberg.org/cache/epub/9588/pg9588-h.zip"},"download_count":19},{"id":9607,"title":"From Boyhood to Manhood: Life of Benjamin Franklin","authors":[{"name":"Thayer, William Makepeace","birth_year":1820,"death_year":1898}],"translators":[],"subjects":["Franklin, Benjamin, 1706-1790"],"bookshelves":[],"languages":["en"],"copyright":false,"media_type":"Text","formats":{"text/html":"https://www.gutenberg.org/ebooks/9607.html.images","application/epub+zip":"https://www.gutenberg.org/ebooks/9607.epub3.images","application/x-mobipocket-ebook":"https://www.gutenberg.org/ebooks/9607.kf8.images","text/plain; charset=us-ascii":"https://www.gutenberg.org/ebooks/9607.txt.utf-8","application/rdf+xml":"https://www.gutenberg.org/ebooks/9607.rdf","image/jpeg":"https://www.gutenberg.org/cache/epub/9607/pg9607.cover.medium.jpg","application/octet-stream":"https://www.gutenberg.org/cache/epub/9607/pg9607-h.zip"},"download_count":19},{"id":9635,"title":"The End of Her Honeymoon","authors":[{"name":"Lowndes, Marie Belloc","birth_year":1868,"death_year":1947}],"translators":[],"subjects":["Detective and mystery stories"],"bookshelves":[],"languages":["en"],"copyright":false,"media_type":"Text","formats":{"text/html":"https://www.gutenberg.org/ebooks/9635.html.images","application/epub+zip":"https://www.gutenberg.org/ebooks/9635.epub3.images","application/x-mobipocket-ebook":"https://www.gutenberg.org/ebooks/9635.kf8.images","text/plain; charset=us-ascii":"https://www.gutenberg.org/ebooks/9635.txt.utf-8","text/plain; charset=iso-8859-1":"https://www.gutenberg.org/files/9635/9635-8.txt","application/rdf+xml":"https://www.gutenberg.org/ebooks/9635.rdf","image/jpeg":"https://www.gutenberg.org/cache/epub/9635/pg9635.cover.medium.jpg","application/octet-stream":"https://www.gutenberg.org/cache/epub/9635/pg9635-h.zip"},"download_count":19},{"id":9636,"title":"Punchinello, Volume 1, No. 12, June 18, 1870","authors":[{"name":"Various","birth_year":null,"death_year":null}],"translators":[],"subjects":["American wit and humor -- Periodicals"],"bookshelves":["Punchinello"],"languages":["en"],"copyright":false,"media_type":"Text","formats":{"text/html":"https://www.gutenberg.org/ebooks/9636.html.images","text/html; charset=iso-8859-1":"https://www.gutenberg.org/files/9636/9636-h/9636-h.htm","application/epub+zip":"https://www.gutenberg.org/ebooks/9636.epub3.images","application/x-mobipocket-ebook":"https://www.gutenberg.org/ebooks/9636.kf8.images","text/plain; charset=us-ascii":"https://www.gutenberg.org/ebooks/9636.txt.utf-8","text/plain; charset=iso-8859-1":"https://www.gutenberg.org/files/9636/9636-8.txt","application/rdf+xml":"https://www.gutenberg.org/ebooks/9636.rdf","image/jpeg":"https://www.gutenberg.org/cache/epub/9636/pg9636.cover.medium.jpg","application/octet-stream":"https://www.gutenberg.org/cache/epub/9636/pg9636-h.zip"},"download_count":19},{"id":9674,"title":"The Lifted Veil","authors":[{"name":"Eliot, George","birth_year":1819,"death_year":1880}],"translators":[],"subjects":["Paranormal fiction","Psychological fiction"],"bookshelves":[],"languages":["en"],"copyright":true,"media_type":"Sound","formats":{"text/plain; charset=us-ascii":"https://www.gutenberg.org/files/9674/9674-readme.txt","text/html; charset=iso-8859-1":"https://www.gutenberg.org/files/9674/9674-index.htm","audio/mpeg":"https://www.gutenberg.org/files/9674/mp3/9674-000.mp3","application/rdf+xml":"https://www.gutenberg.org/ebooks/9674.rdf","application/octet-stream":"https://www.gutenberg.org/files/9674/9674-mp3.zip"},"download_count":19},{"id":9713,"title":"The Haunted Man and the Ghost's Bargain","authors":[{"name":"Dickens, Charles","birth_year":1812,"death_year":1870}],"translators":[],"subjects":["Christmas stories","Ghost stories"],"bookshelves":[],"languages":["en"],"copyright":true,"media_type":"Sound","formats":{"text/plain; charset=us-ascii":"https://www.gutenberg.org/files/9713/9713-readme.txt","text/html; charset=iso-8859-1":"https://www.gutenberg.org/files/9713/9713-index.htm","audio/mpeg":"https://www.gutenberg.org/files/9713/mp3/9713-000.mp3","application/rdf+xml":"https://www.gutenberg.org/ebooks/9713.rdf","application/octet-stream":"https://www.gutenberg.org/files/9713/9713-mp3.zip"},"download_count":19},{"id":9717,"title":"The Lazy Tour of Two Idle Apprentices","authors":[{"name":"Dickens, Charles","birth_year":1812,"death_year":1870},{"name":"Collins, Wilkie","birth_year":1824,"death_year":1889}],"translators":[],"subjects":["Cumbria (England) -- Description and travel -- Fiction","Walking -- England -- Cumbria -- Fiction"],"bookshelves":[],"languages":["en"],"copyright":true,"media_type":"Sound","formats":{"text/plain; charset=us-ascii":"https://www.gutenberg.org/files/9717/9717-readme.txt","text/html; charset=iso-8859-1":"https://www.gutenberg.org/files/9717/9717-index.htm","audio/mpeg":"https://www.gutenberg.org/files/9717/mp3/9717-000.mp3","application/rdf+xml":"https://www.gutenberg.org/ebooks/9717.rdf","application/octet-stream":"https://www.gutenberg.org/files/9717/9717-mp3.zip"},"download_count":19},{"id":9720,"title":"Mugby Junction","authors":[{"name":"Dickens, Charles","birth_year":1812,"death_year":1870}],"translators":[],"subjects":["Psychological fiction","Railroad stations -- England -- London -- Fiction"],"bookshelves":[],"languages":["en"],"copyright":true,"media_type":"Sound","formats":{"text/plain; charset=us-ascii":"https://www.gutenberg.org/files/9720/9720-readme.txt","text/html; charset=iso-8859-1":"https://www.gutenberg.org/files/9720/9720-index.htm","audio/mpeg":"https://www.gutenberg.org/files/9720/mp3/9720-000.mp3","application/rdf+xml":"https://www.gutenberg.org/ebooks/9720.rdf","application/octet-stream":"https://www.gutenberg.org/files/9720/9720-mp3.zip"},"download_count":19},{"id":9759,"title":"Leila or, the Siege of Granada, Book IV.","authors":[{"name":"Lytton, Edward Bulwer Lytton, Baron","birth_year":1803,"death_year":1873}],"translators":[],"subjects":["Granada (Spain) -- History -- Siege, 1491-1492 -- Fiction","Sieges -- Fiction"],"bookshelves":["Historical Fiction"],"languages":["en"],"copyright":false,"media_type":"Text","formats":{"text/html":"https://www.gutenberg.org/ebooks/9759.html.images","application/epub+zip":"https://www.gutenberg.org/ebooks/9759.epub3.images","application/x-mobipocket-ebook":"https://www.gutenberg.org/ebooks/9759.kf8.images","text/plain; charset=us-ascii":"https://www.gutenberg.org/ebooks/9759.txt.utf-8","application/rdf+xml":"https://www.gutenberg.org/ebooks/9759.rdf","image/jpeg":"https://www.gutenberg.org/cache/epub/9759/pg9759.cover.medium.jpg","application/octet-stream":"https://www.gutenberg.org/cache/epub/9759/pg9759-h.zip"},"download_count":19},{"id":9789,"title":"Army Boys in the French Trenches; Or, Hand to Hand Fighting with the Enemy","authors":[{"name":"Randall, Homer","birth_year":null,"death_year":null}],"translators":[],"subjects":["World War, 1914-1918 -- France -- Fiction"],"bookshelves":["World War I"],"languages":["en"],"copyright":false,"media_type":"Text","formats":{"text/html":"https://www.gutenberg.org/ebooks/9789.html.images","application/epub+zip":"https://www.gutenberg.org/ebooks/9789.epub3.images","application/x-mobipocket-ebook":"https://www.gutenberg.org/ebooks/9789.kf8.images","text/plain; charset=us-ascii":"https://www.gutenberg.org/ebooks/9789.txt.utf-8","text/plain; charset=iso-8859-1":"https://www.gutenberg.org/files/9789/9789-8.txt","application/rdf+xml":"https://www.gutenberg.org/ebooks/9789.rdf","image/jpeg":"https://www.gutenberg.org/cache/epub/9789/pg9789.cover.medium.jpg","application/octet-stream":"https://www.gutenberg.org/cache/epub/9789/pg9789-h.zip"},"download_count":19},{"id":10018,"title":"Punchinello, Volume 1, No. 05,  April 30, 1870","authors":[{"name":"Various","birth_year":null,"death_year":null}],"translators":[],"subjects":["American wit and humor -- Periodicals"],"bookshelves":["Punchinello"],"languages":["en"],"copyright":false,"media_type":"Text","formats":{"text/html":"https://www.gutenberg.org/ebooks/10018.html.images","text/html; charset=iso-8859-1":"https://www.gutenberg.org/files/10018/10018-h/10018-h.htm","application/epub+zip":"https://www.gutenberg.org/ebooks/10018.epub3.images","application/x-mobipocket-ebook":"https://www.gutenberg.org/ebooks/10018.kf8.images","text/plain; charset=us-ascii":"https://www.gutenberg.org/ebooks/10018.txt.utf-8","text/plain; charset=iso-8859-1":"https://www.gutenberg.org/files/10018/10018-8.txt","application/rdf+xml":"https://www.gutenberg.org/ebooks/10018.rdf","image/jpeg":"https://www.gutenberg.org/cache/epub/10018/pg10018.cover.medium.jpg","application/octet-stream":"https://www.gutenberg.org/cache/epub/10018/pg10018-h.zip"},"download_count":19},{"id":10028,"title":"Spalding's Official Baseball Guide - 1913","authors":[],"translators":[],"subjects":["Baseball"],"bookshelves":[],"languages":["en"],"copyright":false,"media_type":"Text","formats":{"text/html":"https://www.gutenberg.org/ebooks/10028.html.images","application/epub+zip":"https://www.gutenberg.org/ebooks/10028.epub3.images","application/x-mobipocket-ebook":"https://www.gutenberg.org/ebooks/10028.kf8.images","text/plain; charset=us-ascii":"https://www.gutenberg.org/ebooks/10028.txt.utf-8","application/rdf+xml":"https://www.gutenberg.org/ebooks/10028.rdf","image/jpeg":"https://www.gutenberg.org/cache/epub/10028/pg10028.cover.medium.jpg","application/octet-stream":"https://www.gutenberg.org/cache/epub/10028/pg10028-h.zip"},"download_count":19},{"id":10029,"title":"The Hunt Ball Mystery","authors":[{"name":"Magnay, William, Sir","birth_year":1855,"death_year":1917}],"translators":[],"subjects":["Detective and mystery stories"],"bookshelves":[],"languages":["en"],"copyright":false,"media_type":"Text","formats":{"text/html":"https://www.gutenberg.org/ebooks/10029.html.images","application/epub+zip":"https://www.gutenberg.org/ebooks/10029.epub3.images","application/x-mobipocket-ebook":"https://www.gutenberg.org/ebooks/10029.kf8.images","text/plain; charset=us-ascii":"https://www.gutenberg.org/ebooks/10029.txt.utf-8","text/plain; charset=iso-8859-1":"https://www.gutenberg.org/files/10029/10029-8.txt","application/rdf+xml":"https://www.gutenberg.org/ebooks/10029.rdf","image/jpeg":"https://www.gutenberg.org/cache/epub/10029/pg10029.cover.medium.jpg","application/octet-stream":"https://www.gutenberg.org/cache/epub/10029/pg10029-h.zip"},"download_count":19},{"id":10032,"title":"Punchinello, Volume 1, No. 24, September 10, 1870","authors":[{"name":"Various","birth_year":null,"death_year":null}],"translators":[],"subjects":["American wit and humor -- Periodicals"],"bookshelves":["Punchinello"],"languages":["en"],"copyright":false,"media_type":"Text","formats":{"text/html":"https://www.gutenberg.org/ebooks/10032.html.images","text/html; charset=iso-8859-1":"https://www.gutenberg.org/files/10032/10032-h/10032-h.htm","application/epub+zip":"https://www.gutenberg.org/ebooks/10032.epub3.images","application/x-mobipocket-ebook":"https://www.gutenberg.org/ebooks/10032.kf8.images","text/plain; charset=us-ascii":"https://www.gutenberg.org/ebooks/10032.txt.utf-8","text/plain; charset=iso-8859-1":"https://www.gutenberg.org/files/10032/10032-8.txt","application/rdf+xml":"https://www.gutenberg.org/ebooks/10032.rdf","image/jpeg":"https://www.gutenberg.org/cache/epub/10032/pg10032.cover.medium.jpg","application/octet-stream":"https://www.gutenberg.org/cache/epub/10032/pg10032-h.zip"},"download_count":19},{"id":10074,"title":"The Mirror of Literature, Amusement, and Instruction. Volume 10, No. 269, August 18, 1827","authors":[{"name":"Various","birth_year":null,"death_year":null}],"translators":[],"subjects":["Popular literature -- Great Britain -- Periodicals"],"bookshelves":["The Mirror of Literature, Amusement, and Instruction"],"languages":["en"],"copyright":false,"media_type":"Text","formats":{"text/html":"https://www.gutenberg.org/ebooks/10074.html.images","application/epub+zip":"https://www.gutenberg.org/ebooks/10074.epub3.images","application/x-mobipocket-ebook":"https://www.gutenberg.org/ebooks/10074.kf8.images","text/plain; charset=us-ascii":"https://www.gutenberg.org/ebooks/10074.txt.utf-8","text/plain; charset=iso-8859-1":"https://www.gutenberg.org/files/10074/10074-8.txt","application/rdf+xml":"https://www.gutenberg.org/ebooks/10074.rdf","image/jpeg":"https://www.gutenberg.org/cache/epub/10074/pg10074.cover.medium.jpg","application/octet-stream":"https://www.gutenberg.org/cache/epub/10074/pg10074-h.zip"},"download_count":19},{"id":10079,"title":"The Atlantic Monthly, Volume 02, No. 09, July, 1858: A Magazine of Literature, Art, and Politics","authors":[{"name":"Various","birth_year":null,"death_year":null}],"translators":[],"subjects":["American periodicals"],"bookshelves":["The Atlantic Monthly"],"languages":["en"],"copyright":false,"media_type":"Text","formats":{"text/html":"https://www.gutenberg.org/ebooks/10079.html.images","application/epub+zip":"https://www.gutenberg.org/ebooks/10079.epub3.images","application/x-mobipocket-ebook":"https://www.gutenberg.org/ebooks/10079.kf8.images","text/plain; charset=us-ascii":"https://www.gutenberg.org/ebooks/10079.txt.utf-8","text/plain; charset=iso-8859-1":"https://www.gutenberg.org/files/10079/10079-8.txt","application/rdf+xml":"https://www.gutenberg.org/ebooks/10079.rdf","image/jpeg":"https://www.gutenberg.org/cache/epub/10079/pg10079.cover.medium.jpg","application/octet-stream":"https://www.gutenberg.org/cache/epub/10079/pg10079-h.zip"},"download_count":19},{"id":10143,"title":"Punch, or the London Charivari, Volume 153, July 11, 1917","authors":[{"name":"Various","birth_year":null,"death_year":null}],"translators":[],"subjects":["English wit and humor -- Periodicals"],"bookshelves":["Punch"],"languages":["en"],"copyright":false,"media_type":"Text","formats":{"text/html":"https://www.gutenberg.org/ebooks/10143.html.images","text/html; charset=iso-8859-1":"https://www.gutenberg.org/files/10143/10143-h/10143-h.htm","application/epub+zip":"https://www.gutenberg.org/ebooks/10143.epub3.images","application/x-mobipocket-ebook":"https://www.gutenberg.org/ebooks/10143.kf8.images","text/plain; charset=us-ascii":"https://www.gutenberg.org/ebooks/10143.txt.utf-8","text/plain; charset=iso-8859-1":"https://www.gutenberg.org/files/10143/10143-8.txt","application/rdf+xml":"https://www.gutenberg.org/ebooks/10143.rdf","image/jpeg":"https://www.gutenberg.org/cache/epub/10143/pg10143.cover.medium.jpg","application/octet-stream":"https://www.gutenberg.org/cache/epub/10143/pg10143-h.zip"},"download_count":19},{"id":10220,"title":"Daddy Takes Us Skating","authors":[{"name":"Garis, Howard Roger","birth_year":1873,"death_year":1962}],"translators":[],"subjects":["Fathers -- Juvenile fiction","Skating -- Juvenile fiction","Winter -- Juvenile fiction"],"bookshelves":["Children's Book Series"],"languages":["en"],"copyright":false,"media_type":"Text","formats":{"text/html":"https://www.gutenberg.org/ebooks/10220.html.images","application/epub+zip":"https://www.gutenberg.org/ebooks/10220.epub3.images","application/x-mobipocket-ebook":"https://www.gutenberg.org/ebooks/10220.kf8.images","text/plain; charset=us-ascii":"https://www.gutenberg.org/ebooks/10220.txt.utf-8","application/rdf+xml":"https://www.gutenberg.org/ebooks/10220.rdf","image/jpeg":"https://www.gutenberg.org/cache/epub/10220/pg10220.cover.medium.jpg","application/octet-stream":"https://www.gutenberg.org/cache/epub/10220/pg10220-h.zip"},"download_count":19},{"id":10221,"title":"Purple Springs","authors":[{"name":"McClung, Nellie L.","birth_year":1873,"death_year":1951}],"translators":[],"subjects":["Manitoba -- Politics and government -- Fiction","Political fiction"],"bookshelves":[],"languages":["en"],"copyright":false,"media_type":"Text","formats":{"text/html":"https://www.gutenberg.org/ebooks/10221.html.images","application/epub+zip":"https://www.gutenberg.org/ebooks/10221.epub3.images","application/x-mobipocket-ebook":"https://www.gutenberg.org/ebooks/10221.kf8.images","text/plain; charset=us-ascii":"https://www.gutenberg.org/ebooks/10221.txt.utf-8","application/rdf+xml":"https://www.gutenberg.org/ebooks/10221.rdf","image/jpeg":"https://www.gutenberg.org/cache/epub/10221/pg10221.cover.medium.jpg","application/octet-stream":"https://www.gutenberg.org/cache/epub/10221/pg10221-h.zip"},"download_count":19},{"id":10347,"title":"Free from School","authors":[{"name":"Alvares, Rahul","birth_year":null,"death_year":null}],"translators":[],"subjects":["Alvares, Rahul","Natural history -- India -- Anecdotes"],"bookshelves":[],"languages":["en"],"copyright":true,"media_type":"Text","formats":{"text/html":"https://www.gutenberg.org/ebooks/10347.html.images","application/epub+zip":"https://www.gutenberg.org/ebooks/10347.epub3.images","application/pdf":"https://www.gutenberg.org/files/10347/10347-p/10347-p.pdf","text/rtf":"https://www.gutenberg.org/files/10347/10347-r/10347-r.rtf","application/x-mobipocket-ebook":"https://www.gutenberg.org/ebooks/10347.kf8.images","text/plain; charset=us-ascii":"https://www.gutenberg.org/ebooks/10347.txt.utf-8","text/plain; charset=iso-8859-1":"https://www.gutenberg.org/files/10347/10347-8.txt","application/rdf+xml":"https://www.gutenberg.org/ebooks/10347.rdf","image/jpeg":"https://www.gutenberg.org/cache/epub/10347/pg10347.cover.medium.jpg","application/octet-stream":"https://www.gutenberg.org/cache/epub/10347/pg10347-h.zip"},"download_count":19},{"id":10424,"title":"Caprice Viennois","authors":[],"translators":[],"subjects":["Popular instrumental music -- 1911-1920","Xylophone with orchestra"],"bookshelves":[],"languages":["en"],"copyright":false,"media_type":"Sound","formats":{"text/plain; charset=us-ascii":"https://www.gutenberg.org/files/10424/10424-m/10424-m-readme.txt","text/plain":"https://www.gutenberg.org/files/10424/10424-m.zip","audio/mpeg":"https://www.gutenberg.org/files/10424/10424-m/10424-m-001.mp3","application/rdf+xml":"https://www.gutenberg.org/ebooks/10424.rdf"},"download_count":19},{"id":10515,"title":"Rhymes of a Roughneck","authors":[{"name":"Cotter, Frank J.","birth_year":null,"death_year":null}],"translators":[],"subjects":["Alaska -- Poetry"],"bookshelves":[],"languages":["en"],"copyright":false,"media_type":"Text","formats":{"text/html":"https://www.gutenberg.org/ebooks/10515.html.images","text/html; charset=iso-8859-1":"https://www.gutenberg.org/files/10515/10515-h/10515-h.htm","application/epub+zip":"https://www.gutenberg.org/ebooks/10515.epub3.images","application/x-mobipocket-ebook":"https://www.gutenberg.org/ebooks/10515.kf8.images","text/plain; charset=us-ascii":"https://www.gutenberg.org/ebooks/10515.txt.utf-8","text/plain; charset=iso-8859-1":"https://www.gutenberg.org/files/10515/10515-8.txt","application/rdf+xml":"https://www.gutenberg.org/ebooks/10515.rdf","image/jpeg":"https://www.gutenberg.org/cache/epub/10515/pg10515.cover.medium.jpg","application/octet-stream":"https://www.gutenberg.org/cache/epub/10515/pg10515-h.zip"},"download_count":19},{"id":10536,"title":"Project Gutenberg Fanfare","authors":[{"name":"Erickson, Joel Amos","birth_year":1982,"death_year":null}],"translators":[],"subjects":["Fanfares"],"bookshelves":[],"languages":["en"],"copyright":false,"media_type":"Sound","formats":{"text/plain; charset=us-ascii":"https://www.gutenberg.org/files/10536/10536-m/10536-m-readme.txt","text/html":"https://www.gutenberg.org/files/10536/10536-sib/10536-h.htm","application/octet-stream":"https://www.gutenberg.org/files/10536/10536-sib/10536-sib.sib","audio/mpeg":"https://www.gutenberg.org/files/10536/10536-m/10536-m.mp3","application/rdf+xml":"https://www.gutenberg.org/ebooks/10536.rdf","text/xml":"https://www.gutenberg.org/files/10536/10536-x/10536-x.xml"},"download_count":19},{"id":10550,"title":"A Select Collection of Old English Plays, Volume 09","authors":[],"translators":[],"subjects":["English drama"],"bookshelves":[],"languages":["en"],"copyright":false,"media_type":"Text","formats":{"text/html":"https://www.gutenberg.org/ebooks/10550.html.images","application/epub+zip":"https://www.gutenberg.org/ebooks/10550.epub3.images","application/x-mobipocket-ebook":"https://www.gutenberg.org/ebooks/10550.kf8.images","text/plain; charset=us-ascii":"https://www.gutenberg.org/ebooks/10550.txt.utf-8","text/plain; charset=iso-8859-1":"https://www.gutenberg.org/files/10550/10550-8.txt","application/rdf+xml":"https://www.gutenberg.org/ebooks/10550.rdf","image/jpeg":"https://www.gutenberg.org/cache/epub/10550/pg10550.cover.medium.jpg","application/octet-stream":"https://www.gutenberg.org/cache/epub/10550/pg10550-h.zip"},"download_count":19},{"id":10566,"title":"The Bequest: Ship's Company, Part 6.","authors":[{"name":"Jacobs, W. W. (William Wymark)","birth_year":1863,"death_year":1943}],"translators":[],"subjects":["England -- Social life and customs -- Fiction","Humorous stories, English"],"bookshelves":[],"languages":["en"],"copyright":false,"media_type":"Text","formats":{"text/html":"https://www.gutenberg.org/ebooks/10566.html.images","text/html; charset=iso-8859-1":"https://www.gutenberg.org/files/10566/10566-h/10566-h.htm","application/epub+zip":"https://www.gutenberg.org/ebooks/10566.epub3.images","application/x-mobipocket-ebook":"https://www.gutenberg.org/ebooks/10566.kf8.images","text/plain; charset=us-ascii":"https://www.gutenberg.org/ebooks/10566.txt.utf-8","application/rdf+xml":"https://www.gutenberg.org/ebooks/10566.rdf","image/jpeg":"https://www.gutenberg.org/cache/epub/10566/pg10566.cover.medium.jpg","application/octet-stream":"https://www.gutenberg.org/cache/epub/10566/pg10566-h.zip"},"download_count":19},{"id":10588,"title":"Seeing Europe with Famous Authors, Volume 1: Great Britain and Ireland, part 1","authors":[],"translators":[],"subjects":["Great Britain -- Description and travel","Ireland -- Description and travel"],"bookshelves":[],"languages":["en"],"copyright":false,"media_type":"Text","formats":{"text/html":"https://www.gutenberg.org/ebooks/10588.html.images","application/epub+zip":"https://www.gutenberg.org/ebooks/10588.epub3.images","application/x-mobipocket-ebook":"https://www.gutenberg.org/ebooks/10588.kf8.images","text/plain; charset=us-ascii":"https://www.gutenberg.org/ebooks/10588.txt.utf-8","text/plain; charset=iso-8859-1":"https://www.gutenberg.org/files/10588/10588-8.txt","application/rdf+xml":"https://www.gutenberg.org/ebooks/10588.rdf","image/jpeg":"https://www.gutenberg.org/cache/epub/10588/pg10588.cover.medium.jpg","application/octet-stream":"https://www.gutenberg.org/cache/epub/10588/pg10588-h.zip"},"download_count":19},{"id":10597,"title":"Four Early Pamphlets","authors":[{"name":"Godwin, William","birth_year":1756,"death_year":1836}],"translators":[],"subjects":["Pamphlets"],"bookshelves":[],"languages":["en"],"copyright":false,"media_type":"Text","formats":{"text/html":"https://www.gutenberg.org/ebooks/10597.html.images","text/html; charset=iso-8859-1":"https://www.gutenberg.org/files/10597/10597-h/10597-h.htm","application/epub+zip":"https://www.gutenberg.org/ebooks/10597.epub3.images","application/x-mobipocket-ebook":"https://www.gutenberg.org/ebooks/10597.kf8.images","text/plain; charset=us-ascii":"https://www.gutenberg.org/ebooks/10597.txt.utf-8","text/plain; charset=iso-8859-1":"https://www.gutenberg.org/files/10597/10597-8.txt","application/rdf+xml":"https://www.gutenberg.org/ebooks/10597.rdf","image/jpeg":"https://www.gutenberg.org/cache/epub/10597/pg10597.cover.medium.jpg","application/octet-stream":"https://www.gutenberg.org/cache/epub/10597/pg10597-h.zip"},"download_count":19},{"id":10629,"title":"Britain at Bay","authors":[{"name":"Wilkinson, Spenser","birth_year":1853,"death_year":1937}],"translators":[],"subjects":["Great Britain -- Defenses","Great Britain -- Foreign relations","War"],"bookshelves":["World War I"],"languages":["en"],"copyright":false,"media_type":"Text","formats":{"text/html":"https://www.gutenberg.org/ebooks/10629.html.images","text/html; charset=iso-8859-1":"https://www.gutenberg.org/files/10629/10629-h/10629-h.htm","application/epub+zip":"https://www.gutenberg.org/ebooks/10629.epub3.images","application/x-mobipocket-ebook":"https://www.gutenberg.org/ebooks/10629.kf8.images","text/plain; charset=us-ascii":"https://www.gutenberg.org/ebooks/10629.txt.utf-8","text/plain; charset=iso-8859-1":"https://www.gutenberg.org/files/10629/10629-8.txt","application/rdf+xml":"https://www.gutenberg.org/ebooks/10629.rdf","image/jpeg":"https://www.gutenberg.org/cache/epub/10629/pg10629.cover.medium.jpg","application/octet-stream":"https://www.gutenberg.org/cache/epub/10629/pg10629-h.zip"},"download_count":19},{"id":10750,"title":"The Miracle, and Other Poems","authors":[{"name":"Sheard, Virna","birth_year":1865,"death_year":1943}],"translators":[],"subjects":["Canadian poetry"],"bookshelves":[],"languages":["en"],"copyright":false,"media_type":"Text","formats":{"text/html":"https://www.gutenberg.org/ebooks/10750.html.images","application/epub+zip":"https://www.gutenberg.org/ebooks/10750.epub3.images","application/x-mobipocket-ebook":"https://www.gutenberg.org/ebooks/10750.kf8.images","text/plain; charset=us-ascii":"https://www.gutenberg.org/ebooks/10750.txt.utf-8","application/rdf+xml":"https://www.gutenberg.org/ebooks/10750.rdf","image/jpeg":"https://www.gutenberg.org/cache/epub/10750/pg10750.cover.medium.jpg","application/octet-stream":"https://www.gutenberg.org/cache/epub/10750/pg10750-h.zip"},"download_count":19},{"id":10791,"title":"Double Dealing: Sailor's Knots, Part 11.","authors":[{"name":"Jacobs, W. W. (William Wymark)","birth_year":1863,"death_year":1943}],"translators":[],"subjects":["England -- Social life and customs -- Fiction","Humorous stories, English"],"bookshelves":[],"languages":["en"],"copyright":false,"media_type":"Text","formats":{"text/html":"https://www.gutenberg.org/ebooks/10791.html.images","text/html; charset=us-ascii":"https://www.gutenberg.org/files/10791/10791-h/10791-h.htm","application/epub+zip":"https://www.gutenberg.org/ebooks/10791.epub3.images","application/x-mobipocket-ebook":"https://www.gutenberg.org/ebooks/10791.kf8.images","text/plain; charset=us-ascii":"https://www.gutenberg.org/ebooks/10791.txt.utf-8","application/rdf+xml":"https://www.gutenberg.org/ebooks/10791.rdf","image/jpeg":"https://www.gutenberg.org/cache/epub/10791/pg10791.cover.medium.jpg","application/octet-stream":"https://www.gutenberg.org/cache/epub/10791/pg10791-h.zip"},"download_count":19},{"id":10815,"title":"A Compilation of the Messages and Papers of the Presidents. Volume 4, part 1: William Henry Harrison","authors":[],"translators":[],"subjects":["Harrison, William Henry, 1773-1841","Presidents -- United States","United States -- History -- Sources","United States -- Politics and government"],"bookshelves":[],"languages":["en"],"copyright":false,"media_type":"Text","formats":{"text/html":"https://www.gutenberg.org/ebooks/10815.html.images","text/html; charset=us-ascii":"https://www.gutenberg.org/files/10815/10815-h/10815-h.htm","application/epub+zip":"https://www.gutenberg.org/ebooks/10815.epub3.images","application/x-mobipocket-ebook":"https://www.gutenberg.org/ebooks/10815.kf8.images","text/plain; charset=us-ascii":"https://www.gutenberg.org/ebooks/10815.txt.utf-8","application/rdf+xml":"https://www.gutenberg.org/ebooks/10815.rdf","image/jpeg":"https://www.gutenberg.org/cache/epub/10815/pg10815.cover.medium.jpg","application/octet-stream":"https://www.gutenberg.org/cache/epub/10815/pg10815-h.zip"},"download_count":19}]}