{"count":58808,"next":"http://129.241.150.113:8000/books/?languages=en&page=1827","previous":"http://129.241.150.113:8000/books/?languages=en&page=1825","results":[{"id":8324,"title":"The Bible, Douay-Rheims, Book 24: Canticle of Canticles: The Challoner Revision","authors":[],"translators":[],"subjects":["Bible. Song of Solomon"],"bookshelves":[],"languages":["en"],"copyright":false,"media_type":"Text","formats":{"text/html":"https://www.gutenberg.org/ebooks/8324.html.images","application/epub+zip":"https://www.gutenberg.org/ebooks/8324.epub3.images","application/x-mobipocket-ebook":"https://www.gutenberg.org/ebooks/8324.kf8.images","text/plain; charset=us-ascii":"https://www.gutenberg.org/ebooks/8324.txt.utf-8","application/rdf+xml":"https://www.gutenberg.org/ebooks/8324.rdf","image/jpeg":"https://www.gutenberg.org/cache/epub/8324/pg8324.cover.medium.jpg","application/octet-stream":"https://www.gutenberg.org/cache/epub/8324/pg8324-h.zip"},"download_count":8},{"id":8333,"title":"The Bible, Douay-Rheims, Book 33: Osee: The Challoner Revision","authors":[],"translators":[],"subjects":["Bible. Hosea"],"bookshelves":[],"languages":["en"],"copyright":false,"media_type":"Text","formats":{"text/html":"https://www.gutenberg.org/ebooks/8333.html.images","application/epub+zip":"https://www.gutenberg.org/ebooks/8333.epub3.images","application/x-mobipocket-ebook":"https://www.gutenberg.org/ebooks/8333.kf8.images","text/plain; charset=us-ascii":"https://www.gutenberg.org/ebooks/8333.txt.utf-8","application/rdf+xml":"https://www.gutenberg.org/ebooks/8333.rdf","image/jpeg":"https://www.gutenberg.org/cache/epub/8333/pg8333.cover.medium.jpg","application/octet-stream":"https://www.gutenberg.org/cache/epub/8333/pg8333-h.zip"},"download_count":8},{"id":8334,"title":"The Bible, Douay-Rheims, Book 34: Joel: The Challoner Revision","authors":[],"translators":[],"subjects":["Bible. Joel"],"bookshelves":[],"languages":["en"],"copyright":false,"media_type":"Text","formats":{"text/html":"https://www.gutenberg.org/ebooks/8334.html.images","application/epub+zip":"https://www.gutenberg.org/ebooks/8334.epub3.images","application/x-mobipocket-ebook":"https://www.gutenberg.org/ebooks/8334.kf8.images","text/plain; charset=us-ascii":"https://www.gutenberg.org/ebooks/8334.txt.utf-8","application/rdf+xml":"https://www.gutenberg.org/ebooks/8334.rdf","image/jpeg":"https://www.gutenberg.org/cache/epub/8334/pg8334.cover.medium.jpg","application/octet-stream":"https://www.gutenberg.org/cache/epub/8334/pg8334-h.zip"},"download_count":8},{"id":8358,"title":"The Bible, Douay-Rheims, Book 58: Colossians: The Challoner Revision","authors":[],"translators":[],"subjects":["Bible. Colossians"],"bookshelves":[],"languages":["en"],"copyright":false,"media_type":"Text","formats":{"text/html":"https://www.gutenberg.org/ebooks/8358.html.images","application/epub+zip":"https://www.gutenberg.org/ebooks/8358.epub3.images","application/x-mobipocket-ebook":"https://www.gutenberg.org/ebooks/8358.kf8.images","text/plain; charset=us-ascii":"https://www.gutenberg.org/ebooks/8358.txt.utf-8","application/rdf+xml":"https://www.gutenberg.org/ebooks/8358.rdf","image/jpeg":"https://www.gutenberg.org/cache/epub/8358/pg8358.cover.medium.jpg","application/octet-stream":"https://www.gutenberg.org/cache/epub/8358/pg8358-h.zip"},"download_count":8},{"id":8359,"title":"The Bible, Douay-Rheims, Book 59: 1 Thessalonians: The Challoner Revision","authors":[],"translators":[],"subjects":["Bible. Thessalonians, 1st"],"bookshelves":[],"languages":["en"],"copyright":false,"media_type":"Text","formats":{"text/html":"https://www.gutenberg.org/ebooks/8359.html.images","application/epub+zip":"https://www.gutenberg.org/ebooks/8359.epub3.images","application/x-mobipocket-ebook":"https://www.gutenberg.org/ebooks/8359.kf8.images","text/plain; charset=us-ascii":"https://www.gutenberg.org/ebooks/8359.txt.utf-8","application/rdf+xml":"https://www.gutenberg.org/ebooks/8359.rdf","image/jpeg":"https://www.gutenberg.org/cache/epub/8359/pg8359.cover.medium.jpg","application/octet-stream":"https://www.gutenberg.org/cache/epub/8359/pg8359-h.zip"},"download_count":8},{"id":8368,"title":"The Bible, Douay-Rheims, Book 68: 2 Peter: The Challoner Revision","authors":[],"translators":[],"subjects":["Bible. Peter, 2nd"],"bookshelves":[],"languages":["en"],"copyright":false,"media_type":"Text","formats":{"text/html":"https://www.gutenberg.org/ebooks/8368.html.images","application/epub+zip":"https://www.gutenberg.org/ebooks/8368.epub3.images","application/x-mobipocket-ebook":"https://www.gutenberg.org/ebooks/8368.kf8.images","text/plain; charset=us-ascii":"https://www.gutenberg.org/ebooks/8368.txt.utf-8","application/rdf+xml":"https://www.gutenberg.org/ebooks/8368.rdf","image/jpeg":"https://www.gutenberg.org/cache/epub/8368/pg8368.cover.medium.jpg","application/octet-stream":"https://www.gutenberg.org/cache/epub/8368/pg8368-h.zip"},"download_count":8},{"id":8371,"title":"The Bible, Douay-Rheims, Book 71: 3 John: The Challoner Revision","authors":[],"translators":[],"subjects":["Bible. Epistle of John, 3rd"],"bookshelves":[],"languages":["en"],"copyright":false,"media_type":"Text","formats":{"text/html":"https://www.gutenberg.org/ebooks/8371.html.images","application/epub+zip":"https://www.gutenberg.org/ebooks/8371.epub3.images","application/x-mobipocket-ebook":"https://www.gutenberg.org/ebooks/8371.kf8.images","text/plain; charset=us-ascii":"https://www.gutenberg.org/ebooks/8371.txt.utf-8","application/rdf+xml":"https://www.gutenberg.org/ebooks/8371.rdf","image/jpeg":"https://www.gutenberg.org/cache/epub/8371/pg8371.cover.medium.jpg","application/octet-stream":"https://www.gutenberg.org/cache/epub/8371/pg8371-h.zip"},"download_count":8},{"id":9002,"title":"Personal Recollections of Joan of Arc — Volume 02","authors":[{"name":"Twain, Mark","birth_year":1835,"death_year":1910}],"translators":[],"subjects":["Biographical fiction","Christian women saints -- Fiction","France -- History -- Charles VII, 1422-1461 -- Fiction","Joan, of Arc, Saint, 1412-1431 -- Fiction"],"bookshelves":[],"languages":["en"],"copyright":true,"media_type":"Sound","formats":{"text/plain; charset=us-ascii":"https://www.gutenberg.org/files/9002/9002-readme.txt","text/html; charset=iso-8859-1":"https://www.gutenberg.org/files/9002/9002-index.htm","audio/mpeg":"https://www.gutenberg.org/files/9002/mp3/9002-000.mp3","application/rdf+xml":"https://www.gutenberg.org/ebooks/9002.rdf","application/octet-stream":"https://www.gutenberg.org/files/9002/9002-mp3.zip"},"download_count":8},{"id":9281,"title":"The Hermit and the Wild Woman, and Other Stories","authors":[{"name":"Wharton, Edith","birth_year":1862,"death_year":1937}],"translators":[],"subjects":["Short stories, American"],"bookshelves":[],"languages":["en"],"copyright":true,"media_type":"Sound","formats":{"text/plain; charset=us-ascii":"https://www.gutenberg.org/files/9281/9281-readme.txt","text/html; charset=iso-8859-1":"https://www.gutenberg.org/files/9281/9281-index.htm","audio/mpeg":"https://www.gutenberg.org/files/9281/mp3/9281-000.mp3","application/rdf+xml":"https://www.gutenberg.org/ebooks/9281.rdf","application/octet-stream":"https://www.gutenberg.org/files/9281/9281-mp3.zip"},"download_count":8},{"id":9299,"title":"Italian Letters, Vols. I and II; Or, The History of the Count de St. Julian","authors":[{"name":"Godwin, William","birth_year":1756,"death_year":1836}],"translators":[],"subjects":["Epistolary fiction","Italy -- Fiction"],"bookshelves":[],"languages":["en"],"copyright":false,"media_type":"Text","formats":{"text/html":"https://www.gutenberg.org/ebooks/9299.html.images","application/epub+zip":"https://www.gutenberg.org/ebooks/9299.epub3.images","application/x-mobipocket-ebook":"https://www.gutenberg.org/ebooks/9299.kf8.images","text/plain; charset=us-ascii":"https://www.gutenberg.org/ebooks/9299.txt.utf-8","text/plain; charset=iso-8859-1":"https://www.gutenberg.org/files/9299/9299-8.txt","application/rdf+xml":"https://www.gutenberg.org/ebooks/9299.rdf","image/jpeg":"https://www.gutenberg.org/cache/epub/9299/pg9299.cover.medium.jpg","application/octet-stream":"https://www.gutenberg.org/cache/epub/9299/pg9299-h.zip"},"download_count":8},{"id":9432,"title":"Satires of Circumstance etc.","authors":[{"name":"Hardy, Thomas","birth_year":1840,"death_year":1928}],"translators":[],"subjects":["English poetry"],"bookshelves":[],"languages":["en"],"copyright":true,"media_type":"Sound","formats":{"text/plain; charset=us-ascii":"https://www.gutenberg.org/files/9432/9432-readme.txt","text/html; charset=iso-8859-1":"https://www.gutenberg.org/files/9432/9432-index.htm","audio/mpeg":"https://www.gutenberg.org/files/9432/mp3/9432-000.mp3","application/rdf+xml":"https://www.gutenberg.org/ebooks/9432.rdf","application/octet-stream":"https://www.gutenberg.org/files/9432/9432-mp3.zip"},"download_count":8},{"id":9517,"title":"The Second Funeral of Napoleon","authors":[{"name":"Thackeray, William Makepeace","birth_year":1811,"death_year":1863}],"translators":[],"subjects":["Napoleon I, Emperor of the French, 1769-1821 -- Death and burial"],"bookshelves":[],"languages":["en"],"copyright":true,"media_type":"Sound","formats":{"text/plain; charset=us-ascii":"https://www.gutenberg.org/files/9517/9517-readme.txt","text/html; charset=iso-8859-1":"https://www.gutenberg.org/files/9517/9517-index.htm","audio/mpeg":"https://www.gutenberg.org/files/9517/mp3/9517-000.mp3","application/rdf+xml":"https://www.gutenberg.org/ebooks/9517.rdf","application/octet-stream":"https://www.gutenberg.org/files/9517/9517-mp3.zip"},"download_count":8},{"id":9726,"title":"No Thoroughfare","authors":[{"name":"Dickens, Charles","birth_year":1812,"death_year":1870}],"translators":[],"subjects":["England -- Social life and customs -- 19th century -- Fiction"],"bookshelves":[],"languages":["en"],"copyright":true,"media_type":"Sound","formats":{"text/plain; charset=us-ascii":"https://www.gutenberg.org/files/9726/9726-readme.txt","text/html; charset=iso-8859-1":"https://www.gutenberg.org/files/9726/9726-index.htm","audio/mpeg":"https://www.gutenberg.org/files/9726/mp3/9726-000.mp3","application/rdf+xml":"https://www.gutenberg.org/ebooks/9726.rdf","application/octet-stream":"https://www.gutenberg.org/files/9726/9726-mp3.zip"},"download_count":8},{"id":9731,"title":"To Be Read at Dusk","authors":[{"name":"Dickens, Charles","birth_year":1812,"death_year":1870}],"translators":[],"subjects":["Fiction","Short stories"],"bookshelves":[],"languages":["en"],"copyright":true,"media_type":"Sound","formats":{"text/plain; charset=us-ascii":"https://www.gutenberg.org/files/9731/9731-readme.txt","text/html; charset=iso-8859-1":"https://www.gutenberg.org/files/9731/9731-index.htm","audio/mpeg":"https://www.gutenberg.org/files/9731/mp3/9731-000.mp3","application/rdf+xml":"https://www.gutenberg.org/ebooks/9731.rdf","application/octet-stream":"https://www.gutenberg.org/files/9731/9731-mp3.zip"},"download_count":8},{"id":10009,"title":"Wild Northern Scenes; Or, Sporting Adventures with the Rifle and the Rod","authors":[{"name":"Hammond, S. H. (Samuel H.)","birth_year":1809,"death_year":1878}],"translators":[],"subjects":["Fishing -- New York (State)","Hunting -- New York (State)"],"bookshelves":[],"languages":["en"],"copyright":false,"media_type":"Text","formats":{"text/html":"https://www.gutenberg.org/ebooks/10009.html.images","application/epub+zip":"https://www.gutenberg.org/ebooks/10009.epub3.images","application/x-mobipocket-ebook":"https://www.gutenberg.org/ebooks/10009.kf8.images","text/plain; charset=us-ascii":"https://www.gutenberg.org/ebooks/10009.txt.utf-8","application/rdf+xml":"https://www.gutenberg.org/ebooks/10009.rdf","image/jpeg":"https://www.gutenberg.org/cache/epub/10009/pg10009.cover.medium.jpg","application/octet-stream":"https://www.gutenberg.org/cache/epub/10009/pg10009-h.zip"},"download_count":8},{"id":10187,"title":"Reuben Haskin's ride on the Cyclone Auto","authors":[{"name":"Spencer, Len","birth_year":1867,"death_year":1914}],"translators":[],"subjects":["Humorous recitations","Vaudeville"],"bookshelves":[],"languages":["en"],"copyright":false,"media_type":"Sound","formats":{"text/plain; charset=us-ascii":"https://www.gutenberg.org/files/10187/10187-m/10187-m-readme.txt","audio/mpeg":"https://www.gutenberg.org/files/10187/10187-m/10187-m-001.mp3","application/rdf+xml":"https://www.gutenberg.org/ebooks/10187.rdf"},"download_count":8},{"id":10189,"title":"Three Rubes Seeing New York","authors":[{"name":"Edison Vaudeville Company","birth_year":null,"death_year":null}],"translators":[],"subjects":["Humorous recitations","Vaudeville"],"bookshelves":[],"languages":["en"],"copyright":false,"media_type":"Sound","formats":{"text/plain; charset=us-ascii":"https://www.gutenberg.org/files/10189/10189-m/10189-m-readme.txt","audio/mpeg":"https://www.gutenberg.org/files/10189/10189-m/10189-m-001.mp3","application/rdf+xml":"https://www.gutenberg.org/ebooks/10189.rdf"},"download_count":8},{"id":10232,"title":"Remarks from a Visit to Edison Laboratory","authors":[{"name":"Miles, Nelson Appleton","birth_year":1839,"death_year":1925}],"translators":[],"subjects":["Edison, Thomas A. (Thomas Alva), 1847-1931"],"bookshelves":[],"languages":["en"],"copyright":false,"media_type":"Sound","formats":{"text/plain; charset=us-ascii":"https://www.gutenberg.org/files/10232/10232-m/10232-m-readme.txt","audio/mpeg":"https://www.gutenberg.org/files/10232/10232-m/10232-m-001.mp3","application/rdf+xml":"https://www.gutenberg.org/ebooks/10232.rdf"},"download_count":8},{"id":10259,"title":"Smês esko - slováckych písní - cis 1","authors":[{"name":"Lusk, Milan","birth_year":null,"death_year":null}],"translators":[],"subjects":["Violin and piano music"],"bookshelves":[],"languages":["en"],"copyright":false,"media_type":"Sound","formats":{"text/plain; charset=us-ascii":"https://www.gutenberg.org/files/10259/10259-m/10259-m-readme.txt","audio/mpeg":"https://www.gutenberg.org/files/10259/10259-m/10259-m-001.mp3","application/rdf+xml":"https://www.gutenberg.org/ebooks/10259.rdf"},"download_count":8},{"id":11118,"title":"The Atlantic Monthly, Volume 07, No. 39, January, 1861: A Magazine of Literature, Art, and Politics","authors":[{"name":"Various","birth_year":null,"death_year":null}],"translators":[],"subjects":["American periodicals"],"bookshelves":["The Atlantic Monthly"],"languages":["en"],"copyright":false,"media_type":"Text","formats":{"text/html":"https://www.gutenberg.org/ebooks/11118.html.images","application/epub+zip":"https://www.gutenberg.org/ebooks/11118.epub3.images","application/x-mobipocket-ebook":"https://www.gutenberg.org/ebooks/11118.kf8.images","text/plain; charset=us-ascii":"https://www.gutenberg.org/ebooks/11118.txt.utf-8","text/plain; charset=iso-8859-1":"https://www.gutenberg.org/files/11118/11118-8.txt","text/plain":"https://www.gutenberg.org/files/11118/11118.zip","application/rdf+xml":"https://www.gutenberg.org/ebooks/11118.rdf","image/jpeg":"https://www.gutenberg.org/cache/epub/11118/pg11118.cover.medium.jpg","application/octet-stream":"https://www.gutenberg.org/cache/epub/11118/pg11118-h.zip"},"download_count":8},{"id":11269,"title":"Virgie's Inheritance","authors":[{"name":"Sheldon, Georgie, Mrs.","birth_year":1843,"death_year":1926}],"translators":[],"subjects":["American fiction -- 19th century"],"bookshelves":[],"languages":["en"],"copyright":false,"media_type":"Text","formats":{"text/html":"https://www.gutenberg.org/ebooks/11269.html.images","text/html; charset=utf-8":"https://www.gutenberg.org/files/11269/11269-h/11269-h.htm","application/epub+zip":"https://www.gutenberg.org/ebooks/11269.epub3.images","application/x-mobipocket-ebook":"https://www.gutenberg.org/ebooks/11269.kf8.images","text/plain; charset=us-ascii":"https://www.gutenberg.org/ebooks/11269.txt.utf-8","text/plain; charset=utf-8":"https://www.gutenberg.org/files/11269/11269-0.txt","application/rdf+xml":"https://www.gutenberg.org/ebooks/11269.rdf","image/jpeg":"https://www.gutenberg.org/cache/epub/11269/pg11269.cover.medium.jpg","application/octet-stream":"https://www.gutenberg.org/cache/epub/11269/pg11269-h.zip"},"download_count":8},{"id":11375,"title":"The Mirror of Literature, Amusement, and Instruction. Volume 10, No. 278, Supplementary Number (1828)","authors":[{"name":"Various","birth_year":null,"death_year":null}],"translators":[],"subjects":["Popular literature -- Great Britain -- Periodicals"],"bookshelves":["The Mirror of Literature, Amusement, and Instruction"],"languages":["en"],"copyright":false,"media_type":"Text","formats":{"text/html":"https://www.gutenberg.org/ebooks/11375.html.images","text/html; charset=us-ascii":"https://www.gutenberg.org/files/11375/11375-h/11375-h.htm","application/epub+zip":"https://www.gutenberg.org/ebooks/11375.epub3.images","application/x-mobipocket-ebook":"https://www.gutenberg.org/ebooks/11375.kf8.images","text/plain; charset=us-ascii":"https://www.gutenberg.org/ebooks/11375.txt.utf-8","application/rdf+xml":"https://www.gutenberg.org/ebooks/11375.rdf","image/jpeg":"https://www.gutenberg.org/cache/epub/11375/pg11375.cover.medium.jpg","application/octet-stream":"https://www.gutenberg.org/cache/epub/11375/pg11375-h.zip"},"download_count":8},{"id":11463,"title":"The Mirror of Literature, Amusement, and Instruction. Volume 14, No. 404, December 12, 1829","authors":[{"name":"Various","birth_year":null,"death_year":null}],"translators":[],"subjects":["Popular literature -- Great Britain -- Periodicals"],"bookshelves":["The Mirror of Literature, Amusement, and Instruction"],"languages":["en"],"copyright":false,"media_type":"Text","formats":{"text/html":"https://www.gutenberg.org/ebooks/11463.html.images","text/html; charset=iso-8859-1":"https://www.gutenberg.org/files/11463/11463-h/11463-h.htm","application/epub+zip":"https://www.gutenberg.org/ebooks/11463.epub3.images","application/x-mobipocket-ebook":"https://www.gutenberg.org/ebooks/11463.kf8.images","text/plain; charset=us-ascii":"https://www.gutenberg.org/ebooks/11463.txt.utf-8","text/plain; charset=iso-8859-1":"https://www.gutenberg.org/files/11463/11463-8.txt","application/rdf+xml":"https://www.gutenberg.org/ebooks/11463.rdf","image/jpeg":"https://www.gutenberg.org/cache/epub/11463/pg11463.cover.medium.jpg","application/octet-stream":"https://www.gutenberg.org/cache/epub/11463/pg11463-h.zip"},"download_count":8},{"id":11491,"title":"Punch, or the London Charivari, Volume 153, October 31, 1917","authors":[{"name":"Various","birth_year":null,"death_year":null}],"translators":[],"subjects":["English wit and humor -- Periodicals"],"bookshelves":["Punch"],"languages":["en"],"copyright":false,"media_type":"Text","formats":{"text/html":"https://www.gutenberg.org/ebooks/11491.html.images","text/html; charset=iso-8859-1":"https://www.gutenberg.org/files/11491/11491-h/11491-h.htm","application/epub+zip":"https://www.gutenberg.org/ebooks/11491.epub3.images","application/x-mobipocket-ebook":"https://www.gutenberg.org/ebooks/11491.kf8.images","text/plain; charset=us-ascii":"https://www.gutenberg.org/ebooks/11491.txt.utf-8","text/plain; charset=iso-8859-1":"https://www.gutenberg.org/files/11491/11491-8.txt","application/rdf+xml":"https://www.gutenberg.org/ebooks/11491.rdf","image/jpeg":"https://www.gutenberg.org/cache/epub/11491/pg11491.cover.medium.jpg","application/octet-stream":"https://www.gutenberg.org/cache/epub/11491/pg11491-h.zip"},"download_count":8},{"id":11570,"title":"Punch, or the London Charivari, Volume 153, November 7, 1917","authors":[{"name":"Various","birth_year":null,"death_year":null}],"translators":[],"subjects":["English wit and humor -- Periodicals"],"bookshelves":["Punch"],"languages":["en"],"copyright":false,"media_type":"Text","formats":{"text/html":"https://www.gutenberg.org/ebooks/11570.html.images","text/html; charset=iso-8859-1":"https://www.gutenberg.org/files/11570/11570-h/11570-h.htm","application/epub+zip":"https://www.gutenberg.org/ebooks/11570.epub3.images","application/x-mobipocket-ebook":"https://www.gutenberg.org/ebooks/11570.kf8.images","text/plain; charset=us-ascii":"https://www.gutenberg.org/ebooks/11570.txt.utf-8","text/plain; charset=iso-8859-1":"https://www.gutenberg.org/files/11570/11570-8.txt","application/rdf+xml":"https://www.gutenberg.org/ebooks/11570.rdf","image/jpeg":"https://www.gutenberg.org/cache/epub/11570/pg11570.cover.medium.jpg","application/octet-stream":"https://www.gutenberg.org/cache/epub/11570/pg11570-h.zip"},"download_count":8},{"id":11782,"title":"Human Genome Project, Build 34, Chromosome Number 08","authors":[{"name":"Human Genome Project","birth_year":null,"death_year":null}],"translators":[],"subjects":["Nucleotide sequence"],"bookshelves":[],"languages":["en"],"copyright":false,"media_type":"Dataset","formats":{"text/plain":"https://www.gutenberg.org/files/11782/11782.zip","application/rdf+xml":"https://www.gutenberg.org/ebooks/11782.rdf"},"download_count":8},{"id":11792,"title":"Human Genome Project, Build 34, Chromosome Number 18","authors":[{"name":"Human Genome Project","birth_year":null,"death_year":null}],"translators":[],"subjects":["Nucleotide sequence"],"bookshelves":[],"languages":["en"],"copyright":false,"media_type":"Dataset","formats":{"text/plain":"https://www.gutenberg.org/files/11792/11792.zip","application/rdf+xml":"https://www.gutenberg.org/ebooks/11792.rdf"},"download_count":8},{"id":12302,"title":"All in It : K(1) Carries On","authors":[{"name":"Hay, Ian","birth_year":1876,"death_year":1952}],"translators":[],"subjects":["World War, 1914-1918 -- Personal narratives, British"],"bookshelves":[],"languages":["en"],"copyright":false,"media_type":"Text","formats":{"text/html":"https://www.gutenberg.org/ebooks/12302.html.images","application/epub+zip":"https://www.gutenberg.org/ebooks/12302.epub3.images","application/x-mobipocket-ebook":"https://www.gutenberg.org/ebooks/12302.kf8.images","text/plain; charset=us-ascii":"https://www.gutenberg.org/ebooks/12302.txt.utf-8","text/plain; charset=iso-8859-1":"https://www.gutenberg.org/files/12302/12302-8.txt","application/rdf+xml":"https://www.gutenberg.org/ebooks/12302.rdf","image/jpeg":"https://www.gutenberg.org/cache/epub/12302/pg12302.cover.medium.jpg","application/octet-stream":"https://www.gutenberg.org/cache/epub/12302/pg12302-h.zip"},"download_count":8},{"id":12330,"title":"A Volunteer Poilu","authors":[{"name":"Beston, Henry","birth_year":1888,"death_year":1968}],"translators":[],"subjects":["World War, 1914-1918 -- Personal narratives"],"bookshelves":["World War I"],"languages":["en"],"copyright":false,"media_type":"Text","formats":{"text/html":"https://www.gutenberg.org/ebooks/12330.html.images","application/epub+zip":"https://www.gutenberg.org/ebooks/12330.epub3.images","application/x-mobipocket-ebook":"https://www.gutenberg.org/ebooks/12330.kf8.images","text/plain; charset=us-ascii":"https://www.gutenberg.org/ebooks/12330.txt.utf-8","text/plain; charset=utf-8":"https://www.gutenberg.org/files/12330/12330-0.txt","application/rdf+xml":"https://www.gutenberg.org/ebooks/12330.rdf","image/jpeg":"https://www.gutenberg.org/cache/epub/12330/pg12330.cover.medium.jpg","application/octet-stream":"https://www.gutenberg.org/cache/epub/12330/pg12330-h.zip"},"download_count":8},{"id":12417,"title":"Fishin' Jimmy","authors":[{"name":"Slosson, Annie Trumbull","birth_year":1838,"death_year":1926}],"translators":[],"subjects":["Christian life -- Fiction","Fishers -- Fiction","New Hampshire -- Fiction","Short stories"],"bookshelves":[],"languages":["en"],"copyright":false,"media_type":"Text","formats":{"text/html":"https://www.gutenberg.org/ebooks/12417.html.images","application/epub+zip":"https://www.gutenberg.org/ebooks/12417.epub3.images","application/x-mobipocket-ebook":"https://www.gutenberg.org/ebooks/12417.kf8.images","text/plain; charset=us-ascii":"https://www.gutenberg.org/ebooks/12417.txt.utf-8","application/rdf+xml":"https://www.gutenberg.org/ebooks/12417.rdf","image/jpeg":"https://www.gutenberg.org/cache/epub/12417/pg12417.cover.medium.jpg","application/octet-stream":"https://www.gutenberg.org/cache/epub/12417/pg12417-h.zip"},"download_count":8},{"id":12724,"title":"Sonnet #116","authors":[{"name":"Shakespeare, William","birth_year":1564,"death_year":1616}],"translators":[],"subjects":["English poetry","Sonnets, English"],"bookshelves":[],"languages":["en"],"copyright":true,"media_type":"Sound","formats":{"text/plain; charset=us-ascii":"https://www.gutenberg.org/files/12724/12724-readme.txt","application/octet-stream":"https://www.gutenberg.org/files/12724/readme-license.txt","audio/mpeg":"https://www.gutenberg.org/files/12724/12724-m/12724-m-116.mp3","application/rdf+xml":"https://www.gutenberg.org/ebooks/12724.rdf"},"download_count":8},{"id":12866,"title":"Punch, or the London Charivari, Volume 100, January 17, 1891","authors":[{"name":"Various","birth_year":null,"death_year":null}],"translators":[],"subjects":["English wit and humor -- Periodicals"],"bookshelves":["Punch"],"languages":["en"],"copyright":false,"media_type":"Text","formats":{"text/html":"https://www.gutenberg.org/ebooks/12866.html.images","text/html; charset=iso-8859-1":"https://www.gutenberg.org/files/12866/12866-h/12866-h.htm","application/epub+zip":"https://www.gutenberg.org/ebooks/12866.epub3.images","application/x-mobipocket-ebook":"https://www.gutenberg.org/ebooks/12866.kf8.images","text/plain; charset=us-ascii":"https://www.gutenberg.org/ebooks/12866.txt.utf-8","text/plain; charset=iso-8859-1":"https://www.gutenberg.org/files/12866/12866-8.txt","application/rdf+xml":"https://www.gutenberg.org/ebooks/12866.rdf","image/jpeg":"https://www.gutenberg.org/cache/epub/12866/pg12866.cover.medium.jpg","application/octet-stream":"https://www.gutenberg.org/cache/epub/12866/pg12866-h.zip"},"download_count":8}]}