{"count":58808,"next":"http://129.241.150.113:8000/books/?languages=en&page=1705","previous":"http://129.241.150.113:8000/books/?languages=en&page=1703","results":[{"id":70557,"title":"Robert Merry's Museum, Vol. VII, No. 1-6","authors":[{"name":"Various","birth_year":null,"death_year":null}],"translators":[],"subjects":["Children's literature -- Periodicals"],"bookshelves":[],"languages":["en"],"copyright":false,"media_type":"Text","formats":{"text/html":"https://www.gutenberg.org/ebooks/70557.html.images","application/epub+zip":"https://www.gutenberg.org/ebooks/70557.epub3.images","application/x-mobipocket-ebook":"https://www.gutenberg.org/ebooks/70557.kf8.images","text/plain; charset=us-ascii":"https://www.gutenberg.org/ebooks/70557.txt.utf-8","application/rdf+xml":"https://www.gutenberg.org/ebooks/70557.rdf","image/jpeg":"https://www.gutenberg.org/cache/epub/70557/pg70557.cover.medium.jpg","application/octet-stream":"https://www.gutenberg.org/files/70557/70557-0.zip"},"download_count":18},{"id":70573,"title":"Bucolic Beatitudes","authors":[{"name":"Jenkins, MacGregor","birth_year":1869,"death_year":1940}],"translators":[],"subjects":["Domestic animals -- Anecdotes","Farm life -- Anecdotes"],"bookshelves":[],"languages":["en"],"copyright":false,"media_type":"Text","formats":{"text/html":"https://www.gutenberg.org/ebooks/70573.html.images","application/epub+zip":"https://www.gutenberg.org/ebooks/70573.epub3.images","application/x-mobipocket-ebook":"https://www.gutenberg.org/ebooks/70573.kf8.images","text/plain; charset=us-ascii":"https://www.gutenberg.org/ebooks/70573.txt.utf-8","application/rdf+xml":"https://www.gutenberg.org/ebooks/70573.rdf","image/jpeg":"https://www.gutenberg.org/cache/epub/70573/pg70573.cover.medium.jpg","application/octet-stream":"https://www.gutenberg.org/files/70573/70573-0.zip"},"download_count":18},{"id":70605,"title":"The black alarm","authors":[{"name":"Smith, George O. (George Oliver)","birth_year":1911,"death_year":1981}],"translators":[],"subjects":["Science fiction","Stepchildren -- Fiction","Stepfathers -- Fiction"],"bookshelves":[],"languages":["en"],"copyright":false,"media_type":"Text","formats":{"text/html":"https://www.gutenberg.org/ebooks/70605.html.images","application/epub+zip":"https://www.gutenberg.org/ebooks/70605.epub3.images","application/x-mobipocket-ebook":"https://www.gutenberg.org/ebooks/70605.kf8.images","text/plain; charset=us-ascii":"https://www.gutenberg.org/ebooks/70605.txt.utf-8","application/rdf+xml":"https://www.gutenberg.org/ebooks/70605.rdf","image/jpeg":"https://www.gutenberg.org/cache/epub/70605/pg70605.cover.medium.jpg","application/octet-stream":"https://www.gutenberg.org/files/70605/70605-0.zip"},"download_count":18},{"id":70679,"title":"The Irish ecclesiastical record, Volume 1, September 1865","authors":[],"translators":[],"subjects":["Catholic Church -- Ireland -- Periodicals","Catholic Church -- Periodicals"],"bookshelves":[],"languages":["en"],"copyright":false,"media_type":"Text","formats":{"text/html":"https://www.gutenberg.org/ebooks/70679.html.images","application/epub+zip":"https://www.gutenberg.org/ebooks/70679.epub3.images","application/x-mobipocket-ebook":"https://www.gutenberg.org/ebooks/70679.kf8.images","text/plain; charset=us-ascii":"https://www.gutenberg.org/ebooks/70679.txt.utf-8","application/rdf+xml":"https://www.gutenberg.org/ebooks/70679.rdf","image/jpeg":"https://www.gutenberg.org/cache/epub/70679/pg70679.cover.medium.jpg","application/octet-stream":"https://www.gutenberg.org/files/70679/70679-0.zip"},"download_count":18},{"id":70704,"title":"Prayer for the oppressed : $b A premium tract","authors":[{"name":"Thome, James A. (James Armstrong)","birth_year":1813,"death_year":1873}],"translators":[],"subjects":["Prayer","Slavery and the church"],"bookshelves":[],"languages":["en"],"copyright":false,"media_type":"Text","formats":{"text/html":"https://www.gutenberg.org/ebooks/70704.html.images","application/epub+zip":"https://www.gutenberg.org/ebooks/70704.epub3.images","application/x-mobipocket-ebook":"https://www.gutenberg.org/ebooks/70704.kf8.images","text/plain; charset=us-ascii":"https://www.gutenberg.org/ebooks/70704.txt.utf-8","application/rdf+xml":"https://www.gutenberg.org/ebooks/70704.rdf","image/jpeg":"https://www.gutenberg.org/cache/epub/70704/pg70704.cover.medium.jpg","application/octet-stream":"https://www.gutenberg.org/files/70704/70704-0.zip"},"download_count":18},{"id":70735,"title":"The dead towns of Georgia","authors":[{"name":"Jones, Charles C., Jr. (Charles Colcock)","birth_year":1831,"death_year":1893}],"translators":[],"subjects":["Extinct cities -- Georgia","Georgia -- History -- Colonial period, ca. 1600-1775"],"bookshelves":[],"languages":["en"],"copyright":false,"media_type":"Text","formats":{"text/html":"https://www.gutenberg.org/ebooks/70735.html.images","application/epub+zip":"https://www.gutenberg.org/ebooks/70735.epub3.images","application/x-mobipocket-ebook":"https://www.gutenberg.org/ebooks/70735.kf8.images","text/plain; charset=us-ascii":"https://www.gutenberg.org/ebooks/70735.txt.utf-8","application/rdf+xml":"https://www.gutenberg.org/ebooks/70735.rdf","image/jpeg":"https://www.gutenberg.org/cache/epub/70735/pg70735.cover.medium.jpg","application/octet-stream":"https://www.gutenberg.org/files/70735/70735-0.zip"},"download_count":18},{"id":70757,"title":"The Earl's promise : $b A novel. Vol. 3 (of 3)","authors":[{"name":"Riddell, J. H., Mrs.","birth_year":1832,"death_year":1906}],"translators":[],"subjects":["City and town life -- Fiction","Landlord and tenant -- Fiction","Mate selection -- Fiction","Ulster (Northern Ireland and Ireland) -- Fiction"],"bookshelves":[],"languages":["en"],"copyright":false,"media_type":"Text","formats":{"text/html":"https://www.gutenberg.org/ebooks/70757.html.images","application/epub+zip":"https://www.gutenberg.org/ebooks/70757.epub3.images","application/x-mobipocket-ebook":"https://www.gutenberg.org/ebooks/70757.kf8.images","text/plain; charset=us-ascii":"https://www.gutenberg.org/ebooks/70757.txt.utf-8","application/rdf+xml":"https://www.gutenberg.org/ebooks/70757.rdf","image/jpeg":"https://www.gutenberg.org/cache/epub/70757/pg70757.cover.medium.jpg","application/octet-stream":"https://www.gutenberg.org/files/70757/70757-0.zip"},"download_count":18},{"id":70822,"title":"The Tallants of Barton, vol. 2 (of 3) : A tale of fortune and finance","authors":[{"name":"Hatton, Joseph","birth_year":1841,"death_year":1907}],"translators":[],"subjects":["English fiction -- 19th century"],"bookshelves":[],"languages":["en"],"copyright":false,"media_type":"Text","formats":{"text/html":"https://www.gutenberg.org/ebooks/70822.html.images","application/epub+zip":"https://www.gutenberg.org/ebooks/70822.epub3.images","application/x-mobipocket-ebook":"https://www.gutenberg.org/ebooks/70822.kf8.images","text/plain; charset=us-ascii":"https://www.gutenberg.org/ebooks/70822.txt.utf-8","application/rdf+xml":"https://www.gutenberg.org/ebooks/70822.rdf","image/jpeg":"https://www.gutenberg.org/cache/epub/70822/pg70822.cover.medium.jpg","application/octet-stream":"https://www.gutenberg.org/files/70822/70822-0.zip"},"download_count":18},{"id":70857,"title":"Accidents of an antiquary's life","authors":[{"name":"Hogarth, D. G. (David George)","birth_year":1862,"death_year":1927}],"translators":[],"subjects":["Middle East -- Description and travel"],"bookshelves":[],"languages":["en"],"copyright":false,"media_type":"Text","formats":{"text/html":"https://www.gutenberg.org/ebooks/70857.html.images","application/epub+zip":"https://www.gutenberg.org/ebooks/70857.epub3.images","application/x-mobipocket-ebook":"https://www.gutenberg.org/ebooks/70857.kf8.images","text/plain; charset=us-ascii":"https://www.gutenberg.org/ebooks/70857.txt.utf-8","application/rdf+xml":"https://www.gutenberg.org/ebooks/70857.rdf","image/jpeg":"https://www.gutenberg.org/cache/epub/70857/pg70857.cover.medium.jpg","application/octet-stream":"https://www.gutenberg.org/files/70857/70857-0.zip"},"download_count":18},{"id":70880,"title":"The hoe cake of Appomattox","authors":[{"name":"Spear, Ellis","birth_year":1834,"death_year":1917}],"translators":[],"subjects":["United States -- History -- Civil War, 1861-1865 -- Personal narratives"],"bookshelves":[],"languages":["en"],"copyright":false,"media_type":"Text","formats":{"text/html":"https://www.gutenberg.org/ebooks/70880.html.images","application/epub+zip":"https://www.gutenberg.org/ebooks/70880.epub3.images","application/x-mobipocket-ebook":"https://www.gutenberg.org/ebooks/70880.kf8.images","text/plain; charset=us-ascii":"https://www.gutenberg.org/ebooks/70880.txt.utf-8","application/rdf+xml":"https://www.gutenberg.org/ebooks/70880.rdf","image/jpeg":"https://www.gutenberg.org/cache/epub/70880/pg70880.cover.medium.jpg","application/octet-stream":"https://www.gutenberg.org/files/70880/70880-0.zip"},"download_count":18},{"id":70909,"title":"Pan-Germany : $b The disease and cure","authors":[{"name":"Chéradame, André","birth_year":1871,"death_year":1948}],"translators":[],"subjects":["Pangermanism","World War, 1914-1918"],"bookshelves":[],"languages":["en"],"copyright":false,"media_type":"Text","formats":{"text/html":"https://www.gutenberg.org/ebooks/70909.html.images","application/epub+zip":"https://www.gutenberg.org/ebooks/70909.epub3.images","application/x-mobipocket-ebook":"https://www.gutenberg.org/ebooks/70909.kf8.images","text/plain; charset=us-ascii":"https://www.gutenberg.org/ebooks/70909.txt.utf-8","application/rdf+xml":"https://www.gutenberg.org/ebooks/70909.rdf","image/jpeg":"https://www.gutenberg.org/cache/epub/70909/pg70909.cover.medium.jpg","application/octet-stream":"https://www.gutenberg.org/files/70909/70909-0.zip"},"download_count":18},{"id":70939,"title":"The Jimmyjohns, and other stories","authors":[{"name":"Diaz, Abby Morton","birth_year":1821,"death_year":1904}],"translators":[],"subjects":["Children's stories, American"],"bookshelves":[],"languages":["en"],"copyright":false,"media_type":"Text","formats":{"text/html":"https://www.gutenberg.org/ebooks/70939.html.images","application/epub+zip":"https://www.gutenberg.org/ebooks/70939.epub3.images","application/x-mobipocket-ebook":"https://www.gutenberg.org/ebooks/70939.kf8.images","text/plain; charset=us-ascii":"https://www.gutenberg.org/ebooks/70939.txt.utf-8","application/rdf+xml":"https://www.gutenberg.org/ebooks/70939.rdf","image/jpeg":"https://www.gutenberg.org/cache/epub/70939/pg70939.cover.medium.jpg","application/octet-stream":"https://www.gutenberg.org/files/70939/70939-0.zip"},"download_count":18},{"id":71113,"title":"Far above rubies (Vol. 2 of 3) : $b A novel","authors":[{"name":"Riddell, J. H., Mrs.","birth_year":1832,"death_year":1906}],"translators":[],"subjects":["Fiction"],"bookshelves":[],"languages":["en"],"copyright":false,"media_type":"Text","formats":{"text/html":"https://www.gutenberg.org/ebooks/71113.html.images","application/epub+zip":"https://www.gutenberg.org/ebooks/71113.epub3.images","application/x-mobipocket-ebook":"https://www.gutenberg.org/ebooks/71113.kf8.images","text/plain; charset=us-ascii":"https://www.gutenberg.org/ebooks/71113.txt.utf-8","application/rdf+xml":"https://www.gutenberg.org/ebooks/71113.rdf","image/jpeg":"https://www.gutenberg.org/cache/epub/71113/pg71113.cover.medium.jpg","application/octet-stream":"https://www.gutenberg.org/files/71113/71113-0.zip"},"download_count":18},{"id":71200,"title":"An aviator's luck : $b or, The Camp Knox plot","authors":[{"name":"Cobb, Frank","birth_year":null,"death_year":null}],"translators":[],"subjects":["Adventure stories","Aeronautics -- Juvenile fiction"],"bookshelves":[],"languages":["en"],"copyright":false,"media_type":"Text","formats":{"text/html":"https://www.gutenberg.org/ebooks/71200.html.images","application/epub+zip":"https://www.gutenberg.org/ebooks/71200.epub3.images","application/x-mobipocket-ebook":"https://www.gutenberg.org/ebooks/71200.kf8.images","text/plain; charset=us-ascii":"https://www.gutenberg.org/ebooks/71200.txt.utf-8","application/rdf+xml":"https://www.gutenberg.org/ebooks/71200.rdf","image/jpeg":"https://www.gutenberg.org/cache/epub/71200/pg71200.cover.medium.jpg","application/octet-stream":"https://www.gutenberg.org/files/71200/71200-0.zip"},"download_count":18},{"id":71352,"title":"The Crimson Banner : $b A story of college baseball","authors":[{"name":"Moffat, William D. (William David)","birth_year":1866,"death_year":1946}],"translators":[],"subjects":["Baseball stories","College sports -- Juvenile fiction","College students -- Juvenile fiction"],"bookshelves":[],"languages":["en"],"copyright":false,"media_type":"Text","formats":{"text/html":"https://www.gutenberg.org/ebooks/71352.html.images","application/epub+zip":"https://www.gutenberg.org/ebooks/71352.epub3.images","application/x-mobipocket-ebook":"https://www.gutenberg.org/ebooks/71352.kf8.images","text/plain; charset=us-ascii":"https://www.gutenberg.org/ebooks/71352.txt.utf-8","application/rdf+xml":"https://www.gutenberg.org/ebooks/71352.rdf","image/jpeg":"https://www.gutenberg.org/cache/epub/71352/pg71352.cover.medium.jpg","application/octet-stream":"https://www.gutenberg.org/files/71352/71352-h.zip"},"download_count":18},{"id":71543,"title":"The Wonder Island boys : $b capture and pursuit","authors":[{"name":"Finlay, Roger T. (Roger Thompson)","birth_year":1860,"death_year":null}],"translators":[],"subjects":["Castaways -- Juvenile fiction","Islands -- Juvenile fiction"],"bookshelves":[],"languages":["en"],"copyright":false,"media_type":"Text","formats":{"text/html":"https://www.gutenberg.org/ebooks/71543.html.images","application/epub+zip":"https://www.gutenberg.org/ebooks/71543.epub3.images","application/x-mobipocket-ebook":"https://www.gutenberg.org/ebooks/71543.kf8.images","text/plain; charset=us-ascii":"https://www.gutenberg.org/ebooks/71543.txt.utf-8","application/rdf+xml":"https://www.gutenberg.org/ebooks/71543.rdf","image/jpeg":"https://www.gutenberg.org/cache/epub/71543/pg71543.cover.medium.jpg","application/octet-stream":"https://www.gutenberg.org/files/71543/71543-h.zip"},"download_count":18},{"id":71571,"title":"At the back of the world : $b Wanderings over many lands and seas","authors":[{"name":"Pugh, George","birth_year":null,"death_year":null},{"name":"Pugh, Jennie","birth_year":null,"death_year":null}],"translators":[],"subjects":["Seafaring life -- Juvenile fiction","Voyages and travels -- Juvenile fiction"],"bookshelves":[],"languages":["en"],"copyright":false,"media_type":"Text","formats":{"text/html":"https://www.gutenberg.org/ebooks/71571.html.images","application/epub+zip":"https://www.gutenberg.org/ebooks/71571.epub3.images","application/x-mobipocket-ebook":"https://www.gutenberg.org/ebooks/71571.kf8.images","text/plain; charset=us-ascii":"https://www.gutenberg.org/ebooks/71571.txt.utf-8","application/rdf+xml":"https://www.gutenberg.org/ebooks/71571.rdf","image/jpeg":"https://www.gutenberg.org/cache/epub/71571/pg71571.cover.medium.jpg","application/octet-stream":"https://www.gutenberg.org/files/71571/71571-h.zip"},"download_count":18},{"id":896,"title":"The Jubilee of the Constitution: Delivered at New York, April 30, 1839, Before the New York Historical Society","authors":[{"name":"Adams, John Quincy","birth_year":1767,"death_year":1848}],"translators":[],"subjects":["United States -- Politics and government -- 1775-1783","United States -- Politics and government -- 1783-1789","United States. Constitution","Washington, George, 1732-1799 -- Anniversaries, etc."],"bookshelves":[],"languages":["en"],"copyright":false,"media_type":"Text","formats":{"text/html":"https://www.gutenberg.org/ebooks/896.html.images","text/html; charset=us-ascii":"https://www.gutenberg.org/files/896/896-h/896-h.htm","application/epub+zip":"https://www.gutenberg.org/ebooks/896.epub3.images","application/x-mobipocket-ebook":"https://www.gutenberg.org/ebooks/896.kf8.images","text/plain; charset=us-ascii":"https://www.gutenberg.org/ebooks/896.txt.utf-8","application/rdf+xml":"https://www.gutenberg.org/ebooks/896.rdf","image/jpeg":"https://www.gutenberg.org/cache/epub/896/pg896.cover.medium.jpg","application/octet-stream":"https://www.gutenberg.org/cache/epub/896/pg896-h.zip"},"download_count":17},{"id":1117,"title":"Second Part of King Henry IV","authors":[{"name":"Shakespeare, William","birth_year":1564,"death_year":1616}],"translators":[],"subjects":["Great Britain -- History -- Henry IV, 1399-1413 -- Drama","Henry IV, King of England, 1367-1413 -- Drama","Historical drama"],"bookshelves":[],"languages":["en"],"copyright":false,"media_type":"Text","formats":{"text/html":"https://www.gutenberg.org/ebooks/1117.html.images","application/epub+zip":"https://www.gutenberg.org/ebooks/1117.epub3.images","application/x-mobipocket-ebook":"https://www.gutenberg.org/ebooks/1117.kf8.images","text/plain; charset=us-ascii":"https://www.gutenberg.org/ebooks/1117.txt.utf-8","application/rdf+xml":"https://www.gutenberg.org/ebooks/1117.rdf","image/jpeg":"https://www.gutenberg.org/cache/epub/1117/pg1117.cover.medium.jpg","application/octet-stream":"https://www.gutenberg.org/cache/epub/1117/pg1117-h.zip"},"download_count":17},{"id":1201,"title":"An Essay on the Trial By Jury","authors":[{"name":"Spooner, Lysander","birth_year":1808,"death_year":1887}],"translators":[],"subjects":["Jury -- Great Britain","Jury -- United States"],"bookshelves":[],"languages":["en"],"copyright":false,"media_type":"Text","formats":{"text/html":"https://www.gutenberg.org/ebooks/1201.html.images","application/epub+zip":"https://www.gutenberg.org/ebooks/1201.epub3.images","application/x-mobipocket-ebook":"https://www.gutenberg.org/ebooks/1201.kf8.images","text/plain; charset=us-ascii":"https://www.gutenberg.org/ebooks/1201.txt.utf-8","application/rdf+xml":"https://www.gutenberg.org/ebooks/1201.rdf","image/jpeg":"https://www.gutenberg.org/cache/epub/1201/pg1201.cover.medium.jpg","application/octet-stream":"https://www.gutenberg.org/cache/epub/1201/pg1201-h.zip"},"download_count":17},{"id":1348,"title":"A Master's Degree","authors":[{"name":"McCarter, Margaret Hill","birth_year":1860,"death_year":1938}],"translators":[],"subjects":["College teachers -- Fiction","Didactic fiction"],"bookshelves":[],"languages":["en"],"copyright":false,"media_type":"Text","formats":{"text/html":"https://www.gutenberg.org/ebooks/1348.html.images","text/html; charset=utf-8":"https://www.gutenberg.org/files/1348/1348-h/1348-h.htm","application/epub+zip":"https://www.gutenberg.org/ebooks/1348.epub3.images","application/x-mobipocket-ebook":"https://www.gutenberg.org/ebooks/1348.kf8.images","text/plain; charset=us-ascii":"https://www.gutenberg.org/ebooks/1348.txt.utf-8","text/plain; charset=utf-8":"https://www.gutenberg.org/files/1348/1348-0.txt","application/rdf+xml":"https://www.gutenberg.org/ebooks/1348.rdf","image/jpeg":"https://www.gutenberg.org/cache/epub/1348/pg1348.cover.medium.jpg","application/octet-stream":"https://www.gutenberg.org/cache/epub/1348/pg1348-h.zip"},"download_count":17},{"id":1367,"title":"Findelkind","authors":[{"name":"Ouida","birth_year":1839,"death_year":1908}],"translators":[],"subjects":["Children's stories","Domestic fiction","Grandfathers -- Juvenile fiction","Orphans -- Juvenile fiction","Shepherds -- Juvenile fiction"],"bookshelves":[],"languages":["en"],"copyright":false,"media_type":"Text","formats":{"text/html":"https://www.gutenberg.org/ebooks/1367.html.images","text/html; charset=us-ascii":"https://www.gutenberg.org/files/1367/1367-h/1367-h.htm","application/epub+zip":"https://www.gutenberg.org/ebooks/1367.epub3.images","application/x-mobipocket-ebook":"https://www.gutenberg.org/ebooks/1367.kf8.images","text/plain; charset=us-ascii":"https://www.gutenberg.org/ebooks/1367.txt.utf-8","application/rdf+xml":"https://www.gutenberg.org/ebooks/1367.rdf","image/jpeg":"https://www.gutenberg.org/cache/epub/1367/pg1367.cover.medium.jpg","application/octet-stream":"https://www.gutenberg.org/cache/epub/1367/pg1367-h.zip"},"download_count":17},{"id":1773,"title":"Two Gentlemen of Verona","authors":[{"name":"Shakespeare, William","birth_year":1564,"death_year":1616}],"translators":[],"subjects":["Comedies","Exiles -- Drama","Triangles (Interpersonal relations) -- Drama","Verona (Italy) -- Drama"],"bookshelves":[],"languages":["en"],"copyright":false,"media_type":"Text","formats":{"text/html":"https://www.gutenberg.org/ebooks/1773.html.images","application/epub+zip":"https://www.gutenberg.org/ebooks/1773.epub3.images","application/x-mobipocket-ebook":"https://www.gutenberg.org/ebooks/1773.kf8.images","text/plain; charset=us-ascii":"https://www.gutenberg.org/ebooks/1773.txt.utf-8","application/rdf+xml":"https://www.gutenberg.org/ebooks/1773.rdf","image/jpeg":"https://www.gutenberg.org/cache/epub/1773/pg1773.cover.medium.jpg","application/octet-stream":"https://www.gutenberg.org/cache/epub/1773/pg1773-h.zip"},"download_count":17},{"id":1893,"title":"Song and Legend from the Middle Ages","authors":[],"translators":[],"subjects":["Literature, Medieval -- History and criticism","Literature, Medieval -- Translations into English"],"bookshelves":[],"languages":["en"],"copyright":false,"media_type":"Text","formats":{"text/html":"https://www.gutenberg.org/ebooks/1893.html.images","application/epub+zip":"https://www.gutenberg.org/ebooks/1893.epub3.images","application/x-mobipocket-ebook":"https://www.gutenberg.org/ebooks/1893.kf8.images","text/plain; charset=us-ascii":"https://www.gutenberg.org/ebooks/1893.txt.utf-8","application/rdf+xml":"https://www.gutenberg.org/ebooks/1893.rdf","image/jpeg":"https://www.gutenberg.org/cache/epub/1893/pg1893.cover.medium.jpg","application/octet-stream":"https://www.gutenberg.org/cache/epub/1893/pg1893-h.zip"},"download_count":17},{"id":2239,"title":"The Comedy of Errors","authors":[{"name":"Shakespeare, William","birth_year":1564,"death_year":1616}],"translators":[],"subjects":["Brothers -- Drama","Comedies","Greece -- Drama","Mistaken identity -- Drama","Shipwreck victims -- Drama","Twins -- Drama"],"bookshelves":[],"languages":["en"],"copyright":false,"media_type":"Text","formats":{"text/html":"https://www.gutenberg.org/ebooks/2239.html.images","application/epub+zip":"https://www.gutenberg.org/ebooks/2239.epub3.images","application/x-mobipocket-ebook":"https://www.gutenberg.org/ebooks/2239.kf8.images","text/plain; charset=us-ascii":"https://www.gutenberg.org/ebooks/2239.txt.utf-8","application/rdf+xml":"https://www.gutenberg.org/ebooks/2239.rdf","image/jpeg":"https://www.gutenberg.org/cache/epub/2239/pg2239.cover.medium.jpg","application/octet-stream":"https://www.gutenberg.org/cache/epub/2239/pg2239-h.zip"},"download_count":17},{"id":2495,"title":"Susy, a Story of the Plains","authors":[{"name":"Harte, Bret","birth_year":1836,"death_year":1902}],"translators":[],"subjects":["American fiction -- 19th century"],"bookshelves":[],"languages":["en"],"copyright":false,"media_type":"Text","formats":{"text/html":"https://www.gutenberg.org/ebooks/2495.html.images","text/html; charset=utf-8":"https://www.gutenberg.org/files/2495/2495-h/2495-h.htm","application/epub+zip":"https://www.gutenberg.org/ebooks/2495.epub3.images","application/x-mobipocket-ebook":"https://www.gutenberg.org/ebooks/2495.kf8.images","text/plain; charset=us-ascii":"https://www.gutenberg.org/ebooks/2495.txt.utf-8","text/plain; charset=utf-8":"https://www.gutenberg.org/files/2495/2495-0.txt","application/rdf+xml":"https://www.gutenberg.org/ebooks/2495.rdf","image/jpeg":"https://www.gutenberg.org/cache/epub/2495/pg2495.cover.medium.jpg","application/octet-stream":"https://www.gutenberg.org/cache/epub/2495/pg2495-h.zip"},"download_count":17},{"id":2558,"title":"Poems","authors":[{"name":"Morris, George Pope","birth_year":1802,"death_year":1864}],"translators":[],"subjects":["American poetry"],"bookshelves":[],"languages":["en"],"copyright":false,"media_type":"Text","formats":{"text/html":"https://www.gutenberg.org/ebooks/2558.html.images","application/epub+zip":"https://www.gutenberg.org/ebooks/2558.epub3.images","application/x-mobipocket-ebook":"https://www.gutenberg.org/ebooks/2558.kf8.images","text/plain; charset=us-ascii":"https://www.gutenberg.org/ebooks/2558.txt.utf-8","application/rdf+xml":"https://www.gutenberg.org/ebooks/2558.rdf","image/jpeg":"https://www.gutenberg.org/cache/epub/2558/pg2558.cover.medium.jpg","application/octet-stream":"https://www.gutenberg.org/cache/epub/2558/pg2558-h.zip"},"download_count":17},{"id":2936,"title":"Geological Contemporaneity and Persistent Types of Life","authors":[{"name":"Huxley, Thomas Henry","birth_year":1825,"death_year":1895}],"translators":[],"subjects":["Fossils","Life (Biology)"],"bookshelves":[],"languages":["en"],"copyright":false,"media_type":"Text","formats":{"text/html":"https://www.gutenberg.org/ebooks/2936.html.images","text/html; charset=us-ascii":"https://www.gutenberg.org/files/2936/2936-h/2936-h.htm","application/epub+zip":"https://www.gutenberg.org/ebooks/2936.epub3.images","application/x-mobipocket-ebook":"https://www.gutenberg.org/ebooks/2936.kf8.images","text/plain; charset=us-ascii":"https://www.gutenberg.org/ebooks/2936.txt.utf-8","application/rdf+xml":"https://www.gutenberg.org/ebooks/2936.rdf","image/jpeg":"https://www.gutenberg.org/cache/epub/2936/pg2936.cover.medium.jpg","application/octet-stream":"https://www.gutenberg.org/cache/epub/2936/pg2936-h.zip"},"download_count":17},{"id":2937,"title":"Coral and Coral Reefs","authors":[{"name":"Huxley, Thomas Henry","birth_year":1825,"death_year":1895}],"translators":[],"subjects":["Coral reefs and islands"],"bookshelves":[],"languages":["en"],"copyright":false,"media_type":"Text","formats":{"text/html":"https://www.gutenberg.org/ebooks/2937.html.images","text/html; charset=us-ascii":"https://www.gutenberg.org/files/2937/2937-h/2937-h.htm","application/epub+zip":"https://www.gutenberg.org/ebooks/2937.epub3.images","application/x-mobipocket-ebook":"https://www.gutenberg.org/ebooks/2937.kf8.images","text/plain; charset=us-ascii":"https://www.gutenberg.org/ebooks/2937.txt.utf-8","application/rdf+xml":"https://www.gutenberg.org/ebooks/2937.rdf","image/jpeg":"https://www.gutenberg.org/cache/epub/2937/pg2937.cover.medium.jpg","application/octet-stream":"https://www.gutenberg.org/cache/epub/2937/pg2937-h.zip"},"download_count":17},{"id":2969,"title":"The Memoirs of Jacques Casanova de Seingalt, 1725-1798. Volume 19: Back Again to Paris","authors":[{"name":"Casanova, Giacomo","birth_year":1725,"death_year":1798}],"translators":[{"name":"Machen, Arthur","birth_year":1863,"death_year":1947}],"subjects":["Casanova, Giacomo, 1725-1798","Europe -- History -- 18th century -- Biography"],"bookshelves":[],"languages":["en"],"copyright":false,"media_type":"Text","formats":{"text/html":"https://www.gutenberg.org/ebooks/2969.html.images","application/epub+zip":"https://www.gutenberg.org/ebooks/2969.epub3.images","application/x-mobipocket-ebook":"https://www.gutenberg.org/ebooks/2969.kf8.images","text/plain; charset=us-ascii":"https://www.gutenberg.org/ebooks/2969.txt.utf-8","application/rdf+xml":"https://www.gutenberg.org/ebooks/2969.rdf","image/jpeg":"https://www.gutenberg.org/cache/epub/2969/pg2969.cover.medium.jpg","application/octet-stream":"https://www.gutenberg.org/cache/epub/2969/pg2969-h.zip"},"download_count":17},{"id":3113,"title":"Some Causes of the Prevailing Discontent","authors":[{"name":"Warner, Charles Dudley","birth_year":1829,"death_year":1900}],"translators":[],"subjects":["Essays"],"bookshelves":[],"languages":["en"],"copyright":false,"media_type":"Text","formats":{"text/html":"https://www.gutenberg.org/ebooks/3113.html.images","application/epub+zip":"https://www.gutenberg.org/ebooks/3113.epub3.images","application/x-mobipocket-ebook":"https://www.gutenberg.org/ebooks/3113.kf8.images","text/plain; charset=us-ascii":"https://www.gutenberg.org/ebooks/3113.txt.utf-8","application/rdf+xml":"https://www.gutenberg.org/ebooks/3113.rdf","image/jpeg":"https://www.gutenberg.org/cache/epub/3113/pg3113.cover.medium.jpg","application/octet-stream":"https://www.gutenberg.org/cache/epub/3113/pg3113-h.zip"},"download_count":17},{"id":3346,"title":"The Wandering Jew — Volume 08","authors":[{"name":"Sue, Eugène","birth_year":1804,"death_year":1857}],"translators":[],"subjects":["France -- History -- Louis Philippe, 1830-1848 -- Fiction","Historical fiction","Inheritance and succession -- Fiction","Jesuits -- Fiction","Wandering Jew -- Fiction"],"bookshelves":[],"languages":["en"],"copyright":false,"media_type":"Text","formats":{"text/html":"https://www.gutenberg.org/ebooks/3346.html.images","application/epub+zip":"https://www.gutenberg.org/ebooks/3346.epub3.images","application/x-mobipocket-ebook":"https://www.gutenberg.org/ebooks/3346.kf8.images","text/plain; charset=us-ascii":"https://www.gutenberg.org/ebooks/3346.txt.utf-8","application/rdf+xml":"https://www.gutenberg.org/ebooks/3346.rdf","image/jpeg":"https://www.gutenberg.org/cache/epub/3346/pg3346.cover.medium.jpg","application/octet-stream":"https://www.gutenberg.org/cache/epub/3346/pg3346-h.zip"},"download_count":17}]}