{"count":58808,"next":"http://129.241.150.113:8000/books/?languages=en&page=988","previous":"http://129.241.150.113:8000/books/?languages=en&page=986","results":[{"id":71146,"title":"Phronsie Pepper : $b The youngest of the \"Five Little Peppers\"","authors":[{"name":"Sidney, Margaret","birth_year":1844,"death_year":1924}],"translators":[],"subjects":["Aunts -- Juvenile fiction","Children -- Conduct of life -- Juvenile fiction","Conduct of life -- Juvenile fiction","Courtship -- Juvenile fiction","Dolls -- Juvenile fiction","Families -- Juvenile fiction","Five Little Peppers (Fictitious characters) -- Juvenile fiction","Poor -- Juvenile fiction","Siblings -- Juvenile fiction"],"bookshelves":[],"languages":["en"],"copyright":false,"media_type":"Text","formats":{"text/html":"https://www.gutenberg.org/ebooks/71146.html.images","application/epub+zip":"https://www.gutenberg.org/ebooks/71146.epub3.images","application/x-mobipocket-ebook":"https://www.gutenberg.org/ebooks/71146.kf8.images","text/plain; charset=us-ascii":"https://www.gutenberg.org/ebooks/71146.txt.utf-8","application/rdf+xml":"https://www.gutenberg.org/ebooks/71146.rdf","image/jpeg":"https://www.gutenberg.org/cache/epub/71146/pg71146.cover.medium.jpg","application/octet-stream":"https://www.gutenberg.org/files/71146/71146-0.zip"},"download_count":37},{"id":71160,"title":"Homemade candy—sweet and dandy","authors":[{"name":"CPC International. Best Foods Division","birth_year":null,"death_year":null}],"translators":[],"subjects":["Confectionery","Cookbooks"],"bookshelves":[],"languages":["en"],"copyright":false,"media_type":"Text","formats":{"text/html":"https://www.gutenberg.org/ebooks/71160.html.images","application/epub+zip":"https://www.gutenberg.org/ebooks/71160.epub3.images","application/x-mobipocket-ebook":"https://www.gutenberg.org/ebooks/71160.kf8.images","text/plain; charset=us-ascii":"https://www.gutenberg.org/ebooks/71160.txt.utf-8","application/rdf+xml":"https://www.gutenberg.org/ebooks/71160.rdf","image/jpeg":"https://www.gutenberg.org/cache/epub/71160/pg71160.cover.medium.jpg","application/octet-stream":"https://www.gutenberg.org/files/71160/71160-0.zip"},"download_count":37},{"id":71221,"title":"A history of tithes","authors":[{"name":"Clarke, Henry William","birth_year":null,"death_year":null}],"translators":[],"subjects":["Tithes -- History"],"bookshelves":[],"languages":["en"],"copyright":false,"media_type":"Text","formats":{"text/html":"https://www.gutenberg.org/ebooks/71221.html.images","application/epub+zip":"https://www.gutenberg.org/ebooks/71221.epub3.images","application/x-mobipocket-ebook":"https://www.gutenberg.org/ebooks/71221.kf8.images","text/plain; charset=us-ascii":"https://www.gutenberg.org/ebooks/71221.txt.utf-8","application/rdf+xml":"https://www.gutenberg.org/ebooks/71221.rdf","image/jpeg":"https://www.gutenberg.org/cache/epub/71221/pg71221.cover.medium.jpg","application/octet-stream":"https://www.gutenberg.org/files/71221/71221-0.zip"},"download_count":37},{"id":71276,"title":"The book of antelopes, vol. 4 (of 4)","authors":[{"name":"Sclater, Philip Lutley","birth_year":1829,"death_year":1913},{"name":"Thomas, Oldfield","birth_year":1858,"death_year":1929}],"translators":[],"subjects":["Antelopes"],"bookshelves":[],"languages":["en"],"copyright":false,"media_type":"Text","formats":{"text/html":"https://www.gutenberg.org/ebooks/71276.html.images","application/epub+zip":"https://www.gutenberg.org/ebooks/71276.epub3.images","application/x-mobipocket-ebook":"https://www.gutenberg.org/ebooks/71276.kf8.images","text/plain; charset=us-ascii":"https://www.gutenberg.org/ebooks/71276.txt.utf-8","application/rdf+xml":"https://www.gutenberg.org/ebooks/71276.rdf","image/jpeg":"https://www.gutenberg.org/cache/epub/71276/pg71276.cover.medium.jpg","application/octet-stream":"https://www.gutenberg.org/files/71276/71276-0.zip"},"download_count":37},{"id":71343,"title":"The answering voice : $b one hundred love lyrics by women","authors":[],"translators":[],"subjects":["Love poetry, American","Love poetry, English"],"bookshelves":[],"languages":["en"],"copyright":false,"media_type":"Text","formats":{"text/html":"https://www.gutenberg.org/ebooks/71343.html.images","application/epub+zip":"https://www.gutenberg.org/ebooks/71343.epub3.images","application/x-mobipocket-ebook":"https://www.gutenberg.org/ebooks/71343.kf8.images","text/plain; charset=us-ascii":"https://www.gutenberg.org/ebooks/71343.txt.utf-8","application/rdf+xml":"https://www.gutenberg.org/ebooks/71343.rdf","image/jpeg":"https://www.gutenberg.org/cache/epub/71343/pg71343.cover.medium.jpg","application/octet-stream":"https://www.gutenberg.org/files/71343/71343-0.zip"},"download_count":37},{"id":71347,"title":"Wrecked on the Feejees","authors":[{"name":"Cary, William S.","birth_year":1804,"death_year":1883}],"translators":[],"subjects":["Cary, William S.","Fiji -- Description and travel"],"bookshelves":[],"languages":["en"],"copyright":false,"media_type":"Text","formats":{"text/html":"https://www.gutenberg.org/ebooks/71347.html.images","application/epub+zip":"https://www.gutenberg.org/ebooks/71347.epub3.images","application/x-mobipocket-ebook":"https://www.gutenberg.org/ebooks/71347.kf8.images","text/plain; charset=us-ascii":"https://www.gutenberg.org/ebooks/71347.txt.utf-8","application/rdf+xml":"https://www.gutenberg.org/ebooks/71347.rdf","image/jpeg":"https://www.gutenberg.org/cache/epub/71347/pg71347.cover.medium.jpg","application/octet-stream":"https://www.gutenberg.org/files/71347/71347-0.zip"},"download_count":37},{"id":71379,"title":"Mountain life in Algeria","authors":[{"name":"Barclay, Edgar","birth_year":1842,"death_year":1913}],"translators":[],"subjects":["Algeria -- Description and travel","Algeria -- Social life and customs"],"bookshelves":[],"languages":["en"],"copyright":false,"media_type":"Text","formats":{"text/html":"https://www.gutenberg.org/ebooks/71379.html.images","application/epub+zip":"https://www.gutenberg.org/ebooks/71379.epub3.images","application/x-mobipocket-ebook":"https://www.gutenberg.org/ebooks/71379.kf8.images","text/plain; charset=us-ascii":"https://www.gutenberg.org/ebooks/71379.txt.utf-8","application/rdf+xml":"https://www.gutenberg.org/ebooks/71379.rdf","image/jpeg":"https://www.gutenberg.org/cache/epub/71379/pg71379.cover.medium.jpg","application/octet-stream":"https://www.gutenberg.org/files/71379/71379-h.zip"},"download_count":37},{"id":71401,"title":"Ran away from the Dutch : $b Or, Borneo from South to North","authors":[{"name":"Perelaer, M. T. H. (Michael Theophile Hubert)","birth_year":1831,"death_year":1901}],"translators":[{"name":"Blok, Maurice","birth_year":null,"death_year":null}],"subjects":["Dayak (Bornean people) -- Fiction"],"bookshelves":[],"languages":["en"],"copyright":false,"media_type":"Text","formats":{"text/html":"https://www.gutenberg.org/ebooks/71401.html.images","application/epub+zip":"https://www.gutenberg.org/ebooks/71401.epub3.images","application/x-mobipocket-ebook":"https://www.gutenberg.org/ebooks/71401.kf8.images","text/plain; charset=us-ascii":"https://www.gutenberg.org/ebooks/71401.txt.utf-8","application/rdf+xml":"https://www.gutenberg.org/ebooks/71401.rdf","image/jpeg":"https://www.gutenberg.org/cache/epub/71401/pg71401.cover.medium.jpg","application/octet-stream":"https://www.gutenberg.org/files/71401/71401-h.zip"},"download_count":37},{"id":71439,"title":"Temptations","authors":[{"name":"Pinski, David","birth_year":1872,"death_year":1959}],"translators":[{"name":"Goldberg, Isaac","birth_year":1887,"death_year":1938}],"subjects":["Jewish fiction","Jews -- Fiction","Pinski, David, 1872-1959 -- Translations into English","Short stories, Jewish"],"bookshelves":[],"languages":["en"],"copyright":false,"media_type":"Text","formats":{"text/html":"https://www.gutenberg.org/ebooks/71439.html.images","application/epub+zip":"https://www.gutenberg.org/ebooks/71439.epub3.images","application/x-mobipocket-ebook":"https://www.gutenberg.org/ebooks/71439.kf8.images","text/plain; charset=us-ascii":"https://www.gutenberg.org/ebooks/71439.txt.utf-8","application/rdf+xml":"https://www.gutenberg.org/ebooks/71439.rdf","image/jpeg":"https://www.gutenberg.org/cache/epub/71439/pg71439.cover.medium.jpg","application/octet-stream":"https://www.gutenberg.org/files/71439/71439-h.zip"},"download_count":37},{"id":71567,"title":"A new graft on the family tree","authors":[{"name":"Pansy","birth_year":1841,"death_year":1930}],"translators":[],"subjects":["Children -- Conduct of life -- Juvenile fiction","Christian life -- Juvenile fiction","Clergy -- Juvenile fiction","Conduct of life -- Juvenile fiction","Death -- Juvenile fiction","Family -- Juvenile fiction","Fishing -- Juvenile fiction","Good and evil -- Juvenile fiction","Sisters -- Juvenile fiction","Sunday -- Juvenile fiction"],"bookshelves":[],"languages":["en"],"copyright":false,"media_type":"Text","formats":{"text/html":"https://www.gutenberg.org/ebooks/71567.html.images","application/epub+zip":"https://www.gutenberg.org/ebooks/71567.epub3.images","application/x-mobipocket-ebook":"https://www.gutenberg.org/ebooks/71567.kf8.images","text/plain; charset=us-ascii":"https://www.gutenberg.org/ebooks/71567.txt.utf-8","application/rdf+xml":"https://www.gutenberg.org/ebooks/71567.rdf","image/jpeg":"https://www.gutenberg.org/cache/epub/71567/pg71567.cover.medium.jpg","application/octet-stream":"https://www.gutenberg.org/files/71567/71567-h.zip"},"download_count":37},{"id":71597,"title":"Tattle-tales of Cupid","authors":[{"name":"Ford, Paul Leicester","birth_year":1865,"death_year":1902}],"translators":[],"subjects":["American drama -- 19th century","Romance fiction, American","United States -- Social life and customs -- 19th century -- Fiction"],"bookshelves":[],"languages":["en"],"copyright":false,"media_type":"Text","formats":{"text/html":"https://www.gutenberg.org/ebooks/71597.html.images","application/epub+zip":"https://www.gutenberg.org/ebooks/71597.epub3.images","application/x-mobipocket-ebook":"https://www.gutenberg.org/ebooks/71597.kf8.images","text/plain; charset=us-ascii":"https://www.gutenberg.org/ebooks/71597.txt.utf-8","application/rdf+xml":"https://www.gutenberg.org/ebooks/71597.rdf","image/jpeg":"https://www.gutenberg.org/cache/epub/71597/pg71597.cover.medium.jpg","application/octet-stream":"https://www.gutenberg.org/files/71597/71597-h.zip"},"download_count":37},{"id":71598,"title":"Danger Cliff, and other stories","authors":[{"name":"Pansy","birth_year":1841,"death_year":1930}],"translators":[],"subjects":["Children's stories"],"bookshelves":[],"languages":["en"],"copyright":false,"media_type":"Text","formats":{"text/html":"https://www.gutenberg.org/ebooks/71598.html.images","application/epub+zip":"https://www.gutenberg.org/ebooks/71598.epub3.images","application/x-mobipocket-ebook":"https://www.gutenberg.org/ebooks/71598.kf8.images","text/plain; charset=us-ascii":"https://www.gutenberg.org/ebooks/71598.txt.utf-8","application/rdf+xml":"https://www.gutenberg.org/ebooks/71598.rdf","image/jpeg":"https://www.gutenberg.org/cache/epub/71598/pg71598.cover.medium.jpg","application/octet-stream":"https://www.gutenberg.org/files/71598/71598-h.zip"},"download_count":37},{"id":72050,"title":"London in the Jacobite times, Volume II","authors":[{"name":"Doran, Dr. (John)","birth_year":1807,"death_year":1878}],"translators":[],"subjects":["London (England) -- History -- 18th century"],"bookshelves":[],"languages":["en"],"copyright":false,"media_type":"Text","formats":{"text/html":"https://www.gutenberg.org/ebooks/72050.html.images","application/epub+zip":"https://www.gutenberg.org/ebooks/72050.epub3.images","application/x-mobipocket-ebook":"https://www.gutenberg.org/ebooks/72050.kf8.images","text/plain; charset=us-ascii":"https://www.gutenberg.org/ebooks/72050.txt.utf-8","application/rdf+xml":"https://www.gutenberg.org/ebooks/72050.rdf","image/jpeg":"https://www.gutenberg.org/cache/epub/72050/pg72050.cover.medium.jpg","application/octet-stream":"https://www.gutenberg.org/cache/epub/72050/pg72050-h.zip"},"download_count":37},{"id":72052,"title":"The Cambridge natural history, Vol. 05 (of 10)","authors":[{"name":"Sedgwick, Adam","birth_year":1854,"death_year":1913},{"name":"Sharp, David","birth_year":1840,"death_year":1922},{"name":"Sinclair, F. G. (Frederick Granville)","birth_year":1858,"death_year":1914}],"translators":[],"subjects":["Animals"],"bookshelves":[],"languages":["en"],"copyright":false,"media_type":"Text","formats":{"text/html":"https://www.gutenberg.org/ebooks/72052.html.images","application/epub+zip":"https://www.gutenberg.org/ebooks/72052.epub3.images","application/x-mobipocket-ebook":"https://www.gutenberg.org/ebooks/72052.kf8.images","text/plain; charset=us-ascii":"https://www.gutenberg.org/ebooks/72052.txt.utf-8","application/rdf+xml":"https://www.gutenberg.org/ebooks/72052.rdf","image/jpeg":"https://www.gutenberg.org/cache/epub/72052/pg72052.cover.medium.jpg","application/octet-stream":"https://www.gutenberg.org/cache/epub/72052/pg72052-h.zip"},"download_count":37},{"id":72058,"title":"Amos Judd","authors":[{"name":"Mitchell, John Ames","birth_year":1845,"death_year":1918}],"translators":[],"subjects":["East Indian Americans -- Fiction","Psychics -- Fiction"],"bookshelves":[],"languages":["en"],"copyright":false,"media_type":"Text","formats":{"text/html":"https://www.gutenberg.org/ebooks/72058.html.images","application/epub+zip":"https://www.gutenberg.org/ebooks/72058.epub3.images","application/x-mobipocket-ebook":"https://www.gutenberg.org/ebooks/72058.kf8.images","text/plain; charset=us-ascii":"https://www.gutenberg.org/ebooks/72058.txt.utf-8","application/rdf+xml":"https://www.gutenberg.org/ebooks/72058.rdf","image/jpeg":"https://www.gutenberg.org/cache/epub/72058/pg72058.cover.medium.jpg","application/octet-stream":"https://www.gutenberg.org/cache/epub/72058/pg72058-h.zip"},"download_count":37},{"id":72196,"title":"Married or single? Vol. 3 (of 3)","authors":[{"name":"Croker, B. M. (Bithia Mary)","birth_year":1848,"death_year":1920}],"translators":[],"subjects":["English fiction -- Irish authors"],"bookshelves":[],"languages":["en"],"copyright":false,"media_type":"Text","formats":{"text/html":"https://www.gutenberg.org/ebooks/72196.html.images","application/epub+zip":"https://www.gutenberg.org/ebooks/72196.epub3.images","application/x-mobipocket-ebook":"https://www.gutenberg.org/ebooks/72196.kf8.images","text/plain; charset=us-ascii":"https://www.gutenberg.org/ebooks/72196.txt.utf-8","application/rdf+xml":"https://www.gutenberg.org/ebooks/72196.rdf","image/jpeg":"https://www.gutenberg.org/cache/epub/72196/pg72196.cover.medium.jpg","application/octet-stream":"https://www.gutenberg.org/cache/epub/72196/pg72196-h.zip"},"download_count":37},{"id":235,"title":"William Gibson Interviewed","authors":[{"name":"Salza, Giuseppe","birth_year":null,"death_year":null}],"translators":[],"subjects":["Gibson, William, 1914-2008"],"bookshelves":[],"languages":["en"],"copyright":true,"media_type":"Text","formats":{"text/html":"https://www.gutenberg.org/ebooks/235.html.images","application/epub+zip":"https://www.gutenberg.org/ebooks/235.epub3.images","application/x-mobipocket-ebook":"https://www.gutenberg.org/ebooks/235.kf8.images","text/plain; charset=us-ascii":"https://www.gutenberg.org/ebooks/235.txt.utf-8","application/rdf+xml":"https://www.gutenberg.org/ebooks/235.rdf","image/jpeg":"https://www.gutenberg.org/cache/epub/235/pg235.cover.medium.jpg","application/octet-stream":"https://www.gutenberg.org/cache/epub/235/pg235-h.zip"},"download_count":36},{"id":406,"title":"Appreciations of Richard Harding Davis","authors":[{"name":"Various","birth_year":null,"death_year":null}],"translators":[],"subjects":["Authors, American -- 19th century -- Biography","Authors, American -- 20th century -- Biography","Davis, Richard Harding, 1864-1916"],"bookshelves":[],"languages":["en"],"copyright":false,"media_type":"Text","formats":{"text/html":"https://www.gutenberg.org/ebooks/406.html.images","text/html; charset=iso-8859-1":"https://www.gutenberg.org/files/406/406-h/406-h.htm","application/epub+zip":"https://www.gutenberg.org/ebooks/406.epub3.images","application/x-mobipocket-ebook":"https://www.gutenberg.org/ebooks/406.kf8.images","text/plain; charset=us-ascii":"https://www.gutenberg.org/ebooks/406.txt.utf-8","application/rdf+xml":"https://www.gutenberg.org/ebooks/406.rdf","image/jpeg":"https://www.gutenberg.org/cache/epub/406/pg406.cover.medium.jpg","application/octet-stream":"https://www.gutenberg.org/cache/epub/406/pg406-h.zip"},"download_count":36},{"id":428,"title":"Frivolous Cupid","authors":[{"name":"Hope, Anthony","birth_year":1863,"death_year":1933}],"translators":[],"subjects":["Man-woman relationships -- Fiction","Short stories, English"],"bookshelves":[],"languages":["en"],"copyright":false,"media_type":"Text","formats":{"text/html":"https://www.gutenberg.org/ebooks/428.html.images","text/html; charset=iso-8859-1":"https://www.gutenberg.org/files/428/428-h/428-h.htm","application/epub+zip":"https://www.gutenberg.org/ebooks/428.epub3.images","application/x-mobipocket-ebook":"https://www.gutenberg.org/ebooks/428.kf8.images","text/plain; charset=us-ascii":"https://www.gutenberg.org/ebooks/428.txt.utf-8","application/rdf+xml":"https://www.gutenberg.org/ebooks/428.rdf","image/jpeg":"https://www.gutenberg.org/cache/epub/428/pg428.cover.medium.jpg","application/octet-stream":"https://www.gutenberg.org/cache/epub/428/pg428-h.zip"},"download_count":36},{"id":567,"title":"The Complete Works of Brann, the Iconoclast — Volume 01","authors":[{"name":"Brann, William Cowper","birth_year":1855,"death_year":1898}],"translators":[],"subjects":["Brann, William Cowper, 1855-1898","Essays","Reformers"],"bookshelves":[],"languages":["en"],"copyright":false,"media_type":"Text","formats":{"text/html":"https://www.gutenberg.org/ebooks/567.html.images","application/epub+zip":"https://www.gutenberg.org/ebooks/567.epub3.images","application/x-mobipocket-ebook":"https://www.gutenberg.org/ebooks/567.kf8.images","text/plain; charset=us-ascii":"https://www.gutenberg.org/ebooks/567.txt.utf-8","application/rdf+xml":"https://www.gutenberg.org/ebooks/567.rdf","image/jpeg":"https://www.gutenberg.org/cache/epub/567/pg567.cover.medium.jpg","application/octet-stream":"https://www.gutenberg.org/cache/epub/567/pg567-h.zip"},"download_count":36},{"id":613,"title":"The Constitution of the Empire of Japan, 1889","authors":[{"name":"Japan","birth_year":null,"death_year":null}],"translators":[],"subjects":["Constitutional law -- Japan","Japan -- Constitution"],"bookshelves":["Politics"],"languages":["en"],"copyright":false,"media_type":"Text","formats":{"text/html":"https://www.gutenberg.org/ebooks/613.html.images","application/epub+zip":"https://www.gutenberg.org/ebooks/613.epub3.images","application/x-mobipocket-ebook":"https://www.gutenberg.org/ebooks/613.kf8.images","text/plain; charset=us-ascii":"https://www.gutenberg.org/ebooks/613.txt.utf-8","application/rdf+xml":"https://www.gutenberg.org/ebooks/613.rdf","image/jpeg":"https://www.gutenberg.org/cache/epub/613/pg613.cover.medium.jpg","application/octet-stream":"https://www.gutenberg.org/cache/epub/613/pg613-h.zip"},"download_count":36},{"id":845,"title":"Poems of Henry Timrod; with Memoir","authors":[{"name":"Timrod, Henry","birth_year":1828,"death_year":1867}],"translators":[],"subjects":["American poetry -- 19th century","Timrod, Henry, 1828-1867","United States -- History -- Civil War, 1861-1865 -- Poetry -- Confederate"],"bookshelves":[],"languages":["en"],"copyright":false,"media_type":"Text","formats":{"text/html":"https://www.gutenberg.org/ebooks/845.html.images","text/html; charset=iso-8859-1":"https://www.gutenberg.org/files/845/845-h/845-h.htm","application/epub+zip":"https://www.gutenberg.org/ebooks/845.epub3.images","application/x-mobipocket-ebook":"https://www.gutenberg.org/ebooks/845.kf8.images","text/plain; charset=us-ascii":"https://www.gutenberg.org/ebooks/845.txt.utf-8","text/plain; charset=iso-8859-1":"https://www.gutenberg.org/files/845/845-8.txt","application/rdf+xml":"https://www.gutenberg.org/ebooks/845.rdf","image/jpeg":"https://www.gutenberg.org/cache/epub/845/pg845.cover.medium.jpg","application/octet-stream":"https://www.gutenberg.org/cache/epub/845/pg845-h.zip"},"download_count":36},{"id":867,"title":"Mrs. Korner Sins Her Mercies","authors":[{"name":"Jerome, Jerome K. (Jerome Klapka)","birth_year":1859,"death_year":1927}],"translators":[],"subjects":["Domestic fiction","Man-woman relationships -- Fiction","Short stories"],"bookshelves":[],"languages":["en"],"copyright":false,"media_type":"Text","formats":{"text/html":"https://www.gutenberg.org/ebooks/867.html.images","text/html; charset=utf-8":"https://www.gutenberg.org/files/867/867-h/867-h.htm","application/epub+zip":"https://www.gutenberg.org/ebooks/867.epub3.images","application/x-mobipocket-ebook":"https://www.gutenberg.org/ebooks/867.kf8.images","text/plain; charset=us-ascii":"https://www.gutenberg.org/ebooks/867.txt.utf-8","text/plain; charset=utf-8":"https://www.gutenberg.org/files/867/867-0.txt","application/rdf+xml":"https://www.gutenberg.org/ebooks/867.rdf","image/jpeg":"https://www.gutenberg.org/cache/epub/867/pg867.cover.medium.jpg","application/octet-stream":"https://www.gutenberg.org/cache/epub/867/pg867-h.zip"},"download_count":36},{"id":1006,"title":"Divine Comedy, Cary's Translation, Purgatory","authors":[{"name":"Dante Alighieri","birth_year":1265,"death_year":1321}],"translators":[{"name":"Cary, Henry Francis","birth_year":1772,"death_year":1844}],"subjects":["Epic poetry, Italian -- Translations into English","Italian poetry -- To 1400 -- Translations into English"],"bookshelves":["Italy"],"languages":["en"],"copyright":false,"media_type":"Text","formats":{"text/html":"https://www.gutenberg.org/ebooks/1006.html.images","application/epub+zip":"https://www.gutenberg.org/ebooks/1006.epub3.images","application/x-mobipocket-ebook":"https://www.gutenberg.org/ebooks/1006.kf8.images","text/plain; charset=us-ascii":"https://www.gutenberg.org/ebooks/1006.txt.utf-8","application/rdf+xml":"https://www.gutenberg.org/ebooks/1006.rdf","image/jpeg":"https://www.gutenberg.org/cache/epub/1006/pg1006.cover.medium.jpg","application/octet-stream":"https://www.gutenberg.org/files/1006/1006-0.zip"},"download_count":36},{"id":1318,"title":"The Twin Hells: A Thrilling Narrative of Life in the Kansas and Missouri Penitentiaries","authors":[{"name":"Reynolds, John N. (John Newton)","birth_year":null,"death_year":null}],"translators":[],"subjects":["Prisons -- Kansas","Prisons -- Missouri"],"bookshelves":[],"languages":["en"],"copyright":false,"media_type":"Text","formats":{"text/html":"https://www.gutenberg.org/ebooks/1318.html.images","text/html; charset=us-ascii":"https://www.gutenberg.org/files/1318/1318-h/1318-h.htm","application/epub+zip":"https://www.gutenberg.org/ebooks/1318.epub3.images","application/x-mobipocket-ebook":"https://www.gutenberg.org/ebooks/1318.kf8.images","text/plain; charset=us-ascii":"https://www.gutenberg.org/ebooks/1318.txt.utf-8","application/rdf+xml":"https://www.gutenberg.org/ebooks/1318.rdf","image/jpeg":"https://www.gutenberg.org/cache/epub/1318/pg1318.cover.medium.jpg","application/octet-stream":"https://www.gutenberg.org/cache/epub/1318/pg1318-h.zip"},"download_count":36},{"id":1335,"title":"The Ancien Régime","authors":[{"name":"Kingsley, Charles","birth_year":1819,"death_year":1875}],"translators":[],"subjects":["France -- History","France -- Politics and government","France -- Social conditions"],"bookshelves":[],"languages":["en"],"copyright":false,"media_type":"Text","formats":{"text/html":"https://www.gutenberg.org/ebooks/1335.html.images","application/epub+zip":"https://www.gutenberg.org/ebooks/1335.epub3.images","application/x-mobipocket-ebook":"https://www.gutenberg.org/ebooks/1335.kf8.images","text/plain; charset=us-ascii":"https://www.gutenberg.org/ebooks/1335.txt.utf-8","application/rdf+xml":"https://www.gutenberg.org/ebooks/1335.rdf","image/jpeg":"https://www.gutenberg.org/cache/epub/1335/pg1335.cover.medium.jpg","application/octet-stream":"https://www.gutenberg.org/cache/epub/1335/pg1335-h.zip"},"download_count":36},{"id":1454,"title":"Maitre Cornelius","authors":[{"name":"Balzac, Honoré de","birth_year":1799,"death_year":1850}],"translators":[{"name":"Wormeley, Katharine Prescott","birth_year":1830,"death_year":1908}],"subjects":["French fiction -- Translations into English","Historical fiction"],"bookshelves":[],"languages":["en"],"copyright":false,"media_type":"Text","formats":{"text/html":"https://www.gutenberg.org/ebooks/1454.html.images","text/html; charset=utf-8":"https://www.gutenberg.org/files/1454/1454-h/1454-h.htm","application/epub+zip":"https://www.gutenberg.org/ebooks/1454.epub3.images","application/x-mobipocket-ebook":"https://www.gutenberg.org/ebooks/1454.kf8.images","text/plain; charset=us-ascii":"https://www.gutenberg.org/ebooks/1454.txt.utf-8","text/plain; charset=utf-8":"https://www.gutenberg.org/files/1454/1454-0.txt","application/rdf+xml":"https://www.gutenberg.org/ebooks/1454.rdf","image/jpeg":"https://www.gutenberg.org/cache/epub/1454/pg1454.cover.medium.jpg","application/octet-stream":"https://www.gutenberg.org/cache/epub/1454/pg1454-h.zip"},"download_count":36},{"id":1464,"title":"Contributions to All The Year Round","authors":[],"translators":[],"subjects":["Essays"],"bookshelves":[],"languages":["en"],"copyright":false,"media_type":"Text","formats":{"text/html":"https://www.gutenberg.org/ebooks/1464.html.images","application/epub+zip":"https://www.gutenberg.org/ebooks/1464.epub3.images","application/x-mobipocket-ebook":"https://www.gutenberg.org/ebooks/1464.kf8.images","text/plain; charset=us-ascii":"https://www.gutenberg.org/ebooks/1464.txt.utf-8","text/plain; charset=utf-8":"https://www.gutenberg.org/files/1464/1464-0.txt","application/rdf+xml":"https://www.gutenberg.org/ebooks/1464.rdf","image/jpeg":"https://www.gutenberg.org/cache/epub/1464/pg1464.cover.medium.jpg","application/octet-stream":"https://www.gutenberg.org/cache/epub/1464/pg1464-h.zip"},"download_count":36},{"id":1551,"title":"A Cathedral Courtship","authors":[{"name":"Wiggin, Kate Douglas Smith","birth_year":1856,"death_year":1923}],"translators":[],"subjects":["Americans -- England -- Fiction","Diary fiction","England -- Description and travel -- Fiction","Love stories"],"bookshelves":[],"languages":["en"],"copyright":false,"media_type":"Text","formats":{"text/html":"https://www.gutenberg.org/ebooks/1551.html.images","application/epub+zip":"https://www.gutenberg.org/ebooks/1551.epub3.images","application/x-mobipocket-ebook":"https://www.gutenberg.org/ebooks/1551.kf8.images","text/plain; charset=us-ascii":"https://www.gutenberg.org/ebooks/1551.txt.utf-8","application/rdf+xml":"https://www.gutenberg.org/ebooks/1551.rdf","image/jpeg":"https://www.gutenberg.org/cache/epub/1551/pg1551.cover.medium.jpg","application/octet-stream":"https://www.gutenberg.org/cache/epub/1551/pg1551-h.zip"},"download_count":36},{"id":1621,"title":"Miss or Mrs.?","authors":[{"name":"Collins, Wilkie","birth_year":1824,"death_year":1889}],"translators":[],"subjects":["Detective and mystery stories, English","England -- Social life and customs -- 19th century -- Fiction","Love stories"],"bookshelves":[],"languages":["en"],"copyright":false,"media_type":"Text","formats":{"text/html":"https://www.gutenberg.org/ebooks/1621.html.images","text/html; charset=utf-8":"https://www.gutenberg.org/files/1621/1621-h/1621-h.htm","application/epub+zip":"https://www.gutenberg.org/ebooks/1621.epub3.images","application/x-mobipocket-ebook":"https://www.gutenberg.org/ebooks/1621.kf8.images","text/plain; charset=us-ascii":"https://www.gutenberg.org/ebooks/1621.txt.utf-8","text/plain; charset=utf-8":"https://www.gutenberg.org/files/1621/1621-0.txt","application/rdf+xml":"https://www.gutenberg.org/ebooks/1621.rdf","image/jpeg":"https://www.gutenberg.org/cache/epub/1621/pg1621.cover.medium.jpg","application/octet-stream":"https://www.gutenberg.org/cache/epub/1621/pg1621-h.zip"},"download_count":36},{"id":1645,"title":"Rhymes a la Mode","authors":[{"name":"Lang, Andrew","birth_year":1844,"death_year":1912}],"translators":[],"subjects":["English poetry"],"bookshelves":["Bibliomania"],"languages":["en"],"copyright":false,"media_type":"Text","formats":{"text/html":"https://www.gutenberg.org/ebooks/1645.html.images","application/epub+zip":"https://www.gutenberg.org/ebooks/1645.epub3.images","application/x-mobipocket-ebook":"https://www.gutenberg.org/ebooks/1645.kf8.images","text/plain; charset=us-ascii":"https://www.gutenberg.org/ebooks/1645.txt.utf-8","text/plain; charset=utf-8":"https://www.gutenberg.org/files/1645/1645-0.txt","application/rdf+xml":"https://www.gutenberg.org/ebooks/1645.rdf","image/jpeg":"https://www.gutenberg.org/cache/epub/1645/pg1645.cover.medium.jpg","application/octet-stream":"https://www.gutenberg.org/cache/epub/1645/pg1645-h.zip"},"download_count":36},{"id":1761,"title":"My Buried Treasure","authors":[{"name":"Davis, Richard Harding","birth_year":1864,"death_year":1916}],"translators":[],"subjects":["Fiction","Short stories"],"bookshelves":[],"languages":["en"],"copyright":false,"media_type":"Text","formats":{"text/html":"https://www.gutenberg.org/ebooks/1761.html.images","application/epub+zip":"https://www.gutenberg.org/ebooks/1761.epub3.images","application/x-mobipocket-ebook":"https://www.gutenberg.org/ebooks/1761.kf8.images","text/plain; charset=us-ascii":"https://www.gutenberg.org/ebooks/1761.txt.utf-8","application/rdf+xml":"https://www.gutenberg.org/ebooks/1761.rdf","image/jpeg":"https://www.gutenberg.org/cache/epub/1761/pg1761.cover.medium.jpg","application/octet-stream":"https://www.gutenberg.org/files/1761/1761-0.zip"},"download_count":36}]}