{"count":58808,"next":"http://129.241.150.113:8000/books/?languages=en&page=680","previous":"http://129.241.150.113:8000/books/?languages=en&page=678","results":[{"id":67919,"title":"Three addresses on the relations subsisting between the white and colored people of the United States","authors":[{"name":"Douglass, Frederick","birth_year":1818,"death_year":1895}],"translators":[],"subjects":["African Americans -- Civil rights","United States -- Race relations"],"bookshelves":[],"languages":["en"],"copyright":false,"media_type":"Text","formats":{"text/html":"https://www.gutenberg.org/ebooks/67919.html.images","application/epub+zip":"https://www.gutenberg.org/ebooks/67919.epub3.images","application/x-mobipocket-ebook":"https://www.gutenberg.org/ebooks/67919.kf8.images","text/plain; charset=us-ascii":"https://www.gutenberg.org/ebooks/67919.txt.utf-8","application/rdf+xml":"https://www.gutenberg.org/ebooks/67919.rdf","image/jpeg":"https://www.gutenberg.org/cache/epub/67919/pg67919.cover.medium.jpg","application/octet-stream":"https://www.gutenberg.org/files/67919/67919-0.zip"},"download_count":49},{"id":68084,"title":"Wild west","authors":[{"name":"Sinclair, Bertrand W.","birth_year":1881,"death_year":1972}],"translators":[],"subjects":["Cattle stealing -- Fiction","Montana -- Fiction","Ranch life -- Fiction","Ranches -- Fiction","Western stories"],"bookshelves":[],"languages":["en"],"copyright":false,"media_type":"Text","formats":{"text/html":"https://www.gutenberg.org/ebooks/68084.html.images","application/epub+zip":"https://www.gutenberg.org/ebooks/68084.epub3.images","application/x-mobipocket-ebook":"https://www.gutenberg.org/ebooks/68084.kf8.images","text/plain; charset=us-ascii":"https://www.gutenberg.org/ebooks/68084.txt.utf-8","application/rdf+xml":"https://www.gutenberg.org/ebooks/68084.rdf","image/jpeg":"https://www.gutenberg.org/cache/epub/68084/pg68084.cover.medium.jpg","application/octet-stream":"https://www.gutenberg.org/files/68084/68084-0.zip"},"download_count":49},{"id":68158,"title":"The power of kindness and other stories: A book for the example and encouragement of the young","authors":[{"name":"Arthur, T. S. (Timothy Shay)","birth_year":1809,"death_year":1885}],"translators":[],"subjects":["Animal welfare -- Juvenile fiction","Children's stories","Courage -- Juvenile fiction","Envy -- Juvenile fiction","Honesty -- Juvenile fiction","Kindness -- Juvenile fiction"],"bookshelves":[],"languages":["en"],"copyright":false,"media_type":"Text","formats":{"text/html":"https://www.gutenberg.org/ebooks/68158.html.images","application/epub+zip":"https://www.gutenberg.org/ebooks/68158.epub3.images","application/x-mobipocket-ebook":"https://www.gutenberg.org/ebooks/68158.kf8.images","text/plain; charset=us-ascii":"https://www.gutenberg.org/ebooks/68158.txt.utf-8","application/rdf+xml":"https://www.gutenberg.org/ebooks/68158.rdf","image/jpeg":"https://www.gutenberg.org/cache/epub/68158/pg68158.cover.medium.jpg","application/octet-stream":"https://www.gutenberg.org/files/68158/68158-0.zip"},"download_count":49},{"id":68289,"title":"Billiards","authors":[{"name":"Broadfoot, William","birth_year":1841,"death_year":1922}],"translators":[],"subjects":["Billiards"],"bookshelves":[],"languages":["en"],"copyright":false,"media_type":"Text","formats":{"text/html":"https://www.gutenberg.org/ebooks/68289.html.images","application/epub+zip":"https://www.gutenberg.org/ebooks/68289.epub3.images","application/x-mobipocket-ebook":"https://www.gutenberg.org/ebooks/68289.kf8.images","text/plain; charset=us-ascii":"https://www.gutenberg.org/ebooks/68289.txt.utf-8","application/rdf+xml":"https://www.gutenberg.org/ebooks/68289.rdf","image/jpeg":"https://www.gutenberg.org/cache/epub/68289/pg68289.cover.medium.jpg","application/octet-stream":"https://www.gutenberg.org/files/68289/68289-0.zip"},"download_count":49},{"id":68639,"title":"Poems we all love","authors":[],"translators":[],"subjects":["Poetry -- Collections"],"bookshelves":[],"languages":["en"],"copyright":false,"media_type":"Text","formats":{"text/html":"https://www.gutenberg.org/ebooks/68639.html.images","application/epub+zip":"https://www.gutenberg.org/ebooks/68639.epub3.images","application/x-mobipocket-ebook":"https://www.gutenberg.org/ebooks/68639.kf8.images","text/plain; charset=us-ascii":"https://www.gutenberg.org/ebooks/68639.txt.utf-8","application/rdf+xml":"https://www.gutenberg.org/ebooks/68639.rdf","image/jpeg":"https://www.gutenberg.org/cache/epub/68639/pg68639.cover.medium.jpg","application/octet-stream":"https://www.gutenberg.org/files/68639/68639-0.zip"},"download_count":49},{"id":68692,"title":"The eagle's wing: A story of the Colorado","authors":[{"name":"Bower, B. M.","birth_year":1871,"death_year":1940}],"translators":[],"subjects":["Colorado River (Colo.-Mexico) -- Fiction","Gold mines and mining -- Fiction","Western stories"],"bookshelves":[],"languages":["en"],"copyright":false,"media_type":"Text","formats":{"text/html":"https://www.gutenberg.org/ebooks/68692.html.images","application/epub+zip":"https://www.gutenberg.org/ebooks/68692.epub3.images","application/x-mobipocket-ebook":"https://www.gutenberg.org/ebooks/68692.kf8.images","text/plain; charset=us-ascii":"https://www.gutenberg.org/ebooks/68692.txt.utf-8","application/rdf+xml":"https://www.gutenberg.org/ebooks/68692.rdf","image/jpeg":"https://www.gutenberg.org/cache/epub/68692/pg68692.cover.medium.jpg","application/octet-stream":"https://www.gutenberg.org/files/68692/68692-0.zip"},"download_count":49},{"id":69128,"title":"The making of a mountaineer","authors":[{"name":"Finch, George Ingle","birth_year":1888,"death_year":1970}],"translators":[],"subjects":["Mountaineering"],"bookshelves":[],"languages":["en"],"copyright":false,"media_type":"Text","formats":{"text/html":"https://www.gutenberg.org/ebooks/69128.html.images","application/epub+zip":"https://www.gutenberg.org/ebooks/69128.epub3.images","application/x-mobipocket-ebook":"https://www.gutenberg.org/ebooks/69128.kf8.images","text/plain; charset=us-ascii":"https://www.gutenberg.org/ebooks/69128.txt.utf-8","application/rdf+xml":"https://www.gutenberg.org/ebooks/69128.rdf","image/jpeg":"https://www.gutenberg.org/cache/epub/69128/pg69128.cover.medium.jpg","application/octet-stream":"https://www.gutenberg.org/files/69128/69128-0.zip"},"download_count":49},{"id":69254,"title":"The vortex blaster makes war","authors":[{"name":"Smith, E. E. (Edward Elmer)","birth_year":1890,"death_year":1965}],"translators":[],"subjects":["Science fiction"],"bookshelves":[],"languages":["en"],"copyright":false,"media_type":"Text","formats":{"text/html":"https://www.gutenberg.org/ebooks/69254.html.images","application/epub+zip":"https://www.gutenberg.org/ebooks/69254.epub3.images","application/x-mobipocket-ebook":"https://www.gutenberg.org/ebooks/69254.kf8.images","text/plain; charset=us-ascii":"https://www.gutenberg.org/ebooks/69254.txt.utf-8","application/rdf+xml":"https://www.gutenberg.org/ebooks/69254.rdf","image/jpeg":"https://www.gutenberg.org/cache/epub/69254/pg69254.cover.medium.jpg","application/octet-stream":"https://www.gutenberg.org/files/69254/69254-0.zip"},"download_count":49},{"id":69357,"title":"Forgotten world","authors":[{"name":"Hamilton, Edmond","birth_year":1904,"death_year":1977}],"translators":[],"subjects":["Earth (Planet) -- Fiction","Interstellar travel -- Fiction","Science fiction"],"bookshelves":[],"languages":["en"],"copyright":false,"media_type":"Text","formats":{"text/html":"https://www.gutenberg.org/ebooks/69357.html.images","application/epub+zip":"https://www.gutenberg.org/ebooks/69357.epub3.images","application/x-mobipocket-ebook":"https://www.gutenberg.org/ebooks/69357.kf8.images","text/plain; charset=us-ascii":"https://www.gutenberg.org/ebooks/69357.txt.utf-8","application/rdf+xml":"https://www.gutenberg.org/ebooks/69357.rdf","image/jpeg":"https://www.gutenberg.org/cache/epub/69357/pg69357.cover.medium.jpg","application/octet-stream":"https://www.gutenberg.org/files/69357/69357-0.zip"},"download_count":49},{"id":69394,"title":"The dream: A novel","authors":[{"name":"Wells, H. G. (Herbert George)","birth_year":1866,"death_year":1946}],"translators":[],"subjects":["Dreams -- Fiction","England -- Social conditions -- 20th century -- Fiction","Science fiction","Scientists -- Fiction","Utopias -- Fiction"],"bookshelves":[],"languages":["en"],"copyright":false,"media_type":"Text","formats":{"text/html":"https://www.gutenberg.org/ebooks/69394.html.images","application/epub+zip":"https://www.gutenberg.org/ebooks/69394.epub3.images","application/x-mobipocket-ebook":"https://www.gutenberg.org/ebooks/69394.kf8.images","text/plain; charset=us-ascii":"https://www.gutenberg.org/ebooks/69394.txt.utf-8","application/rdf+xml":"https://www.gutenberg.org/ebooks/69394.rdf","image/jpeg":"https://www.gutenberg.org/cache/epub/69394/pg69394.cover.medium.jpg","application/octet-stream":"https://www.gutenberg.org/files/69394/69394-0.zip"},"download_count":49},{"id":69425,"title":"Paradisi in sole paradisus terrestris, or, A garden of all sorts of pleasant flowers which our English ayre will permitt to be noursed vp: a kitchen garden of all manner of herbes, rootes & fruites for meate or sauce vsed with vs, and, an orchard of all sorte of fruitbearing trees and shrubbes fit for our land, together with the right orderinge, planting & preseruing of them and their vses & vertues","authors":[{"name":"Parkinson, John","birth_year":1567,"death_year":1650}],"translators":[],"subjects":["Gardening -- Early works to 1800","Gardening -- England -- Early works to 1800"],"bookshelves":[],"languages":["en"],"copyright":false,"media_type":"Text","formats":{"text/html":"https://www.gutenberg.org/ebooks/69425.html.images","application/epub+zip":"https://www.gutenberg.org/ebooks/69425.epub3.images","application/x-mobipocket-ebook":"https://www.gutenberg.org/ebooks/69425.kf8.images","text/plain; charset=us-ascii":"https://www.gutenberg.org/ebooks/69425.txt.utf-8","application/rdf+xml":"https://www.gutenberg.org/ebooks/69425.rdf","image/jpeg":"https://www.gutenberg.org/cache/epub/69425/pg69425.cover.medium.jpg","application/octet-stream":"https://www.gutenberg.org/files/69425/69425-0.zip"},"download_count":49},{"id":69475,"title":"The Chinese theater","authors":[{"name":"Zucker, A. E. (Adolf Eduard)","birth_year":1890,"death_year":1971}],"translators":[],"subjects":["Chinese drama -- History and criticism","Theater -- China"],"bookshelves":[],"languages":["en"],"copyright":false,"media_type":"Text","formats":{"text/html":"https://www.gutenberg.org/ebooks/69475.html.images","application/epub+zip":"https://www.gutenberg.org/ebooks/69475.epub3.images","application/x-mobipocket-ebook":"https://www.gutenberg.org/ebooks/69475.kf8.images","text/plain; charset=us-ascii":"https://www.gutenberg.org/ebooks/69475.txt.utf-8","application/rdf+xml":"https://www.gutenberg.org/ebooks/69475.rdf","image/jpeg":"https://www.gutenberg.org/cache/epub/69475/pg69475.cover.medium.jpg","application/octet-stream":"https://www.gutenberg.org/files/69475/69475-0.zip"},"download_count":49},{"id":69630,"title":"The treatment of Armenians in the Ottoman Empire: Documents presented to Viscount Grey of Fallodon","authors":[],"translators":[],"subjects":["Armenian question","Armenians","World War, 1914-1918 -- Atrocities","World War, 1914-1918 -- Refugees"],"bookshelves":[],"languages":["en"],"copyright":false,"media_type":"Text","formats":{"text/html":"https://www.gutenberg.org/ebooks/69630.html.images","application/epub+zip":"https://www.gutenberg.org/ebooks/69630.epub3.images","application/x-mobipocket-ebook":"https://www.gutenberg.org/ebooks/69630.kf8.images","text/plain; charset=us-ascii":"https://www.gutenberg.org/ebooks/69630.txt.utf-8","application/rdf+xml":"https://www.gutenberg.org/ebooks/69630.rdf","image/jpeg":"https://www.gutenberg.org/cache/epub/69630/pg69630.cover.medium.jpg","application/octet-stream":"https://www.gutenberg.org/files/69630/69630-0.zip"},"download_count":49},{"id":69665,"title":"The knowledge machine","authors":[{"name":"Hamilton, Edmond","birth_year":1904,"death_year":1977}],"translators":[],"subjects":["Education -- Fiction","Inventions -- Fiction","Science fiction","Short stories"],"bookshelves":[],"languages":["en"],"copyright":false,"media_type":"Text","formats":{"text/html":"https://www.gutenberg.org/ebooks/69665.html.images","application/epub+zip":"https://www.gutenberg.org/ebooks/69665.epub3.images","application/x-mobipocket-ebook":"https://www.gutenberg.org/ebooks/69665.kf8.images","text/plain; charset=us-ascii":"https://www.gutenberg.org/ebooks/69665.txt.utf-8","application/rdf+xml":"https://www.gutenberg.org/ebooks/69665.rdf","image/jpeg":"https://www.gutenberg.org/cache/epub/69665/pg69665.cover.medium.jpg","application/octet-stream":"https://www.gutenberg.org/files/69665/69665-0.zip"},"download_count":49},{"id":69876,"title":"The \"ideal\" cookery book: A reliable guide for home cooking: containing 249 useful and dainty recipes (third edition)","authors":[{"name":"Clarke, Lilian","birth_year":null,"death_year":null}],"translators":[],"subjects":["Cooking"],"bookshelves":[],"languages":["en"],"copyright":false,"media_type":"Text","formats":{"text/html":"https://www.gutenberg.org/ebooks/69876.html.images","application/epub+zip":"https://www.gutenberg.org/ebooks/69876.epub3.images","application/x-mobipocket-ebook":"https://www.gutenberg.org/ebooks/69876.kf8.images","text/plain; charset=us-ascii":"https://www.gutenberg.org/ebooks/69876.txt.utf-8","application/rdf+xml":"https://www.gutenberg.org/ebooks/69876.rdf","image/jpeg":"https://www.gutenberg.org/cache/epub/69876/pg69876.cover.medium.jpg","application/octet-stream":"https://www.gutenberg.org/files/69876/69876-0.zip"},"download_count":49},{"id":69897,"title":"Women artists in all ages and countries","authors":[{"name":"Ellet, E. F. (Elizabeth Fries)","birth_year":1818,"death_year":1877}],"translators":[],"subjects":["Women artists"],"bookshelves":[],"languages":["en"],"copyright":false,"media_type":"Text","formats":{"text/html":"https://www.gutenberg.org/ebooks/69897.html.images","application/epub+zip":"https://www.gutenberg.org/ebooks/69897.epub3.images","application/x-mobipocket-ebook":"https://www.gutenberg.org/ebooks/69897.kf8.images","text/plain; charset=us-ascii":"https://www.gutenberg.org/ebooks/69897.txt.utf-8","application/rdf+xml":"https://www.gutenberg.org/ebooks/69897.rdf","image/jpeg":"https://www.gutenberg.org/cache/epub/69897/pg69897.cover.medium.jpg","application/octet-stream":"https://www.gutenberg.org/files/69897/69897-0.zip"},"download_count":49},{"id":69945,"title":"Tahiti, the island paradise","authors":[{"name":"Senn, Nicholas","birth_year":1844,"death_year":1908}],"translators":[],"subjects":["Tahiti (French Polynesia : Island) -- Description and travel"],"bookshelves":[],"languages":["en"],"copyright":false,"media_type":"Text","formats":{"text/html":"https://www.gutenberg.org/ebooks/69945.html.images","application/epub+zip":"https://www.gutenberg.org/ebooks/69945.epub3.images","application/x-mobipocket-ebook":"https://www.gutenberg.org/ebooks/69945.kf8.images","text/plain; charset=us-ascii":"https://www.gutenberg.org/ebooks/69945.txt.utf-8","application/rdf+xml":"https://www.gutenberg.org/ebooks/69945.rdf","image/jpeg":"https://www.gutenberg.org/cache/epub/69945/pg69945.cover.medium.jpg","application/octet-stream":"https://www.gutenberg.org/files/69945/69945-0.zip"},"download_count":49},{"id":70593,"title":"Elizabeth Montagu, the queen of the bluestockings, Volumes 1 and 2 : $b Her correspondence from 1720 to 1761","authors":[{"name":"Montagu, Mrs. (Elizabeth)","birth_year":1720,"death_year":1800}],"translators":[],"subjects":["Montagu, Mrs. (Elizabeth), 1718-1800 -- Correspondence"],"bookshelves":[],"languages":["en"],"copyright":false,"media_type":"Text","formats":{"text/html":"https://www.gutenberg.org/ebooks/70593.html.images","application/epub+zip":"https://www.gutenberg.org/ebooks/70593.epub3.images","application/x-mobipocket-ebook":"https://www.gutenberg.org/ebooks/70593.kf8.images","text/plain; charset=us-ascii":"https://www.gutenberg.org/ebooks/70593.txt.utf-8","application/rdf+xml":"https://www.gutenberg.org/ebooks/70593.rdf","image/jpeg":"https://www.gutenberg.org/cache/epub/70593/pg70593.cover.medium.jpg","application/octet-stream":"https://www.gutenberg.org/files/70593/70593-0.zip"},"download_count":49},{"id":70699,"title":"Sea life in Nelson's time","authors":[{"name":"Masefield, John","birth_year":1878,"death_year":1967}],"translators":[],"subjects":["Great Britain. Royal Navy -- History -- Napoleonic Wars, 1800-1815","Great Britain. Royal Navy -- Sea life","Napoleonic Wars, 1800-1815 -- Naval operations, British"],"bookshelves":[],"languages":["en"],"copyright":false,"media_type":"Text","formats":{"text/html":"https://www.gutenberg.org/ebooks/70699.html.images","application/epub+zip":"https://www.gutenberg.org/ebooks/70699.epub3.images","application/x-mobipocket-ebook":"https://www.gutenberg.org/ebooks/70699.kf8.images","text/plain; charset=us-ascii":"https://www.gutenberg.org/ebooks/70699.txt.utf-8","application/rdf+xml":"https://www.gutenberg.org/ebooks/70699.rdf","image/jpeg":"https://www.gutenberg.org/cache/epub/70699/pg70699.cover.medium.jpg","application/octet-stream":"https://www.gutenberg.org/files/70699/70699-0.zip"},"download_count":49},{"id":70817,"title":"Scream at midnight","authors":[{"name":"Brennan, Joseph Payne","birth_year":1918,"death_year":1990}],"translators":[],"subjects":["Horror tales"],"bookshelves":[],"languages":["en"],"copyright":false,"media_type":"Text","formats":{"text/html":"https://www.gutenberg.org/ebooks/70817.html.images","application/epub+zip":"https://www.gutenberg.org/ebooks/70817.epub3.images","application/x-mobipocket-ebook":"https://www.gutenberg.org/ebooks/70817.kf8.images","text/plain; charset=us-ascii":"https://www.gutenberg.org/ebooks/70817.txt.utf-8","application/rdf+xml":"https://www.gutenberg.org/ebooks/70817.rdf","image/jpeg":"https://www.gutenberg.org/cache/epub/70817/pg70817.cover.medium.jpg","application/octet-stream":"https://www.gutenberg.org/files/70817/70817-0.zip"},"download_count":49},{"id":70859,"title":"Legends of Texas","authors":[],"translators":[],"subjects":["Legends -- Texas","Mines and mineral resources -- Texas -- Folklore","Tales -- Texas","Treasure troves -- Texas -- Folklore"],"bookshelves":[],"languages":["en"],"copyright":false,"media_type":"Text","formats":{"text/html":"https://www.gutenberg.org/ebooks/70859.html.images","application/epub+zip":"https://www.gutenberg.org/ebooks/70859.epub3.images","application/x-mobipocket-ebook":"https://www.gutenberg.org/ebooks/70859.kf8.images","text/plain; charset=us-ascii":"https://www.gutenberg.org/ebooks/70859.txt.utf-8","application/rdf+xml":"https://www.gutenberg.org/ebooks/70859.rdf","image/jpeg":"https://www.gutenberg.org/cache/epub/70859/pg70859.cover.medium.jpg","application/octet-stream":"https://www.gutenberg.org/files/70859/70859-0.zip"},"download_count":49},{"id":71416,"title":"The Bible object book : $b A book of object lessons which are different, written in plain English and in common words","authors":[{"name":"Woolston, C. H. (Clarence Herbert)","birth_year":1856,"death_year":1927}],"translators":[],"subjects":["Children's sermons"],"bookshelves":[],"languages":["en"],"copyright":false,"media_type":"Text","formats":{"text/html":"https://www.gutenberg.org/ebooks/71416.html.images","application/epub+zip":"https://www.gutenberg.org/ebooks/71416.epub3.images","application/x-mobipocket-ebook":"https://www.gutenberg.org/ebooks/71416.kf8.images","text/plain; charset=us-ascii":"https://www.gutenberg.org/ebooks/71416.txt.utf-8","application/rdf+xml":"https://www.gutenberg.org/ebooks/71416.rdf","image/jpeg":"https://www.gutenberg.org/cache/epub/71416/pg71416.cover.medium.jpg","application/octet-stream":"https://www.gutenberg.org/files/71416/71416-h.zip"},"download_count":49},{"id":71516,"title":"The master criminal","authors":[{"name":"Paternoster, G. Sidney","birth_year":1866,"death_year":1925}],"translators":[],"subjects":["Criminals -- Fiction","Detective and mystery stories","London (England) -- Fiction"],"bookshelves":[],"languages":["en"],"copyright":false,"media_type":"Text","formats":{"text/html":"https://www.gutenberg.org/ebooks/71516.html.images","application/epub+zip":"https://www.gutenberg.org/ebooks/71516.epub3.images","application/x-mobipocket-ebook":"https://www.gutenberg.org/ebooks/71516.kf8.images","text/plain; charset=us-ascii":"https://www.gutenberg.org/ebooks/71516.txt.utf-8","application/rdf+xml":"https://www.gutenberg.org/ebooks/71516.rdf","image/jpeg":"https://www.gutenberg.org/cache/epub/71516/pg71516.cover.medium.jpg","application/octet-stream":"https://www.gutenberg.org/files/71516/71516-h.zip"},"download_count":49},{"id":71572,"title":"The gold seekers of '49 : $b a personal narrative of the overland trail and adventures in California and Oregon from 1849 to 1854","authors":[{"name":"Webster, Kimball","birth_year":1828,"death_year":1916}],"translators":[],"subjects":["California -- Gold discoveries","Frontier and pioneer life -- California","Frontier and pioneer life -- Oregon","Overland journeys to the Pacific"],"bookshelves":[],"languages":["en"],"copyright":false,"media_type":"Text","formats":{"text/html":"https://www.gutenberg.org/ebooks/71572.html.images","application/epub+zip":"https://www.gutenberg.org/ebooks/71572.epub3.images","application/x-mobipocket-ebook":"https://www.gutenberg.org/ebooks/71572.kf8.images","text/plain; charset=us-ascii":"https://www.gutenberg.org/ebooks/71572.txt.utf-8","application/rdf+xml":"https://www.gutenberg.org/ebooks/71572.rdf","image/jpeg":"https://www.gutenberg.org/cache/epub/71572/pg71572.cover.medium.jpg","application/octet-stream":"https://www.gutenberg.org/files/71572/71572-h.zip"},"download_count":49},{"id":71580,"title":"The courts of Jamshyd","authors":[{"name":"Young, Robert F.","birth_year":1915,"death_year":1986}],"translators":[],"subjects":["Apocalyptic fiction","Science fiction","Short stories"],"bookshelves":[],"languages":["en"],"copyright":false,"media_type":"Text","formats":{"text/html":"https://www.gutenberg.org/ebooks/71580.html.images","application/epub+zip":"https://www.gutenberg.org/ebooks/71580.epub3.images","application/x-mobipocket-ebook":"https://www.gutenberg.org/ebooks/71580.kf8.images","text/plain; charset=us-ascii":"https://www.gutenberg.org/ebooks/71580.txt.utf-8","application/rdf+xml":"https://www.gutenberg.org/ebooks/71580.rdf","image/jpeg":"https://www.gutenberg.org/cache/epub/71580/pg71580.cover.medium.jpg","application/octet-stream":"https://www.gutenberg.org/files/71580/71580-h.zip"},"download_count":49},{"id":71621,"title":"The heart of Africa, Vol. 1 (of 2)","authors":[{"name":"Schweinfurth, Georg August","birth_year":1836,"death_year":1925}],"translators":[{"name":"Frewer, Ellen E. (Ellen Elizabeth)","birth_year":null,"death_year":null}],"subjects":["Africa, Central -- Description and travel","Schweinfurth, Georg August, 1836-1925 -- Travel -- Africa, Central"],"bookshelves":[],"languages":["en"],"copyright":false,"media_type":"Text","formats":{"text/html":"https://www.gutenberg.org/ebooks/71621.html.images","application/epub+zip":"https://www.gutenberg.org/ebooks/71621.epub3.images","application/x-mobipocket-ebook":"https://www.gutenberg.org/ebooks/71621.kf8.images","text/plain; charset=us-ascii":"https://www.gutenberg.org/ebooks/71621.txt.utf-8","application/rdf+xml":"https://www.gutenberg.org/ebooks/71621.rdf","image/jpeg":"https://www.gutenberg.org/cache/epub/71621/pg71621.cover.medium.jpg","application/octet-stream":"https://www.gutenberg.org/files/71621/71621-h.zip"},"download_count":49},{"id":71624,"title":"Elijah Cobb : $b 1768-1848 a Cape Cod skipper","authors":[{"name":"Cobb, Elijah","birth_year":1768,"death_year":1848}],"translators":[],"subjects":["Cobb, Elijah, 1768-1848","Ship captains -- Massachusetts -- Biography","United States -- History -- 1783-1815"],"bookshelves":[],"languages":["en"],"copyright":false,"media_type":"Text","formats":{"text/html":"https://www.gutenberg.org/ebooks/71624.html.images","application/epub+zip":"https://www.gutenberg.org/ebooks/71624.epub3.images","application/x-mobipocket-ebook":"https://www.gutenberg.org/ebooks/71624.kf8.images","text/plain; charset=us-ascii":"https://www.gutenberg.org/ebooks/71624.txt.utf-8","application/rdf+xml":"https://www.gutenberg.org/ebooks/71624.rdf","image/jpeg":"https://www.gutenberg.org/cache/epub/71624/pg71624.cover.medium.jpg","application/octet-stream":"https://www.gutenberg.org/files/71624/71624-h.zip"},"download_count":49},{"id":71707,"title":"The Africanders : $b A century of Dutch-English feud in South Africa","authors":[{"name":"Hooker, Le Roy","birth_year":1840,"death_year":1906}],"translators":[],"subjects":["Afrikaners","South Africa -- Politics and government","Transvaal (South Africa) -- History"],"bookshelves":[],"languages":["en"],"copyright":false,"media_type":"Text","formats":{"text/html":"https://www.gutenberg.org/ebooks/71707.html.images","application/epub+zip":"https://www.gutenberg.org/ebooks/71707.epub3.images","application/x-mobipocket-ebook":"https://www.gutenberg.org/ebooks/71707.kf8.images","text/plain; charset=us-ascii":"https://www.gutenberg.org/ebooks/71707.txt.utf-8","application/rdf+xml":"https://www.gutenberg.org/ebooks/71707.rdf","image/jpeg":"https://www.gutenberg.org/cache/epub/71707/pg71707.cover.medium.jpg","application/octet-stream":"https://www.gutenberg.org/files/71707/71707-h.zip"},"download_count":49},{"id":71740,"title":"Three pretty maids","authors":[{"name":"Blanchard, Amy Ella","birth_year":1856,"death_year":1926}],"translators":[],"subjects":["Conduct of life -- Juvenile fiction","Friendship -- Juvenile fiction","Girls -- Juvenile fiction","Sisters -- Juvenile fiction"],"bookshelves":[],"languages":["en"],"copyright":false,"media_type":"Text","formats":{"text/html":"https://www.gutenberg.org/ebooks/71740.html.images","application/epub+zip":"https://www.gutenberg.org/ebooks/71740.epub3.images","application/x-mobipocket-ebook":"https://www.gutenberg.org/ebooks/71740.kf8.images","text/plain; charset=us-ascii":"https://www.gutenberg.org/ebooks/71740.txt.utf-8","application/rdf+xml":"https://www.gutenberg.org/ebooks/71740.rdf","image/jpeg":"https://www.gutenberg.org/cache/epub/71740/pg71740.cover.medium.jpg","application/octet-stream":"https://www.gutenberg.org/files/71740/71740-h.zip"},"download_count":49},{"id":71958,"title":"Edinburgh sketches & memories","authors":[{"name":"Masson, David","birth_year":1822,"death_year":1907}],"translators":[],"subjects":["Edinburgh (Scotland)"],"bookshelves":[],"languages":["en"],"copyright":false,"media_type":"Text","formats":{"text/html":"https://www.gutenberg.org/ebooks/71958.html.images","application/epub+zip":"https://www.gutenberg.org/ebooks/71958.epub3.images","application/x-mobipocket-ebook":"https://www.gutenberg.org/ebooks/71958.kf8.images","text/plain; charset=us-ascii":"https://www.gutenberg.org/ebooks/71958.txt.utf-8","application/rdf+xml":"https://www.gutenberg.org/ebooks/71958.rdf","image/jpeg":"https://www.gutenberg.org/cache/epub/71958/pg71958.cover.medium.jpg","application/octet-stream":"https://www.gutenberg.org/cache/epub/71958/pg71958-h.zip"},"download_count":49},{"id":71978,"title":"Old comrades","authors":[{"name":"Giberne, Agnes","birth_year":1845,"death_year":1939}],"translators":[],"subjects":["England -- Juvenile fiction","Fathers and daughters -- Juvenile fiction","Friendship -- Juvenile fiction","Romance fiction","Veterans -- Juvenile fiction"],"bookshelves":[],"languages":["en"],"copyright":false,"media_type":"Text","formats":{"text/html":"https://www.gutenberg.org/ebooks/71978.html.images","application/epub+zip":"https://www.gutenberg.org/ebooks/71978.epub3.images","application/x-mobipocket-ebook":"https://www.gutenberg.org/ebooks/71978.kf8.images","text/plain; charset=us-ascii":"https://www.gutenberg.org/ebooks/71978.txt.utf-8","application/rdf+xml":"https://www.gutenberg.org/ebooks/71978.rdf","image/jpeg":"https://www.gutenberg.org/cache/epub/71978/pg71978.cover.medium.jpg","application/octet-stream":"https://www.gutenberg.org/cache/epub/71978/pg71978-h.zip"},"download_count":49},{"id":71999,"title":"Stars of the southern skies","authors":[{"name":"Orr, M. A. (Mary Acworth)","birth_year":1867,"death_year":1949}],"translators":[],"subjects":["Southern sky (Astronomy)","Stars"],"bookshelves":[],"languages":["en"],"copyright":false,"media_type":"Text","formats":{"text/html":"https://www.gutenberg.org/ebooks/71999.html.images","application/epub+zip":"https://www.gutenberg.org/ebooks/71999.epub3.images","application/x-mobipocket-ebook":"https://www.gutenberg.org/ebooks/71999.kf8.images","text/plain; charset=us-ascii":"https://www.gutenberg.org/ebooks/71999.txt.utf-8","application/rdf+xml":"https://www.gutenberg.org/ebooks/71999.rdf","image/jpeg":"https://www.gutenberg.org/cache/epub/71999/pg71999.cover.medium.jpg","application/octet-stream":"https://www.gutenberg.org/cache/epub/71999/pg71999-h.zip"},"download_count":49}]}