{"count":58808,"next":"http://129.241.150.113:8000/books/?languages=en&page=1823","previous":"http://129.241.150.113:8000/books/?languages=en&page=1821","results":[{"id":9282,"title":"Madame de Treymes","authors":[{"name":"Wharton, Edith","birth_year":1862,"death_year":1937}],"translators":[],"subjects":["Americans -- France -- Fiction","Manners and customs -- Fiction","Women -- Conduct of life -- Fiction"],"bookshelves":[],"languages":["en"],"copyright":true,"media_type":"Sound","formats":{"text/plain; charset=us-ascii":"https://www.gutenberg.org/files/9282/9282-readme.txt","text/html; charset=iso-8859-1":"https://www.gutenberg.org/files/9282/9282-index.htm","audio/mpeg":"https://www.gutenberg.org/files/9282/mp3/9282-000.mp3","application/rdf+xml":"https://www.gutenberg.org/ebooks/9282.rdf","application/octet-stream":"https://www.gutenberg.org/files/9282/9282-mp3.zip"},"download_count":9},{"id":9561,"title":"The Bridal of Pennacook: Part 2 From Volume I of The Works of John Greenleaf Whittier","authors":[{"name":"Whittier, John Greenleaf","birth_year":1807,"death_year":1892}],"translators":[],"subjects":["American poetry -- 19th century"],"bookshelves":[],"languages":["en"],"copyright":false,"media_type":"Text","formats":{"text/html":"https://www.gutenberg.org/ebooks/9561.html.images","application/epub+zip":"https://www.gutenberg.org/ebooks/9561.epub3.images","application/x-mobipocket-ebook":"https://www.gutenberg.org/ebooks/9561.kf8.images","text/plain; charset=us-ascii":"https://www.gutenberg.org/ebooks/9561.txt.utf-8","application/rdf+xml":"https://www.gutenberg.org/ebooks/9561.rdf","image/jpeg":"https://www.gutenberg.org/cache/epub/9561/pg9561.cover.medium.jpg","application/octet-stream":"https://www.gutenberg.org/cache/epub/9561/pg9561-h.zip"},"download_count":9},{"id":9582,"title":"Personal Poems II: Part 2 from Volume IV of The Works of John Greenleaf Whittier","authors":[{"name":"Whittier, John Greenleaf","birth_year":1807,"death_year":1892}],"translators":[],"subjects":["American poetry -- 19th century"],"bookshelves":[],"languages":["en"],"copyright":false,"media_type":"Text","formats":{"text/html":"https://www.gutenberg.org/ebooks/9582.html.images","application/epub+zip":"https://www.gutenberg.org/ebooks/9582.epub3.images","application/x-mobipocket-ebook":"https://www.gutenberg.org/ebooks/9582.kf8.images","text/plain; charset=us-ascii":"https://www.gutenberg.org/ebooks/9582.txt.utf-8","application/rdf+xml":"https://www.gutenberg.org/ebooks/9582.rdf","image/jpeg":"https://www.gutenberg.org/cache/epub/9582/pg9582.cover.medium.jpg","application/octet-stream":"https://www.gutenberg.org/cache/epub/9582/pg9582-h.zip"},"download_count":9},{"id":9593,"title":"Historical Papers: Part 3 from Volume VI of The Works of John Greenleaf Whittier","authors":[{"name":"Whittier, John Greenleaf","birth_year":1807,"death_year":1892}],"translators":[],"subjects":["History"],"bookshelves":[],"languages":["en"],"copyright":false,"media_type":"Text","formats":{"text/html":"https://www.gutenberg.org/ebooks/9593.html.images","application/epub+zip":"https://www.gutenberg.org/ebooks/9593.epub3.images","application/x-mobipocket-ebook":"https://www.gutenberg.org/ebooks/9593.kf8.images","text/plain; charset=us-ascii":"https://www.gutenberg.org/ebooks/9593.txt.utf-8","application/rdf+xml":"https://www.gutenberg.org/ebooks/9593.rdf","image/jpeg":"https://www.gutenberg.org/cache/epub/9593/pg9593.cover.medium.jpg","application/octet-stream":"https://www.gutenberg.org/cache/epub/9593/pg9593-h.zip"},"download_count":9},{"id":9658,"title":"Punchinello, Volume 1, No. 13, June 25, 1870","authors":[{"name":"Various","birth_year":null,"death_year":null}],"translators":[],"subjects":["American wit and humor -- Periodicals"],"bookshelves":["Punchinello"],"languages":["en"],"copyright":false,"media_type":"Text","formats":{"text/html":"https://www.gutenberg.org/ebooks/9658.html.images","text/html; charset=iso-8859-1":"https://www.gutenberg.org/files/9658/9658-h/9658-h.htm","application/epub+zip":"https://www.gutenberg.org/ebooks/9658.epub3.images","application/x-mobipocket-ebook":"https://www.gutenberg.org/ebooks/9658.kf8.images","text/plain; charset=us-ascii":"https://www.gutenberg.org/ebooks/9658.txt.utf-8","application/rdf+xml":"https://www.gutenberg.org/ebooks/9658.rdf","image/jpeg":"https://www.gutenberg.org/cache/epub/9658/pg9658.cover.medium.jpg","application/octet-stream":"https://www.gutenberg.org/cache/epub/9658/pg9658-h.zip"},"download_count":9},{"id":9705,"title":"The Mystery of Edwin Drood","authors":[{"name":"Dickens, Charles","birth_year":1812,"death_year":1870}],"translators":[],"subjects":["Cathedrals -- Fiction","Choral conductors -- Fiction","Detective and mystery stories","England -- Fiction","England -- Social life and customs -- 19th century -- Fiction","Missing persons -- Fiction","Psychological fiction"],"bookshelves":[],"languages":["en"],"copyright":true,"media_type":"Sound","formats":{"text/plain; charset=us-ascii":"https://www.gutenberg.org/files/9705/9705-readme.txt","text/html; charset=iso-8859-1":"https://www.gutenberg.org/files/9705/9705-index.htm","audio/mpeg":"https://www.gutenberg.org/files/9705/mp3/9705-000.mp3","application/rdf+xml":"https://www.gutenberg.org/ebooks/9705.rdf","application/octet-stream":"https://www.gutenberg.org/files/9705/9705-mp3.zip"},"download_count":9},{"id":9760,"title":"Leila or, the Siege of Granada, Book V.","authors":[{"name":"Lytton, Edward Bulwer Lytton, Baron","birth_year":1803,"death_year":1873}],"translators":[],"subjects":["Granada (Spain) -- History -- Siege, 1491-1492 -- Fiction","Sieges -- Fiction"],"bookshelves":["Historical Fiction"],"languages":["en"],"copyright":false,"media_type":"Text","formats":{"text/html":"https://www.gutenberg.org/ebooks/9760.html.images","application/epub+zip":"https://www.gutenberg.org/ebooks/9760.epub3.images","application/x-mobipocket-ebook":"https://www.gutenberg.org/ebooks/9760.kf8.images","text/plain; charset=us-ascii":"https://www.gutenberg.org/ebooks/9760.txt.utf-8","application/rdf+xml":"https://www.gutenberg.org/ebooks/9760.rdf","image/jpeg":"https://www.gutenberg.org/cache/epub/9760/pg9760.cover.medium.jpg","application/octet-stream":"https://www.gutenberg.org/cache/epub/9760/pg9760-h.zip"},"download_count":9},{"id":10033,"title":"Punchinello, Volume 1, No. 25, September 17, 1870","authors":[{"name":"Various","birth_year":null,"death_year":null}],"translators":[],"subjects":["American wit and humor -- Periodicals"],"bookshelves":["Punchinello"],"languages":["en"],"copyright":false,"media_type":"Text","formats":{"text/html":"https://www.gutenberg.org/ebooks/10033.html.images","text/html; charset=iso-8859-1":"https://www.gutenberg.org/files/10033/10033-h/10033-h.htm","application/epub+zip":"https://www.gutenberg.org/ebooks/10033.epub3.images","application/x-mobipocket-ebook":"https://www.gutenberg.org/ebooks/10033.kf8.images","text/plain; charset=us-ascii":"https://www.gutenberg.org/ebooks/10033.txt.utf-8","text/plain; charset=iso-8859-1":"https://www.gutenberg.org/files/10033/10033-8.txt","application/rdf+xml":"https://www.gutenberg.org/ebooks/10033.rdf","image/jpeg":"https://www.gutenberg.org/cache/epub/10033/pg10033.cover.medium.jpg","application/octet-stream":"https://www.gutenberg.org/cache/epub/10033/pg10033-h.zip"},"download_count":9},{"id":10152,"title":"Voice Trial - Kinetophone actor audition","authors":[{"name":"Lett, Bob","birth_year":null,"death_year":null}],"translators":[],"subjects":["Auditions"],"bookshelves":[],"languages":["en"],"copyright":false,"media_type":"Sound","formats":{"text/plain; charset=us-ascii":"https://www.gutenberg.org/files/10152/10152-m/10152-m-readme.txt","audio/mpeg":"https://www.gutenberg.org/files/10152/10152-m/10152-m-001.mp3","application/rdf+xml":"https://www.gutenberg.org/ebooks/10152.rdf"},"download_count":9},{"id":10205,"title":"Words of Welcome: Opening of the Electrical Exposition of New York City","authors":[{"name":"Hobart, Garret A. (Garret Augustus)","birth_year":1844,"death_year":1899}],"translators":[],"subjects":["Electricity"],"bookshelves":[],"languages":["en"],"copyright":false,"media_type":"Sound","formats":{"text/plain; charset=us-ascii":"https://www.gutenberg.org/files/10205/10205-m/10205-m-readme.txt","audio/mpeg":"https://www.gutenberg.org/files/10205/10205-m/10205-m-001.mp3","application/rdf+xml":"https://www.gutenberg.org/ebooks/10205.rdf"},"download_count":9},{"id":10250,"title":"The Five Bachelors","authors":[],"translators":[],"subjects":["Men -- Societies and clubs -- Drama"],"bookshelves":[],"languages":["en"],"copyright":false,"media_type":"Sound","formats":{"text/plain; charset=us-ascii":"https://www.gutenberg.org/files/10250/10250-m/10250-m-readme.txt","audio/mpeg":"https://www.gutenberg.org/files/10250/10250-m/10250-m-001.mp3","application/rdf+xml":"https://www.gutenberg.org/ebooks/10250.rdf"},"download_count":9},{"id":10521,"title":"The Primadonna: A Sequel to \"Fair Margaret\"","authors":[{"name":"Crawford, F. Marion (Francis Marion)","birth_year":1854,"death_year":1909}],"translators":[],"subjects":["London (England) -- Fiction","Mystery fiction","New York (N.Y.) -- Fiction","Opera -- Fiction","Women singers -- Fiction"],"bookshelves":[],"languages":["en"],"copyright":false,"media_type":"Text","formats":{"text/html":"https://www.gutenberg.org/ebooks/10521.html.images","application/epub+zip":"https://www.gutenberg.org/ebooks/10521.epub3.images","application/x-mobipocket-ebook":"https://www.gutenberg.org/ebooks/10521.kf8.images","text/plain; charset=us-ascii":"https://www.gutenberg.org/ebooks/10521.txt.utf-8","text/plain; charset=iso-8859-1":"https://www.gutenberg.org/files/10521/10521-8.txt","application/rdf+xml":"https://www.gutenberg.org/ebooks/10521.rdf","image/jpeg":"https://www.gutenberg.org/cache/epub/10521/pg10521.cover.medium.jpg","application/octet-stream":"https://www.gutenberg.org/cache/epub/10521/pg10521-h.zip"},"download_count":9},{"id":10544,"title":"Punchinello, Volume 2, No. 37, December 10, 1870","authors":[{"name":"Various","birth_year":null,"death_year":null}],"translators":[],"subjects":["American wit and humor -- Periodicals"],"bookshelves":["Punchinello"],"languages":["en"],"copyright":false,"media_type":"Text","formats":{"text/html":"https://www.gutenberg.org/ebooks/10544.html.images","text/html; charset=iso-8859-1":"https://www.gutenberg.org/files/10544/10544-h/10544-h.htm","application/epub+zip":"https://www.gutenberg.org/ebooks/10544.epub3.images","application/x-mobipocket-ebook":"https://www.gutenberg.org/ebooks/10544.kf8.images","text/plain; charset=us-ascii":"https://www.gutenberg.org/ebooks/10544.txt.utf-8","text/plain; charset=iso-8859-1":"https://www.gutenberg.org/files/10544/10544-8.txt","application/rdf+xml":"https://www.gutenberg.org/ebooks/10544.rdf","image/jpeg":"https://www.gutenberg.org/cache/epub/10544/pg10544.cover.medium.jpg","application/octet-stream":"https://www.gutenberg.org/cache/epub/10544/pg10544-h.zip"},"download_count":9},{"id":10903,"title":"Punch, or the London Charivari, Volume 153, October 17, 1917","authors":[{"name":"Various","birth_year":null,"death_year":null}],"translators":[],"subjects":["English wit and humor -- Periodicals"],"bookshelves":["Punch"],"languages":["en"],"copyright":false,"media_type":"Text","formats":{"text/html":"https://www.gutenberg.org/ebooks/10903.html.images","text/html; charset=iso-8859-1":"https://www.gutenberg.org/files/10903/10903-h/10903-h.htm","application/epub+zip":"https://www.gutenberg.org/ebooks/10903.epub3.images","application/x-mobipocket-ebook":"https://www.gutenberg.org/ebooks/10903.kf8.images","text/plain; charset=us-ascii":"https://www.gutenberg.org/ebooks/10903.txt.utf-8","text/plain; charset=iso-8859-1":"https://www.gutenberg.org/files/10903/10903-8.txt","text/plain":"https://www.gutenberg.org/files/10903/10903.zip","application/rdf+xml":"https://www.gutenberg.org/ebooks/10903.rdf","image/jpeg":"https://www.gutenberg.org/cache/epub/10903/pg10903.cover.medium.jpg","application/octet-stream":"https://www.gutenberg.org/cache/epub/10903/pg10903-h.zip"},"download_count":9},{"id":11215,"title":"Poems (1828)","authors":[{"name":"Gent, Thomas","birth_year":1780,"death_year":null}],"translators":[],"subjects":["Poetry"],"bookshelves":[],"languages":["en"],"copyright":false,"media_type":"Text","formats":{"text/html":"https://www.gutenberg.org/ebooks/11215.html.images","application/epub+zip":"https://www.gutenberg.org/ebooks/11215.epub3.images","application/x-mobipocket-ebook":"https://www.gutenberg.org/ebooks/11215.kf8.images","text/plain; charset=us-ascii":"https://www.gutenberg.org/ebooks/11215.txt.utf-8","text/plain; charset=iso-8859-1":"https://www.gutenberg.org/files/11215/11215-8.txt","text/plain":"https://www.gutenberg.org/files/11215/11215.zip","application/rdf+xml":"https://www.gutenberg.org/ebooks/11215.rdf","image/jpeg":"https://www.gutenberg.org/cache/epub/11215/pg11215.cover.medium.jpg","application/octet-stream":"https://www.gutenberg.org/cache/epub/11215/pg11215-h.zip"},"download_count":9},{"id":11777,"title":"Human Genome Project, Build 34, Chromosome Number 03","authors":[{"name":"Human Genome Project","birth_year":null,"death_year":null}],"translators":[],"subjects":["Nucleotide sequence"],"bookshelves":[],"languages":["en"],"copyright":false,"media_type":"Dataset","formats":{"text/plain":"https://www.gutenberg.org/files/11777/11777.zip","application/rdf+xml":"https://www.gutenberg.org/ebooks/11777.rdf"},"download_count":9},{"id":11862,"title":"The Mirror of Literature, Amusement, and Instruction. Volume 20, No. 563, August 25, 1832","authors":[{"name":"Various","birth_year":null,"death_year":null}],"translators":[],"subjects":["Popular literature -- Great Britain -- Periodicals"],"bookshelves":["The Mirror of Literature, Amusement, and Instruction"],"languages":["en"],"copyright":false,"media_type":"Text","formats":{"text/html":"https://www.gutenberg.org/ebooks/11862.html.images","text/html; charset=iso-8859-1":"https://www.gutenberg.org/files/11862/11862-h/11862-h.htm","application/epub+zip":"https://www.gutenberg.org/ebooks/11862.epub3.images","application/x-mobipocket-ebook":"https://www.gutenberg.org/ebooks/11862.kf8.images","text/plain; charset=us-ascii":"https://www.gutenberg.org/ebooks/11862.txt.utf-8","text/plain; charset=iso-8859-1":"https://www.gutenberg.org/files/11862/11862-8.txt","application/rdf+xml":"https://www.gutenberg.org/ebooks/11862.rdf","image/jpeg":"https://www.gutenberg.org/cache/epub/11862/pg11862.cover.medium.jpg","application/octet-stream":"https://www.gutenberg.org/cache/epub/11862/pg11862-h.zip"},"download_count":9},{"id":11958,"title":"Notes and Queries, Number 21, March 23, 1850","authors":[{"name":"Various","birth_year":null,"death_year":null}],"translators":[],"subjects":["Questions and answers -- Periodicals"],"bookshelves":["Notes and Queries"],"languages":["en"],"copyright":false,"media_type":"Text","formats":{"text/html":"https://www.gutenberg.org/ebooks/11958.html.images","text/html; charset=iso-8859-1":"https://www.gutenberg.org/files/11958/11958-h/11958-h.htm","application/epub+zip":"https://www.gutenberg.org/ebooks/11958.epub3.images","application/x-mobipocket-ebook":"https://www.gutenberg.org/ebooks/11958.kf8.images","text/plain; charset=us-ascii":"https://www.gutenberg.org/ebooks/11958.txt.utf-8","text/plain; charset=iso-8859-1":"https://www.gutenberg.org/files/11958/11958-8.txt","application/rdf+xml":"https://www.gutenberg.org/ebooks/11958.rdf","image/jpeg":"https://www.gutenberg.org/cache/epub/11958/pg11958.cover.medium.jpg","application/octet-stream":"https://www.gutenberg.org/cache/epub/11958/pg11958-h.zip"},"download_count":9},{"id":12095,"title":"More Bywords","authors":[{"name":"Yonge, Charlotte M. (Charlotte Mary)","birth_year":1823,"death_year":1901}],"translators":[],"subjects":["Poetry","Short stories"],"bookshelves":[],"languages":["en"],"copyright":false,"media_type":"Text","formats":{"text/html":"https://www.gutenberg.org/ebooks/12095.html.images","text/html; charset=us-ascii":"https://www.gutenberg.org/files/12095/12095-h/12095-h.htm","application/epub+zip":"https://www.gutenberg.org/ebooks/12095.epub3.images","application/x-mobipocket-ebook":"https://www.gutenberg.org/ebooks/12095.kf8.images","text/plain; charset=us-ascii":"https://www.gutenberg.org/ebooks/12095.txt.utf-8","application/rdf+xml":"https://www.gutenberg.org/ebooks/12095.rdf","image/jpeg":"https://www.gutenberg.org/cache/epub/12095/pg12095.cover.medium.jpg","application/octet-stream":"https://www.gutenberg.org/cache/epub/12095/pg12095-h.zip"},"download_count":9},{"id":12185,"title":"My Home in the Field of Honor","authors":[{"name":"Huard, Frances Wilson","birth_year":1885,"death_year":1969}],"translators":[],"subjects":["World War, 1914-1918 -- Personal narratives"],"bookshelves":["Bestsellers, American, 1895-1923"],"languages":["en"],"copyright":false,"media_type":"Text","formats":{"text/html":"https://www.gutenberg.org/ebooks/12185.html.images","application/epub+zip":"https://www.gutenberg.org/ebooks/12185.epub3.images","application/x-mobipocket-ebook":"https://www.gutenberg.org/ebooks/12185.kf8.images","text/plain; charset=us-ascii":"https://www.gutenberg.org/ebooks/12185.txt.utf-8","text/plain; charset=iso-8859-1":"https://www.gutenberg.org/files/12185/12185-8.txt","application/rdf+xml":"https://www.gutenberg.org/ebooks/12185.rdf","image/jpeg":"https://www.gutenberg.org/cache/epub/12185/pg12185.cover.medium.jpg","application/octet-stream":"https://www.gutenberg.org/cache/epub/12185/pg12185-h.zip"},"download_count":9},{"id":12197,"title":"Mr. Scraggs","authors":[{"name":"Phillips, Henry Wallace","birth_year":1869,"death_year":1930}],"translators":[],"subjects":["Humorous stories"],"bookshelves":[],"languages":["en"],"copyright":false,"media_type":"Text","formats":{"text/html":"https://www.gutenberg.org/ebooks/12197.html.images","application/epub+zip":"https://www.gutenberg.org/ebooks/12197.epub3.images","application/x-mobipocket-ebook":"https://www.gutenberg.org/ebooks/12197.kf8.images","text/plain; charset=us-ascii":"https://www.gutenberg.org/ebooks/12197.txt.utf-8","application/rdf+xml":"https://www.gutenberg.org/ebooks/12197.rdf","image/jpeg":"https://www.gutenberg.org/cache/epub/12197/pg12197.cover.medium.jpg","application/octet-stream":"https://www.gutenberg.org/cache/epub/12197/pg12197-h.zip"},"download_count":9},{"id":12517,"title":"Punch, or the London Charivari, Volume 99, November 15, 1890","authors":[{"name":"Various","birth_year":null,"death_year":null}],"translators":[],"subjects":["English wit and humor -- Periodicals"],"bookshelves":["Punch"],"languages":["en"],"copyright":false,"media_type":"Text","formats":{"text/html":"https://www.gutenberg.org/ebooks/12517.html.images","text/html; charset=iso-8859-1":"https://www.gutenberg.org/files/12517/12517-h/12517-h.htm","application/epub+zip":"https://www.gutenberg.org/ebooks/12517.epub3.images","application/x-mobipocket-ebook":"https://www.gutenberg.org/ebooks/12517.kf8.images","text/plain; charset=us-ascii":"https://www.gutenberg.org/ebooks/12517.txt.utf-8","text/plain; charset=iso-8859-1":"https://www.gutenberg.org/files/12517/12517-8.txt","application/rdf+xml":"https://www.gutenberg.org/ebooks/12517.rdf","image/jpeg":"https://www.gutenberg.org/cache/epub/12517/pg12517.cover.medium.jpg","application/octet-stream":"https://www.gutenberg.org/cache/epub/12517/pg12517-h.zip"},"download_count":9},{"id":12571,"title":"The Boy Allies in the Trenches; Or, Midst Shot and Shell Along the Aisne","authors":[{"name":"Hayes, Clair W. (Clair Wallace)","birth_year":1887,"death_year":null}],"translators":[],"subjects":["World War, 1914-1918 -- Juvenile fiction"],"bookshelves":["Children's Book Series","World War I"],"languages":["en"],"copyright":false,"media_type":"Text","formats":{"text/html":"https://www.gutenberg.org/ebooks/12571.html.images","application/epub+zip":"https://www.gutenberg.org/ebooks/12571.epub3.images","application/x-mobipocket-ebook":"https://www.gutenberg.org/ebooks/12571.kf8.images","text/plain; charset=us-ascii":"https://www.gutenberg.org/ebooks/12571.txt.utf-8","text/plain; charset=iso-8859-1":"https://www.gutenberg.org/files/12571/12571-8.txt","application/rdf+xml":"https://www.gutenberg.org/ebooks/12571.rdf","image/jpeg":"https://www.gutenberg.org/cache/epub/12571/pg12571.cover.medium.jpg","application/octet-stream":"https://www.gutenberg.org/cache/epub/12571/pg12571-h.zip"},"download_count":9},{"id":12692,"title":"The High School Captain of the Team; or, Dick & Co. Leading the Athletic Vanguard","authors":[{"name":"Hancock, H. Irving (Harrie Irving)","birth_year":1868,"death_year":1922}],"translators":[],"subjects":["Football -- Juvenile fiction","High school students -- Juvenile fiction"],"bookshelves":[],"languages":["en"],"copyright":false,"media_type":"Text","formats":{"text/html":"https://www.gutenberg.org/ebooks/12692.html.images","application/epub+zip":"https://www.gutenberg.org/ebooks/12692.epub3.images","application/x-mobipocket-ebook":"https://www.gutenberg.org/ebooks/12692.kf8.images","text/plain; charset=us-ascii":"https://www.gutenberg.org/ebooks/12692.txt.utf-8","application/rdf+xml":"https://www.gutenberg.org/ebooks/12692.rdf","image/jpeg":"https://www.gutenberg.org/cache/epub/12692/pg12692.cover.medium.jpg","application/octet-stream":"https://www.gutenberg.org/cache/epub/12692/pg12692-h.zip"},"download_count":9},{"id":12719,"title":"Sonnet # 29","authors":[{"name":"Shakespeare, William","birth_year":1564,"death_year":1616}],"translators":[],"subjects":["English poetry","Sonnets, English"],"bookshelves":[],"languages":["en"],"copyright":true,"media_type":"Sound","formats":{"text/plain; charset=us-ascii":"https://www.gutenberg.org/files/12719/12719-readme.txt","application/octet-stream":"https://www.gutenberg.org/files/12719/readme-license.txt","audio/mpeg":"https://www.gutenberg.org/files/12719/12719-m/12719-m-029.mp3","application/rdf+xml":"https://www.gutenberg.org/ebooks/12719.rdf"},"download_count":9},{"id":12723,"title":"Sonnet #106","authors":[{"name":"Shakespeare, William","birth_year":1564,"death_year":1616}],"translators":[],"subjects":["English poetry","Sonnets, English"],"bookshelves":[],"languages":["en"],"copyright":true,"media_type":"Sound","formats":{"text/plain; charset=us-ascii":"https://www.gutenberg.org/files/12723/12723-readme.txt","application/octet-stream":"https://www.gutenberg.org/files/12723/readme-license.txt","audio/mpeg":"https://www.gutenberg.org/files/12723/12723-m/12723-m-106.mp3","application/rdf+xml":"https://www.gutenberg.org/ebooks/12723.rdf"},"download_count":9},{"id":12872,"title":"Punch, or the London Charivari, Volume 100, January 24, 1891","authors":[{"name":"Various","birth_year":null,"death_year":null}],"translators":[],"subjects":["English wit and humor -- Periodicals"],"bookshelves":["Punch"],"languages":["en"],"copyright":false,"media_type":"Text","formats":{"text/html":"https://www.gutenberg.org/ebooks/12872.html.images","text/html; charset=iso-8859-1":"https://www.gutenberg.org/files/12872/12872-h/12872-h.htm","application/epub+zip":"https://www.gutenberg.org/ebooks/12872.epub3.images","application/x-mobipocket-ebook":"https://www.gutenberg.org/ebooks/12872.kf8.images","text/plain; charset=us-ascii":"https://www.gutenberg.org/ebooks/12872.txt.utf-8","text/plain; charset=iso-8859-1":"https://www.gutenberg.org/files/12872/12872-8.txt","application/rdf+xml":"https://www.gutenberg.org/ebooks/12872.rdf","image/jpeg":"https://www.gutenberg.org/cache/epub/12872/pg12872.cover.medium.jpg","application/octet-stream":"https://www.gutenberg.org/cache/epub/12872/pg12872-h.zip"},"download_count":9},{"id":13048,"title":"Where the Sabots Clatter Again","authors":[{"name":"Shortall, Katherine","birth_year":null,"death_year":null}],"translators":[],"subjects":["France -- Civilization -- 1901-1945","France -- Description and travel"],"bookshelves":[],"languages":["en"],"copyright":false,"media_type":"Text","formats":{"text/html":"https://www.gutenberg.org/ebooks/13048.html.images","text/html; charset=iso-8859-1":"https://www.gutenberg.org/files/13048/13048-h/13048-h.htm","application/epub+zip":"https://www.gutenberg.org/ebooks/13048.epub3.images","application/x-mobipocket-ebook":"https://www.gutenberg.org/ebooks/13048.kf8.images","text/plain; charset=us-ascii":"https://www.gutenberg.org/ebooks/13048.txt.utf-8","text/plain; charset=iso-8859-1":"https://www.gutenberg.org/files/13048/13048-8.txt","application/rdf+xml":"https://www.gutenberg.org/ebooks/13048.rdf","image/jpeg":"https://www.gutenberg.org/cache/epub/13048/pg13048.cover.medium.jpg","application/octet-stream":"https://www.gutenberg.org/cache/epub/13048/pg13048-h.zip"},"download_count":9},{"id":13421,"title":"Punch, or the London Charivari, Volume 100, June 27, 1891","authors":[{"name":"Various","birth_year":null,"death_year":null}],"translators":[],"subjects":["English wit and humor -- Periodicals"],"bookshelves":["Punch"],"languages":["en"],"copyright":false,"media_type":"Text","formats":{"text/html":"https://www.gutenberg.org/ebooks/13421.html.images","text/html; charset=iso-8859-1":"https://www.gutenberg.org/files/13421/13421-h/13421-h.htm","application/epub+zip":"https://www.gutenberg.org/ebooks/13421.epub3.images","application/x-mobipocket-ebook":"https://www.gutenberg.org/ebooks/13421.kf8.images","text/plain; charset=us-ascii":"https://www.gutenberg.org/ebooks/13421.txt.utf-8","text/plain; charset=iso-8859-1":"https://www.gutenberg.org/files/13421/13421-8.txt","application/rdf+xml":"https://www.gutenberg.org/ebooks/13421.rdf","image/jpeg":"https://www.gutenberg.org/cache/epub/13421/pg13421.cover.medium.jpg","application/octet-stream":"https://www.gutenberg.org/cache/epub/13421/pg13421-h.zip"},"download_count":9},{"id":13898,"title":"Don Strong, Patrol Leader","authors":[{"name":"Heyliger, William","birth_year":1884,"death_year":1955}],"translators":[],"subjects":["Baseball -- Juvenile fiction","Boy Scouts of America -- Juvenile fiction"],"bookshelves":[],"languages":["en"],"copyright":false,"media_type":"Text","formats":{"text/html":"https://www.gutenberg.org/ebooks/13898.html.images","application/epub+zip":"https://www.gutenberg.org/ebooks/13898.epub3.images","application/x-mobipocket-ebook":"https://www.gutenberg.org/ebooks/13898.kf8.images","text/plain; charset=us-ascii":"https://www.gutenberg.org/ebooks/13898.txt.utf-8","application/rdf+xml":"https://www.gutenberg.org/ebooks/13898.rdf","image/jpeg":"https://www.gutenberg.org/cache/epub/13898/pg13898.cover.medium.jpg","application/octet-stream":"https://www.gutenberg.org/cache/epub/13898/pg13898-h.zip"},"download_count":9},{"id":14425,"title":"Mona; Or, The Secret of a Royal Mirror","authors":[{"name":"Sheldon, Georgie, Mrs.","birth_year":1843,"death_year":1926}],"translators":[],"subjects":["Fiction"],"bookshelves":[],"languages":["en"],"copyright":false,"media_type":"Text","formats":{"text/html":"https://www.gutenberg.org/ebooks/14425.html.images","application/epub+zip":"https://www.gutenberg.org/ebooks/14425.epub3.images","application/x-mobipocket-ebook":"https://www.gutenberg.org/ebooks/14425.kf8.images","text/plain; charset=us-ascii":"https://www.gutenberg.org/ebooks/14425.txt.utf-8","text/plain; charset=iso-8859-1":"https://www.gutenberg.org/files/14425/14425-8.txt","application/rdf+xml":"https://www.gutenberg.org/ebooks/14425.rdf","image/jpeg":"https://www.gutenberg.org/cache/epub/14425/pg14425.cover.medium.jpg","application/octet-stream":"https://www.gutenberg.org/cache/epub/14425/pg14425-h.zip"},"download_count":9},{"id":14925,"title":"Punch, or the London Charivari, Volume 1, August 28, 1841","authors":[{"name":"Various","birth_year":null,"death_year":null}],"translators":[],"subjects":["English wit and humor -- Periodicals"],"bookshelves":["Punch"],"languages":["en"],"copyright":false,"media_type":"Text","formats":{"text/html":"https://www.gutenberg.org/ebooks/14925.html.images","text/html; charset=iso-8859-1":"https://www.gutenberg.org/files/14925/14925-h/14925-h.htm","application/epub+zip":"https://www.gutenberg.org/ebooks/14925.epub3.images","application/x-mobipocket-ebook":"https://www.gutenberg.org/ebooks/14925.kf8.images","text/plain; charset=us-ascii":"https://www.gutenberg.org/ebooks/14925.txt.utf-8","text/plain; charset=iso-8859-1":"https://www.gutenberg.org/files/14925/14925-8.txt","application/rdf+xml":"https://www.gutenberg.org/ebooks/14925.rdf","image/jpeg":"https://www.gutenberg.org/cache/epub/14925/pg14925.cover.medium.jpg","application/octet-stream":"https://www.gutenberg.org/cache/epub/14925/pg14925-h.zip"},"download_count":9}]}