{"count":58808,"next":"http://129.241.150.113:8000/books/?languages=en&page=1583","previous":"http://129.241.150.113:8000/books/?languages=en&page=1581","results":[{"id":8464,"title":"Rest Harrow: A Comedy of Resolution","authors":[{"name":"Hewlett, Maurice","birth_year":1861,"death_year":1923}],"translators":[],"subjects":["Fiction"],"bookshelves":[],"languages":["en"],"copyright":false,"media_type":"Text","formats":{"text/html":"https://www.gutenberg.org/ebooks/8464.html.images","text/html; charset=utf-8":"https://www.gutenberg.org/files/8464/8464-h/8464-h.htm","application/epub+zip":"https://www.gutenberg.org/ebooks/8464.epub3.images","application/x-mobipocket-ebook":"https://www.gutenberg.org/ebooks/8464.kf8.images","text/plain; charset=us-ascii":"https://www.gutenberg.org/ebooks/8464.txt.utf-8","text/plain; charset=utf-8":"https://www.gutenberg.org/files/8464/8464-0.txt","application/rdf+xml":"https://www.gutenberg.org/ebooks/8464.rdf","image/jpeg":"https://www.gutenberg.org/cache/epub/8464/pg8464.cover.medium.jpg","application/octet-stream":"https://www.gutenberg.org/cache/epub/8464/pg8464-h.zip"},"download_count":21},{"id":8552,"title":"The Seaboard Parish Volume 2","authors":[{"name":"MacDonald, George","birth_year":1824,"death_year":1905}],"translators":[],"subjects":["Christian fiction","Neighborhoods -- Scotland -- Fiction"],"bookshelves":[],"languages":["en"],"copyright":false,"media_type":"Text","formats":{"text/html":"https://www.gutenberg.org/ebooks/8552.html.images","text/html; charset=iso-8859-1":"https://www.gutenberg.org/files/8552/8552-h/8552-h.htm","application/epub+zip":"https://www.gutenberg.org/ebooks/8552.epub3.images","application/x-mobipocket-ebook":"https://www.gutenberg.org/ebooks/8552.kf8.images","text/plain; charset=us-ascii":"https://www.gutenberg.org/ebooks/8552.txt.utf-8","text/plain; charset=iso-8859-1":"https://www.gutenberg.org/files/8552/8552-8.txt","application/rdf+xml":"https://www.gutenberg.org/ebooks/8552.rdf","image/jpeg":"https://www.gutenberg.org/cache/epub/8552/pg8552.cover.medium.jpg","application/octet-stream":"https://www.gutenberg.org/cache/epub/8552/pg8552-h.zip"},"download_count":21},{"id":8570,"title":"The Philistines","authors":[{"name":"Bates, Arlo","birth_year":1850,"death_year":1918}],"translators":[],"subjects":["Fiction"],"bookshelves":[],"languages":["en"],"copyright":false,"media_type":"Text","formats":{"text/html":"https://www.gutenberg.org/ebooks/8570.html.images","application/epub+zip":"https://www.gutenberg.org/ebooks/8570.epub3.images","application/x-mobipocket-ebook":"https://www.gutenberg.org/ebooks/8570.kf8.images","text/plain; charset=us-ascii":"https://www.gutenberg.org/ebooks/8570.txt.utf-8","application/rdf+xml":"https://www.gutenberg.org/ebooks/8570.rdf","image/jpeg":"https://www.gutenberg.org/cache/epub/8570/pg8570.cover.medium.jpg","application/octet-stream":"https://www.gutenberg.org/cache/epub/8570/pg8570-h.zip"},"download_count":21},{"id":8652,"title":"Crowded Out! and Other Sketches","authors":[{"name":"Harrison, S. Frances (Susie Frances)","birth_year":1859,"death_year":1935}],"translators":[],"subjects":["Short stories, Canadian"],"bookshelves":[],"languages":["en"],"copyright":false,"media_type":"Text","formats":{"text/html":"https://www.gutenberg.org/ebooks/8652.html.images","text/html; charset=utf-8":"https://www.gutenberg.org/files/8652/8652-h/8652-h.htm","application/epub+zip":"https://www.gutenberg.org/ebooks/8652.epub3.images","application/x-mobipocket-ebook":"https://www.gutenberg.org/ebooks/8652.kf8.images","text/plain; charset=us-ascii":"https://www.gutenberg.org/ebooks/8652.txt.utf-8","text/plain; charset=utf-8":"https://www.gutenberg.org/files/8652/8652-0.txt","text/plain; charset=iso-8859-1":"https://www.gutenberg.org/files/8652/8652-8.txt","application/rdf+xml":"https://www.gutenberg.org/ebooks/8652.rdf","image/jpeg":"https://www.gutenberg.org/cache/epub/8652/pg8652.cover.medium.jpg","application/octet-stream":"https://www.gutenberg.org/cache/epub/8652/pg8652-h.zip"},"download_count":21},{"id":8755,"title":"Tarzan and the Jewels of Opar","authors":[{"name":"Burroughs, Edgar Rice","birth_year":1875,"death_year":1950}],"translators":[],"subjects":["Adventure stories","Fantasy fiction","Tarzan (Fictitious character) -- Fiction"],"bookshelves":["Adventure","Movie Books"],"languages":["en"],"copyright":true,"media_type":"Sound","formats":{"text/plain; charset=us-ascii":"https://www.gutenberg.org/files/8755/8755-readme.txt","text/html; charset=iso-8859-1":"https://www.gutenberg.org/files/8755/8755-index.htm","audio/mpeg":"https://www.gutenberg.org/files/8755/mp3/8755-000.mp3","application/rdf+xml":"https://www.gutenberg.org/ebooks/8755.rdf","application/octet-stream":"https://www.gutenberg.org/files/8755/8755-mp3.zip"},"download_count":21},{"id":8843,"title":"Weymouth New Testament in Modern Speech, 2 Timothy","authors":[{"name":"Weymouth, Richard Francis","birth_year":1822,"death_year":1902}],"translators":[],"subjects":["Bible. Timothy"],"bookshelves":[],"languages":["en"],"copyright":false,"media_type":"Text","formats":{"text/html":"https://www.gutenberg.org/ebooks/8843.html.images","application/epub+zip":"https://www.gutenberg.org/ebooks/8843.epub3.images","application/x-mobipocket-ebook":"https://www.gutenberg.org/ebooks/8843.kf8.images","text/plain; charset=us-ascii":"https://www.gutenberg.org/ebooks/8843.txt.utf-8","application/rdf+xml":"https://www.gutenberg.org/ebooks/8843.rdf","image/jpeg":"https://www.gutenberg.org/cache/epub/8843/pg8843.cover.medium.jpg","application/octet-stream":"https://www.gutenberg.org/cache/epub/8843/pg8843-h.zip"},"download_count":21},{"id":8847,"title":"Weymouth New Testament in Modern Speech, James","authors":[{"name":"Weymouth, Richard Francis","birth_year":1822,"death_year":1902}],"translators":[],"subjects":["Bible. James"],"bookshelves":[],"languages":["en"],"copyright":false,"media_type":"Text","formats":{"text/html":"https://www.gutenberg.org/ebooks/8847.html.images","application/epub+zip":"https://www.gutenberg.org/ebooks/8847.epub3.images","application/x-mobipocket-ebook":"https://www.gutenberg.org/ebooks/8847.kf8.images","text/plain; charset=us-ascii":"https://www.gutenberg.org/ebooks/8847.txt.utf-8","application/rdf+xml":"https://www.gutenberg.org/ebooks/8847.rdf","image/jpeg":"https://www.gutenberg.org/cache/epub/8847/pg8847.cover.medium.jpg","application/octet-stream":"https://www.gutenberg.org/cache/epub/8847/pg8847-h.zip"},"download_count":21},{"id":8854,"title":"Weymouth New Testament in Modern Speech, Revelation","authors":[{"name":"Weymouth, Richard Francis","birth_year":1822,"death_year":1902}],"translators":[],"subjects":["Bible. Revelation"],"bookshelves":[],"languages":["en"],"copyright":false,"media_type":"Text","formats":{"text/html":"https://www.gutenberg.org/ebooks/8854.html.images","application/epub+zip":"https://www.gutenberg.org/ebooks/8854.epub3.images","application/x-mobipocket-ebook":"https://www.gutenberg.org/ebooks/8854.kf8.images","text/plain; charset=us-ascii":"https://www.gutenberg.org/ebooks/8854.txt.utf-8","application/rdf+xml":"https://www.gutenberg.org/ebooks/8854.rdf","image/jpeg":"https://www.gutenberg.org/cache/epub/8854/pg8854.cover.medium.jpg","application/octet-stream":"https://www.gutenberg.org/cache/epub/8854/pg8854-h.zip"},"download_count":21},{"id":8898,"title":"Cliff Castles and Cave Dwellings of Europe","authors":[{"name":"Baring-Gould, S. (Sabine)","birth_year":1834,"death_year":1924}],"translators":[],"subjects":["Cave dwellings -- Europe","Cliff-dwellings -- Europe","Troglodytes"],"bookshelves":[],"languages":["en"],"copyright":false,"media_type":"Text","formats":{"text/html":"https://www.gutenberg.org/ebooks/8898.html.images","application/epub+zip":"https://www.gutenberg.org/ebooks/8898.epub3.images","application/x-mobipocket-ebook":"https://www.gutenberg.org/ebooks/8898.kf8.images","text/plain; charset=us-ascii":"https://www.gutenberg.org/ebooks/8898.txt.utf-8","text/plain; charset=iso-8859-1":"https://www.gutenberg.org/files/8898/8898-8.txt","application/rdf+xml":"https://www.gutenberg.org/ebooks/8898.rdf","image/jpeg":"https://www.gutenberg.org/cache/epub/8898/pg8898.cover.medium.jpg","application/octet-stream":"https://www.gutenberg.org/cache/epub/8898/pg8898-h.zip"},"download_count":21},{"id":8934,"title":"The Forest Lovers","authors":[{"name":"Hewlett, Maurice","birth_year":1861,"death_year":1923}],"translators":[],"subjects":["England -- Fiction","Historical fiction","Knights and knighthood -- Fiction","Love stories"],"bookshelves":[],"languages":["en"],"copyright":false,"media_type":"Text","formats":{"text/html":"https://www.gutenberg.org/ebooks/8934.html.images","application/epub+zip":"https://www.gutenberg.org/ebooks/8934.epub3.images","application/x-mobipocket-ebook":"https://www.gutenberg.org/ebooks/8934.kf8.images","text/plain; charset=us-ascii":"https://www.gutenberg.org/ebooks/8934.txt.utf-8","text/plain; charset=iso-8859-1":"https://www.gutenberg.org/files/8934/8934-8.txt","application/rdf+xml":"https://www.gutenberg.org/ebooks/8934.rdf","image/jpeg":"https://www.gutenberg.org/cache/epub/8934/pg8934.cover.medium.jpg","application/octet-stream":"https://www.gutenberg.org/cache/epub/8934/pg8934-h.zip"},"download_count":21},{"id":8965,"title":"Floor Games","authors":[{"name":"Wells, H. G. (Herbert George)","birth_year":1866,"death_year":1946}],"translators":[],"subjects":["Games","Games -- Juvenile literature"],"bookshelves":[],"languages":["en"],"copyright":true,"media_type":"Sound","formats":{"text/plain; charset=us-ascii":"https://www.gutenberg.org/files/8965/8965-readme.txt","text/html; charset=iso-8859-1":"https://www.gutenberg.org/files/8965/8965-index.htm","audio/mpeg":"https://www.gutenberg.org/files/8965/mp3/8965-000.mp3","application/rdf+xml":"https://www.gutenberg.org/ebooks/8965.rdf","application/octet-stream":"https://www.gutenberg.org/files/8965/8965-mp3.zip"},"download_count":21},{"id":8973,"title":"Little Wars","authors":[{"name":"Wells, H. G. (Herbert George)","birth_year":1866,"death_year":1946}],"translators":[],"subjects":["War games"],"bookshelves":[],"languages":["en"],"copyright":true,"media_type":"Sound","formats":{"text/plain; charset=us-ascii":"https://www.gutenberg.org/files/8973/8973-readme.txt","text/html; charset=iso-8859-1":"https://www.gutenberg.org/files/8973/8973-index.htm","audio/mpeg":"https://www.gutenberg.org/files/8973/mp3/8973-000.mp3","application/rdf+xml":"https://www.gutenberg.org/ebooks/8973.rdf","application/octet-stream":"https://www.gutenberg.org/files/8973/8973-mp3.zip"},"download_count":21},{"id":9036,"title":"Tom Sawyer Abroad","authors":[{"name":"Twain, Mark","birth_year":1835,"death_year":1910}],"translators":[],"subjects":["Adventure stories","Americans -- Foreign countries -- Fiction","Balloon ascensions -- Fiction","Sawyer, Tom (Fictitious character) -- Fiction"],"bookshelves":[],"languages":["en"],"copyright":true,"media_type":"Sound","formats":{"text/plain; charset=us-ascii":"https://www.gutenberg.org/files/9036/9036-readme.txt","text/html; charset=iso-8859-1":"https://www.gutenberg.org/files/9036/9036-index.htm","audio/mpeg":"https://www.gutenberg.org/files/9036/mp3/9036-000.mp3","application/rdf+xml":"https://www.gutenberg.org/ebooks/9036.rdf","application/octet-stream":"https://www.gutenberg.org/files/9036/9036-mp3.zip"},"download_count":21},{"id":9048,"title":"Ballads, Founded on Anecdotes Relating to Animals","authors":[{"name":"Hayley, William","birth_year":1745,"death_year":1820}],"translators":[],"subjects":["Animals -- Poetry"],"bookshelves":[],"languages":["en"],"copyright":false,"media_type":"Text","formats":{"text/html":"https://www.gutenberg.org/ebooks/9048.html.images","text/html; charset=iso-8859-1":"https://www.gutenberg.org/files/9048/9048-h/9048-h.htm","application/epub+zip":"https://www.gutenberg.org/ebooks/9048.epub3.images","application/x-mobipocket-ebook":"https://www.gutenberg.org/ebooks/9048.kf8.images","text/plain; charset=us-ascii":"https://www.gutenberg.org/ebooks/9048.txt.utf-8","text/plain; charset=iso-8859-1":"https://www.gutenberg.org/files/9048/9048-8.txt","application/rdf+xml":"https://www.gutenberg.org/ebooks/9048.rdf","image/jpeg":"https://www.gutenberg.org/cache/epub/9048/pg9048.cover.medium.jpg","application/octet-stream":"https://www.gutenberg.org/cache/epub/9048/pg9048-h.zip"},"download_count":21},{"id":9164,"title":"The Three Cities Trilogy: Paris, Volume 1","authors":[{"name":"Zola, Émile","birth_year":1840,"death_year":1902}],"translators":[{"name":"Vizetelly, Ernest Alfred","birth_year":1853,"death_year":1922}],"subjects":["Catholics -- Fiction","Clergy -- Fiction","Man-woman relationships -- Fiction","Paris (France) -- Fiction"],"bookshelves":[],"languages":["en"],"copyright":false,"media_type":"Text","formats":{"text/html":"https://www.gutenberg.org/ebooks/9164.html.images","text/html; charset=iso-8859-1":"https://www.gutenberg.org/files/9164/9164-h/9164-h.htm","application/epub+zip":"https://www.gutenberg.org/ebooks/9164.epub3.images","application/x-mobipocket-ebook":"https://www.gutenberg.org/ebooks/9164.kf8.images","text/plain; charset=us-ascii":"https://www.gutenberg.org/ebooks/9164.txt.utf-8","application/rdf+xml":"https://www.gutenberg.org/ebooks/9164.rdf","image/jpeg":"https://www.gutenberg.org/cache/epub/9164/pg9164.cover.medium.jpg","application/octet-stream":"https://www.gutenberg.org/cache/epub/9164/pg9164-h.zip"},"download_count":21},{"id":9202,"title":"Little Annie's Ramble (From \"Twice Told Tales\")","authors":[{"name":"Hawthorne, Nathaniel","birth_year":1804,"death_year":1864}],"translators":[],"subjects":["Historical fiction, American","New England -- Social life and customs -- Fiction","Short stories"],"bookshelves":["Children's Literature"],"languages":["en"],"copyright":false,"media_type":"Text","formats":{"text/html":"https://www.gutenberg.org/ebooks/9202.html.images","text/html; charset=iso-8859-1":"https://www.gutenberg.org/files/9202/9202-h/9202-h.htm","application/epub+zip":"https://www.gutenberg.org/ebooks/9202.epub3.images","application/x-mobipocket-ebook":"https://www.gutenberg.org/ebooks/9202.kf8.images","text/plain; charset=us-ascii":"https://www.gutenberg.org/ebooks/9202.txt.utf-8","application/rdf+xml":"https://www.gutenberg.org/ebooks/9202.rdf","image/jpeg":"https://www.gutenberg.org/cache/epub/9202/pg9202.cover.medium.jpg","application/octet-stream":"https://www.gutenberg.org/cache/epub/9202/pg9202-h.zip"},"download_count":21},{"id":9225,"title":"Monsieur du Miroir (From \"Mosses from an Old Manse\")","authors":[{"name":"Hawthorne, Nathaniel","birth_year":1804,"death_year":1864}],"translators":[],"subjects":["New England -- Social life and customs -- Fiction","Short stories"],"bookshelves":[],"languages":["en"],"copyright":false,"media_type":"Text","formats":{"text/html":"https://www.gutenberg.org/ebooks/9225.html.images","application/epub+zip":"https://www.gutenberg.org/ebooks/9225.epub3.images","application/x-mobipocket-ebook":"https://www.gutenberg.org/ebooks/9225.kf8.images","text/plain; charset=us-ascii":"https://www.gutenberg.org/ebooks/9225.txt.utf-8","application/rdf+xml":"https://www.gutenberg.org/ebooks/9225.rdf","image/jpeg":"https://www.gutenberg.org/cache/epub/9225/pg9225.cover.medium.jpg","application/octet-stream":"https://www.gutenberg.org/files/9225/9225-0.zip"},"download_count":21},{"id":9290,"title":"The Touchstone","authors":[{"name":"Wharton, Edith","birth_year":1862,"death_year":1937}],"translators":[],"subjects":["Love-letters -- Fiction","Married people -- Fiction","Psychological fiction","Rejection (Psychology) -- Fiction","Triangles (Interpersonal relations) -- Fiction","Women novelists -- Fiction"],"bookshelves":[],"languages":["en"],"copyright":true,"media_type":"Sound","formats":{"text/plain; charset=us-ascii":"https://www.gutenberg.org/files/9290/9290-readme.txt","text/html; charset=iso-8859-1":"https://www.gutenberg.org/files/9290/9290-index.htm","audio/mpeg":"https://www.gutenberg.org/files/9290/mp3/9290-000.mp3","application/rdf+xml":"https://www.gutenberg.org/ebooks/9290.rdf","application/octet-stream":"https://www.gutenberg.org/files/9290/9290-mp3.zip"},"download_count":21},{"id":9295,"title":"A Night Out","authors":[{"name":"Peple, Edward","birth_year":1869,"death_year":1924}],"translators":[],"subjects":["Cats -- Fiction"],"bookshelves":[],"languages":["en"],"copyright":false,"media_type":"Text","formats":{"text/html":"https://www.gutenberg.org/ebooks/9295.html.images","text/html; charset=us-ascii":"https://www.gutenberg.org/files/9295/9295-h/9295-h.htm","application/epub+zip":"https://www.gutenberg.org/ebooks/9295.epub3.images","application/x-mobipocket-ebook":"https://www.gutenberg.org/ebooks/9295.kf8.images","text/plain; charset=us-ascii":"https://www.gutenberg.org/ebooks/9295.txt.utf-8","application/rdf+xml":"https://www.gutenberg.org/ebooks/9295.rdf","image/jpeg":"https://www.gutenberg.org/cache/epub/9295/pg9295.cover.medium.jpg","application/octet-stream":"https://www.gutenberg.org/cache/epub/9295/pg9295-h.zip"},"download_count":21},{"id":9303,"title":"Post-Augustan Poetry From Seneca to Juvenal","authors":[{"name":"Butler, Harold Edgeworth","birth_year":1878,"death_year":1951}],"translators":[],"subjects":["Latin poetry -- History and criticism","Rome -- In literature"],"bookshelves":[],"languages":["en"],"copyright":false,"media_type":"Text","formats":{"text/html":"https://www.gutenberg.org/ebooks/9303.html.images","application/epub+zip":"https://www.gutenberg.org/ebooks/9303.epub3.images","application/x-mobipocket-ebook":"https://www.gutenberg.org/ebooks/9303.kf8.images","text/plain; charset=us-ascii":"https://www.gutenberg.org/ebooks/9303.txt.utf-8","text/plain; charset=iso-8859-1":"https://www.gutenberg.org/files/9303/9303-8.txt","application/rdf+xml":"https://www.gutenberg.org/ebooks/9303.rdf","image/jpeg":"https://www.gutenberg.org/cache/epub/9303/pg9303.cover.medium.jpg","application/octet-stream":"https://www.gutenberg.org/cache/epub/9303/pg9303-h.zip"},"download_count":21},{"id":9329,"title":"The Widow O'Callaghan's Boys","authors":[{"name":"Zollinger, Gulielma","birth_year":1856,"death_year":1917}],"translators":[],"subjects":["Irish Americans -- Juvenile fiction","Mothers and sons -- Juvenile fiction","Poor -- Juvenile fiction","Widows -- Juvenile fiction"],"bookshelves":[],"languages":["en"],"copyright":false,"media_type":"Text","formats":{"text/html":"https://www.gutenberg.org/ebooks/9329.html.images","text/html; charset=us-ascii":"https://www.gutenberg.org/files/9329/9329-h/9329-h.htm","application/epub+zip":"https://www.gutenberg.org/ebooks/9329.epub3.images","application/x-mobipocket-ebook":"https://www.gutenberg.org/ebooks/9329.kf8.images","text/plain; charset=us-ascii":"https://www.gutenberg.org/ebooks/9329.txt.utf-8","application/rdf+xml":"https://www.gutenberg.org/ebooks/9329.rdf","image/jpeg":"https://www.gutenberg.org/cache/epub/9329/pg9329.cover.medium.jpg","application/octet-stream":"https://www.gutenberg.org/cache/epub/9329/pg9329-h.zip"},"download_count":21},{"id":9389,"title":"The Atlantic Monthly, Volume 05, No. 29, March, 1860: A Magazine of Literature, Art, and Politics","authors":[{"name":"Various","birth_year":null,"death_year":null}],"translators":[],"subjects":["American periodicals"],"bookshelves":["The Atlantic Monthly"],"languages":["en"],"copyright":false,"media_type":"Text","formats":{"text/html":"https://www.gutenberg.org/ebooks/9389.html.images","application/epub+zip":"https://www.gutenberg.org/ebooks/9389.epub3.images","application/x-mobipocket-ebook":"https://www.gutenberg.org/ebooks/9389.kf8.images","text/plain; charset=us-ascii":"https://www.gutenberg.org/ebooks/9389.txt.utf-8","text/plain; charset=iso-8859-1":"https://www.gutenberg.org/files/9389/9389-8.txt","application/rdf+xml":"https://www.gutenberg.org/ebooks/9389.rdf","image/jpeg":"https://www.gutenberg.org/cache/epub/9389/pg9389.cover.medium.jpg","application/octet-stream":"https://www.gutenberg.org/cache/epub/9389/pg9389-h.zip"},"download_count":21},{"id":9410,"title":"Helen of the Old House","authors":[{"name":"Wright, Harold Bell","birth_year":1872,"death_year":1944}],"translators":[],"subjects":["Fiction"],"bookshelves":["Bestsellers, American, 1895-1923"],"languages":["en"],"copyright":false,"media_type":"Text","formats":{"text/html":"https://www.gutenberg.org/ebooks/9410.html.images","application/epub+zip":"https://www.gutenberg.org/ebooks/9410.epub3.images","application/x-mobipocket-ebook":"https://www.gutenberg.org/ebooks/9410.kf8.images","text/plain; charset=us-ascii":"https://www.gutenberg.org/ebooks/9410.txt.utf-8","text/plain; charset=iso-8859-1":"https://www.gutenberg.org/files/9410/9410-8.txt","application/rdf+xml":"https://www.gutenberg.org/ebooks/9410.rdf","image/jpeg":"https://www.gutenberg.org/cache/epub/9410/pg9410.cover.medium.jpg","application/octet-stream":"https://www.gutenberg.org/cache/epub/9410/pg9410-h.zip"},"download_count":21},{"id":9429,"title":"A pair of blue eyes","authors":[{"name":"Hardy, Thomas","birth_year":1840,"death_year":1928}],"translators":[],"subjects":["Didactic fiction","Elopement -- Fiction","Separation (Psychology) -- Fiction","Triangles (Interpersonal relations) -- Fiction","Wessex (England) -- Fiction"],"bookshelves":[],"languages":["en"],"copyright":true,"media_type":"Sound","formats":{"text/plain; charset=us-ascii":"https://www.gutenberg.org/files/9429/9429-readme.txt","text/html; charset=iso-8859-1":"https://www.gutenberg.org/files/9429/9429-index.htm","audio/mpeg":"https://www.gutenberg.org/files/9429/mp3/9429-000.mp3","application/rdf+xml":"https://www.gutenberg.org/ebooks/9429.rdf","application/octet-stream":"https://www.gutenberg.org/files/9429/9429-mp3.zip"},"download_count":21},{"id":9526,"title":"Catherine: a Story","authors":[{"name":"Thackeray, William Makepeace","birth_year":1811,"death_year":1863}],"translators":[],"subjects":["Biographical fiction","Executions and executioners -- Fiction","Hayes, Catharine Hall, 1690-1726 -- Fiction","Women murderers -- Fiction"],"bookshelves":[],"languages":["en"],"copyright":true,"media_type":"Sound","formats":{"text/plain; charset=us-ascii":"https://www.gutenberg.org/files/9526/9526-readme.txt","text/html; charset=iso-8859-1":"https://www.gutenberg.org/files/9526/9526-index.htm","audio/mpeg":"https://www.gutenberg.org/files/9526/mp3/9526-000.mp3","application/rdf+xml":"https://www.gutenberg.org/ebooks/9526.rdf","application/octet-stream":"https://www.gutenberg.org/files/9526/9526-mp3.zip"},"download_count":21},{"id":9570,"title":"Reminiscent Poems: Part 3 From Volume II of The Works of John Greenleaf Whittier","authors":[{"name":"Whittier, John Greenleaf","birth_year":1807,"death_year":1892}],"translators":[],"subjects":["American poetry -- 19th century"],"bookshelves":[],"languages":["en"],"copyright":false,"media_type":"Text","formats":{"text/html":"https://www.gutenberg.org/ebooks/9570.html.images","application/epub+zip":"https://www.gutenberg.org/ebooks/9570.epub3.images","application/x-mobipocket-ebook":"https://www.gutenberg.org/ebooks/9570.kf8.images","text/plain; charset=us-ascii":"https://www.gutenberg.org/ebooks/9570.txt.utf-8","application/rdf+xml":"https://www.gutenberg.org/ebooks/9570.rdf","image/jpeg":"https://www.gutenberg.org/cache/epub/9570/pg9570.cover.medium.jpg","application/octet-stream":"https://www.gutenberg.org/cache/epub/9570/pg9570-h.zip"},"download_count":21},{"id":9589,"title":"Tales and Sketches: Part 3 from Volume V of The Works of John Greenleaf Whittier","authors":[{"name":"Whittier, John Greenleaf","birth_year":1807,"death_year":1892}],"translators":[],"subjects":["American literature"],"bookshelves":[],"languages":["en"],"copyright":false,"media_type":"Text","formats":{"text/html":"https://www.gutenberg.org/ebooks/9589.html.images","application/epub+zip":"https://www.gutenberg.org/ebooks/9589.epub3.images","application/x-mobipocket-ebook":"https://www.gutenberg.org/ebooks/9589.kf8.images","text/plain; charset=us-ascii":"https://www.gutenberg.org/ebooks/9589.txt.utf-8","application/rdf+xml":"https://www.gutenberg.org/ebooks/9589.rdf","image/jpeg":"https://www.gutenberg.org/cache/epub/9589/pg9589.cover.medium.jpg","application/octet-stream":"https://www.gutenberg.org/cache/epub/9589/pg9589-h.zip"},"download_count":21},{"id":9591,"title":"Old Portraits and Modern Sketches: Part 1 from Volume VI of The Works of John Greenleaf Whittier","authors":[{"name":"Whittier, John Greenleaf","birth_year":1807,"death_year":1892}],"translators":[],"subjects":["Biography"],"bookshelves":[],"languages":["en"],"copyright":false,"media_type":"Text","formats":{"text/html":"https://www.gutenberg.org/ebooks/9591.html.images","application/epub+zip":"https://www.gutenberg.org/ebooks/9591.epub3.images","application/x-mobipocket-ebook":"https://www.gutenberg.org/ebooks/9591.kf8.images","text/plain; charset=us-ascii":"https://www.gutenberg.org/ebooks/9591.txt.utf-8","application/rdf+xml":"https://www.gutenberg.org/ebooks/9591.rdf","image/jpeg":"https://www.gutenberg.org/cache/epub/9591/pg9591.cover.medium.jpg","application/octet-stream":"https://www.gutenberg.org/cache/epub/9591/pg9591-h.zip"},"download_count":21},{"id":9728,"title":"Pictures from Italy","authors":[{"name":"Dickens, Charles","birth_year":1812,"death_year":1870}],"translators":[],"subjects":["Dickens, Charles, 1812-1870 -- Travel -- Italy","Italy -- Description and travel","Novelists, English -- 19th century -- Biography"],"bookshelves":[],"languages":["en"],"copyright":true,"media_type":"Sound","formats":{"text/plain; charset=us-ascii":"https://www.gutenberg.org/files/9728/9728-readme.txt","text/html; charset=iso-8859-1":"https://www.gutenberg.org/files/9728/9728-index.htm","audio/mpeg":"https://www.gutenberg.org/files/9728/mp3/9728-000.mp3","application/rdf+xml":"https://www.gutenberg.org/ebooks/9728.rdf","application/octet-stream":"https://www.gutenberg.org/files/9728/9728-mp3.zip"},"download_count":21},{"id":9896,"title":"My Days of Adventure: The Fall of France, 1870-71","authors":[{"name":"Vizetelly, Ernest Alfred","birth_year":1853,"death_year":1922}],"translators":[],"subjects":["Franco-Prussian War, 1870-1871 -- Personal narratives"],"bookshelves":[],"languages":["en"],"copyright":false,"media_type":"Text","formats":{"text/html":"https://www.gutenberg.org/ebooks/9896.html.images","application/epub+zip":"https://www.gutenberg.org/ebooks/9896.epub3.images","application/x-mobipocket-ebook":"https://www.gutenberg.org/ebooks/9896.kf8.images","text/plain; charset=us-ascii":"https://www.gutenberg.org/ebooks/9896.txt.utf-8","text/plain; charset=iso-8859-1":"https://www.gutenberg.org/files/9896/9896-8.txt","application/rdf+xml":"https://www.gutenberg.org/ebooks/9896.rdf","image/jpeg":"https://www.gutenberg.org/cache/epub/9896/pg9896.cover.medium.jpg","application/octet-stream":"https://www.gutenberg.org/cache/epub/9896/pg9896-h.zip"},"download_count":21},{"id":9968,"title":"The Young Woodsman; Or, Life in the Forests of Canada","authors":[{"name":"Oxley, J. Macdonald (James Macdonald)","birth_year":1855,"death_year":1907}],"translators":[],"subjects":["Adventure stories","Canada -- Juvenile fiction","Christian life -- Juvenile fiction","Conduct of life -- Juvenile fiction","Friendship -- Juvenile fiction","Hunting -- Fiction","Logging -- Juvenile fiction","Lumber camps -- Juvenile fiction","Mothers and sons -- Juvenile fiction","Outdoor life -- Juvenile fiction","Youth -- Conduct of life -- Juvenile fiction","Youth and death -- Juvenile fiction"],"bookshelves":[],"languages":["en"],"copyright":false,"media_type":"Text","formats":{"text/html":"https://www.gutenberg.org/ebooks/9968.html.images","application/epub+zip":"https://www.gutenberg.org/ebooks/9968.epub3.images","application/x-mobipocket-ebook":"https://www.gutenberg.org/ebooks/9968.kf8.images","text/plain; charset=us-ascii":"https://www.gutenberg.org/ebooks/9968.txt.utf-8","text/plain; charset=iso-8859-1":"https://www.gutenberg.org/files/9968/9968-8.txt","application/rdf+xml":"https://www.gutenberg.org/ebooks/9968.rdf","image/jpeg":"https://www.gutenberg.org/cache/epub/9968/pg9968.cover.medium.jpg","application/octet-stream":"https://www.gutenberg.org/cache/epub/9968/pg9968-h.zip"},"download_count":21},{"id":9988,"title":"Amarilly of Clothes-line Alley","authors":[{"name":"Maniates, Belle Kanaris","birth_year":null,"death_year":null}],"translators":[],"subjects":["Poor -- Fiction","Young women -- Fiction"],"bookshelves":[],"languages":["en"],"copyright":false,"media_type":"Text","formats":{"text/html":"https://www.gutenberg.org/ebooks/9988.html.images","application/epub+zip":"https://www.gutenberg.org/ebooks/9988.epub3.images","application/x-mobipocket-ebook":"https://www.gutenberg.org/ebooks/9988.kf8.images","text/plain; charset=us-ascii":"https://www.gutenberg.org/ebooks/9988.txt.utf-8","text/plain; charset=iso-8859-1":"https://www.gutenberg.org/files/9988/9988-8.txt","application/rdf+xml":"https://www.gutenberg.org/ebooks/9988.rdf","image/jpeg":"https://www.gutenberg.org/cache/epub/9988/pg9988.cover.medium.jpg","application/octet-stream":"https://www.gutenberg.org/cache/epub/9988/pg9988-h.zip"},"download_count":21}]}