{"count":58808,"next":"http://129.241.150.113:8000/books/?languages=en&page=1383","previous":"http://129.241.150.113:8000/books/?languages=en&page=1381","results":[{"id":8543,"title":"The Great North-Western Conspiracy in All Its Startling Details","authors":[{"name":"Ayer, I. Winslow","birth_year":null,"death_year":null}],"translators":[],"subjects":["Knights of the Golden Circle","Northwestern Conspiracy, 1864"],"bookshelves":[],"languages":["en"],"copyright":false,"media_type":"Text","formats":{"text/html":"https://www.gutenberg.org/ebooks/8543.html.images","text/html; charset=iso-8859-1":"https://www.gutenberg.org/files/8543/8543-h/8543-h.htm","application/epub+zip":"https://www.gutenberg.org/ebooks/8543.epub3.images","application/x-mobipocket-ebook":"https://www.gutenberg.org/ebooks/8543.kf8.images","text/plain; charset=us-ascii":"https://www.gutenberg.org/ebooks/8543.txt.utf-8","text/plain; charset=iso-8859-1":"https://www.gutenberg.org/files/8543/8543-8.txt","application/rdf+xml":"https://www.gutenberg.org/ebooks/8543.rdf","image/jpeg":"https://www.gutenberg.org/cache/epub/8543/pg8543.cover.medium.jpg","application/octet-stream":"https://www.gutenberg.org/cache/epub/8543/pg8543-h.zip"},"download_count":26},{"id":8584,"title":"Roughing It, Part 3.","authors":[{"name":"Twain, Mark","birth_year":1835,"death_year":1910}],"translators":[],"subjects":["Authors, American -- Homes and haunts -- West (U.S.)","Hawaii -- Description and travel","Twain, Mark, 1835-1910 -- Travel -- West (U.S.)","West (U.S.) -- Description and travel","West (U.S.) -- Intellectual life -- 19th century"],"bookshelves":[],"languages":["en"],"copyright":false,"media_type":"Text","formats":{"text/html":"https://www.gutenberg.org/ebooks/8584.html.images","text/html; charset=iso-8859-1":"https://www.gutenberg.org/files/8584/8584-h/8584-h.htm","application/epub+zip":"https://www.gutenberg.org/ebooks/8584.epub3.images","application/x-mobipocket-ebook":"https://www.gutenberg.org/ebooks/8584.kf8.images","text/plain; charset=us-ascii":"https://www.gutenberg.org/ebooks/8584.txt.utf-8","application/rdf+xml":"https://www.gutenberg.org/ebooks/8584.rdf","image/jpeg":"https://www.gutenberg.org/cache/epub/8584/pg8584.cover.medium.jpg","application/octet-stream":"https://www.gutenberg.org/cache/epub/8584/pg8584-h.zip"},"download_count":26},{"id":8586,"title":"Roughing It, Part 5.","authors":[{"name":"Twain, Mark","birth_year":1835,"death_year":1910}],"translators":[],"subjects":["Authors, American -- Homes and haunts -- West (U.S.)","Hawaii -- Description and travel","Twain, Mark, 1835-1910 -- Travel -- West (U.S.)","West (U.S.) -- Description and travel","West (U.S.) -- Intellectual life -- 19th century"],"bookshelves":[],"languages":["en"],"copyright":false,"media_type":"Text","formats":{"text/html":"https://www.gutenberg.org/ebooks/8586.html.images","text/html; charset=iso-8859-1":"https://www.gutenberg.org/files/8586/8586-h/8586-h.htm","application/epub+zip":"https://www.gutenberg.org/ebooks/8586.epub3.images","application/x-mobipocket-ebook":"https://www.gutenberg.org/ebooks/8586.kf8.images","text/plain; charset=us-ascii":"https://www.gutenberg.org/ebooks/8586.txt.utf-8","application/rdf+xml":"https://www.gutenberg.org/ebooks/8586.rdf","image/jpeg":"https://www.gutenberg.org/cache/epub/8586/pg8586.cover.medium.jpg","application/octet-stream":"https://www.gutenberg.org/cache/epub/8586/pg8586-h.zip"},"download_count":26},{"id":8613,"title":"The Poison Belt","authors":[{"name":"Doyle, Arthur Conan","birth_year":1859,"death_year":1930}],"translators":[],"subjects":["Adventure stories","Challenger, Professor (Fictitious character) -- Fiction"],"bookshelves":["Science Fiction"],"languages":["en"],"copyright":true,"media_type":"Sound","formats":{"text/plain; charset=us-ascii":"https://www.gutenberg.org/files/8613/8613-readme.txt","text/html; charset=iso-8859-1":"https://www.gutenberg.org/files/8613/8613-index.htm","audio/mpeg":"https://www.gutenberg.org/files/8613/mp3/8613-000.mp3","application/rdf+xml":"https://www.gutenberg.org/ebooks/8613.rdf","application/octet-stream":"https://www.gutenberg.org/files/8613/8613-mp3.zip"},"download_count":26},{"id":8617,"title":"The Captain of the Polestar, and Other Tales","authors":[{"name":"Doyle, Arthur Conan","birth_year":1859,"death_year":1930}],"translators":[],"subjects":["Great Britain -- Social life and customs -- 19th century -- Fiction","Short stories, English"],"bookshelves":[],"languages":["en"],"copyright":true,"media_type":"Sound","formats":{"text/plain; charset=us-ascii":"https://www.gutenberg.org/files/8617/8617-readme.txt","text/html; charset=iso-8859-1":"https://www.gutenberg.org/files/8617/8617-index.htm","audio/mpeg":"https://www.gutenberg.org/files/8617/mp3/8617-000.mp3","application/rdf+xml":"https://www.gutenberg.org/ebooks/8617.rdf","application/octet-stream":"https://www.gutenberg.org/files/8617/8617-mp3.zip"},"download_count":26},{"id":8625,"title":"The Sign of the Four","authors":[{"name":"Doyle, Arthur Conan","birth_year":1859,"death_year":1930}],"translators":[],"subjects":["Detective and mystery stories","Holmes, Sherlock (Fictitious character) -- Fiction","Private investigators -- England -- Fiction"],"bookshelves":[],"languages":["en"],"copyright":true,"media_type":"Sound","formats":{"text/plain; charset=us-ascii":"https://www.gutenberg.org/files/8625/8625-readme.txt","text/html; charset=iso-8859-1":"https://www.gutenberg.org/files/8625/8625-index.htm","audio/mpeg":"https://www.gutenberg.org/files/8625/mp3/8625-000.mp3","application/rdf+xml":"https://www.gutenberg.org/ebooks/8625.rdf","application/octet-stream":"https://www.gutenberg.org/files/8625/8625-mp3.zip"},"download_count":26},{"id":8691,"title":"The American Judiciary","authors":[{"name":"Baldwin, Simeon E. (Simeon Eben)","birth_year":1840,"death_year":1927}],"translators":[],"subjects":["Courts -- United States","Law -- United States -- History"],"bookshelves":[],"languages":["en"],"copyright":false,"media_type":"Text","formats":{"text/html":"https://www.gutenberg.org/ebooks/8691.html.images","application/epub+zip":"https://www.gutenberg.org/ebooks/8691.epub3.images","application/x-mobipocket-ebook":"https://www.gutenberg.org/ebooks/8691.kf8.images","text/plain; charset=us-ascii":"https://www.gutenberg.org/ebooks/8691.txt.utf-8","text/plain; charset=iso-8859-1":"https://www.gutenberg.org/files/8691/8691-8.txt","application/rdf+xml":"https://www.gutenberg.org/ebooks/8691.rdf","image/jpeg":"https://www.gutenberg.org/cache/epub/8691/pg8691.cover.medium.jpg","application/octet-stream":"https://www.gutenberg.org/cache/epub/8691/pg8691-h.zip"},"download_count":26},{"id":8699,"title":"Woman and Her Saviour in Persia: By a Returned Missionary","authors":[{"name":"Laurie, Thomas","birth_year":1821,"death_year":1897}],"translators":[],"subjects":["Church of the East -- Missions","Missions -- Iran","Women missionaries"],"bookshelves":[],"languages":["en"],"copyright":false,"media_type":"Text","formats":{"text/html":"https://www.gutenberg.org/ebooks/8699.html.images","application/epub+zip":"https://www.gutenberg.org/ebooks/8699.epub3.images","application/x-mobipocket-ebook":"https://www.gutenberg.org/ebooks/8699.kf8.images","text/plain; charset=us-ascii":"https://www.gutenberg.org/ebooks/8699.txt.utf-8","text/plain; charset=iso-8859-1":"https://www.gutenberg.org/files/8699/8699-8.txt","application/rdf+xml":"https://www.gutenberg.org/ebooks/8699.rdf","image/jpeg":"https://www.gutenberg.org/cache/epub/8699/pg8699.cover.medium.jpg","application/octet-stream":"https://www.gutenberg.org/cache/epub/8699/pg8699-h.zip"},"download_count":26},{"id":8787,"title":"The Divine Comedy by Dante, Illustrated, Hell, Volume 09","authors":[{"name":"Dante Alighieri","birth_year":1265,"death_year":1321}],"translators":[{"name":"Cary, Henry Francis","birth_year":1772,"death_year":1844}],"subjects":["Epic poetry, Italian -- Translations into English","Hell -- Poetry","Italian poetry -- To 1400 -- Translations into English"],"bookshelves":[],"languages":["en"],"copyright":false,"media_type":"Text","formats":{"text/html":"https://www.gutenberg.org/ebooks/8787.html.images","text/html; charset=iso-8859-1":"https://www.gutenberg.org/files/8787/8787-h/8787-h.htm","application/epub+zip":"https://www.gutenberg.org/ebooks/8787.epub3.images","application/x-mobipocket-ebook":"https://www.gutenberg.org/ebooks/8787.kf8.images","text/plain; charset=us-ascii":"https://www.gutenberg.org/ebooks/8787.txt.utf-8","application/rdf+xml":"https://www.gutenberg.org/ebooks/8787.rdf","image/jpeg":"https://www.gutenberg.org/cache/epub/8787/pg8787.cover.medium.jpg","application/octet-stream":"https://www.gutenberg.org/cache/epub/8787/pg8787-h.zip"},"download_count":26},{"id":8791,"title":"The Divine Comedy by Dante, Illustrated, Purgatory, Volume 2","authors":[{"name":"Dante Alighieri","birth_year":1265,"death_year":1321}],"translators":[{"name":"Cary, Henry Francis","birth_year":1772,"death_year":1844}],"subjects":["Epic poetry, Italian -- Translations into English","Italian poetry -- To 1400 -- Translations into English"],"bookshelves":[],"languages":["en"],"copyright":false,"media_type":"Text","formats":{"text/html":"https://www.gutenberg.org/ebooks/8791.html.images","text/html; charset=iso-8859-1":"https://www.gutenberg.org/files/8791/8791-h/8791-h.htm","application/epub+zip":"https://www.gutenberg.org/ebooks/8791.epub3.images","application/x-mobipocket-ebook":"https://www.gutenberg.org/ebooks/8791.kf8.images","text/plain; charset=us-ascii":"https://www.gutenberg.org/ebooks/8791.txt.utf-8","application/rdf+xml":"https://www.gutenberg.org/ebooks/8791.rdf","image/jpeg":"https://www.gutenberg.org/cache/epub/8791/pg8791.cover.medium.jpg","application/octet-stream":"https://www.gutenberg.org/cache/epub/8791/pg8791-h.zip"},"download_count":26},{"id":8805,"title":"From One Generation to Another","authors":[{"name":"Merriman, Henry Seton","birth_year":1862,"death_year":1903}],"translators":[],"subjects":["Fiction"],"bookshelves":[],"languages":["en"],"copyright":false,"media_type":"Text","formats":{"text/html":"https://www.gutenberg.org/ebooks/8805.html.images","text/html; charset=utf-8":"https://www.gutenberg.org/files/8805/8805-h/8805-h.htm","application/epub+zip":"https://www.gutenberg.org/ebooks/8805.epub3.images","application/x-mobipocket-ebook":"https://www.gutenberg.org/ebooks/8805.kf8.images","text/plain; charset=us-ascii":"https://www.gutenberg.org/ebooks/8805.txt.utf-8","text/plain; charset=utf-8":"https://www.gutenberg.org/files/8805/8805-0.txt","text/plain; charset=iso-8859-1":"https://www.gutenberg.org/files/8805/8805-8.txt","application/rdf+xml":"https://www.gutenberg.org/ebooks/8805.rdf","image/jpeg":"https://www.gutenberg.org/cache/epub/8805/pg8805.cover.medium.jpg","application/octet-stream":"https://www.gutenberg.org/cache/epub/8805/pg8805-h.zip"},"download_count":26},{"id":8817,"title":"The Game","authors":[{"name":"London, Jack","birth_year":1876,"death_year":1916}],"translators":[],"subjects":["Boxers (Sports) -- Fiction","Boxing stories"],"bookshelves":[],"languages":["en"],"copyright":true,"media_type":"Sound","formats":{"text/plain; charset=us-ascii":"https://www.gutenberg.org/files/8817/8817-readme.txt","text/html; charset=iso-8859-1":"https://www.gutenberg.org/files/8817/8817-index.htm","audio/mpeg":"https://www.gutenberg.org/files/8817/mp3/8817-000.mp3","application/rdf+xml":"https://www.gutenberg.org/ebooks/8817.rdf","application/octet-stream":"https://www.gutenberg.org/files/8817/8817-mp3.zip"},"download_count":26},{"id":8828,"title":"Weymouth New Testament in Modern Speech, Matthew","authors":[{"name":"Weymouth, Richard Francis","birth_year":1822,"death_year":1902}],"translators":[],"subjects":["Bible. Matthew"],"bookshelves":[],"languages":["en"],"copyright":false,"media_type":"Text","formats":{"text/html":"https://www.gutenberg.org/ebooks/8828.html.images","application/epub+zip":"https://www.gutenberg.org/ebooks/8828.epub3.images","application/x-mobipocket-ebook":"https://www.gutenberg.org/ebooks/8828.kf8.images","text/plain; charset=us-ascii":"https://www.gutenberg.org/ebooks/8828.txt.utf-8","application/rdf+xml":"https://www.gutenberg.org/ebooks/8828.rdf","image/jpeg":"https://www.gutenberg.org/cache/epub/8828/pg8828.cover.medium.jpg","application/octet-stream":"https://www.gutenberg.org/cache/epub/8828/pg8828-h.zip"},"download_count":26},{"id":8837,"title":"Weymouth New Testament in Modern Speech, Ephesians","authors":[{"name":"Weymouth, Richard Francis","birth_year":1822,"death_year":1902}],"translators":[],"subjects":["Bible. Ephesians"],"bookshelves":[],"languages":["en"],"copyright":false,"media_type":"Text","formats":{"text/html":"https://www.gutenberg.org/ebooks/8837.html.images","application/epub+zip":"https://www.gutenberg.org/ebooks/8837.epub3.images","application/x-mobipocket-ebook":"https://www.gutenberg.org/ebooks/8837.kf8.images","text/plain; charset=us-ascii":"https://www.gutenberg.org/ebooks/8837.txt.utf-8","application/rdf+xml":"https://www.gutenberg.org/ebooks/8837.rdf","image/jpeg":"https://www.gutenberg.org/cache/epub/8837/pg8837.cover.medium.jpg","application/octet-stream":"https://www.gutenberg.org/cache/epub/8837/pg8837-h.zip"},"download_count":26},{"id":8878,"title":"The Mischief-Maker","authors":[{"name":"Oppenheim, E. Phillips (Edward Phillips)","birth_year":1866,"death_year":1946}],"translators":[],"subjects":["Detective and mystery stories"],"bookshelves":[],"languages":["en"],"copyright":false,"media_type":"Text","formats":{"text/html":"https://www.gutenberg.org/ebooks/8878.html.images","application/epub+zip":"https://www.gutenberg.org/ebooks/8878.epub3.images","application/x-mobipocket-ebook":"https://www.gutenberg.org/ebooks/8878.kf8.images","text/plain; charset=us-ascii":"https://www.gutenberg.org/ebooks/8878.txt.utf-8","text/plain; charset=iso-8859-1":"https://www.gutenberg.org/files/8878/8878-8.txt","application/rdf+xml":"https://www.gutenberg.org/ebooks/8878.rdf","image/jpeg":"https://www.gutenberg.org/cache/epub/8878/pg8878.cover.medium.jpg","application/octet-stream":"https://www.gutenberg.org/cache/epub/8878/pg8878-h.zip"},"download_count":26},{"id":8881,"title":"A Fleece of Gold; Five Lessons from the Fable of Jason and the Golden Fleece","authors":[{"name":"Given, Charles Stewart","birth_year":null,"death_year":null}],"translators":[],"subjects":["Conduct of life","Jason -- (Mythological character)","Success"],"bookshelves":[],"languages":["en"],"copyright":false,"media_type":"Text","formats":{"text/html":"https://www.gutenberg.org/ebooks/8881.html.images","text/html; charset=utf-8":"https://www.gutenberg.org/files/8881/8881-h/8881-h.htm","application/epub+zip":"https://www.gutenberg.org/ebooks/8881.epub3.images","application/x-mobipocket-ebook":"https://www.gutenberg.org/ebooks/8881.kf8.images","text/plain; charset=us-ascii":"https://www.gutenberg.org/ebooks/8881.txt.utf-8","text/plain; charset=iso-8859-1":"https://www.gutenberg.org/files/8881/8881-8.txt","application/rdf+xml":"https://www.gutenberg.org/ebooks/8881.rdf","image/jpeg":"https://www.gutenberg.org/cache/epub/8881/pg8881.cover.medium.jpg","application/octet-stream":"https://www.gutenberg.org/cache/epub/8881/pg8881-h.zip"},"download_count":26},{"id":8969,"title":"The War in the Air","authors":[{"name":"Wells, H. G. (Herbert George)","birth_year":1866,"death_year":1946}],"translators":[],"subjects":["Air warfare -- Fiction","Science fiction","War stories"],"bookshelves":[],"languages":["en"],"copyright":true,"media_type":"Sound","formats":{"text/plain; charset=us-ascii":"https://www.gutenberg.org/files/8969/8969-readme.txt","text/html; charset=iso-8859-1":"https://www.gutenberg.org/files/8969/8969-index.htm","audio/mpeg":"https://www.gutenberg.org/files/8969/mp3/8969-000.mp3","application/rdf+xml":"https://www.gutenberg.org/ebooks/8969.rdf","application/octet-stream":"https://www.gutenberg.org/files/8969/8969-mp3.zip"},"download_count":26},{"id":9047,"title":"The Banks of Wye: A Poem","authors":[{"name":"Bloomfield, Robert","birth_year":1766,"death_year":1823}],"translators":[],"subjects":["Wales, South -- Poetry","Wye, River (Wales and England) -- Poetry"],"bookshelves":[],"languages":["en"],"copyright":false,"media_type":"Text","formats":{"text/html":"https://www.gutenberg.org/ebooks/9047.html.images","application/epub+zip":"https://www.gutenberg.org/ebooks/9047.epub3.images","application/x-mobipocket-ebook":"https://www.gutenberg.org/ebooks/9047.kf8.images","text/plain; charset=us-ascii":"https://www.gutenberg.org/ebooks/9047.txt.utf-8","application/rdf+xml":"https://www.gutenberg.org/ebooks/9047.rdf","image/jpeg":"https://www.gutenberg.org/cache/epub/9047/pg9047.cover.medium.jpg","application/octet-stream":"https://www.gutenberg.org/cache/epub/9047/pg9047-h.zip"},"download_count":26},{"id":9089,"title":"Handel","authors":[{"name":"Dent, Edward J. (Edward Joseph)","birth_year":1876,"death_year":1957}],"translators":[],"subjects":["Composers -- Biography","Handel, George Frideric, 1685-1759"],"bookshelves":[],"languages":["en"],"copyright":false,"media_type":"Text","formats":{"text/html":"https://www.gutenberg.org/ebooks/9089.html.images","text/html; charset=iso-8859-1":"https://www.gutenberg.org/files/9089/9089-h/9089-h.htm","application/epub+zip":"https://www.gutenberg.org/ebooks/9089.epub3.images","application/x-mobipocket-ebook":"https://www.gutenberg.org/ebooks/9089.kf8.images","text/plain; charset=us-ascii":"https://www.gutenberg.org/ebooks/9089.txt.utf-8","text/plain; charset=iso-8859-1":"https://www.gutenberg.org/files/9089/9089-8.txt","application/rdf+xml":"https://www.gutenberg.org/ebooks/9089.rdf","image/jpeg":"https://www.gutenberg.org/cache/epub/9089/pg9089.cover.medium.jpg","application/octet-stream":"https://www.gutenberg.org/cache/epub/9089/pg9089-h.zip"},"download_count":26},{"id":9230,"title":"P.'s Correspondence (From \"Mosses from an Old Manse\")","authors":[{"name":"Hawthorne, Nathaniel","birth_year":1804,"death_year":1864}],"translators":[],"subjects":["New England -- Social life and customs -- Fiction","Short stories"],"bookshelves":[],"languages":["en"],"copyright":false,"media_type":"Text","formats":{"text/html":"https://www.gutenberg.org/ebooks/9230.html.images","application/epub+zip":"https://www.gutenberg.org/ebooks/9230.epub3.images","application/x-mobipocket-ebook":"https://www.gutenberg.org/ebooks/9230.kf8.images","text/plain; charset=us-ascii":"https://www.gutenberg.org/ebooks/9230.txt.utf-8","application/rdf+xml":"https://www.gutenberg.org/ebooks/9230.rdf","image/jpeg":"https://www.gutenberg.org/cache/epub/9230/pg9230.cover.medium.jpg","application/octet-stream":"https://www.gutenberg.org/files/9230/9230-0.zip"},"download_count":26},{"id":9323,"title":"Foliage: Various Poems","authors":[{"name":"Davies, W. H. (William Henry)","birth_year":1871,"death_year":1940}],"translators":[],"subjects":["English poetry -- 19th century","English poetry -- 20th century"],"bookshelves":[],"languages":["en"],"copyright":false,"media_type":"Text","formats":{"text/html":"https://www.gutenberg.org/ebooks/9323.html.images","text/html; charset=us-ascii":"https://www.gutenberg.org/files/9323/9323-h/9323-h.htm","application/epub+zip":"https://www.gutenberg.org/ebooks/9323.epub3.images","application/x-mobipocket-ebook":"https://www.gutenberg.org/ebooks/9323.kf8.images","text/plain; charset=us-ascii":"https://www.gutenberg.org/ebooks/9323.txt.utf-8","application/rdf+xml":"https://www.gutenberg.org/ebooks/9323.rdf","image/jpeg":"https://www.gutenberg.org/cache/epub/9323/pg9323.cover.medium.jpg","application/octet-stream":"https://www.gutenberg.org/cache/epub/9323/pg9323-h.zip"},"download_count":26},{"id":9374,"title":"A Knight of the Nets","authors":[{"name":"Barr, Amelia E.","birth_year":1831,"death_year":1919}],"translators":[],"subjects":["Fishers -- Fiction","Man-woman relationships -- Fiction","Scotland -- Social life and customs -- 19th century -- Fiction","Social classes -- Fiction"],"bookshelves":[],"languages":["en"],"copyright":false,"media_type":"Text","formats":{"text/html":"https://www.gutenberg.org/ebooks/9374.html.images","text/html; charset=utf-8":"https://www.gutenberg.org/files/9374/9374-h/9374-h.htm","application/epub+zip":"https://www.gutenberg.org/ebooks/9374.epub3.images","application/x-mobipocket-ebook":"https://www.gutenberg.org/ebooks/9374.kf8.images","text/plain; charset=us-ascii":"https://www.gutenberg.org/ebooks/9374.txt.utf-8","application/rdf+xml":"https://www.gutenberg.org/ebooks/9374.rdf","image/jpeg":"https://www.gutenberg.org/cache/epub/9374/pg9374.cover.medium.jpg","application/octet-stream":"https://www.gutenberg.org/cache/epub/9374/pg9374-h.zip"},"download_count":26},{"id":9388,"title":"The Red Flower: Poems Written in War Time","authors":[{"name":"Van Dyke, Henry","birth_year":1852,"death_year":1933}],"translators":[],"subjects":["World War, 1914-1918 -- Poetry"],"bookshelves":["World War I"],"languages":["en"],"copyright":false,"media_type":"Text","formats":{"text/html":"https://www.gutenberg.org/ebooks/9388.html.images","application/epub+zip":"https://www.gutenberg.org/ebooks/9388.epub3.images","application/x-mobipocket-ebook":"https://www.gutenberg.org/ebooks/9388.kf8.images","text/plain; charset=us-ascii":"https://www.gutenberg.org/ebooks/9388.txt.utf-8","text/plain; charset=iso-8859-1":"https://www.gutenberg.org/files/9388/9388-8.txt","application/rdf+xml":"https://www.gutenberg.org/ebooks/9388.rdf","image/jpeg":"https://www.gutenberg.org/cache/epub/9388/pg9388.cover.medium.jpg","application/octet-stream":"https://www.gutenberg.org/cache/epub/9388/pg9388-h.zip"},"download_count":26},{"id":9444,"title":"Samantha among the Brethren — Volume 2","authors":[{"name":"Holley, Marietta","birth_year":1836,"death_year":1926}],"translators":[],"subjects":["Methodism -- Humor","Women in church work -- Methodist church -- Humor","Women's rights -- Humor"],"bookshelves":["Humor"],"languages":["en"],"copyright":false,"media_type":"Text","formats":{"text/html":"https://www.gutenberg.org/ebooks/9444.html.images","text/html; charset=iso-8859-1":"https://www.gutenberg.org/files/9444/9444-h/9444-h.htm","application/epub+zip":"https://www.gutenberg.org/ebooks/9444.epub3.images","application/x-mobipocket-ebook":"https://www.gutenberg.org/ebooks/9444.kf8.images","text/plain; charset=us-ascii":"https://www.gutenberg.org/ebooks/9444.txt.utf-8","application/rdf+xml":"https://www.gutenberg.org/ebooks/9444.rdf","image/jpeg":"https://www.gutenberg.org/cache/epub/9444/pg9444.cover.medium.jpg","application/octet-stream":"https://www.gutenberg.org/cache/epub/9444/pg9444-h.zip"},"download_count":26},{"id":9448,"title":"Samantha among the Brethren — Volume 6","authors":[{"name":"Holley, Marietta","birth_year":1836,"death_year":1926}],"translators":[],"subjects":["Methodism -- Humor","Women in church work -- Methodist church -- Humor","Women's rights -- Humor"],"bookshelves":["Humor"],"languages":["en"],"copyright":false,"media_type":"Text","formats":{"text/html":"https://www.gutenberg.org/ebooks/9448.html.images","text/html; charset=iso-8859-1":"https://www.gutenberg.org/files/9448/9448-h/9448-h.htm","application/epub+zip":"https://www.gutenberg.org/ebooks/9448.epub3.images","application/x-mobipocket-ebook":"https://www.gutenberg.org/ebooks/9448.kf8.images","text/plain; charset=us-ascii":"https://www.gutenberg.org/ebooks/9448.txt.utf-8","application/rdf+xml":"https://www.gutenberg.org/ebooks/9448.rdf","image/jpeg":"https://www.gutenberg.org/cache/epub/9448/pg9448.cover.medium.jpg","application/octet-stream":"https://www.gutenberg.org/cache/epub/9448/pg9448-h.zip"},"download_count":26},{"id":9511,"title":"Several Works by Edgar Allan Poe","authors":[{"name":"Poe, Edgar Allan","birth_year":1809,"death_year":1849}],"translators":[],"subjects":["American fiction -- 19th century","American poetry","Fantasy fiction","Horror tales, American","Short stories"],"bookshelves":[],"languages":["en"],"copyright":true,"media_type":"Sound","formats":{"text/plain; charset=us-ascii":"https://www.gutenberg.org/files/9511/9511-readme.txt","text/html; charset=iso-8859-1":"https://www.gutenberg.org/files/9511/9511-index.htm","audio/mpeg":"https://www.gutenberg.org/files/9511/mp3/9511-000.mp3","application/rdf+xml":"https://www.gutenberg.org/ebooks/9511.rdf","application/octet-stream":"https://www.gutenberg.org/files/9511/9511-mp3.zip"},"download_count":26},{"id":9513,"title":"The Works of Edgar Allan Poe, Volume 2","authors":[{"name":"Poe, Edgar Allan","birth_year":1809,"death_year":1849}],"translators":[],"subjects":["American fiction -- 19th century","Fantasy fiction","Horror tales, American","Short stories"],"bookshelves":[],"languages":["en"],"copyright":true,"media_type":"Sound","formats":{"text/plain; charset=us-ascii":"https://www.gutenberg.org/files/9513/9513-readme.txt","text/html; charset=iso-8859-1":"https://www.gutenberg.org/files/9513/9513-index.htm","audio/mpeg":"https://www.gutenberg.org/files/9513/mp3/9513-000.mp3","application/rdf+xml":"https://www.gutenberg.org/ebooks/9513.rdf","application/octet-stream":"https://www.gutenberg.org/files/9513/9513-mp3.zip"},"download_count":26},{"id":9544,"title":"Punchinello, Volume 1, No. 10, June 4, 1870","authors":[{"name":"Various","birth_year":null,"death_year":null}],"translators":[],"subjects":["American wit and humor -- Periodicals"],"bookshelves":["Punchinello"],"languages":["en"],"copyright":false,"media_type":"Text","formats":{"text/html":"https://www.gutenberg.org/ebooks/9544.html.images","text/html; charset=iso-8859-1":"https://www.gutenberg.org/files/9544/9544-h/9544-h.htm","application/epub+zip":"https://www.gutenberg.org/ebooks/9544.epub3.images","application/x-mobipocket-ebook":"https://www.gutenberg.org/ebooks/9544.kf8.images","text/plain; charset=us-ascii":"https://www.gutenberg.org/ebooks/9544.txt.utf-8","text/plain; charset=iso-8859-1":"https://www.gutenberg.org/files/9544/9544-8.txt","application/rdf+xml":"https://www.gutenberg.org/ebooks/9544.rdf","image/jpeg":"https://www.gutenberg.org/cache/epub/9544/pg9544.cover.medium.jpg","application/octet-stream":"https://www.gutenberg.org/cache/epub/9544/pg9544-h.zip"},"download_count":26},{"id":9578,"title":"Poems in Wartime: Part 4 From Volume III of The Works of John Greenleaf Whittier","authors":[{"name":"Whittier, John Greenleaf","birth_year":1807,"death_year":1892}],"translators":[],"subjects":["United States -- History -- Civil War, 1861-1865 -- Poetry"],"bookshelves":[],"languages":["en"],"copyright":false,"media_type":"Text","formats":{"text/html":"https://www.gutenberg.org/ebooks/9578.html.images","application/epub+zip":"https://www.gutenberg.org/ebooks/9578.epub3.images","application/x-mobipocket-ebook":"https://www.gutenberg.org/ebooks/9578.kf8.images","text/plain; charset=us-ascii":"https://www.gutenberg.org/ebooks/9578.txt.utf-8","application/rdf+xml":"https://www.gutenberg.org/ebooks/9578.rdf","image/jpeg":"https://www.gutenberg.org/cache/epub/9578/pg9578.cover.medium.jpg","application/octet-stream":"https://www.gutenberg.org/cache/epub/9578/pg9578-h.zip"},"download_count":26},{"id":9657,"title":"The Mutineers: A Tale of Old Days at Sea and of Adventures in the Far East as Benjamin Lathrop Set It Down Some Sixty Years Ago","authors":[{"name":"Hawes, Charles Boardman","birth_year":1889,"death_year":1923}],"translators":[],"subjects":["Sea stories"],"bookshelves":[],"languages":["en"],"copyright":false,"media_type":"Text","formats":{"text/html":"https://www.gutenberg.org/ebooks/9657.html.images","application/epub+zip":"https://www.gutenberg.org/ebooks/9657.epub3.images","application/x-mobipocket-ebook":"https://www.gutenberg.org/ebooks/9657.kf8.images","text/plain; charset=us-ascii":"https://www.gutenberg.org/ebooks/9657.txt.utf-8","text/plain; charset=iso-8859-1":"https://www.gutenberg.org/files/9657/9657-8.txt","application/rdf+xml":"https://www.gutenberg.org/ebooks/9657.rdf","image/jpeg":"https://www.gutenberg.org/cache/epub/9657/pg9657.cover.medium.jpg","application/octet-stream":"https://www.gutenberg.org/cache/epub/9657/pg9657-h.zip"},"download_count":26},{"id":9664,"title":"An Amiable Charlatan","authors":[{"name":"Oppenheim, E. Phillips (Edward Phillips)","birth_year":1866,"death_year":1946}],"translators":[],"subjects":["Detective and mystery stories"],"bookshelves":[],"languages":["en"],"copyright":false,"media_type":"Text","formats":{"text/html":"https://www.gutenberg.org/ebooks/9664.html.images","application/epub+zip":"https://www.gutenberg.org/ebooks/9664.epub3.images","application/x-mobipocket-ebook":"https://www.gutenberg.org/ebooks/9664.kf8.images","text/plain; charset=us-ascii":"https://www.gutenberg.org/ebooks/9664.txt.utf-8","text/plain; charset=iso-8859-1":"https://www.gutenberg.org/files/9664/9664-8.txt","application/rdf+xml":"https://www.gutenberg.org/ebooks/9664.rdf","image/jpeg":"https://www.gutenberg.org/cache/epub/9664/pg9664.cover.medium.jpg","application/octet-stream":"https://www.gutenberg.org/cache/epub/9664/pg9664-h.zip"},"download_count":26},{"id":9725,"title":"Nicholas Nickleby","authors":[{"name":"Dickens, Charles","birth_year":1812,"death_year":1870}],"translators":[],"subjects":["Bildungsromans","Boarding schools -- Fiction","England -- Fiction","England -- Social life and customs -- 19th century -- Fiction","Picaresque literature","Poor families -- Fiction","Theatrical companies -- Fiction","Young men -- Fiction"],"bookshelves":[],"languages":["en"],"copyright":true,"media_type":"Sound","formats":{"text/plain; charset=us-ascii":"https://www.gutenberg.org/files/9725/9725-readme.txt","text/html; charset=iso-8859-1":"https://www.gutenberg.org/files/9725/9725-index.htm","audio/mpeg":"https://www.gutenberg.org/files/9725/mp3/9725-000.mp3","application/rdf+xml":"https://www.gutenberg.org/ebooks/9725.rdf","application/octet-stream":"https://www.gutenberg.org/files/9725/9725-mp3.zip"},"download_count":26}]}