{"count":58808,"next":"http://129.241.150.113:8000/books/?languages=en&page=1643","previous":"http://129.241.150.113:8000/books/?languages=en&page=1641","results":[{"id":66984,"title":"Chambers's Journal of Popular Literature, Science, and Art, Fifth Series, No. 107, Vol. III, January 16, 1886","authors":[{"name":"Various","birth_year":null,"death_year":null}],"translators":[],"subjects":["Periodicals"],"bookshelves":[],"languages":["en"],"copyright":false,"media_type":"Text","formats":{"text/html":"https://www.gutenberg.org/ebooks/66984.html.images","application/epub+zip":"https://www.gutenberg.org/ebooks/66984.epub3.images","application/x-mobipocket-ebook":"https://www.gutenberg.org/ebooks/66984.kf8.images","text/plain; charset=us-ascii":"https://www.gutenberg.org/ebooks/66984.txt.utf-8","application/rdf+xml":"https://www.gutenberg.org/ebooks/66984.rdf","image/jpeg":"https://www.gutenberg.org/cache/epub/66984/pg66984.cover.medium.jpg","application/octet-stream":"https://www.gutenberg.org/files/66984/66984-0.zip"},"download_count":20},{"id":66997,"title":"Plantation Echoes: A Collection of Original Negro Dialect Poems","authors":[{"name":"Henderson, Elliott Blaine","birth_year":1877,"death_year":1944}],"translators":[],"subjects":["American poetry -- African American authors","Dialect poetry, American"],"bookshelves":[],"languages":["en"],"copyright":false,"media_type":"Text","formats":{"text/html":"https://www.gutenberg.org/ebooks/66997.html.images","application/epub+zip":"https://www.gutenberg.org/ebooks/66997.epub3.images","application/x-mobipocket-ebook":"https://www.gutenberg.org/ebooks/66997.kf8.images","text/plain; charset=us-ascii":"https://www.gutenberg.org/ebooks/66997.txt.utf-8","application/rdf+xml":"https://www.gutenberg.org/ebooks/66997.rdf","image/jpeg":"https://www.gutenberg.org/cache/epub/66997/pg66997.cover.medium.jpg","application/octet-stream":"https://www.gutenberg.org/files/66997/66997-0.zip"},"download_count":20},{"id":67008,"title":"Chambers's Journal of Popular Literature, Science, and Art, Fifth Series, No. 108, Vol. III, January 23, 1886","authors":[{"name":"Various","birth_year":null,"death_year":null}],"translators":[],"subjects":["Periodicals"],"bookshelves":[],"languages":["en"],"copyright":false,"media_type":"Text","formats":{"text/html":"https://www.gutenberg.org/ebooks/67008.html.images","application/epub+zip":"https://www.gutenberg.org/ebooks/67008.epub3.images","application/x-mobipocket-ebook":"https://www.gutenberg.org/ebooks/67008.kf8.images","text/plain; charset=us-ascii":"https://www.gutenberg.org/ebooks/67008.txt.utf-8","application/rdf+xml":"https://www.gutenberg.org/ebooks/67008.rdf","image/jpeg":"https://www.gutenberg.org/cache/epub/67008/pg67008.cover.medium.jpg","application/octet-stream":"https://www.gutenberg.org/files/67008/67008-0.zip"},"download_count":20},{"id":67028,"title":"Chambers's Journal of Popular Literature, Science, and Art, Fifth Series, No. 112, Vol. III, February 20, 1886","authors":[{"name":"Various","birth_year":null,"death_year":null}],"translators":[],"subjects":["Periodicals"],"bookshelves":[],"languages":["en"],"copyright":false,"media_type":"Text","formats":{"text/html":"https://www.gutenberg.org/ebooks/67028.html.images","application/epub+zip":"https://www.gutenberg.org/ebooks/67028.epub3.images","application/x-mobipocket-ebook":"https://www.gutenberg.org/ebooks/67028.kf8.images","text/plain; charset=us-ascii":"https://www.gutenberg.org/ebooks/67028.txt.utf-8","application/rdf+xml":"https://www.gutenberg.org/ebooks/67028.rdf","image/jpeg":"https://www.gutenberg.org/cache/epub/67028/pg67028.cover.medium.jpg","application/octet-stream":"https://www.gutenberg.org/files/67028/67028-0.zip"},"download_count":20},{"id":67130,"title":"A Woman Ventures: A Novel","authors":[{"name":"Phillips, David Graham","birth_year":1867,"death_year":1911}],"translators":[],"subjects":["Fathers -- Death -- Fiction","Husbands -- Death -- Fiction","Man-woman relationships -- Fiction","Mate selection -- Fiction","United States -- Social life and customs -- Fiction","Women journalists -- Fiction"],"bookshelves":[],"languages":["en"],"copyright":false,"media_type":"Text","formats":{"text/html":"https://www.gutenberg.org/ebooks/67130.html.images","application/epub+zip":"https://www.gutenberg.org/ebooks/67130.epub3.images","application/x-mobipocket-ebook":"https://www.gutenberg.org/ebooks/67130.kf8.images","text/plain; charset=us-ascii":"https://www.gutenberg.org/ebooks/67130.txt.utf-8","application/rdf+xml":"https://www.gutenberg.org/ebooks/67130.rdf","image/jpeg":"https://www.gutenberg.org/cache/epub/67130/pg67130.cover.medium.jpg","application/octet-stream":"https://www.gutenberg.org/files/67130/67130-0.zip"},"download_count":20},{"id":67185,"title":"The Bird Boys' Aeroplane Wonder; Or, Young Aviators on a Cattle Ranch","authors":[{"name":"Langworthy, John Luther","birth_year":null,"death_year":null}],"translators":[],"subjects":["Aeronautics -- Juvenile fiction","Ranch life -- Juvenile fiction","Teenage boys -- Juvenile fiction"],"bookshelves":[],"languages":["en"],"copyright":false,"media_type":"Text","formats":{"text/html":"https://www.gutenberg.org/ebooks/67185.html.images","application/epub+zip":"https://www.gutenberg.org/ebooks/67185.epub3.images","application/x-mobipocket-ebook":"https://www.gutenberg.org/ebooks/67185.kf8.images","text/plain; charset=us-ascii":"https://www.gutenberg.org/ebooks/67185.txt.utf-8","application/rdf+xml":"https://www.gutenberg.org/ebooks/67185.rdf","image/jpeg":"https://www.gutenberg.org/cache/epub/67185/pg67185.cover.medium.jpg","application/octet-stream":"https://www.gutenberg.org/files/67185/67185-0.zip"},"download_count":20},{"id":67196,"title":"Observations on the Terataspis grandis, Hall, the largest known trilobite","authors":[{"name":"Clarke, John Mason","birth_year":1857,"death_year":1925}],"translators":[],"subjects":["Paleontology -- New York (State)","Trilobites"],"bookshelves":[],"languages":["en"],"copyright":false,"media_type":"Text","formats":{"text/html":"https://www.gutenberg.org/ebooks/67196.html.images","application/epub+zip":"https://www.gutenberg.org/ebooks/67196.epub3.images","application/x-mobipocket-ebook":"https://www.gutenberg.org/ebooks/67196.kf8.images","text/plain; charset=us-ascii":"https://www.gutenberg.org/ebooks/67196.txt.utf-8","application/rdf+xml":"https://www.gutenberg.org/ebooks/67196.rdf","image/jpeg":"https://www.gutenberg.org/cache/epub/67196/pg67196.cover.medium.jpg","application/octet-stream":"https://www.gutenberg.org/files/67196/67196-0.zip"},"download_count":20},{"id":67302,"title":"The Summers readers: first reader","authors":[{"name":"Summers, Maud","birth_year":null,"death_year":null}],"translators":[],"subjects":["Readers (Primary)"],"bookshelves":[],"languages":["en"],"copyright":false,"media_type":"Text","formats":{"text/html":"https://www.gutenberg.org/ebooks/67302.html.images","application/epub+zip":"https://www.gutenberg.org/ebooks/67302.epub3.images","application/x-mobipocket-ebook":"https://www.gutenberg.org/ebooks/67302.kf8.images","text/plain; charset=us-ascii":"https://www.gutenberg.org/ebooks/67302.txt.utf-8","application/rdf+xml":"https://www.gutenberg.org/ebooks/67302.rdf","image/jpeg":"https://www.gutenberg.org/cache/epub/67302/pg67302.cover.medium.jpg","application/octet-stream":"https://www.gutenberg.org/files/67302/67302-0.zip"},"download_count":20},{"id":67350,"title":"The County: The \"Dark Continent\" of American Politics","authors":[{"name":"Gilbertson, Henry S.","birth_year":null,"death_year":null}],"translators":[],"subjects":["County government -- United States"],"bookshelves":[],"languages":["en"],"copyright":false,"media_type":"Text","formats":{"text/html":"https://www.gutenberg.org/ebooks/67350.html.images","application/epub+zip":"https://www.gutenberg.org/ebooks/67350.epub3.images","application/x-mobipocket-ebook":"https://www.gutenberg.org/ebooks/67350.kf8.images","text/plain; charset=us-ascii":"https://www.gutenberg.org/ebooks/67350.txt.utf-8","application/rdf+xml":"https://www.gutenberg.org/ebooks/67350.rdf","image/jpeg":"https://www.gutenberg.org/cache/epub/67350/pg67350.cover.medium.jpg","application/octet-stream":"https://www.gutenberg.org/files/67350/67350-0.zip"},"download_count":20},{"id":67361,"title":"Bob Bowen Comes to Town","authors":[{"name":"Bedford-Jones, H. (Henry)","birth_year":1887,"death_year":1949}],"translators":[],"subjects":["Businessmen -- Fiction","Mines and mineral resources -- Fiction","San Francisco (Calif.) -- Fiction"],"bookshelves":[],"languages":["en"],"copyright":false,"media_type":"Text","formats":{"text/html":"https://www.gutenberg.org/ebooks/67361.html.images","application/epub+zip":"https://www.gutenberg.org/ebooks/67361.epub3.images","application/x-mobipocket-ebook":"https://www.gutenberg.org/ebooks/67361.kf8.images","text/plain; charset=us-ascii":"https://www.gutenberg.org/ebooks/67361.txt.utf-8","application/rdf+xml":"https://www.gutenberg.org/ebooks/67361.rdf","image/jpeg":"https://www.gutenberg.org/cache/epub/67361/pg67361.cover.medium.jpg","application/octet-stream":"https://www.gutenberg.org/files/67361/67361-0.zip"},"download_count":20},{"id":67366,"title":"The Cap and Gown","authors":[{"name":"Brown, Charles Reynolds","birth_year":1862,"death_year":1950}],"translators":[],"subjects":["Students -- Religious life","Universities and colleges -- Sermons"],"bookshelves":[],"languages":["en"],"copyright":false,"media_type":"Text","formats":{"text/html":"https://www.gutenberg.org/ebooks/67366.html.images","application/epub+zip":"https://www.gutenberg.org/ebooks/67366.epub3.images","application/x-mobipocket-ebook":"https://www.gutenberg.org/ebooks/67366.kf8.images","text/plain; charset=us-ascii":"https://www.gutenberg.org/ebooks/67366.txt.utf-8","application/rdf+xml":"https://www.gutenberg.org/ebooks/67366.rdf","image/jpeg":"https://www.gutenberg.org/cache/epub/67366/pg67366.cover.medium.jpg","application/octet-stream":"https://www.gutenberg.org/files/67366/67366-0.zip"},"download_count":20},{"id":67542,"title":"The Mouthpiece of Zitu","authors":[{"name":"Giesy, J. U. (John Ulrich)","birth_year":1877,"death_year":1947}],"translators":[],"subjects":["Astral projection -- Fiction","Science fiction"],"bookshelves":[],"languages":["en"],"copyright":false,"media_type":"Text","formats":{"text/html":"https://www.gutenberg.org/ebooks/67542.html.images","application/epub+zip":"https://www.gutenberg.org/ebooks/67542.epub3.images","application/x-mobipocket-ebook":"https://www.gutenberg.org/ebooks/67542.kf8.images","text/plain; charset=us-ascii":"https://www.gutenberg.org/ebooks/67542.txt.utf-8","application/rdf+xml":"https://www.gutenberg.org/ebooks/67542.rdf","image/jpeg":"https://www.gutenberg.org/cache/epub/67542/pg67542.cover.medium.jpg","application/octet-stream":"https://www.gutenberg.org/files/67542/67542-0.zip"},"download_count":20},{"id":67655,"title":"Jason, Son of Jason","authors":[{"name":"Giesy, J. U. (John Ulrich)","birth_year":1877,"death_year":1947}],"translators":[],"subjects":["Astral projection -- Fiction","Science fiction"],"bookshelves":[],"languages":["en"],"copyright":false,"media_type":"Text","formats":{"text/html":"https://www.gutenberg.org/ebooks/67655.html.images","application/epub+zip":"https://www.gutenberg.org/ebooks/67655.epub3.images","application/x-mobipocket-ebook":"https://www.gutenberg.org/ebooks/67655.kf8.images","text/plain; charset=us-ascii":"https://www.gutenberg.org/ebooks/67655.txt.utf-8","application/rdf+xml":"https://www.gutenberg.org/ebooks/67655.rdf","image/jpeg":"https://www.gutenberg.org/cache/epub/67655/pg67655.cover.medium.jpg","application/octet-stream":"https://www.gutenberg.org/files/67655/67655-0.zip"},"download_count":20},{"id":67692,"title":"The Pagan's Progress","authors":[{"name":"Morris, Gouverneur","birth_year":1876,"death_year":1953}],"translators":[],"subjects":["Prehistoric peoples -- Fiction"],"bookshelves":[],"languages":["en"],"copyright":false,"media_type":"Text","formats":{"text/html":"https://www.gutenberg.org/ebooks/67692.html.images","application/epub+zip":"https://www.gutenberg.org/ebooks/67692.epub3.images","application/x-mobipocket-ebook":"https://www.gutenberg.org/ebooks/67692.kf8.images","text/plain; charset=us-ascii":"https://www.gutenberg.org/ebooks/67692.txt.utf-8","application/rdf+xml":"https://www.gutenberg.org/ebooks/67692.rdf","image/jpeg":"https://www.gutenberg.org/cache/epub/67692/pg67692.cover.medium.jpg","application/octet-stream":"https://www.gutenberg.org/files/67692/67692-0.zip"},"download_count":20},{"id":67788,"title":"Through Colonial Doorways","authors":[{"name":"Wharton, Anne Hollingsworth","birth_year":1845,"death_year":1928}],"translators":[],"subjects":["United States -- Social life and customs -- 1775-1783","United States -- Social life and customs -- To 1775"],"bookshelves":[],"languages":["en"],"copyright":false,"media_type":"Text","formats":{"text/html":"https://www.gutenberg.org/ebooks/67788.html.images","application/epub+zip":"https://www.gutenberg.org/ebooks/67788.epub3.images","application/x-mobipocket-ebook":"https://www.gutenberg.org/ebooks/67788.kf8.images","text/plain; charset=us-ascii":"https://www.gutenberg.org/ebooks/67788.txt.utf-8","application/rdf+xml":"https://www.gutenberg.org/ebooks/67788.rdf","image/jpeg":"https://www.gutenberg.org/cache/epub/67788/pg67788.cover.medium.jpg","application/octet-stream":"https://www.gutenberg.org/files/67788/67788-0.zip"},"download_count":20},{"id":67809,"title":"The Climbers","authors":[{"name":"Bates, Lizzie","birth_year":null,"death_year":null}],"translators":[],"subjects":["Child labor -- Juvenile fiction","Christian life -- Juvenile fiction","Motherless families -- Juvenile fiction","Self-culture -- Juvenile fiction","Siblings -- Juvenile fiction","Success -- Juvenile fiction","Temperance -- Juvenile fiction"],"bookshelves":[],"languages":["en"],"copyright":false,"media_type":"Text","formats":{"text/html":"https://www.gutenberg.org/ebooks/67809.html.images","application/epub+zip":"https://www.gutenberg.org/ebooks/67809.epub3.images","application/x-mobipocket-ebook":"https://www.gutenberg.org/ebooks/67809.kf8.images","text/plain; charset=us-ascii":"https://www.gutenberg.org/ebooks/67809.txt.utf-8","application/rdf+xml":"https://www.gutenberg.org/ebooks/67809.rdf","image/jpeg":"https://www.gutenberg.org/cache/epub/67809/pg67809.cover.medium.jpg","application/octet-stream":"https://www.gutenberg.org/files/67809/67809-0.zip"},"download_count":20},{"id":67824,"title":"A Statement of Facts Tending to Establish an Estimate of the True Value and Present State of Vaccination","authors":[{"name":"Blane, Gilbert, Sir","birth_year":1749,"death_year":1834}],"translators":[],"subjects":["Smallpox","Vaccination"],"bookshelves":[],"languages":["en"],"copyright":false,"media_type":"Text","formats":{"text/html":"https://www.gutenberg.org/ebooks/67824.html.images","application/epub+zip":"https://www.gutenberg.org/ebooks/67824.epub3.images","application/x-mobipocket-ebook":"https://www.gutenberg.org/ebooks/67824.kf8.images","text/plain; charset=us-ascii":"https://www.gutenberg.org/ebooks/67824.txt.utf-8","application/rdf+xml":"https://www.gutenberg.org/ebooks/67824.rdf","image/jpeg":"https://www.gutenberg.org/cache/epub/67824/pg67824.cover.medium.jpg","application/octet-stream":"https://www.gutenberg.org/files/67824/67824-0.zip"},"download_count":20},{"id":67826,"title":"Contraband: A Tale of Modern Smugglers","authors":[{"name":"Spencer, Erle","birth_year":1897,"death_year":1937}],"translators":[],"subjects":["Adventure stories","Sea stories","Smuggling -- Juvenile fiction"],"bookshelves":[],"languages":["en"],"copyright":false,"media_type":"Text","formats":{"text/html":"https://www.gutenberg.org/ebooks/67826.html.images","application/epub+zip":"https://www.gutenberg.org/ebooks/67826.epub3.images","application/x-mobipocket-ebook":"https://www.gutenberg.org/ebooks/67826.kf8.images","text/plain; charset=us-ascii":"https://www.gutenberg.org/ebooks/67826.txt.utf-8","application/rdf+xml":"https://www.gutenberg.org/ebooks/67826.rdf","image/jpeg":"https://www.gutenberg.org/cache/epub/67826/pg67826.cover.medium.jpg","application/octet-stream":"https://www.gutenberg.org/files/67826/67826-0.zip"},"download_count":20},{"id":67836,"title":"Remarks on the Importance of the Study of Political Pamphlets, Weekly Papers, Periodical Papers, Daily Papers, Political Music, &c.","authors":[],"translators":[],"subjects":["Great Britain -- Politics and government -- 1760-1820 -- Early works to 1800"],"bookshelves":[],"languages":["en"],"copyright":false,"media_type":"Text","formats":{"text/html":"https://www.gutenberg.org/ebooks/67836.html.images","application/epub+zip":"https://www.gutenberg.org/ebooks/67836.epub3.images","application/x-mobipocket-ebook":"https://www.gutenberg.org/ebooks/67836.kf8.images","text/plain; charset=us-ascii":"https://www.gutenberg.org/ebooks/67836.txt.utf-8","application/rdf+xml":"https://www.gutenberg.org/ebooks/67836.rdf","image/jpeg":"https://www.gutenberg.org/cache/epub/67836/pg67836.cover.medium.jpg","application/octet-stream":"https://www.gutenberg.org/files/67836/67836-0.zip"},"download_count":20},{"id":67870,"title":"Readers and Writers (1917-1921)","authors":[{"name":"Orage, A. R. (Alfred Richard)","birth_year":1873,"death_year":1934}],"translators":[],"subjects":["Literature, Modern -- History and criticism"],"bookshelves":[],"languages":["en"],"copyright":false,"media_type":"Text","formats":{"text/html":"https://www.gutenberg.org/ebooks/67870.html.images","application/epub+zip":"https://www.gutenberg.org/ebooks/67870.epub3.images","application/x-mobipocket-ebook":"https://www.gutenberg.org/ebooks/67870.kf8.images","text/plain; charset=us-ascii":"https://www.gutenberg.org/ebooks/67870.txt.utf-8","application/rdf+xml":"https://www.gutenberg.org/ebooks/67870.rdf","image/jpeg":"https://www.gutenberg.org/cache/epub/67870/pg67870.cover.medium.jpg","application/octet-stream":"https://www.gutenberg.org/files/67870/67870-0.zip"},"download_count":20},{"id":67872,"title":"Peculiar: A Tale of the Great Transition","authors":[{"name":"Sargent, Epes","birth_year":1813,"death_year":1880}],"translators":[],"subjects":["African Americans -- Fiction","United States -- History -- Civil War, 1861-1865 -- Fiction"],"bookshelves":[],"languages":["en"],"copyright":false,"media_type":"Text","formats":{"text/html":"https://www.gutenberg.org/ebooks/67872.html.images","application/epub+zip":"https://www.gutenberg.org/ebooks/67872.epub3.images","application/x-mobipocket-ebook":"https://www.gutenberg.org/ebooks/67872.kf8.images","text/plain; charset=us-ascii":"https://www.gutenberg.org/ebooks/67872.txt.utf-8","application/rdf+xml":"https://www.gutenberg.org/ebooks/67872.rdf","image/jpeg":"https://www.gutenberg.org/cache/epub/67872/pg67872.cover.medium.jpg","application/octet-stream":"https://www.gutenberg.org/files/67872/67872-0.zip"},"download_count":20},{"id":67876,"title":"Tom Watson's Magazine, Vol. I, No. 3, May 1905","authors":[{"name":"Various","birth_year":null,"death_year":null}],"translators":[],"subjects":["United States -- Politics and government -- Periodicals"],"bookshelves":[],"languages":["en"],"copyright":false,"media_type":"Text","formats":{"text/html":"https://www.gutenberg.org/ebooks/67876.html.images","application/epub+zip":"https://www.gutenberg.org/ebooks/67876.epub3.images","application/x-mobipocket-ebook":"https://www.gutenberg.org/ebooks/67876.kf8.images","text/plain; charset=us-ascii":"https://www.gutenberg.org/ebooks/67876.txt.utf-8","application/rdf+xml":"https://www.gutenberg.org/ebooks/67876.rdf","image/jpeg":"https://www.gutenberg.org/cache/epub/67876/pg67876.cover.medium.jpg","application/octet-stream":"https://www.gutenberg.org/files/67876/67876-0.zip"},"download_count":20},{"id":67967,"title":"Peter Parley's Annual, 1855: A Christmas and New Year's Present for Young People","authors":[],"translators":[],"subjects":["Children's literature -- Periodicals","Gift books -- Periodicals"],"bookshelves":[],"languages":["en"],"copyright":false,"media_type":"Text","formats":{"text/html":"https://www.gutenberg.org/ebooks/67967.html.images","application/epub+zip":"https://www.gutenberg.org/ebooks/67967.epub3.images","application/x-mobipocket-ebook":"https://www.gutenberg.org/ebooks/67967.kf8.images","text/plain; charset=us-ascii":"https://www.gutenberg.org/ebooks/67967.txt.utf-8","application/rdf+xml":"https://www.gutenberg.org/ebooks/67967.rdf","image/jpeg":"https://www.gutenberg.org/cache/epub/67967/pg67967.cover.medium.jpg","application/octet-stream":"https://www.gutenberg.org/files/67967/67967-0.zip"},"download_count":20},{"id":67990,"title":"Toodle and Noodle Flat-tail: The Jolly Beaver Boys","authors":[{"name":"Garis, Howard Roger","birth_year":1873,"death_year":1962}],"translators":[],"subjects":["Animals -- Juvenile fiction","Beavers -- Juvenile fiction"],"bookshelves":[],"languages":["en"],"copyright":false,"media_type":"Text","formats":{"text/html":"https://www.gutenberg.org/ebooks/67990.html.images","application/epub+zip":"https://www.gutenberg.org/ebooks/67990.epub3.images","application/x-mobipocket-ebook":"https://www.gutenberg.org/ebooks/67990.kf8.images","text/plain; charset=us-ascii":"https://www.gutenberg.org/ebooks/67990.txt.utf-8","application/rdf+xml":"https://www.gutenberg.org/ebooks/67990.rdf","image/jpeg":"https://www.gutenberg.org/cache/epub/67990/pg67990.cover.medium.jpg","application/octet-stream":"https://www.gutenberg.org/files/67990/67990-0.zip"},"download_count":20},{"id":68039,"title":"The Tower of London, (Vol. 2 of 2)","authors":[{"name":"Gower, Ronald Sutherland, Lord","birth_year":1845,"death_year":1916}],"translators":[],"subjects":["Tower of London (London, England)"],"bookshelves":[],"languages":["en"],"copyright":false,"media_type":"Text","formats":{"text/html":"https://www.gutenberg.org/ebooks/68039.html.images","application/epub+zip":"https://www.gutenberg.org/ebooks/68039.epub3.images","application/x-mobipocket-ebook":"https://www.gutenberg.org/ebooks/68039.kf8.images","text/plain; charset=us-ascii":"https://www.gutenberg.org/ebooks/68039.txt.utf-8","application/rdf+xml":"https://www.gutenberg.org/ebooks/68039.rdf","image/jpeg":"https://www.gutenberg.org/cache/epub/68039/pg68039.cover.medium.jpg","application/octet-stream":"https://www.gutenberg.org/files/68039/68039-0.zip"},"download_count":20},{"id":68098,"title":"Little Willie","authors":[{"name":"Field, Eugene","birth_year":1850,"death_year":1895}],"translators":[],"subjects":["Enuresis -- Poetry","Humorous poetry"],"bookshelves":[],"languages":["en"],"copyright":false,"media_type":"Text","formats":{"text/html":"https://www.gutenberg.org/ebooks/68098.html.images","application/epub+zip":"https://www.gutenberg.org/ebooks/68098.epub3.images","application/x-mobipocket-ebook":"https://www.gutenberg.org/ebooks/68098.kf8.images","text/plain; charset=us-ascii":"https://www.gutenberg.org/ebooks/68098.txt.utf-8","application/rdf+xml":"https://www.gutenberg.org/ebooks/68098.rdf","image/jpeg":"https://www.gutenberg.org/cache/epub/68098/pg68098.cover.medium.jpg","application/octet-stream":"https://www.gutenberg.org/files/68098/68098-0.zip"},"download_count":20},{"id":68197,"title":"Blind Time","authors":[{"name":"Smith, George O. (George Oliver)","birth_year":1911,"death_year":1981}],"translators":[],"subjects":["Accidents -- Fiction","Factories -- Fiction","Insurance adjusters -- Fiction","Science fiction","Short stories","Time travel -- Fiction"],"bookshelves":[],"languages":["en"],"copyright":false,"media_type":"Text","formats":{"text/html":"https://www.gutenberg.org/ebooks/68197.html.images","application/epub+zip":"https://www.gutenberg.org/ebooks/68197.epub3.images","application/x-mobipocket-ebook":"https://www.gutenberg.org/ebooks/68197.kf8.images","text/plain; charset=us-ascii":"https://www.gutenberg.org/ebooks/68197.txt.utf-8","application/rdf+xml":"https://www.gutenberg.org/ebooks/68197.rdf","image/jpeg":"https://www.gutenberg.org/cache/epub/68197/pg68197.cover.medium.jpg","application/octet-stream":"https://www.gutenberg.org/files/68197/68197-0.zip"},"download_count":20},{"id":68217,"title":"Friendly counsels for freedmen","authors":[{"name":"Waterbury, J. B. (Jared Bell)","birth_year":1799,"death_year":1876}],"translators":[],"subjects":["Freed persons"],"bookshelves":[],"languages":["en"],"copyright":false,"media_type":"Text","formats":{"text/html":"https://www.gutenberg.org/ebooks/68217.html.images","application/epub+zip":"https://www.gutenberg.org/ebooks/68217.epub3.images","application/x-mobipocket-ebook":"https://www.gutenberg.org/ebooks/68217.kf8.images","text/plain; charset=us-ascii":"https://www.gutenberg.org/ebooks/68217.txt.utf-8","application/rdf+xml":"https://www.gutenberg.org/ebooks/68217.rdf","image/jpeg":"https://www.gutenberg.org/cache/epub/68217/pg68217.cover.medium.jpg","application/octet-stream":"https://www.gutenberg.org/files/68217/68217-0.zip"},"download_count":20},{"id":68234,"title":"Martha Schofield, pioneer Negro educator: Historical and philosophical review of reconstruction period of South Carolina","authors":[{"name":"Evans, Matilda A.","birth_year":null,"death_year":null}],"translators":[],"subjects":["African American educators -- Biography","African Americans -- Education","Education -- South Carolina","Reconstruction (U.S. history, 1865-1877) -- South Carolina","Schofield, Martha, 1839-1916"],"bookshelves":[],"languages":["en"],"copyright":false,"media_type":"Text","formats":{"text/html":"https://www.gutenberg.org/ebooks/68234.html.images","application/epub+zip":"https://www.gutenberg.org/ebooks/68234.epub3.images","application/x-mobipocket-ebook":"https://www.gutenberg.org/ebooks/68234.kf8.images","text/plain; charset=us-ascii":"https://www.gutenberg.org/ebooks/68234.txt.utf-8","application/rdf+xml":"https://www.gutenberg.org/ebooks/68234.rdf","image/jpeg":"https://www.gutenberg.org/cache/epub/68234/pg68234.cover.medium.jpg","application/octet-stream":"https://www.gutenberg.org/files/68234/68234-0.zip"},"download_count":20},{"id":68238,"title":"A political pilgrim in Europe","authors":[{"name":"Snowden, Ethel","birth_year":1881,"death_year":1951}],"translators":[],"subjects":["Conférence internationale pour la Société des Nations (1919 : Bern)","Europe -- Social conditions","International Socialist Congress","Socialism -- Congresses","Women's International League for Peace and Freedom. Congress (2nd : 1919 : Zurich, Switzerland)","World War, 1914-1918 -- Influence"],"bookshelves":[],"languages":["en"],"copyright":false,"media_type":"Text","formats":{"text/html":"https://www.gutenberg.org/ebooks/68238.html.images","application/epub+zip":"https://www.gutenberg.org/ebooks/68238.epub3.images","application/x-mobipocket-ebook":"https://www.gutenberg.org/ebooks/68238.kf8.images","text/plain; charset=us-ascii":"https://www.gutenberg.org/ebooks/68238.txt.utf-8","application/rdf+xml":"https://www.gutenberg.org/ebooks/68238.rdf","image/jpeg":"https://www.gutenberg.org/cache/epub/68238/pg68238.cover.medium.jpg","application/octet-stream":"https://www.gutenberg.org/files/68238/68238-0.zip"},"download_count":20},{"id":68247,"title":"Vocation","authors":[{"name":"Smith, George O. (George Oliver)","birth_year":1911,"death_year":1981}],"translators":[],"subjects":["Human-alien encounters -- Fiction","Science fiction"],"bookshelves":[],"languages":["en"],"copyright":false,"media_type":"Text","formats":{"text/html":"https://www.gutenberg.org/ebooks/68247.html.images","application/epub+zip":"https://www.gutenberg.org/ebooks/68247.epub3.images","application/x-mobipocket-ebook":"https://www.gutenberg.org/ebooks/68247.kf8.images","text/plain; charset=us-ascii":"https://www.gutenberg.org/ebooks/68247.txt.utf-8","application/rdf+xml":"https://www.gutenberg.org/ebooks/68247.rdf","image/jpeg":"https://www.gutenberg.org/cache/epub/68247/pg68247.cover.medium.jpg","application/octet-stream":"https://www.gutenberg.org/files/68247/68247-0.zip"},"download_count":20},{"id":68269,"title":"The apiary; or, bees, bee-hives, and bee culture [1865]: Being a familiar account of the habits of bees, and the most improved methods of management, with full directions, adapted for the cottager, farmer, or scientific apiarian","authors":[{"name":"Neighbor, Alfred","birth_year":null,"death_year":null}],"translators":[],"subjects":["Bee culture","Bee culture -- Economic aspects","Beehives","Bees"],"bookshelves":[],"languages":["en"],"copyright":false,"media_type":"Text","formats":{"text/html":"https://www.gutenberg.org/ebooks/68269.html.images","application/epub+zip":"https://www.gutenberg.org/ebooks/68269.epub3.images","application/x-mobipocket-ebook":"https://www.gutenberg.org/ebooks/68269.kf8.images","text/plain; charset=us-ascii":"https://www.gutenberg.org/ebooks/68269.txt.utf-8","application/rdf+xml":"https://www.gutenberg.org/ebooks/68269.rdf","image/jpeg":"https://www.gutenberg.org/cache/epub/68269/pg68269.cover.medium.jpg","application/octet-stream":"https://www.gutenberg.org/files/68269/68269-0.zip"},"download_count":20}]}