{"count":58808,"next":"http://129.241.150.113:8000/books/?languages=en&page=1784","previous":"http://129.241.150.113:8000/books/?languages=en&page=1782","results":[{"id":70245,"title":"Chambers's journal of popular literature, science, and art, fifth series, no. 119, vol. III, April 4, 1886","authors":[{"name":"Various","birth_year":null,"death_year":null}],"translators":[],"subjects":["Periodicals"],"bookshelves":[],"languages":["en"],"copyright":false,"media_type":"Text","formats":{"text/html":"https://www.gutenberg.org/ebooks/70245.html.images","application/epub+zip":"https://www.gutenberg.org/ebooks/70245.epub3.images","application/x-mobipocket-ebook":"https://www.gutenberg.org/ebooks/70245.kf8.images","text/plain; charset=us-ascii":"https://www.gutenberg.org/ebooks/70245.txt.utf-8","application/rdf+xml":"https://www.gutenberg.org/ebooks/70245.rdf","image/jpeg":"https://www.gutenberg.org/cache/epub/70245/pg70245.cover.medium.jpg","application/octet-stream":"https://www.gutenberg.org/files/70245/70245-0.zip"},"download_count":14},{"id":70270,"title":"In exitu Israel : $b an historical novel, volume 2 (of 2)","authors":[{"name":"Baring-Gould, S. (Sabine)","birth_year":1834,"death_year":1924}],"translators":[],"subjects":["France -- History -- Revolution, 1789-1799 -- Fiction"],"bookshelves":[],"languages":["en"],"copyright":false,"media_type":"Text","formats":{"text/html":"https://www.gutenberg.org/ebooks/70270.html.images","application/epub+zip":"https://www.gutenberg.org/ebooks/70270.epub3.images","application/x-mobipocket-ebook":"https://www.gutenberg.org/ebooks/70270.kf8.images","text/plain; charset=us-ascii":"https://www.gutenberg.org/ebooks/70270.txt.utf-8","application/rdf+xml":"https://www.gutenberg.org/ebooks/70270.rdf","image/jpeg":"https://www.gutenberg.org/cache/epub/70270/pg70270.cover.medium.jpg","application/octet-stream":"https://www.gutenberg.org/files/70270/70270-0.zip"},"download_count":14},{"id":70275,"title":"Mrs. Gurney's apology : $b In justification of Mrs. ——'s friendship","authors":[{"name":"Gurney, Mary Jary","birth_year":1829,"death_year":1872}],"translators":[],"subjects":["Desertion and non-support","Gurney family","Gurney, Mary Jary, 1829-1872","Women -- Social and moral questions"],"bookshelves":[],"languages":["en"],"copyright":false,"media_type":"Text","formats":{"text/html":"https://www.gutenberg.org/ebooks/70275.html.images","application/epub+zip":"https://www.gutenberg.org/ebooks/70275.epub3.images","application/x-mobipocket-ebook":"https://www.gutenberg.org/ebooks/70275.kf8.images","text/plain; charset=us-ascii":"https://www.gutenberg.org/ebooks/70275.txt.utf-8","application/rdf+xml":"https://www.gutenberg.org/ebooks/70275.rdf","image/jpeg":"https://www.gutenberg.org/cache/epub/70275/pg70275.cover.medium.jpg","application/octet-stream":"https://www.gutenberg.org/files/70275/70275-0.zip"},"download_count":14},{"id":70286,"title":"From flag to flag : $b A woman's adventures and experiences in the South during the war, in Mexico, and in Cuba","authors":[{"name":"Ripley, Eliza","birth_year":1832,"death_year":1912}],"translators":[],"subjects":["Cuba -- Description and travel","Louisiana -- History -- Civil War, 1861-1865","Mexico -- Description and travel","Ripley, Eliza, 1832-1912","United States -- History -- Civil War, 1861-1865 -- Personal narratives, Confederate"],"bookshelves":[],"languages":["en"],"copyright":false,"media_type":"Text","formats":{"text/html":"https://www.gutenberg.org/ebooks/70286.html.images","application/epub+zip":"https://www.gutenberg.org/ebooks/70286.epub3.images","application/x-mobipocket-ebook":"https://www.gutenberg.org/ebooks/70286.kf8.images","text/plain; charset=us-ascii":"https://www.gutenberg.org/ebooks/70286.txt.utf-8","application/rdf+xml":"https://www.gutenberg.org/ebooks/70286.rdf","image/jpeg":"https://www.gutenberg.org/cache/epub/70286/pg70286.cover.medium.jpg","application/octet-stream":"https://www.gutenberg.org/files/70286/70286-0.zip"},"download_count":14},{"id":70289,"title":"Corduroy","authors":[{"name":"Mitchell, Ruth Comfort","birth_year":1882,"death_year":1954}],"translators":[],"subjects":["California -- Fiction","Ranch life -- Fiction","Young women -- Fiction"],"bookshelves":[],"languages":["en"],"copyright":false,"media_type":"Text","formats":{"text/html":"https://www.gutenberg.org/ebooks/70289.html.images","application/epub+zip":"https://www.gutenberg.org/ebooks/70289.epub3.images","application/x-mobipocket-ebook":"https://www.gutenberg.org/ebooks/70289.kf8.images","text/plain; charset=us-ascii":"https://www.gutenberg.org/ebooks/70289.txt.utf-8","application/rdf+xml":"https://www.gutenberg.org/ebooks/70289.rdf","image/jpeg":"https://www.gutenberg.org/cache/epub/70289/pg70289.cover.medium.jpg","application/octet-stream":"https://www.gutenberg.org/files/70289/70289-0.zip"},"download_count":14},{"id":70308,"title":"On the mechanism of the physiological action of the cathartics","authors":[{"name":"MacCallum, John Bruce","birth_year":1876,"death_year":1906}],"translators":[],"subjects":["Laxatives -- Physiological effect"],"bookshelves":[],"languages":["en"],"copyright":false,"media_type":"Text","formats":{"text/html":"https://www.gutenberg.org/ebooks/70308.html.images","application/epub+zip":"https://www.gutenberg.org/ebooks/70308.epub3.images","application/x-mobipocket-ebook":"https://www.gutenberg.org/ebooks/70308.kf8.images","text/plain; charset=us-ascii":"https://www.gutenberg.org/ebooks/70308.txt.utf-8","application/rdf+xml":"https://www.gutenberg.org/ebooks/70308.rdf","image/jpeg":"https://www.gutenberg.org/cache/epub/70308/pg70308.cover.medium.jpg","application/octet-stream":"https://www.gutenberg.org/files/70308/70308-0.zip"},"download_count":14},{"id":70508,"title":"The Cornhill Magazine (Vol. I, No. 6, June 1860)","authors":[{"name":"Various","birth_year":null,"death_year":null}],"translators":[],"subjects":["England -- Periodicals","English literature -- Periodicals","Short stories, English -- Periodicals"],"bookshelves":[],"languages":["en"],"copyright":false,"media_type":"Text","formats":{"text/html":"https://www.gutenberg.org/ebooks/70508.html.images","application/epub+zip":"https://www.gutenberg.org/ebooks/70508.epub3.images","application/x-mobipocket-ebook":"https://www.gutenberg.org/ebooks/70508.kf8.images","text/plain; charset=us-ascii":"https://www.gutenberg.org/ebooks/70508.txt.utf-8","application/rdf+xml":"https://www.gutenberg.org/ebooks/70508.rdf","image/jpeg":"https://www.gutenberg.org/cache/epub/70508/pg70508.cover.medium.jpg","application/octet-stream":"https://www.gutenberg.org/files/70508/70508-0.zip"},"download_count":14},{"id":70607,"title":"Little soldiers all","authors":[{"name":"Stooke, Eleanora H.","birth_year":null,"death_year":null}],"translators":[],"subjects":["Christian life -- Juvenile fiction","Families -- Juvenile fiction","World War, 1914-1918 -- England -- Juvenile fiction"],"bookshelves":[],"languages":["en"],"copyright":false,"media_type":"Text","formats":{"text/html":"https://www.gutenberg.org/ebooks/70607.html.images","application/epub+zip":"https://www.gutenberg.org/ebooks/70607.epub3.images","application/x-mobipocket-ebook":"https://www.gutenberg.org/ebooks/70607.kf8.images","text/plain; charset=us-ascii":"https://www.gutenberg.org/ebooks/70607.txt.utf-8","application/rdf+xml":"https://www.gutenberg.org/ebooks/70607.rdf","image/jpeg":"https://www.gutenberg.org/cache/epub/70607/pg70607.cover.medium.jpg","application/octet-stream":"https://www.gutenberg.org/files/70607/70607-0.zip"},"download_count":14},{"id":70763,"title":"The poetical works of Edmund Clarence Stedman","authors":[{"name":"Stedman, Edmund Clarence","birth_year":1833,"death_year":1908}],"translators":[],"subjects":["American poetry -- 19th century"],"bookshelves":[],"languages":["en"],"copyright":false,"media_type":"Text","formats":{"text/html":"https://www.gutenberg.org/ebooks/70763.html.images","application/epub+zip":"https://www.gutenberg.org/ebooks/70763.epub3.images","application/x-mobipocket-ebook":"https://www.gutenberg.org/ebooks/70763.kf8.images","text/plain; charset=us-ascii":"https://www.gutenberg.org/ebooks/70763.txt.utf-8","application/rdf+xml":"https://www.gutenberg.org/ebooks/70763.rdf","image/jpeg":"https://www.gutenberg.org/cache/epub/70763/pg70763.cover.medium.jpg","application/octet-stream":"https://www.gutenberg.org/files/70763/70763-0.zip"},"download_count":14},{"id":70836,"title":"Too close fisted, and other stories","authors":[{"name":"Lamb, Ruth","birth_year":1829,"death_year":1916}],"translators":[],"subjects":["Domestic fiction, English","Short stories, English"],"bookshelves":[],"languages":["en"],"copyright":false,"media_type":"Text","formats":{"text/html":"https://www.gutenberg.org/ebooks/70836.html.images","application/epub+zip":"https://www.gutenberg.org/ebooks/70836.epub3.images","application/x-mobipocket-ebook":"https://www.gutenberg.org/ebooks/70836.kf8.images","text/plain; charset=us-ascii":"https://www.gutenberg.org/ebooks/70836.txt.utf-8","application/rdf+xml":"https://www.gutenberg.org/ebooks/70836.rdf","image/jpeg":"https://www.gutenberg.org/cache/epub/70836/pg70836.cover.medium.jpg","application/octet-stream":"https://www.gutenberg.org/files/70836/70836-0.zip"},"download_count":14},{"id":70966,"title":"The Tracy diamonds","authors":[{"name":"Holmes, Mary Jane","birth_year":1825,"death_year":1907}],"translators":[],"subjects":["American fiction -- 19th century"],"bookshelves":[],"languages":["en"],"copyright":false,"media_type":"Text","formats":{"text/html":"https://www.gutenberg.org/ebooks/70966.html.images","application/epub+zip":"https://www.gutenberg.org/ebooks/70966.epub3.images","application/x-mobipocket-ebook":"https://www.gutenberg.org/ebooks/70966.kf8.images","text/plain; charset=us-ascii":"https://www.gutenberg.org/ebooks/70966.txt.utf-8","application/rdf+xml":"https://www.gutenberg.org/ebooks/70966.rdf","image/jpeg":"https://www.gutenberg.org/cache/epub/70966/pg70966.cover.medium.jpg","application/octet-stream":"https://www.gutenberg.org/files/70966/70966-0.zip"},"download_count":14},{"id":70986,"title":"Mildred : $b A novel","authors":[{"name":"Holmes, Mary Jane","birth_year":1825,"death_year":1907}],"translators":[],"subjects":["Adopted children -- Fiction","American fiction -- 19th century","Dime novels"],"bookshelves":[],"languages":["en"],"copyright":false,"media_type":"Text","formats":{"text/html":"https://www.gutenberg.org/ebooks/70986.html.images","application/epub+zip":"https://www.gutenberg.org/ebooks/70986.epub3.images","application/x-mobipocket-ebook":"https://www.gutenberg.org/ebooks/70986.kf8.images","text/plain; charset=us-ascii":"https://www.gutenberg.org/ebooks/70986.txt.utf-8","application/rdf+xml":"https://www.gutenberg.org/ebooks/70986.rdf","image/jpeg":"https://www.gutenberg.org/cache/epub/70986/pg70986.cover.medium.jpg","application/octet-stream":"https://www.gutenberg.org/files/70986/70986-0.zip"},"download_count":14},{"id":71169,"title":"Illustrations of political economy, Volume 3 (of 9)","authors":[{"name":"Martineau, Harriet","birth_year":1802,"death_year":1876}],"translators":[],"subjects":["Didactic fiction, English","Political fiction, English","Social problems -- Fiction"],"bookshelves":[],"languages":["en"],"copyright":false,"media_type":"Text","formats":{"text/html":"https://www.gutenberg.org/ebooks/71169.html.images","application/epub+zip":"https://www.gutenberg.org/ebooks/71169.epub3.images","application/x-mobipocket-ebook":"https://www.gutenberg.org/ebooks/71169.kf8.images","text/plain; charset=us-ascii":"https://www.gutenberg.org/ebooks/71169.txt.utf-8","application/rdf+xml":"https://www.gutenberg.org/ebooks/71169.rdf","image/jpeg":"https://www.gutenberg.org/cache/epub/71169/pg71169.cover.medium.jpg","application/octet-stream":"https://www.gutenberg.org/files/71169/71169-0.zip"},"download_count":14},{"id":71237,"title":"Exiles of the sky","authors":[{"name":"Spewack, Samuel","birth_year":1899,"death_year":1971}],"translators":[],"subjects":["Air pilots -- Fiction","Russians -- Germany -- Fiction","Short stories"],"bookshelves":[],"languages":["en"],"copyright":false,"media_type":"Text","formats":{"text/html":"https://www.gutenberg.org/ebooks/71237.html.images","application/epub+zip":"https://www.gutenberg.org/ebooks/71237.epub3.images","application/x-mobipocket-ebook":"https://www.gutenberg.org/ebooks/71237.kf8.images","text/plain; charset=us-ascii":"https://www.gutenberg.org/ebooks/71237.txt.utf-8","application/rdf+xml":"https://www.gutenberg.org/ebooks/71237.rdf","image/jpeg":"https://www.gutenberg.org/cache/epub/71237/pg71237.cover.medium.jpg","application/octet-stream":"https://www.gutenberg.org/files/71237/71237-0.zip"},"download_count":14},{"id":71400,"title":"Trapping wild animals in Malay jungles","authors":[{"name":"Mayer, Charles","birth_year":1862,"death_year":1927}],"translators":[],"subjects":["Animal behavior","Hunting -- Malay Archipelago","Trapping"],"bookshelves":[],"languages":["en"],"copyright":false,"media_type":"Text","formats":{"text/html":"https://www.gutenberg.org/ebooks/71400.html.images","application/epub+zip":"https://www.gutenberg.org/ebooks/71400.epub3.images","application/x-mobipocket-ebook":"https://www.gutenberg.org/ebooks/71400.kf8.images","text/plain; charset=us-ascii":"https://www.gutenberg.org/ebooks/71400.txt.utf-8","application/rdf+xml":"https://www.gutenberg.org/ebooks/71400.rdf","image/jpeg":"https://www.gutenberg.org/cache/epub/71400/pg71400.cover.medium.jpg","application/octet-stream":"https://www.gutenberg.org/files/71400/71400-h.zip"},"download_count":14},{"id":71484,"title":"Heedless Hetty","authors":[{"name":"Lyster, Annette","birth_year":null,"death_year":null}],"translators":[],"subjects":["Didactic fiction","Domestic fiction","England -- Juvenile fiction","Household employees -- Juvenile fiction","Teenage girls -- Juvenile fiction"],"bookshelves":[],"languages":["en"],"copyright":false,"media_type":"Text","formats":{"text/html":"https://www.gutenberg.org/ebooks/71484.html.images","application/epub+zip":"https://www.gutenberg.org/ebooks/71484.epub3.images","application/x-mobipocket-ebook":"https://www.gutenberg.org/ebooks/71484.kf8.images","text/plain; charset=us-ascii":"https://www.gutenberg.org/ebooks/71484.txt.utf-8","application/rdf+xml":"https://www.gutenberg.org/ebooks/71484.rdf","image/jpeg":"https://www.gutenberg.org/cache/epub/71484/pg71484.cover.medium.jpg","application/octet-stream":"https://www.gutenberg.org/files/71484/71484-h.zip"},"download_count":14},{"id":71486,"title":"The Kansas University science bulletin, Vol. I, No. 6, September 1902","authors":[],"translators":[],"subjects":["Science -- Periodicals"],"bookshelves":[],"languages":["en"],"copyright":false,"media_type":"Text","formats":{"text/html":"https://www.gutenberg.org/ebooks/71486.html.images","application/epub+zip":"https://www.gutenberg.org/ebooks/71486.epub3.images","application/x-mobipocket-ebook":"https://www.gutenberg.org/ebooks/71486.kf8.images","text/plain; charset=us-ascii":"https://www.gutenberg.org/ebooks/71486.txt.utf-8","application/rdf+xml":"https://www.gutenberg.org/ebooks/71486.rdf","image/jpeg":"https://www.gutenberg.org/cache/epub/71486/pg71486.cover.medium.jpg","application/octet-stream":"https://www.gutenberg.org/files/71486/71486-h.zip"},"download_count":14},{"id":71514,"title":"The Kansas University science bulletin, Vol. I, No. 8, September 1902","authors":[],"translators":[],"subjects":["Science -- Periodicals"],"bookshelves":[],"languages":["en"],"copyright":false,"media_type":"Text","formats":{"text/html":"https://www.gutenberg.org/ebooks/71514.html.images","application/epub+zip":"https://www.gutenberg.org/ebooks/71514.epub3.images","application/x-mobipocket-ebook":"https://www.gutenberg.org/ebooks/71514.kf8.images","text/plain; charset=us-ascii":"https://www.gutenberg.org/ebooks/71514.txt.utf-8","application/rdf+xml":"https://www.gutenberg.org/ebooks/71514.rdf","image/jpeg":"https://www.gutenberg.org/cache/epub/71514/pg71514.cover.medium.jpg","application/octet-stream":"https://www.gutenberg.org/files/71514/71514-h.zip"},"download_count":14},{"id":71540,"title":"The Builder, No. 2, February 18, 1843","authors":[{"name":"Various","birth_year":null,"death_year":null}],"translators":[],"subjects":["Architecture -- Periodicals","Building -- Periodicals"],"bookshelves":[],"languages":["en"],"copyright":false,"media_type":"Text","formats":{"text/html":"https://www.gutenberg.org/ebooks/71540.html.images","application/epub+zip":"https://www.gutenberg.org/ebooks/71540.epub3.images","application/x-mobipocket-ebook":"https://www.gutenberg.org/ebooks/71540.kf8.images","text/plain; charset=us-ascii":"https://www.gutenberg.org/ebooks/71540.txt.utf-8","application/rdf+xml":"https://www.gutenberg.org/ebooks/71540.rdf","image/jpeg":"https://www.gutenberg.org/cache/epub/71540/pg71540.cover.medium.jpg","application/octet-stream":"https://www.gutenberg.org/files/71540/71540-h.zip"},"download_count":14},{"id":629,"title":"The Square Root of 5","authors":[{"name":"Bonnell, Jerry T.","birth_year":null,"death_year":null},{"name":"Nemiroff, Robert J.","birth_year":null,"death_year":null}],"translators":[],"subjects":["Mathematics","Square root"],"bookshelves":["Mathematics"],"languages":["en"],"copyright":false,"media_type":"Dataset","formats":{"text/plain; charset=us-ascii":"https://www.gutenberg.org/files/629/629.txt","application/rdf+xml":"https://www.gutenberg.org/ebooks/629.rdf"},"download_count":13},{"id":1165,"title":"The Little Book of Modern Verse: A Selection from the Work of Contemporaneous American Poets","authors":[],"translators":[],"subjects":["American poetry"],"bookshelves":[],"languages":["en"],"copyright":false,"media_type":"Text","formats":{"text/html":"https://www.gutenberg.org/ebooks/1165.html.images","application/epub+zip":"https://www.gutenberg.org/ebooks/1165.epub3.images","application/x-mobipocket-ebook":"https://www.gutenberg.org/ebooks/1165.kf8.images","text/plain; charset=us-ascii":"https://www.gutenberg.org/ebooks/1165.txt.utf-8","application/rdf+xml":"https://www.gutenberg.org/ebooks/1165.rdf","image/jpeg":"https://www.gutenberg.org/cache/epub/1165/pg1165.cover.medium.jpg","application/octet-stream":"https://www.gutenberg.org/cache/epub/1165/pg1165-h.zip"},"download_count":13},{"id":1387,"title":"Mother","authors":[{"name":"Wister, Owen","birth_year":1860,"death_year":1938}],"translators":[],"subjects":["Investments -- Fiction","Storytelling -- Fiction"],"bookshelves":[],"languages":["en"],"copyright":false,"media_type":"Text","formats":{"text/html":"https://www.gutenberg.org/ebooks/1387.html.images","text/html; charset=utf-8":"https://www.gutenberg.org/files/1387/1387-h/1387-h.htm","application/epub+zip":"https://www.gutenberg.org/ebooks/1387.epub3.images","application/x-mobipocket-ebook":"https://www.gutenberg.org/ebooks/1387.kf8.images","text/plain; charset=us-ascii":"https://www.gutenberg.org/ebooks/1387.txt.utf-8","text/plain; charset=utf-8":"https://www.gutenberg.org/files/1387/1387-0.txt","application/rdf+xml":"https://www.gutenberg.org/ebooks/1387.rdf","image/jpeg":"https://www.gutenberg.org/cache/epub/1387/pg1387.cover.medium.jpg","application/octet-stream":"https://www.gutenberg.org/cache/epub/1387/pg1387-h.zip"},"download_count":13},{"id":1920,"title":"Billy Baxter's Letters","authors":[{"name":"Kountz, William J.","birth_year":null,"death_year":1899}],"translators":[],"subjects":["Epistolary fiction","Humorous stories, American"],"bookshelves":[],"languages":["en"],"copyright":false,"media_type":"Text","formats":{"text/html":"https://www.gutenberg.org/ebooks/1920.html.images","application/epub+zip":"https://www.gutenberg.org/ebooks/1920.epub3.images","application/x-mobipocket-ebook":"https://www.gutenberg.org/ebooks/1920.kf8.images","text/plain; charset=us-ascii":"https://www.gutenberg.org/ebooks/1920.txt.utf-8","application/rdf+xml":"https://www.gutenberg.org/ebooks/1920.rdf","image/jpeg":"https://www.gutenberg.org/cache/epub/1920/pg1920.cover.medium.jpg","application/octet-stream":"https://www.gutenberg.org/cache/epub/1920/pg1920-h.zip"},"download_count":13},{"id":2164,"title":"The Lumley Autograph","authors":[{"name":"Cooper, Susan Fenimore","birth_year":1813,"death_year":1894}],"translators":[],"subjects":["Autographs -- Collectors and collecting -- Fiction","Satire"],"bookshelves":[],"languages":["en"],"copyright":false,"media_type":"Text","formats":{"text/html":"https://www.gutenberg.org/ebooks/2164.html.images","text/html; charset=iso-8859-1":"https://www.gutenberg.org/files/2164/2164-h/2164-h.htm","application/epub+zip":"https://www.gutenberg.org/ebooks/2164.epub3.images","application/x-mobipocket-ebook":"https://www.gutenberg.org/ebooks/2164.kf8.images","text/plain; charset=us-ascii":"https://www.gutenberg.org/ebooks/2164.txt.utf-8","application/rdf+xml":"https://www.gutenberg.org/ebooks/2164.rdf","image/jpeg":"https://www.gutenberg.org/cache/epub/2164/pg2164.cover.medium.jpg","application/octet-stream":"https://www.gutenberg.org/cache/epub/2164/pg2164-h.zip"},"download_count":13},{"id":2178,"title":"By Shore and Sedge","authors":[{"name":"Harte, Bret","birth_year":1836,"death_year":1902}],"translators":[],"subjects":["American fiction -- 19th century","Manners and customs -- Fiction"],"bookshelves":["Contemporary Reviews"],"languages":["en"],"copyright":false,"media_type":"Text","formats":{"text/html":"https://www.gutenberg.org/ebooks/2178.html.images","text/html; charset=iso-8859-1":"https://www.gutenberg.org/files/2178/2178-h/2178-h.htm","application/epub+zip":"https://www.gutenberg.org/ebooks/2178.epub3.images","application/x-mobipocket-ebook":"https://www.gutenberg.org/ebooks/2178.kf8.images","text/plain; charset=us-ascii":"https://www.gutenberg.org/ebooks/2178.txt.utf-8","application/rdf+xml":"https://www.gutenberg.org/ebooks/2178.rdf","image/jpeg":"https://www.gutenberg.org/cache/epub/2178/pg2178.cover.medium.jpg","application/octet-stream":"https://www.gutenberg.org/cache/epub/2178/pg2178-h.zip"},"download_count":13},{"id":2241,"title":"Love's Labour's Lost","authors":[{"name":"Shakespeare, William","birth_year":1564,"death_year":1616}],"translators":[],"subjects":["Comedies","Courts and courtiers -- Drama","Navarre (Kingdom) -- Drama","Princesses -- Drama"],"bookshelves":[],"languages":["en"],"copyright":false,"media_type":"Text","formats":{"text/html":"https://www.gutenberg.org/ebooks/2241.html.images","application/epub+zip":"https://www.gutenberg.org/ebooks/2241.epub3.images","application/x-mobipocket-ebook":"https://www.gutenberg.org/ebooks/2241.kf8.images","text/plain; charset=us-ascii":"https://www.gutenberg.org/ebooks/2241.txt.utf-8","application/rdf+xml":"https://www.gutenberg.org/ebooks/2241.rdf","image/jpeg":"https://www.gutenberg.org/cache/epub/2241/pg2241.cover.medium.jpg","application/octet-stream":"https://www.gutenberg.org/cache/epub/2241/pg2241-h.zip"},"download_count":13},{"id":2593,"title":"The Life of Stephen A. Douglas","authors":[{"name":"Gardner, William","birth_year":1861,"death_year":null}],"translators":[],"subjects":["Douglas, Stephen A. (Stephen Arnold), 1813-1861"],"bookshelves":[],"languages":["en"],"copyright":false,"media_type":"Text","formats":{"text/html":"https://www.gutenberg.org/ebooks/2593.html.images","application/epub+zip":"https://www.gutenberg.org/ebooks/2593.epub3.images","application/x-mobipocket-ebook":"https://www.gutenberg.org/ebooks/2593.kf8.images","text/plain; charset=us-ascii":"https://www.gutenberg.org/ebooks/2593.txt.utf-8","application/rdf+xml":"https://www.gutenberg.org/ebooks/2593.rdf","image/jpeg":"https://www.gutenberg.org/cache/epub/2593/pg2593.cover.medium.jpg","application/octet-stream":"https://www.gutenberg.org/cache/epub/2593/pg2593-h.zip"},"download_count":13},{"id":2628,"title":"The Rise and Progress of Palaeontology: Essay #2 from \"Science and Hebrew Tradition\"","authors":[{"name":"Huxley, Thomas Henry","birth_year":1825,"death_year":1895}],"translators":[],"subjects":["Bible and science","Evolution","Paleontology","Science"],"bookshelves":[],"languages":["en"],"copyright":false,"media_type":"Text","formats":{"text/html":"https://www.gutenberg.org/ebooks/2628.html.images","text/html; charset=us-ascii":"https://www.gutenberg.org/files/2628/2628-h/2628-h.htm","application/epub+zip":"https://www.gutenberg.org/ebooks/2628.epub3.images","application/x-mobipocket-ebook":"https://www.gutenberg.org/ebooks/2628.kf8.images","text/plain; charset=us-ascii":"https://www.gutenberg.org/ebooks/2628.txt.utf-8","application/rdf+xml":"https://www.gutenberg.org/ebooks/2628.rdf","image/jpeg":"https://www.gutenberg.org/cache/epub/2628/pg2628.cover.medium.jpg","application/octet-stream":"https://www.gutenberg.org/cache/epub/2628/pg2628-h.zip"},"download_count":13},{"id":3246,"title":"The Mirror of Literature, Amusement, and Instruction. Volume 13, No. 365, April 11, 1829","authors":[{"name":"Various","birth_year":null,"death_year":null}],"translators":[],"subjects":["Popular literature -- Great Britain -- Periodicals"],"bookshelves":["The Mirror of Literature, Amusement, and Instruction"],"languages":["en"],"copyright":false,"media_type":"Text","formats":{"text/html":"https://www.gutenberg.org/ebooks/3246.html.images","text/html; charset=iso-8859-1":"https://www.gutenberg.org/files/3246/3246-h/3246-h.htm","application/epub+zip":"https://www.gutenberg.org/ebooks/3246.epub3.images","application/x-mobipocket-ebook":"https://www.gutenberg.org/ebooks/3246.kf8.images","text/plain; charset=us-ascii":"https://www.gutenberg.org/ebooks/3246.txt.utf-8","text/plain; charset=iso-8859-1":"https://www.gutenberg.org/files/3246/3246-8.txt","application/rdf+xml":"https://www.gutenberg.org/ebooks/3246.rdf","image/jpeg":"https://www.gutenberg.org/cache/epub/3246/pg3246.cover.medium.jpg","application/octet-stream":"https://www.gutenberg.org/cache/epub/3246/pg3246-h.zip"},"download_count":13},{"id":3264,"title":"Dennison Grant: A Novel of To-day","authors":[{"name":"Stead, Robert J. C.","birth_year":1880,"death_year":1959}],"translators":[],"subjects":["Canada -- Fiction","Farmers -- Fiction","Prairie Provinces -- Fiction"],"bookshelves":[],"languages":["en"],"copyright":false,"media_type":"Text","formats":{"text/html":"https://www.gutenberg.org/ebooks/3264.html.images","text/html; charset=utf-8":"https://www.gutenberg.org/files/3264/3264-h/3264-h.htm","application/epub+zip":"https://www.gutenberg.org/ebooks/3264.epub3.images","application/x-mobipocket-ebook":"https://www.gutenberg.org/ebooks/3264.kf8.images","text/plain; charset=us-ascii":"https://www.gutenberg.org/ebooks/3264.txt.utf-8","text/plain; charset=utf-8":"https://www.gutenberg.org/files/3264/3264-0.txt","application/rdf+xml":"https://www.gutenberg.org/ebooks/3264.rdf","image/jpeg":"https://www.gutenberg.org/cache/epub/3264/pg3264.cover.medium.jpg","application/octet-stream":"https://www.gutenberg.org/cache/epub/3264/pg3264-h.zip"},"download_count":13},{"id":3371,"title":"Their Silver Wedding Journey — Volume 1","authors":[{"name":"Howells, William Dean","birth_year":1837,"death_year":1920}],"translators":[],"subjects":["Americans -- Europe -- Fiction","Transatlantic voyages -- Fiction"],"bookshelves":[],"languages":["en"],"copyright":false,"media_type":"Text","formats":{"text/html":"https://www.gutenberg.org/ebooks/3371.html.images","application/epub+zip":"https://www.gutenberg.org/ebooks/3371.epub3.images","application/x-mobipocket-ebook":"https://www.gutenberg.org/ebooks/3371.kf8.images","text/plain; charset=us-ascii":"https://www.gutenberg.org/ebooks/3371.txt.utf-8","application/rdf+xml":"https://www.gutenberg.org/ebooks/3371.rdf","image/jpeg":"https://www.gutenberg.org/cache/epub/3371/pg3371.cover.medium.jpg","application/octet-stream":"https://www.gutenberg.org/cache/epub/3371/pg3371-h.zip"},"download_count":13},{"id":3387,"title":"Confessions of a Summer Colonist (from Literature and Life)","authors":[{"name":"Howells, William Dean","birth_year":1837,"death_year":1920}],"translators":[],"subjects":["Atlantic Coast (U.S.) -- Description and travel"],"bookshelves":[],"languages":["en"],"copyright":false,"media_type":"Text","formats":{"text/html":"https://www.gutenberg.org/ebooks/3387.html.images","application/epub+zip":"https://www.gutenberg.org/ebooks/3387.epub3.images","application/x-mobipocket-ebook":"https://www.gutenberg.org/ebooks/3387.kf8.images","text/plain; charset=us-ascii":"https://www.gutenberg.org/ebooks/3387.txt.utf-8","application/rdf+xml":"https://www.gutenberg.org/ebooks/3387.rdf","image/jpeg":"https://www.gutenberg.org/cache/epub/3387/pg3387.cover.medium.jpg","application/octet-stream":"https://www.gutenberg.org/cache/epub/3387/pg3387-h.zip"},"download_count":13}]}