{"count":58808,"next":"http://129.241.150.113:8000/books/?languages=en&page=1021","previous":"http://129.241.150.113:8000/books/?languages=en&page=1019","results":[{"id":52,"title":"The Square Root of 2","authors":[{"name":"Kerr, Stan","birth_year":null,"death_year":null}],"translators":[],"subjects":["Mathematics","Square root"],"bookshelves":["Mathematics"],"languages":["en"],"copyright":false,"media_type":"Dataset","formats":{"text/plain; charset=us-ascii":"https://www.gutenberg.org/files/52/52.txt","application/rdf+xml":"https://www.gutenberg.org/ebooks/52.rdf"},"download_count":35},{"id":358,"title":"The Scarlet Car","authors":[{"name":"Davis, Richard Harding","birth_year":1864,"death_year":1916}],"translators":[],"subjects":["Automobile driving -- Fiction","Automobiles -- Fiction","Humorous stories","Love stories"],"bookshelves":[],"languages":["en"],"copyright":false,"media_type":"Text","formats":{"text/html":"https://www.gutenberg.org/ebooks/358.html.images","text/html; charset=iso-8859-1":"https://www.gutenberg.org/files/358/358-h/358-h.htm","application/epub+zip":"https://www.gutenberg.org/ebooks/358.epub3.images","application/x-mobipocket-ebook":"https://www.gutenberg.org/ebooks/358.kf8.images","text/plain; charset=us-ascii":"https://www.gutenberg.org/ebooks/358.txt.utf-8","application/rdf+xml":"https://www.gutenberg.org/ebooks/358.rdf","image/jpeg":"https://www.gutenberg.org/cache/epub/358/pg358.cover.medium.jpg","application/octet-stream":"https://www.gutenberg.org/cache/epub/358/pg358-h.zip"},"download_count":35},{"id":410,"title":"Hell Fer Sartain and Other Stories","authors":[{"name":"Fox, John, Jr.","birth_year":1862,"death_year":1919}],"translators":[],"subjects":["Cumberland Mountains -- Fiction","Kentucky -- Social life and customs -- Fiction","Mountain life -- Fiction","Short stories"],"bookshelves":[],"languages":["en"],"copyright":false,"media_type":"Text","formats":{"text/html":"https://www.gutenberg.org/ebooks/410.html.images","text/html; charset=iso-8859-1":"https://www.gutenberg.org/files/410/410-h/410-h.htm","application/epub+zip":"https://www.gutenberg.org/ebooks/410.epub3.images","application/x-mobipocket-ebook":"https://www.gutenberg.org/ebooks/410.kf8.images","text/plain; charset=us-ascii":"https://www.gutenberg.org/ebooks/410.txt.utf-8","application/rdf+xml":"https://www.gutenberg.org/ebooks/410.rdf","image/jpeg":"https://www.gutenberg.org/cache/epub/410/pg410.cover.medium.jpg","application/octet-stream":"https://www.gutenberg.org/cache/epub/410/pg410-h.zip"},"download_count":35},{"id":480,"title":"\"Undo\": A Novel","authors":[{"name":"Hutsko, Joe","birth_year":1963,"death_year":null}],"translators":[],"subjects":["Computer industry -- California -- Santa Clara County -- Fiction","Didactic fiction"],"bookshelves":[],"languages":["en"],"copyright":true,"media_type":"Text","formats":{"text/html":"https://www.gutenberg.org/ebooks/480.html.images","application/epub+zip":"https://www.gutenberg.org/ebooks/480.epub3.images","application/x-mobipocket-ebook":"https://www.gutenberg.org/ebooks/480.kf8.images","text/plain; charset=us-ascii":"https://www.gutenberg.org/ebooks/480.txt.utf-8","application/rdf+xml":"https://www.gutenberg.org/ebooks/480.rdf","image/jpeg":"https://www.gutenberg.org/cache/epub/480/pg480.cover.medium.jpg","application/octet-stream":"https://www.gutenberg.org/cache/epub/480/pg480-h.zip"},"download_count":35},{"id":562,"title":"The Go Ahead Boys and the Racing Motor-Boat","authors":[{"name":"Kay, Ross","birth_year":null,"death_year":null}],"translators":[],"subjects":["Boats and boating -- Juvenile fiction","Boys -- Juvenile fiction"],"bookshelves":[],"languages":["en"],"copyright":false,"media_type":"Text","formats":{"text/html":"https://www.gutenberg.org/ebooks/562.html.images","text/html; charset=iso-8859-1":"https://www.gutenberg.org/files/562/562-h/562-h.htm","application/epub+zip":"https://www.gutenberg.org/ebooks/562.epub3.images","application/x-mobipocket-ebook":"https://www.gutenberg.org/ebooks/562.kf8.images","text/plain; charset=us-ascii":"https://www.gutenberg.org/ebooks/562.txt.utf-8","application/rdf+xml":"https://www.gutenberg.org/ebooks/562.rdf","image/jpeg":"https://www.gutenberg.org/cache/epub/562/pg562.cover.medium.jpg","application/octet-stream":"https://www.gutenberg.org/cache/epub/562/pg562-h.zip"},"download_count":35},{"id":592,"title":"The Chinese Nightingale, and Other Poems","authors":[{"name":"Lindsay, Vachel","birth_year":1879,"death_year":1931}],"translators":[],"subjects":["American poetry","Fairy tales -- Poetry","World War, 1914-1918 -- Poetry"],"bookshelves":[],"languages":["en"],"copyright":false,"media_type":"Text","formats":{"text/html":"https://www.gutenberg.org/ebooks/592.html.images","application/epub+zip":"https://www.gutenberg.org/ebooks/592.epub3.images","application/x-mobipocket-ebook":"https://www.gutenberg.org/ebooks/592.kf8.images","text/plain; charset=us-ascii":"https://www.gutenberg.org/ebooks/592.txt.utf-8","text/plain; charset=iso-8859-1":"https://www.gutenberg.org/files/592/592-8.txt","application/rdf+xml":"https://www.gutenberg.org/ebooks/592.rdf","image/jpeg":"https://www.gutenberg.org/cache/epub/592/pg592.cover.medium.jpg","application/octet-stream":"https://www.gutenberg.org/cache/epub/592/pg592-h.zip"},"download_count":35},{"id":603,"title":"Letters of George Borrow to the British and Foreign Bible Society","authors":[{"name":"Borrow, George","birth_year":1803,"death_year":1881}],"translators":[],"subjects":["Authors, English -- 19th century -- Correspondence","British and Foreign Bible Society","English letters"],"bookshelves":[],"languages":["en"],"copyright":false,"media_type":"Text","formats":{"text/html":"https://www.gutenberg.org/ebooks/603.html.images","application/epub+zip":"https://www.gutenberg.org/ebooks/603.epub3.images","application/x-mobipocket-ebook":"https://www.gutenberg.org/ebooks/603.kf8.images","text/plain; charset=us-ascii":"https://www.gutenberg.org/ebooks/603.txt.utf-8","application/rdf+xml":"https://www.gutenberg.org/ebooks/603.rdf","image/jpeg":"https://www.gutenberg.org/cache/epub/603/pg603.cover.medium.jpg","application/octet-stream":"https://www.gutenberg.org/cache/epub/603/pg603-h.zip"},"download_count":35},{"id":682,"title":"Catalan's Constant [Ramanujan's Formula]","authors":[{"name":"Fee, Greg","birth_year":null,"death_year":null}],"translators":[],"subjects":["Mathematical constants"],"bookshelves":["Mathematics"],"languages":["en"],"copyright":false,"media_type":"Text","formats":{"text/html":"https://www.gutenberg.org/ebooks/682.html.images","application/epub+zip":"https://www.gutenberg.org/ebooks/682.epub3.images","application/x-mobipocket-ebook":"https://www.gutenberg.org/ebooks/682.kf8.images","text/plain; charset=us-ascii":"https://www.gutenberg.org/ebooks/682.txt.utf-8","application/rdf+xml":"https://www.gutenberg.org/ebooks/682.rdf","image/jpeg":"https://www.gutenberg.org/cache/epub/682/pg682.cover.medium.jpg","application/octet-stream":"https://www.gutenberg.org/cache/epub/682/pg682-h.zip"},"download_count":35},{"id":695,"title":"Glaucus; Or, The Wonders of the Shore","authors":[{"name":"Kingsley, Charles","birth_year":1819,"death_year":1875}],"translators":[],"subjects":["Natural history -- Juvenile literature","Seashore biology -- Juvenile literature"],"bookshelves":[],"languages":["en"],"copyright":false,"media_type":"Text","formats":{"text/html":"https://www.gutenberg.org/ebooks/695.html.images","application/epub+zip":"https://www.gutenberg.org/ebooks/695.epub3.images","application/x-mobipocket-ebook":"https://www.gutenberg.org/ebooks/695.kf8.images","text/plain; charset=us-ascii":"https://www.gutenberg.org/ebooks/695.txt.utf-8","text/plain; charset=utf-8":"https://www.gutenberg.org/files/695/695-0.txt","application/rdf+xml":"https://www.gutenberg.org/ebooks/695.rdf","image/jpeg":"https://www.gutenberg.org/cache/epub/695/pg695.cover.medium.jpg","application/octet-stream":"https://www.gutenberg.org/cache/epub/695/pg695-h.zip"},"download_count":35},{"id":759,"title":"James Pethel","authors":[{"name":"Beerbohm, Max, Sir","birth_year":1872,"death_year":1956}],"translators":[],"subjects":["Character sketches","Gambling -- Fiction","Short stories"],"bookshelves":[],"languages":["en"],"copyright":false,"media_type":"Text","formats":{"text/html":"https://www.gutenberg.org/ebooks/759.html.images","application/epub+zip":"https://www.gutenberg.org/ebooks/759.epub3.images","application/x-mobipocket-ebook":"https://www.gutenberg.org/ebooks/759.kf8.images","text/plain; charset=us-ascii":"https://www.gutenberg.org/ebooks/759.txt.utf-8","application/rdf+xml":"https://www.gutenberg.org/ebooks/759.rdf","image/jpeg":"https://www.gutenberg.org/cache/epub/759/pg759.cover.medium.jpg","application/octet-stream":"https://www.gutenberg.org/cache/epub/759/pg759-h.zip"},"download_count":35},{"id":838,"title":"Jasmin: Barber, Poet, Philanthropist","authors":[{"name":"Smiles, Samuel","birth_year":1812,"death_year":1904}],"translators":[],"subjects":["Jasmin, 1798-1864","Poets, French -- Biography"],"bookshelves":[],"languages":["en"],"copyright":false,"media_type":"Text","formats":{"text/html":"https://www.gutenberg.org/ebooks/838.html.images","text/html; charset=us-ascii":"https://www.gutenberg.org/files/838/838-h/838-h.htm","application/epub+zip":"https://www.gutenberg.org/ebooks/838.epub3.images","application/x-mobipocket-ebook":"https://www.gutenberg.org/ebooks/838.kf8.images","text/plain; charset=us-ascii":"https://www.gutenberg.org/ebooks/838.txt.utf-8","application/rdf+xml":"https://www.gutenberg.org/ebooks/838.rdf","image/jpeg":"https://www.gutenberg.org/cache/epub/838/pg838.cover.medium.jpg","application/octet-stream":"https://www.gutenberg.org/cache/epub/838/pg838-h.zip"},"download_count":35},{"id":916,"title":"Sketches of Young Couples","authors":[{"name":"Dickens, Charles","birth_year":1812,"death_year":1870}],"translators":[],"subjects":["Couples -- England","England -- Social life and customs -- 19th century"],"bookshelves":[],"languages":["en"],"copyright":false,"media_type":"Text","formats":{"text/html":"https://www.gutenberg.org/ebooks/916.html.images","application/epub+zip":"https://www.gutenberg.org/ebooks/916.epub3.images","application/x-mobipocket-ebook":"https://www.gutenberg.org/ebooks/916.kf8.images","text/plain; charset=us-ascii":"https://www.gutenberg.org/ebooks/916.txt.utf-8","text/plain; charset=utf-8":"https://www.gutenberg.org/files/916/916-0.txt","application/rdf+xml":"https://www.gutenberg.org/ebooks/916.rdf","image/jpeg":"https://www.gutenberg.org/cache/epub/916/pg916.cover.medium.jpg","application/octet-stream":"https://www.gutenberg.org/cache/epub/916/pg916-h.zip"},"download_count":35},{"id":988,"title":"The Education of the Child","authors":[{"name":"Key, Ellen","birth_year":1849,"death_year":1926}],"translators":[],"subjects":["Education"],"bookshelves":[],"languages":["en"],"copyright":false,"media_type":"Text","formats":{"text/html":"https://www.gutenberg.org/ebooks/988.html.images","application/epub+zip":"https://www.gutenberg.org/ebooks/988.epub3.images","application/x-mobipocket-ebook":"https://www.gutenberg.org/ebooks/988.kf8.images","text/plain; charset=us-ascii":"https://www.gutenberg.org/ebooks/988.txt.utf-8","application/rdf+xml":"https://www.gutenberg.org/ebooks/988.rdf","image/jpeg":"https://www.gutenberg.org/cache/epub/988/pg988.cover.medium.jpg","application/octet-stream":"https://www.gutenberg.org/cache/epub/988/pg988-h.zip"},"download_count":35},{"id":1113,"title":"A Midsummer Night's Dream","authors":[{"name":"Shakespeare, William","birth_year":1564,"death_year":1616}],"translators":[],"subjects":["Athens (Greece) -- Drama","Comedies","Courtship -- Drama","Fairy plays"],"bookshelves":[],"languages":["en"],"copyright":false,"media_type":"Text","formats":{"text/html":"https://www.gutenberg.org/ebooks/1113.html.images","application/epub+zip":"https://www.gutenberg.org/ebooks/1113.epub3.images","application/x-mobipocket-ebook":"https://www.gutenberg.org/ebooks/1113.kf8.images","text/plain; charset=us-ascii":"https://www.gutenberg.org/ebooks/1113.txt.utf-8","application/rdf+xml":"https://www.gutenberg.org/ebooks/1113.rdf","image/jpeg":"https://www.gutenberg.org/cache/epub/1113/pg1113.cover.medium.jpg","application/octet-stream":"https://www.gutenberg.org/cache/epub/1113/pg1113-h.zip"},"download_count":35},{"id":1116,"title":"The Merry Wives of Windsor","authors":[{"name":"Shakespeare, William","birth_year":1564,"death_year":1616}],"translators":[],"subjects":["Comedies","Falstaff, John, Sir (Fictitious character) -- Drama","Married women -- Drama","Windsor (Berkshire, England) -- Drama"],"bookshelves":[],"languages":["en"],"copyright":false,"media_type":"Text","formats":{"text/html":"https://www.gutenberg.org/ebooks/1116.html.images","application/epub+zip":"https://www.gutenberg.org/ebooks/1116.epub3.images","application/x-mobipocket-ebook":"https://www.gutenberg.org/ebooks/1116.kf8.images","text/plain; charset=us-ascii":"https://www.gutenberg.org/ebooks/1116.txt.utf-8","application/rdf+xml":"https://www.gutenberg.org/ebooks/1116.rdf","image/jpeg":"https://www.gutenberg.org/cache/epub/1116/pg1116.cover.medium.jpg","application/octet-stream":"https://www.gutenberg.org/cache/epub/1116/pg1116-h.zip"},"download_count":35},{"id":1132,"title":"The Life of Timon of Athens","authors":[{"name":"Shakespeare, William","birth_year":1564,"death_year":1616}],"translators":[],"subjects":["Athens (Greece) -- Drama","Timon of Athens (Legendary character) -- Drama","Tragedies"],"bookshelves":[],"languages":["en"],"copyright":false,"media_type":"Text","formats":{"text/html":"https://www.gutenberg.org/ebooks/1132.html.images","application/epub+zip":"https://www.gutenberg.org/ebooks/1132.epub3.images","application/x-mobipocket-ebook":"https://www.gutenberg.org/ebooks/1132.kf8.images","text/plain; charset=us-ascii":"https://www.gutenberg.org/ebooks/1132.txt.utf-8","application/rdf+xml":"https://www.gutenberg.org/ebooks/1132.rdf","image/jpeg":"https://www.gutenberg.org/cache/epub/1132/pg1132.cover.medium.jpg","application/octet-stream":"https://www.gutenberg.org/cache/epub/1132/pg1132-h.zip"},"download_count":35},{"id":1311,"title":"If: A Play in Four Acts","authors":[{"name":"Dunsany, Lord","birth_year":1878,"death_year":1957}],"translators":[],"subjects":["English drama"],"bookshelves":["Fantasy"],"languages":["en"],"copyright":false,"media_type":"Text","formats":{"text/html":"https://www.gutenberg.org/ebooks/1311.html.images","text/html; charset=us-ascii":"https://www.gutenberg.org/files/1311/1311-h/1311-h.htm","application/epub+zip":"https://www.gutenberg.org/ebooks/1311.epub3.images","application/x-mobipocket-ebook":"https://www.gutenberg.org/ebooks/1311.kf8.images","text/plain; charset=us-ascii":"https://www.gutenberg.org/ebooks/1311.txt.utf-8","application/rdf+xml":"https://www.gutenberg.org/ebooks/1311.rdf","image/jpeg":"https://www.gutenberg.org/cache/epub/1311/pg1311.cover.medium.jpg","application/octet-stream":"https://www.gutenberg.org/cache/epub/1311/pg1311-h.zip"},"download_count":35},{"id":1378,"title":"The Land of Footprints","authors":[{"name":"White, Stewart Edward","birth_year":1873,"death_year":1946}],"translators":[],"subjects":["Africa, East -- Description and travel","Hunting -- Africa, East"],"bookshelves":[],"languages":["en"],"copyright":false,"media_type":"Text","formats":{"text/html":"https://www.gutenberg.org/ebooks/1378.html.images","text/html; charset=utf-8":"https://www.gutenberg.org/files/1378/1378-h/1378-h.htm","application/epub+zip":"https://www.gutenberg.org/ebooks/1378.epub3.images","application/x-mobipocket-ebook":"https://www.gutenberg.org/ebooks/1378.kf8.images","text/plain; charset=us-ascii":"https://www.gutenberg.org/ebooks/1378.txt.utf-8","text/plain; charset=utf-8":"https://www.gutenberg.org/files/1378/1378-0.txt","application/rdf+xml":"https://www.gutenberg.org/ebooks/1378.rdf","image/jpeg":"https://www.gutenberg.org/cache/epub/1378/pg1378.cover.medium.jpg","application/octet-stream":"https://www.gutenberg.org/cache/epub/1378/pg1378-h.zip"},"download_count":35},{"id":1402,"title":"Where the Blue Begins","authors":[{"name":"Morley, Christopher","birth_year":1890,"death_year":1957}],"translators":[],"subjects":["Didactic fiction","Dogs -- Fiction","Fantasy fiction"],"bookshelves":[],"languages":["en"],"copyright":false,"media_type":"Text","formats":{"text/html":"https://www.gutenberg.org/ebooks/1402.html.images","text/html; charset=utf-8":"https://www.gutenberg.org/files/1402/1402-h/1402-h.htm","application/epub+zip":"https://www.gutenberg.org/ebooks/1402.epub3.images","application/x-mobipocket-ebook":"https://www.gutenberg.org/ebooks/1402.kf8.images","text/plain; charset=us-ascii":"https://www.gutenberg.org/ebooks/1402.txt.utf-8","text/plain; charset=utf-8":"https://www.gutenberg.org/files/1402/1402-0.txt","application/rdf+xml":"https://www.gutenberg.org/ebooks/1402.rdf","image/jpeg":"https://www.gutenberg.org/cache/epub/1402/pg1402.cover.medium.jpg","application/octet-stream":"https://www.gutenberg.org/cache/epub/1402/pg1402-h.zip"},"download_count":35},{"id":1413,"title":"Tom Tiddler's Ground","authors":[{"name":"Dickens, Charles","birth_year":1812,"death_year":1870}],"translators":[],"subjects":["English fiction"],"bookshelves":[],"languages":["en"],"copyright":false,"media_type":"Text","formats":{"text/html":"https://www.gutenberg.org/ebooks/1413.html.images","application/epub+zip":"https://www.gutenberg.org/ebooks/1413.epub3.images","application/x-mobipocket-ebook":"https://www.gutenberg.org/ebooks/1413.kf8.images","text/plain; charset=us-ascii":"https://www.gutenberg.org/ebooks/1413.txt.utf-8","application/rdf+xml":"https://www.gutenberg.org/ebooks/1413.rdf","image/jpeg":"https://www.gutenberg.org/cache/epub/1413/pg1413.cover.medium.jpg","application/octet-stream":"https://www.gutenberg.org/cache/epub/1413/pg1413-h.zip"},"download_count":35},{"id":1418,"title":"Country Sentiment","authors":[{"name":"Graves, Robert","birth_year":1895,"death_year":1985}],"translators":[],"subjects":["Pastoral poetry"],"bookshelves":[],"languages":["en"],"copyright":false,"media_type":"Text","formats":{"text/html":"https://www.gutenberg.org/ebooks/1418.html.images","text/html; charset=us-ascii":"https://www.gutenberg.org/files/1418/1418-h/1418-h.htm","application/epub+zip":"https://www.gutenberg.org/ebooks/1418.epub3.images","application/x-mobipocket-ebook":"https://www.gutenberg.org/ebooks/1418.kf8.images","text/plain; charset=us-ascii":"https://www.gutenberg.org/ebooks/1418.txt.utf-8","application/rdf+xml":"https://www.gutenberg.org/ebooks/1418.rdf","image/jpeg":"https://www.gutenberg.org/cache/epub/1418/pg1418.cover.medium.jpg","application/octet-stream":"https://www.gutenberg.org/cache/epub/1418/pg1418-h.zip"},"download_count":35},{"id":1470,"title":"The Fall of the Moghul Empire of Hindustan","authors":[{"name":"Keene, H. G. (Henry George)","birth_year":1825,"death_year":1915}],"translators":[],"subjects":["India -- History -- 18th century","Mogul Empire -- History"],"bookshelves":["India"],"languages":["en"],"copyright":false,"media_type":"Text","formats":{"text/html":"https://www.gutenberg.org/ebooks/1470.html.images","application/epub+zip":"https://www.gutenberg.org/ebooks/1470.epub3.images","application/x-mobipocket-ebook":"https://www.gutenberg.org/ebooks/1470.kf8.images","text/plain; charset=us-ascii":"https://www.gutenberg.org/ebooks/1470.txt.utf-8","application/rdf+xml":"https://www.gutenberg.org/ebooks/1470.rdf","image/jpeg":"https://www.gutenberg.org/cache/epub/1470/pg1470.cover.medium.jpg","application/octet-stream":"https://www.gutenberg.org/cache/epub/1470/pg1470-h.zip"},"download_count":35},{"id":1479,"title":"A Vanished Arcadia: Being Some Account of the Jesuits in Paraguay 1607-1767","authors":[{"name":"Cunninghame Graham, R. B. (Robert Bontine)","birth_year":1852,"death_year":1936}],"translators":[],"subjects":["Jesuits -- Paraguay","Paraguay -- History -- To 1811"],"bookshelves":[],"languages":["en"],"copyright":false,"media_type":"Text","formats":{"text/html":"https://www.gutenberg.org/ebooks/1479.html.images","application/epub+zip":"https://www.gutenberg.org/ebooks/1479.epub3.images","application/x-mobipocket-ebook":"https://www.gutenberg.org/ebooks/1479.kf8.images","text/plain; charset=us-ascii":"https://www.gutenberg.org/ebooks/1479.txt.utf-8","application/rdf+xml":"https://www.gutenberg.org/ebooks/1479.rdf","image/jpeg":"https://www.gutenberg.org/cache/epub/1479/pg1479.cover.medium.jpg","application/octet-stream":"https://www.gutenberg.org/cache/epub/1479/pg1479-h.zip"},"download_count":35},{"id":1506,"title":"The Two Noble Kinsmen","authors":[{"name":"Shakespeare, William","birth_year":1564,"death_year":1616}],"translators":[],"subjects":["Athens (Greece)","Knights and knighthood -- Drama","Tragicomedy"],"bookshelves":[],"languages":["en"],"copyright":false,"media_type":"Text","formats":{"text/html":"https://www.gutenberg.org/ebooks/1506.html.images","application/epub+zip":"https://www.gutenberg.org/ebooks/1506.epub3.images","application/x-mobipocket-ebook":"https://www.gutenberg.org/ebooks/1506.kf8.images","text/plain; charset=us-ascii":"https://www.gutenberg.org/ebooks/1506.txt.utf-8","application/rdf+xml":"https://www.gutenberg.org/ebooks/1506.rdf","image/jpeg":"https://www.gutenberg.org/cache/epub/1506/pg1506.cover.medium.jpg","application/octet-stream":"https://www.gutenberg.org/cache/epub/1506/pg1506-h.zip"},"download_count":35},{"id":1701,"title":"The Story of Waitstill Baxter","authors":[{"name":"Wiggin, Kate Douglas Smith","birth_year":1856,"death_year":1923}],"translators":[],"subjects":["Fathers and daughters -- Fiction","New England -- Social life and customs -- 19th century -- Fiction","Sisters -- Fiction"],"bookshelves":[],"languages":["en"],"copyright":false,"media_type":"Text","formats":{"text/html":"https://www.gutenberg.org/ebooks/1701.html.images","text/html; charset=utf-8":"https://www.gutenberg.org/files/1701/1701-h/1701-h.htm","application/epub+zip":"https://www.gutenberg.org/ebooks/1701.epub3.images","application/x-mobipocket-ebook":"https://www.gutenberg.org/ebooks/1701.kf8.images","text/plain; charset=us-ascii":"https://www.gutenberg.org/ebooks/1701.txt.utf-8","text/plain; charset=utf-8":"https://www.gutenberg.org/files/1701/1701-0.txt","application/rdf+xml":"https://www.gutenberg.org/ebooks/1701.rdf","image/jpeg":"https://www.gutenberg.org/cache/epub/1701/pg1701.cover.medium.jpg","application/octet-stream":"https://www.gutenberg.org/cache/epub/1701/pg1701-h.zip"},"download_count":35},{"id":1798,"title":"Timon of Athens","authors":[{"name":"Shakespeare, William","birth_year":1564,"death_year":1616}],"translators":[],"subjects":["Athens (Greece) -- Drama","Timon of Athens (Legendary character) -- Drama","Tragedies"],"bookshelves":[],"languages":["en"],"copyright":false,"media_type":"Text","formats":{"text/html":"https://www.gutenberg.org/ebooks/1798.html.images","application/epub+zip":"https://www.gutenberg.org/ebooks/1798.epub3.images","application/x-mobipocket-ebook":"https://www.gutenberg.org/ebooks/1798.kf8.images","text/plain; charset=us-ascii":"https://www.gutenberg.org/ebooks/1798.txt.utf-8","application/rdf+xml":"https://www.gutenberg.org/ebooks/1798.rdf","image/jpeg":"https://www.gutenberg.org/cache/epub/1798/pg1798.cover.medium.jpg","application/octet-stream":"https://www.gutenberg.org/cache/epub/1798/pg1798-h.zip"},"download_count":35},{"id":1877,"title":"A Mountain Woman","authors":[{"name":"Peattie, Elia Wilkinson","birth_year":1862,"death_year":1935}],"translators":[],"subjects":["Fiction","Short stories, American"],"bookshelves":[],"languages":["en"],"copyright":false,"media_type":"Text","formats":{"text/html":"https://www.gutenberg.org/ebooks/1877.html.images","application/epub+zip":"https://www.gutenberg.org/ebooks/1877.epub3.images","application/x-mobipocket-ebook":"https://www.gutenberg.org/ebooks/1877.kf8.images","text/plain; charset=us-ascii":"https://www.gutenberg.org/ebooks/1877.txt.utf-8","application/rdf+xml":"https://www.gutenberg.org/ebooks/1877.rdf","image/jpeg":"https://www.gutenberg.org/cache/epub/1877/pg1877.cover.medium.jpg","application/octet-stream":"https://www.gutenberg.org/files/1877/1877-0.zip"},"download_count":35},{"id":1918,"title":"Long Odds","authors":[{"name":"Haggard, H. Rider (Henry Rider)","birth_year":1856,"death_year":1925}],"translators":[],"subjects":["Adventure stories","Africa -- Fiction","Hunting guides -- Fiction","Quatermain, Allan (Fictitious character) -- Fiction"],"bookshelves":[],"languages":["en"],"copyright":false,"media_type":"Text","formats":{"text/html":"https://www.gutenberg.org/ebooks/1918.html.images","text/html; charset=iso-8859-1":"https://www.gutenberg.org/files/1918/1918-h/1918-h.htm","application/epub+zip":"https://www.gutenberg.org/ebooks/1918.epub3.images","application/x-mobipocket-ebook":"https://www.gutenberg.org/ebooks/1918.kf8.images","text/plain; charset=us-ascii":"https://www.gutenberg.org/ebooks/1918.txt.utf-8","application/rdf+xml":"https://www.gutenberg.org/ebooks/1918.rdf","image/jpeg":"https://www.gutenberg.org/cache/epub/1918/pg1918.cover.medium.jpg","application/octet-stream":"https://www.gutenberg.org/cache/epub/1918/pg1918-h.zip"},"download_count":35},{"id":1936,"title":"Letters from England, 1846-1849","authors":[{"name":"Bancroft, Elizabeth Davis","birth_year":1803,"death_year":1886}],"translators":[],"subjects":["England -- Description and travel"],"bookshelves":["United Kingdom"],"languages":["en"],"copyright":false,"media_type":"Text","formats":{"text/html":"https://www.gutenberg.org/ebooks/1936.html.images","application/epub+zip":"https://www.gutenberg.org/ebooks/1936.epub3.images","application/x-mobipocket-ebook":"https://www.gutenberg.org/ebooks/1936.kf8.images","text/plain; charset=us-ascii":"https://www.gutenberg.org/ebooks/1936.txt.utf-8","text/plain; charset=utf-8":"https://www.gutenberg.org/files/1936/1936-0.txt","application/rdf+xml":"https://www.gutenberg.org/ebooks/1936.rdf","image/jpeg":"https://www.gutenberg.org/cache/epub/1936/pg1936.cover.medium.jpg","application/octet-stream":"https://www.gutenberg.org/cache/epub/1936/pg1936-h.zip"},"download_count":35},{"id":2114,"title":"History of Friedrich II of Prussia — Volume 14","authors":[{"name":"Carlyle, Thomas","birth_year":1795,"death_year":1881}],"translators":[],"subjects":["Frederick II, King of Prussia, 1712-1786","Prussia (Germany) -- History -- Frederick II, 1740-1786","Social problems"],"bookshelves":[],"languages":["en"],"copyright":false,"media_type":"Text","formats":{"text/html":"https://www.gutenberg.org/ebooks/2114.html.images","text/html; charset=us-ascii":"https://www.gutenberg.org/files/2114/2114-h/2114-h.htm","application/epub+zip":"https://www.gutenberg.org/ebooks/2114.epub3.images","application/x-mobipocket-ebook":"https://www.gutenberg.org/ebooks/2114.kf8.images","text/plain; charset=us-ascii":"https://www.gutenberg.org/ebooks/2114.txt.utf-8","application/rdf+xml":"https://www.gutenberg.org/ebooks/2114.rdf","image/jpeg":"https://www.gutenberg.org/cache/epub/2114/pg2114.cover.medium.jpg","application/octet-stream":"https://www.gutenberg.org/cache/epub/2114/pg2114-h.zip"},"download_count":35},{"id":2301,"title":"A Simpleton","authors":[{"name":"Reade, Charles","birth_year":1814,"death_year":1884}],"translators":[],"subjects":["English fiction -- 19th century"],"bookshelves":[],"languages":["en"],"copyright":false,"media_type":"Text","formats":{"text/html":"https://www.gutenberg.org/ebooks/2301.html.images","text/html; charset=utf-8":"https://www.gutenberg.org/files/2301/2301-h/2301-h.htm","application/epub+zip":"https://www.gutenberg.org/ebooks/2301.epub3.images","application/x-mobipocket-ebook":"https://www.gutenberg.org/ebooks/2301.kf8.images","text/plain; charset=us-ascii":"https://www.gutenberg.org/ebooks/2301.txt.utf-8","text/plain; charset=utf-8":"https://www.gutenberg.org/files/2301/2301-0.txt","application/rdf+xml":"https://www.gutenberg.org/ebooks/2301.rdf","image/jpeg":"https://www.gutenberg.org/cache/epub/2301/pg2301.cover.medium.jpg","application/octet-stream":"https://www.gutenberg.org/cache/epub/2301/pg2301-h.zip"},"download_count":35},{"id":2417,"title":"Okewood of the Secret Service","authors":[{"name":"Williams, Valentine","birth_year":1883,"death_year":1946}],"translators":[],"subjects":["Spy stories","War stories","World War, 1914-1918 -- Secret service -- Fiction"],"bookshelves":[],"languages":["en"],"copyright":false,"media_type":"Text","formats":{"text/html":"https://www.gutenberg.org/ebooks/2417.html.images","text/html; charset=iso-8859-1":"https://www.gutenberg.org/files/2417/2417-h/2417-h.htm","application/epub+zip":"https://www.gutenberg.org/ebooks/2417.epub3.images","application/x-mobipocket-ebook":"https://www.gutenberg.org/ebooks/2417.kf8.images","text/plain; charset=us-ascii":"https://www.gutenberg.org/ebooks/2417.txt.utf-8","text/plain; charset=utf-8":"https://www.gutenberg.org/files/2417/2417-0.txt","application/rdf+xml":"https://www.gutenberg.org/ebooks/2417.rdf","image/jpeg":"https://www.gutenberg.org/cache/epub/2417/pg2417.cover.medium.jpg","application/octet-stream":"https://www.gutenberg.org/cache/epub/2417/pg2417-h.zip"},"download_count":35}]}