{"count":58808,"next":"http://129.241.150.113:8000/books/?languages=en&page=1749","previous":"http://129.241.150.113:8000/books/?languages=en&page=1747","results":[{"id":68490,"title":"The charm of Reynolds","authors":[{"name":"Mason, James","birth_year":null,"death_year":null}],"translators":[],"subjects":["Reynolds, Joshua, Sir, 1723-1792"],"bookshelves":[],"languages":["en"],"copyright":false,"media_type":"Text","formats":{"text/html":"https://www.gutenberg.org/ebooks/68490.html.images","application/epub+zip":"https://www.gutenberg.org/ebooks/68490.epub3.images","application/x-mobipocket-ebook":"https://www.gutenberg.org/ebooks/68490.kf8.images","text/plain; charset=us-ascii":"https://www.gutenberg.org/ebooks/68490.txt.utf-8","application/rdf+xml":"https://www.gutenberg.org/ebooks/68490.rdf","image/jpeg":"https://www.gutenberg.org/cache/epub/68490/pg68490.cover.medium.jpg","application/octet-stream":"https://www.gutenberg.org/files/68490/68490-0.zip"},"download_count":16},{"id":68535,"title":"Robert Burns: A play","authors":[{"name":"Drinkwater, John","birth_year":1882,"death_year":1937}],"translators":[],"subjects":["Burns, Robert, 1759-1796 -- Drama"],"bookshelves":[],"languages":["en"],"copyright":false,"media_type":"Text","formats":{"text/html":"https://www.gutenberg.org/ebooks/68535.html.images","application/epub+zip":"https://www.gutenberg.org/ebooks/68535.epub3.images","application/x-mobipocket-ebook":"https://www.gutenberg.org/ebooks/68535.kf8.images","text/plain; charset=us-ascii":"https://www.gutenberg.org/ebooks/68535.txt.utf-8","application/rdf+xml":"https://www.gutenberg.org/ebooks/68535.rdf","image/jpeg":"https://www.gutenberg.org/cache/epub/68535/pg68535.cover.medium.jpg","application/octet-stream":"https://www.gutenberg.org/files/68535/68535-0.zip"},"download_count":16},{"id":68590,"title":"The Christmas Bishop","authors":[{"name":"Kirkland, Winifred Margaretta","birth_year":1872,"death_year":1943}],"translators":[],"subjects":["Bishops -- Fiction","Christmas stories","Clergy -- Fiction"],"bookshelves":[],"languages":["en"],"copyright":false,"media_type":"Text","formats":{"text/html":"https://www.gutenberg.org/ebooks/68590.html.images","application/epub+zip":"https://www.gutenberg.org/ebooks/68590.epub3.images","application/x-mobipocket-ebook":"https://www.gutenberg.org/ebooks/68590.kf8.images","text/plain; charset=us-ascii":"https://www.gutenberg.org/ebooks/68590.txt.utf-8","application/rdf+xml":"https://www.gutenberg.org/ebooks/68590.rdf","image/jpeg":"https://www.gutenberg.org/cache/epub/68590/pg68590.cover.medium.jpg","application/octet-stream":"https://www.gutenberg.org/files/68590/68590-0.zip"},"download_count":16},{"id":68699,"title":"Dusky Dick: or, Old Toby Castor's great campaign: A story of the last Sioux outbreak","authors":[{"name":"Badger, Jos. E. (Joseph Edward)","birth_year":1848,"death_year":1909}],"translators":[],"subjects":["Abduction -- Fiction","Dakota Indians -- Fiction","Dime novels","Frontier and pioneer life -- Fiction","Indian captivities -- Fiction","Minnesota -- Fiction","Scouts (Reconnaissance) -- Fiction"],"bookshelves":[],"languages":["en"],"copyright":false,"media_type":"Text","formats":{"text/html":"https://www.gutenberg.org/ebooks/68699.html.images","application/epub+zip":"https://www.gutenberg.org/ebooks/68699.epub3.images","application/x-mobipocket-ebook":"https://www.gutenberg.org/ebooks/68699.kf8.images","text/plain; charset=us-ascii":"https://www.gutenberg.org/ebooks/68699.txt.utf-8","application/rdf+xml":"https://www.gutenberg.org/ebooks/68699.rdf","image/jpeg":"https://www.gutenberg.org/cache/epub/68699/pg68699.cover.medium.jpg","application/octet-stream":"https://www.gutenberg.org/files/68699/68699-0.zip"},"download_count":16},{"id":68773,"title":"Glenarvon, Volume 2 (of 3)","authors":[{"name":"Lamb, Caroline, Lady","birth_year":1785,"death_year":1828}],"translators":[],"subjects":["Gothic fiction","Ireland -- History -- Rebellion of 1798 -- Fiction","Man-woman relationships -- Fiction","Romans à clef"],"bookshelves":[],"languages":["en"],"copyright":false,"media_type":"Text","formats":{"text/html":"https://www.gutenberg.org/ebooks/68773.html.images","application/epub+zip":"https://www.gutenberg.org/ebooks/68773.epub3.images","application/x-mobipocket-ebook":"https://www.gutenberg.org/ebooks/68773.kf8.images","text/plain; charset=us-ascii":"https://www.gutenberg.org/ebooks/68773.txt.utf-8","application/rdf+xml":"https://www.gutenberg.org/ebooks/68773.rdf","image/jpeg":"https://www.gutenberg.org/cache/epub/68773/pg68773.cover.medium.jpg","application/octet-stream":"https://www.gutenberg.org/files/68773/68773-0.zip"},"download_count":16},{"id":68840,"title":"Address of President Coolidge before the National Council of the Boy Scouts of America: Washington, D. C., May 1, 1926","authors":[{"name":"Coolidge, Calvin","birth_year":1872,"death_year":1933}],"translators":[],"subjects":["Boy Scouts"],"bookshelves":[],"languages":["en"],"copyright":false,"media_type":"Text","formats":{"text/html":"https://www.gutenberg.org/ebooks/68840.html.images","application/epub+zip":"https://www.gutenberg.org/ebooks/68840.epub3.images","application/x-mobipocket-ebook":"https://www.gutenberg.org/ebooks/68840.kf8.images","text/plain; charset=us-ascii":"https://www.gutenberg.org/ebooks/68840.txt.utf-8","application/rdf+xml":"https://www.gutenberg.org/ebooks/68840.rdf","image/jpeg":"https://www.gutenberg.org/cache/epub/68840/pg68840.cover.medium.jpg","application/octet-stream":"https://www.gutenberg.org/files/68840/68840-0.zip"},"download_count":16},{"id":68925,"title":"The zoology of the voyage of H.M.S. Beagle [vol. 1 of 5]: Fossil mammalia","authors":[{"name":"Owen, Richard","birth_year":1804,"death_year":1892}],"translators":[],"subjects":["Beagle Expedition (1831-1836)","Mammals, Fossil","Paleontology -- South America","Zoology"],"bookshelves":[],"languages":["en"],"copyright":false,"media_type":"Text","formats":{"text/html":"https://www.gutenberg.org/ebooks/68925.html.images","application/epub+zip":"https://www.gutenberg.org/ebooks/68925.epub3.images","application/x-mobipocket-ebook":"https://www.gutenberg.org/ebooks/68925.kf8.images","text/plain; charset=us-ascii":"https://www.gutenberg.org/ebooks/68925.txt.utf-8","application/rdf+xml":"https://www.gutenberg.org/ebooks/68925.rdf","image/jpeg":"https://www.gutenberg.org/cache/epub/68925/pg68925.cover.medium.jpg","application/octet-stream":"https://www.gutenberg.org/files/68925/68925-0.zip"},"download_count":16},{"id":68970,"title":"Passed by the censor: The Experience of an American Newspaper Man in France","authors":[{"name":"Williams, Wythe","birth_year":1881,"death_year":1956}],"translators":[],"subjects":["World War, 1914-1918 -- Personal narratives, American"],"bookshelves":[],"languages":["en"],"copyright":false,"media_type":"Text","formats":{"text/html":"https://www.gutenberg.org/ebooks/68970.html.images","application/epub+zip":"https://www.gutenberg.org/ebooks/68970.epub3.images","application/x-mobipocket-ebook":"https://www.gutenberg.org/ebooks/68970.kf8.images","text/plain; charset=us-ascii":"https://www.gutenberg.org/ebooks/68970.txt.utf-8","application/rdf+xml":"https://www.gutenberg.org/ebooks/68970.rdf","image/jpeg":"https://www.gutenberg.org/cache/epub/68970/pg68970.cover.medium.jpg","application/octet-stream":"https://www.gutenberg.org/files/68970/68970-0.zip"},"download_count":16},{"id":68975,"title":"The crimp","authors":[{"name":"Leverage, Henry","birth_year":1885,"death_year":1931}],"translators":[],"subjects":["San Francisco (Calif.) -- Fiction","Shanghaiing -- Fiction","Short stories"],"bookshelves":[],"languages":["en"],"copyright":false,"media_type":"Text","formats":{"text/html":"https://www.gutenberg.org/ebooks/68975.html.images","application/epub+zip":"https://www.gutenberg.org/ebooks/68975.epub3.images","application/x-mobipocket-ebook":"https://www.gutenberg.org/ebooks/68975.kf8.images","text/plain; charset=us-ascii":"https://www.gutenberg.org/ebooks/68975.txt.utf-8","application/rdf+xml":"https://www.gutenberg.org/ebooks/68975.rdf","image/jpeg":"https://www.gutenberg.org/cache/epub/68975/pg68975.cover.medium.jpg","application/octet-stream":"https://www.gutenberg.org/files/68975/68975-0.zip"},"download_count":16},{"id":68988,"title":"On reading in relation to literature","authors":[{"name":"Hearn, Lafcadio","birth_year":1850,"death_year":1904}],"translators":[],"subjects":["Books and reading","Literature"],"bookshelves":[],"languages":["en"],"copyright":false,"media_type":"Text","formats":{"text/html":"https://www.gutenberg.org/ebooks/68988.html.images","application/epub+zip":"https://www.gutenberg.org/ebooks/68988.epub3.images","application/x-mobipocket-ebook":"https://www.gutenberg.org/ebooks/68988.kf8.images","text/plain; charset=us-ascii":"https://www.gutenberg.org/ebooks/68988.txt.utf-8","application/rdf+xml":"https://www.gutenberg.org/ebooks/68988.rdf","image/jpeg":"https://www.gutenberg.org/cache/epub/68988/pg68988.cover.medium.jpg","application/octet-stream":"https://www.gutenberg.org/files/68988/68988-0.zip"},"download_count":16},{"id":69057,"title":"John de Lancaster: a novel; vol. III.","authors":[{"name":"Cumberland, Richard","birth_year":1732,"death_year":1811}],"translators":[],"subjects":["Wales, North -- Fiction"],"bookshelves":[],"languages":["en"],"copyright":false,"media_type":"Text","formats":{"text/html":"https://www.gutenberg.org/ebooks/69057.html.images","application/epub+zip":"https://www.gutenberg.org/ebooks/69057.epub3.images","application/x-mobipocket-ebook":"https://www.gutenberg.org/ebooks/69057.kf8.images","text/plain; charset=us-ascii":"https://www.gutenberg.org/ebooks/69057.txt.utf-8","application/rdf+xml":"https://www.gutenberg.org/ebooks/69057.rdf","image/jpeg":"https://www.gutenberg.org/cache/epub/69057/pg69057.cover.medium.jpg","application/octet-stream":"https://www.gutenberg.org/files/69057/69057-0.zip"},"download_count":16},{"id":69105,"title":"The path of honor: A tale of the war in the Bocage","authors":[{"name":"Stevenson, Burton Egbert","birth_year":1872,"death_year":1962}],"translators":[],"subjects":["France -- History -- Revolution, 1789-1799 -- Fiction","Love stories"],"bookshelves":[],"languages":["en"],"copyright":false,"media_type":"Text","formats":{"text/html":"https://www.gutenberg.org/ebooks/69105.html.images","application/epub+zip":"https://www.gutenberg.org/ebooks/69105.epub3.images","application/x-mobipocket-ebook":"https://www.gutenberg.org/ebooks/69105.kf8.images","text/plain; charset=us-ascii":"https://www.gutenberg.org/ebooks/69105.txt.utf-8","application/rdf+xml":"https://www.gutenberg.org/ebooks/69105.rdf","image/jpeg":"https://www.gutenberg.org/cache/epub/69105/pg69105.cover.medium.jpg","application/octet-stream":"https://www.gutenberg.org/files/69105/69105-0.zip"},"download_count":16},{"id":69114,"title":"Our Wonderful Selves","authors":[{"name":"Pertwee, Roland","birth_year":1885,"death_year":1963}],"translators":[],"subjects":["English fiction -- 20th century"],"bookshelves":[],"languages":["en"],"copyright":false,"media_type":"Text","formats":{"text/html":"https://www.gutenberg.org/ebooks/69114.html.images","application/epub+zip":"https://www.gutenberg.org/ebooks/69114.epub3.images","application/x-mobipocket-ebook":"https://www.gutenberg.org/ebooks/69114.kf8.images","text/plain; charset=us-ascii":"https://www.gutenberg.org/ebooks/69114.txt.utf-8","application/rdf+xml":"https://www.gutenberg.org/ebooks/69114.rdf","image/jpeg":"https://www.gutenberg.org/cache/epub/69114/pg69114.cover.medium.jpg","application/octet-stream":"https://www.gutenberg.org/files/69114/69114-0.zip"},"download_count":16},{"id":69136,"title":"The lure of Piper's Glen","authors":[{"name":"Roberts, Theodore Goodridge","birth_year":1877,"death_year":1953}],"translators":[],"subjects":["Americans -- Canada -- Juvenile fiction","Logging -- Juvenile fiction","Young men -- Juvenile fiction"],"bookshelves":[],"languages":["en"],"copyright":false,"media_type":"Text","formats":{"text/html":"https://www.gutenberg.org/ebooks/69136.html.images","application/epub+zip":"https://www.gutenberg.org/ebooks/69136.epub3.images","application/x-mobipocket-ebook":"https://www.gutenberg.org/ebooks/69136.kf8.images","text/plain; charset=us-ascii":"https://www.gutenberg.org/ebooks/69136.txt.utf-8","application/rdf+xml":"https://www.gutenberg.org/ebooks/69136.rdf","image/jpeg":"https://www.gutenberg.org/cache/epub/69136/pg69136.cover.medium.jpg","application/octet-stream":"https://www.gutenberg.org/files/69136/69136-0.zip"},"download_count":16},{"id":69140,"title":"Remember me, Kama!","authors":[{"name":"Kubilius, Walter","birth_year":1918,"death_year":1993}],"translators":[],"subjects":["Human-alien encounters -- Fiction","Science fiction","Short stories"],"bookshelves":[],"languages":["en"],"copyright":false,"media_type":"Text","formats":{"text/html":"https://www.gutenberg.org/ebooks/69140.html.images","application/epub+zip":"https://www.gutenberg.org/ebooks/69140.epub3.images","application/x-mobipocket-ebook":"https://www.gutenberg.org/ebooks/69140.kf8.images","text/plain; charset=us-ascii":"https://www.gutenberg.org/ebooks/69140.txt.utf-8","application/rdf+xml":"https://www.gutenberg.org/ebooks/69140.rdf","image/jpeg":"https://www.gutenberg.org/cache/epub/69140/pg69140.cover.medium.jpg","application/octet-stream":"https://www.gutenberg.org/files/69140/69140-0.zip"},"download_count":16},{"id":69162,"title":"Hunters three: Sport and adventure in South Africa","authors":[{"name":"Knox, Thomas Wallace","birth_year":1835,"death_year":1896}],"translators":[],"subjects":["Hunting -- South Africa"],"bookshelves":[],"languages":["en"],"copyright":false,"media_type":"Text","formats":{"text/html":"https://www.gutenberg.org/ebooks/69162.html.images","application/epub+zip":"https://www.gutenberg.org/ebooks/69162.epub3.images","application/x-mobipocket-ebook":"https://www.gutenberg.org/ebooks/69162.kf8.images","text/plain; charset=us-ascii":"https://www.gutenberg.org/ebooks/69162.txt.utf-8","application/rdf+xml":"https://www.gutenberg.org/ebooks/69162.rdf","image/jpeg":"https://www.gutenberg.org/cache/epub/69162/pg69162.cover.medium.jpg","application/octet-stream":"https://www.gutenberg.org/files/69162/69162-0.zip"},"download_count":16},{"id":69177,"title":"Mirth and metre","authors":[{"name":"Smedley, Frank E. (Frank Edward)","birth_year":1818,"death_year":1864},{"name":"Yates, Edmund","birth_year":1831,"death_year":1894}],"translators":[],"subjects":["English wit and humor","Humorous poetry, English","Legends -- Poetry"],"bookshelves":[],"languages":["en"],"copyright":false,"media_type":"Text","formats":{"text/html":"https://www.gutenberg.org/ebooks/69177.html.images","application/epub+zip":"https://www.gutenberg.org/ebooks/69177.epub3.images","application/x-mobipocket-ebook":"https://www.gutenberg.org/ebooks/69177.kf8.images","text/plain; charset=us-ascii":"https://www.gutenberg.org/ebooks/69177.txt.utf-8","application/rdf+xml":"https://www.gutenberg.org/ebooks/69177.rdf","image/jpeg":"https://www.gutenberg.org/cache/epub/69177/pg69177.cover.medium.jpg","application/octet-stream":"https://www.gutenberg.org/files/69177/69177-0.zip"},"download_count":16},{"id":69244,"title":"Via Berlin","authors":[{"name":"Marriott, Crittenden","birth_year":1867,"death_year":1932}],"translators":[],"subjects":["Adventure stories","United States. Navy -- Officers -- Fiction"],"bookshelves":[],"languages":["en"],"copyright":false,"media_type":"Text","formats":{"text/html":"https://www.gutenberg.org/ebooks/69244.html.images","application/epub+zip":"https://www.gutenberg.org/ebooks/69244.epub3.images","application/x-mobipocket-ebook":"https://www.gutenberg.org/ebooks/69244.kf8.images","text/plain; charset=us-ascii":"https://www.gutenberg.org/ebooks/69244.txt.utf-8","application/rdf+xml":"https://www.gutenberg.org/ebooks/69244.rdf","image/jpeg":"https://www.gutenberg.org/cache/epub/69244/pg69244.cover.medium.jpg","application/octet-stream":"https://www.gutenberg.org/files/69244/69244-0.zip"},"download_count":16},{"id":69305,"title":"Rossetti","authors":[{"name":"Marillier, H. C. (Henry Currie)","birth_year":1865,"death_year":1951}],"translators":[],"subjects":["Pre-Raphaelitism -- Great Britain","Rossetti, Dante Gabriel, 1828-1882"],"bookshelves":[],"languages":["en"],"copyright":false,"media_type":"Text","formats":{"text/html":"https://www.gutenberg.org/ebooks/69305.html.images","application/epub+zip":"https://www.gutenberg.org/ebooks/69305.epub3.images","application/x-mobipocket-ebook":"https://www.gutenberg.org/ebooks/69305.kf8.images","text/plain; charset=us-ascii":"https://www.gutenberg.org/ebooks/69305.txt.utf-8","application/rdf+xml":"https://www.gutenberg.org/ebooks/69305.rdf","image/jpeg":"https://www.gutenberg.org/cache/epub/69305/pg69305.cover.medium.jpg","application/octet-stream":"https://www.gutenberg.org/files/69305/69305-0.zip"},"download_count":16},{"id":69361,"title":"Dr. Vermont's fantasy, and other stories","authors":[{"name":"Lynch, Hannah","birth_year":1859,"death_year":1904}],"translators":[],"subjects":["English fiction -- Irish authors","Short stories, English -- Irish authors"],"bookshelves":[],"languages":["en"],"copyright":false,"media_type":"Text","formats":{"text/html":"https://www.gutenberg.org/ebooks/69361.html.images","application/epub+zip":"https://www.gutenberg.org/ebooks/69361.epub3.images","application/x-mobipocket-ebook":"https://www.gutenberg.org/ebooks/69361.kf8.images","text/plain; charset=us-ascii":"https://www.gutenberg.org/ebooks/69361.txt.utf-8","application/rdf+xml":"https://www.gutenberg.org/ebooks/69361.rdf","image/jpeg":"https://www.gutenberg.org/cache/epub/69361/pg69361.cover.medium.jpg","application/octet-stream":"https://www.gutenberg.org/files/69361/69361-0.zip"},"download_count":16},{"id":69427,"title":"Stonepastures","authors":[{"name":"Stuart, Eleanor","birth_year":1876,"death_year":1920}],"translators":[],"subjects":["City and town life -- Fiction","Mines and mineral resources -- Fiction","Pennsylvania -- Fiction"],"bookshelves":[],"languages":["en"],"copyright":false,"media_type":"Text","formats":{"text/html":"https://www.gutenberg.org/ebooks/69427.html.images","application/epub+zip":"https://www.gutenberg.org/ebooks/69427.epub3.images","application/x-mobipocket-ebook":"https://www.gutenberg.org/ebooks/69427.kf8.images","text/plain; charset=us-ascii":"https://www.gutenberg.org/ebooks/69427.txt.utf-8","application/rdf+xml":"https://www.gutenberg.org/ebooks/69427.rdf","image/jpeg":"https://www.gutenberg.org/cache/epub/69427/pg69427.cover.medium.jpg","application/octet-stream":"https://www.gutenberg.org/files/69427/69427-0.zip"},"download_count":16},{"id":69451,"title":"Behind the scenes in a restaurant: A study of 1017 women restaurant employees","authors":[{"name":"Consumers' League of New York City","birth_year":null,"death_year":null}],"translators":[],"subjects":["Restaurants -- Employees","Women -- Employment -- New York (State)"],"bookshelves":[],"languages":["en"],"copyright":false,"media_type":"Text","formats":{"text/html":"https://www.gutenberg.org/ebooks/69451.html.images","application/epub+zip":"https://www.gutenberg.org/ebooks/69451.epub3.images","application/x-mobipocket-ebook":"https://www.gutenberg.org/ebooks/69451.kf8.images","text/plain; charset=us-ascii":"https://www.gutenberg.org/ebooks/69451.txt.utf-8","application/rdf+xml":"https://www.gutenberg.org/ebooks/69451.rdf","image/jpeg":"https://www.gutenberg.org/cache/epub/69451/pg69451.cover.medium.jpg","application/octet-stream":"https://www.gutenberg.org/files/69451/69451-0.zip"},"download_count":16},{"id":69654,"title":"The Rambler Club's ball nine","authors":[{"name":"Sheppard, W. Crispin (William Crispin)","birth_year":1871,"death_year":null}],"translators":[],"subjects":["Baseball stories","Boys -- Societies and clubs -- Juvenile fiction","High school students -- Juvenile fiction"],"bookshelves":[],"languages":["en"],"copyright":false,"media_type":"Text","formats":{"text/html":"https://www.gutenberg.org/ebooks/69654.html.images","application/epub+zip":"https://www.gutenberg.org/ebooks/69654.epub3.images","application/x-mobipocket-ebook":"https://www.gutenberg.org/ebooks/69654.kf8.images","text/plain; charset=us-ascii":"https://www.gutenberg.org/ebooks/69654.txt.utf-8","application/rdf+xml":"https://www.gutenberg.org/ebooks/69654.rdf","image/jpeg":"https://www.gutenberg.org/cache/epub/69654/pg69654.cover.medium.jpg","application/octet-stream":"https://www.gutenberg.org/files/69654/69654-0.zip"},"download_count":16},{"id":69816,"title":"The works of Richard Hurd, volume 7 (of 8)","authors":[{"name":"Hurd, Richard","birth_year":1720,"death_year":1808}],"translators":[],"subjects":["Church of England -- Sermons","Dialogues, English","Great Britain -- Civilization -- 17th century","Poetry -- History and criticism","Romances -- History and criticism"],"bookshelves":[],"languages":["en"],"copyright":false,"media_type":"Text","formats":{"text/html":"https://www.gutenberg.org/ebooks/69816.html.images","application/epub+zip":"https://www.gutenberg.org/ebooks/69816.epub3.images","application/x-mobipocket-ebook":"https://www.gutenberg.org/ebooks/69816.kf8.images","text/plain; charset=us-ascii":"https://www.gutenberg.org/ebooks/69816.txt.utf-8","application/rdf+xml":"https://www.gutenberg.org/ebooks/69816.rdf","image/jpeg":"https://www.gutenberg.org/cache/epub/69816/pg69816.cover.medium.jpg","application/octet-stream":"https://www.gutenberg.org/files/69816/69816-0.zip"},"download_count":16},{"id":69824,"title":"The works of Richard Hurd, volume 8 (of 8)","authors":[{"name":"Hurd, Richard","birth_year":1720,"death_year":1808}],"translators":[],"subjects":["Church of England -- Sermons","Dialogues, English","Great Britain -- Civilization -- 17th century","Poetry -- History and criticism","Romances -- History and criticism"],"bookshelves":[],"languages":["en"],"copyright":false,"media_type":"Text","formats":{"text/html":"https://www.gutenberg.org/ebooks/69824.html.images","application/epub+zip":"https://www.gutenberg.org/ebooks/69824.epub3.images","application/x-mobipocket-ebook":"https://www.gutenberg.org/ebooks/69824.kf8.images","text/plain; charset=us-ascii":"https://www.gutenberg.org/ebooks/69824.txt.utf-8","application/rdf+xml":"https://www.gutenberg.org/ebooks/69824.rdf","image/jpeg":"https://www.gutenberg.org/cache/epub/69824/pg69824.cover.medium.jpg","application/octet-stream":"https://www.gutenberg.org/files/69824/69824-0.zip"},"download_count":16},{"id":69852,"title":"Westminster Abbey: The last days of the monastery as shown by the life and times of Abbot John Islip, 1464-1532","authors":[{"name":"Westlake, H. F. (Herbert Francis)","birth_year":1879,"death_year":1925}],"translators":[],"subjects":["Islip, John, 1464-1532","Westminster Abbey"],"bookshelves":[],"languages":["en"],"copyright":false,"media_type":"Text","formats":{"text/html":"https://www.gutenberg.org/ebooks/69852.html.images","application/epub+zip":"https://www.gutenberg.org/ebooks/69852.epub3.images","application/x-mobipocket-ebook":"https://www.gutenberg.org/ebooks/69852.kf8.images","text/plain; charset=us-ascii":"https://www.gutenberg.org/ebooks/69852.txt.utf-8","application/rdf+xml":"https://www.gutenberg.org/ebooks/69852.rdf","image/jpeg":"https://www.gutenberg.org/cache/epub/69852/pg69852.cover.medium.jpg","application/octet-stream":"https://www.gutenberg.org/files/69852/69852-0.zip"},"download_count":16},{"id":69854,"title":"The Christmas Makers' Club","authors":[{"name":"Sawyer, Edith A. (Edith Augusta)","birth_year":1869,"death_year":null}],"translators":[],"subjects":["Christmas -- Juvenile fiction","Christmas stories","Fairy tales","Girls -- Societies and clubs -- Juvenile fiction","Humanitarianism -- Juvenile fiction"],"bookshelves":[],"languages":["en"],"copyright":false,"media_type":"Text","formats":{"text/html":"https://www.gutenberg.org/ebooks/69854.html.images","application/epub+zip":"https://www.gutenberg.org/ebooks/69854.epub3.images","application/x-mobipocket-ebook":"https://www.gutenberg.org/ebooks/69854.kf8.images","text/plain; charset=us-ascii":"https://www.gutenberg.org/ebooks/69854.txt.utf-8","application/rdf+xml":"https://www.gutenberg.org/ebooks/69854.rdf","image/jpeg":"https://www.gutenberg.org/cache/epub/69854/pg69854.cover.medium.jpg","application/octet-stream":"https://www.gutenberg.org/files/69854/69854-0.zip"},"download_count":16},{"id":69961,"title":"The story of my house","authors":[{"name":"Ellwanger, George H. (George Herman)","birth_year":1848,"death_year":1906}],"translators":[],"subjects":["Architecture, Domestic","Books and reading","Interior decoration"],"bookshelves":[],"languages":["en"],"copyright":false,"media_type":"Text","formats":{"text/html":"https://www.gutenberg.org/ebooks/69961.html.images","application/epub+zip":"https://www.gutenberg.org/ebooks/69961.epub3.images","application/x-mobipocket-ebook":"https://www.gutenberg.org/ebooks/69961.kf8.images","text/plain; charset=us-ascii":"https://www.gutenberg.org/ebooks/69961.txt.utf-8","application/rdf+xml":"https://www.gutenberg.org/ebooks/69961.rdf","image/jpeg":"https://www.gutenberg.org/cache/epub/69961/pg69961.cover.medium.jpg","application/octet-stream":"https://www.gutenberg.org/files/69961/69961-0.zip"},"download_count":16},{"id":69962,"title":"The virgin of the sun : $b A play, in five acts","authors":[{"name":"Kotzebue, August von","birth_year":1761,"death_year":1819}],"translators":[{"name":"Plumptre, Anne","birth_year":1760,"death_year":1818}],"subjects":["German drama -- Translations into English","Tragedies"],"bookshelves":[],"languages":["en"],"copyright":false,"media_type":"Text","formats":{"text/html":"https://www.gutenberg.org/ebooks/69962.html.images","application/epub+zip":"https://www.gutenberg.org/ebooks/69962.epub3.images","application/x-mobipocket-ebook":"https://www.gutenberg.org/ebooks/69962.kf8.images","text/plain; charset=us-ascii":"https://www.gutenberg.org/ebooks/69962.txt.utf-8","application/rdf+xml":"https://www.gutenberg.org/ebooks/69962.rdf","image/jpeg":"https://www.gutenberg.org/cache/epub/69962/pg69962.cover.medium.jpg","application/octet-stream":"https://www.gutenberg.org/files/69962/69962-0.zip"},"download_count":16},{"id":69973,"title":"Ingleside; $b or, Without Christ and with Him","authors":[{"name":"Leslie, Madeline","birth_year":1815,"death_year":1893}],"translators":[],"subjects":["Christian fiction, American","Christian life -- Fiction","Country life -- Fiction","Invalids -- Fiction","Rural churches -- Fiction"],"bookshelves":[],"languages":["en"],"copyright":false,"media_type":"Text","formats":{"text/html":"https://www.gutenberg.org/ebooks/69973.html.images","application/epub+zip":"https://www.gutenberg.org/ebooks/69973.epub3.images","application/x-mobipocket-ebook":"https://www.gutenberg.org/ebooks/69973.kf8.images","text/plain; charset=us-ascii":"https://www.gutenberg.org/ebooks/69973.txt.utf-8","application/rdf+xml":"https://www.gutenberg.org/ebooks/69973.rdf","image/jpeg":"https://www.gutenberg.org/cache/epub/69973/pg69973.cover.medium.jpg","application/octet-stream":"https://www.gutenberg.org/files/69973/69973-0.zip"},"download_count":16},{"id":69978,"title":"Types of prehistoric Southwestern architecture","authors":[{"name":"Fewkes, Jesse Walter","birth_year":1850,"death_year":1930}],"translators":[],"subjects":["Indian architecture -- North America","Pueblos"],"bookshelves":[],"languages":["en"],"copyright":false,"media_type":"Text","formats":{"text/html":"https://www.gutenberg.org/ebooks/69978.html.images","application/epub+zip":"https://www.gutenberg.org/ebooks/69978.epub3.images","application/x-mobipocket-ebook":"https://www.gutenberg.org/ebooks/69978.kf8.images","text/plain; charset=us-ascii":"https://www.gutenberg.org/ebooks/69978.txt.utf-8","application/rdf+xml":"https://www.gutenberg.org/ebooks/69978.rdf","image/jpeg":"https://www.gutenberg.org/cache/epub/69978/pg69978.cover.medium.jpg","application/octet-stream":"https://www.gutenberg.org/files/69978/69978-0.zip"},"download_count":16},{"id":70022,"title":"Deck and port: $b or, incidents of a cruise in the United States frigate Congress to California. With sketches of Rio Janeiro, Valparaiso, Lima, Honolulu, and San Francisco","authors":[{"name":"Colton, Walter","birth_year":1797,"death_year":1851}],"translators":[],"subjects":["California -- Description and travel","Congress (Frigate: 1841-1862)","Honolulu (Hawaii) -- Description and travel","South America -- Description and travel","Voyages to the Pacific coast"],"bookshelves":[],"languages":["en"],"copyright":false,"media_type":"Text","formats":{"text/html":"https://www.gutenberg.org/ebooks/70022.html.images","application/epub+zip":"https://www.gutenberg.org/ebooks/70022.epub3.images","application/x-mobipocket-ebook":"https://www.gutenberg.org/ebooks/70022.kf8.images","text/plain; charset=us-ascii":"https://www.gutenberg.org/ebooks/70022.txt.utf-8","application/rdf+xml":"https://www.gutenberg.org/ebooks/70022.rdf","image/jpeg":"https://www.gutenberg.org/cache/epub/70022/pg70022.cover.medium.jpg","application/octet-stream":"https://www.gutenberg.org/files/70022/70022-0.zip"},"download_count":16}]}