{"count":58808,"next":"http://129.241.150.113:8000/books/?languages=en&page=1830","previous":"http://129.241.150.113:8000/books/?languages=en&page=1828","results":[{"id":4977,"title":"The McNaughtens","authors":[{"name":"Regnard, Jean-François","birth_year":1655,"death_year":1709}],"translators":[{"name":"Morlock, Frank J.","birth_year":null,"death_year":null}],"subjects":["Comedies","Drama"],"bookshelves":[],"languages":["en"],"copyright":true,"media_type":"Text","formats":{"text/html":"https://www.gutenberg.org/ebooks/4977.html.images","application/epub+zip":"https://www.gutenberg.org/ebooks/4977.epub3.images","application/x-mobipocket-ebook":"https://www.gutenberg.org/ebooks/4977.kf8.images","text/plain; charset=us-ascii":"https://www.gutenberg.org/ebooks/4977.txt.utf-8","text/plain; charset=utf-8":"https://www.gutenberg.org/files/4977/4977-0.txt","application/rdf+xml":"https://www.gutenberg.org/ebooks/4977.rdf","image/jpeg":"https://www.gutenberg.org/cache/epub/4977/pg4977.cover.medium.jpg","application/octet-stream":"https://www.gutenberg.org/cache/epub/4977/pg4977-h.zip"},"download_count":7},{"id":6613,"title":"Myths and Legends of Our Own Land — Volume 08 : on the Pacific Slope","authors":[{"name":"Skinner, Charles M. (Charles Montgomery)","birth_year":1852,"death_year":1907}],"translators":[],"subjects":["Folklore -- United States"],"bookshelves":[],"languages":["en"],"copyright":false,"media_type":"Text","formats":{"text/html":"https://www.gutenberg.org/ebooks/6613.html.images","application/epub+zip":"https://www.gutenberg.org/ebooks/6613.epub3.images","application/x-mobipocket-ebook":"https://www.gutenberg.org/ebooks/6613.kf8.images","text/plain; charset=us-ascii":"https://www.gutenberg.org/ebooks/6613.txt.utf-8","application/rdf+xml":"https://www.gutenberg.org/ebooks/6613.rdf","image/jpeg":"https://www.gutenberg.org/cache/epub/6613/pg6613.cover.medium.jpg","application/octet-stream":"https://www.gutenberg.org/cache/epub/6613/pg6613-h.zip"},"download_count":7},{"id":6776,"title":"History of the Revolt of the Netherlands — Volume 01","authors":[{"name":"Schiller, Friedrich","birth_year":1759,"death_year":1805}],"translators":[],"subjects":["Huguenots","Netherlands -- History -- Eighty Years' War, 1568-1648"],"bookshelves":[],"languages":["en"],"copyright":false,"media_type":"Text","formats":{"text/html":"https://www.gutenberg.org/ebooks/6776.html.images","application/epub+zip":"https://www.gutenberg.org/ebooks/6776.epub3.images","application/x-mobipocket-ebook":"https://www.gutenberg.org/ebooks/6776.kf8.images","text/plain; charset=us-ascii":"https://www.gutenberg.org/ebooks/6776.txt.utf-8","application/rdf+xml":"https://www.gutenberg.org/ebooks/6776.rdf","image/jpeg":"https://www.gutenberg.org/cache/epub/6776/pg6776.cover.medium.jpg","application/octet-stream":"https://www.gutenberg.org/cache/epub/6776/pg6776-h.zip"},"download_count":7},{"id":7504,"title":"Tom of the Raiders","authors":[{"name":"Bishop, Austin","birth_year":null,"death_year":null}],"translators":[],"subjects":["United States -- History -- Civil War, 1861-1865 -- Juvenile fiction"],"bookshelves":["US Civil War"],"languages":["en"],"copyright":false,"media_type":"Text","formats":{"text/html":"https://www.gutenberg.org/ebooks/7504.html.images","application/epub+zip":"https://www.gutenberg.org/ebooks/7504.epub3.images","application/x-mobipocket-ebook":"https://www.gutenberg.org/ebooks/7504.kf8.images","text/plain; charset=us-ascii":"https://www.gutenberg.org/ebooks/7504.txt.utf-8","application/rdf+xml":"https://www.gutenberg.org/ebooks/7504.rdf","image/jpeg":"https://www.gutenberg.org/cache/epub/7504/pg7504.cover.medium.jpg","application/octet-stream":"https://www.gutenberg.org/cache/epub/7504/pg7504-h.zip"},"download_count":7},{"id":7571,"title":"Widger's Quotes and Images from Zilah by Jules Claretie: The French Immortals: Quotes And Images","authors":[{"name":"Claretie, Jules","birth_year":1840,"death_year":1913}],"translators":[],"subjects":["Quotations, French -- Translations into English"],"bookshelves":[],"languages":["en"],"copyright":false,"media_type":"Text","formats":{"text/html":"https://www.gutenberg.org/ebooks/7571.html.images","text/html; charset=us-ascii":"https://www.gutenberg.org/files/7571/7571-h/7571-h.htm","application/epub+zip":"https://www.gutenberg.org/ebooks/7571.epub3.images","application/x-mobipocket-ebook":"https://www.gutenberg.org/ebooks/7571.kf8.images","text/plain; charset=us-ascii":"https://www.gutenberg.org/ebooks/7571.txt.utf-8","application/rdf+xml":"https://www.gutenberg.org/ebooks/7571.rdf","image/jpeg":"https://www.gutenberg.org/cache/epub/7571/pg7571.cover.medium.jpg","application/octet-stream":"https://www.gutenberg.org/cache/epub/7571/pg7571-h.zip"},"download_count":7},{"id":7589,"title":"The Caxtons: A Family Picture — Volume 04","authors":[{"name":"Lytton, Edward Bulwer Lytton, Baron","birth_year":1803,"death_year":1873}],"translators":[],"subjects":["English fiction -- 19th century","Families -- Fiction"],"bookshelves":[],"languages":["en"],"copyright":false,"media_type":"Text","formats":{"text/html":"https://www.gutenberg.org/ebooks/7589.html.images","application/epub+zip":"https://www.gutenberg.org/ebooks/7589.epub3.images","application/x-mobipocket-ebook":"https://www.gutenberg.org/ebooks/7589.kf8.images","text/plain; charset=us-ascii":"https://www.gutenberg.org/ebooks/7589.txt.utf-8","application/rdf+xml":"https://www.gutenberg.org/ebooks/7589.rdf","image/jpeg":"https://www.gutenberg.org/cache/epub/7589/pg7589.cover.medium.jpg","application/octet-stream":"https://www.gutenberg.org/cache/epub/7589/pg7589-h.zip"},"download_count":7},{"id":7666,"title":"What Will He Do with It? — Volume 08","authors":[{"name":"Lytton, Edward Bulwer Lytton, Baron","birth_year":1803,"death_year":1873}],"translators":[],"subjects":["English fiction -- 19th century"],"bookshelves":[],"languages":["en"],"copyright":false,"media_type":"Text","formats":{"text/html":"https://www.gutenberg.org/ebooks/7666.html.images","application/epub+zip":"https://www.gutenberg.org/ebooks/7666.epub3.images","application/x-mobipocket-ebook":"https://www.gutenberg.org/ebooks/7666.kf8.images","text/plain; charset=us-ascii":"https://www.gutenberg.org/ebooks/7666.txt.utf-8","application/rdf+xml":"https://www.gutenberg.org/ebooks/7666.rdf","image/jpeg":"https://www.gutenberg.org/cache/epub/7666/pg7666.cover.medium.jpg","application/octet-stream":"https://www.gutenberg.org/cache/epub/7666/pg7666-h.zip"},"download_count":7},{"id":7806,"title":"A Boy's Ride","authors":[{"name":"Zollinger, Gulielma","birth_year":1856,"death_year":1917}],"translators":[],"subjects":["Great Britain -- History -- Medieval period, 1066-1485 -- Juvenile fiction"],"bookshelves":[],"languages":["en"],"copyright":false,"media_type":"Text","formats":{"text/html":"https://www.gutenberg.org/ebooks/7806.html.images","application/epub+zip":"https://www.gutenberg.org/ebooks/7806.epub3.images","application/x-mobipocket-ebook":"https://www.gutenberg.org/ebooks/7806.kf8.images","text/plain; charset=us-ascii":"https://www.gutenberg.org/ebooks/7806.txt.utf-8","application/rdf+xml":"https://www.gutenberg.org/ebooks/7806.rdf","image/jpeg":"https://www.gutenberg.org/cache/epub/7806/pg7806.cover.medium.jpg","application/octet-stream":"https://www.gutenberg.org/cache/epub/7806/pg7806-h.zip"},"download_count":7},{"id":8266,"title":"The World English Bible (WEB): Malachi","authors":[{"name":"Anonymous","birth_year":null,"death_year":null}],"translators":[],"subjects":["Bible. Malachi"],"bookshelves":[],"languages":["en"],"copyright":false,"media_type":"Text","formats":{"text/html":"https://www.gutenberg.org/ebooks/8266.html.images","application/epub+zip":"https://www.gutenberg.org/ebooks/8266.epub3.images","application/x-mobipocket-ebook":"https://www.gutenberg.org/ebooks/8266.kf8.images","text/plain; charset=us-ascii":"https://www.gutenberg.org/ebooks/8266.txt.utf-8","application/rdf+xml":"https://www.gutenberg.org/ebooks/8266.rdf","image/jpeg":"https://www.gutenberg.org/cache/epub/8266/pg8266.cover.medium.jpg","application/octet-stream":"https://www.gutenberg.org/cache/epub/8266/pg8266-h.zip"},"download_count":7},{"id":8267,"title":"The World English Bible (WEB): Matthew","authors":[],"translators":[],"subjects":["Bible. Matthew"],"bookshelves":[],"languages":["en"],"copyright":false,"media_type":"Text","formats":{"text/html":"https://www.gutenberg.org/ebooks/8267.html.images","application/epub+zip":"https://www.gutenberg.org/ebooks/8267.epub3.images","application/x-mobipocket-ebook":"https://www.gutenberg.org/ebooks/8267.kf8.images","text/plain; charset=us-ascii":"https://www.gutenberg.org/ebooks/8267.txt.utf-8","application/rdf+xml":"https://www.gutenberg.org/ebooks/8267.rdf","image/jpeg":"https://www.gutenberg.org/cache/epub/8267/pg8267.cover.medium.jpg","application/octet-stream":"https://www.gutenberg.org/cache/epub/8267/pg8267-h.zip"},"download_count":7},{"id":8355,"title":"The Bible, Douay-Rheims, Book 55: Galatians: The Challoner Revision","authors":[],"translators":[],"subjects":["Bible. Galatians"],"bookshelves":[],"languages":["en"],"copyright":false,"media_type":"Text","formats":{"text/html":"https://www.gutenberg.org/ebooks/8355.html.images","application/epub+zip":"https://www.gutenberg.org/ebooks/8355.epub3.images","application/x-mobipocket-ebook":"https://www.gutenberg.org/ebooks/8355.kf8.images","text/plain; charset=us-ascii":"https://www.gutenberg.org/ebooks/8355.txt.utf-8","application/rdf+xml":"https://www.gutenberg.org/ebooks/8355.rdf","image/jpeg":"https://www.gutenberg.org/cache/epub/8355/pg8355.cover.medium.jpg","application/octet-stream":"https://www.gutenberg.org/cache/epub/8355/pg8355-h.zip"},"download_count":7},{"id":9284,"title":"Sanctuary","authors":[{"name":"Wharton, Edith","birth_year":1862,"death_year":1937}],"translators":[],"subjects":["Domestic fiction","Mothers and sons -- Fiction","Psychological fiction","Widows -- Fiction"],"bookshelves":[],"languages":["en"],"copyright":true,"media_type":"Sound","formats":{"text/plain; charset=us-ascii":"https://www.gutenberg.org/files/9284/9284-readme.txt","text/html; charset=iso-8859-1":"https://www.gutenberg.org/files/9284/9284-index.htm","audio/mpeg":"https://www.gutenberg.org/files/9284/mp3/9284-000.mp3","application/rdf+xml":"https://www.gutenberg.org/ebooks/9284.rdf","application/octet-stream":"https://www.gutenberg.org/files/9284/9284-mp3.zip"},"download_count":7},{"id":9531,"title":"John Leech's Pictures of Life and Character","authors":[{"name":"Thackeray, William Makepeace","birth_year":1811,"death_year":1863}],"translators":[],"subjects":["English wit and humor, Pictorial","Great Britain -- Social life and customs -- 19th century -- Caricatures and cartoons","Leech, John, 1817-1864"],"bookshelves":[],"languages":["en"],"copyright":true,"media_type":"Sound","formats":{"text/plain; charset=us-ascii":"https://www.gutenberg.org/files/9531/9531-readme.txt","text/html; charset=iso-8859-1":"https://www.gutenberg.org/files/9531/9531-index.htm","audio/mpeg":"https://www.gutenberg.org/files/9531/mp3/9531-000.mp3","application/rdf+xml":"https://www.gutenberg.org/ebooks/9531.rdf","application/octet-stream":"https://www.gutenberg.org/files/9531/9531-mp3.zip"},"download_count":7},{"id":10186,"title":"Schultz at the Paris Exposition","authors":[{"name":"Kennedy, Frank","birth_year":null,"death_year":null}],"translators":[],"subjects":["Humorous recitations"],"bookshelves":[],"languages":["en"],"copyright":false,"media_type":"Sound","formats":{"text/plain; charset=us-ascii":"https://www.gutenberg.org/files/10186/10186-m/10186-m-readme.txt","audio/mpeg":"https://www.gutenberg.org/files/10186/10186-m/10186-m-001.mp3","application/rdf+xml":"https://www.gutenberg.org/ebooks/10186.rdf"},"download_count":7},{"id":10230,"title":"Remarks from a Visit to Edison Laboratory","authors":[{"name":"Daniels, Josephus","birth_year":1862,"death_year":1948}],"translators":[],"subjects":["Edison, Thomas A. (Thomas Alva), 1847-1931"],"bookshelves":[],"languages":["en"],"copyright":false,"media_type":"Sound","formats":{"text/plain; charset=us-ascii":"https://www.gutenberg.org/files/10230/10230-m/10230-m-readme.txt","audio/mpeg":"https://www.gutenberg.org/files/10230/10230-m/10230-m-001.mp3","application/rdf+xml":"https://www.gutenberg.org/ebooks/10230.rdf"},"download_count":7},{"id":10241,"title":"Plaque No. 2: Exp. No. 5-6-7-8, Recorder #20","authors":[{"name":"Losey's Orchestra","birth_year":null,"death_year":null}],"translators":[],"subjects":["Sound -- Recording and reproducing"],"bookshelves":[],"languages":["en"],"copyright":false,"media_type":"Sound","formats":{"text/plain; charset=us-ascii":"https://www.gutenberg.org/files/10241/10241-m/10241-m-readme.txt","audio/mpeg":"https://www.gutenberg.org/files/10241/10241-m/10241-m-001.mp3","application/rdf+xml":"https://www.gutenberg.org/ebooks/10241.rdf"},"download_count":7},{"id":11776,"title":"Human Genome Project, Build 34, Chromosome Number 02","authors":[{"name":"Human Genome Project","birth_year":null,"death_year":null}],"translators":[],"subjects":["Nucleotide sequence"],"bookshelves":[],"languages":["en"],"copyright":false,"media_type":"Dataset","formats":{"text/plain":"https://www.gutenberg.org/files/11776/11776.zip","application/rdf+xml":"https://www.gutenberg.org/ebooks/11776.rdf"},"download_count":7},{"id":11780,"title":"Human Genome Project, Build 34, Chromosome Number 06","authors":[{"name":"Human Genome Project","birth_year":null,"death_year":null}],"translators":[],"subjects":["Nucleotide sequence"],"bookshelves":[],"languages":["en"],"copyright":false,"media_type":"Dataset","formats":{"text/plain":"https://www.gutenberg.org/files/11780/11780.zip","application/rdf+xml":"https://www.gutenberg.org/ebooks/11780.rdf"},"download_count":7},{"id":11783,"title":"Human Genome Project, Build 34, Chromosome Number 09","authors":[{"name":"Human Genome Project","birth_year":null,"death_year":null}],"translators":[],"subjects":["Nucleotide sequence"],"bookshelves":[],"languages":["en"],"copyright":false,"media_type":"Dataset","formats":{"text/plain":"https://www.gutenberg.org/files/11783/11783.zip","application/rdf+xml":"https://www.gutenberg.org/ebooks/11783.rdf"},"download_count":7},{"id":11784,"title":"Human Genome Project, Build 34, Chromosome Number 10","authors":[{"name":"Human Genome Project","birth_year":null,"death_year":null}],"translators":[],"subjects":["Nucleotide sequence"],"bookshelves":[],"languages":["en"],"copyright":false,"media_type":"Dataset","formats":{"text/plain":"https://www.gutenberg.org/files/11784/11784.zip","application/rdf+xml":"https://www.gutenberg.org/ebooks/11784.rdf"},"download_count":7},{"id":11787,"title":"Human Genome Project, Build 34, Chromosome Number 13","authors":[{"name":"Human Genome Project","birth_year":null,"death_year":null}],"translators":[],"subjects":["Nucleotide sequence"],"bookshelves":[],"languages":["en"],"copyright":false,"media_type":"Dataset","formats":{"text/plain":"https://www.gutenberg.org/files/11787/11787.zip","application/rdf+xml":"https://www.gutenberg.org/ebooks/11787.rdf"},"download_count":7},{"id":11788,"title":"Human Genome Project, Build 34, Chromosome Number 14","authors":[{"name":"Human Genome Project","birth_year":null,"death_year":null}],"translators":[],"subjects":["Nucleotide sequence"],"bookshelves":[],"languages":["en"],"copyright":false,"media_type":"Dataset","formats":{"text/plain":"https://www.gutenberg.org/files/11788/11788.zip","application/rdf+xml":"https://www.gutenberg.org/ebooks/11788.rdf"},"download_count":7},{"id":11789,"title":"Human Genome Project, Build 34, Chromosome Number 15","authors":[{"name":"Human Genome Project","birth_year":null,"death_year":null}],"translators":[],"subjects":["Nucleotide sequence"],"bookshelves":[],"languages":["en"],"copyright":false,"media_type":"Dataset","formats":{"text/plain":"https://www.gutenberg.org/files/11789/11789.zip","application/rdf+xml":"https://www.gutenberg.org/ebooks/11789.rdf"},"download_count":7},{"id":11793,"title":"Human Genome Project, Build 34, Chromosome Number 19","authors":[{"name":"Human Genome Project","birth_year":null,"death_year":null}],"translators":[],"subjects":["Nucleotide sequence"],"bookshelves":[],"languages":["en"],"copyright":false,"media_type":"Dataset","formats":{"text/plain":"https://www.gutenberg.org/files/11793/11793.zip","application/rdf+xml":"https://www.gutenberg.org/ebooks/11793.rdf"},"download_count":7},{"id":11796,"title":"Human Genome Project, Build 34, Chromosome Number 22","authors":[{"name":"Human Genome Project","birth_year":null,"death_year":null}],"translators":[],"subjects":["Nucleotide sequence"],"bookshelves":[],"languages":["en"],"copyright":false,"media_type":"Dataset","formats":{"text/plain":"https://www.gutenberg.org/files/11796/11796.zip","application/rdf+xml":"https://www.gutenberg.org/ebooks/11796.rdf"},"download_count":7},{"id":12378,"title":"Punch, or the London Charivari, Volume 99, August 30, 1890","authors":[{"name":"Various","birth_year":null,"death_year":null}],"translators":[],"subjects":["English wit and humor -- Periodicals"],"bookshelves":["Punch"],"languages":["en"],"copyright":false,"media_type":"Text","formats":{"text/html":"https://www.gutenberg.org/ebooks/12378.html.images","text/html; charset=iso-8859-1":"https://www.gutenberg.org/files/12378/12378-h/12378-h.htm","application/epub+zip":"https://www.gutenberg.org/ebooks/12378.epub3.images","application/x-mobipocket-ebook":"https://www.gutenberg.org/ebooks/12378.kf8.images","text/plain; charset=us-ascii":"https://www.gutenberg.org/ebooks/12378.txt.utf-8","text/plain; charset=iso-8859-1":"https://www.gutenberg.org/files/12378/12378-8.txt","application/rdf+xml":"https://www.gutenberg.org/ebooks/12378.rdf","image/jpeg":"https://www.gutenberg.org/cache/epub/12378/pg12378.cover.medium.jpg","application/octet-stream":"https://www.gutenberg.org/cache/epub/12378/pg12378-h.zip"},"download_count":7},{"id":12737,"title":"Punch, or the London Charivari, Volume 99, November 22, 1890","authors":[{"name":"Various","birth_year":null,"death_year":null}],"translators":[],"subjects":["English wit and humor -- Periodicals"],"bookshelves":["Punch"],"languages":["en"],"copyright":false,"media_type":"Text","formats":{"text/html":"https://www.gutenberg.org/ebooks/12737.html.images","text/html; charset=iso-8859-1":"https://www.gutenberg.org/files/12737/12737-h/12737-h.htm","application/epub+zip":"https://www.gutenberg.org/ebooks/12737.epub3.images","application/x-mobipocket-ebook":"https://www.gutenberg.org/ebooks/12737.kf8.images","text/plain; charset=us-ascii":"https://www.gutenberg.org/ebooks/12737.txt.utf-8","text/plain; charset=iso-8859-1":"https://www.gutenberg.org/files/12737/12737-8.txt","application/rdf+xml":"https://www.gutenberg.org/ebooks/12737.rdf","image/jpeg":"https://www.gutenberg.org/cache/epub/12737/pg12737.cover.medium.jpg","application/octet-stream":"https://www.gutenberg.org/cache/epub/12737/pg12737-h.zip"},"download_count":7},{"id":12941,"title":"The Scranton High Chums on the Cinder Path: Or, The Mystery of the Haunted Quarry","authors":[{"name":"Ferguson, Donald","birth_year":null,"death_year":null}],"translators":[],"subjects":["High school students -- Juvenile fiction","Track and field -- Juvenile fiction"],"bookshelves":[],"languages":["en"],"copyright":false,"media_type":"Text","formats":{"text/html":"https://www.gutenberg.org/ebooks/12941.html.images","application/epub+zip":"https://www.gutenberg.org/ebooks/12941.epub3.images","application/x-mobipocket-ebook":"https://www.gutenberg.org/ebooks/12941.kf8.images","text/plain; charset=us-ascii":"https://www.gutenberg.org/ebooks/12941.txt.utf-8","application/rdf+xml":"https://www.gutenberg.org/ebooks/12941.rdf","image/jpeg":"https://www.gutenberg.org/cache/epub/12941/pg12941.cover.medium.jpg","application/octet-stream":"https://www.gutenberg.org/cache/epub/12941/pg12941-h.zip"},"download_count":7},{"id":14331,"title":"Judith of the Godless Valley","authors":[{"name":"Morrow, Honoré","birth_year":1880,"death_year":1940}],"translators":[],"subjects":["United States -- Social life and customs -- Fiction"],"bookshelves":[],"languages":["en"],"copyright":false,"media_type":"Text","formats":{"text/html":"https://www.gutenberg.org/ebooks/14331.html.images","application/epub+zip":"https://www.gutenberg.org/ebooks/14331.epub3.images","application/x-mobipocket-ebook":"https://www.gutenberg.org/ebooks/14331.kf8.images","text/plain; charset=us-ascii":"https://www.gutenberg.org/ebooks/14331.txt.utf-8","application/rdf+xml":"https://www.gutenberg.org/ebooks/14331.rdf","image/jpeg":"https://www.gutenberg.org/cache/epub/14331/pg14331.cover.medium.jpg","application/octet-stream":"https://www.gutenberg.org/cache/epub/14331/pg14331-h.zip"},"download_count":7},{"id":14942,"title":"Punch, or the London Charivari, Volume 1, December 25, 1841","authors":[{"name":"Various","birth_year":null,"death_year":null}],"translators":[],"subjects":["English wit and humor -- Periodicals"],"bookshelves":["Punch"],"languages":["en"],"copyright":false,"media_type":"Text","formats":{"text/html":"https://www.gutenberg.org/ebooks/14942.html.images","text/html; charset=iso-8859-1":"https://www.gutenberg.org/files/14942/14942-h/14942-h.htm","application/epub+zip":"https://www.gutenberg.org/ebooks/14942.epub3.images","application/x-mobipocket-ebook":"https://www.gutenberg.org/ebooks/14942.kf8.images","text/plain; charset=us-ascii":"https://www.gutenberg.org/ebooks/14942.txt.utf-8","text/plain; charset=iso-8859-1":"https://www.gutenberg.org/files/14942/14942-8.txt","application/rdf+xml":"https://www.gutenberg.org/ebooks/14942.rdf","image/jpeg":"https://www.gutenberg.org/cache/epub/14942/pg14942.cover.medium.jpg","application/octet-stream":"https://www.gutenberg.org/cache/epub/14942/pg14942-h.zip"},"download_count":7},{"id":15982,"title":"Woman As She Should Be; Or, Agnes Wiltshire","authors":[{"name":"Herbert, Mary E.","birth_year":null,"death_year":null}],"translators":[],"subjects":["Canadian fiction"],"bookshelves":[],"languages":["en"],"copyright":false,"media_type":"Text","formats":{"text/html":"https://www.gutenberg.org/ebooks/15982.html.images","text/html; charset=iso-8859-1":"https://www.gutenberg.org/files/15982/15982-h/15982-h.htm","application/epub+zip":"https://www.gutenberg.org/ebooks/15982.epub3.images","application/x-mobipocket-ebook":"https://www.gutenberg.org/ebooks/15982.kf8.images","text/plain; charset=us-ascii":"https://www.gutenberg.org/ebooks/15982.txt.utf-8","text/plain; charset=iso-8859-1":"https://www.gutenberg.org/files/15982/15982-8.txt","application/rdf+xml":"https://www.gutenberg.org/ebooks/15982.rdf","image/jpeg":"https://www.gutenberg.org/cache/epub/15982/pg15982.cover.medium.jpg","application/octet-stream":"https://www.gutenberg.org/cache/epub/15982/pg15982-h.zip"},"download_count":7},{"id":22844,"title":"Miss Philly Firkin, The China-Woman","authors":[{"name":"Mitford, Mary Russell","birth_year":1787,"death_year":1855}],"translators":[],"subjects":["Businesswomen -- Fiction","City and town life -- Fiction","Short stories","Single women -- Fiction"],"bookshelves":[],"languages":["en"],"copyright":false,"media_type":"Text","formats":{"text/html":"https://www.gutenberg.org/ebooks/22844.html.images","text/html; charset=iso-8859-1":"https://www.gutenberg.org/files/22844/22844-h/22844-h.htm","application/epub+zip":"https://www.gutenberg.org/ebooks/22844.epub3.images","application/x-mobipocket-ebook":"https://www.gutenberg.org/ebooks/22844.kf8.images","text/plain; charset=us-ascii":"https://www.gutenberg.org/ebooks/22844.txt.utf-8","text/plain; charset=iso-8859-1":"https://www.gutenberg.org/files/22844/22844-8.txt","application/rdf+xml":"https://www.gutenberg.org/ebooks/22844.rdf","image/jpeg":"https://www.gutenberg.org/cache/epub/22844/pg22844.cover.medium.jpg","application/octet-stream":"https://www.gutenberg.org/cache/epub/22844/pg22844-h.zip"},"download_count":7}]}