{"count":58808,"next":"http://129.241.150.113:8000/books/?languages=en&page=1539","previous":"http://129.241.150.113:8000/books/?languages=en&page=1537","results":[{"id":69955,"title":"Was it a ghost? The murders in Bussey's wood : $b An extraordinary narrative","authors":[{"name":"Brent, Henry Johnson","birth_year":1811,"death_year":1880}],"translators":[],"subjects":["Ghosts","Joyce, Isabella, -1865","Joyce, John, -1865","Murder -- Massachusetts -- Boston"],"bookshelves":[],"languages":["en"],"copyright":false,"media_type":"Text","formats":{"text/html":"https://www.gutenberg.org/ebooks/69955.html.images","application/epub+zip":"https://www.gutenberg.org/ebooks/69955.epub3.images","application/x-mobipocket-ebook":"https://www.gutenberg.org/ebooks/69955.kf8.images","text/plain; charset=us-ascii":"https://www.gutenberg.org/ebooks/69955.txt.utf-8","application/rdf+xml":"https://www.gutenberg.org/ebooks/69955.rdf","image/jpeg":"https://www.gutenberg.org/cache/epub/69955/pg69955.cover.medium.jpg","application/octet-stream":"https://www.gutenberg.org/files/69955/69955-0.zip"},"download_count":23},{"id":70018,"title":"Some architectural problems of to-day","authors":[{"name":"Reilly, C. H. (Charles Herbert), Sir","birth_year":1874,"death_year":1948}],"translators":[],"subjects":["Architecture"],"bookshelves":[],"languages":["en"],"copyright":false,"media_type":"Text","formats":{"text/html":"https://www.gutenberg.org/ebooks/70018.html.images","application/epub+zip":"https://www.gutenberg.org/ebooks/70018.epub3.images","application/x-mobipocket-ebook":"https://www.gutenberg.org/ebooks/70018.kf8.images","text/plain; charset=us-ascii":"https://www.gutenberg.org/ebooks/70018.txt.utf-8","application/rdf+xml":"https://www.gutenberg.org/ebooks/70018.rdf","image/jpeg":"https://www.gutenberg.org/cache/epub/70018/pg70018.cover.medium.jpg","application/octet-stream":"https://www.gutenberg.org/files/70018/70018-0.zip"},"download_count":23},{"id":70087,"title":"Winona : $b A tale of Negro life in the South and Southwest","authors":[{"name":"Hopkins, Pauline E. (Pauline Elizabeth)","birth_year":1859,"death_year":1930}],"translators":[],"subjects":["African Americans -- Southern States -- Fiction","African Americans -- Southwestern States -- Fiction"],"bookshelves":[],"languages":["en"],"copyright":false,"media_type":"Text","formats":{"text/html":"https://www.gutenberg.org/ebooks/70087.html.images","application/epub+zip":"https://www.gutenberg.org/ebooks/70087.epub3.images","application/x-mobipocket-ebook":"https://www.gutenberg.org/ebooks/70087.kf8.images","text/plain; charset=us-ascii":"https://www.gutenberg.org/ebooks/70087.txt.utf-8","application/rdf+xml":"https://www.gutenberg.org/ebooks/70087.rdf","image/jpeg":"https://www.gutenberg.org/cache/epub/70087/pg70087.cover.medium.jpg","application/octet-stream":"https://www.gutenberg.org/files/70087/70087-0.zip"},"download_count":23},{"id":70090,"title":"The little elves seeking the beautiful world : $b A book for children","authors":[{"name":"Warner, Lucy Hamilton","birth_year":null,"death_year":null}],"translators":[],"subjects":["Adventure stories","Animals -- Juvenile fiction","Conduct of life -- Juvenile fiction","Elves -- Juvenile fiction","Fantasy literature","Happiness -- Juvenile fiction","Queens -- Juvenile fiction","Spiders -- Juvenile fiction","Voyages and travels -- Juvenile fiction","Youth -- Conduct of life -- Juvenile fiction"],"bookshelves":[],"languages":["en"],"copyright":false,"media_type":"Text","formats":{"text/html":"https://www.gutenberg.org/ebooks/70090.html.images","application/epub+zip":"https://www.gutenberg.org/ebooks/70090.epub3.images","application/x-mobipocket-ebook":"https://www.gutenberg.org/ebooks/70090.kf8.images","text/plain; charset=us-ascii":"https://www.gutenberg.org/ebooks/70090.txt.utf-8","application/rdf+xml":"https://www.gutenberg.org/ebooks/70090.rdf","image/jpeg":"https://www.gutenberg.org/cache/epub/70090/pg70090.cover.medium.jpg","application/octet-stream":"https://www.gutenberg.org/files/70090/70090-0.zip"},"download_count":23},{"id":70137,"title":"Little Mother Goose","authors":[{"name":"Anonymous","birth_year":null,"death_year":null}],"translators":[],"subjects":["Children's poetry","Children's stories"],"bookshelves":[],"languages":["en"],"copyright":false,"media_type":"Text","formats":{"text/html":"https://www.gutenberg.org/ebooks/70137.html.images","application/epub+zip":"https://www.gutenberg.org/ebooks/70137.epub3.images","application/x-mobipocket-ebook":"https://www.gutenberg.org/ebooks/70137.kf8.images","text/plain; charset=us-ascii":"https://www.gutenberg.org/ebooks/70137.txt.utf-8","application/rdf+xml":"https://www.gutenberg.org/ebooks/70137.rdf","image/jpeg":"https://www.gutenberg.org/cache/epub/70137/pg70137.cover.medium.jpg","application/octet-stream":"https://www.gutenberg.org/files/70137/70137-0.zip"},"download_count":23},{"id":70172,"title":"Catherine's coquetries : $b A tale of French country life","authors":[{"name":"Debans, Camille","birth_year":1832,"death_year":1919}],"translators":[{"name":"Mead, Leon","birth_year":1861,"death_year":1927}],"subjects":["French fiction -- Translations into English"],"bookshelves":[],"languages":["en"],"copyright":false,"media_type":"Text","formats":{"text/html":"https://www.gutenberg.org/ebooks/70172.html.images","application/epub+zip":"https://www.gutenberg.org/ebooks/70172.epub3.images","application/x-mobipocket-ebook":"https://www.gutenberg.org/ebooks/70172.kf8.images","text/plain; charset=us-ascii":"https://www.gutenberg.org/ebooks/70172.txt.utf-8","application/rdf+xml":"https://www.gutenberg.org/ebooks/70172.rdf","image/jpeg":"https://www.gutenberg.org/cache/epub/70172/pg70172.cover.medium.jpg","application/octet-stream":"https://www.gutenberg.org/files/70172/70172-0.zip"},"download_count":23},{"id":70276,"title":"Pottery decoration under the glaze","authors":[{"name":"McLaughlin, M. Louise (Mary Louise)","birth_year":1847,"death_year":1939}],"translators":[],"subjects":["Glazing (Ceramics)","Pottery"],"bookshelves":[],"languages":["en"],"copyright":false,"media_type":"Text","formats":{"text/html":"https://www.gutenberg.org/ebooks/70276.html.images","application/epub+zip":"https://www.gutenberg.org/ebooks/70276.epub3.images","application/x-mobipocket-ebook":"https://www.gutenberg.org/ebooks/70276.kf8.images","text/plain; charset=us-ascii":"https://www.gutenberg.org/ebooks/70276.txt.utf-8","application/rdf+xml":"https://www.gutenberg.org/ebooks/70276.rdf","image/jpeg":"https://www.gutenberg.org/cache/epub/70276/pg70276.cover.medium.jpg","application/octet-stream":"https://www.gutenberg.org/files/70276/70276-0.zip"},"download_count":23},{"id":70281,"title":"St. Domingo, its revolution and its hero, Toussaint Louverture.","authors":[{"name":"Elliott, Charles Wyllys","birth_year":1817,"death_year":1883}],"translators":[],"subjects":["Haiti -- History -- Revolution, 1791-1804","Toussaint Louverture, 1743-1803"],"bookshelves":[],"languages":["en"],"copyright":false,"media_type":"Text","formats":{"text/html":"https://www.gutenberg.org/ebooks/70281.html.images","application/epub+zip":"https://www.gutenberg.org/ebooks/70281.epub3.images","application/x-mobipocket-ebook":"https://www.gutenberg.org/ebooks/70281.kf8.images","text/plain; charset=us-ascii":"https://www.gutenberg.org/ebooks/70281.txt.utf-8","application/rdf+xml":"https://www.gutenberg.org/ebooks/70281.rdf","image/jpeg":"https://www.gutenberg.org/cache/epub/70281/pg70281.cover.medium.jpg","application/octet-stream":"https://www.gutenberg.org/files/70281/70281-0.zip"},"download_count":23},{"id":70285,"title":"The snow man : $b A metrical play in one act","authors":[{"name":"Housman, Laurence","birth_year":1865,"death_year":1959}],"translators":[],"subjects":["English drama -- 20th century","One-act plays"],"bookshelves":[],"languages":["en"],"copyright":false,"media_type":"Text","formats":{"text/html":"https://www.gutenberg.org/ebooks/70285.html.images","application/epub+zip":"https://www.gutenberg.org/ebooks/70285.epub3.images","application/x-mobipocket-ebook":"https://www.gutenberg.org/ebooks/70285.kf8.images","text/plain; charset=us-ascii":"https://www.gutenberg.org/ebooks/70285.txt.utf-8","application/rdf+xml":"https://www.gutenberg.org/ebooks/70285.rdf","image/jpeg":"https://www.gutenberg.org/cache/epub/70285/pg70285.cover.medium.jpg","application/octet-stream":"https://www.gutenberg.org/files/70285/70285-0.zip"},"download_count":23},{"id":70300,"title":"Legendary & romantic tales of Indian history","authors":[{"name":"Caunter, Hobart","birth_year":1794,"death_year":1851}],"translators":[],"subjects":["India -- History -- Fiction"],"bookshelves":[],"languages":["en"],"copyright":false,"media_type":"Text","formats":{"text/html":"https://www.gutenberg.org/ebooks/70300.html.images","application/epub+zip":"https://www.gutenberg.org/ebooks/70300.epub3.images","application/x-mobipocket-ebook":"https://www.gutenberg.org/ebooks/70300.kf8.images","text/plain; charset=us-ascii":"https://www.gutenberg.org/ebooks/70300.txt.utf-8","application/rdf+xml":"https://www.gutenberg.org/ebooks/70300.rdf","image/jpeg":"https://www.gutenberg.org/cache/epub/70300/pg70300.cover.medium.jpg","application/octet-stream":"https://www.gutenberg.org/files/70300/70300-0.zip"},"download_count":23},{"id":70338,"title":"Paper & paper making, ancient and modern","authors":[{"name":"Herring, Richard","birth_year":1829,"death_year":null}],"translators":[],"subjects":["Papermaking"],"bookshelves":[],"languages":["en"],"copyright":false,"media_type":"Text","formats":{"text/html":"https://www.gutenberg.org/ebooks/70338.html.images","application/epub+zip":"https://www.gutenberg.org/ebooks/70338.epub3.images","application/x-mobipocket-ebook":"https://www.gutenberg.org/ebooks/70338.kf8.images","text/plain; charset=us-ascii":"https://www.gutenberg.org/ebooks/70338.txt.utf-8","application/rdf+xml":"https://www.gutenberg.org/ebooks/70338.rdf","image/jpeg":"https://www.gutenberg.org/cache/epub/70338/pg70338.cover.medium.jpg","application/octet-stream":"https://www.gutenberg.org/files/70338/70338-0.zip"},"download_count":23},{"id":70501,"title":"Moon of memory","authors":[{"name":"Walton, Bryce","birth_year":1918,"death_year":1988}],"translators":[],"subjects":["Criminals -- Fiction","Deimos (Satellite) -- Fiction","Mars (Planet) -- Fiction","Martians -- Fiction","Science fiction","Short stories"],"bookshelves":[],"languages":["en"],"copyright":false,"media_type":"Text","formats":{"text/html":"https://www.gutenberg.org/ebooks/70501.html.images","application/epub+zip":"https://www.gutenberg.org/ebooks/70501.epub3.images","application/x-mobipocket-ebook":"https://www.gutenberg.org/ebooks/70501.kf8.images","text/plain; charset=us-ascii":"https://www.gutenberg.org/ebooks/70501.txt.utf-8","application/rdf+xml":"https://www.gutenberg.org/ebooks/70501.rdf","image/jpeg":"https://www.gutenberg.org/cache/epub/70501/pg70501.cover.medium.jpg","application/octet-stream":"https://www.gutenberg.org/files/70501/70501-0.zip"},"download_count":23},{"id":70524,"title":"Bird's nest, a fantasy in one act","authors":[{"name":"Mygatt, Tracy D. (Tracy Dickinson)","birth_year":1885,"death_year":1973}],"translators":[],"subjects":["American drama -- 20th century","One-act plays"],"bookshelves":[],"languages":["en"],"copyright":false,"media_type":"Text","formats":{"text/html":"https://www.gutenberg.org/ebooks/70524.html.images","application/epub+zip":"https://www.gutenberg.org/ebooks/70524.epub3.images","application/x-mobipocket-ebook":"https://www.gutenberg.org/ebooks/70524.kf8.images","text/plain; charset=us-ascii":"https://www.gutenberg.org/ebooks/70524.txt.utf-8","application/rdf+xml":"https://www.gutenberg.org/ebooks/70524.rdf","image/jpeg":"https://www.gutenberg.org/cache/epub/70524/pg70524.cover.medium.jpg","application/octet-stream":"https://www.gutenberg.org/files/70524/70524-0.zip"},"download_count":23},{"id":70600,"title":"Wanted—Leaders! : $b A study of Negro development","authors":[{"name":"Bratton, Theodore DeBose","birth_year":1862,"death_year":1944}],"translators":[],"subjects":["African Americans -- History"],"bookshelves":[],"languages":["en"],"copyright":false,"media_type":"Text","formats":{"text/html":"https://www.gutenberg.org/ebooks/70600.html.images","application/epub+zip":"https://www.gutenberg.org/ebooks/70600.epub3.images","application/x-mobipocket-ebook":"https://www.gutenberg.org/ebooks/70600.kf8.images","text/plain; charset=us-ascii":"https://www.gutenberg.org/ebooks/70600.txt.utf-8","application/rdf+xml":"https://www.gutenberg.org/ebooks/70600.rdf","image/jpeg":"https://www.gutenberg.org/cache/epub/70600/pg70600.cover.medium.jpg","application/octet-stream":"https://www.gutenberg.org/files/70600/70600-0.zip"},"download_count":23},{"id":70647,"title":"The belt","authors":[{"name":"West, Wallace","birth_year":1900,"death_year":1980}],"translators":[],"subjects":["Factories -- Fiction","Human evolution -- Fiction","Islands -- Fiction","Mines and mineral resources -- Fiction","Science fiction","Short stories"],"bookshelves":[],"languages":["en"],"copyright":false,"media_type":"Text","formats":{"text/html":"https://www.gutenberg.org/ebooks/70647.html.images","application/epub+zip":"https://www.gutenberg.org/ebooks/70647.epub3.images","application/x-mobipocket-ebook":"https://www.gutenberg.org/ebooks/70647.kf8.images","text/plain; charset=us-ascii":"https://www.gutenberg.org/ebooks/70647.txt.utf-8","application/rdf+xml":"https://www.gutenberg.org/ebooks/70647.rdf","image/jpeg":"https://www.gutenberg.org/cache/epub/70647/pg70647.cover.medium.jpg","application/octet-stream":"https://www.gutenberg.org/files/70647/70647-0.zip"},"download_count":23},{"id":70697,"title":"Mousey : $b or, Cousin Robert's treasure","authors":[{"name":"Stooke, Eleanora H.","birth_year":null,"death_year":null}],"translators":[],"subjects":["Christian life -- Juvenile fiction","Conduct of life -- Juvenile fiction","Families -- Juvenile fiction","Girls -- Juvenile fiction","Misers -- Juvenile fiction","Orphans -- Juvenile fiction"],"bookshelves":[],"languages":["en"],"copyright":false,"media_type":"Text","formats":{"text/html":"https://www.gutenberg.org/ebooks/70697.html.images","application/epub+zip":"https://www.gutenberg.org/ebooks/70697.epub3.images","application/x-mobipocket-ebook":"https://www.gutenberg.org/ebooks/70697.kf8.images","text/plain; charset=us-ascii":"https://www.gutenberg.org/ebooks/70697.txt.utf-8","application/rdf+xml":"https://www.gutenberg.org/ebooks/70697.rdf","image/jpeg":"https://www.gutenberg.org/cache/epub/70697/pg70697.cover.medium.jpg","application/octet-stream":"https://www.gutenberg.org/files/70697/70697-0.zip"},"download_count":23},{"id":70744,"title":"The revolt in Arabia","authors":[{"name":"Snouck Hurgronje, C. (Christiaan)","birth_year":1857,"death_year":1936}],"translators":[],"subjects":["Arabian Peninsula -- History","Islam","World War, 1914-1918 -- Arabian Peninsula"],"bookshelves":[],"languages":["en"],"copyright":false,"media_type":"Text","formats":{"text/html":"https://www.gutenberg.org/ebooks/70744.html.images","application/epub+zip":"https://www.gutenberg.org/ebooks/70744.epub3.images","application/x-mobipocket-ebook":"https://www.gutenberg.org/ebooks/70744.kf8.images","text/plain; charset=us-ascii":"https://www.gutenberg.org/ebooks/70744.txt.utf-8","application/rdf+xml":"https://www.gutenberg.org/ebooks/70744.rdf","image/jpeg":"https://www.gutenberg.org/cache/epub/70744/pg70744.cover.medium.jpg","application/octet-stream":"https://www.gutenberg.org/files/70744/70744-0.zip"},"download_count":23},{"id":70794,"title":"In the Bad Lands","authors":[{"name":"Sinclair, Bertrand W.","birth_year":1881,"death_year":1972}],"translators":[],"subjects":["Cowboys -- Fiction","Short stories","Western stories"],"bookshelves":[],"languages":["en"],"copyright":false,"media_type":"Text","formats":{"text/html":"https://www.gutenberg.org/ebooks/70794.html.images","application/epub+zip":"https://www.gutenberg.org/ebooks/70794.epub3.images","application/x-mobipocket-ebook":"https://www.gutenberg.org/ebooks/70794.kf8.images","text/plain; charset=us-ascii":"https://www.gutenberg.org/ebooks/70794.txt.utf-8","application/rdf+xml":"https://www.gutenberg.org/ebooks/70794.rdf","image/jpeg":"https://www.gutenberg.org/cache/epub/70794/pg70794.cover.medium.jpg","application/octet-stream":"https://www.gutenberg.org/files/70794/70794-0.zip"},"download_count":23},{"id":70911,"title":"The evolution of general ideas","authors":[{"name":"Ribot, Th. (Théodule)","birth_year":1839,"death_year":1916}],"translators":[{"name":"Welby, Frances A. (Frances Alice)","birth_year":1862,"death_year":1947}],"subjects":["Abstraction","Imagination"],"bookshelves":[],"languages":["en"],"copyright":false,"media_type":"Text","formats":{"text/html":"https://www.gutenberg.org/ebooks/70911.html.images","application/epub+zip":"https://www.gutenberg.org/ebooks/70911.epub3.images","application/x-mobipocket-ebook":"https://www.gutenberg.org/ebooks/70911.kf8.images","text/plain; charset=us-ascii":"https://www.gutenberg.org/ebooks/70911.txt.utf-8","application/rdf+xml":"https://www.gutenberg.org/ebooks/70911.rdf","image/jpeg":"https://www.gutenberg.org/cache/epub/70911/pg70911.cover.medium.jpg","application/octet-stream":"https://www.gutenberg.org/files/70911/70911-0.zip"},"download_count":23},{"id":70947,"title":"A walk in the Grisons : $b Being a third month in Switzerland","authors":[{"name":"Zincke, F. Barham (Foster Barham)","birth_year":1817,"death_year":1893}],"translators":[],"subjects":["Graubünden (Switzerland) -- Description and travel"],"bookshelves":[],"languages":["en"],"copyright":false,"media_type":"Text","formats":{"text/html":"https://www.gutenberg.org/ebooks/70947.html.images","application/epub+zip":"https://www.gutenberg.org/ebooks/70947.epub3.images","application/x-mobipocket-ebook":"https://www.gutenberg.org/ebooks/70947.kf8.images","text/plain; charset=us-ascii":"https://www.gutenberg.org/ebooks/70947.txt.utf-8","application/rdf+xml":"https://www.gutenberg.org/ebooks/70947.rdf","image/jpeg":"https://www.gutenberg.org/cache/epub/70947/pg70947.cover.medium.jpg","application/octet-stream":"https://www.gutenberg.org/files/70947/70947-0.zip"},"download_count":23},{"id":70971,"title":"The East I know","authors":[{"name":"Claudel, Paul","birth_year":1868,"death_year":1955}],"translators":[{"name":"Benét, William Rose","birth_year":1886,"death_year":1950},{"name":"Benét, Teresa Frances","birth_year":1881,"death_year":1919}],"subjects":["East Asia"],"bookshelves":[],"languages":["en"],"copyright":false,"media_type":"Text","formats":{"text/html":"https://www.gutenberg.org/ebooks/70971.html.images","application/epub+zip":"https://www.gutenberg.org/ebooks/70971.epub3.images","application/x-mobipocket-ebook":"https://www.gutenberg.org/ebooks/70971.kf8.images","text/plain; charset=us-ascii":"https://www.gutenberg.org/ebooks/70971.txt.utf-8","application/rdf+xml":"https://www.gutenberg.org/ebooks/70971.rdf","image/jpeg":"https://www.gutenberg.org/cache/epub/70971/pg70971.cover.medium.jpg","application/octet-stream":"https://www.gutenberg.org/files/70971/70971-0.zip"},"download_count":23},{"id":71003,"title":"Tusayan katcinas","authors":[{"name":"Fewkes, Jesse Walter","birth_year":1850,"death_year":1930}],"translators":[],"subjects":["Hopi Indians -- Religion","Kachinas"],"bookshelves":[],"languages":["en"],"copyright":false,"media_type":"Text","formats":{"text/html":"https://www.gutenberg.org/ebooks/71003.html.images","application/epub+zip":"https://www.gutenberg.org/ebooks/71003.epub3.images","application/x-mobipocket-ebook":"https://www.gutenberg.org/ebooks/71003.kf8.images","text/plain; charset=us-ascii":"https://www.gutenberg.org/ebooks/71003.txt.utf-8","application/rdf+xml":"https://www.gutenberg.org/ebooks/71003.rdf","image/jpeg":"https://www.gutenberg.org/cache/epub/71003/pg71003.cover.medium.jpg","application/octet-stream":"https://www.gutenberg.org/files/71003/71003-0.zip"},"download_count":23},{"id":71156,"title":"Five years of youth : $b or, sense and sentiment","authors":[{"name":"Martineau, Harriet","birth_year":1802,"death_year":1876}],"translators":[],"subjects":["Generosity -- Juvenile fiction","Motherless families -- Juvenile fiction","Selfishness -- Juvenile fiction","Sisters -- Juvenile fiction","Young women -- Conduct of life -- Juvenile fiction"],"bookshelves":[],"languages":["en"],"copyright":false,"media_type":"Text","formats":{"text/html":"https://www.gutenberg.org/ebooks/71156.html.images","application/epub+zip":"https://www.gutenberg.org/ebooks/71156.epub3.images","application/x-mobipocket-ebook":"https://www.gutenberg.org/ebooks/71156.kf8.images","text/plain; charset=us-ascii":"https://www.gutenberg.org/ebooks/71156.txt.utf-8","application/rdf+xml":"https://www.gutenberg.org/ebooks/71156.rdf","image/jpeg":"https://www.gutenberg.org/cache/epub/71156/pg71156.cover.medium.jpg","application/octet-stream":"https://www.gutenberg.org/files/71156/71156-0.zip"},"download_count":23},{"id":71228,"title":"The confessions of a well-meaning woman","authors":[{"name":"McKenna, Stephen","birth_year":1888,"death_year":1967}],"translators":[],"subjects":["English fiction -- 20th century","Upper class -- England -- Fiction","Women -- England -- Fiction"],"bookshelves":[],"languages":["en"],"copyright":false,"media_type":"Text","formats":{"text/html":"https://www.gutenberg.org/ebooks/71228.html.images","application/epub+zip":"https://www.gutenberg.org/ebooks/71228.epub3.images","application/x-mobipocket-ebook":"https://www.gutenberg.org/ebooks/71228.kf8.images","text/plain; charset=us-ascii":"https://www.gutenberg.org/ebooks/71228.txt.utf-8","application/rdf+xml":"https://www.gutenberg.org/ebooks/71228.rdf","image/jpeg":"https://www.gutenberg.org/cache/epub/71228/pg71228.cover.medium.jpg","application/octet-stream":"https://www.gutenberg.org/files/71228/71228-0.zip"},"download_count":23},{"id":71317,"title":"The day's journey","authors":[{"name":"Syrett, Netta","birth_year":1865,"death_year":1943}],"translators":[],"subjects":["Man-woman relationships -- Fiction","Spouses -- Fiction"],"bookshelves":[],"languages":["en"],"copyright":false,"media_type":"Text","formats":{"text/html":"https://www.gutenberg.org/ebooks/71317.html.images","application/epub+zip":"https://www.gutenberg.org/ebooks/71317.epub3.images","application/x-mobipocket-ebook":"https://www.gutenberg.org/ebooks/71317.kf8.images","text/plain; charset=us-ascii":"https://www.gutenberg.org/ebooks/71317.txt.utf-8","application/rdf+xml":"https://www.gutenberg.org/ebooks/71317.rdf","image/jpeg":"https://www.gutenberg.org/cache/epub/71317/pg71317.cover.medium.jpg","application/octet-stream":"https://www.gutenberg.org/files/71317/71317-0.zip"},"download_count":23},{"id":71393,"title":"Letters and social aims","authors":[{"name":"Emerson, Ralph Waldo","birth_year":1803,"death_year":1882}],"translators":[],"subjects":["American essays -- 19th century"],"bookshelves":[],"languages":["en"],"copyright":false,"media_type":"Text","formats":{"text/html":"https://www.gutenberg.org/ebooks/71393.html.images","application/epub+zip":"https://www.gutenberg.org/ebooks/71393.epub3.images","application/x-mobipocket-ebook":"https://www.gutenberg.org/ebooks/71393.kf8.images","text/plain; charset=us-ascii":"https://www.gutenberg.org/ebooks/71393.txt.utf-8","application/rdf+xml":"https://www.gutenberg.org/ebooks/71393.rdf","image/jpeg":"https://www.gutenberg.org/cache/epub/71393/pg71393.cover.medium.jpg","application/octet-stream":"https://www.gutenberg.org/files/71393/71393-h.zip"},"download_count":23},{"id":71417,"title":"Pioneer boys of the gold fields : $b or, The nugget hunters of '49","authors":[{"name":"Stratemeyer, Edward","birth_year":1862,"death_year":1930}],"translators":[],"subjects":["California -- Gold discoveries -- Juvenile fiction"],"bookshelves":[],"languages":["en"],"copyright":false,"media_type":"Text","formats":{"text/html":"https://www.gutenberg.org/ebooks/71417.html.images","application/epub+zip":"https://www.gutenberg.org/ebooks/71417.epub3.images","application/x-mobipocket-ebook":"https://www.gutenberg.org/ebooks/71417.kf8.images","text/plain; charset=us-ascii":"https://www.gutenberg.org/ebooks/71417.txt.utf-8","application/rdf+xml":"https://www.gutenberg.org/ebooks/71417.rdf","image/jpeg":"https://www.gutenberg.org/cache/epub/71417/pg71417.cover.medium.jpg","application/octet-stream":"https://www.gutenberg.org/files/71417/71417-h.zip"},"download_count":23},{"id":71494,"title":"The Ohio naturalist, Vol. I, No. 6, April, 1901","authors":[{"name":"Ohio State University. Biological Club","birth_year":null,"death_year":null}],"translators":[],"subjects":["Natural history -- Ohio -- Periodicals","Natural history -- Periodicals","Science -- Periodicals"],"bookshelves":[],"languages":["en"],"copyright":false,"media_type":"Text","formats":{"text/html":"https://www.gutenberg.org/ebooks/71494.html.images","application/epub+zip":"https://www.gutenberg.org/ebooks/71494.epub3.images","application/x-mobipocket-ebook":"https://www.gutenberg.org/ebooks/71494.kf8.images","text/plain; charset=us-ascii":"https://www.gutenberg.org/ebooks/71494.txt.utf-8","application/rdf+xml":"https://www.gutenberg.org/ebooks/71494.rdf","image/jpeg":"https://www.gutenberg.org/cache/epub/71494/pg71494.cover.medium.jpg","application/octet-stream":"https://www.gutenberg.org/files/71494/71494-h.zip"},"download_count":23},{"id":71501,"title":"The Kansas University science bulletin, Vol. I, No. 7,  September 1902","authors":[],"translators":[],"subjects":["Science -- Periodicals"],"bookshelves":[],"languages":["en"],"copyright":false,"media_type":"Text","formats":{"text/html":"https://www.gutenberg.org/ebooks/71501.html.images","application/epub+zip":"https://www.gutenberg.org/ebooks/71501.epub3.images","application/x-mobipocket-ebook":"https://www.gutenberg.org/ebooks/71501.kf8.images","text/plain; charset=us-ascii":"https://www.gutenberg.org/ebooks/71501.txt.utf-8","application/rdf+xml":"https://www.gutenberg.org/ebooks/71501.rdf","image/jpeg":"https://www.gutenberg.org/cache/epub/71501/pg71501.cover.medium.jpg","application/octet-stream":"https://www.gutenberg.org/files/71501/71501-h.zip"},"download_count":23},{"id":71564,"title":"Luke's wife","authors":[{"name":"Garratt, Evelyn R.","birth_year":1854,"death_year":null}],"translators":[],"subjects":["Clergy -- Fiction","Conduct of life -- Fiction","England -- Fiction","Families -- Fiction","Spouses of clergy -- Fiction"],"bookshelves":[],"languages":["en"],"copyright":false,"media_type":"Text","formats":{"text/html":"https://www.gutenberg.org/ebooks/71564.html.images","application/epub+zip":"https://www.gutenberg.org/ebooks/71564.epub3.images","application/x-mobipocket-ebook":"https://www.gutenberg.org/ebooks/71564.kf8.images","text/plain; charset=us-ascii":"https://www.gutenberg.org/ebooks/71564.txt.utf-8","application/rdf+xml":"https://www.gutenberg.org/ebooks/71564.rdf","image/jpeg":"https://www.gutenberg.org/cache/epub/71564/pg71564.cover.medium.jpg","application/octet-stream":"https://www.gutenberg.org/files/71564/71564-h.zip"},"download_count":23},{"id":71600,"title":"True heroism","authors":[{"name":"A. L. O. E.","birth_year":1821,"death_year":1893}],"translators":[],"subjects":["Children -- Conduct of life -- Juvenile fiction","Christian life -- Juvenile fiction","Courage -- Juvenile fiction","Friendship -- Juvenile fiction","Heroes -- Juvenile fiction","Voyages and travels -- Juvenile fiction"],"bookshelves":[],"languages":["en"],"copyright":false,"media_type":"Text","formats":{"text/html":"https://www.gutenberg.org/ebooks/71600.html.images","application/epub+zip":"https://www.gutenberg.org/ebooks/71600.epub3.images","application/x-mobipocket-ebook":"https://www.gutenberg.org/ebooks/71600.kf8.images","text/plain; charset=us-ascii":"https://www.gutenberg.org/ebooks/71600.txt.utf-8","application/rdf+xml":"https://www.gutenberg.org/ebooks/71600.rdf","image/jpeg":"https://www.gutenberg.org/cache/epub/71600/pg71600.cover.medium.jpg","application/octet-stream":"https://www.gutenberg.org/files/71600/71600-h.zip"},"download_count":23},{"id":71610,"title":"Trotwood's Monthly, Vol. II, No. 1, April, 1906","authors":[{"name":"Various","birth_year":null,"death_year":null}],"translators":[],"subjects":["Agriculture -- Southern States -- Periodicals","Horses -- Periodicals","Southern States -- Periodicals"],"bookshelves":[],"languages":["en"],"copyright":false,"media_type":"Text","formats":{"text/html":"https://www.gutenberg.org/ebooks/71610.html.images","application/epub+zip":"https://www.gutenberg.org/ebooks/71610.epub3.images","application/x-mobipocket-ebook":"https://www.gutenberg.org/ebooks/71610.kf8.images","text/plain; charset=us-ascii":"https://www.gutenberg.org/ebooks/71610.txt.utf-8","application/rdf+xml":"https://www.gutenberg.org/ebooks/71610.rdf","image/jpeg":"https://www.gutenberg.org/cache/epub/71610/pg71610.cover.medium.jpg","application/octet-stream":"https://www.gutenberg.org/files/71610/71610-h.zip"},"download_count":23}]}