{"count":58808,"next":"http://129.241.150.113:8000/books/?languages=en&page=1788","previous":"http://129.241.150.113:8000/books/?languages=en&page=1786","results":[{"id":8256,"title":"The World English Bible (WEB): Joel","authors":[{"name":"Anonymous","birth_year":null,"death_year":null}],"translators":[],"subjects":["Bible. Joel"],"bookshelves":[],"languages":["en"],"copyright":false,"media_type":"Text","formats":{"text/html":"https://www.gutenberg.org/ebooks/8256.html.images","application/epub+zip":"https://www.gutenberg.org/ebooks/8256.epub3.images","application/x-mobipocket-ebook":"https://www.gutenberg.org/ebooks/8256.kf8.images","text/plain; charset=us-ascii":"https://www.gutenberg.org/ebooks/8256.txt.utf-8","application/rdf+xml":"https://www.gutenberg.org/ebooks/8256.rdf","image/jpeg":"https://www.gutenberg.org/cache/epub/8256/pg8256.cover.medium.jpg","application/octet-stream":"https://www.gutenberg.org/cache/epub/8256/pg8256-h.zip"},"download_count":13},{"id":8261,"title":"The World English Bible (WEB): Nahum","authors":[{"name":"Anonymous","birth_year":null,"death_year":null}],"translators":[],"subjects":["Bible. Nahum"],"bookshelves":[],"languages":["en"],"copyright":false,"media_type":"Text","formats":{"text/html":"https://www.gutenberg.org/ebooks/8261.html.images","application/epub+zip":"https://www.gutenberg.org/ebooks/8261.epub3.images","application/x-mobipocket-ebook":"https://www.gutenberg.org/ebooks/8261.kf8.images","text/plain; charset=us-ascii":"https://www.gutenberg.org/ebooks/8261.txt.utf-8","application/rdf+xml":"https://www.gutenberg.org/ebooks/8261.rdf","image/jpeg":"https://www.gutenberg.org/cache/epub/8261/pg8261.cover.medium.jpg","application/octet-stream":"https://www.gutenberg.org/cache/epub/8261/pg8261-h.zip"},"download_count":13},{"id":8288,"title":"The World English Bible (WEB): 2 Peter","authors":[{"name":"Anonymous","birth_year":null,"death_year":null}],"translators":[],"subjects":["Bible. Peter, 2nd"],"bookshelves":[],"languages":["en"],"copyright":false,"media_type":"Text","formats":{"text/html":"https://www.gutenberg.org/ebooks/8288.html.images","application/epub+zip":"https://www.gutenberg.org/ebooks/8288.epub3.images","application/x-mobipocket-ebook":"https://www.gutenberg.org/ebooks/8288.kf8.images","text/plain; charset=us-ascii":"https://www.gutenberg.org/ebooks/8288.txt.utf-8","application/rdf+xml":"https://www.gutenberg.org/ebooks/8288.rdf","image/jpeg":"https://www.gutenberg.org/cache/epub/8288/pg8288.cover.medium.jpg","application/octet-stream":"https://www.gutenberg.org/cache/epub/8288/pg8288-h.zip"},"download_count":13},{"id":8307,"title":"The Bible, Douay-Rheims, Book 07: Judges: The Challoner Revision","authors":[],"translators":[],"subjects":["Bible. Judges"],"bookshelves":[],"languages":["en"],"copyright":false,"media_type":"Text","formats":{"text/html":"https://www.gutenberg.org/ebooks/8307.html.images","application/epub+zip":"https://www.gutenberg.org/ebooks/8307.epub3.images","application/x-mobipocket-ebook":"https://www.gutenberg.org/ebooks/8307.kf8.images","text/plain; charset=us-ascii":"https://www.gutenberg.org/ebooks/8307.txt.utf-8","application/rdf+xml":"https://www.gutenberg.org/ebooks/8307.rdf","image/jpeg":"https://www.gutenberg.org/cache/epub/8307/pg8307.cover.medium.jpg","application/octet-stream":"https://www.gutenberg.org/cache/epub/8307/pg8307-h.zip"},"download_count":13},{"id":8323,"title":"The Bible, Douay-Rheims, Book 23: Ecclesiastes: The Challoner Revision","authors":[],"translators":[],"subjects":["Bible. Ecclesiastes"],"bookshelves":[],"languages":["en"],"copyright":false,"media_type":"Text","formats":{"text/html":"https://www.gutenberg.org/ebooks/8323.html.images","application/epub+zip":"https://www.gutenberg.org/ebooks/8323.epub3.images","application/x-mobipocket-ebook":"https://www.gutenberg.org/ebooks/8323.kf8.images","text/plain; charset=us-ascii":"https://www.gutenberg.org/ebooks/8323.txt.utf-8","application/rdf+xml":"https://www.gutenberg.org/ebooks/8323.rdf","image/jpeg":"https://www.gutenberg.org/cache/epub/8323/pg8323.cover.medium.jpg","application/octet-stream":"https://www.gutenberg.org/cache/epub/8323/pg8323-h.zip"},"download_count":13},{"id":8350,"title":"The Bible, Douay-Rheims, Book 50: John: The Challoner Revision","authors":[],"translators":[],"subjects":["Bible. John"],"bookshelves":[],"languages":["en"],"copyright":false,"media_type":"Text","formats":{"text/html":"https://www.gutenberg.org/ebooks/8350.html.images","application/epub+zip":"https://www.gutenberg.org/ebooks/8350.epub3.images","application/x-mobipocket-ebook":"https://www.gutenberg.org/ebooks/8350.kf8.images","text/plain; charset=us-ascii":"https://www.gutenberg.org/ebooks/8350.txt.utf-8","application/rdf+xml":"https://www.gutenberg.org/ebooks/8350.rdf","image/jpeg":"https://www.gutenberg.org/cache/epub/8350/pg8350.cover.medium.jpg","application/octet-stream":"https://www.gutenberg.org/cache/epub/8350/pg8350-h.zip"},"download_count":13},{"id":8357,"title":"The Bible, Douay-Rheims, Book 57: Philippians: The Challoner Revision","authors":[],"translators":[],"subjects":["Bible. Philippians"],"bookshelves":[],"languages":["en"],"copyright":false,"media_type":"Text","formats":{"text/html":"https://www.gutenberg.org/ebooks/8357.html.images","application/epub+zip":"https://www.gutenberg.org/ebooks/8357.epub3.images","application/x-mobipocket-ebook":"https://www.gutenberg.org/ebooks/8357.kf8.images","text/plain; charset=us-ascii":"https://www.gutenberg.org/ebooks/8357.txt.utf-8","application/rdf+xml":"https://www.gutenberg.org/ebooks/8357.rdf","image/jpeg":"https://www.gutenberg.org/cache/epub/8357/pg8357.cover.medium.jpg","application/octet-stream":"https://www.gutenberg.org/cache/epub/8357/pg8357-h.zip"},"download_count":13},{"id":8361,"title":"The Bible, Douay-Rheims, Book 61: 1 Timothy: The Challoner Revision","authors":[],"translators":[],"subjects":["Bible. Timothy, 1st"],"bookshelves":[],"languages":["en"],"copyright":false,"media_type":"Text","formats":{"text/html":"https://www.gutenberg.org/ebooks/8361.html.images","application/epub+zip":"https://www.gutenberg.org/ebooks/8361.epub3.images","application/x-mobipocket-ebook":"https://www.gutenberg.org/ebooks/8361.kf8.images","text/plain; charset=us-ascii":"https://www.gutenberg.org/ebooks/8361.txt.utf-8","application/rdf+xml":"https://www.gutenberg.org/ebooks/8361.rdf","image/jpeg":"https://www.gutenberg.org/cache/epub/8361/pg8361.cover.medium.jpg","application/octet-stream":"https://www.gutenberg.org/cache/epub/8361/pg8361-h.zip"},"download_count":13},{"id":8367,"title":"The Bible, Douay-Rheims, Book 67: 1 Peter: The Challoner Revision","authors":[],"translators":[],"subjects":["Bible. Peter, 1st"],"bookshelves":[],"languages":["en"],"copyright":false,"media_type":"Text","formats":{"text/html":"https://www.gutenberg.org/ebooks/8367.html.images","application/epub+zip":"https://www.gutenberg.org/ebooks/8367.epub3.images","application/x-mobipocket-ebook":"https://www.gutenberg.org/ebooks/8367.kf8.images","text/plain; charset=us-ascii":"https://www.gutenberg.org/ebooks/8367.txt.utf-8","application/rdf+xml":"https://www.gutenberg.org/ebooks/8367.rdf","image/jpeg":"https://www.gutenberg.org/cache/epub/8367/pg8367.cover.medium.jpg","application/octet-stream":"https://www.gutenberg.org/cache/epub/8367/pg8367-h.zip"},"download_count":13},{"id":8370,"title":"The Bible, Douay-Rheims, Book 70: 2 John: The Challoner Revision","authors":[],"translators":[],"subjects":["Bible. Epistle of John, 2nd"],"bookshelves":[],"languages":["en"],"copyright":false,"media_type":"Text","formats":{"text/html":"https://www.gutenberg.org/ebooks/8370.html.images","application/epub+zip":"https://www.gutenberg.org/ebooks/8370.epub3.images","application/x-mobipocket-ebook":"https://www.gutenberg.org/ebooks/8370.kf8.images","text/plain; charset=us-ascii":"https://www.gutenberg.org/ebooks/8370.txt.utf-8","application/rdf+xml":"https://www.gutenberg.org/ebooks/8370.rdf","image/jpeg":"https://www.gutenberg.org/cache/epub/8370/pg8370.cover.medium.jpg","application/octet-stream":"https://www.gutenberg.org/cache/epub/8370/pg8370-h.zip"},"download_count":13},{"id":8372,"title":"The Bible, Douay-Rheims, Book 72: Jude: The Challoner Revision","authors":[],"translators":[],"subjects":["Bible. Jude"],"bookshelves":[],"languages":["en"],"copyright":false,"media_type":"Text","formats":{"text/html":"https://www.gutenberg.org/ebooks/8372.html.images","application/epub+zip":"https://www.gutenberg.org/ebooks/8372.epub3.images","application/x-mobipocket-ebook":"https://www.gutenberg.org/ebooks/8372.kf8.images","text/plain; charset=us-ascii":"https://www.gutenberg.org/ebooks/8372.txt.utf-8","application/rdf+xml":"https://www.gutenberg.org/ebooks/8372.rdf","image/jpeg":"https://www.gutenberg.org/cache/epub/8372/pg8372.cover.medium.jpg","application/octet-stream":"https://www.gutenberg.org/cache/epub/8372/pg8372-h.zip"},"download_count":13},{"id":8450,"title":"The elements of character","authors":[{"name":"Ware, Mary G. (Mary Greene)","birth_year":1818,"death_year":null}],"translators":[],"subjects":["Character"],"bookshelves":[],"languages":["en"],"copyright":false,"media_type":"Text","formats":{"text/html":"https://www.gutenberg.org/ebooks/8450.html.images","application/epub+zip":"https://www.gutenberg.org/ebooks/8450.epub3.images","application/x-mobipocket-ebook":"https://www.gutenberg.org/ebooks/8450.kf8.images","text/plain; charset=us-ascii":"https://www.gutenberg.org/ebooks/8450.txt.utf-8","text/plain; charset=iso-8859-1":"https://www.gutenberg.org/files/8450/8450-8.txt","application/rdf+xml":"https://www.gutenberg.org/ebooks/8450.rdf","image/jpeg":"https://www.gutenberg.org/cache/epub/8450/pg8450.cover.medium.jpg","application/octet-stream":"https://www.gutenberg.org/cache/epub/8450/pg8450-h.zip"},"download_count":13},{"id":8514,"title":"The Three Cities Trilogy: Lourdes, Volume 4","authors":[{"name":"Zola, Émile","birth_year":1840,"death_year":1902}],"translators":[{"name":"Vizetelly, Ernest Alfred","birth_year":1853,"death_year":1922}],"subjects":["Catholics -- Fiction","Christian pilgrims and pilgrimages -- Fiction","Clergy -- Fiction","Lourdes (France) -- Fiction"],"bookshelves":[],"languages":["en"],"copyright":false,"media_type":"Text","formats":{"text/html":"https://www.gutenberg.org/ebooks/8514.html.images","application/epub+zip":"https://www.gutenberg.org/ebooks/8514.epub3.images","application/x-mobipocket-ebook":"https://www.gutenberg.org/ebooks/8514.kf8.images","text/plain; charset=us-ascii":"https://www.gutenberg.org/ebooks/8514.txt.utf-8","application/rdf+xml":"https://www.gutenberg.org/ebooks/8514.rdf","image/jpeg":"https://www.gutenberg.org/cache/epub/8514/pg8514.cover.medium.jpg","application/octet-stream":"https://www.gutenberg.org/cache/epub/8514/pg8514-h.zip"},"download_count":13},{"id":8546,"title":"Two Summers in Guyenne: A Chronicle of the Wayside and Waterside","authors":[{"name":"Barker, Edward Harrison","birth_year":1851,"death_year":1919}],"translators":[],"subjects":["Guyenne (France)"],"bookshelves":[],"languages":["en"],"copyright":false,"media_type":"Text","formats":{"text/html":"https://www.gutenberg.org/ebooks/8546.html.images","application/epub+zip":"https://www.gutenberg.org/ebooks/8546.epub3.images","application/x-mobipocket-ebook":"https://www.gutenberg.org/ebooks/8546.kf8.images","text/plain; charset=us-ascii":"https://www.gutenberg.org/ebooks/8546.txt.utf-8","text/plain; charset=iso-8859-1":"https://www.gutenberg.org/files/8546/8546-8.txt","application/rdf+xml":"https://www.gutenberg.org/ebooks/8546.rdf","image/jpeg":"https://www.gutenberg.org/cache/epub/8546/pg8546.cover.medium.jpg","application/octet-stream":"https://www.gutenberg.org/cache/epub/8546/pg8546-h.zip"},"download_count":13},{"id":8664,"title":"The Glory of the Conquered: The Story of a Great Love","authors":[{"name":"Glaspell, Susan","birth_year":1876,"death_year":1948}],"translators":[],"subjects":["Artists -- Fiction","Chicago (Ill.) -- Fiction","Love stories","Married people -- Fiction","Scientists -- Fiction"],"bookshelves":[],"languages":["en"],"copyright":false,"media_type":"Text","formats":{"text/html":"https://www.gutenberg.org/ebooks/8664.html.images","application/epub+zip":"https://www.gutenberg.org/ebooks/8664.epub3.images","application/x-mobipocket-ebook":"https://www.gutenberg.org/ebooks/8664.kf8.images","text/plain; charset=us-ascii":"https://www.gutenberg.org/ebooks/8664.txt.utf-8","application/rdf+xml":"https://www.gutenberg.org/ebooks/8664.rdf","image/jpeg":"https://www.gutenberg.org/cache/epub/8664/pg8664.cover.medium.jpg","application/octet-stream":"https://www.gutenberg.org/cache/epub/8664/pg8664-h.zip"},"download_count":13},{"id":8948,"title":"Poems on Serious and Sacred Subjects: Printed only as Private Tokens of Regard, for the Particular Friends of the Author","authors":[{"name":"Hayley, William","birth_year":1745,"death_year":1820}],"translators":[],"subjects":["English poetry"],"bookshelves":[],"languages":["en"],"copyright":false,"media_type":"Text","formats":{"text/html":"https://www.gutenberg.org/ebooks/8948.html.images","application/epub+zip":"https://www.gutenberg.org/ebooks/8948.epub3.images","application/x-mobipocket-ebook":"https://www.gutenberg.org/ebooks/8948.kf8.images","text/plain; charset=us-ascii":"https://www.gutenberg.org/ebooks/8948.txt.utf-8","application/rdf+xml":"https://www.gutenberg.org/ebooks/8948.rdf","image/jpeg":"https://www.gutenberg.org/cache/epub/8948/pg8948.cover.medium.jpg","application/octet-stream":"https://www.gutenberg.org/cache/epub/8948/pg8948-h.zip"},"download_count":13},{"id":9015,"title":"The Curious Republic of Gondour, and Other Whimsical Sketches","authors":[{"name":"Twain, Mark","birth_year":1835,"death_year":1910}],"translators":[],"subjects":["Essays","Short stories"],"bookshelves":[],"languages":["en"],"copyright":true,"media_type":"Sound","formats":{"text/plain; charset=us-ascii":"https://www.gutenberg.org/files/9015/9015-readme.txt","text/html; charset=iso-8859-1":"https://www.gutenberg.org/files/9015/9015-index.htm","audio/mpeg":"https://www.gutenberg.org/files/9015/mp3/9015-000.mp3","application/rdf+xml":"https://www.gutenberg.org/ebooks/9015.rdf","application/octet-stream":"https://www.gutenberg.org/files/9015/9015-mp3.zip"},"download_count":13},{"id":9277,"title":"Crucial Instances","authors":[{"name":"Wharton, Edith","birth_year":1862,"death_year":1937}],"translators":[],"subjects":["American fiction -- 19th century","Short stories, American"],"bookshelves":[],"languages":["en"],"copyright":true,"media_type":"Sound","formats":{"text/plain; charset=us-ascii":"https://www.gutenberg.org/files/9277/9277-readme.txt","text/html; charset=iso-8859-1":"https://www.gutenberg.org/files/9277/9277-index.htm","audio/mpeg":"https://www.gutenberg.org/files/9277/mp3/9277-000.mp3","application/rdf+xml":"https://www.gutenberg.org/ebooks/9277.rdf","application/octet-stream":"https://www.gutenberg.org/files/9277/9277-mp3.zip"},"download_count":13},{"id":9339,"title":"A Personal Record","authors":[{"name":"Conrad, Joseph","birth_year":1857,"death_year":1924}],"translators":[],"subjects":["Conrad, Joseph, 1857-1924","Novelists, English -- 20th century -- Biography"],"bookshelves":[],"languages":["en"],"copyright":true,"media_type":"Sound","formats":{"text/plain; charset=us-ascii":"https://www.gutenberg.org/files/9339/9339-readme.txt","text/html; charset=iso-8859-1":"https://www.gutenberg.org/files/9339/9339-index.htm","audio/mpeg":"https://www.gutenberg.org/files/9339/mp3/9339-000.mp3","application/rdf+xml":"https://www.gutenberg.org/ebooks/9339.rdf","application/octet-stream":"https://www.gutenberg.org/files/9339/9339-mp3.zip"},"download_count":13},{"id":9357,"title":"Typhoon","authors":[{"name":"Conrad, Joseph","birth_year":1857,"death_year":1924}],"translators":[],"subjects":["Adventure stories","Sea stories"],"bookshelves":[],"languages":["en"],"copyright":true,"media_type":"Sound","formats":{"text/plain; charset=us-ascii":"https://www.gutenberg.org/files/9357/9357-readme.txt","text/html; charset=iso-8859-1":"https://www.gutenberg.org/files/9357/9357-index.htm","audio/mpeg":"https://www.gutenberg.org/files/9357/mp3/9357-000.mp3","application/rdf+xml":"https://www.gutenberg.org/ebooks/9357.rdf","application/octet-stream":"https://www.gutenberg.org/files/9357/9357-mp3.zip"},"download_count":13},{"id":9391,"title":"The Atlantic Monthly, Volume 04, No. 25, November, 1859: A Magazine of Literature, Art, and Politics","authors":[{"name":"Various","birth_year":null,"death_year":null}],"translators":[],"subjects":["American periodicals"],"bookshelves":["The Atlantic Monthly"],"languages":["en"],"copyright":false,"media_type":"Text","formats":{"text/html":"https://www.gutenberg.org/ebooks/9391.html.images","application/epub+zip":"https://www.gutenberg.org/ebooks/9391.epub3.images","application/x-mobipocket-ebook":"https://www.gutenberg.org/ebooks/9391.kf8.images","text/plain; charset=us-ascii":"https://www.gutenberg.org/ebooks/9391.txt.utf-8","text/plain; charset=iso-8859-1":"https://www.gutenberg.org/files/9391/9391-8.txt","application/rdf+xml":"https://www.gutenberg.org/ebooks/9391.rdf","image/jpeg":"https://www.gutenberg.org/cache/epub/9391/pg9391.cover.medium.jpg","application/octet-stream":"https://www.gutenberg.org/cache/epub/9391/pg9391-h.zip"},"download_count":13},{"id":9422,"title":"A Laodicean","authors":[{"name":"Hardy, Thomas","birth_year":1840,"death_year":1928}],"translators":[],"subjects":["Architects -- Fiction","Castles -- Conservation and restoration -- Fiction","Love stories","Wessex (England) -- Fiction"],"bookshelves":[],"languages":["en"],"copyright":true,"media_type":"Sound","formats":{"text/plain; charset=us-ascii":"https://www.gutenberg.org/files/9422/9422-readme.txt","text/html; charset=iso-8859-1":"https://www.gutenberg.org/files/9422/9422-index.htm","audio/mpeg":"https://www.gutenberg.org/files/9422/mp3/9422-000.mp3","application/rdf+xml":"https://www.gutenberg.org/ebooks/9422.rdf","application/octet-stream":"https://www.gutenberg.org/files/9422/9422-mp3.zip"},"download_count":13},{"id":9434,"title":"Time's Laughingstocks and Other Verses","authors":[{"name":"Hardy, Thomas","birth_year":1840,"death_year":1928}],"translators":[],"subjects":["English poetry"],"bookshelves":[],"languages":["en"],"copyright":true,"media_type":"Sound","formats":{"text/plain; charset=us-ascii":"https://www.gutenberg.org/files/9434/9434-readme.txt","text/html; charset=iso-8859-1":"https://www.gutenberg.org/files/9434/9434-index.htm","audio/mpeg":"https://www.gutenberg.org/files/9434/mp3/9434-000.mp3","application/rdf+xml":"https://www.gutenberg.org/ebooks/9434.rdf","application/octet-stream":"https://www.gutenberg.org/files/9434/9434-mp3.zip"},"download_count":13},{"id":9535,"title":"Men's Wives","authors":[{"name":"Thackeray, William Makepeace","birth_year":1811,"death_year":1863}],"translators":[],"subjects":["Great Britain -- Social life and customs -- 19th century -- Fiction"],"bookshelves":[],"languages":["en"],"copyright":true,"media_type":"Sound","formats":{"text/plain; charset=us-ascii":"https://www.gutenberg.org/files/9535/9535-readme.txt","text/html; charset=iso-8859-1":"https://www.gutenberg.org/files/9535/9535-index.htm","audio/mpeg":"https://www.gutenberg.org/files/9535/mp3/9535-000.mp3","application/rdf+xml":"https://www.gutenberg.org/ebooks/9535.rdf","application/octet-stream":"https://www.gutenberg.org/files/9535/9535-mp3.zip"},"download_count":13},{"id":9537,"title":"The History of Pendennis","authors":[{"name":"Thackeray, William Makepeace","birth_year":1811,"death_year":1863}],"translators":[],"subjects":["Autobiographical fiction","Bildungsromans","Great Britain -- History -- Victoria, 1837-1901 -- Fiction","Humorous stories","Young men -- Fiction"],"bookshelves":[],"languages":["en"],"copyright":true,"media_type":"Sound","formats":{"text/plain; charset=us-ascii":"https://www.gutenberg.org/files/9537/9537-readme.txt","text/html; charset=iso-8859-1":"https://www.gutenberg.org/files/9537/9537-index.htm","audio/mpeg":"https://www.gutenberg.org/files/9537/mp3/9537-000.mp3","application/rdf+xml":"https://www.gutenberg.org/ebooks/9537.rdf","application/octet-stream":"https://www.gutenberg.org/files/9537/9537-mp3.zip"},"download_count":13},{"id":9541,"title":"The Wolves and the Lamb","authors":[{"name":"Thackeray, William Makepeace","birth_year":1811,"death_year":1863}],"translators":[],"subjects":["English drama -- 19th century"],"bookshelves":[],"languages":["en"],"copyright":true,"media_type":"Sound","formats":{"text/plain; charset=us-ascii":"https://www.gutenberg.org/files/9541/9541-readme.txt","text/html; charset=iso-8859-1":"https://www.gutenberg.org/files/9541/9541-index.htm","audio/mpeg":"https://www.gutenberg.org/files/9541/mp3/9541-000.mp3","application/rdf+xml":"https://www.gutenberg.org/ebooks/9541.rdf","application/octet-stream":"https://www.gutenberg.org/files/9541/9541-mp3.zip"},"download_count":13},{"id":9566,"title":"Bay of Seven Islands, and other poems: Part 7 From Volume I of The Works of John Greenleaf Whittier","authors":[{"name":"Whittier, John Greenleaf","birth_year":1807,"death_year":1892}],"translators":[],"subjects":["American poetry -- 19th century"],"bookshelves":[],"languages":["en"],"copyright":false,"media_type":"Text","formats":{"text/html":"https://www.gutenberg.org/ebooks/9566.html.images","application/epub+zip":"https://www.gutenberg.org/ebooks/9566.epub3.images","application/x-mobipocket-ebook":"https://www.gutenberg.org/ebooks/9566.kf8.images","text/plain; charset=us-ascii":"https://www.gutenberg.org/ebooks/9566.txt.utf-8","application/rdf+xml":"https://www.gutenberg.org/ebooks/9566.rdf","image/jpeg":"https://www.gutenberg.org/cache/epub/9566/pg9566.cover.medium.jpg","application/octet-stream":"https://www.gutenberg.org/cache/epub/9566/pg9566-h.zip"},"download_count":13},{"id":9579,"title":"Songs of Labor and Reform: Part 5 From Volume III of The Works of John Greenleaf Whittier","authors":[{"name":"Whittier, John Greenleaf","birth_year":1807,"death_year":1892}],"translators":[],"subjects":["Poetry"],"bookshelves":[],"languages":["en"],"copyright":false,"media_type":"Text","formats":{"text/html":"https://www.gutenberg.org/ebooks/9579.html.images","application/epub+zip":"https://www.gutenberg.org/ebooks/9579.epub3.images","application/x-mobipocket-ebook":"https://www.gutenberg.org/ebooks/9579.kf8.images","text/plain; charset=us-ascii":"https://www.gutenberg.org/ebooks/9579.txt.utf-8","application/rdf+xml":"https://www.gutenberg.org/ebooks/9579.rdf","image/jpeg":"https://www.gutenberg.org/cache/epub/9579/pg9579.cover.medium.jpg","application/octet-stream":"https://www.gutenberg.org/cache/epub/9579/pg9579-h.zip"},"download_count":13},{"id":9585,"title":"At Sundown, and other poems: Part 5 from Volume IV of The Works of John Greenleaf Whittier","authors":[{"name":"Whittier, John Greenleaf","birth_year":1807,"death_year":1892}],"translators":[],"subjects":["American poetry -- 19th century"],"bookshelves":[],"languages":["en"],"copyright":false,"media_type":"Text","formats":{"text/html":"https://www.gutenberg.org/ebooks/9585.html.images","application/epub+zip":"https://www.gutenberg.org/ebooks/9585.epub3.images","application/x-mobipocket-ebook":"https://www.gutenberg.org/ebooks/9585.kf8.images","text/plain; charset=us-ascii":"https://www.gutenberg.org/ebooks/9585.txt.utf-8","application/rdf+xml":"https://www.gutenberg.org/ebooks/9585.rdf","image/jpeg":"https://www.gutenberg.org/cache/epub/9585/pg9585.cover.medium.jpg","application/octet-stream":"https://www.gutenberg.org/cache/epub/9585/pg9585-h.zip"},"download_count":13},{"id":9716,"title":"The Lamplighter","authors":[{"name":"Dickens, Charles","birth_year":1812,"death_year":1870}],"translators":[],"subjects":["England -- Social life and customs -- 19th century -- Fiction"],"bookshelves":[],"languages":["en"],"copyright":true,"media_type":"Sound","formats":{"text/plain; charset=us-ascii":"https://www.gutenberg.org/files/9716/9716-readme.txt","text/html; charset=iso-8859-1":"https://www.gutenberg.org/files/9716/9716-index.htm","audio/mpeg":"https://www.gutenberg.org/files/9716/mp3/9716-000.mp3","application/rdf+xml":"https://www.gutenberg.org/ebooks/9716.rdf","application/octet-stream":"https://www.gutenberg.org/files/9716/9716-mp3.zip"},"download_count":13},{"id":9723,"title":"Mrs. Lirriper's Legacy","authors":[{"name":"Dickens, Charles","birth_year":1812,"death_year":1870}],"translators":[],"subjects":["Boardinghouses -- Fiction","Great Britain -- History -- Victoria, 1837-1901 -- Fiction","Widows -- Fiction"],"bookshelves":[],"languages":["en"],"copyright":true,"media_type":"Sound","formats":{"text/plain; charset=us-ascii":"https://www.gutenberg.org/files/9723/9723-readme.txt","text/html; charset=iso-8859-1":"https://www.gutenberg.org/files/9723/9723-index.htm","audio/mpeg":"https://www.gutenberg.org/files/9723/mp3/9723-000.mp3","application/rdf+xml":"https://www.gutenberg.org/ebooks/9723.rdf","application/octet-stream":"https://www.gutenberg.org/files/9723/9723-mp3.zip"},"download_count":13},{"id":10014,"title":"Punchinello, Volume 1, No. 18, July 30, 1870","authors":[{"name":"Various","birth_year":null,"death_year":null}],"translators":[],"subjects":["American wit and humor -- Periodicals"],"bookshelves":["Punchinello"],"languages":["en"],"copyright":false,"media_type":"Text","formats":{"text/html":"https://www.gutenberg.org/ebooks/10014.html.images","text/html; charset=iso-8859-1":"https://www.gutenberg.org/files/10014/10014-h/10014-h.htm","application/epub+zip":"https://www.gutenberg.org/ebooks/10014.epub3.images","application/x-mobipocket-ebook":"https://www.gutenberg.org/ebooks/10014.kf8.images","text/plain; charset=us-ascii":"https://www.gutenberg.org/ebooks/10014.txt.utf-8","text/plain; charset=iso-8859-1":"https://www.gutenberg.org/files/10014/10014-8.txt","application/rdf+xml":"https://www.gutenberg.org/ebooks/10014.rdf","image/jpeg":"https://www.gutenberg.org/cache/epub/10014/pg10014.cover.medium.jpg","application/octet-stream":"https://www.gutenberg.org/cache/epub/10014/pg10014-h.zip"},"download_count":13}]}