{"count":58808,"next":"http://129.241.150.113:8000/books/?languages=en&page=1256","previous":"http://129.241.150.113:8000/books/?languages=en&page=1254","results":[{"id":8633,"title":"The Adventure of the Devil's Foot","authors":[{"name":"Doyle, Arthur Conan","birth_year":1859,"death_year":1930}],"translators":[],"subjects":["Detective and mystery stories","Holmes, Sherlock (Fictitious character) -- Fiction","Private investigators -- England -- Fiction"],"bookshelves":[],"languages":["en"],"copyright":true,"media_type":"Sound","formats":{"text/plain; charset=us-ascii":"https://www.gutenberg.org/files/8633/8633-readme.txt","text/html; charset=iso-8859-1":"https://www.gutenberg.org/files/8633/8633-index.htm","audio/mpeg":"https://www.gutenberg.org/files/8633/mp3/8633-000.mp3","application/rdf+xml":"https://www.gutenberg.org/ebooks/8633.rdf"},"download_count":29},{"id":8750,"title":"The warlord of Mars","authors":[{"name":"Burroughs, Edgar Rice","birth_year":1875,"death_year":1950}],"translators":[],"subjects":["Carter, John (Fictitious character) -- Fiction","Dejah Thoris (Fictitious character) -- Fiction","Mars (Planet) -- Fiction","Science fiction"],"bookshelves":["Science Fiction"],"languages":["en"],"copyright":true,"media_type":"Sound","formats":{"text/plain; charset=us-ascii":"https://www.gutenberg.org/files/8750/8750-readme.txt","text/html; charset=iso-8859-1":"https://www.gutenberg.org/files/8750/8750-index.htm","audio/mpeg":"https://www.gutenberg.org/files/8750/mp3/8750-000.mp3","application/rdf+xml":"https://www.gutenberg.org/ebooks/8750.rdf","application/octet-stream":"https://www.gutenberg.org/files/8750/8750-mp3.zip"},"download_count":29},{"id":8827,"title":"Weymouth New Testament in Modern Speech, Preface and Introductions","authors":[{"name":"Weymouth, Richard Francis","birth_year":1822,"death_year":1902}],"translators":[],"subjects":["Bible. New Testament"],"bookshelves":[],"languages":["en"],"copyright":false,"media_type":"Text","formats":{"text/html":"https://www.gutenberg.org/ebooks/8827.html.images","application/epub+zip":"https://www.gutenberg.org/ebooks/8827.epub3.images","application/x-mobipocket-ebook":"https://www.gutenberg.org/ebooks/8827.kf8.images","text/plain; charset=us-ascii":"https://www.gutenberg.org/ebooks/8827.txt.utf-8","application/rdf+xml":"https://www.gutenberg.org/ebooks/8827.rdf","image/jpeg":"https://www.gutenberg.org/cache/epub/8827/pg8827.cover.medium.jpg","application/octet-stream":"https://www.gutenberg.org/cache/epub/8827/pg8827-h.zip"},"download_count":29},{"id":8829,"title":"Weymouth New Testament in Modern Speech, Mark","authors":[{"name":"Weymouth, Richard Francis","birth_year":1822,"death_year":1902}],"translators":[],"subjects":["Bible. Mark"],"bookshelves":[],"languages":["en"],"copyright":false,"media_type":"Text","formats":{"text/html":"https://www.gutenberg.org/ebooks/8829.html.images","application/epub+zip":"https://www.gutenberg.org/ebooks/8829.epub3.images","application/x-mobipocket-ebook":"https://www.gutenberg.org/ebooks/8829.kf8.images","text/plain; charset=us-ascii":"https://www.gutenberg.org/ebooks/8829.txt.utf-8","application/rdf+xml":"https://www.gutenberg.org/ebooks/8829.rdf","image/jpeg":"https://www.gutenberg.org/cache/epub/8829/pg8829.cover.medium.jpg","application/octet-stream":"https://www.gutenberg.org/cache/epub/8829/pg8829-h.zip"},"download_count":29},{"id":8836,"title":"Weymouth New Testament in Modern Speech, Galatians","authors":[{"name":"Weymouth, Richard Francis","birth_year":1822,"death_year":1902}],"translators":[],"subjects":["Bible. Galatians"],"bookshelves":[],"languages":["en"],"copyright":false,"media_type":"Text","formats":{"text/html":"https://www.gutenberg.org/ebooks/8836.html.images","application/epub+zip":"https://www.gutenberg.org/ebooks/8836.epub3.images","application/x-mobipocket-ebook":"https://www.gutenberg.org/ebooks/8836.kf8.images","text/plain; charset=us-ascii":"https://www.gutenberg.org/ebooks/8836.txt.utf-8","application/rdf+xml":"https://www.gutenberg.org/ebooks/8836.rdf","image/jpeg":"https://www.gutenberg.org/cache/epub/8836/pg8836.cover.medium.jpg","application/octet-stream":"https://www.gutenberg.org/cache/epub/8836/pg8836-h.zip"},"download_count":29},{"id":8906,"title":"Mary Slessor of Calabar: Pioneer Missionary","authors":[{"name":"Livingstone, W. P. (William Pringle)","birth_year":1864,"death_year":1950}],"translators":[],"subjects":["Missionaries -- Nigeria -- Biography","Missionaries -- Scotland -- Biography","Slessor, Mary Mitchell, 1848-1915"],"bookshelves":[],"languages":["en"],"copyright":false,"media_type":"Text","formats":{"text/html":"https://www.gutenberg.org/ebooks/8906.html.images","application/epub+zip":"https://www.gutenberg.org/ebooks/8906.epub3.images","application/x-mobipocket-ebook":"https://www.gutenberg.org/ebooks/8906.kf8.images","text/plain; charset=us-ascii":"https://www.gutenberg.org/ebooks/8906.txt.utf-8","text/plain; charset=iso-8859-1":"https://www.gutenberg.org/files/8906/8906-8.txt","application/rdf+xml":"https://www.gutenberg.org/ebooks/8906.rdf","image/jpeg":"https://www.gutenberg.org/cache/epub/8906/pg8906.cover.medium.jpg","application/octet-stream":"https://www.gutenberg.org/cache/epub/8906/pg8906-h.zip"},"download_count":29},{"id":8996,"title":"Practical Suggestions for Mother and Housewife","authors":[{"name":"Miller, Marion Mills","birth_year":1864,"death_year":1949}],"translators":[],"subjects":["Home economics"],"bookshelves":["Technology"],"languages":["en"],"copyright":false,"media_type":"Text","formats":{"text/html":"https://www.gutenberg.org/ebooks/8996.html.images","text/html; charset=us-ascii":"https://www.gutenberg.org/files/8996/8996-h/8996-h.htm","application/epub+zip":"https://www.gutenberg.org/ebooks/8996.epub3.images","application/x-mobipocket-ebook":"https://www.gutenberg.org/ebooks/8996.kf8.images","text/plain; charset=us-ascii":"https://www.gutenberg.org/ebooks/8996.txt.utf-8","application/rdf+xml":"https://www.gutenberg.org/ebooks/8996.rdf","image/jpeg":"https://www.gutenberg.org/cache/epub/8996/pg8996.cover.medium.jpg","application/octet-stream":"https://www.gutenberg.org/cache/epub/8996/pg8996-h.zip"},"download_count":29},{"id":9028,"title":"The Mysterious Stranger","authors":[{"name":"Twain, Mark","birth_year":1835,"death_year":1910}],"translators":[],"subjects":["Humorous stories, American","Short stories","United States -- Social life and customs -- 19th century -- Fiction"],"bookshelves":[],"languages":["en"],"copyright":true,"media_type":"Sound","formats":{"text/plain; charset=us-ascii":"https://www.gutenberg.org/files/9028/9028-readme.txt","text/html; charset=iso-8859-1":"https://www.gutenberg.org/files/9028/9028-index.htm","audio/mpeg":"https://www.gutenberg.org/files/9028/mp3/9028-000.mp3","application/rdf+xml":"https://www.gutenberg.org/ebooks/9028.rdf","application/octet-stream":"https://www.gutenberg.org/files/9028/9028-mp3.zip"},"download_count":29},{"id":9075,"title":"Rico and Wiseli","authors":[{"name":"Spyri, Johanna","birth_year":1827,"death_year":1901}],"translators":[{"name":"Brooks, Louise","birth_year":1835,"death_year":1892}],"subjects":["Italy -- Juvenile fiction","Switzerland -- Juvenile fiction"],"bookshelves":["Children's Literature"],"languages":["en"],"copyright":false,"media_type":"Text","formats":{"text/html":"https://www.gutenberg.org/ebooks/9075.html.images","application/epub+zip":"https://www.gutenberg.org/ebooks/9075.epub3.images","application/x-mobipocket-ebook":"https://www.gutenberg.org/ebooks/9075.kf8.images","text/plain; charset=us-ascii":"https://www.gutenberg.org/ebooks/9075.txt.utf-8","application/rdf+xml":"https://www.gutenberg.org/ebooks/9075.rdf","image/jpeg":"https://www.gutenberg.org/cache/epub/9075/pg9075.cover.medium.jpg","application/octet-stream":"https://www.gutenberg.org/files/9075/9075-8.zip"},"download_count":29},{"id":9111,"title":"The Bride of Dreams","authors":[{"name":"Eeden, Frederik van","birth_year":1860,"death_year":1932}],"translators":[{"name":"Auw, Mellie von","birth_year":1876,"death_year":null}],"subjects":["Fiction"],"bookshelves":[],"languages":["en"],"copyright":false,"media_type":"Text","formats":{"text/html":"https://www.gutenberg.org/ebooks/9111.html.images","application/epub+zip":"https://www.gutenberg.org/ebooks/9111.epub3.images","application/x-mobipocket-ebook":"https://www.gutenberg.org/ebooks/9111.kf8.images","text/plain; charset=us-ascii":"https://www.gutenberg.org/ebooks/9111.txt.utf-8","application/rdf+xml":"https://www.gutenberg.org/ebooks/9111.rdf","image/jpeg":"https://www.gutenberg.org/cache/epub/9111/pg9111.cover.medium.jpg","application/octet-stream":"https://www.gutenberg.org/files/9111/9111-8.zip"},"download_count":29},{"id":9215,"title":"Chippings with a Chisel (From \"Twice Told Tales\")","authors":[{"name":"Hawthorne, Nathaniel","birth_year":1804,"death_year":1864}],"translators":[],"subjects":["Historical fiction, American","New England -- Social life and customs -- Fiction","Short stories"],"bookshelves":["Children's Literature"],"languages":["en"],"copyright":false,"media_type":"Text","formats":{"text/html":"https://www.gutenberg.org/ebooks/9215.html.images","text/html; charset=utf-8":"https://www.gutenberg.org/files/9215/9215-h/9215-h.htm","application/epub+zip":"https://www.gutenberg.org/ebooks/9215.epub3.images","application/x-mobipocket-ebook":"https://www.gutenberg.org/ebooks/9215.kf8.images","text/plain; charset=us-ascii":"https://www.gutenberg.org/ebooks/9215.txt.utf-8","text/plain; charset=utf-8":"https://www.gutenberg.org/files/9215/9215-0.txt","application/rdf+xml":"https://www.gutenberg.org/ebooks/9215.rdf","image/jpeg":"https://www.gutenberg.org/cache/epub/9215/pg9215.cover.medium.jpg","application/octet-stream":"https://www.gutenberg.org/cache/epub/9215/pg9215-h.zip"},"download_count":29},{"id":9247,"title":"Fragments from the Journal of a Solitary Man: (From: \"The Doliver Romance and Other Pieces: Tales and Sketches\")","authors":[{"name":"Hawthorne, Nathaniel","birth_year":1804,"death_year":1864}],"translators":[],"subjects":["Diary fiction"],"bookshelves":[],"languages":["en"],"copyright":false,"media_type":"Text","formats":{"text/html":"https://www.gutenberg.org/ebooks/9247.html.images","text/html; charset=utf-8":"https://www.gutenberg.org/files/9247/9247-h/9247-h.htm","application/epub+zip":"https://www.gutenberg.org/ebooks/9247.epub3.images","application/x-mobipocket-ebook":"https://www.gutenberg.org/ebooks/9247.kf8.images","text/plain; charset=us-ascii":"https://www.gutenberg.org/ebooks/9247.txt.utf-8","text/plain; charset=utf-8":"https://www.gutenberg.org/files/9247/9247-0.txt","application/rdf+xml":"https://www.gutenberg.org/ebooks/9247.rdf","image/jpeg":"https://www.gutenberg.org/cache/epub/9247/pg9247.cover.medium.jpg","application/octet-stream":"https://www.gutenberg.org/cache/epub/9247/pg9247-h.zip"},"download_count":29},{"id":9348,"title":"Some Reminiscences","authors":[{"name":"Conrad, Joseph","birth_year":1857,"death_year":1924}],"translators":[],"subjects":["Authors, English -- 19th century -- Biography","Conrad, Joseph, 1857-1924"],"bookshelves":[],"languages":["en"],"copyright":true,"media_type":"Sound","formats":{"text/plain; charset=us-ascii":"https://www.gutenberg.org/files/9348/9348-readme.txt","text/html; charset=iso-8859-1":"https://www.gutenberg.org/files/9348/9348-index.htm","audio/mpeg":"https://www.gutenberg.org/files/9348/mp3/9348-000.mp3","application/rdf+xml":"https://www.gutenberg.org/ebooks/9348.rdf","application/octet-stream":"https://www.gutenberg.org/files/9348/9348-mp3.zip"},"download_count":29},{"id":9493,"title":"The Atlantic Monthly, Volume 10, No. 57, July, 1862: A Magazine of Literature, Art, and Politics","authors":[{"name":"Various","birth_year":null,"death_year":null}],"translators":[],"subjects":["American periodicals"],"bookshelves":["The Atlantic Monthly"],"languages":["en"],"copyright":false,"media_type":"Text","formats":{"text/html":"https://www.gutenberg.org/ebooks/9493.html.images","application/epub+zip":"https://www.gutenberg.org/ebooks/9493.epub3.images","application/x-mobipocket-ebook":"https://www.gutenberg.org/ebooks/9493.kf8.images","text/plain; charset=us-ascii":"https://www.gutenberg.org/ebooks/9493.txt.utf-8","text/plain; charset=iso-8859-1":"https://www.gutenberg.org/files/9493/9493-8.txt","application/rdf+xml":"https://www.gutenberg.org/ebooks/9493.rdf","image/jpeg":"https://www.gutenberg.org/cache/epub/9493/pg9493.cover.medium.jpg","application/octet-stream":"https://www.gutenberg.org/cache/epub/9493/pg9493-h.zip"},"download_count":29},{"id":9626,"title":"Buried Cities, Volume 2: Olympia","authors":[{"name":"Hall, Jennie","birth_year":1875,"death_year":1921}],"translators":[],"subjects":["Olympia (Greece : Ancient sanctuary)"],"bookshelves":[],"languages":["en"],"copyright":false,"media_type":"Text","formats":{"text/html":"https://www.gutenberg.org/ebooks/9626.html.images","text/html; charset=iso-8859-1":"https://www.gutenberg.org/files/9626/9626-h/9626-h.htm","application/epub+zip":"https://www.gutenberg.org/ebooks/9626.epub3.images","application/x-mobipocket-ebook":"https://www.gutenberg.org/ebooks/9626.kf8.images","text/plain; charset=us-ascii":"https://www.gutenberg.org/ebooks/9626.txt.utf-8","application/rdf+xml":"https://www.gutenberg.org/ebooks/9626.rdf","image/jpeg":"https://www.gutenberg.org/cache/epub/9626/pg9626.cover.medium.jpg","application/octet-stream":"https://www.gutenberg.org/cache/epub/9626/pg9626-h.zip"},"download_count":29},{"id":9671,"title":"Daniel Deronda","authors":[{"name":"Eliot, George","birth_year":1819,"death_year":1880}],"translators":[],"subjects":["Didactic fiction","England -- Fiction","Jewish fiction","Jews -- England -- Fiction","Zionists -- Fiction"],"bookshelves":[],"languages":["en"],"copyright":true,"media_type":"Sound","formats":{"text/plain; charset=us-ascii":"https://www.gutenberg.org/files/9671/9671-readme.txt","text/html; charset=iso-8859-1":"https://www.gutenberg.org/files/9671/9671-index.htm","audio/mpeg":"https://www.gutenberg.org/files/9671/mp3/9671-000.mp3","application/rdf+xml":"https://www.gutenberg.org/ebooks/9671.rdf","application/octet-stream":"https://www.gutenberg.org/files/9671/9671-mp3.zip"},"download_count":29},{"id":9677,"title":"Of Captain Mission","authors":[{"name":"Defoe, Daniel","birth_year":null,"death_year":1731}],"translators":[],"subjects":["Pirates -- Fiction"],"bookshelves":[],"languages":["en"],"copyright":true,"media_type":"Sound","formats":{"text/plain; charset=us-ascii":"https://www.gutenberg.org/files/9677/9677-readme.txt","text/html; charset=iso-8859-1":"https://www.gutenberg.org/files/9677/9677-index.htm","audio/mpeg":"https://www.gutenberg.org/files/9677/mp3/9677-000.mp3","application/rdf+xml":"https://www.gutenberg.org/ebooks/9677.rdf","application/octet-stream":"https://www.gutenberg.org/files/9677/9677-mp3.zip"},"download_count":29},{"id":9762,"title":"Calderon the Courtier, a Tale","authors":[{"name":"Lytton, Edward Bulwer Lytton, Baron","birth_year":1803,"death_year":1873}],"translators":[],"subjects":["Calderón, Rodrigo, -1621 -- Fiction"],"bookshelves":[],"languages":["en"],"copyright":false,"media_type":"Text","formats":{"text/html":"https://www.gutenberg.org/ebooks/9762.html.images","text/html; charset=utf-8":"https://www.gutenberg.org/files/9762/9762-h/9762-h.htm","application/epub+zip":"https://www.gutenberg.org/ebooks/9762.epub3.images","application/x-mobipocket-ebook":"https://www.gutenberg.org/ebooks/9762.kf8.images","text/plain; charset=us-ascii":"https://www.gutenberg.org/ebooks/9762.txt.utf-8","text/plain; charset=utf-8":"https://www.gutenberg.org/files/9762/9762-0.txt","application/rdf+xml":"https://www.gutenberg.org/ebooks/9762.rdf","image/jpeg":"https://www.gutenberg.org/cache/epub/9762/pg9762.cover.medium.jpg","application/octet-stream":"https://www.gutenberg.org/cache/epub/9762/pg9762-h.zip"},"download_count":29},{"id":9836,"title":"The Pawns Count","authors":[{"name":"Oppenheim, E. Phillips (Edward Phillips)","birth_year":1866,"death_year":1946}],"translators":[],"subjects":["Detective and mystery stories"],"bookshelves":["Bestsellers, American, 1895-1923"],"languages":["en"],"copyright":false,"media_type":"Text","formats":{"text/html":"https://www.gutenberg.org/ebooks/9836.html.images","application/epub+zip":"https://www.gutenberg.org/ebooks/9836.epub3.images","application/x-mobipocket-ebook":"https://www.gutenberg.org/ebooks/9836.kf8.images","text/plain; charset=us-ascii":"https://www.gutenberg.org/ebooks/9836.txt.utf-8","text/plain; charset=iso-8859-1":"https://www.gutenberg.org/files/9836/9836-8.txt","application/rdf+xml":"https://www.gutenberg.org/ebooks/9836.rdf","image/jpeg":"https://www.gutenberg.org/cache/epub/9836/pg9836.cover.medium.jpg","application/octet-stream":"https://www.gutenberg.org/cache/epub/9836/pg9836-h.zip"},"download_count":29},{"id":9844,"title":"W. A. G.'s Tale","authors":[{"name":"Turnbull, Margaret","birth_year":1872,"death_year":1942}],"translators":[],"subjects":["Boys -- Juvenile fiction","Orphans -- Juvenile fiction"],"bookshelves":[],"languages":["en"],"copyright":false,"media_type":"Text","formats":{"text/html":"https://www.gutenberg.org/ebooks/9844.html.images","text/html; charset=us-ascii":"https://www.gutenberg.org/files/9844/9844-h/9844-h.htm","application/epub+zip":"https://www.gutenberg.org/ebooks/9844.epub3.images","application/x-mobipocket-ebook":"https://www.gutenberg.org/ebooks/9844.kf8.images","text/plain; charset=us-ascii":"https://www.gutenberg.org/ebooks/9844.txt.utf-8","application/rdf+xml":"https://www.gutenberg.org/ebooks/9844.rdf","image/jpeg":"https://www.gutenberg.org/cache/epub/9844/pg9844.cover.medium.jpg","application/octet-stream":"https://www.gutenberg.org/cache/epub/9844/pg9844-h.zip"},"download_count":29},{"id":9853,"title":"The Mystery of the Four Fingers","authors":[{"name":"White, Fred M. (Fred Merrick)","birth_year":1859,"death_year":1935}],"translators":[],"subjects":["Detective and mystery stories"],"bookshelves":[],"languages":["en"],"copyright":false,"media_type":"Text","formats":{"text/html":"https://www.gutenberg.org/ebooks/9853.html.images","application/epub+zip":"https://www.gutenberg.org/ebooks/9853.epub3.images","application/x-mobipocket-ebook":"https://www.gutenberg.org/ebooks/9853.kf8.images","text/plain; charset=us-ascii":"https://www.gutenberg.org/ebooks/9853.txt.utf-8","application/rdf+xml":"https://www.gutenberg.org/ebooks/9853.rdf","image/jpeg":"https://www.gutenberg.org/cache/epub/9853/pg9853.cover.medium.jpg","application/octet-stream":"https://www.gutenberg.org/cache/epub/9853/pg9853-h.zip"},"download_count":29},{"id":9873,"title":"Till the Clock Stops","authors":[{"name":"Bell, J. J. (John Joy)","birth_year":1871,"death_year":1934}],"translators":[],"subjects":["Adventure stories","Mystery fiction"],"bookshelves":[],"languages":["en"],"copyright":false,"media_type":"Text","formats":{"text/html":"https://www.gutenberg.org/ebooks/9873.html.images","application/epub+zip":"https://www.gutenberg.org/ebooks/9873.epub3.images","application/x-mobipocket-ebook":"https://www.gutenberg.org/ebooks/9873.kf8.images","text/plain; charset=us-ascii":"https://www.gutenberg.org/ebooks/9873.txt.utf-8","text/plain; charset=iso-8859-1":"https://www.gutenberg.org/files/9873/9873-8.txt","application/rdf+xml":"https://www.gutenberg.org/ebooks/9873.rdf","image/jpeg":"https://www.gutenberg.org/cache/epub/9873/pg9873.cover.medium.jpg","application/octet-stream":"https://www.gutenberg.org/cache/epub/9873/pg9873-h.zip"},"download_count":29},{"id":9959,"title":"The Armourer's Prentices","authors":[{"name":"Yonge, Charlotte M. (Charlotte Mary)","birth_year":1823,"death_year":1901}],"translators":[],"subjects":["Great Britain -- History -- Henry VIII, 1509-1547 -- Fiction"],"bookshelves":["Historical Fiction"],"languages":["en"],"copyright":false,"media_type":"Text","formats":{"text/html":"https://www.gutenberg.org/ebooks/9959.html.images","application/epub+zip":"https://www.gutenberg.org/ebooks/9959.epub3.images","application/x-mobipocket-ebook":"https://www.gutenberg.org/ebooks/9959.kf8.images","text/plain; charset=us-ascii":"https://www.gutenberg.org/ebooks/9959.txt.utf-8","text/plain; charset=utf-8":"https://www.gutenberg.org/files/9959/9959-0.txt","application/rdf+xml":"https://www.gutenberg.org/ebooks/9959.rdf","image/jpeg":"https://www.gutenberg.org/cache/epub/9959/pg9959.cover.medium.jpg","application/octet-stream":"https://www.gutenberg.org/cache/epub/9959/pg9959-h.zip"},"download_count":29},{"id":9989,"title":"Bees in Amber: A Little Book of Thoughtful Verse","authors":[{"name":"Oxenham, John","birth_year":1852,"death_year":1941}],"translators":[],"subjects":["Poetry"],"bookshelves":[],"languages":["en"],"copyright":false,"media_type":"Text","formats":{"text/html":"https://www.gutenberg.org/ebooks/9989.html.images","application/epub+zip":"https://www.gutenberg.org/ebooks/9989.epub3.images","application/x-mobipocket-ebook":"https://www.gutenberg.org/ebooks/9989.kf8.images","text/plain; charset=us-ascii":"https://www.gutenberg.org/ebooks/9989.txt.utf-8","text/plain; charset=iso-8859-1":"https://www.gutenberg.org/files/9989/9989-8.txt","application/rdf+xml":"https://www.gutenberg.org/ebooks/9989.rdf","image/jpeg":"https://www.gutenberg.org/cache/epub/9989/pg9989.cover.medium.jpg","application/octet-stream":"https://www.gutenberg.org/cache/epub/9989/pg9989-h.zip"},"download_count":29},{"id":10013,"title":"Punchinello, Volume 1, No. 09, May 28, 1870","authors":[{"name":"Various","birth_year":null,"death_year":null}],"translators":[],"subjects":["American wit and humor -- Periodicals"],"bookshelves":["Punchinello"],"languages":["en"],"copyright":false,"media_type":"Text","formats":{"text/html":"https://www.gutenberg.org/ebooks/10013.html.images","text/html; charset=iso-8859-1":"https://www.gutenberg.org/files/10013/10013-h/10013-h.htm","application/epub+zip":"https://www.gutenberg.org/ebooks/10013.epub3.images","application/x-mobipocket-ebook":"https://www.gutenberg.org/ebooks/10013.kf8.images","text/plain; charset=us-ascii":"https://www.gutenberg.org/ebooks/10013.txt.utf-8","text/plain; charset=iso-8859-1":"https://www.gutenberg.org/files/10013/10013-8.txt","application/rdf+xml":"https://www.gutenberg.org/ebooks/10013.rdf","image/jpeg":"https://www.gutenberg.org/cache/epub/10013/pg10013.cover.medium.jpg","application/octet-stream":"https://www.gutenberg.org/cache/epub/10013/pg10013-h.zip"},"download_count":29},{"id":10044,"title":"The Father of British Canada: a Chronicle of Carleton","authors":[{"name":"Wood, William","birth_year":1864,"death_year":1947}],"translators":[],"subjects":["Canada -- History -- 1763-1867","Canada -- History -- 1775-1783","Dorchester, Guy Carleton, Baron, 1724-1808"],"bookshelves":[],"languages":["en"],"copyright":false,"media_type":"Text","formats":{"text/html":"https://www.gutenberg.org/ebooks/10044.html.images","application/epub+zip":"https://www.gutenberg.org/ebooks/10044.epub3.images","application/x-mobipocket-ebook":"https://www.gutenberg.org/ebooks/10044.kf8.images","text/plain; charset=us-ascii":"https://www.gutenberg.org/ebooks/10044.txt.utf-8","application/rdf+xml":"https://www.gutenberg.org/ebooks/10044.rdf","image/jpeg":"https://www.gutenberg.org/cache/epub/10044/pg10044.cover.medium.jpg","application/octet-stream":"https://www.gutenberg.org/files/10044/10044-h.zip"},"download_count":29},{"id":10124,"title":"Aunt Jane's Nieces and Uncle John","authors":[{"name":"Baum, L. Frank (Lyman Frank)","birth_year":1856,"death_year":1919}],"translators":[],"subjects":["Brigands and robbers -- Juvenile fiction","California -- Juvenile fiction","Cousins -- Juvenile fiction","Family -- Juvenile fiction","Rocky Mountains -- Description and travel -- Juvenile fiction","Uncles -- Juvenile fiction","Voyages and travels -- Juvenile fiction","West (U.S.) -- Juvenile fiction","Western stories","Young women -- Juvenile fiction"],"bookshelves":[],"languages":["en"],"copyright":false,"media_type":"Text","formats":{"text/html":"https://www.gutenberg.org/ebooks/10124.html.images","application/epub+zip":"https://www.gutenberg.org/ebooks/10124.epub3.images","application/x-mobipocket-ebook":"https://www.gutenberg.org/ebooks/10124.kf8.images","text/plain; charset=us-ascii":"https://www.gutenberg.org/ebooks/10124.txt.utf-8","text/plain; charset=iso-8859-1":"https://www.gutenberg.org/files/10124/10124-8.txt","application/rdf+xml":"https://www.gutenberg.org/ebooks/10124.rdf","image/jpeg":"https://www.gutenberg.org/cache/epub/10124/pg10124.cover.medium.jpg","application/octet-stream":"https://www.gutenberg.org/cache/epub/10124/pg10124-h.zip"},"download_count":29},{"id":10127,"title":"Abducted to Oz","authors":[{"name":"Evans, Robert J.","birth_year":null,"death_year":null},{"name":"Dulabone, Chris","birth_year":null,"death_year":null}],"translators":[],"subjects":["Fantasy literature","Oz (Imaginary place) -- Juvenile fiction"],"bookshelves":[],"languages":["en"],"copyright":true,"media_type":"Text","formats":{"text/html":"https://www.gutenberg.org/ebooks/10127.html.images","application/epub+zip":"https://www.gutenberg.org/ebooks/10127.epub3.images","application/x-mobipocket-ebook":"https://www.gutenberg.org/ebooks/10127.kf8.images","text/plain; charset=us-ascii":"https://www.gutenberg.org/ebooks/10127.txt.utf-8","text/plain; charset=iso-8859-1":"https://www.gutenberg.org/files/10127/10127-8.txt","application/rdf+xml":"https://www.gutenberg.org/ebooks/10127.rdf","image/jpeg":"https://www.gutenberg.org/cache/epub/10127/pg10127.cover.medium.jpg","application/octet-stream":"https://www.gutenberg.org/cache/epub/10127/pg10127-h.zip"},"download_count":29},{"id":10225,"title":"Their Crimes","authors":[],"translators":[],"subjects":["World War, 1914-1918 -- Atrocities"],"bookshelves":[],"languages":["en"],"copyright":false,"media_type":"Text","formats":{"text/html":"https://www.gutenberg.org/ebooks/10225.html.images","application/epub+zip":"https://www.gutenberg.org/ebooks/10225.epub3.images","application/x-mobipocket-ebook":"https://www.gutenberg.org/ebooks/10225.kf8.images","text/plain; charset=us-ascii":"https://www.gutenberg.org/ebooks/10225.txt.utf-8","text/plain; charset=iso-8859-1":"https://www.gutenberg.org/files/10225/10225-8.txt","application/rdf+xml":"https://www.gutenberg.org/ebooks/10225.rdf","image/jpeg":"https://www.gutenberg.org/cache/epub/10225/pg10225.cover.medium.jpg","application/octet-stream":"https://www.gutenberg.org/cache/epub/10225/pg10225-h.zip"},"download_count":29},{"id":10236,"title":"International Correspondence School - Spanish Lesson #9","authors":[],"translators":[],"subjects":["Spanish language -- Sound recordings for English speakers"],"bookshelves":["Language Education"],"languages":["en","es"],"copyright":false,"media_type":"Sound","formats":{"text/plain; charset=us-ascii":"https://www.gutenberg.org/files/10236/10236-m/10236-m-readme.txt","audio/mpeg":"https://www.gutenberg.org/files/10236/10236-m/10236-m-001.mp3","application/rdf+xml":"https://www.gutenberg.org/ebooks/10236.rdf"},"download_count":29},{"id":10243,"title":"Radio Program for WAAM, Newark, New Jersey","authors":[],"translators":[],"subjects":["Organ music","Radio programs","Songs with piano"],"bookshelves":[],"languages":["en"],"copyright":false,"media_type":"Sound","formats":{"text/plain; charset=us-ascii":"https://www.gutenberg.org/files/10243/10243-m/10243-m-readme.txt","audio/mpeg":"https://www.gutenberg.org/files/10243/10243-m/10243-m-001.mp3","application/rdf+xml":"https://www.gutenberg.org/ebooks/10243.rdf"},"download_count":29},{"id":10252,"title":"The Old Violin","authors":[],"translators":[],"subjects":["Musicians -- Drama"],"bookshelves":[],"languages":["en"],"copyright":false,"media_type":"Sound","formats":{"text/plain; charset=us-ascii":"https://www.gutenberg.org/files/10252/10252-m/10252-m-readme.txt","audio/mpeg":"https://www.gutenberg.org/files/10252/10252-m/10252-m-001.mp3","application/rdf+xml":"https://www.gutenberg.org/ebooks/10252.rdf"},"download_count":29}]}