{"count":58808,"next":"http://129.241.150.113:8000/books/?languages=en&page=699","previous":"http://129.241.150.113:8000/books/?languages=en&page=697","results":[{"id":69669,"title":"Messalina of the suburbs","authors":[{"name":"Delafield, E. M.","birth_year":1890,"death_year":1943}],"translators":[],"subjects":["English fiction -- 20th century","Man-woman relationships -- Fiction","Murder -- Fiction","Short stories, English","Teenagers -- Fiction"],"bookshelves":[],"languages":["en"],"copyright":false,"media_type":"Text","formats":{"text/html":"https://www.gutenberg.org/ebooks/69669.html.images","application/epub+zip":"https://www.gutenberg.org/ebooks/69669.epub3.images","application/x-mobipocket-ebook":"https://www.gutenberg.org/ebooks/69669.kf8.images","text/plain; charset=us-ascii":"https://www.gutenberg.org/ebooks/69669.txt.utf-8","application/rdf+xml":"https://www.gutenberg.org/ebooks/69669.rdf","image/jpeg":"https://www.gutenberg.org/cache/epub/69669/pg69669.cover.medium.jpg","application/octet-stream":"https://www.gutenberg.org/files/69669/69669-0.zip"},"download_count":48},{"id":69759,"title":"The North-West Passage by land: Being the narrative of an expedition from the Atlantic to the Pacific, undertaken with the view of exploring a route across the continent to British Columbia through British territory, by one of the northern passes in the Rocky Mountains","authors":[{"name":"Cheadle, Walter B. (Walter Butler)","birth_year":1835,"death_year":1910},{"name":"Milton, William Fitzwilliam, Viscount","birth_year":1839,"death_year":1877}],"translators":[],"subjects":["British Columbia -- Description and travel","Northwest, Canadian -- Description and travel"],"bookshelves":[],"languages":["en"],"copyright":false,"media_type":"Text","formats":{"text/html":"https://www.gutenberg.org/ebooks/69759.html.images","application/epub+zip":"https://www.gutenberg.org/ebooks/69759.epub3.images","application/x-mobipocket-ebook":"https://www.gutenberg.org/ebooks/69759.kf8.images","text/plain; charset=us-ascii":"https://www.gutenberg.org/ebooks/69759.txt.utf-8","application/rdf+xml":"https://www.gutenberg.org/ebooks/69759.rdf","image/jpeg":"https://www.gutenberg.org/cache/epub/69759/pg69759.cover.medium.jpg","application/octet-stream":"https://www.gutenberg.org/files/69759/69759-0.zip"},"download_count":48},{"id":70205,"title":"Designs for Crazy Daisy Winder : $b Crochet Time Cut in Half","authors":[{"name":"Hewlett, Esther Parnell","birth_year":1895,"death_year":1975}],"translators":[],"subjects":["Crocheting -- Patterns"],"bookshelves":[],"languages":["en"],"copyright":false,"media_type":"Text","formats":{"text/html":"https://www.gutenberg.org/ebooks/70205.html.images","application/epub+zip":"https://www.gutenberg.org/ebooks/70205.epub3.images","application/x-mobipocket-ebook":"https://www.gutenberg.org/ebooks/70205.kf8.images","text/plain; charset=us-ascii":"https://www.gutenberg.org/ebooks/70205.txt.utf-8","application/rdf+xml":"https://www.gutenberg.org/ebooks/70205.rdf","image/jpeg":"https://www.gutenberg.org/cache/epub/70205/pg70205.cover.medium.jpg","application/octet-stream":"https://www.gutenberg.org/files/70205/70205-0.zip"},"download_count":48},{"id":70258,"title":"The last age of the church","authors":[{"name":"Wycliffe, John‏","birth_year":null,"death_year":1384}],"translators":[],"subjects":["Church history -- Middle Ages, 600-1500 -- Sources"],"bookshelves":[],"languages":["en"],"copyright":false,"media_type":"Text","formats":{"text/html":"https://www.gutenberg.org/ebooks/70258.html.images","application/epub+zip":"https://www.gutenberg.org/ebooks/70258.epub3.images","application/x-mobipocket-ebook":"https://www.gutenberg.org/ebooks/70258.kf8.images","text/plain; charset=us-ascii":"https://www.gutenberg.org/ebooks/70258.txt.utf-8","application/rdf+xml":"https://www.gutenberg.org/ebooks/70258.rdf","image/jpeg":"https://www.gutenberg.org/cache/epub/70258/pg70258.cover.medium.jpg","application/octet-stream":"https://www.gutenberg.org/files/70258/70258-0.zip"},"download_count":48},{"id":70277,"title":"Med Service","authors":[{"name":"Leinster, Murray","birth_year":1896,"death_year":1975}],"translators":[],"subjects":["Adventure stories","Epidemics -- Fiction","Physicians -- Fiction","Science fiction","Space colonies -- Fiction","Space medicine -- Fiction"],"bookshelves":[],"languages":["en"],"copyright":false,"media_type":"Text","formats":{"text/html":"https://www.gutenberg.org/ebooks/70277.html.images","application/epub+zip":"https://www.gutenberg.org/ebooks/70277.epub3.images","application/x-mobipocket-ebook":"https://www.gutenberg.org/ebooks/70277.kf8.images","text/plain; charset=us-ascii":"https://www.gutenberg.org/ebooks/70277.txt.utf-8","application/rdf+xml":"https://www.gutenberg.org/ebooks/70277.rdf","image/jpeg":"https://www.gutenberg.org/cache/epub/70277/pg70277.cover.medium.jpg","application/octet-stream":"https://www.gutenberg.org/files/70277/70277-0.zip"},"download_count":48},{"id":70383,"title":"Combat lessons, no. 1, rank and file in combat : $b What they are doing, how they do it","authors":[{"name":"United States. War Department","birth_year":null,"death_year":null}],"translators":[],"subjects":["Combat -- Periodicals","Command of troops -- Periodicals","Leadership -- Periodicals","Tactics -- Periodicals","World War, 1939-1945 -- Campaigns -- Periodicals","World War, 1939-1945 -- Personal narratives, American -- Periodicals"],"bookshelves":[],"languages":["en"],"copyright":false,"media_type":"Text","formats":{"text/html":"https://www.gutenberg.org/ebooks/70383.html.images","application/epub+zip":"https://www.gutenberg.org/ebooks/70383.epub3.images","application/x-mobipocket-ebook":"https://www.gutenberg.org/ebooks/70383.kf8.images","text/plain; charset=us-ascii":"https://www.gutenberg.org/ebooks/70383.txt.utf-8","application/rdf+xml":"https://www.gutenberg.org/ebooks/70383.rdf","image/jpeg":"https://www.gutenberg.org/cache/epub/70383/pg70383.cover.medium.jpg","application/octet-stream":"https://www.gutenberg.org/files/70383/70383-0.zip"},"download_count":48},{"id":70527,"title":"The Eagle's eye","authors":[{"name":"Cooper, Courtney Ryley","birth_year":1886,"death_year":1940},{"name":"Flynn, William J. (William James)","birth_year":1867,"death_year":1928}],"translators":[],"subjects":["Espionage, German -- United States -- Fiction","Germans -- United States -- Fiction","Spy stories"],"bookshelves":[],"languages":["en"],"copyright":false,"media_type":"Text","formats":{"text/html":"https://www.gutenberg.org/ebooks/70527.html.images","application/epub+zip":"https://www.gutenberg.org/ebooks/70527.epub3.images","application/x-mobipocket-ebook":"https://www.gutenberg.org/ebooks/70527.kf8.images","text/plain; charset=us-ascii":"https://www.gutenberg.org/ebooks/70527.txt.utf-8","application/rdf+xml":"https://www.gutenberg.org/ebooks/70527.rdf","image/jpeg":"https://www.gutenberg.org/cache/epub/70527/pg70527.cover.medium.jpg","application/octet-stream":"https://www.gutenberg.org/files/70527/70527-0.zip"},"download_count":48},{"id":70574,"title":"Little Jack Rabbit's big blue book","authors":[{"name":"Cory, David","birth_year":1872,"death_year":1966}],"translators":[],"subjects":["Animals -- Juvenile fiction","Children's stories","Rabbits -- Juvenile fiction"],"bookshelves":[],"languages":["en"],"copyright":false,"media_type":"Text","formats":{"text/html":"https://www.gutenberg.org/ebooks/70574.html.images","application/epub+zip":"https://www.gutenberg.org/ebooks/70574.epub3.images","application/x-mobipocket-ebook":"https://www.gutenberg.org/ebooks/70574.kf8.images","text/plain; charset=us-ascii":"https://www.gutenberg.org/ebooks/70574.txt.utf-8","application/rdf+xml":"https://www.gutenberg.org/ebooks/70574.rdf","image/jpeg":"https://www.gutenberg.org/cache/epub/70574/pg70574.cover.medium.jpg","application/octet-stream":"https://www.gutenberg.org/files/70574/70574-0.zip"},"download_count":48},{"id":70619,"title":"A history of criticism and literary taste in Europe, from the earliest texts to the present day. Volume 1 (of 3), Classical and mediæval criticism","authors":[{"name":"Saintsbury, George","birth_year":1845,"death_year":1933}],"translators":[],"subjects":["Criticism -- History","Literature -- History and criticism","Literature, Medieval"],"bookshelves":[],"languages":["en"],"copyright":false,"media_type":"Text","formats":{"text/html":"https://www.gutenberg.org/ebooks/70619.html.images","application/epub+zip":"https://www.gutenberg.org/ebooks/70619.epub3.images","application/x-mobipocket-ebook":"https://www.gutenberg.org/ebooks/70619.kf8.images","text/plain; charset=us-ascii":"https://www.gutenberg.org/ebooks/70619.txt.utf-8","application/rdf+xml":"https://www.gutenberg.org/ebooks/70619.rdf","image/jpeg":"https://www.gutenberg.org/cache/epub/70619/pg70619.cover.medium.jpg","application/octet-stream":"https://www.gutenberg.org/files/70619/70619-0.zip"},"download_count":48},{"id":70720,"title":"Alexander's Magazine (Vol. 1, No. 1, May 15, 1905)","authors":[{"name":"Various","birth_year":null,"death_year":null}],"translators":[],"subjects":["African Americans -- Education -- Periodicals","African Americans -- Periodicals"],"bookshelves":[],"languages":["en"],"copyright":false,"media_type":"Text","formats":{"text/html":"https://www.gutenberg.org/ebooks/70720.html.images","application/epub+zip":"https://www.gutenberg.org/ebooks/70720.epub3.images","application/x-mobipocket-ebook":"https://www.gutenberg.org/ebooks/70720.kf8.images","text/plain; charset=us-ascii":"https://www.gutenberg.org/ebooks/70720.txt.utf-8","application/rdf+xml":"https://www.gutenberg.org/ebooks/70720.rdf","image/jpeg":"https://www.gutenberg.org/cache/epub/70720/pg70720.cover.medium.jpg","application/octet-stream":"https://www.gutenberg.org/files/70720/70720-0.zip"},"download_count":48},{"id":70725,"title":"The Republic of Costa Rica","authors":[{"name":"Niederlein, Gustavo","birth_year":1858,"death_year":1924}],"translators":[],"subjects":["Costa Rica"],"bookshelves":[],"languages":["en"],"copyright":false,"media_type":"Text","formats":{"text/html":"https://www.gutenberg.org/ebooks/70725.html.images","application/epub+zip":"https://www.gutenberg.org/ebooks/70725.epub3.images","application/x-mobipocket-ebook":"https://www.gutenberg.org/ebooks/70725.kf8.images","text/plain; charset=us-ascii":"https://www.gutenberg.org/ebooks/70725.txt.utf-8","application/rdf+xml":"https://www.gutenberg.org/ebooks/70725.rdf","image/jpeg":"https://www.gutenberg.org/cache/epub/70725/pg70725.cover.medium.jpg","application/octet-stream":"https://www.gutenberg.org/files/70725/70725-0.zip"},"download_count":48},{"id":70924,"title":"The adventures of Dora Bell, detective","authors":[{"name":"Corbett, George, Mrs.","birth_year":1846,"death_year":1930}],"translators":[],"subjects":["Detective and mystery stories, English","Short stories, English","Women detectives -- Fiction"],"bookshelves":[],"languages":["en"],"copyright":false,"media_type":"Text","formats":{"text/html":"https://www.gutenberg.org/ebooks/70924.html.images","application/epub+zip":"https://www.gutenberg.org/ebooks/70924.epub3.images","application/x-mobipocket-ebook":"https://www.gutenberg.org/ebooks/70924.kf8.images","text/plain; charset=us-ascii":"https://www.gutenberg.org/ebooks/70924.txt.utf-8","application/rdf+xml":"https://www.gutenberg.org/ebooks/70924.rdf","image/jpeg":"https://www.gutenberg.org/cache/epub/70924/pg70924.cover.medium.jpg","application/octet-stream":"https://www.gutenberg.org/files/70924/70924-0.zip"},"download_count":48},{"id":70969,"title":"The Dardanelles campaign","authors":[{"name":"Nevinson, Henry Woodd","birth_year":1856,"death_year":1941}],"translators":[],"subjects":["World War, 1914-1918 -- Campaigns -- Turkey -- Gallipoli Peninsula"],"bookshelves":[],"languages":["en"],"copyright":false,"media_type":"Text","formats":{"text/html":"https://www.gutenberg.org/ebooks/70969.html.images","application/epub+zip":"https://www.gutenberg.org/ebooks/70969.epub3.images","application/x-mobipocket-ebook":"https://www.gutenberg.org/ebooks/70969.kf8.images","text/plain; charset=us-ascii":"https://www.gutenberg.org/ebooks/70969.txt.utf-8","application/rdf+xml":"https://www.gutenberg.org/ebooks/70969.rdf","image/jpeg":"https://www.gutenberg.org/cache/epub/70969/pg70969.cover.medium.jpg","application/octet-stream":"https://www.gutenberg.org/files/70969/70969-0.zip"},"download_count":48},{"id":70999,"title":"The human species","authors":[{"name":"Quatrefages, A. de (Armand de)","birth_year":1810,"death_year":1892}],"translators":[],"subjects":["Anthropology"],"bookshelves":[],"languages":["en"],"copyright":false,"media_type":"Text","formats":{"text/html":"https://www.gutenberg.org/ebooks/70999.html.images","application/epub+zip":"https://www.gutenberg.org/ebooks/70999.epub3.images","application/x-mobipocket-ebook":"https://www.gutenberg.org/ebooks/70999.kf8.images","text/plain; charset=us-ascii":"https://www.gutenberg.org/ebooks/70999.txt.utf-8","application/rdf+xml":"https://www.gutenberg.org/ebooks/70999.rdf","image/jpeg":"https://www.gutenberg.org/cache/epub/70999/pg70999.cover.medium.jpg","application/octet-stream":"https://www.gutenberg.org/files/70999/70999-0.zip"},"download_count":48},{"id":71037,"title":"The gamblers","authors":[{"name":"Le Queux, William","birth_year":1864,"death_year":1927}],"translators":[],"subjects":["Detective and mystery stories","Monte-Carlo (Monaco) -- Fiction","Murder -- Investigation -- Fiction"],"bookshelves":[],"languages":["en"],"copyright":false,"media_type":"Text","formats":{"text/html":"https://www.gutenberg.org/ebooks/71037.html.images","application/epub+zip":"https://www.gutenberg.org/ebooks/71037.epub3.images","application/x-mobipocket-ebook":"https://www.gutenberg.org/ebooks/71037.kf8.images","text/plain; charset=us-ascii":"https://www.gutenberg.org/ebooks/71037.txt.utf-8","application/rdf+xml":"https://www.gutenberg.org/ebooks/71037.rdf","image/jpeg":"https://www.gutenberg.org/cache/epub/71037/pg71037.cover.medium.jpg","application/octet-stream":"https://www.gutenberg.org/files/71037/71037-0.zip"},"download_count":48},{"id":71116,"title":"Practical pathology","authors":[{"name":"Warthin, Aldred Scott","birth_year":1866,"death_year":1931}],"translators":[],"subjects":["Autopsy","Pathology -- Laboratory manuals"],"bookshelves":[],"languages":["en"],"copyright":false,"media_type":"Text","formats":{"text/html":"https://www.gutenberg.org/ebooks/71116.html.images","application/epub+zip":"https://www.gutenberg.org/ebooks/71116.epub3.images","application/x-mobipocket-ebook":"https://www.gutenberg.org/ebooks/71116.kf8.images","text/plain; charset=us-ascii":"https://www.gutenberg.org/ebooks/71116.txt.utf-8","application/rdf+xml":"https://www.gutenberg.org/ebooks/71116.rdf","image/jpeg":"https://www.gutenberg.org/cache/epub/71116/pg71116.cover.medium.jpg","application/octet-stream":"https://www.gutenberg.org/files/71116/71116-0.zip"},"download_count":48},{"id":71342,"title":"The history of the Jews","authors":[{"name":"Deutsch, Gotthard","birth_year":1859,"death_year":1921}],"translators":[],"subjects":["Jews -- History"],"bookshelves":[],"languages":["en"],"copyright":false,"media_type":"Text","formats":{"text/html":"https://www.gutenberg.org/ebooks/71342.html.images","application/epub+zip":"https://www.gutenberg.org/ebooks/71342.epub3.images","application/x-mobipocket-ebook":"https://www.gutenberg.org/ebooks/71342.kf8.images","text/plain; charset=us-ascii":"https://www.gutenberg.org/ebooks/71342.txt.utf-8","application/rdf+xml":"https://www.gutenberg.org/ebooks/71342.rdf","image/jpeg":"https://www.gutenberg.org/cache/epub/71342/pg71342.cover.medium.jpg","application/octet-stream":"https://www.gutenberg.org/files/71342/71342-0.zip"},"download_count":48},{"id":71548,"title":"The Navy eternal : $b which is the Navy-that-Floats, the Navy-that-Flies and the Navy-under-the-Sea","authors":[{"name":"Bartimeus","birth_year":1886,"death_year":1967}],"translators":[],"subjects":["Great Britain. Royal Navy -- Fiction","Sea stories","War stories","World War, 1914-1918 -- Naval operations, British -- Fiction"],"bookshelves":[],"languages":["en"],"copyright":false,"media_type":"Text","formats":{"text/html":"https://www.gutenberg.org/ebooks/71548.html.images","application/epub+zip":"https://www.gutenberg.org/ebooks/71548.epub3.images","application/x-mobipocket-ebook":"https://www.gutenberg.org/ebooks/71548.kf8.images","text/plain; charset=us-ascii":"https://www.gutenberg.org/ebooks/71548.txt.utf-8","application/rdf+xml":"https://www.gutenberg.org/ebooks/71548.rdf","image/jpeg":"https://www.gutenberg.org/cache/epub/71548/pg71548.cover.medium.jpg","application/octet-stream":"https://www.gutenberg.org/files/71548/71548-h.zip"},"download_count":48},{"id":71586,"title":"Deadline","authors":[{"name":"Kleine, Walter L.","birth_year":null,"death_year":null}],"translators":[],"subjects":["Man-woman relationships -- Fiction","Mars (Planet) -- Fiction","Science fiction","Short stories","Space flight to Mars -- Fiction","Survival -- Fiction"],"bookshelves":[],"languages":["en"],"copyright":false,"media_type":"Text","formats":{"text/html":"https://www.gutenberg.org/ebooks/71586.html.images","application/epub+zip":"https://www.gutenberg.org/ebooks/71586.epub3.images","application/x-mobipocket-ebook":"https://www.gutenberg.org/ebooks/71586.kf8.images","text/plain; charset=us-ascii":"https://www.gutenberg.org/ebooks/71586.txt.utf-8","application/rdf+xml":"https://www.gutenberg.org/ebooks/71586.rdf","image/jpeg":"https://www.gutenberg.org/cache/epub/71586/pg71586.cover.medium.jpg","application/octet-stream":"https://www.gutenberg.org/files/71586/71586-h.zip"},"download_count":48},{"id":71587,"title":"The long arm of Fantômas","authors":[{"name":"Allain, Marcel","birth_year":1885,"death_year":1969},{"name":"Souvestre, Pierre","birth_year":1874,"death_year":1914}],"translators":[{"name":"Allinson, A. R. (Alfred Richard)","birth_year":1852,"death_year":1929}],"subjects":["Detective and mystery stories","Fantômas (Fictitious character) -- Fiction"],"bookshelves":[],"languages":["en"],"copyright":false,"media_type":"Text","formats":{"text/html":"https://www.gutenberg.org/ebooks/71587.html.images","application/epub+zip":"https://www.gutenberg.org/ebooks/71587.epub3.images","application/x-mobipocket-ebook":"https://www.gutenberg.org/ebooks/71587.kf8.images","text/plain; charset=us-ascii":"https://www.gutenberg.org/ebooks/71587.txt.utf-8","application/rdf+xml":"https://www.gutenberg.org/ebooks/71587.rdf","image/jpeg":"https://www.gutenberg.org/cache/epub/71587/pg71587.cover.medium.jpg","application/octet-stream":"https://www.gutenberg.org/files/71587/71587-h.zip"},"download_count":48},{"id":71646,"title":"Pilgrims' project","authors":[{"name":"Young, Robert F.","birth_year":1915,"death_year":1986}],"translators":[],"subjects":["Man-woman relationships -- Fiction","Marriage -- Fiction","Science fiction"],"bookshelves":[],"languages":["en"],"copyright":false,"media_type":"Text","formats":{"text/html":"https://www.gutenberg.org/ebooks/71646.html.images","application/epub+zip":"https://www.gutenberg.org/ebooks/71646.epub3.images","application/x-mobipocket-ebook":"https://www.gutenberg.org/ebooks/71646.kf8.images","text/plain; charset=us-ascii":"https://www.gutenberg.org/ebooks/71646.txt.utf-8","application/rdf+xml":"https://www.gutenberg.org/ebooks/71646.rdf","image/jpeg":"https://www.gutenberg.org/cache/epub/71646/pg71646.cover.medium.jpg","application/octet-stream":"https://www.gutenberg.org/files/71646/71646-h.zip"},"download_count":48},{"id":71692,"title":"Toffee takes a trip","authors":[{"name":"Farrell, Henry","birth_year":1920,"death_year":2006}],"translators":[],"subjects":["Fantasy fiction","Science fiction","Subconsciousness -- Fiction"],"bookshelves":[],"languages":["en"],"copyright":false,"media_type":"Text","formats":{"text/html":"https://www.gutenberg.org/ebooks/71692.html.images","application/epub+zip":"https://www.gutenberg.org/ebooks/71692.epub3.images","application/x-mobipocket-ebook":"https://www.gutenberg.org/ebooks/71692.kf8.images","text/plain; charset=us-ascii":"https://www.gutenberg.org/ebooks/71692.txt.utf-8","application/rdf+xml":"https://www.gutenberg.org/ebooks/71692.rdf","image/jpeg":"https://www.gutenberg.org/cache/epub/71692/pg71692.cover.medium.jpg","application/octet-stream":"https://www.gutenberg.org/files/71692/71692-h.zip"},"download_count":48},{"id":71739,"title":"Life in the forests of the Far East (vol. 2 of 2)","authors":[{"name":"St. John, Spenser, Sir","birth_year":1826,"death_year":1910}],"translators":[],"subjects":["Borneo -- Description and travel","Natural history -- Borneo","St. John, Spenser, Sir, 1825-1910 -- Travel -- Borneo"],"bookshelves":[],"languages":["en"],"copyright":false,"media_type":"Text","formats":{"text/html":"https://www.gutenberg.org/ebooks/71739.html.images","application/epub+zip":"https://www.gutenberg.org/ebooks/71739.epub3.images","application/x-mobipocket-ebook":"https://www.gutenberg.org/ebooks/71739.kf8.images","text/plain; charset=us-ascii":"https://www.gutenberg.org/ebooks/71739.txt.utf-8","application/rdf+xml":"https://www.gutenberg.org/ebooks/71739.rdf","image/jpeg":"https://www.gutenberg.org/cache/epub/71739/pg71739.cover.medium.jpg","application/octet-stream":"https://www.gutenberg.org/files/71739/71739-h.zip"},"download_count":48},{"id":71828,"title":"The Todas","authors":[{"name":"Rivers, W. H. R. (William Halse Rivers)","birth_year":1864,"death_year":1922}],"translators":[],"subjects":["Toda (Indic people)"],"bookshelves":[],"languages":["en"],"copyright":false,"media_type":"Text","formats":{"text/html":"https://www.gutenberg.org/ebooks/71828.html.images","application/epub+zip":"https://www.gutenberg.org/ebooks/71828.epub3.images","application/x-mobipocket-ebook":"https://www.gutenberg.org/ebooks/71828.kf8.images","text/plain; charset=us-ascii":"https://www.gutenberg.org/ebooks/71828.txt.utf-8","application/rdf+xml":"https://www.gutenberg.org/ebooks/71828.rdf","image/jpeg":"https://www.gutenberg.org/cache/epub/71828/pg71828.cover.medium.jpg","application/octet-stream":"https://www.gutenberg.org/cache/epub/71828/pg71828-h.zip"},"download_count":48},{"id":71854,"title":"Robert Merry's Museum, Volumes I and II (1841)","authors":[{"name":"Various","birth_year":null,"death_year":null}],"translators":[],"subjects":["Children's literature -- Periodicals"],"bookshelves":[],"languages":["en"],"copyright":false,"media_type":"Text","formats":{"text/html":"https://www.gutenberg.org/ebooks/71854.html.images","application/epub+zip":"https://www.gutenberg.org/ebooks/71854.epub3.images","application/x-mobipocket-ebook":"https://www.gutenberg.org/ebooks/71854.kf8.images","text/plain; charset=us-ascii":"https://www.gutenberg.org/ebooks/71854.txt.utf-8","application/rdf+xml":"https://www.gutenberg.org/ebooks/71854.rdf","image/jpeg":"https://www.gutenberg.org/cache/epub/71854/pg71854.cover.medium.jpg","application/octet-stream":"https://www.gutenberg.org/cache/epub/71854/pg71854-h.zip"},"download_count":48},{"id":71862,"title":"The box of whistles : $b An illustrated book on organ cases: with notes on organs at home and abroad","authors":[{"name":"Norbury, John","birth_year":null,"death_year":null}],"translators":[],"subjects":["Organ (Musical instrument) -- Construction","Organ (Musical instrument) -- Pictorial works"],"bookshelves":[],"languages":["en"],"copyright":false,"media_type":"Text","formats":{"text/html":"https://www.gutenberg.org/ebooks/71862.html.images","application/epub+zip":"https://www.gutenberg.org/ebooks/71862.epub3.images","application/x-mobipocket-ebook":"https://www.gutenberg.org/ebooks/71862.kf8.images","text/plain; charset=us-ascii":"https://www.gutenberg.org/ebooks/71862.txt.utf-8","application/rdf+xml":"https://www.gutenberg.org/ebooks/71862.rdf","image/jpeg":"https://www.gutenberg.org/cache/epub/71862/pg71862.cover.medium.jpg","application/octet-stream":"https://www.gutenberg.org/cache/epub/71862/pg71862-h.zip"},"download_count":48},{"id":71951,"title":"Brothers in arms","authors":[{"name":"Powell, E. Alexander (Edward Alexander)","birth_year":1879,"death_year":1957}],"translators":[],"subjects":["World War, 1914-1918 -- France","World War, 1914-1918 -- United States"],"bookshelves":[],"languages":["en"],"copyright":false,"media_type":"Text","formats":{"text/html":"https://www.gutenberg.org/ebooks/71951.html.images","application/epub+zip":"https://www.gutenberg.org/ebooks/71951.epub3.images","application/x-mobipocket-ebook":"https://www.gutenberg.org/ebooks/71951.kf8.images","text/plain; charset=us-ascii":"https://www.gutenberg.org/ebooks/71951.txt.utf-8","application/rdf+xml":"https://www.gutenberg.org/ebooks/71951.rdf","image/jpeg":"https://www.gutenberg.org/cache/epub/71951/pg71951.cover.medium.jpg","application/octet-stream":"https://www.gutenberg.org/cache/epub/71951/pg71951-h.zip"},"download_count":48},{"id":71972,"title":"The Percheron horse","authors":[{"name":"Du Hays, Charles","birth_year":1818,"death_year":1898}],"translators":[],"subjects":["Draft horses","Percheron horse"],"bookshelves":[],"languages":["en"],"copyright":false,"media_type":"Text","formats":{"text/html":"https://www.gutenberg.org/ebooks/71972.html.images","application/epub+zip":"https://www.gutenberg.org/ebooks/71972.epub3.images","application/x-mobipocket-ebook":"https://www.gutenberg.org/ebooks/71972.kf8.images","text/plain; charset=us-ascii":"https://www.gutenberg.org/ebooks/71972.txt.utf-8","application/rdf+xml":"https://www.gutenberg.org/ebooks/71972.rdf","image/jpeg":"https://www.gutenberg.org/cache/epub/71972/pg71972.cover.medium.jpg","application/octet-stream":"https://www.gutenberg.org/cache/epub/71972/pg71972-h.zip"},"download_count":48},{"id":71992,"title":"Two sailor lads : $b A story of stirring adventures on sea and land","authors":[{"name":"Stables, Gordon","birth_year":1840,"death_year":1910}],"translators":[],"subjects":["Adventure stories","Caves -- Juvenile fiction","Conduct of life -- Juvenile fiction","Fishers -- Juvenile fiction","Friendship -- Juvenile fiction","Islands -- Juvenile fiction","Pirates -- Juvenile fiction","Sailors -- Juvenile fiction","Seafaring life -- Juvenile fiction","Shipwrecks -- Juvenile fiction","Youth -- Conduct of life -- Juvenile fiction"],"bookshelves":[],"languages":["en"],"copyright":false,"media_type":"Text","formats":{"text/html":"https://www.gutenberg.org/ebooks/71992.html.images","application/epub+zip":"https://www.gutenberg.org/ebooks/71992.epub3.images","application/x-mobipocket-ebook":"https://www.gutenberg.org/ebooks/71992.kf8.images","text/plain; charset=us-ascii":"https://www.gutenberg.org/ebooks/71992.txt.utf-8","application/rdf+xml":"https://www.gutenberg.org/ebooks/71992.rdf","image/jpeg":"https://www.gutenberg.org/cache/epub/71992/pg71992.cover.medium.jpg","application/octet-stream":"https://www.gutenberg.org/cache/epub/71992/pg71992-h.zip"},"download_count":48},{"id":72020,"title":"Janet's boys","authors":[{"name":"Lyster, Annette","birth_year":null,"death_year":null}],"translators":[],"subjects":["Christian fiction","Didactic fiction","Domestic fiction","England -- Juvenile fiction","Mothers and sons -- Juvenile fiction"],"bookshelves":[],"languages":["en"],"copyright":false,"media_type":"Text","formats":{"text/html":"https://www.gutenberg.org/ebooks/72020.html.images","application/epub+zip":"https://www.gutenberg.org/ebooks/72020.epub3.images","application/x-mobipocket-ebook":"https://www.gutenberg.org/ebooks/72020.kf8.images","text/plain; charset=us-ascii":"https://www.gutenberg.org/ebooks/72020.txt.utf-8","application/rdf+xml":"https://www.gutenberg.org/ebooks/72020.rdf","image/jpeg":"https://www.gutenberg.org/cache/epub/72020/pg72020.cover.medium.jpg","application/octet-stream":"https://www.gutenberg.org/cache/epub/72020/pg72020-h.zip"},"download_count":48},{"id":72195,"title":"A woman's wanderings and trials during the Anglo-Boer War","authors":[{"name":"De la Rey, Jacoba Elizabeth","birth_year":1856,"death_year":1923}],"translators":[{"name":"Hotz, Lucy","birth_year":null,"death_year":null}],"subjects":["De La Rey, Jacoba Elizabeth, 1856-1923","South African War, 1899-1902 -- Personal narratives"],"bookshelves":[],"languages":["en"],"copyright":false,"media_type":"Text","formats":{"text/html":"https://www.gutenberg.org/ebooks/72195.html.images","application/epub+zip":"https://www.gutenberg.org/ebooks/72195.epub3.images","application/x-mobipocket-ebook":"https://www.gutenberg.org/ebooks/72195.kf8.images","text/plain; charset=us-ascii":"https://www.gutenberg.org/ebooks/72195.txt.utf-8","application/rdf+xml":"https://www.gutenberg.org/ebooks/72195.rdf","image/jpeg":"https://www.gutenberg.org/cache/epub/72195/pg72195.cover.medium.jpg","application/octet-stream":"https://www.gutenberg.org/cache/epub/72195/pg72195-h.zip"},"download_count":48},{"id":72264,"title":"Don Sebastian : $b or, The house of the Braganza: An historical romance. vol. 3","authors":[{"name":"Porter, Anna Maria","birth_year":1778,"death_year":1832}],"translators":[],"subjects":["Sebastião, King of Portugal, 1554-1578 -- Fiction"],"bookshelves":[],"languages":["en"],"copyright":false,"media_type":"Text","formats":{"text/html":"https://www.gutenberg.org/ebooks/72264.html.images","application/epub+zip":"https://www.gutenberg.org/ebooks/72264.epub3.images","application/x-mobipocket-ebook":"https://www.gutenberg.org/ebooks/72264.kf8.images","text/plain; charset=us-ascii":"https://www.gutenberg.org/ebooks/72264.txt.utf-8","application/rdf+xml":"https://www.gutenberg.org/ebooks/72264.rdf","image/jpeg":"https://www.gutenberg.org/cache/epub/72264/pg72264.cover.medium.jpg","application/octet-stream":"https://www.gutenberg.org/cache/epub/72264/pg72264-h.zip"},"download_count":48}]}