{"count":58808,"next":"http://129.241.150.113:8000/books/?languages=en&page=1676","previous":"http://129.241.150.113:8000/books/?languages=en&page=1674","results":[{"id":68994,"title":"Lightning, Thunder and Lightning Conductors","authors":[{"name":"Molloy, Gerald","birth_year":1834,"death_year":1906}],"translators":[],"subjects":["Lightning","Lightning conductors","Thunderstorms"],"bookshelves":[],"languages":["en"],"copyright":false,"media_type":"Text","formats":{"text/html":"https://www.gutenberg.org/ebooks/68994.html.images","application/epub+zip":"https://www.gutenberg.org/ebooks/68994.epub3.images","application/x-mobipocket-ebook":"https://www.gutenberg.org/ebooks/68994.kf8.images","text/plain; charset=us-ascii":"https://www.gutenberg.org/ebooks/68994.txt.utf-8","application/rdf+xml":"https://www.gutenberg.org/ebooks/68994.rdf","image/jpeg":"https://www.gutenberg.org/cache/epub/68994/pg68994.cover.medium.jpg","application/octet-stream":"https://www.gutenberg.org/files/68994/68994-0.zip"},"download_count":19},{"id":69038,"title":"Lot & Company","authors":[{"name":"Comfort, Will Levington","birth_year":1878,"death_year":1932}],"translators":[],"subjects":["Clerks -- Fiction","Ocean travel -- Fiction","Shipwreck survival -- Fiction"],"bookshelves":[],"languages":["en"],"copyright":false,"media_type":"Text","formats":{"text/html":"https://www.gutenberg.org/ebooks/69038.html.images","application/epub+zip":"https://www.gutenberg.org/ebooks/69038.epub3.images","application/x-mobipocket-ebook":"https://www.gutenberg.org/ebooks/69038.kf8.images","text/plain; charset=us-ascii":"https://www.gutenberg.org/ebooks/69038.txt.utf-8","application/rdf+xml":"https://www.gutenberg.org/ebooks/69038.rdf","image/jpeg":"https://www.gutenberg.org/cache/epub/69038/pg69038.cover.medium.jpg","application/octet-stream":"https://www.gutenberg.org/files/69038/69038-0.zip"},"download_count":19},{"id":69068,"title":"The country Christmas","authors":[{"name":"Fox, Frances Margaret","birth_year":1870,"death_year":1959}],"translators":[],"subjects":["Christmas stories","Country life -- Juvenile fiction","Poor families -- Juvenile fiction"],"bookshelves":[],"languages":["en"],"copyright":false,"media_type":"Text","formats":{"text/html":"https://www.gutenberg.org/ebooks/69068.html.images","application/epub+zip":"https://www.gutenberg.org/ebooks/69068.epub3.images","application/x-mobipocket-ebook":"https://www.gutenberg.org/ebooks/69068.kf8.images","text/plain; charset=us-ascii":"https://www.gutenberg.org/ebooks/69068.txt.utf-8","application/rdf+xml":"https://www.gutenberg.org/ebooks/69068.rdf","image/jpeg":"https://www.gutenberg.org/cache/epub/69068/pg69068.cover.medium.jpg","application/octet-stream":"https://www.gutenberg.org/files/69068/69068-0.zip"},"download_count":19},{"id":69075,"title":"The fairy babies","authors":[{"name":"Smith, Laura Rountree","birth_year":1876,"death_year":1924}],"translators":[],"subjects":["Children's stories","Fairies -- Juvenile fiction"],"bookshelves":[],"languages":["en"],"copyright":false,"media_type":"Text","formats":{"text/html":"https://www.gutenberg.org/ebooks/69075.html.images","application/epub+zip":"https://www.gutenberg.org/ebooks/69075.epub3.images","application/x-mobipocket-ebook":"https://www.gutenberg.org/ebooks/69075.kf8.images","text/plain; charset=us-ascii":"https://www.gutenberg.org/ebooks/69075.txt.utf-8","application/rdf+xml":"https://www.gutenberg.org/ebooks/69075.rdf","image/jpeg":"https://www.gutenberg.org/cache/epub/69075/pg69075.cover.medium.jpg","application/octet-stream":"https://www.gutenberg.org/files/69075/69075-0.zip"},"download_count":19},{"id":69084,"title":"Engineers and their triumphs: the story of the locomotive, the steamship, bridge building, tunnel making","authors":[{"name":"Holmes, F. M. (Frederic Morell)","birth_year":1851,"death_year":null}],"translators":[],"subjects":["Engineering","Engineers"],"bookshelves":[],"languages":["en"],"copyright":false,"media_type":"Text","formats":{"text/html":"https://www.gutenberg.org/ebooks/69084.html.images","application/epub+zip":"https://www.gutenberg.org/ebooks/69084.epub3.images","application/x-mobipocket-ebook":"https://www.gutenberg.org/ebooks/69084.kf8.images","text/plain; charset=us-ascii":"https://www.gutenberg.org/ebooks/69084.txt.utf-8","application/rdf+xml":"https://www.gutenberg.org/ebooks/69084.rdf","image/jpeg":"https://www.gutenberg.org/cache/epub/69084/pg69084.cover.medium.jpg","application/octet-stream":"https://www.gutenberg.org/files/69084/69084-0.zip"},"download_count":19},{"id":69130,"title":"The island of the stairs","authors":[{"name":"Brady, Cyrus Townsend","birth_year":1861,"death_year":1920}],"translators":[],"subjects":["Oceania -- Fiction","Sea stories","South Pacific Ocean -- Fiction"],"bookshelves":[],"languages":["en"],"copyright":false,"media_type":"Text","formats":{"text/html":"https://www.gutenberg.org/ebooks/69130.html.images","application/epub+zip":"https://www.gutenberg.org/ebooks/69130.epub3.images","application/x-mobipocket-ebook":"https://www.gutenberg.org/ebooks/69130.kf8.images","text/plain; charset=us-ascii":"https://www.gutenberg.org/ebooks/69130.txt.utf-8","application/rdf+xml":"https://www.gutenberg.org/ebooks/69130.rdf","image/jpeg":"https://www.gutenberg.org/cache/epub/69130/pg69130.cover.medium.jpg","application/octet-stream":"https://www.gutenberg.org/files/69130/69130-0.zip"},"download_count":19},{"id":69151,"title":"The siege of Vicksburg, from the diary of Seth J. Wells","authors":[{"name":"Wells, Seth J. (Seth James)","birth_year":1842,"death_year":1864}],"translators":[],"subjects":["Vicksburg (Miss.) -- History -- Siege, 1863"],"bookshelves":[],"languages":["en"],"copyright":false,"media_type":"Text","formats":{"text/html":"https://www.gutenberg.org/ebooks/69151.html.images","application/epub+zip":"https://www.gutenberg.org/ebooks/69151.epub3.images","application/x-mobipocket-ebook":"https://www.gutenberg.org/ebooks/69151.kf8.images","text/plain; charset=us-ascii":"https://www.gutenberg.org/ebooks/69151.txt.utf-8","application/rdf+xml":"https://www.gutenberg.org/ebooks/69151.rdf","image/jpeg":"https://www.gutenberg.org/cache/epub/69151/pg69151.cover.medium.jpg","application/octet-stream":"https://www.gutenberg.org/files/69151/69151-0.zip"},"download_count":19},{"id":69190,"title":"Troubled star","authors":[{"name":"Smith, George O. (George Oliver)","birth_year":1911,"death_year":1981}],"translators":[],"subjects":["Actors -- Fiction","Interstellar travel -- Fiction","Science fiction"],"bookshelves":[],"languages":["en"],"copyright":false,"media_type":"Text","formats":{"text/html":"https://www.gutenberg.org/ebooks/69190.html.images","application/epub+zip":"https://www.gutenberg.org/ebooks/69190.epub3.images","application/x-mobipocket-ebook":"https://www.gutenberg.org/ebooks/69190.kf8.images","text/plain; charset=us-ascii":"https://www.gutenberg.org/ebooks/69190.txt.utf-8","application/rdf+xml":"https://www.gutenberg.org/ebooks/69190.rdf","image/jpeg":"https://www.gutenberg.org/cache/epub/69190/pg69190.cover.medium.jpg","application/octet-stream":"https://www.gutenberg.org/files/69190/69190-0.zip"},"download_count":19},{"id":69271,"title":"The adventurous lady","authors":[{"name":"Snaith, J. C. (John Collis)","birth_year":1876,"death_year":1936}],"translators":[],"subjects":["England -- Social life and customs -- 20th century -- Fiction","Governesses -- Fiction","Impostors and imposture -- Fiction","Love stories","Nobility -- England -- Fiction"],"bookshelves":[],"languages":["en"],"copyright":false,"media_type":"Text","formats":{"text/html":"https://www.gutenberg.org/ebooks/69271.html.images","application/epub+zip":"https://www.gutenberg.org/ebooks/69271.epub3.images","application/x-mobipocket-ebook":"https://www.gutenberg.org/ebooks/69271.kf8.images","text/plain; charset=us-ascii":"https://www.gutenberg.org/ebooks/69271.txt.utf-8","application/rdf+xml":"https://www.gutenberg.org/ebooks/69271.rdf","image/jpeg":"https://www.gutenberg.org/cache/epub/69271/pg69271.cover.medium.jpg","application/octet-stream":"https://www.gutenberg.org/files/69271/69271-0.zip"},"download_count":19},{"id":69277,"title":"Sunshine and snow","authors":[{"name":"Bindloss, Harold","birth_year":1866,"death_year":1945}],"translators":[],"subjects":["Brothers -- Juvenile fiction","Canada -- Emigration and immigration -- Juvenile fiction","Frontier and pioneer life -- Juvenile fiction","Ocean travel -- Juvenile fiction","Prairie Provinces -- Juvenile fiction"],"bookshelves":[],"languages":["en"],"copyright":false,"media_type":"Text","formats":{"text/html":"https://www.gutenberg.org/ebooks/69277.html.images","application/epub+zip":"https://www.gutenberg.org/ebooks/69277.epub3.images","application/x-mobipocket-ebook":"https://www.gutenberg.org/ebooks/69277.kf8.images","text/plain; charset=us-ascii":"https://www.gutenberg.org/ebooks/69277.txt.utf-8","application/rdf+xml":"https://www.gutenberg.org/ebooks/69277.rdf","image/jpeg":"https://www.gutenberg.org/cache/epub/69277/pg69277.cover.medium.jpg","application/octet-stream":"https://www.gutenberg.org/files/69277/69277-0.zip"},"download_count":19},{"id":69304,"title":"Mozart","authors":[{"name":"Prout, Ebenezer","birth_year":1835,"death_year":1909}],"translators":[],"subjects":["Mozart, Wolfgang Amadeus, 1756-1791"],"bookshelves":[],"languages":["en"],"copyright":false,"media_type":"Text","formats":{"text/html":"https://www.gutenberg.org/ebooks/69304.html.images","application/epub+zip":"https://www.gutenberg.org/ebooks/69304.epub3.images","application/x-mobipocket-ebook":"https://www.gutenberg.org/ebooks/69304.kf8.images","text/plain; charset=us-ascii":"https://www.gutenberg.org/ebooks/69304.txt.utf-8","application/rdf+xml":"https://www.gutenberg.org/ebooks/69304.rdf","image/jpeg":"https://www.gutenberg.org/cache/epub/69304/pg69304.cover.medium.jpg","application/octet-stream":"https://www.gutenberg.org/files/69304/69304-0.zip"},"download_count":19},{"id":69307,"title":"Tibby: A novel dealing with psychic forces and telepathy","authors":[{"name":"Gilchrist, Rosetta Luce","birth_year":1850,"death_year":1921}],"translators":[],"subjects":["Psychic ability -- Fiction","Telepathy -- Fiction"],"bookshelves":[],"languages":["en"],"copyright":false,"media_type":"Text","formats":{"text/html":"https://www.gutenberg.org/ebooks/69307.html.images","application/epub+zip":"https://www.gutenberg.org/ebooks/69307.epub3.images","application/x-mobipocket-ebook":"https://www.gutenberg.org/ebooks/69307.kf8.images","text/plain; charset=us-ascii":"https://www.gutenberg.org/ebooks/69307.txt.utf-8","application/rdf+xml":"https://www.gutenberg.org/ebooks/69307.rdf","image/jpeg":"https://www.gutenberg.org/cache/epub/69307/pg69307.cover.medium.jpg","application/octet-stream":"https://www.gutenberg.org/files/69307/69307-0.zip"},"download_count":19},{"id":69348,"title":"Considerations on the present peace, as far as it is relative to the colonies, and the African trade","authors":[{"name":"Carney, Thomas","birth_year":null,"death_year":null},{"name":"Vaughan, Robert","birth_year":null,"death_year":null}],"translators":[],"subjects":["Great Britain -- Colonies -- Commerce -- Early works to 1800","Slave trade -- Africa -- Early works to 1800"],"bookshelves":[],"languages":["en"],"copyright":false,"media_type":"Text","formats":{"text/html":"https://www.gutenberg.org/ebooks/69348.html.images","application/epub+zip":"https://www.gutenberg.org/ebooks/69348.epub3.images","application/x-mobipocket-ebook":"https://www.gutenberg.org/ebooks/69348.kf8.images","text/plain; charset=us-ascii":"https://www.gutenberg.org/ebooks/69348.txt.utf-8","application/rdf+xml":"https://www.gutenberg.org/ebooks/69348.rdf","image/jpeg":"https://www.gutenberg.org/cache/epub/69348/pg69348.cover.medium.jpg","application/octet-stream":"https://www.gutenberg.org/files/69348/69348-0.zip"},"download_count":19},{"id":69414,"title":"To arms for liberty: A pageant of the war for schools and societies","authors":[{"name":"Bryce, Catherine T. (Catherine Turner)","birth_year":1871,"death_year":1951}],"translators":[],"subjects":["World War, 1914-1918 -- Drama"],"bookshelves":[],"languages":["en"],"copyright":false,"media_type":"Text","formats":{"text/html":"https://www.gutenberg.org/ebooks/69414.html.images","application/epub+zip":"https://www.gutenberg.org/ebooks/69414.epub3.images","application/x-mobipocket-ebook":"https://www.gutenberg.org/ebooks/69414.kf8.images","text/plain; charset=us-ascii":"https://www.gutenberg.org/ebooks/69414.txt.utf-8","application/rdf+xml":"https://www.gutenberg.org/ebooks/69414.rdf","image/jpeg":"https://www.gutenberg.org/cache/epub/69414/pg69414.cover.medium.jpg","application/octet-stream":"https://www.gutenberg.org/files/69414/69414-0.zip"},"download_count":19},{"id":69445,"title":"Universal peace—from a woman's standpoint","authors":[{"name":"Suttner, Bertha von","birth_year":1843,"death_year":1914}],"translators":[],"subjects":["Pacifism","Peace","Peace movements"],"bookshelves":[],"languages":["en"],"copyright":false,"media_type":"Text","formats":{"text/html":"https://www.gutenberg.org/ebooks/69445.html.images","application/epub+zip":"https://www.gutenberg.org/ebooks/69445.epub3.images","application/x-mobipocket-ebook":"https://www.gutenberg.org/ebooks/69445.kf8.images","text/plain; charset=us-ascii":"https://www.gutenberg.org/ebooks/69445.txt.utf-8","application/rdf+xml":"https://www.gutenberg.org/ebooks/69445.rdf","image/jpeg":"https://www.gutenberg.org/cache/epub/69445/pg69445.cover.medium.jpg","application/octet-stream":"https://www.gutenberg.org/files/69445/69445-0.zip"},"download_count":19},{"id":69474,"title":"A modern trio in an old town","authors":[{"name":"Haviland-Taylor, Katharine","birth_year":1888,"death_year":1941}],"translators":[],"subjects":["Americans -- Italy -- Fiction","Florence (Italy) -- Fiction","Young women -- Fiction"],"bookshelves":[],"languages":["en"],"copyright":false,"media_type":"Text","formats":{"text/html":"https://www.gutenberg.org/ebooks/69474.html.images","application/epub+zip":"https://www.gutenberg.org/ebooks/69474.epub3.images","application/x-mobipocket-ebook":"https://www.gutenberg.org/ebooks/69474.kf8.images","text/plain; charset=us-ascii":"https://www.gutenberg.org/ebooks/69474.txt.utf-8","application/rdf+xml":"https://www.gutenberg.org/ebooks/69474.rdf","image/jpeg":"https://www.gutenberg.org/cache/epub/69474/pg69474.cover.medium.jpg","application/octet-stream":"https://www.gutenberg.org/files/69474/69474-0.zip"},"download_count":19},{"id":69486,"title":"Through Bolshevik Russia","authors":[{"name":"Snowden, Ethel","birth_year":1881,"death_year":1951}],"translators":[],"subjects":["Communism -- Russia"],"bookshelves":[],"languages":["en"],"copyright":false,"media_type":"Text","formats":{"text/html":"https://www.gutenberg.org/ebooks/69486.html.images","application/epub+zip":"https://www.gutenberg.org/ebooks/69486.epub3.images","application/x-mobipocket-ebook":"https://www.gutenberg.org/ebooks/69486.kf8.images","text/plain; charset=us-ascii":"https://www.gutenberg.org/ebooks/69486.txt.utf-8","application/rdf+xml":"https://www.gutenberg.org/ebooks/69486.rdf","image/jpeg":"https://www.gutenberg.org/cache/epub/69486/pg69486.cover.medium.jpg","application/octet-stream":"https://www.gutenberg.org/files/69486/69486-0.zip"},"download_count":19},{"id":69498,"title":"The Wellfields: A novel. Vol. 2 of 3","authors":[{"name":"Fothergill, Jessie","birth_year":1851,"death_year":1891}],"translators":[],"subjects":["English fiction -- 19th century"],"bookshelves":[],"languages":["en"],"copyright":false,"media_type":"Text","formats":{"text/html":"https://www.gutenberg.org/ebooks/69498.html.images","application/epub+zip":"https://www.gutenberg.org/ebooks/69498.epub3.images","application/x-mobipocket-ebook":"https://www.gutenberg.org/ebooks/69498.kf8.images","text/plain; charset=us-ascii":"https://www.gutenberg.org/ebooks/69498.txt.utf-8","application/rdf+xml":"https://www.gutenberg.org/ebooks/69498.rdf","image/jpeg":"https://www.gutenberg.org/cache/epub/69498/pg69498.cover.medium.jpg","application/octet-stream":"https://www.gutenberg.org/files/69498/69498-0.zip"},"download_count":19},{"id":69614,"title":"Have you an educated heart?","authors":[{"name":"Burgess, Gelett","birth_year":1866,"death_year":1951}],"translators":[],"subjects":["Conduct of life","Courtesy","Generosity","Interpersonal relations","Kindness"],"bookshelves":[],"languages":["en"],"copyright":false,"media_type":"Text","formats":{"text/html":"https://www.gutenberg.org/ebooks/69614.html.images","application/epub+zip":"https://www.gutenberg.org/ebooks/69614.epub3.images","application/x-mobipocket-ebook":"https://www.gutenberg.org/ebooks/69614.kf8.images","text/plain; charset=us-ascii":"https://www.gutenberg.org/ebooks/69614.txt.utf-8","application/rdf+xml":"https://www.gutenberg.org/ebooks/69614.rdf","image/jpeg":"https://www.gutenberg.org/cache/epub/69614/pg69614.cover.medium.jpg","application/octet-stream":"https://www.gutenberg.org/files/69614/69614-0.zip"},"download_count":19},{"id":69732,"title":"The Review, Vol. 1, No. 7, July 1911","authors":[{"name":"Various","birth_year":null,"death_year":null}],"translators":[],"subjects":["Prisons -- Periodicals"],"bookshelves":[],"languages":["en"],"copyright":false,"media_type":"Text","formats":{"text/html":"https://www.gutenberg.org/ebooks/69732.html.images","application/epub+zip":"https://www.gutenberg.org/ebooks/69732.epub3.images","application/x-mobipocket-ebook":"https://www.gutenberg.org/ebooks/69732.kf8.images","text/plain; charset=us-ascii":"https://www.gutenberg.org/ebooks/69732.txt.utf-8","application/rdf+xml":"https://www.gutenberg.org/ebooks/69732.rdf","image/jpeg":"https://www.gutenberg.org/cache/epub/69732/pg69732.cover.medium.jpg","application/octet-stream":"https://www.gutenberg.org/files/69732/69732-0.zip"},"download_count":19},{"id":69774,"title":"Nature's invitation: Notes of a bird-gazer, North and South","authors":[{"name":"Torrey, Bradford","birth_year":1843,"death_year":1912}],"translators":[],"subjects":["Bird watching -- United States","Natural history -- Outdoor books","Natural history -- United States -- Popular works","Torrey, Bradford, 1843-1912 -- Travel -- United States","United States -- Description and travel -- Popular works"],"bookshelves":[],"languages":["en"],"copyright":false,"media_type":"Text","formats":{"text/html":"https://www.gutenberg.org/ebooks/69774.html.images","application/epub+zip":"https://www.gutenberg.org/ebooks/69774.epub3.images","application/x-mobipocket-ebook":"https://www.gutenberg.org/ebooks/69774.kf8.images","text/plain; charset=us-ascii":"https://www.gutenberg.org/ebooks/69774.txt.utf-8","application/rdf+xml":"https://www.gutenberg.org/ebooks/69774.rdf","image/jpeg":"https://www.gutenberg.org/cache/epub/69774/pg69774.cover.medium.jpg","application/octet-stream":"https://www.gutenberg.org/files/69774/69774-0.zip"},"download_count":19},{"id":69862,"title":"Days and hours in a garden","authors":[{"name":"E. V. B. (Eleanor Vere Boyle)","birth_year":1825,"death_year":1916}],"translators":[],"subjects":["Gardens"],"bookshelves":[],"languages":["en"],"copyright":false,"media_type":"Text","formats":{"text/html":"https://www.gutenberg.org/ebooks/69862.html.images","application/epub+zip":"https://www.gutenberg.org/ebooks/69862.epub3.images","application/x-mobipocket-ebook":"https://www.gutenberg.org/ebooks/69862.kf8.images","text/plain; charset=us-ascii":"https://www.gutenberg.org/ebooks/69862.txt.utf-8","application/rdf+xml":"https://www.gutenberg.org/ebooks/69862.rdf","image/jpeg":"https://www.gutenberg.org/cache/epub/69862/pg69862.cover.medium.jpg","application/octet-stream":"https://www.gutenberg.org/files/69862/69862-0.zip"},"download_count":19},{"id":69947,"title":"The flowering plants of South Africa; vol. 4","authors":[{"name":"Pole Evans, I. B. (Illtyd Buller)","birth_year":1879,"death_year":1968}],"translators":[],"subjects":["Plants -- South Africa -- Periodicals","Plants -- South Africa -- Pictorial works -- Periodicals"],"bookshelves":[],"languages":["en"],"copyright":false,"media_type":"Text","formats":{"text/html":"https://www.gutenberg.org/ebooks/69947.html.images","application/epub+zip":"https://www.gutenberg.org/ebooks/69947.epub3.images","application/x-mobipocket-ebook":"https://www.gutenberg.org/ebooks/69947.kf8.images","text/plain; charset=us-ascii":"https://www.gutenberg.org/ebooks/69947.txt.utf-8","application/rdf+xml":"https://www.gutenberg.org/ebooks/69947.rdf","image/jpeg":"https://www.gutenberg.org/cache/epub/69947/pg69947.cover.medium.jpg","application/octet-stream":"https://www.gutenberg.org/files/69947/69947-0.zip"},"download_count":19},{"id":69950,"title":"Reminiscences of the Cleveland Light Artillery","authors":[{"name":"Anonymous","birth_year":null,"death_year":null}],"translators":[],"subjects":["Ohio -- History -- Civil War, 1861-1865 -- Regimental histories","United States -- History -- Civil War, 1861-1865 -- Regimental histories","United States. Army. Ohio Light Artillery Regiment, 1st (1861-1865)"],"bookshelves":[],"languages":["en"],"copyright":false,"media_type":"Text","formats":{"text/html":"https://www.gutenberg.org/ebooks/69950.html.images","application/epub+zip":"https://www.gutenberg.org/ebooks/69950.epub3.images","application/x-mobipocket-ebook":"https://www.gutenberg.org/ebooks/69950.kf8.images","text/plain; charset=us-ascii":"https://www.gutenberg.org/ebooks/69950.txt.utf-8","application/rdf+xml":"https://www.gutenberg.org/ebooks/69950.rdf","image/jpeg":"https://www.gutenberg.org/cache/epub/69950/pg69950.cover.medium.jpg","application/octet-stream":"https://www.gutenberg.org/files/69950/69950-0.zip"},"download_count":19},{"id":69952,"title":"Leonard Lindsay ; $b or, the story of a buccaneer","authors":[{"name":"Reach, Angus B. (Angus Bethune)","birth_year":1821,"death_year":1856}],"translators":[],"subjects":["Buccaneers -- Fiction","Historical fiction"],"bookshelves":[],"languages":["en"],"copyright":false,"media_type":"Text","formats":{"text/html":"https://www.gutenberg.org/ebooks/69952.html.images","application/epub+zip":"https://www.gutenberg.org/ebooks/69952.epub3.images","application/x-mobipocket-ebook":"https://www.gutenberg.org/ebooks/69952.kf8.images","text/plain; charset=us-ascii":"https://www.gutenberg.org/ebooks/69952.txt.utf-8","application/rdf+xml":"https://www.gutenberg.org/ebooks/69952.rdf","image/jpeg":"https://www.gutenberg.org/cache/epub/69952/pg69952.cover.medium.jpg","application/octet-stream":"https://www.gutenberg.org/files/69952/69952-0.zip"},"download_count":19},{"id":70010,"title":"The shadow between them; $b or, A blighted name","authors":[{"name":"Miller, Alex. McVeigh, Mrs.","birth_year":1850,"death_year":1937}],"translators":[],"subjects":["Dime novels","Mental illness -- Fiction","Orphans -- Fiction","Romance fiction","West Virginia -- Fiction","Young women -- Fiction"],"bookshelves":[],"languages":["en"],"copyright":false,"media_type":"Text","formats":{"text/html":"https://www.gutenberg.org/ebooks/70010.html.images","application/epub+zip":"https://www.gutenberg.org/ebooks/70010.epub3.images","application/x-mobipocket-ebook":"https://www.gutenberg.org/ebooks/70010.kf8.images","text/plain; charset=us-ascii":"https://www.gutenberg.org/ebooks/70010.txt.utf-8","application/rdf+xml":"https://www.gutenberg.org/ebooks/70010.rdf","image/jpeg":"https://www.gutenberg.org/cache/epub/70010/pg70010.cover.medium.jpg","application/octet-stream":"https://www.gutenberg.org/files/70010/70010-0.zip"},"download_count":19},{"id":70066,"title":"Twenty years a fakir","authors":[{"name":"Weldon, S. James","birth_year":null,"death_year":null}],"translators":[],"subjects":["Door-to-door selling","Peddling","Weldon, S. James"],"bookshelves":[],"languages":["en"],"copyright":false,"media_type":"Text","formats":{"text/html":"https://www.gutenberg.org/ebooks/70066.html.images","application/epub+zip":"https://www.gutenberg.org/ebooks/70066.epub3.images","application/x-mobipocket-ebook":"https://www.gutenberg.org/ebooks/70066.kf8.images","text/plain; charset=us-ascii":"https://www.gutenberg.org/ebooks/70066.txt.utf-8","application/rdf+xml":"https://www.gutenberg.org/ebooks/70066.rdf","image/jpeg":"https://www.gutenberg.org/cache/epub/70066/pg70066.cover.medium.jpg","application/octet-stream":"https://www.gutenberg.org/files/70066/70066-0.zip"},"download_count":19},{"id":70104,"title":"The doctor, &c., vol. 3 (of 7)","authors":[{"name":"Southey, Robert","birth_year":1774,"death_year":1843}],"translators":[],"subjects":["English literature -- 19th century"],"bookshelves":[],"languages":["en"],"copyright":false,"media_type":"Text","formats":{"text/html":"https://www.gutenberg.org/ebooks/70104.html.images","application/epub+zip":"https://www.gutenberg.org/ebooks/70104.epub3.images","application/x-mobipocket-ebook":"https://www.gutenberg.org/ebooks/70104.kf8.images","text/plain; charset=us-ascii":"https://www.gutenberg.org/ebooks/70104.txt.utf-8","application/rdf+xml":"https://www.gutenberg.org/ebooks/70104.rdf","image/jpeg":"https://www.gutenberg.org/cache/epub/70104/pg70104.cover.medium.jpg","application/octet-stream":"https://www.gutenberg.org/files/70104/70104-0.zip"},"download_count":19},{"id":70139,"title":"A bitter reckoning; $b or, Violet Arleigh","authors":[{"name":"Collins, E. Burke, Mrs.","birth_year":1848,"death_year":null}],"translators":[],"subjects":["Louisiana -- Fiction","Love stories","Southern States -- Social life and customs -- Fiction"],"bookshelves":[],"languages":["en"],"copyright":false,"media_type":"Text","formats":{"text/html":"https://www.gutenberg.org/ebooks/70139.html.images","application/epub+zip":"https://www.gutenberg.org/ebooks/70139.epub3.images","application/x-mobipocket-ebook":"https://www.gutenberg.org/ebooks/70139.kf8.images","text/plain; charset=us-ascii":"https://www.gutenberg.org/ebooks/70139.txt.utf-8","application/rdf+xml":"https://www.gutenberg.org/ebooks/70139.rdf","image/jpeg":"https://www.gutenberg.org/cache/epub/70139/pg70139.cover.medium.jpg","application/octet-stream":"https://www.gutenberg.org/files/70139/70139-0.zip"},"download_count":19},{"id":70149,"title":"Under England's flag : $b from 1804-1809: the memoirs, diary and correspondence of Charles Boothy, Captain of Royal Engineers, compiled by the last survivors of his family","authors":[{"name":"Boothby, Charles","birth_year":1786,"death_year":1846}],"translators":[],"subjects":["Boothby, Charles, 1786-1846","Boothby, Charles, 1786-1846 -- Correspondence","Boothby, Charles, 1786-1846 -- Diaries","Great Britain. Army. Royal Engineers"],"bookshelves":[],"languages":["en"],"copyright":false,"media_type":"Text","formats":{"text/html":"https://www.gutenberg.org/ebooks/70149.html.images","application/epub+zip":"https://www.gutenberg.org/ebooks/70149.epub3.images","application/x-mobipocket-ebook":"https://www.gutenberg.org/ebooks/70149.kf8.images","text/plain; charset=us-ascii":"https://www.gutenberg.org/ebooks/70149.txt.utf-8","application/rdf+xml":"https://www.gutenberg.org/ebooks/70149.rdf","image/jpeg":"https://www.gutenberg.org/cache/epub/70149/pg70149.cover.medium.jpg","application/octet-stream":"https://www.gutenberg.org/files/70149/70149-0.zip"},"download_count":19},{"id":70181,"title":"Fors Clavigera (Volume 6 of 8): $b Letters to the workmen and labourers of Great Britain","authors":[{"name":"Ruskin, John","birth_year":1819,"death_year":1900}],"translators":[],"subjects":["Aesthetics","Conduct of life","Great Britain -- Social conditions -- 19th century","Social problems","Working class -- Great Britain"],"bookshelves":[],"languages":["en"],"copyright":false,"media_type":"Text","formats":{"text/html":"https://www.gutenberg.org/ebooks/70181.html.images","application/epub+zip":"https://www.gutenberg.org/ebooks/70181.epub3.images","application/x-mobipocket-ebook":"https://www.gutenberg.org/ebooks/70181.kf8.images","text/plain; charset=us-ascii":"https://www.gutenberg.org/ebooks/70181.txt.utf-8","application/rdf+xml":"https://www.gutenberg.org/ebooks/70181.rdf","image/jpeg":"https://www.gutenberg.org/cache/epub/70181/pg70181.cover.medium.jpg","application/octet-stream":"https://www.gutenberg.org/files/70181/70181-0.zip"},"download_count":19},{"id":70193,"title":"With Washington in the west; $b or, A soldier boy's battles in the wilderness","authors":[{"name":"Stratemeyer, Edward","birth_year":1862,"death_year":1930}],"translators":[],"subjects":["Braddock, Edward, 1695?-1755 -- Juvenile fiction","United States -- History -- French and Indian War, 1754-1763 -- Juvenile fiction","War stories","Washington, George, 1732-1799 -- Juvenile fiction"],"bookshelves":[],"languages":["en"],"copyright":false,"media_type":"Text","formats":{"text/html":"https://www.gutenberg.org/ebooks/70193.html.images","application/epub+zip":"https://www.gutenberg.org/ebooks/70193.epub3.images","application/x-mobipocket-ebook":"https://www.gutenberg.org/ebooks/70193.kf8.images","text/plain; charset=us-ascii":"https://www.gutenberg.org/ebooks/70193.txt.utf-8","application/rdf+xml":"https://www.gutenberg.org/ebooks/70193.rdf","image/jpeg":"https://www.gutenberg.org/cache/epub/70193/pg70193.cover.medium.jpg","application/octet-stream":"https://www.gutenberg.org/files/70193/70193-0.zip"},"download_count":19}]}