{"count":58808,"next":"http://129.241.150.113:8000/books/?languages=en&page=1538","previous":"http://129.241.150.113:8000/books/?languages=en&page=1536","results":[{"id":68854,"title":"Three years of war in East Africa","authors":[{"name":"Buchanan, Angus","birth_year":1886,"death_year":1954}],"translators":[],"subjects":["Birds -- Tanzania","World War, 1914-1918 -- Campaigns -- Tanzania"],"bookshelves":[],"languages":["en"],"copyright":false,"media_type":"Text","formats":{"text/html":"https://www.gutenberg.org/ebooks/68854.html.images","application/epub+zip":"https://www.gutenberg.org/ebooks/68854.epub3.images","application/x-mobipocket-ebook":"https://www.gutenberg.org/ebooks/68854.kf8.images","text/plain; charset=us-ascii":"https://www.gutenberg.org/ebooks/68854.txt.utf-8","application/rdf+xml":"https://www.gutenberg.org/ebooks/68854.rdf","image/jpeg":"https://www.gutenberg.org/cache/epub/68854/pg68854.cover.medium.jpg","application/octet-stream":"https://www.gutenberg.org/files/68854/68854-0.zip"},"download_count":23},{"id":68864,"title":"Ramsey & Carmick, contract.: Letter from the Postmaster General transmitting copy of a conditional mail contract; also copies of correspondence relative to the same","authors":[{"name":"Various","birth_year":null,"death_year":null}],"translators":[],"subjects":["Postal service -- United States -- History -- Sources"],"bookshelves":[],"languages":["en"],"copyright":false,"media_type":"Text","formats":{"text/html":"https://www.gutenberg.org/ebooks/68864.html.images","application/epub+zip":"https://www.gutenberg.org/ebooks/68864.epub3.images","application/x-mobipocket-ebook":"https://www.gutenberg.org/ebooks/68864.kf8.images","text/plain; charset=us-ascii":"https://www.gutenberg.org/ebooks/68864.txt.utf-8","application/rdf+xml":"https://www.gutenberg.org/ebooks/68864.rdf","image/jpeg":"https://www.gutenberg.org/cache/epub/68864/pg68864.cover.medium.jpg","application/octet-stream":"https://www.gutenberg.org/files/68864/68864-0.zip"},"download_count":23},{"id":68927,"title":"The Taylor-Trotwood Magazine, Vol. IV, No. 4, January 1907","authors":[{"name":"Various","birth_year":null,"death_year":null}],"translators":[],"subjects":["American literature -- 20th century -- Periodicals","Southern States -- Periodicals"],"bookshelves":[],"languages":["en"],"copyright":false,"media_type":"Text","formats":{"text/html":"https://www.gutenberg.org/ebooks/68927.html.images","application/epub+zip":"https://www.gutenberg.org/ebooks/68927.epub3.images","application/x-mobipocket-ebook":"https://www.gutenberg.org/ebooks/68927.kf8.images","text/plain; charset=us-ascii":"https://www.gutenberg.org/ebooks/68927.txt.utf-8","application/rdf+xml":"https://www.gutenberg.org/ebooks/68927.rdf","image/jpeg":"https://www.gutenberg.org/cache/epub/68927/pg68927.cover.medium.jpg","application/octet-stream":"https://www.gutenberg.org/files/68927/68927-0.zip"},"download_count":23},{"id":68968,"title":"You are forbidden!","authors":[{"name":"Shelton, Jerry","birth_year":null,"death_year":null}],"translators":[],"subjects":["Fortune-telling -- Fiction","Physicians -- Fiction","Science fiction","Short stories"],"bookshelves":[],"languages":["en"],"copyright":false,"media_type":"Text","formats":{"text/html":"https://www.gutenberg.org/ebooks/68968.html.images","application/epub+zip":"https://www.gutenberg.org/ebooks/68968.epub3.images","application/x-mobipocket-ebook":"https://www.gutenberg.org/ebooks/68968.kf8.images","text/plain; charset=us-ascii":"https://www.gutenberg.org/ebooks/68968.txt.utf-8","application/rdf+xml":"https://www.gutenberg.org/ebooks/68968.rdf","image/jpeg":"https://www.gutenberg.org/cache/epub/68968/pg68968.cover.medium.jpg","application/octet-stream":"https://www.gutenberg.org/files/68968/68968-0.zip"},"download_count":23},{"id":68984,"title":"Helps and hints for Hallowe'en","authors":[{"name":"Smith, Laura Rountree","birth_year":1876,"death_year":1924}],"translators":[],"subjects":["Halloween"],"bookshelves":[],"languages":["en"],"copyright":false,"media_type":"Text","formats":{"text/html":"https://www.gutenberg.org/ebooks/68984.html.images","application/epub+zip":"https://www.gutenberg.org/ebooks/68984.epub3.images","application/x-mobipocket-ebook":"https://www.gutenberg.org/ebooks/68984.kf8.images","text/plain; charset=us-ascii":"https://www.gutenberg.org/ebooks/68984.txt.utf-8","application/rdf+xml":"https://www.gutenberg.org/ebooks/68984.rdf","image/jpeg":"https://www.gutenberg.org/cache/epub/68984/pg68984.cover.medium.jpg","application/octet-stream":"https://www.gutenberg.org/files/68984/68984-0.zip"},"download_count":23},{"id":69116,"title":"A discourse on the theory of gunnery: Delivered at the anniversary meeting of the Royal Society, November 30, 1778","authors":[{"name":"Pringle, John, Sir","birth_year":1707,"death_year":1782}],"translators":[],"subjects":["Ballistics"],"bookshelves":[],"languages":["en"],"copyright":false,"media_type":"Text","formats":{"text/html":"https://www.gutenberg.org/ebooks/69116.html.images","application/epub+zip":"https://www.gutenberg.org/ebooks/69116.epub3.images","application/x-mobipocket-ebook":"https://www.gutenberg.org/ebooks/69116.kf8.images","text/plain; charset=us-ascii":"https://www.gutenberg.org/ebooks/69116.txt.utf-8","application/rdf+xml":"https://www.gutenberg.org/ebooks/69116.rdf","image/jpeg":"https://www.gutenberg.org/cache/epub/69116/pg69116.cover.medium.jpg","application/octet-stream":"https://www.gutenberg.org/files/69116/69116-0.zip"},"download_count":23},{"id":69121,"title":"An outlaw's diary: revolution","authors":[{"name":"Tormay, Cécile","birth_year":1876,"death_year":1937}],"translators":[],"subjects":["Hungary -- History -- Revolution, 1918-1919"],"bookshelves":[],"languages":["en"],"copyright":false,"media_type":"Text","formats":{"text/html":"https://www.gutenberg.org/ebooks/69121.html.images","application/epub+zip":"https://www.gutenberg.org/ebooks/69121.epub3.images","application/x-mobipocket-ebook":"https://www.gutenberg.org/ebooks/69121.kf8.images","text/plain; charset=us-ascii":"https://www.gutenberg.org/ebooks/69121.txt.utf-8","application/rdf+xml":"https://www.gutenberg.org/ebooks/69121.rdf","image/jpeg":"https://www.gutenberg.org/cache/epub/69121/pg69121.cover.medium.jpg","application/octet-stream":"https://www.gutenberg.org/files/69121/69121-0.zip"},"download_count":23},{"id":69148,"title":"The eternal quest","authors":[{"name":"Gilbert, Joseph","birth_year":null,"death_year":null}],"translators":[],"subjects":["Human-alien encounters -- Fiction","Interstellar travel -- Fiction","Psychological fiction","Science fiction","Short stories"],"bookshelves":[],"languages":["en"],"copyright":false,"media_type":"Text","formats":{"text/html":"https://www.gutenberg.org/ebooks/69148.html.images","application/epub+zip":"https://www.gutenberg.org/ebooks/69148.epub3.images","application/x-mobipocket-ebook":"https://www.gutenberg.org/ebooks/69148.kf8.images","text/plain; charset=us-ascii":"https://www.gutenberg.org/ebooks/69148.txt.utf-8","application/rdf+xml":"https://www.gutenberg.org/ebooks/69148.rdf","image/jpeg":"https://www.gutenberg.org/cache/epub/69148/pg69148.cover.medium.jpg","application/octet-stream":"https://www.gutenberg.org/files/69148/69148-0.zip"},"download_count":23},{"id":69204,"title":"The white cipher","authors":[{"name":"Leverage, Henry","birth_year":1885,"death_year":1931}],"translators":[],"subjects":["Code and cipher stories","Criminals -- Fiction","England -- Fiction","Fay, Chester (Fictitious character) -- Fiction","Safes -- Fiction"],"bookshelves":[],"languages":["en"],"copyright":false,"media_type":"Text","formats":{"text/html":"https://www.gutenberg.org/ebooks/69204.html.images","application/epub+zip":"https://www.gutenberg.org/ebooks/69204.epub3.images","application/x-mobipocket-ebook":"https://www.gutenberg.org/ebooks/69204.kf8.images","text/plain; charset=us-ascii":"https://www.gutenberg.org/ebooks/69204.txt.utf-8","application/rdf+xml":"https://www.gutenberg.org/ebooks/69204.rdf","image/jpeg":"https://www.gutenberg.org/cache/epub/69204/pg69204.cover.medium.jpg","application/octet-stream":"https://www.gutenberg.org/files/69204/69204-0.zip"},"download_count":23},{"id":69216,"title":"Sheared cream o' wit: A classified compilation of the best wit and humor","authors":[{"name":"Mittler, Carl J.","birth_year":null,"death_year":null}],"translators":[],"subjects":["American wit and humor"],"bookshelves":[],"languages":["en"],"copyright":false,"media_type":"Text","formats":{"text/html":"https://www.gutenberg.org/ebooks/69216.html.images","application/epub+zip":"https://www.gutenberg.org/ebooks/69216.epub3.images","application/x-mobipocket-ebook":"https://www.gutenberg.org/ebooks/69216.kf8.images","text/plain; charset=us-ascii":"https://www.gutenberg.org/ebooks/69216.txt.utf-8","application/rdf+xml":"https://www.gutenberg.org/ebooks/69216.rdf","image/jpeg":"https://www.gutenberg.org/cache/epub/69216/pg69216.cover.medium.jpg","application/octet-stream":"https://www.gutenberg.org/files/69216/69216-0.zip"},"download_count":23},{"id":69222,"title":"The apparatus used by the Greeks and Romans in the setting of fractures and the reduction of dislocations","authors":[{"name":"Milne, John Stewart","birth_year":1871,"death_year":1913}],"translators":[],"subjects":["Dislocations -- Treatment -- History","Fractures -- Treatment -- History","Surgical instruments and apparatus -- Greece","Surgical instruments and apparatus -- Rome"],"bookshelves":[],"languages":["en"],"copyright":false,"media_type":"Text","formats":{"text/html":"https://www.gutenberg.org/ebooks/69222.html.images","application/epub+zip":"https://www.gutenberg.org/ebooks/69222.epub3.images","application/x-mobipocket-ebook":"https://www.gutenberg.org/ebooks/69222.kf8.images","text/plain; charset=us-ascii":"https://www.gutenberg.org/ebooks/69222.txt.utf-8","application/rdf+xml":"https://www.gutenberg.org/ebooks/69222.rdf","image/jpeg":"https://www.gutenberg.org/cache/epub/69222/pg69222.cover.medium.jpg","application/octet-stream":"https://www.gutenberg.org/files/69222/69222-0.zip"},"download_count":23},{"id":69241,"title":"Anti-Slavery Monthly Reporter, March 1829","authors":[{"name":"Society for the Mitigation and Gradual Abolition of Slavery Throughout the British Dominions","birth_year":null,"death_year":null}],"translators":[],"subjects":["Antislavery movements -- Great Britain -- Periodicals","Slavery -- Commonwealth countries -- Periodicals"],"bookshelves":[],"languages":["en"],"copyright":false,"media_type":"Text","formats":{"text/html":"https://www.gutenberg.org/ebooks/69241.html.images","application/epub+zip":"https://www.gutenberg.org/ebooks/69241.epub3.images","application/x-mobipocket-ebook":"https://www.gutenberg.org/ebooks/69241.kf8.images","text/plain; charset=us-ascii":"https://www.gutenberg.org/ebooks/69241.txt.utf-8","application/rdf+xml":"https://www.gutenberg.org/ebooks/69241.rdf","image/jpeg":"https://www.gutenberg.org/cache/epub/69241/pg69241.cover.medium.jpg","application/octet-stream":"https://www.gutenberg.org/files/69241/69241-0.zip"},"download_count":23},{"id":69293,"title":"The pleasure age","authors":[{"name":"Cahill, Joed","birth_year":null,"death_year":null}],"translators":[],"subjects":["Automation -- Fiction","Science fiction","Work -- Fiction"],"bookshelves":[],"languages":["en"],"copyright":false,"media_type":"Text","formats":{"text/html":"https://www.gutenberg.org/ebooks/69293.html.images","application/epub+zip":"https://www.gutenberg.org/ebooks/69293.epub3.images","application/x-mobipocket-ebook":"https://www.gutenberg.org/ebooks/69293.kf8.images","text/plain; charset=us-ascii":"https://www.gutenberg.org/ebooks/69293.txt.utf-8","application/rdf+xml":"https://www.gutenberg.org/ebooks/69293.rdf","image/jpeg":"https://www.gutenberg.org/cache/epub/69293/pg69293.cover.medium.jpg","application/octet-stream":"https://www.gutenberg.org/files/69293/69293-0.zip"},"download_count":23},{"id":69303,"title":"Michelangelo","authors":[{"name":"Strutt, Edward C.","birth_year":null,"death_year":null}],"translators":[],"subjects":["Michelangelo Buonarroti, 1475-1564"],"bookshelves":[],"languages":["en"],"copyright":false,"media_type":"Text","formats":{"text/html":"https://www.gutenberg.org/ebooks/69303.html.images","application/epub+zip":"https://www.gutenberg.org/ebooks/69303.epub3.images","application/x-mobipocket-ebook":"https://www.gutenberg.org/ebooks/69303.kf8.images","text/plain; charset=us-ascii":"https://www.gutenberg.org/ebooks/69303.txt.utf-8","application/rdf+xml":"https://www.gutenberg.org/ebooks/69303.rdf","image/jpeg":"https://www.gutenberg.org/cache/epub/69303/pg69303.cover.medium.jpg","application/octet-stream":"https://www.gutenberg.org/files/69303/69303-0.zip"},"download_count":23},{"id":69341,"title":"Bonanza: A story of the Gold Trail","authors":[{"name":"Raine, William MacLeod","birth_year":1871,"death_year":1954}],"translators":[],"subjects":["Gold mines and mining -- Fiction","Western stories"],"bookshelves":[],"languages":["en"],"copyright":false,"media_type":"Text","formats":{"text/html":"https://www.gutenberg.org/ebooks/69341.html.images","application/epub+zip":"https://www.gutenberg.org/ebooks/69341.epub3.images","application/x-mobipocket-ebook":"https://www.gutenberg.org/ebooks/69341.kf8.images","text/plain; charset=us-ascii":"https://www.gutenberg.org/ebooks/69341.txt.utf-8","application/rdf+xml":"https://www.gutenberg.org/ebooks/69341.rdf","image/jpeg":"https://www.gutenberg.org/cache/epub/69341/pg69341.cover.medium.jpg","application/octet-stream":"https://www.gutenberg.org/files/69341/69341-0.zip"},"download_count":23},{"id":69457,"title":"Stories from the olden time: Teacher's text book, course IV, part I","authors":[{"name":"Baldwin, Josephine L.","birth_year":null,"death_year":null}],"translators":[],"subjects":["Bible -- Study and teaching","Bible stories, English","Christian education of children"],"bookshelves":[],"languages":["en"],"copyright":false,"media_type":"Text","formats":{"text/html":"https://www.gutenberg.org/ebooks/69457.html.images","application/epub+zip":"https://www.gutenberg.org/ebooks/69457.epub3.images","application/x-mobipocket-ebook":"https://www.gutenberg.org/ebooks/69457.kf8.images","text/plain; charset=us-ascii":"https://www.gutenberg.org/ebooks/69457.txt.utf-8","application/rdf+xml":"https://www.gutenberg.org/ebooks/69457.rdf","image/jpeg":"https://www.gutenberg.org/cache/epub/69457/pg69457.cover.medium.jpg","application/octet-stream":"https://www.gutenberg.org/files/69457/69457-0.zip"},"download_count":23},{"id":69477,"title":"Joe Strong, the boy wizard; or, The mysteries of magic exposed","authors":[{"name":"Barnum, Vance","birth_year":null,"death_year":null}],"translators":[],"subjects":["Circus performers -- Juvenile fiction","Magicians -- Juvenile fiction"],"bookshelves":[],"languages":["en"],"copyright":false,"media_type":"Text","formats":{"text/html":"https://www.gutenberg.org/ebooks/69477.html.images","application/epub+zip":"https://www.gutenberg.org/ebooks/69477.epub3.images","application/x-mobipocket-ebook":"https://www.gutenberg.org/ebooks/69477.kf8.images","text/plain; charset=us-ascii":"https://www.gutenberg.org/ebooks/69477.txt.utf-8","application/rdf+xml":"https://www.gutenberg.org/ebooks/69477.rdf","image/jpeg":"https://www.gutenberg.org/cache/epub/69477/pg69477.cover.medium.jpg","application/octet-stream":"https://www.gutenberg.org/files/69477/69477-0.zip"},"download_count":23},{"id":69488,"title":"Practical forging and art smithing","authors":[{"name":"Googerty, Thomas F. (Thomas Francis)","birth_year":1865,"death_year":1945}],"translators":[],"subjects":["Forging","Ironwork"],"bookshelves":[],"languages":["en"],"copyright":false,"media_type":"Text","formats":{"text/html":"https://www.gutenberg.org/ebooks/69488.html.images","application/epub+zip":"https://www.gutenberg.org/ebooks/69488.epub3.images","application/x-mobipocket-ebook":"https://www.gutenberg.org/ebooks/69488.kf8.images","text/plain; charset=us-ascii":"https://www.gutenberg.org/ebooks/69488.txt.utf-8","application/rdf+xml":"https://www.gutenberg.org/ebooks/69488.rdf","image/jpeg":"https://www.gutenberg.org/cache/epub/69488/pg69488.cover.medium.jpg","application/octet-stream":"https://www.gutenberg.org/files/69488/69488-0.zip"},"download_count":23},{"id":69505,"title":"They wouldn't dare","authors":[{"name":"Mines, Samuel","birth_year":1909,"death_year":1998}],"translators":[],"subjects":["Science fiction","Scientists -- Fiction","Short stories","Weapons -- Fiction"],"bookshelves":[],"languages":["en"],"copyright":false,"media_type":"Text","formats":{"text/html":"https://www.gutenberg.org/ebooks/69505.html.images","application/epub+zip":"https://www.gutenberg.org/ebooks/69505.epub3.images","application/x-mobipocket-ebook":"https://www.gutenberg.org/ebooks/69505.kf8.images","text/plain; charset=us-ascii":"https://www.gutenberg.org/ebooks/69505.txt.utf-8","application/rdf+xml":"https://www.gutenberg.org/ebooks/69505.rdf","image/jpeg":"https://www.gutenberg.org/cache/epub/69505/pg69505.cover.medium.jpg","application/octet-stream":"https://www.gutenberg.org/files/69505/69505-0.zip"},"download_count":23},{"id":69511,"title":"Ben Hardy's flying machine; or, Making a record for himself","authors":[{"name":"Webster, Frank V.","birth_year":null,"death_year":null}],"translators":[],"subjects":["Aeronautics -- Juvenile fiction","Airplane racing -- Juvenile fiction","Airships -- Juvenile fiction","Mystery fiction","Thieves -- Juvenile fiction"],"bookshelves":[],"languages":["en"],"copyright":false,"media_type":"Text","formats":{"text/html":"https://www.gutenberg.org/ebooks/69511.html.images","application/epub+zip":"https://www.gutenberg.org/ebooks/69511.epub3.images","application/x-mobipocket-ebook":"https://www.gutenberg.org/ebooks/69511.kf8.images","text/plain; charset=us-ascii":"https://www.gutenberg.org/ebooks/69511.txt.utf-8","application/rdf+xml":"https://www.gutenberg.org/ebooks/69511.rdf","image/jpeg":"https://www.gutenberg.org/cache/epub/69511/pg69511.cover.medium.jpg","application/octet-stream":"https://www.gutenberg.org/files/69511/69511-0.zip"},"download_count":23},{"id":69573,"title":"The light: An educational pageant","authors":[{"name":"Bryce, Catherine T. (Catherine Turner)","birth_year":1871,"death_year":1951}],"translators":[],"subjects":["Pageants"],"bookshelves":[],"languages":["en"],"copyright":false,"media_type":"Text","formats":{"text/html":"https://www.gutenberg.org/ebooks/69573.html.images","application/epub+zip":"https://www.gutenberg.org/ebooks/69573.epub3.images","application/x-mobipocket-ebook":"https://www.gutenberg.org/ebooks/69573.kf8.images","text/plain; charset=us-ascii":"https://www.gutenberg.org/ebooks/69573.txt.utf-8","application/rdf+xml":"https://www.gutenberg.org/ebooks/69573.rdf","image/jpeg":"https://www.gutenberg.org/cache/epub/69573/pg69573.cover.medium.jpg","application/octet-stream":"https://www.gutenberg.org/files/69573/69573-0.zip"},"download_count":23},{"id":69664,"title":"The law of the road; or, wrongs and rights of a traveller","authors":[{"name":"Rogers, R. Vashon (Robert Vashon)","birth_year":1843,"death_year":1911}],"translators":[],"subjects":["Carriers -- Canada","Carriers -- United States","Highway law -- Canada","Highway law -- United States","Railroad law -- Canada","Railroad law -- United States","Travel"],"bookshelves":[],"languages":["en"],"copyright":false,"media_type":"Text","formats":{"text/html":"https://www.gutenberg.org/ebooks/69664.html.images","application/epub+zip":"https://www.gutenberg.org/ebooks/69664.epub3.images","application/x-mobipocket-ebook":"https://www.gutenberg.org/ebooks/69664.kf8.images","text/plain; charset=us-ascii":"https://www.gutenberg.org/ebooks/69664.txt.utf-8","application/rdf+xml":"https://www.gutenberg.org/ebooks/69664.rdf","image/jpeg":"https://www.gutenberg.org/cache/epub/69664/pg69664.cover.medium.jpg","application/octet-stream":"https://www.gutenberg.org/files/69664/69664-0.zip"},"download_count":23},{"id":69713,"title":"Hsilgne Esrever","authors":[{"name":"Carroll, John S.","birth_year":null,"death_year":null}],"translators":[],"subjects":["Animals -- Fiction","Communication -- Fiction","Inventions -- Fiction","Radio -- Fiction","Science fiction","Short stories"],"bookshelves":[],"languages":["en"],"copyright":false,"media_type":"Text","formats":{"text/html":"https://www.gutenberg.org/ebooks/69713.html.images","application/epub+zip":"https://www.gutenberg.org/ebooks/69713.epub3.images","application/x-mobipocket-ebook":"https://www.gutenberg.org/ebooks/69713.kf8.images","text/plain; charset=us-ascii":"https://www.gutenberg.org/ebooks/69713.txt.utf-8","application/rdf+xml":"https://www.gutenberg.org/ebooks/69713.rdf","image/jpeg":"https://www.gutenberg.org/cache/epub/69713/pg69713.cover.medium.jpg","application/octet-stream":"https://www.gutenberg.org/files/69713/69713-0.zip"},"download_count":23},{"id":69714,"title":"The discarded daughter; or, The children of the isle","authors":[{"name":"Southworth, Emma Dorothy Eliza Nevitte","birth_year":1819,"death_year":1899}],"translators":[],"subjects":["Chesapeake Bay Region (Md. and Va.) -- Fiction","Inheritance and succession -- Fiction","Maryland -- Fiction"],"bookshelves":[],"languages":["en"],"copyright":false,"media_type":"Text","formats":{"text/html":"https://www.gutenberg.org/ebooks/69714.html.images","application/epub+zip":"https://www.gutenberg.org/ebooks/69714.epub3.images","application/x-mobipocket-ebook":"https://www.gutenberg.org/ebooks/69714.kf8.images","text/plain; charset=us-ascii":"https://www.gutenberg.org/ebooks/69714.txt.utf-8","application/rdf+xml":"https://www.gutenberg.org/ebooks/69714.rdf","image/jpeg":"https://www.gutenberg.org/cache/epub/69714/pg69714.cover.medium.jpg","application/octet-stream":"https://www.gutenberg.org/files/69714/69714-0.zip"},"download_count":23},{"id":69717,"title":"That Eurasian","authors":[{"name":"Bey, Aleph","birth_year":null,"death_year":null}],"translators":[],"subjects":["Eurasians -- Fiction","India -- History -- British occupation, 1765-1947 -- Fiction"],"bookshelves":[],"languages":["en"],"copyright":false,"media_type":"Text","formats":{"text/html":"https://www.gutenberg.org/ebooks/69717.html.images","application/epub+zip":"https://www.gutenberg.org/ebooks/69717.epub3.images","application/x-mobipocket-ebook":"https://www.gutenberg.org/ebooks/69717.kf8.images","text/plain; charset=us-ascii":"https://www.gutenberg.org/ebooks/69717.txt.utf-8","application/rdf+xml":"https://www.gutenberg.org/ebooks/69717.rdf","image/jpeg":"https://www.gutenberg.org/cache/epub/69717/pg69717.cover.medium.jpg","application/octet-stream":"https://www.gutenberg.org/files/69717/69717-0.zip"},"download_count":23},{"id":69747,"title":"The gold rock of the Chippewa","authors":[{"name":"Lange, D. (Dietrich)","birth_year":1863,"death_year":1940}],"translators":[],"subjects":["Animals -- Juvenile fiction","Indians of North America -- Juvenile fiction","Minnesota -- Juvenile fiction","Ojibwa Indians -- Juvenile fiction","Superior, Lake -- Juvenile fiction"],"bookshelves":[],"languages":["en"],"copyright":false,"media_type":"Text","formats":{"text/html":"https://www.gutenberg.org/ebooks/69747.html.images","application/epub+zip":"https://www.gutenberg.org/ebooks/69747.epub3.images","application/x-mobipocket-ebook":"https://www.gutenberg.org/ebooks/69747.kf8.images","text/plain; charset=us-ascii":"https://www.gutenberg.org/ebooks/69747.txt.utf-8","application/rdf+xml":"https://www.gutenberg.org/ebooks/69747.rdf","image/jpeg":"https://www.gutenberg.org/cache/epub/69747/pg69747.cover.medium.jpg","application/octet-stream":"https://www.gutenberg.org/files/69747/69747-0.zip"},"download_count":23},{"id":69810,"title":"The pronunciation of Greek; accent and quantity. A philological inquiry","authors":[{"name":"Blackie, John Stuart","birth_year":1809,"death_year":1895}],"translators":[],"subjects":["Greek language -- Accents and accentuation","Greek language -- Quantity"],"bookshelves":[],"languages":["en"],"copyright":false,"media_type":"Text","formats":{"text/html":"https://www.gutenberg.org/ebooks/69810.html.images","application/epub+zip":"https://www.gutenberg.org/ebooks/69810.epub3.images","application/x-mobipocket-ebook":"https://www.gutenberg.org/ebooks/69810.kf8.images","text/plain; charset=us-ascii":"https://www.gutenberg.org/ebooks/69810.txt.utf-8","application/rdf+xml":"https://www.gutenberg.org/ebooks/69810.rdf","image/jpeg":"https://www.gutenberg.org/cache/epub/69810/pg69810.cover.medium.jpg","application/octet-stream":"https://www.gutenberg.org/files/69810/69810-0.zip"},"download_count":23},{"id":69831,"title":"A history of the mathematical theories of attraction and the figure of the earth from the time of Newton to that of Laplace. Volume 1","authors":[{"name":"Todhunter, I. (Isaac)","birth_year":1820,"death_year":1884}],"translators":[],"subjects":["Attractions of ellipsoids","Earth (Planet) -- Figure","Rotating masses of fluid"],"bookshelves":[],"languages":["en"],"copyright":false,"media_type":"Text","formats":{"application/pdf":"https://www.gutenberg.org/files/69831/69831-p/69831.pdf","application/rdf+xml":"https://www.gutenberg.org/ebooks/69831.rdf","application/prs.tex":"https://www.gutenberg.org/files/69831/69831-t/69831.tex","image/jpeg":"https://www.gutenberg.org/cache/epub/69831/pg69831.cover.medium.jpg"},"download_count":23},{"id":69857,"title":"Pride and Passion: Robert Burns, 1759-1796","authors":[{"name":"Ferguson, J. De Lancey (John De Lancey)","birth_year":1888,"death_year":1966}],"translators":[],"subjects":["Burns, Robert, 1759-1796"],"bookshelves":[],"languages":["en"],"copyright":false,"media_type":"Text","formats":{"text/html":"https://www.gutenberg.org/ebooks/69857.html.images","application/epub+zip":"https://www.gutenberg.org/ebooks/69857.epub3.images","application/x-mobipocket-ebook":"https://www.gutenberg.org/ebooks/69857.kf8.images","text/plain; charset=us-ascii":"https://www.gutenberg.org/ebooks/69857.txt.utf-8","application/rdf+xml":"https://www.gutenberg.org/ebooks/69857.rdf","image/jpeg":"https://www.gutenberg.org/cache/epub/69857/pg69857.cover.medium.jpg","application/octet-stream":"https://www.gutenberg.org/files/69857/69857-0.zip"},"download_count":23},{"id":69877,"title":"The fire in the flint","authors":[{"name":"White, Walter","birth_year":1893,"death_year":1955}],"translators":[],"subjects":["African American physicians -- Fiction","Bildungsromans","Georgia -- Fiction","Medical fiction","Race relations -- Fiction","Young men -- Fiction"],"bookshelves":[],"languages":["en"],"copyright":false,"media_type":"Text","formats":{"text/html":"https://www.gutenberg.org/ebooks/69877.html.images","application/epub+zip":"https://www.gutenberg.org/ebooks/69877.epub3.images","application/x-mobipocket-ebook":"https://www.gutenberg.org/ebooks/69877.kf8.images","text/plain; charset=us-ascii":"https://www.gutenberg.org/ebooks/69877.txt.utf-8","application/rdf+xml":"https://www.gutenberg.org/ebooks/69877.rdf","image/jpeg":"https://www.gutenberg.org/cache/epub/69877/pg69877.cover.medium.jpg","application/octet-stream":"https://www.gutenberg.org/files/69877/69877-0.zip"},"download_count":23},{"id":69889,"title":"Anecdotes and memoirs of William Boen, a coloured man, who lived and died near Mount Holly, New Jersey","authors":[{"name":"Anonymous","birth_year":null,"death_year":null}],"translators":[],"subjects":["African Americans -- New Jersey -- Biography","African Americans -- Religion","Boen, William, 1735-1824","Enslaved persons -- New Jersey -- Biography","Free African Americans -- New Jersey -- Biography","Slavery and the church -- Society of Friends"],"bookshelves":[],"languages":["en"],"copyright":false,"media_type":"Text","formats":{"text/html":"https://www.gutenberg.org/ebooks/69889.html.images","application/epub+zip":"https://www.gutenberg.org/ebooks/69889.epub3.images","application/x-mobipocket-ebook":"https://www.gutenberg.org/ebooks/69889.kf8.images","text/plain; charset=us-ascii":"https://www.gutenberg.org/ebooks/69889.txt.utf-8","application/rdf+xml":"https://www.gutenberg.org/ebooks/69889.rdf","image/jpeg":"https://www.gutenberg.org/cache/epub/69889/pg69889.cover.medium.jpg","application/octet-stream":"https://www.gutenberg.org/files/69889/69889-0.zip"},"download_count":23},{"id":69935,"title":"The Safety First Club","authors":[{"name":"Nichols, William Theophilus","birth_year":1863,"death_year":null}],"translators":[],"subjects":["Boys -- Conduct of life -- Juvenile fiction","Boys -- Societies and clubs -- Juvenile fiction"],"bookshelves":[],"languages":["en"],"copyright":false,"media_type":"Text","formats":{"text/html":"https://www.gutenberg.org/ebooks/69935.html.images","application/epub+zip":"https://www.gutenberg.org/ebooks/69935.epub3.images","application/x-mobipocket-ebook":"https://www.gutenberg.org/ebooks/69935.kf8.images","text/plain; charset=us-ascii":"https://www.gutenberg.org/ebooks/69935.txt.utf-8","application/rdf+xml":"https://www.gutenberg.org/ebooks/69935.rdf","image/jpeg":"https://www.gutenberg.org/cache/epub/69935/pg69935.cover.medium.jpg","application/octet-stream":"https://www.gutenberg.org/files/69935/69935-0.zip"},"download_count":23}]}