{"count":58808,"next":"http://129.241.150.113:8000/books/?languages=en&page=644","previous":"http://129.241.150.113:8000/books/?languages=en&page=642","results":[{"id":66004,"title":"Marie Corelli: The Writer and the Woman","authors":[{"name":"Bell, R. S. Warren (Robert Stanley Warren)","birth_year":1871,"death_year":1921},{"name":"Coates, Thomas F. G.","birth_year":null,"death_year":null}],"translators":[],"subjects":["Authors, English -- 20th century -- Biography","Corelli, Marie, 1855-1924","Women authors -- Biography"],"bookshelves":[],"languages":["en"],"copyright":false,"media_type":"Text","formats":{"text/html":"https://www.gutenberg.org/ebooks/66004.html.images","text/html; charset=utf-8":"https://www.gutenberg.org/files/66004/66004-h/66004-h.htm","application/epub+zip":"https://www.gutenberg.org/ebooks/66004.epub3.images","application/x-mobipocket-ebook":"https://www.gutenberg.org/ebooks/66004.kf8.images","text/plain; charset=us-ascii":"https://www.gutenberg.org/ebooks/66004.txt.utf-8","text/plain; charset=utf-8":"https://www.gutenberg.org/files/66004/66004-0.txt","application/rdf+xml":"https://www.gutenberg.org/ebooks/66004.rdf","image/jpeg":"https://www.gutenberg.org/cache/epub/66004/pg66004.cover.medium.jpg","application/octet-stream":"https://www.gutenberg.org/cache/epub/66004/pg66004-h.zip"},"download_count":51},{"id":66342,"title":"South Africa; vol I.","authors":[{"name":"Trollope, Anthony","birth_year":1815,"death_year":1882}],"translators":[],"subjects":["South Africa -- Description and travel","South Africa -- History -- 1836-1909","South Africa -- History -- To 1836"],"bookshelves":[],"languages":["en"],"copyright":false,"media_type":"Text","formats":{"text/html":"https://www.gutenberg.org/ebooks/66342.html.images","application/epub+zip":"https://www.gutenberg.org/ebooks/66342.epub3.images","application/x-mobipocket-ebook":"https://www.gutenberg.org/ebooks/66342.kf8.images","text/plain; charset=us-ascii":"https://www.gutenberg.org/ebooks/66342.txt.utf-8","application/rdf+xml":"https://www.gutenberg.org/ebooks/66342.rdf","image/jpeg":"https://www.gutenberg.org/cache/epub/66342/pg66342.cover.medium.jpg","application/octet-stream":"https://www.gutenberg.org/files/66342/66342-0.zip"},"download_count":51},{"id":66345,"title":"The Collected Works of Ambrose Bierce, Volume 12: In Motley","authors":[{"name":"Bierce, Ambrose","birth_year":1842,"death_year":1913}],"translators":[],"subjects":["American literature"],"bookshelves":[],"languages":["en"],"copyright":false,"media_type":"Text","formats":{"text/html":"https://www.gutenberg.org/ebooks/66345.html.images","application/epub+zip":"https://www.gutenberg.org/ebooks/66345.epub3.images","application/x-mobipocket-ebook":"https://www.gutenberg.org/ebooks/66345.kf8.images","text/plain; charset=us-ascii":"https://www.gutenberg.org/ebooks/66345.txt.utf-8","application/rdf+xml":"https://www.gutenberg.org/ebooks/66345.rdf","image/jpeg":"https://www.gutenberg.org/cache/epub/66345/pg66345.cover.medium.jpg","application/octet-stream":"https://www.gutenberg.org/files/66345/66345-0.zip"},"download_count":51},{"id":66650,"title":"The Life of the Grasshopper","authors":[{"name":"Fabre, Jean-Henri","birth_year":1823,"death_year":1915}],"translators":[{"name":"Teixeira de Mattos, Alexander","birth_year":1865,"death_year":1921}],"subjects":["Homoptera","Insects","Orthoptera"],"bookshelves":[],"languages":["en"],"copyright":false,"media_type":"Text","formats":{"text/html":"https://www.gutenberg.org/ebooks/66650.html.images","application/epub+zip":"https://www.gutenberg.org/ebooks/66650.epub3.images","application/x-mobipocket-ebook":"https://www.gutenberg.org/ebooks/66650.kf8.images","text/plain; charset=us-ascii":"https://www.gutenberg.org/ebooks/66650.txt.utf-8","application/rdf+xml":"https://www.gutenberg.org/ebooks/66650.rdf","image/jpeg":"https://www.gutenberg.org/cache/epub/66650/pg66650.cover.medium.jpg","application/octet-stream":"https://www.gutenberg.org/files/66650/66650-0.zip"},"download_count":51},{"id":66679,"title":"The Adventures of Gil Blas of Santillane, Volume 3 (of 3)","authors":[{"name":"Le Sage, Alain René","birth_year":1668,"death_year":1747}],"translators":[{"name":"Smollett, T. (Tobias)","birth_year":1721,"death_year":1771}],"subjects":["Adventure and adventurers -- Fiction","Blas, Gil (Fictitious character) -- Fiction"],"bookshelves":[],"languages":["en"],"copyright":false,"media_type":"Text","formats":{"text/html":"https://www.gutenberg.org/ebooks/66679.html.images","application/epub+zip":"https://www.gutenberg.org/ebooks/66679.epub3.images","application/x-mobipocket-ebook":"https://www.gutenberg.org/ebooks/66679.kf8.images","text/plain; charset=us-ascii":"https://www.gutenberg.org/ebooks/66679.txt.utf-8","application/rdf+xml":"https://www.gutenberg.org/ebooks/66679.rdf","image/jpeg":"https://www.gutenberg.org/cache/epub/66679/pg66679.cover.medium.jpg","application/octet-stream":"https://www.gutenberg.org/files/66679/66679-0.zip"},"download_count":51},{"id":66702,"title":"Wireless Telegraphy and Telephony Simply Explained: A Practical Treatise Embracing Complete and Detailed Explanations of the Theory and Practice of Modern Radio Apparatus and Its Present Day Applications, Together With a Chapter on the Possibilities of Its Future Development","authors":[{"name":"Morgan, Alfred Powell","birth_year":1889,"death_year":1972}],"translators":[],"subjects":["Radio","Telegraph, Wireless"],"bookshelves":[],"languages":["en"],"copyright":false,"media_type":"Text","formats":{"text/html":"https://www.gutenberg.org/ebooks/66702.html.images","application/epub+zip":"https://www.gutenberg.org/ebooks/66702.epub3.images","application/x-mobipocket-ebook":"https://www.gutenberg.org/ebooks/66702.kf8.images","text/plain; charset=us-ascii":"https://www.gutenberg.org/ebooks/66702.txt.utf-8","application/rdf+xml":"https://www.gutenberg.org/ebooks/66702.rdf","image/jpeg":"https://www.gutenberg.org/cache/epub/66702/pg66702.cover.medium.jpg","application/octet-stream":"https://www.gutenberg.org/files/66702/66702-0.zip"},"download_count":51},{"id":66906,"title":"Mårbacka","authors":[{"name":"Lagerlöf, Selma","birth_year":1858,"death_year":1940}],"translators":[{"name":"Howard, Velma Swanston","birth_year":1868,"death_year":1937}],"subjects":["Authors, Swedish -- 19th century -- Biography","Autobiographical fiction","Lagerlöf, Selma, 1858-1940","Sweden -- Social life and customs -- 19th century"],"bookshelves":[],"languages":["en"],"copyright":false,"media_type":"Text","formats":{"text/html":"https://www.gutenberg.org/ebooks/66906.html.images","application/epub+zip":"https://www.gutenberg.org/ebooks/66906.epub3.images","application/x-mobipocket-ebook":"https://www.gutenberg.org/ebooks/66906.kf8.images","text/plain; charset=us-ascii":"https://www.gutenberg.org/ebooks/66906.txt.utf-8","application/rdf+xml":"https://www.gutenberg.org/ebooks/66906.rdf","image/jpeg":"https://www.gutenberg.org/cache/epub/66906/pg66906.cover.medium.jpg","application/octet-stream":"https://www.gutenberg.org/files/66906/66906-0.zip"},"download_count":51},{"id":66909,"title":"The Ladies of the White House; Or, in the Home of the Presidents: Being a Complete History of the Social and Domestic Lives of the Presidents from Washington to the Present Time—1789–1881","authors":[{"name":"Holloway, Laura C. (Laura Carter)","birth_year":1848,"death_year":1930}],"translators":[],"subjects":["Presidents -- United States -- Biography","Presidents' spouses -- United States -- Biography"],"bookshelves":[],"languages":["en"],"copyright":false,"media_type":"Text","formats":{"text/html":"https://www.gutenberg.org/ebooks/66909.html.images","application/epub+zip":"https://www.gutenberg.org/ebooks/66909.epub3.images","application/x-mobipocket-ebook":"https://www.gutenberg.org/ebooks/66909.kf8.images","text/plain; charset=us-ascii":"https://www.gutenberg.org/ebooks/66909.txt.utf-8","application/rdf+xml":"https://www.gutenberg.org/ebooks/66909.rdf","image/jpeg":"https://www.gutenberg.org/cache/epub/66909/pg66909.cover.medium.jpg","application/octet-stream":"https://www.gutenberg.org/files/66909/66909-0.zip"},"download_count":51},{"id":66945,"title":"Memoirs and Services of the Eighty-third Regiment, County of Dublin, from 1793 to 1907: Including the Campaigns of the Regiment in the West Indies, Africa, the Peninsula, Ceylon, Canada, and India","authors":[{"name":"Bray, Edward William","birth_year":1823,"death_year":1891}],"translators":[],"subjects":["Great Britain -- History, Military","Great Britain. Army. Regiment of Foot, 83rd (County of Dublin) -- History","Great Britain. Army. Royal Irish Rifles. Battalion, 1st -- History"],"bookshelves":[],"languages":["en"],"copyright":false,"media_type":"Text","formats":{"text/html":"https://www.gutenberg.org/ebooks/66945.html.images","application/epub+zip":"https://www.gutenberg.org/ebooks/66945.epub3.images","application/x-mobipocket-ebook":"https://www.gutenberg.org/ebooks/66945.kf8.images","text/plain; charset=us-ascii":"https://www.gutenberg.org/ebooks/66945.txt.utf-8","application/rdf+xml":"https://www.gutenberg.org/ebooks/66945.rdf","image/jpeg":"https://www.gutenberg.org/cache/epub/66945/pg66945.cover.medium.jpg","application/octet-stream":"https://www.gutenberg.org/files/66945/66945-0.zip"},"download_count":51},{"id":67078,"title":"The Lady from Long Acre","authors":[{"name":"Bridges, Victor","birth_year":1878,"death_year":1972}],"translators":[],"subjects":["Adventure stories","Imaginary places -- Fiction","Kings and rulers -- Fiction","London (England) -- Fiction","Love stories"],"bookshelves":[],"languages":["en"],"copyright":false,"media_type":"Text","formats":{"text/html":"https://www.gutenberg.org/ebooks/67078.html.images","application/epub+zip":"https://www.gutenberg.org/ebooks/67078.epub3.images","application/x-mobipocket-ebook":"https://www.gutenberg.org/ebooks/67078.kf8.images","text/plain; charset=us-ascii":"https://www.gutenberg.org/ebooks/67078.txt.utf-8","application/rdf+xml":"https://www.gutenberg.org/ebooks/67078.rdf","image/jpeg":"https://www.gutenberg.org/cache/epub/67078/pg67078.cover.medium.jpg","application/octet-stream":"https://www.gutenberg.org/files/67078/67078-0.zip"},"download_count":51},{"id":67166,"title":"Self-Help Mechanical Drawing: An Educational Treatise","authors":[{"name":"Hawkins, N. (Nehemiah)","birth_year":1833,"death_year":1928}],"translators":[],"subjects":["Mechanical drawing"],"bookshelves":[],"languages":["en"],"copyright":false,"media_type":"Text","formats":{"text/html":"https://www.gutenberg.org/ebooks/67166.html.images","application/epub+zip":"https://www.gutenberg.org/ebooks/67166.epub3.images","application/x-mobipocket-ebook":"https://www.gutenberg.org/ebooks/67166.kf8.images","text/plain; charset=us-ascii":"https://www.gutenberg.org/ebooks/67166.txt.utf-8","application/rdf+xml":"https://www.gutenberg.org/ebooks/67166.rdf","image/jpeg":"https://www.gutenberg.org/cache/epub/67166/pg67166.cover.medium.jpg","application/octet-stream":"https://www.gutenberg.org/files/67166/67166-0.zip"},"download_count":51},{"id":67345,"title":"The Wonderful Adventures of Phra the Phoenician","authors":[{"name":"Arnold, Edwin Lester","birth_year":1857,"death_year":1935}],"translators":[],"subjects":["Fantasy fiction","Phoenicians -- Fiction"],"bookshelves":[],"languages":["en"],"copyright":false,"media_type":"Text","formats":{"text/html":"https://www.gutenberg.org/ebooks/67345.html.images","application/epub+zip":"https://www.gutenberg.org/ebooks/67345.epub3.images","application/x-mobipocket-ebook":"https://www.gutenberg.org/ebooks/67345.kf8.images","text/plain; charset=us-ascii":"https://www.gutenberg.org/ebooks/67345.txt.utf-8","application/rdf+xml":"https://www.gutenberg.org/ebooks/67345.rdf","image/jpeg":"https://www.gutenberg.org/cache/epub/67345/pg67345.cover.medium.jpg","application/octet-stream":"https://www.gutenberg.org/files/67345/67345-0.zip"},"download_count":51},{"id":67513,"title":"The Native Races of East Africa","authors":[{"name":"Hambly, Wilfrid D. (Wilfrid Dyson)","birth_year":1886,"death_year":1962}],"translators":[],"subjects":["Indigenous peoples -- Africa, East"],"bookshelves":[],"languages":["en"],"copyright":false,"media_type":"Text","formats":{"text/html":"https://www.gutenberg.org/ebooks/67513.html.images","application/epub+zip":"https://www.gutenberg.org/ebooks/67513.epub3.images","application/x-mobipocket-ebook":"https://www.gutenberg.org/ebooks/67513.kf8.images","text/plain; charset=us-ascii":"https://www.gutenberg.org/ebooks/67513.txt.utf-8","application/rdf+xml":"https://www.gutenberg.org/ebooks/67513.rdf","image/jpeg":"https://www.gutenberg.org/cache/epub/67513/pg67513.cover.medium.jpg","application/octet-stream":"https://www.gutenberg.org/files/67513/67513-0.zip"},"download_count":51},{"id":67959,"title":"On the Preparations of the Indian Hemp, or Gunjah (Cannabis Indica): Their Effects on the Animal System in Health, and Their Utility in the Treatment of Tetanus and Other Convulsive Diseases","authors":[{"name":"O'Shaughnessy, W. B.","birth_year":1809,"death_year":1889}],"translators":[],"subjects":["Cannabis -- Physiological effect","Cannabis -- Therapeutic use"],"bookshelves":[],"languages":["en"],"copyright":false,"media_type":"Text","formats":{"text/html":"https://www.gutenberg.org/ebooks/67959.html.images","application/epub+zip":"https://www.gutenberg.org/ebooks/67959.epub3.images","application/x-mobipocket-ebook":"https://www.gutenberg.org/ebooks/67959.kf8.images","text/plain; charset=us-ascii":"https://www.gutenberg.org/ebooks/67959.txt.utf-8","application/rdf+xml":"https://www.gutenberg.org/ebooks/67959.rdf","image/jpeg":"https://www.gutenberg.org/cache/epub/67959/pg67959.cover.medium.jpg","application/octet-stream":"https://www.gutenberg.org/files/67959/67959-0.zip"},"download_count":51},{"id":68118,"title":"Correlated courses in woodwork and mechanical drawing","authors":[{"name":"Griffith, Ira Samuel","birth_year":1874,"death_year":1924}],"translators":[],"subjects":["Mechanical drawing","Woodwork (Manual training)"],"bookshelves":[],"languages":["en"],"copyright":false,"media_type":"Text","formats":{"text/html":"https://www.gutenberg.org/ebooks/68118.html.images","application/epub+zip":"https://www.gutenberg.org/ebooks/68118.epub3.images","application/x-mobipocket-ebook":"https://www.gutenberg.org/ebooks/68118.kf8.images","text/plain; charset=us-ascii":"https://www.gutenberg.org/ebooks/68118.txt.utf-8","application/rdf+xml":"https://www.gutenberg.org/ebooks/68118.rdf","image/jpeg":"https://www.gutenberg.org/cache/epub/68118/pg68118.cover.medium.jpg","application/octet-stream":"https://www.gutenberg.org/files/68118/68118-0.zip"},"download_count":51},{"id":68172,"title":"The man in grey: Being episodes of the Chovan [i.e. Chouan] conspiracies in Normandy during the First Empire.","authors":[{"name":"Orczy, Emmuska Orczy, Baroness","birth_year":1865,"death_year":1947}],"translators":[],"subjects":["Chouans -- Fiction","Mystery and detective stories","Normandy (France) -- Fiction","War stories"],"bookshelves":[],"languages":["en"],"copyright":false,"media_type":"Text","formats":{"text/html":"https://www.gutenberg.org/ebooks/68172.html.images","application/epub+zip":"https://www.gutenberg.org/ebooks/68172.epub3.images","application/x-mobipocket-ebook":"https://www.gutenberg.org/ebooks/68172.kf8.images","text/plain; charset=us-ascii":"https://www.gutenberg.org/ebooks/68172.txt.utf-8","application/rdf+xml":"https://www.gutenberg.org/ebooks/68172.rdf","image/jpeg":"https://www.gutenberg.org/cache/epub/68172/pg68172.cover.medium.jpg","application/octet-stream":"https://www.gutenberg.org/files/68172/68172-0.zip"},"download_count":51},{"id":68231,"title":"The daily life of the Greeks and Romans as illustrated in the classical collections","authors":[{"name":"Metropolitan Museum of Art (New York, N.Y.)","birth_year":null,"death_year":null},{"name":"McClees, Helen","birth_year":1885,"death_year":null}],"translators":[],"subjects":["Art, Greek","Art, Roman","Greece -- Social life and customs","Rome -- Social life and customs"],"bookshelves":[],"languages":["en"],"copyright":false,"media_type":"Text","formats":{"text/html":"https://www.gutenberg.org/ebooks/68231.html.images","application/epub+zip":"https://www.gutenberg.org/ebooks/68231.epub3.images","application/x-mobipocket-ebook":"https://www.gutenberg.org/ebooks/68231.kf8.images","text/plain; charset=us-ascii":"https://www.gutenberg.org/ebooks/68231.txt.utf-8","application/rdf+xml":"https://www.gutenberg.org/ebooks/68231.rdf","image/jpeg":"https://www.gutenberg.org/cache/epub/68231/pg68231.cover.medium.jpg","application/octet-stream":"https://www.gutenberg.org/files/68231/68231-0.zip"},"download_count":51},{"id":68542,"title":"Free, and other stories","authors":[{"name":"Dreiser, Theodore","birth_year":1871,"death_year":1945}],"translators":[],"subjects":["Short stories, American","United States -- Social life and customs -- 20th century -- Fiction"],"bookshelves":[],"languages":["en"],"copyright":false,"media_type":"Text","formats":{"text/html":"https://www.gutenberg.org/ebooks/68542.html.images","application/epub+zip":"https://www.gutenberg.org/ebooks/68542.epub3.images","application/x-mobipocket-ebook":"https://www.gutenberg.org/ebooks/68542.kf8.images","text/plain; charset=us-ascii":"https://www.gutenberg.org/ebooks/68542.txt.utf-8","application/rdf+xml":"https://www.gutenberg.org/ebooks/68542.rdf","image/jpeg":"https://www.gutenberg.org/cache/epub/68542/pg68542.cover.medium.jpg","application/octet-stream":"https://www.gutenberg.org/files/68542/68542-0.zip"},"download_count":51},{"id":68589,"title":"Sandman's rainy day stories","authors":[{"name":"Walker, Abbie Phillips","birth_year":1867,"death_year":null}],"translators":[],"subjects":["Animals -- Juvenile fiction","Children's stories","Fairy tales","Short stories"],"bookshelves":[],"languages":["en"],"copyright":false,"media_type":"Text","formats":{"text/html":"https://www.gutenberg.org/ebooks/68589.html.images","application/epub+zip":"https://www.gutenberg.org/ebooks/68589.epub3.images","application/x-mobipocket-ebook":"https://www.gutenberg.org/ebooks/68589.kf8.images","text/plain; charset=us-ascii":"https://www.gutenberg.org/ebooks/68589.txt.utf-8","application/rdf+xml":"https://www.gutenberg.org/ebooks/68589.rdf","image/jpeg":"https://www.gutenberg.org/cache/epub/68589/pg68589.cover.medium.jpg","application/octet-stream":"https://www.gutenberg.org/files/68589/68589-0.zip"},"download_count":51},{"id":68806,"title":"The land of the Hittites: An account of recent explorations and discoveries in Asia Minor, with descriptions of the Hittite monuments","authors":[{"name":"Garstang, John","birth_year":1876,"death_year":1956}],"translators":[],"subjects":["Hittites","Turkey -- Antiquities"],"bookshelves":[],"languages":["en"],"copyright":false,"media_type":"Text","formats":{"text/html":"https://www.gutenberg.org/ebooks/68806.html.images","application/epub+zip":"https://www.gutenberg.org/ebooks/68806.epub3.images","application/x-mobipocket-ebook":"https://www.gutenberg.org/ebooks/68806.kf8.images","text/plain; charset=us-ascii":"https://www.gutenberg.org/ebooks/68806.txt.utf-8","application/rdf+xml":"https://www.gutenberg.org/ebooks/68806.rdf","image/jpeg":"https://www.gutenberg.org/cache/epub/68806/pg68806.cover.medium.jpg","application/octet-stream":"https://www.gutenberg.org/files/68806/68806-0.zip"},"download_count":51},{"id":68869,"title":"Miss America; pen and camera sketches of the American girl","authors":[{"name":"Black, Alexander","birth_year":1859,"death_year":1940}],"translators":[],"subjects":["Women -- United States","Women -- United States -- Social conditions"],"bookshelves":[],"languages":["en"],"copyright":false,"media_type":"Text","formats":{"text/html":"https://www.gutenberg.org/ebooks/68869.html.images","application/epub+zip":"https://www.gutenberg.org/ebooks/68869.epub3.images","application/x-mobipocket-ebook":"https://www.gutenberg.org/ebooks/68869.kf8.images","text/plain; charset=us-ascii":"https://www.gutenberg.org/ebooks/68869.txt.utf-8","application/rdf+xml":"https://www.gutenberg.org/ebooks/68869.rdf","image/jpeg":"https://www.gutenberg.org/cache/epub/68869/pg68869.cover.medium.jpg","application/octet-stream":"https://www.gutenberg.org/files/68869/68869-0.zip"},"download_count":51},{"id":69519,"title":"New system of domestic cookery, formed upon principles of economy, and adapted to the use of private families","authors":[{"name":"Rundell, Maria Eliza Ketelby","birth_year":1745,"death_year":1828}],"translators":[],"subjects":["Cooking"],"bookshelves":[],"languages":["en"],"copyright":false,"media_type":"Text","formats":{"text/html":"https://www.gutenberg.org/ebooks/69519.html.images","application/epub+zip":"https://www.gutenberg.org/ebooks/69519.epub3.images","application/x-mobipocket-ebook":"https://www.gutenberg.org/ebooks/69519.kf8.images","text/plain; charset=us-ascii":"https://www.gutenberg.org/ebooks/69519.txt.utf-8","application/rdf+xml":"https://www.gutenberg.org/ebooks/69519.rdf","image/jpeg":"https://www.gutenberg.org/cache/epub/69519/pg69519.cover.medium.jpg","application/octet-stream":"https://www.gutenberg.org/files/69519/69519-0.zip"},"download_count":51},{"id":69779,"title":"Something about Eve: A comedy of fig-leaves","authors":[{"name":"Cabell, James Branch","birth_year":1879,"death_year":1958}],"translators":[],"subjects":["Fantasy fiction","Historical fiction","Middle Ages -- Fiction"],"bookshelves":[],"languages":["en"],"copyright":false,"media_type":"Text","formats":{"text/html":"https://www.gutenberg.org/ebooks/69779.html.images","application/epub+zip":"https://www.gutenberg.org/ebooks/69779.epub3.images","application/x-mobipocket-ebook":"https://www.gutenberg.org/ebooks/69779.kf8.images","text/plain; charset=us-ascii":"https://www.gutenberg.org/ebooks/69779.txt.utf-8","application/rdf+xml":"https://www.gutenberg.org/ebooks/69779.rdf","image/jpeg":"https://www.gutenberg.org/cache/epub/69779/pg69779.cover.medium.jpg","application/octet-stream":"https://www.gutenberg.org/files/69779/69779-0.zip"},"download_count":51},{"id":70226,"title":"Carpentry","authors":[{"name":"Griffith, Ira Samuel","birth_year":1874,"death_year":1924}],"translators":[],"subjects":["Carpentry"],"bookshelves":[],"languages":["en"],"copyright":false,"media_type":"Text","formats":{"text/html":"https://www.gutenberg.org/ebooks/70226.html.images","application/epub+zip":"https://www.gutenberg.org/ebooks/70226.epub3.images","application/x-mobipocket-ebook":"https://www.gutenberg.org/ebooks/70226.kf8.images","text/plain; charset=us-ascii":"https://www.gutenberg.org/ebooks/70226.txt.utf-8","application/rdf+xml":"https://www.gutenberg.org/ebooks/70226.rdf","image/jpeg":"https://www.gutenberg.org/cache/epub/70226/pg70226.cover.medium.jpg","application/octet-stream":"https://www.gutenberg.org/files/70226/70226-0.zip"},"download_count":51},{"id":70586,"title":"Cutting and draping : $b a practical handbook for upholsterers and decorators","authors":[{"name":"Stephenson, John W. (John Wesley)","birth_year":1876,"death_year":null}],"translators":[],"subjects":["Draperies"],"bookshelves":[],"languages":["en"],"copyright":false,"media_type":"Text","formats":{"text/html":"https://www.gutenberg.org/ebooks/70586.html.images","application/epub+zip":"https://www.gutenberg.org/ebooks/70586.epub3.images","application/x-mobipocket-ebook":"https://www.gutenberg.org/ebooks/70586.kf8.images","text/plain; charset=us-ascii":"https://www.gutenberg.org/ebooks/70586.txt.utf-8","application/rdf+xml":"https://www.gutenberg.org/ebooks/70586.rdf","image/jpeg":"https://www.gutenberg.org/cache/epub/70586/pg70586.cover.medium.jpg","application/octet-stream":"https://www.gutenberg.org/files/70586/70586-0.zip"},"download_count":51},{"id":70643,"title":"Coca and Cocaine : $b Their history, medical and economic uses, and medicinal preparations","authors":[{"name":"Martindale, William","birth_year":1840,"death_year":1902}],"translators":[],"subjects":["Coca","Cocaine"],"bookshelves":[],"languages":["en"],"copyright":false,"media_type":"Text","formats":{"text/html":"https://www.gutenberg.org/ebooks/70643.html.images","application/epub+zip":"https://www.gutenberg.org/ebooks/70643.epub3.images","application/x-mobipocket-ebook":"https://www.gutenberg.org/ebooks/70643.kf8.images","text/plain; charset=us-ascii":"https://www.gutenberg.org/ebooks/70643.txt.utf-8","application/rdf+xml":"https://www.gutenberg.org/ebooks/70643.rdf","image/jpeg":"https://www.gutenberg.org/cache/epub/70643/pg70643.cover.medium.jpg","application/octet-stream":"https://www.gutenberg.org/files/70643/70643-0.zip"},"download_count":51},{"id":70761,"title":"Destiny times three","authors":[{"name":"Leiber, Fritz","birth_year":1910,"death_year":1992}],"translators":[],"subjects":["Interplanetary voyages -- Fiction","Science fiction","Space and time -- Fiction"],"bookshelves":[],"languages":["en"],"copyright":false,"media_type":"Text","formats":{"text/html":"https://www.gutenberg.org/ebooks/70761.html.images","application/epub+zip":"https://www.gutenberg.org/ebooks/70761.epub3.images","application/x-mobipocket-ebook":"https://www.gutenberg.org/ebooks/70761.kf8.images","text/plain; charset=us-ascii":"https://www.gutenberg.org/ebooks/70761.txt.utf-8","application/rdf+xml":"https://www.gutenberg.org/ebooks/70761.rdf","image/jpeg":"https://www.gutenberg.org/cache/epub/70761/pg70761.cover.medium.jpg","application/octet-stream":"https://www.gutenberg.org/files/70761/70761-0.zip"},"download_count":51},{"id":70869,"title":"The Ballantyne Press and its founders, 1796-1908","authors":[],"translators":[],"subjects":["Ballantyne Press","Edinburgh (Scotland) -- Imprints"],"bookshelves":[],"languages":["en"],"copyright":false,"media_type":"Text","formats":{"text/html":"https://www.gutenberg.org/ebooks/70869.html.images","application/epub+zip":"https://www.gutenberg.org/ebooks/70869.epub3.images","application/x-mobipocket-ebook":"https://www.gutenberg.org/ebooks/70869.kf8.images","text/plain; charset=us-ascii":"https://www.gutenberg.org/ebooks/70869.txt.utf-8","application/rdf+xml":"https://www.gutenberg.org/ebooks/70869.rdf","image/jpeg":"https://www.gutenberg.org/cache/epub/70869/pg70869.cover.medium.jpg","application/octet-stream":"https://www.gutenberg.org/files/70869/70869-0.zip"},"download_count":51},{"id":71205,"title":"On the wings of fate","authors":[{"name":"Rowlands, Effie Adelaide","birth_year":1866,"death_year":1936}],"translators":[],"subjects":["Dime novels","Romance fiction"],"bookshelves":[],"languages":["en"],"copyright":false,"media_type":"Text","formats":{"text/html":"https://www.gutenberg.org/ebooks/71205.html.images","application/epub+zip":"https://www.gutenberg.org/ebooks/71205.epub3.images","application/x-mobipocket-ebook":"https://www.gutenberg.org/ebooks/71205.kf8.images","text/plain; charset=us-ascii":"https://www.gutenberg.org/ebooks/71205.txt.utf-8","application/rdf+xml":"https://www.gutenberg.org/ebooks/71205.rdf","image/jpeg":"https://www.gutenberg.org/cache/epub/71205/pg71205.cover.medium.jpg","application/octet-stream":"https://www.gutenberg.org/files/71205/71205-0.zip"},"download_count":51},{"id":71653,"title":"Pittsburgh : $b a sketch of its early social life","authors":[{"name":"Dahlinger, Charles W. (Charles William)","birth_year":1858,"death_year":1935}],"translators":[],"subjects":["Pittsburgh (Pa.) -- Social life and customs"],"bookshelves":[],"languages":["en"],"copyright":false,"media_type":"Text","formats":{"text/html":"https://www.gutenberg.org/ebooks/71653.html.images","application/epub+zip":"https://www.gutenberg.org/ebooks/71653.epub3.images","application/x-mobipocket-ebook":"https://www.gutenberg.org/ebooks/71653.kf8.images","text/plain; charset=us-ascii":"https://www.gutenberg.org/ebooks/71653.txt.utf-8","application/rdf+xml":"https://www.gutenberg.org/ebooks/71653.rdf","image/jpeg":"https://www.gutenberg.org/cache/epub/71653/pg71653.cover.medium.jpg","application/octet-stream":"https://www.gutenberg.org/files/71653/71653-h.zip"},"download_count":51},{"id":71654,"title":"Photographic investigations of faint nebulae","authors":[{"name":"Hubble, Edwin","birth_year":1889,"death_year":1953}],"translators":[],"subjects":["Nebulae"],"bookshelves":[],"languages":["en"],"copyright":false,"media_type":"Text","formats":{"text/html":"https://www.gutenberg.org/ebooks/71654.html.images","application/epub+zip":"https://www.gutenberg.org/ebooks/71654.epub3.images","application/x-mobipocket-ebook":"https://www.gutenberg.org/ebooks/71654.kf8.images","text/plain; charset=us-ascii":"https://www.gutenberg.org/ebooks/71654.txt.utf-8","application/rdf+xml":"https://www.gutenberg.org/ebooks/71654.rdf","image/jpeg":"https://www.gutenberg.org/cache/epub/71654/pg71654.cover.medium.jpg","application/octet-stream":"https://www.gutenberg.org/files/71654/71654-h.zip"},"download_count":51},{"id":71786,"title":"Catherine herself","authors":[{"name":"Hilton, James","birth_year":1900,"death_year":1954}],"translators":[],"subjects":["Bildungsromans","English fiction -- 20th century","Women musicians -- Fiction"],"bookshelves":[],"languages":["en"],"copyright":false,"media_type":"Text","formats":{"text/html":"https://www.gutenberg.org/ebooks/71786.html.images","application/epub+zip":"https://www.gutenberg.org/ebooks/71786.epub3.images","application/x-mobipocket-ebook":"https://www.gutenberg.org/ebooks/71786.kf8.images","text/plain; charset=us-ascii":"https://www.gutenberg.org/ebooks/71786.txt.utf-8","application/rdf+xml":"https://www.gutenberg.org/ebooks/71786.rdf","image/jpeg":"https://www.gutenberg.org/cache/epub/71786/pg71786.cover.medium.jpg","application/octet-stream":"https://www.gutenberg.org/cache/epub/71786/pg71786-h.zip"},"download_count":51}]}