{"count":58808,"next":"http://129.241.150.113:8000/books/?languages=en&page=1772","previous":"http://129.241.150.113:8000/books/?languages=en&page=1770","results":[{"id":8237,"title":"The World English Bible (WEB): 2 Samuel","authors":[{"name":"Anonymous","birth_year":null,"death_year":null}],"translators":[],"subjects":["Bible. Samuel, 2nd"],"bookshelves":[],"languages":["en"],"copyright":false,"media_type":"Text","formats":{"text/html":"https://www.gutenberg.org/ebooks/8237.html.images","application/epub+zip":"https://www.gutenberg.org/ebooks/8237.epub3.images","application/x-mobipocket-ebook":"https://www.gutenberg.org/ebooks/8237.kf8.images","text/plain; charset=us-ascii":"https://www.gutenberg.org/ebooks/8237.txt.utf-8","application/rdf+xml":"https://www.gutenberg.org/ebooks/8237.rdf","image/jpeg":"https://www.gutenberg.org/cache/epub/8237/pg8237.cover.medium.jpg","application/octet-stream":"https://www.gutenberg.org/cache/epub/8237/pg8237-h.zip"},"download_count":14},{"id":8243,"title":"The World English Bible (WEB): Nehemiah","authors":[{"name":"Anonymous","birth_year":null,"death_year":null}],"translators":[],"subjects":["Bible. Nehemiah"],"bookshelves":[],"languages":["en"],"copyright":false,"media_type":"Text","formats":{"text/html":"https://www.gutenberg.org/ebooks/8243.html.images","application/epub+zip":"https://www.gutenberg.org/ebooks/8243.epub3.images","application/x-mobipocket-ebook":"https://www.gutenberg.org/ebooks/8243.kf8.images","text/plain; charset=us-ascii":"https://www.gutenberg.org/ebooks/8243.txt.utf-8","application/rdf+xml":"https://www.gutenberg.org/ebooks/8243.rdf","image/jpeg":"https://www.gutenberg.org/cache/epub/8243/pg8243.cover.medium.jpg","application/octet-stream":"https://www.gutenberg.org/cache/epub/8243/pg8243-h.zip"},"download_count":14},{"id":8251,"title":"The World English Bible (WEB): Jeremiah","authors":[{"name":"Anonymous","birth_year":null,"death_year":null}],"translators":[],"subjects":["Bible. Jeremiah"],"bookshelves":[],"languages":["en"],"copyright":false,"media_type":"Text","formats":{"text/html":"https://www.gutenberg.org/ebooks/8251.html.images","application/epub+zip":"https://www.gutenberg.org/ebooks/8251.epub3.images","application/x-mobipocket-ebook":"https://www.gutenberg.org/ebooks/8251.kf8.images","text/plain; charset=us-ascii":"https://www.gutenberg.org/ebooks/8251.txt.utf-8","application/rdf+xml":"https://www.gutenberg.org/ebooks/8251.rdf","image/jpeg":"https://www.gutenberg.org/cache/epub/8251/pg8251.cover.medium.jpg","application/octet-stream":"https://www.gutenberg.org/cache/epub/8251/pg8251-h.zip"},"download_count":14},{"id":8264,"title":"The World English Bible (WEB): Haggai","authors":[{"name":"Anonymous","birth_year":null,"death_year":null}],"translators":[],"subjects":["Bible. Haggai"],"bookshelves":[],"languages":["en"],"copyright":false,"media_type":"Text","formats":{"text/html":"https://www.gutenberg.org/ebooks/8264.html.images","application/epub+zip":"https://www.gutenberg.org/ebooks/8264.epub3.images","application/x-mobipocket-ebook":"https://www.gutenberg.org/ebooks/8264.kf8.images","text/plain; charset=us-ascii":"https://www.gutenberg.org/ebooks/8264.txt.utf-8","application/rdf+xml":"https://www.gutenberg.org/ebooks/8264.rdf","image/jpeg":"https://www.gutenberg.org/cache/epub/8264/pg8264.cover.medium.jpg","application/octet-stream":"https://www.gutenberg.org/cache/epub/8264/pg8264-h.zip"},"download_count":14},{"id":8275,"title":"The World English Bible (WEB): Galatians","authors":[{"name":"Anonymous","birth_year":null,"death_year":null}],"translators":[],"subjects":["Bible. Galatians"],"bookshelves":[],"languages":["en"],"copyright":false,"media_type":"Text","formats":{"text/html":"https://www.gutenberg.org/ebooks/8275.html.images","application/epub+zip":"https://www.gutenberg.org/ebooks/8275.epub3.images","application/x-mobipocket-ebook":"https://www.gutenberg.org/ebooks/8275.kf8.images","text/plain; charset=us-ascii":"https://www.gutenberg.org/ebooks/8275.txt.utf-8","application/rdf+xml":"https://www.gutenberg.org/ebooks/8275.rdf","image/jpeg":"https://www.gutenberg.org/cache/epub/8275/pg8275.cover.medium.jpg","application/octet-stream":"https://www.gutenberg.org/cache/epub/8275/pg8275-h.zip"},"download_count":14},{"id":8302,"title":"The Bible, Douay-Rheims, Book 02: Exodus: The Challoner Revision","authors":[],"translators":[],"subjects":["Bible. Exodus"],"bookshelves":[],"languages":["en"],"copyright":false,"media_type":"Text","formats":{"text/html":"https://www.gutenberg.org/ebooks/8302.html.images","application/epub+zip":"https://www.gutenberg.org/ebooks/8302.epub3.images","application/x-mobipocket-ebook":"https://www.gutenberg.org/ebooks/8302.kf8.images","text/plain; charset=us-ascii":"https://www.gutenberg.org/ebooks/8302.txt.utf-8","application/rdf+xml":"https://www.gutenberg.org/ebooks/8302.rdf","image/jpeg":"https://www.gutenberg.org/cache/epub/8302/pg8302.cover.medium.jpg","application/octet-stream":"https://www.gutenberg.org/cache/epub/8302/pg8302-h.zip"},"download_count":14},{"id":8327,"title":"The Bible, Douay-Rheims, Book 27: Isaias: The Challoner Revision","authors":[],"translators":[],"subjects":["Bible. Isaiah"],"bookshelves":[],"languages":["en"],"copyright":false,"media_type":"Text","formats":{"text/html":"https://www.gutenberg.org/ebooks/8327.html.images","application/epub+zip":"https://www.gutenberg.org/ebooks/8327.epub3.images","application/x-mobipocket-ebook":"https://www.gutenberg.org/ebooks/8327.kf8.images","text/plain; charset=us-ascii":"https://www.gutenberg.org/ebooks/8327.txt.utf-8","application/rdf+xml":"https://www.gutenberg.org/ebooks/8327.rdf","image/jpeg":"https://www.gutenberg.org/cache/epub/8327/pg8327.cover.medium.jpg","application/octet-stream":"https://www.gutenberg.org/cache/epub/8327/pg8327-h.zip"},"download_count":14},{"id":8329,"title":"The Bible, Douay-Rheims, Book 29: Lamentations of Jeremias: The Challoner Revision","authors":[],"translators":[],"subjects":["Bible. Lamentations"],"bookshelves":[],"languages":["en"],"copyright":false,"media_type":"Text","formats":{"text/html":"https://www.gutenberg.org/ebooks/8329.html.images","application/epub+zip":"https://www.gutenberg.org/ebooks/8329.epub3.images","application/x-mobipocket-ebook":"https://www.gutenberg.org/ebooks/8329.kf8.images","text/plain; charset=us-ascii":"https://www.gutenberg.org/ebooks/8329.txt.utf-8","application/rdf+xml":"https://www.gutenberg.org/ebooks/8329.rdf","image/jpeg":"https://www.gutenberg.org/cache/epub/8329/pg8329.cover.medium.jpg","application/octet-stream":"https://www.gutenberg.org/cache/epub/8329/pg8329-h.zip"},"download_count":14},{"id":8337,"title":"The Bible, Douay-Rheims, Book 37: Jonas: The Challoner Revision","authors":[],"translators":[],"subjects":["Bible. Jonah"],"bookshelves":[],"languages":["en"],"copyright":false,"media_type":"Text","formats":{"text/html":"https://www.gutenberg.org/ebooks/8337.html.images","application/epub+zip":"https://www.gutenberg.org/ebooks/8337.epub3.images","application/x-mobipocket-ebook":"https://www.gutenberg.org/ebooks/8337.kf8.images","text/plain; charset=us-ascii":"https://www.gutenberg.org/ebooks/8337.txt.utf-8","application/rdf+xml":"https://www.gutenberg.org/ebooks/8337.rdf","image/jpeg":"https://www.gutenberg.org/cache/epub/8337/pg8337.cover.medium.jpg","application/octet-stream":"https://www.gutenberg.org/cache/epub/8337/pg8337-h.zip"},"download_count":14},{"id":8427,"title":"Home Missions in Action","authors":[{"name":"Allen, Edith H. (Edith Hedden)","birth_year":1869,"death_year":null}],"translators":[],"subjects":["Home missions"],"bookshelves":[],"languages":["en"],"copyright":false,"media_type":"Text","formats":{"text/html":"https://www.gutenberg.org/ebooks/8427.html.images","application/epub+zip":"https://www.gutenberg.org/ebooks/8427.epub3.images","application/x-mobipocket-ebook":"https://www.gutenberg.org/ebooks/8427.kf8.images","text/plain; charset=us-ascii":"https://www.gutenberg.org/ebooks/8427.txt.utf-8","application/rdf+xml":"https://www.gutenberg.org/ebooks/8427.rdf","image/jpeg":"https://www.gutenberg.org/cache/epub/8427/pg8427.cover.medium.jpg","application/octet-stream":"https://www.gutenberg.org/cache/epub/8427/pg8427-h.zip"},"download_count":14},{"id":8589,"title":"Roughing It, Part 8.","authors":[{"name":"Twain, Mark","birth_year":1835,"death_year":1910}],"translators":[],"subjects":["Authors, American -- Homes and haunts -- West (U.S.)","Hawaii -- Description and travel","Twain, Mark, 1835-1910 -- Travel -- West (U.S.)","West (U.S.) -- Description and travel","West (U.S.) -- Intellectual life -- 19th century"],"bookshelves":[],"languages":["en"],"copyright":false,"media_type":"Text","formats":{"text/html":"https://www.gutenberg.org/ebooks/8589.html.images","text/html; charset=iso-8859-1":"https://www.gutenberg.org/files/8589/8589-h/8589-h.htm","application/epub+zip":"https://www.gutenberg.org/ebooks/8589.epub3.images","application/x-mobipocket-ebook":"https://www.gutenberg.org/ebooks/8589.kf8.images","text/plain; charset=us-ascii":"https://www.gutenberg.org/ebooks/8589.txt.utf-8","application/rdf+xml":"https://www.gutenberg.org/ebooks/8589.rdf","image/jpeg":"https://www.gutenberg.org/cache/epub/8589/pg8589.cover.medium.jpg","application/octet-stream":"https://www.gutenberg.org/cache/epub/8589/pg8589-h.zip"},"download_count":14},{"id":8807,"title":"Cuba in War Time","authors":[{"name":"Davis, Richard Harding","birth_year":1864,"death_year":1916}],"translators":[],"subjects":["Cuba -- History -- Revolution, 1895-1898 -- Personal narratives, American","Davis, Richard Harding, 1864-1916"],"bookshelves":[],"languages":["en"],"copyright":true,"media_type":"Sound","formats":{"text/plain; charset=us-ascii":"https://www.gutenberg.org/files/8807/8807-readme.txt","text/html; charset=iso-8859-1":"https://www.gutenberg.org/files/8807/8807-index.htm","audio/mpeg":"https://www.gutenberg.org/files/8807/mp3/8807-000.mp3","application/rdf+xml":"https://www.gutenberg.org/ebooks/8807.rdf","application/octet-stream":"https://www.gutenberg.org/files/8807/8807-mp3.zip"},"download_count":14},{"id":8851,"title":"Weymouth New Testament in Modern Speech, 2 John","authors":[{"name":"Weymouth, Richard Francis","birth_year":1822,"death_year":1902}],"translators":[],"subjects":["Bible. John"],"bookshelves":[],"languages":["en"],"copyright":false,"media_type":"Text","formats":{"text/html":"https://www.gutenberg.org/ebooks/8851.html.images","application/epub+zip":"https://www.gutenberg.org/ebooks/8851.epub3.images","application/x-mobipocket-ebook":"https://www.gutenberg.org/ebooks/8851.kf8.images","text/plain; charset=us-ascii":"https://www.gutenberg.org/ebooks/8851.txt.utf-8","application/rdf+xml":"https://www.gutenberg.org/ebooks/8851.rdf","image/jpeg":"https://www.gutenberg.org/cache/epub/8851/pg8851.cover.medium.jpg","application/octet-stream":"https://www.gutenberg.org/cache/epub/8851/pg8851-h.zip"},"download_count":14},{"id":8936,"title":"Holidays in Eastern France","authors":[{"name":"Betham-Edwards, Matilda","birth_year":1836,"death_year":1919}],"translators":[],"subjects":["France -- Description and travel"],"bookshelves":[],"languages":["en"],"copyright":false,"media_type":"Text","formats":{"text/html":"https://www.gutenberg.org/ebooks/8936.html.images","application/epub+zip":"https://www.gutenberg.org/ebooks/8936.epub3.images","application/x-mobipocket-ebook":"https://www.gutenberg.org/ebooks/8936.kf8.images","text/plain; charset=us-ascii":"https://www.gutenberg.org/ebooks/8936.txt.utf-8","text/plain; charset=iso-8859-1":"https://www.gutenberg.org/files/8936/8936-8.txt","application/rdf+xml":"https://www.gutenberg.org/ebooks/8936.rdf","image/jpeg":"https://www.gutenberg.org/cache/epub/8936/pg8936.cover.medium.jpg","application/octet-stream":"https://www.gutenberg.org/cache/epub/8936/pg8936-h.zip"},"download_count":14},{"id":9014,"title":"The Letters of Mark Twain","authors":[{"name":"Twain, Mark","birth_year":1835,"death_year":1910}],"translators":[],"subjects":["Authors, American -- 19th century -- Correspondence","Twain, Mark, 1835-1910 -- Correspondence"],"bookshelves":[],"languages":["en"],"copyright":true,"media_type":"Sound","formats":{"text/plain; charset=us-ascii":"https://www.gutenberg.org/files/9014/9014-readme.txt","text/html; charset=iso-8859-1":"https://www.gutenberg.org/files/9014/9014-index.htm","audio/mpeg":"https://www.gutenberg.org/files/9014/mp3/9014-000.mp3","application/rdf+xml":"https://www.gutenberg.org/ebooks/9014.rdf","application/octet-stream":"https://www.gutenberg.org/files/9014/9014-mp3.zip"},"download_count":14},{"id":9022,"title":"Goldsmith's Friend Abroad Again","authors":[{"name":"Twain, Mark","birth_year":1835,"death_year":1910}],"translators":[],"subjects":["Imaginary letters","Satire","United States -- Fiction"],"bookshelves":[],"languages":["en"],"copyright":true,"media_type":"Sound","formats":{"text/plain; charset=us-ascii":"https://www.gutenberg.org/files/9022/9022-readme.txt","text/html; charset=iso-8859-1":"https://www.gutenberg.org/files/9022/9022-index.htm","audio/mpeg":"https://www.gutenberg.org/files/9022/mp3/9022-000.mp3","application/rdf+xml":"https://www.gutenberg.org/ebooks/9022.rdf","application/octet-stream":"https://www.gutenberg.org/files/9022/9022-mp3.zip"},"download_count":14},{"id":9030,"title":"Essays on Paul Bourget","authors":[{"name":"Twain, Mark","birth_year":1835,"death_year":1910}],"translators":[],"subjects":["French literature -- History and criticism"],"bookshelves":[],"languages":["en"],"copyright":true,"media_type":"Sound","formats":{"text/plain; charset=us-ascii":"https://www.gutenberg.org/files/9030/9030-readme.txt","text/html; charset=iso-8859-1":"https://www.gutenberg.org/files/9030/9030-index.htm","audio/mpeg":"https://www.gutenberg.org/files/9030/mp3/9030-000.mp3","application/rdf+xml":"https://www.gutenberg.org/ebooks/9030.rdf","application/octet-stream":"https://www.gutenberg.org/files/9030/9030-mp3.zip"},"download_count":14},{"id":9156,"title":"Life and Remains of John Clare, The \"Northamptonshire Peasant Poet\"","authors":[{"name":"Clare, John","birth_year":1793,"death_year":1864}],"translators":[],"subjects":["Clare, John, 1793-1864"],"bookshelves":[],"languages":["en"],"copyright":false,"media_type":"Text","formats":{"text/html":"https://www.gutenberg.org/ebooks/9156.html.images","application/epub+zip":"https://www.gutenberg.org/ebooks/9156.epub3.images","application/x-mobipocket-ebook":"https://www.gutenberg.org/ebooks/9156.kf8.images","text/plain; charset=us-ascii":"https://www.gutenberg.org/ebooks/9156.txt.utf-8","application/rdf+xml":"https://www.gutenberg.org/ebooks/9156.rdf","image/jpeg":"https://www.gutenberg.org/cache/epub/9156/pg9156.cover.medium.jpg","application/octet-stream":"https://www.gutenberg.org/cache/epub/9156/pg9156-h.zip"},"download_count":14},{"id":9279,"title":"Fighting France, from Dunkerque to Belfort","authors":[{"name":"Wharton, Edith","birth_year":1862,"death_year":1937}],"translators":[],"subjects":["World War, 1914-1918 -- France","World War, 1914-1918 -- Personal narratives"],"bookshelves":["World War I"],"languages":["en"],"copyright":true,"media_type":"Sound","formats":{"text/plain; charset=us-ascii":"https://www.gutenberg.org/files/9279/9279-readme.txt","text/html; charset=iso-8859-1":"https://www.gutenberg.org/files/9279/9279-index.htm","audio/mpeg":"https://www.gutenberg.org/files/9279/mp3/9279-000.mp3","application/rdf+xml":"https://www.gutenberg.org/ebooks/9279.rdf","application/octet-stream":"https://www.gutenberg.org/files/9279/9279-mp3.zip"},"download_count":14},{"id":9354,"title":"Tales of Unrest","authors":[{"name":"Conrad, Joseph","birth_year":1857,"death_year":1924}],"translators":[],"subjects":["Adventure stories, English","Short stories"],"bookshelves":[],"languages":["en"],"copyright":true,"media_type":"Sound","formats":{"text/plain; charset=us-ascii":"https://www.gutenberg.org/files/9354/9354-readme.txt","text/html; charset=iso-8859-1":"https://www.gutenberg.org/files/9354/9354-index.htm","audio/mpeg":"https://www.gutenberg.org/files/9354/mp3/9354-000.mp3","application/rdf+xml":"https://www.gutenberg.org/ebooks/9354.rdf","application/octet-stream":"https://www.gutenberg.org/files/9354/9354-mp3.zip"},"download_count":14},{"id":9424,"title":"Late Lyrics and Earlier","authors":[{"name":"Hardy, Thomas","birth_year":1840,"death_year":1928}],"translators":[],"subjects":["English poetry"],"bookshelves":[],"languages":["en"],"copyright":true,"media_type":"Sound","formats":{"text/plain; charset=us-ascii":"https://www.gutenberg.org/files/9424/9424-readme.txt","text/html; charset=iso-8859-1":"https://www.gutenberg.org/files/9424/9424-index.htm","audio/mpeg":"https://www.gutenberg.org/files/9424/mp3/9424-000.mp3","application/rdf+xml":"https://www.gutenberg.org/ebooks/9424.rdf","application/octet-stream":"https://www.gutenberg.org/files/9424/9424-mp3.zip"},"download_count":14},{"id":9472,"title":"The Atlantic Monthly, Volume 05, No. 31, May, 1860: A Magazine of Literature, Art, and Politics","authors":[{"name":"Various","birth_year":null,"death_year":null}],"translators":[],"subjects":["American periodicals"],"bookshelves":["The Atlantic Monthly"],"languages":["en"],"copyright":false,"media_type":"Text","formats":{"text/html":"https://www.gutenberg.org/ebooks/9472.html.images","application/epub+zip":"https://www.gutenberg.org/ebooks/9472.epub3.images","application/x-mobipocket-ebook":"https://www.gutenberg.org/ebooks/9472.kf8.images","text/plain; charset=us-ascii":"https://www.gutenberg.org/ebooks/9472.txt.utf-8","text/plain; charset=iso-8859-1":"https://www.gutenberg.org/files/9472/9472-8.txt","application/rdf+xml":"https://www.gutenberg.org/ebooks/9472.rdf","image/jpeg":"https://www.gutenberg.org/cache/epub/9472/pg9472.cover.medium.jpg","application/octet-stream":"https://www.gutenberg.org/cache/epub/9472/pg9472-h.zip"},"download_count":14},{"id":9576,"title":"Anti-Slavery Poems 2.: Part 2 From Volume III of The Works of John Greenleaf Whittier","authors":[{"name":"Whittier, John Greenleaf","birth_year":1807,"death_year":1892}],"translators":[],"subjects":["Slavery -- United States -- Poetry"],"bookshelves":[],"languages":["en"],"copyright":false,"media_type":"Text","formats":{"text/html":"https://www.gutenberg.org/ebooks/9576.html.images","application/epub+zip":"https://www.gutenberg.org/ebooks/9576.epub3.images","application/x-mobipocket-ebook":"https://www.gutenberg.org/ebooks/9576.kf8.images","text/plain; charset=us-ascii":"https://www.gutenberg.org/ebooks/9576.txt.utf-8","application/rdf+xml":"https://www.gutenberg.org/ebooks/9576.rdf","image/jpeg":"https://www.gutenberg.org/cache/epub/9576/pg9576.cover.medium.jpg","application/octet-stream":"https://www.gutenberg.org/cache/epub/9576/pg9576-h.zip"},"download_count":14},{"id":9693,"title":"American Notes","authors":[{"name":"Dickens, Charles","birth_year":1812,"death_year":1870}],"translators":[],"subjects":["Dickens, Charles, 1812-1870 -- Travel -- United States","United States -- Description and travel","United States -- Social life and customs -- 1783-1865"],"bookshelves":[],"languages":["en"],"copyright":true,"media_type":"Sound","formats":{"text/plain; charset=us-ascii":"https://www.gutenberg.org/files/9693/9693-readme.txt","text/html; charset=iso-8859-1":"https://www.gutenberg.org/files/9693/9693-index.htm","audio/mpeg":"https://www.gutenberg.org/files/9693/mp3/9693-000.mp3","application/rdf+xml":"https://www.gutenberg.org/ebooks/9693.rdf","application/octet-stream":"https://www.gutenberg.org/files/9693/9693-mp3.zip"},"download_count":14},{"id":9707,"title":"Going into Society","authors":[{"name":"Dickens, Charles","birth_year":1812,"death_year":1870}],"translators":[],"subjects":["Fiction"],"bookshelves":[],"languages":["en"],"copyright":true,"media_type":"Sound","formats":{"text/plain; charset=us-ascii":"https://www.gutenberg.org/files/9707/9707-readme.txt","text/html; charset=iso-8859-1":"https://www.gutenberg.org/files/9707/9707-index.htm","audio/mpeg":"https://www.gutenberg.org/files/9707/mp3/9707-000.mp3","application/rdf+xml":"https://www.gutenberg.org/ebooks/9707.rdf","application/octet-stream":"https://www.gutenberg.org/files/9707/9707-mp3.zip"},"download_count":14},{"id":9722,"title":"Mrs. Lirriper's Lodgings","authors":[{"name":"Dickens, Charles","birth_year":1812,"death_year":1870}],"translators":[],"subjects":["Boardinghouses -- Fiction","Great Britain -- History -- Victoria, 1837-1901 -- Fiction","Widows -- Fiction"],"bookshelves":[],"languages":["en"],"copyright":true,"media_type":"Sound","formats":{"text/plain; charset=us-ascii":"https://www.gutenberg.org/files/9722/9722-readme.txt","text/html; charset=iso-8859-1":"https://www.gutenberg.org/files/9722/9722-index.htm","audio/mpeg":"https://www.gutenberg.org/files/9722/mp3/9722-000.mp3","application/rdf+xml":"https://www.gutenberg.org/ebooks/9722.rdf","application/octet-stream":"https://www.gutenberg.org/files/9722/9722-mp3.zip"},"download_count":14},{"id":9751,"title":"Night and Morning, Volume 2","authors":[{"name":"Lytton, Edward Bulwer Lytton, Baron","birth_year":1803,"death_year":1873}],"translators":[],"subjects":["English fiction"],"bookshelves":[],"languages":["en"],"copyright":false,"media_type":"Text","formats":{"text/html":"https://www.gutenberg.org/ebooks/9751.html.images","application/epub+zip":"https://www.gutenberg.org/ebooks/9751.epub3.images","application/x-mobipocket-ebook":"https://www.gutenberg.org/ebooks/9751.kf8.images","text/plain; charset=us-ascii":"https://www.gutenberg.org/ebooks/9751.txt.utf-8","application/rdf+xml":"https://www.gutenberg.org/ebooks/9751.rdf","image/jpeg":"https://www.gutenberg.org/cache/epub/9751/pg9751.cover.medium.jpg","application/octet-stream":"https://www.gutenberg.org/cache/epub/9751/pg9751-h.zip"},"download_count":14},{"id":9754,"title":"Night and Morning, Volume 5","authors":[{"name":"Lytton, Edward Bulwer Lytton, Baron","birth_year":1803,"death_year":1873}],"translators":[],"subjects":["English fiction"],"bookshelves":[],"languages":["en"],"copyright":false,"media_type":"Text","formats":{"text/html":"https://www.gutenberg.org/ebooks/9754.html.images","application/epub+zip":"https://www.gutenberg.org/ebooks/9754.epub3.images","application/x-mobipocket-ebook":"https://www.gutenberg.org/ebooks/9754.kf8.images","text/plain; charset=us-ascii":"https://www.gutenberg.org/ebooks/9754.txt.utf-8","application/rdf+xml":"https://www.gutenberg.org/ebooks/9754.rdf","image/jpeg":"https://www.gutenberg.org/cache/epub/9754/pg9754.cover.medium.jpg","application/octet-stream":"https://www.gutenberg.org/cache/epub/9754/pg9754-h.zip"},"download_count":14},{"id":9756,"title":"Leila or, the Siege of Granada, Book I.","authors":[{"name":"Lytton, Edward Bulwer Lytton, Baron","birth_year":1803,"death_year":1873}],"translators":[],"subjects":["Granada (Spain) -- History -- Siege, 1491-1492 -- Fiction","Sieges -- Fiction"],"bookshelves":["Historical Fiction"],"languages":["en"],"copyright":false,"media_type":"Text","formats":{"text/html":"https://www.gutenberg.org/ebooks/9756.html.images","application/epub+zip":"https://www.gutenberg.org/ebooks/9756.epub3.images","application/x-mobipocket-ebook":"https://www.gutenberg.org/ebooks/9756.kf8.images","text/plain; charset=us-ascii":"https://www.gutenberg.org/ebooks/9756.txt.utf-8","application/rdf+xml":"https://www.gutenberg.org/ebooks/9756.rdf","image/jpeg":"https://www.gutenberg.org/cache/epub/9756/pg9756.cover.medium.jpg","application/octet-stream":"https://www.gutenberg.org/cache/epub/9756/pg9756-h.zip"},"download_count":14},{"id":9930,"title":"Groups of the Order p^m Which Contain Cyclic Subgroups of Order p^(m-3)","authors":[{"name":"Neikirk, Lewis Irving","birth_year":1873,"death_year":null}],"translators":[],"subjects":["Group theory"],"bookshelves":["Mathematics"],"languages":["en"],"copyright":false,"media_type":"Text","formats":{"application/pdf":"https://www.gutenberg.org/files/9930/9930-pdf.pdf","application/prs.tex":"https://www.gutenberg.org/files/9930/9930-t/9930-t.tex","application/rdf+xml":"https://www.gutenberg.org/ebooks/9930.rdf","image/jpeg":"https://www.gutenberg.org/cache/epub/9930/pg9930.cover.medium.jpg","application/octet-stream":"https://www.gutenberg.org/files/9930/930-pdf.zip"},"download_count":14},{"id":10036,"title":"Punchinello, Volume 2, No. 28, October 8, 1870","authors":[{"name":"Various","birth_year":null,"death_year":null}],"translators":[],"subjects":["American wit and humor -- Periodicals"],"bookshelves":["Punchinello"],"languages":["en"],"copyright":false,"media_type":"Text","formats":{"text/html":"https://www.gutenberg.org/ebooks/10036.html.images","text/html; charset=iso-8859-1":"https://www.gutenberg.org/files/10036/10036-h/10036-h.htm","application/epub+zip":"https://www.gutenberg.org/ebooks/10036.epub3.images","application/x-mobipocket-ebook":"https://www.gutenberg.org/ebooks/10036.kf8.images","text/plain; charset=us-ascii":"https://www.gutenberg.org/ebooks/10036.txt.utf-8","text/plain; charset=iso-8859-1":"https://www.gutenberg.org/files/10036/10036-8.txt","application/rdf+xml":"https://www.gutenberg.org/ebooks/10036.rdf","image/jpeg":"https://www.gutenberg.org/cache/epub/10036/pg10036.cover.medium.jpg","application/octet-stream":"https://www.gutenberg.org/cache/epub/10036/pg10036-h.zip"},"download_count":14},{"id":10139,"title":"The Faith of the Millions (2nd series)","authors":[{"name":"Tyrrell, George","birth_year":1861,"death_year":1909}],"translators":[],"subjects":["Catholic Church"],"bookshelves":[],"languages":["en"],"copyright":false,"media_type":"Text","formats":{"text/html":"https://www.gutenberg.org/ebooks/10139.html.images","application/epub+zip":"https://www.gutenberg.org/ebooks/10139.epub3.images","application/x-mobipocket-ebook":"https://www.gutenberg.org/ebooks/10139.kf8.images","text/plain; charset=us-ascii":"https://www.gutenberg.org/ebooks/10139.txt.utf-8","text/plain; charset=iso-8859-1":"https://www.gutenberg.org/files/10139/10139-8.txt","application/rdf+xml":"https://www.gutenberg.org/ebooks/10139.rdf","image/jpeg":"https://www.gutenberg.org/cache/epub/10139/pg10139.cover.medium.jpg","application/octet-stream":"https://www.gutenberg.org/cache/epub/10139/pg10139-h.zip"},"download_count":14}]}