{"count":58808,"next":"http://129.241.150.113:8000/books/?languages=en&page=1833","previous":"http://129.241.150.113:8000/books/?languages=en&page=1831","results":[{"id":70134,"title":"The curse of gold","authors":[{"name":"Stephens, Ann S. (Ann Sophia)","birth_year":1810,"death_year":1886}],"translators":[],"subjects":["Man-woman relationships -- Fiction","United States -- Social life and customs -- 19th century -- Fiction","Women -- Fiction"],"bookshelves":[],"languages":["en"],"copyright":false,"media_type":"Text","formats":{"text/html":"https://www.gutenberg.org/ebooks/70134.html.images","application/epub+zip":"https://www.gutenberg.org/ebooks/70134.epub3.images","application/x-mobipocket-ebook":"https://www.gutenberg.org/ebooks/70134.kf8.images","text/plain; charset=us-ascii":"https://www.gutenberg.org/ebooks/70134.txt.utf-8","application/rdf+xml":"https://www.gutenberg.org/ebooks/70134.rdf","image/jpeg":"https://www.gutenberg.org/cache/epub/70134/pg70134.cover.medium.jpg","application/octet-stream":"https://www.gutenberg.org/files/70134/70134-0.zip"},"download_count":6},{"id":2203,"title":"Human Genome Project, rough draft, Chromosome Number 03","authors":[{"name":"Human Genome Project","birth_year":null,"death_year":null}],"translators":[],"subjects":["Human Genome Project","Human gene mapping","Human genetics","Nucleotide sequence"],"bookshelves":[],"languages":["en"],"copyright":false,"media_type":"Dataset","formats":{"text/plain; charset=us-ascii":"https://www.gutenberg.org/files/2203/2203.zip","application/rdf+xml":"https://www.gutenberg.org/ebooks/2203.rdf"},"download_count":5},{"id":2207,"title":"Human Genome Project, rough draft, Chromosome Number 07","authors":[{"name":"Human Genome Project","birth_year":null,"death_year":null}],"translators":[],"subjects":["Human Genome Project","Human gene mapping","Human genetics","Nucleotide sequence"],"bookshelves":[],"languages":["en"],"copyright":false,"media_type":"Dataset","formats":{"text/plain; charset=us-ascii":"https://www.gutenberg.org/files/2207/2207.zip","application/rdf+xml":"https://www.gutenberg.org/ebooks/2207.rdf"},"download_count":5},{"id":2213,"title":"Human Genome Project, rough draft, Chromosome Number 13","authors":[{"name":"Human Genome Project","birth_year":null,"death_year":null}],"translators":[],"subjects":["Human Genome Project","Human gene mapping","Human genetics","Nucleotide sequence"],"bookshelves":[],"languages":["en"],"copyright":false,"media_type":"Dataset","formats":{"text/plain; charset=us-ascii":"https://www.gutenberg.org/files/2213/2213.zip","application/rdf+xml":"https://www.gutenberg.org/ebooks/2213.rdf"},"download_count":5},{"id":2677,"title":"Epistles from Pap: Letters from the man known as 'The Will Rogers of Indiana'","authors":[{"name":"Durham, Andrew Everett","birth_year":1882,"death_year":1954}],"translators":[],"subjects":["Durham, Andrew Everett, 1882-1954 -- Correspondence","Indiana -- Politics and government -- 20th century","Legislators -- Indiana -- Correspondence","Lobbyists -- Indiana -- Correspondence"],"bookshelves":[],"languages":["en"],"copyright":true,"media_type":"Text","formats":{"text/html":"https://www.gutenberg.org/ebooks/2677.html.images","application/epub+zip":"https://www.gutenberg.org/ebooks/2677.epub3.images","application/x-mobipocket-ebook":"https://www.gutenberg.org/ebooks/2677.kf8.images","text/plain; charset=us-ascii":"https://www.gutenberg.org/ebooks/2677.txt.utf-8","application/rdf+xml":"https://www.gutenberg.org/ebooks/2677.rdf","image/jpeg":"https://www.gutenberg.org/cache/epub/2677/pg2677.cover.medium.jpg","application/octet-stream":"https://www.gutenberg.org/cache/epub/2677/pg2677-h.zip"},"download_count":5},{"id":3502,"title":"Human Genome Project, Chromosome Number 02","authors":[{"name":"Human Genome Project","birth_year":null,"death_year":null}],"translators":[],"subjects":["Human Genome Project","Human gene mapping","Human genetics","Nucleotide sequence"],"bookshelves":[],"languages":["en"],"copyright":false,"media_type":"Dataset","formats":{"text/plain; charset=us-ascii":"https://www.gutenberg.org/files/3502/3502.zip","application/rdf+xml":"https://www.gutenberg.org/ebooks/3502.rdf"},"download_count":5},{"id":3504,"title":"Human Genome Project, Chromosome Number 04","authors":[{"name":"Human Genome Project","birth_year":null,"death_year":null}],"translators":[],"subjects":["Human Genome Project","Human gene mapping","Human genetics","Nucleotide sequence"],"bookshelves":[],"languages":["en"],"copyright":false,"media_type":"Dataset","formats":{"text/plain; charset=us-ascii":"https://www.gutenberg.org/files/3504/3504.zip","application/rdf+xml":"https://www.gutenberg.org/ebooks/3504.rdf"},"download_count":5},{"id":3508,"title":"Human Genome Project, Chromosome Number 08","authors":[{"name":"Human Genome Project","birth_year":null,"death_year":null}],"translators":[],"subjects":["Human Genome Project","Human gene mapping","Human genetics","Nucleotide sequence"],"bookshelves":[],"languages":["en"],"copyright":false,"media_type":"Dataset","formats":{"text/plain; charset=us-ascii":"https://www.gutenberg.org/files/3508/3508.zip","application/rdf+xml":"https://www.gutenberg.org/ebooks/3508.rdf"},"download_count":5},{"id":4425,"title":"Rhoda Fleming — Volume 5","authors":[{"name":"Meredith, George","birth_year":1828,"death_year":1909}],"translators":[],"subjects":["English fiction -- 19th century","Farm life -- Fiction","Great Britain -- Social life and customs -- 19th century -- Fiction","Middle class -- Fiction"],"bookshelves":[],"languages":["en"],"copyright":false,"media_type":"Text","formats":{"text/html":"https://www.gutenberg.org/ebooks/4425.html.images","application/epub+zip":"https://www.gutenberg.org/ebooks/4425.epub3.images","application/x-mobipocket-ebook":"https://www.gutenberg.org/ebooks/4425.kf8.images","text/plain; charset=us-ascii":"https://www.gutenberg.org/ebooks/4425.txt.utf-8","application/rdf+xml":"https://www.gutenberg.org/ebooks/4425.rdf","image/jpeg":"https://www.gutenberg.org/cache/epub/4425/pg4425.cover.medium.jpg","application/octet-stream":"https://www.gutenberg.org/cache/epub/4425/pg4425-h.zip"},"download_count":5},{"id":7596,"title":"The Caxtons: A Family Picture — Volume 11","authors":[{"name":"Lytton, Edward Bulwer Lytton, Baron","birth_year":1803,"death_year":1873}],"translators":[],"subjects":["English fiction -- 19th century","Families -- Fiction"],"bookshelves":[],"languages":["en"],"copyright":false,"media_type":"Text","formats":{"text/html":"https://www.gutenberg.org/ebooks/7596.html.images","application/epub+zip":"https://www.gutenberg.org/ebooks/7596.epub3.images","application/x-mobipocket-ebook":"https://www.gutenberg.org/ebooks/7596.kf8.images","text/plain; charset=us-ascii":"https://www.gutenberg.org/ebooks/7596.txt.utf-8","application/rdf+xml":"https://www.gutenberg.org/ebooks/7596.rdf","image/jpeg":"https://www.gutenberg.org/cache/epub/7596/pg7596.cover.medium.jpg","application/octet-stream":"https://www.gutenberg.org/cache/epub/7596/pg7596-h.zip"},"download_count":5},{"id":7660,"title":"What Will He Do with It? — Volume 02","authors":[{"name":"Lytton, Edward Bulwer Lytton, Baron","birth_year":1803,"death_year":1873}],"translators":[],"subjects":["English fiction -- 19th century"],"bookshelves":[],"languages":["en"],"copyright":false,"media_type":"Text","formats":{"text/html":"https://www.gutenberg.org/ebooks/7660.html.images","application/epub+zip":"https://www.gutenberg.org/ebooks/7660.epub3.images","application/x-mobipocket-ebook":"https://www.gutenberg.org/ebooks/7660.kf8.images","text/plain; charset=us-ascii":"https://www.gutenberg.org/ebooks/7660.txt.utf-8","application/rdf+xml":"https://www.gutenberg.org/ebooks/7660.rdf","image/jpeg":"https://www.gutenberg.org/cache/epub/7660/pg7660.cover.medium.jpg","application/octet-stream":"https://www.gutenberg.org/cache/epub/7660/pg7660-h.zip"},"download_count":5},{"id":7687,"title":"Lucretia — Volume 03","authors":[{"name":"Lytton, Edward Bulwer Lytton, Baron","birth_year":1803,"death_year":1873}],"translators":[],"subjects":["Crime -- Fiction","Detective and mystery stories, English","English fiction -- 19th century","London (England) -- Fiction"],"bookshelves":[],"languages":["en"],"copyright":false,"media_type":"Text","formats":{"text/html":"https://www.gutenberg.org/ebooks/7687.html.images","application/epub+zip":"https://www.gutenberg.org/ebooks/7687.epub3.images","application/x-mobipocket-ebook":"https://www.gutenberg.org/ebooks/7687.kf8.images","text/plain; charset=us-ascii":"https://www.gutenberg.org/ebooks/7687.txt.utf-8","application/rdf+xml":"https://www.gutenberg.org/ebooks/7687.rdf","image/jpeg":"https://www.gutenberg.org/cache/epub/7687/pg7687.cover.medium.jpg","application/octet-stream":"https://www.gutenberg.org/cache/epub/7687/pg7687-h.zip"},"download_count":5},{"id":8281,"title":"The World English Bible (WEB): 1 Timothy","authors":[{"name":"Anonymous","birth_year":null,"death_year":null}],"translators":[],"subjects":["Bible. Timothy, 1st"],"bookshelves":[],"languages":["en"],"copyright":false,"media_type":"Text","formats":{"text/html":"https://www.gutenberg.org/ebooks/8281.html.images","application/epub+zip":"https://www.gutenberg.org/ebooks/8281.epub3.images","application/x-mobipocket-ebook":"https://www.gutenberg.org/ebooks/8281.kf8.images","text/plain; charset=us-ascii":"https://www.gutenberg.org/ebooks/8281.txt.utf-8","application/rdf+xml":"https://www.gutenberg.org/ebooks/8281.rdf","image/jpeg":"https://www.gutenberg.org/cache/epub/8281/pg8281.cover.medium.jpg","application/octet-stream":"https://www.gutenberg.org/cache/epub/8281/pg8281-h.zip"},"download_count":5},{"id":8312,"title":"The Bible, Douay-Rheims, Book 12: 4 Kings: The Challoner Revision","authors":[],"translators":[],"subjects":["Bible. Kings, 2nd"],"bookshelves":[],"languages":["en"],"copyright":false,"media_type":"Text","formats":{"text/html":"https://www.gutenberg.org/ebooks/8312.html.images","application/epub+zip":"https://www.gutenberg.org/ebooks/8312.epub3.images","application/x-mobipocket-ebook":"https://www.gutenberg.org/ebooks/8312.kf8.images","text/plain; charset=us-ascii":"https://www.gutenberg.org/ebooks/8312.txt.utf-8","application/rdf+xml":"https://www.gutenberg.org/ebooks/8312.rdf","image/jpeg":"https://www.gutenberg.org/cache/epub/8312/pg8312.cover.medium.jpg","application/octet-stream":"https://www.gutenberg.org/cache/epub/8312/pg8312-h.zip"},"download_count":5},{"id":10233,"title":"Transcontinental Telephone Address to Thomas A. Edison","authors":[{"name":"Hutchinson, Miller Reese","birth_year":1876,"death_year":1944}],"translators":[],"subjects":["Telephone -- History"],"bookshelves":[],"languages":["en"],"copyright":false,"media_type":"Sound","formats":{"text/plain; charset=us-ascii":"https://www.gutenberg.org/files/10233/10233-m/10233-m-readme.txt","audio/mpeg":"https://www.gutenberg.org/files/10233/10233-m/10233-m-001.mp3","application/rdf+xml":"https://www.gutenberg.org/ebooks/10233.rdf"},"download_count":5},{"id":11779,"title":"Human Genome Project, Build 34, Chromosome Number 05","authors":[{"name":"Human Genome Project","birth_year":null,"death_year":null}],"translators":[],"subjects":["Nucleotide sequence"],"bookshelves":[],"languages":["en"],"copyright":false,"media_type":"Dataset","formats":{"text/plain":"https://www.gutenberg.org/files/11779/11779.zip","application/rdf+xml":"https://www.gutenberg.org/ebooks/11779.rdf"},"download_count":5},{"id":11786,"title":"Human Genome Project, Build 34, Chromosome Number 12","authors":[{"name":"Human Genome Project","birth_year":null,"death_year":null}],"translators":[],"subjects":["Nucleotide sequence"],"bookshelves":[],"languages":["en"],"copyright":false,"media_type":"Dataset","formats":{"text/plain":"https://www.gutenberg.org/files/11786/11786.zip","application/rdf+xml":"https://www.gutenberg.org/ebooks/11786.rdf"},"download_count":5},{"id":11790,"title":"Human Genome Project, Build 34, Chromosome Number 16","authors":[{"name":"Human Genome Project","birth_year":null,"death_year":null}],"translators":[],"subjects":["Nucleotide sequence"],"bookshelves":[],"languages":["en"],"copyright":false,"media_type":"Dataset","formats":{"text/plain":"https://www.gutenberg.org/files/11790/11790.zip","application/rdf+xml":"https://www.gutenberg.org/ebooks/11790.rdf"},"download_count":5},{"id":11794,"title":"Human Genome Project, Build 34, Chromosome Number 20","authors":[{"name":"Human Genome Project","birth_year":null,"death_year":null}],"translators":[],"subjects":["Nucleotide sequence"],"bookshelves":[],"languages":["en"],"copyright":false,"media_type":"Dataset","formats":{"text/plain":"https://www.gutenberg.org/files/11794/11794.zip","application/rdf+xml":"https://www.gutenberg.org/ebooks/11794.rdf"},"download_count":5},{"id":12720,"title":"Sonnet #40","authors":[{"name":"Shakespeare, William","birth_year":1564,"death_year":1616}],"translators":[],"subjects":["English poetry","Sonnets, English"],"bookshelves":[],"languages":["en"],"copyright":true,"media_type":"Sound","formats":{"text/plain; charset=us-ascii":"https://www.gutenberg.org/files/12720/12720-readme.txt","application/octet-stream":"https://www.gutenberg.org/files/12720/readme-license.txt","audio/mpeg":"https://www.gutenberg.org/files/12720/12720-m/12720-m-040.mp3","application/rdf+xml":"https://www.gutenberg.org/ebooks/12720.rdf"},"download_count":5},{"id":16608,"title":"Bruvver Jim's Baby","authors":[{"name":"Mighels, Philip Verrill","birth_year":1869,"death_year":1911}],"translators":[],"subjects":["Foundlings -- Fiction","Gold miners -- Fiction","Nevada -- Fiction","Western stories"],"bookshelves":[],"languages":["en"],"copyright":false,"media_type":"Text","formats":{"text/html":"https://www.gutenberg.org/ebooks/16608.html.images","application/epub+zip":"https://www.gutenberg.org/ebooks/16608.epub3.images","application/x-mobipocket-ebook":"https://www.gutenberg.org/ebooks/16608.kf8.images","text/plain; charset=us-ascii":"https://www.gutenberg.org/ebooks/16608.txt.utf-8","text/plain; charset=iso-8859-1":"https://www.gutenberg.org/files/16608/16608-8.txt","application/rdf+xml":"https://www.gutenberg.org/ebooks/16608.rdf","image/jpeg":"https://www.gutenberg.org/cache/epub/16608/pg16608.cover.medium.jpg","application/octet-stream":"https://www.gutenberg.org/cache/epub/16608/pg16608-h.zip"},"download_count":5},{"id":19358,"title":"War Rhymes by Wayfarer","authors":[{"name":"Cosens, Abner","birth_year":null,"death_year":null}],"translators":[],"subjects":["Canadian poetry","World War, 1914-1918 -- Poetry"],"bookshelves":[],"languages":["en"],"copyright":false,"media_type":"Text","formats":{"text/html":"https://www.gutenberg.org/ebooks/19358.html.images","text/html; charset=iso-8859-1":"https://www.gutenberg.org/files/19358/19358-h/19358-h.htm","application/epub+zip":"https://www.gutenberg.org/ebooks/19358.epub3.images","application/x-mobipocket-ebook":"https://www.gutenberg.org/ebooks/19358.kf8.images","text/plain; charset=us-ascii":"https://www.gutenberg.org/ebooks/19358.txt.utf-8","application/rdf+xml":"https://www.gutenberg.org/ebooks/19358.rdf","image/jpeg":"https://www.gutenberg.org/cache/epub/19358/pg19358.cover.medium.jpg","application/octet-stream":"https://www.gutenberg.org/cache/epub/19358/pg19358-h.zip"},"download_count":5},{"id":36050,"title":"Rodney Stone","authors":[{"name":"Doyle, Arthur Conan","birth_year":1859,"death_year":1930}],"translators":[],"subjects":["Boxing -- England -- Fiction","Boxing stories"],"bookshelves":[],"languages":["en"],"copyright":true,"media_type":"Text","formats":{"text/plain; charset=us-ascii":"https://www.gutenberg.org/files/36050/36050-readme.txt","text/html; charset=iso-8859-1":"https://www.gutenberg.org/files/36050/36050-index.htm","audio/mpeg":"https://www.gutenberg.org/files/36050/mp3/36050-00.mp3","application/rdf+xml":"https://www.gutenberg.org/ebooks/36050.rdf","application/octet-stream":"https://www.gutenberg.org/files/36050/36050-mp3.zip"},"download_count":5},{"id":42668,"title":"Matins","authors":[{"name":"Sherman, Francis","birth_year":1871,"death_year":1926}],"translators":[],"subjects":["Canadian poetry"],"bookshelves":[],"languages":["en"],"copyright":false,"media_type":"Text","formats":{"text/html":"https://www.gutenberg.org/ebooks/42668.html.images","text/html; charset=utf-8":"https://www.gutenberg.org/files/42668/42668-h/42668-h.html","application/epub+zip":"https://www.gutenberg.org/ebooks/42668.epub3.images","application/pdf":"https://www.gutenberg.org/ebooks/42668.pdf.images","application/x-mobipocket-ebook":"https://www.gutenberg.org/ebooks/42668.kf8.images","text/plain; charset=us-ascii":"https://www.gutenberg.org/ebooks/42668.txt.utf-8","text/plain; charset=utf-8":"https://www.gutenberg.org/files/42668/42668-0.txt","text/plain; charset=iso-8859-1":"https://www.gutenberg.org/files/42668/42668-8.txt","application/rdf+xml":"https://www.gutenberg.org/ebooks/42668.rdf","text/x-rst":"https://www.gutenberg.org/ebooks/42668.rst.gen","image/jpeg":"https://www.gutenberg.org/cache/epub/42668/pg42668.cover.medium.jpg","application/octet-stream":"https://www.gutenberg.org/cache/epub/42668/pg42668-h.zip"},"download_count":5},{"id":68207,"title":"As the hart panteth","authors":[{"name":"Rives, Hallie Erminie","birth_year":1876,"death_year":1956}],"translators":[],"subjects":["American fiction -- 19th century"],"bookshelves":[],"languages":["en"],"copyright":false,"media_type":"Text","formats":{"text/html":"https://www.gutenberg.org/ebooks/68207.html.images","application/epub+zip":"https://www.gutenberg.org/ebooks/68207.epub3.images","application/x-mobipocket-ebook":"https://www.gutenberg.org/ebooks/68207.kf8.images","text/plain; charset=us-ascii":"https://www.gutenberg.org/ebooks/68207.txt.utf-8","application/rdf+xml":"https://www.gutenberg.org/ebooks/68207.rdf","image/jpeg":"https://www.gutenberg.org/cache/epub/68207/pg68207.cover.medium.jpg","application/octet-stream":"https://www.gutenberg.org/files/68207/68207-0.zip"},"download_count":5},{"id":69037,"title":"Don Hale Over There","authors":[{"name":"Sheppard, W. Crispin (William Crispin)","birth_year":1871,"death_year":null}],"translators":[],"subjects":["Mystery fiction","Treasure troves -- Juvenile fiction","War stories","World War, 1914-1918 -- France -- Juvenile fiction"],"bookshelves":[],"languages":["en"],"copyright":false,"media_type":"Text","formats":{"text/html":"https://www.gutenberg.org/ebooks/69037.html.images","application/epub+zip":"https://www.gutenberg.org/ebooks/69037.epub3.images","application/x-mobipocket-ebook":"https://www.gutenberg.org/ebooks/69037.kf8.images","text/plain; charset=us-ascii":"https://www.gutenberg.org/ebooks/69037.txt.utf-8","application/rdf+xml":"https://www.gutenberg.org/ebooks/69037.rdf","image/jpeg":"https://www.gutenberg.org/cache/epub/69037/pg69037.cover.medium.jpg","application/octet-stream":"https://www.gutenberg.org/files/69037/69037-0.zip"},"download_count":5},{"id":69643,"title":"Woodburn Grange: A story of English country life; vol. 3 of 3","authors":[{"name":"Howitt, William","birth_year":1792,"death_year":1879}],"translators":[],"subjects":["Religious fiction"],"bookshelves":[],"languages":["en"],"copyright":false,"media_type":"Text","formats":{"text/html":"https://www.gutenberg.org/ebooks/69643.html.images","application/epub+zip":"https://www.gutenberg.org/ebooks/69643.epub3.images","application/x-mobipocket-ebook":"https://www.gutenberg.org/ebooks/69643.kf8.images","text/plain; charset=us-ascii":"https://www.gutenberg.org/ebooks/69643.txt.utf-8","application/rdf+xml":"https://www.gutenberg.org/ebooks/69643.rdf","image/jpeg":"https://www.gutenberg.org/cache/epub/69643/pg69643.cover.medium.jpg","application/octet-stream":"https://www.gutenberg.org/files/69643/69643-0.zip"},"download_count":5},{"id":1647,"title":"No title","authors":[],"translators":[],"subjects":[],"bookshelves":[],"languages":["en"],"copyright":false,"media_type":"Text","formats":{"application/rdf+xml":"https://www.gutenberg.org/ebooks/1647.rdf"},"download_count":4},{"id":2211,"title":"Human Genome Project, rough draft, Chromosome Number 11","authors":[{"name":"Human Genome Project","birth_year":null,"death_year":null}],"translators":[],"subjects":["Human Genome Project","Human gene mapping","Human genetics","Nucleotide sequence"],"bookshelves":[],"languages":["en"],"copyright":false,"media_type":"Dataset","formats":{"text/plain; charset=us-ascii":"https://www.gutenberg.org/files/2211/2211.zip","application/rdf+xml":"https://www.gutenberg.org/ebooks/2211.rdf"},"download_count":4},{"id":3507,"title":"Human Genome Project, Chromosome Number 07","authors":[{"name":"Human Genome Project","birth_year":null,"death_year":null}],"translators":[],"subjects":["Human Genome Project","Human gene mapping","Human genetics","Nucleotide sequence"],"bookshelves":[],"languages":["en"],"copyright":false,"media_type":"Dataset","formats":{"text/plain; charset=us-ascii":"https://www.gutenberg.org/files/3507/3507.zip","application/rdf+xml":"https://www.gutenberg.org/ebooks/3507.rdf"},"download_count":4},{"id":3509,"title":"Human Genome Project, Chromosome Number 09","authors":[{"name":"Human Genome Project","birth_year":null,"death_year":null}],"translators":[],"subjects":["Human Genome Project","Human gene mapping","Human genetics","Nucleotide sequence"],"bookshelves":[],"languages":["en"],"copyright":false,"media_type":"Dataset","formats":{"text/plain; charset=us-ascii":"https://www.gutenberg.org/files/3509/3509.zip","application/rdf+xml":"https://www.gutenberg.org/ebooks/3509.rdf"},"download_count":4},{"id":3513,"title":"Human Genome Project, Chromosome Number 13","authors":[{"name":"Human Genome Project","birth_year":null,"death_year":null}],"translators":[],"subjects":["Human Genome Project","Human gene mapping","Human genetics","Nucleotide sequence"],"bookshelves":[],"languages":["en"],"copyright":false,"media_type":"Dataset","formats":{"text/plain; charset=us-ascii":"https://www.gutenberg.org/files/3513/3513.zip","application/rdf+xml":"https://www.gutenberg.org/ebooks/3513.rdf"},"download_count":4}]}