{"count":58808,"next":"http://129.241.150.113:8000/books/?languages=en&page=1810","previous":"http://129.241.150.113:8000/books/?languages=en&page=1808","results":[{"id":8277,"title":"The World English Bible (WEB): Philippians","authors":[{"name":"Anonymous","birth_year":null,"death_year":null}],"translators":[],"subjects":["Bible. Philippians"],"bookshelves":[],"languages":["en"],"copyright":false,"media_type":"Text","formats":{"text/html":"https://www.gutenberg.org/ebooks/8277.html.images","application/epub+zip":"https://www.gutenberg.org/ebooks/8277.epub3.images","application/x-mobipocket-ebook":"https://www.gutenberg.org/ebooks/8277.kf8.images","text/plain; charset=us-ascii":"https://www.gutenberg.org/ebooks/8277.txt.utf-8","application/rdf+xml":"https://www.gutenberg.org/ebooks/8277.rdf","image/jpeg":"https://www.gutenberg.org/cache/epub/8277/pg8277.cover.medium.jpg","application/octet-stream":"https://www.gutenberg.org/cache/epub/8277/pg8277-h.zip"},"download_count":11},{"id":8292,"title":"The World English Bible (WEB): Jude","authors":[{"name":"Anonymous","birth_year":null,"death_year":null}],"translators":[],"subjects":["Bible. Jude"],"bookshelves":[],"languages":["en"],"copyright":false,"media_type":"Text","formats":{"text/html":"https://www.gutenberg.org/ebooks/8292.html.images","application/epub+zip":"https://www.gutenberg.org/ebooks/8292.epub3.images","application/x-mobipocket-ebook":"https://www.gutenberg.org/ebooks/8292.kf8.images","text/plain; charset=us-ascii":"https://www.gutenberg.org/ebooks/8292.txt.utf-8","application/rdf+xml":"https://www.gutenberg.org/ebooks/8292.rdf","image/jpeg":"https://www.gutenberg.org/cache/epub/8292/pg8292.cover.medium.jpg","application/octet-stream":"https://www.gutenberg.org/cache/epub/8292/pg8292-h.zip"},"download_count":11},{"id":8342,"title":"The Bible, Douay-Rheims, Book 42: Aggeus: The Challoner Revision","authors":[],"translators":[],"subjects":["Bible. Haggai"],"bookshelves":[],"languages":["en"],"copyright":false,"media_type":"Text","formats":{"text/html":"https://www.gutenberg.org/ebooks/8342.html.images","application/epub+zip":"https://www.gutenberg.org/ebooks/8342.epub3.images","application/x-mobipocket-ebook":"https://www.gutenberg.org/ebooks/8342.kf8.images","text/plain; charset=us-ascii":"https://www.gutenberg.org/ebooks/8342.txt.utf-8","application/rdf+xml":"https://www.gutenberg.org/ebooks/8342.rdf","image/jpeg":"https://www.gutenberg.org/cache/epub/8342/pg8342.cover.medium.jpg","application/octet-stream":"https://www.gutenberg.org/cache/epub/8342/pg8342-h.zip"},"download_count":11},{"id":8363,"title":"The Bible, Douay-Rheims, Book 63: Titus: The Challoner Revision","authors":[],"translators":[],"subjects":["Bible. Titus"],"bookshelves":[],"languages":["en"],"copyright":false,"media_type":"Text","formats":{"text/html":"https://www.gutenberg.org/ebooks/8363.html.images","application/epub+zip":"https://www.gutenberg.org/ebooks/8363.epub3.images","application/x-mobipocket-ebook":"https://www.gutenberg.org/ebooks/8363.kf8.images","text/plain; charset=us-ascii":"https://www.gutenberg.org/ebooks/8363.txt.utf-8","application/rdf+xml":"https://www.gutenberg.org/ebooks/8363.rdf","image/jpeg":"https://www.gutenberg.org/cache/epub/8363/pg8363.cover.medium.jpg","application/octet-stream":"https://www.gutenberg.org/cache/epub/8363/pg8363-h.zip"},"download_count":11},{"id":8369,"title":"The Bible, Douay-Rheims, Book 69: 1 John: The Challoner Revision","authors":[],"translators":[],"subjects":["Bible. Epistle of John, 1st"],"bookshelves":[],"languages":["en"],"copyright":false,"media_type":"Text","formats":{"text/html":"https://www.gutenberg.org/ebooks/8369.html.images","application/epub+zip":"https://www.gutenberg.org/ebooks/8369.epub3.images","application/x-mobipocket-ebook":"https://www.gutenberg.org/ebooks/8369.kf8.images","text/plain; charset=us-ascii":"https://www.gutenberg.org/ebooks/8369.txt.utf-8","application/rdf+xml":"https://www.gutenberg.org/ebooks/8369.rdf","image/jpeg":"https://www.gutenberg.org/cache/epub/8369/pg8369.cover.medium.jpg","application/octet-stream":"https://www.gutenberg.org/cache/epub/8369/pg8369-h.zip"},"download_count":11},{"id":8512,"title":"The Three Cities Trilogy: Lourdes, Volume 2","authors":[{"name":"Zola, Émile","birth_year":1840,"death_year":1902}],"translators":[{"name":"Vizetelly, Ernest Alfred","birth_year":1853,"death_year":1922}],"subjects":["Catholics -- Fiction","Christian pilgrims and pilgrimages -- Fiction","Clergy -- Fiction","Lourdes (France) -- Fiction"],"bookshelves":[],"languages":["en"],"copyright":false,"media_type":"Text","formats":{"text/html":"https://www.gutenberg.org/ebooks/8512.html.images","application/epub+zip":"https://www.gutenberg.org/ebooks/8512.epub3.images","application/x-mobipocket-ebook":"https://www.gutenberg.org/ebooks/8512.kf8.images","text/plain; charset=us-ascii":"https://www.gutenberg.org/ebooks/8512.txt.utf-8","application/rdf+xml":"https://www.gutenberg.org/ebooks/8512.rdf","image/jpeg":"https://www.gutenberg.org/cache/epub/8512/pg8512.cover.medium.jpg","application/octet-stream":"https://www.gutenberg.org/cache/epub/8512/pg8512-h.zip"},"download_count":11},{"id":9020,"title":"Those Extraordinary Twins","authors":[{"name":"Twain, Mark","birth_year":1835,"death_year":1910}],"translators":[],"subjects":["Conjoined twins -- Fiction"],"bookshelves":[],"languages":["en"],"copyright":true,"media_type":"Sound","formats":{"text/plain; charset=us-ascii":"https://www.gutenberg.org/files/9020/9020-readme.txt","text/html; charset=iso-8859-1":"https://www.gutenberg.org/files/9020/9020-index.htm","audio/mpeg":"https://www.gutenberg.org/files/9020/mp3/9020-000.mp3","application/rdf+xml":"https://www.gutenberg.org/ebooks/9020.rdf","application/octet-stream":"https://www.gutenberg.org/files/9020/9020-mp3.zip"},"download_count":11},{"id":9021,"title":"Fenimore Cooper's Literary Offences","authors":[{"name":"Twain, Mark","birth_year":1835,"death_year":1910}],"translators":[],"subjects":["American literature -- History and criticism -- Theory, etc.","Criticism -- United States","Literature and society -- United States","National characteristics, American, in literature","United States -- Civilization"],"bookshelves":[],"languages":["en"],"copyright":true,"media_type":"Sound","formats":{"text/plain; charset=us-ascii":"https://www.gutenberg.org/files/9021/9021-readme.txt","text/html; charset=iso-8859-1":"https://www.gutenberg.org/files/9021/9021-index.htm","audio/mpeg":"https://www.gutenberg.org/files/9021/mp3/9021-000.mp3","application/rdf+xml":"https://www.gutenberg.org/ebooks/9021.rdf","application/octet-stream":"https://www.gutenberg.org/files/9021/9021-mp3.zip"},"download_count":11},{"id":9205,"title":"Sights from a Steeple (From \"Twice Told Tales\")","authors":[{"name":"Hawthorne, Nathaniel","birth_year":1804,"death_year":1864}],"translators":[],"subjects":["Historical fiction, American","New England -- Social life and customs -- Fiction","Short stories"],"bookshelves":["Children's Literature"],"languages":["en"],"copyright":false,"media_type":"Text","formats":{"text/html":"https://www.gutenberg.org/ebooks/9205.html.images","text/html; charset=iso-8859-1":"https://www.gutenberg.org/files/9205/9205-h/9205-h.htm","application/epub+zip":"https://www.gutenberg.org/ebooks/9205.epub3.images","application/x-mobipocket-ebook":"https://www.gutenberg.org/ebooks/9205.kf8.images","text/plain; charset=us-ascii":"https://www.gutenberg.org/ebooks/9205.txt.utf-8","application/rdf+xml":"https://www.gutenberg.org/ebooks/9205.rdf","image/jpeg":"https://www.gutenberg.org/cache/epub/9205/pg9205.cover.medium.jpg","application/octet-stream":"https://www.gutenberg.org/cache/epub/9205/pg9205-h.zip"},"download_count":11},{"id":9528,"title":"The Fitz-Boodle Papers","authors":[{"name":"Thackeray, William Makepeace","birth_year":1811,"death_year":1863}],"translators":[],"subjects":["Imaginary letters","Satire, English"],"bookshelves":[],"languages":["en"],"copyright":true,"media_type":"Sound","formats":{"text/plain; charset=us-ascii":"https://www.gutenberg.org/files/9528/9528-readme.txt","text/html; charset=iso-8859-1":"https://www.gutenberg.org/files/9528/9528-index.htm","audio/mpeg":"https://www.gutenberg.org/files/9528/mp3/9528-000.mp3","application/rdf+xml":"https://www.gutenberg.org/ebooks/9528.rdf","application/octet-stream":"https://www.gutenberg.org/files/9528/9528-mp3.zip"},"download_count":11},{"id":9592,"title":"Personal Sketches and Tributes: Part 2 from Volume VI of The Works of John Greenleaf Whittier","authors":[{"name":"Whittier, John Greenleaf","birth_year":1807,"death_year":1892}],"translators":[],"subjects":["Biography"],"bookshelves":[],"languages":["en"],"copyright":false,"media_type":"Text","formats":{"text/html":"https://www.gutenberg.org/ebooks/9592.html.images","application/epub+zip":"https://www.gutenberg.org/ebooks/9592.epub3.images","application/x-mobipocket-ebook":"https://www.gutenberg.org/ebooks/9592.kf8.images","text/plain; charset=us-ascii":"https://www.gutenberg.org/ebooks/9592.txt.utf-8","application/rdf+xml":"https://www.gutenberg.org/ebooks/9592.rdf","image/jpeg":"https://www.gutenberg.org/cache/epub/9592/pg9592.cover.medium.jpg","application/octet-stream":"https://www.gutenberg.org/cache/epub/9592/pg9592-h.zip"},"download_count":11},{"id":9718,"title":"Mudfog and Other Sketches","authors":[{"name":"Dickens, Charles","birth_year":1812,"death_year":1870}],"translators":[],"subjects":["England -- Social life and customs -- 19th century -- Fiction"],"bookshelves":[],"languages":["en"],"copyright":true,"media_type":"Sound","formats":{"text/plain; charset=us-ascii":"https://www.gutenberg.org/files/9718/9718-readme.txt","text/html; charset=iso-8859-1":"https://www.gutenberg.org/files/9718/9718-index.htm","audio/mpeg":"https://www.gutenberg.org/files/9718/mp3/9718-000.mp3","application/rdf+xml":"https://www.gutenberg.org/ebooks/9718.rdf","application/octet-stream":"https://www.gutenberg.org/files/9718/9718-mp3.zip"},"download_count":11},{"id":9819,"title":"Punchinello, Volume 1, No. 14, July 2, 1870","authors":[{"name":"Various","birth_year":null,"death_year":null}],"translators":[],"subjects":["American wit and humor -- Periodicals"],"bookshelves":["Punchinello"],"languages":["en"],"copyright":false,"media_type":"Text","formats":{"text/html":"https://www.gutenberg.org/ebooks/9819.html.images","text/html; charset=iso-8859-1":"https://www.gutenberg.org/files/9819/9819-h/9819-h.htm","application/epub+zip":"https://www.gutenberg.org/ebooks/9819.epub3.images","application/x-mobipocket-ebook":"https://www.gutenberg.org/ebooks/9819.kf8.images","text/plain; charset=us-ascii":"https://www.gutenberg.org/ebooks/9819.txt.utf-8","text/plain; charset=iso-8859-1":"https://www.gutenberg.org/files/9819/9819-8.txt","application/rdf+xml":"https://www.gutenberg.org/ebooks/9819.rdf","image/jpeg":"https://www.gutenberg.org/cache/epub/9819/pg9819.cover.medium.jpg","application/octet-stream":"https://www.gutenberg.org/cache/epub/9819/pg9819-h.zip"},"download_count":11},{"id":10206,"title":"The Liver Complaint Story","authors":[{"name":"Edison, Thomas A. (Thomas Alva)","birth_year":1847,"death_year":1931}],"translators":[],"subjects":["Anecdotes"],"bookshelves":[],"languages":["en"],"copyright":false,"media_type":"Sound","formats":{"text/plain; charset=us-ascii":"https://www.gutenberg.org/files/10206/10206-m/10206-m-readme.txt","audio/mpeg":"https://www.gutenberg.org/files/10206/10206-m/10206-m-001.mp3","application/rdf+xml":"https://www.gutenberg.org/ebooks/10206.rdf"},"download_count":11},{"id":10329,"title":"Snubby Nose and Tippy Toes","authors":[{"name":"Smith, Laura Rountree","birth_year":1876,"death_year":1924}],"translators":[],"subjects":["Animals -- Juvenile fiction","Rabbits -- Juvenile fiction"],"bookshelves":[],"languages":["en"],"copyright":false,"media_type":"Text","formats":{"text/html":"https://www.gutenberg.org/ebooks/10329.html.images","application/epub+zip":"https://www.gutenberg.org/ebooks/10329.epub3.images","application/x-mobipocket-ebook":"https://www.gutenberg.org/ebooks/10329.kf8.images","text/plain; charset=us-ascii":"https://www.gutenberg.org/ebooks/10329.txt.utf-8","application/rdf+xml":"https://www.gutenberg.org/ebooks/10329.rdf","image/jpeg":"https://www.gutenberg.org/cache/epub/10329/pg10329.cover.medium.jpg","application/octet-stream":"https://www.gutenberg.org/cache/epub/10329/pg10329-h.zip"},"download_count":11},{"id":10603,"title":"With Kelly to Chitral","authors":[{"name":"Beynon, William George Laurence, Sir","birth_year":1866,"death_year":1955}],"translators":[],"subjects":["India -- History -- Chitral Campaign, 1895"],"bookshelves":[],"languages":["en"],"copyright":false,"media_type":"Text","formats":{"text/html":"https://www.gutenberg.org/ebooks/10603.html.images","application/epub+zip":"https://www.gutenberg.org/ebooks/10603.epub3.images","application/x-mobipocket-ebook":"https://www.gutenberg.org/ebooks/10603.kf8.images","text/plain; charset=us-ascii":"https://www.gutenberg.org/ebooks/10603.txt.utf-8","text/plain; charset=iso-8859-1":"https://www.gutenberg.org/files/10603/10603-8.txt","application/rdf+xml":"https://www.gutenberg.org/ebooks/10603.rdf","image/jpeg":"https://www.gutenberg.org/cache/epub/10603/pg10603.cover.medium.jpg","application/octet-stream":"https://www.gutenberg.org/cache/epub/10603/pg10603-h.zip"},"download_count":11},{"id":10614,"title":"Punch, or the London Charivari, Volume 153, September 5, 1917","authors":[{"name":"Various","birth_year":null,"death_year":null}],"translators":[],"subjects":["English wit and humor -- Periodicals"],"bookshelves":["Punch"],"languages":["en"],"copyright":false,"media_type":"Text","formats":{"text/html":"https://www.gutenberg.org/ebooks/10614.html.images","text/html; charset=iso-8859-1":"https://www.gutenberg.org/files/10614/10614-h/10614-h.htm","application/epub+zip":"https://www.gutenberg.org/ebooks/10614.epub3.images","application/x-mobipocket-ebook":"https://www.gutenberg.org/ebooks/10614.kf8.images","text/plain; charset=us-ascii":"https://www.gutenberg.org/ebooks/10614.txt.utf-8","text/plain; charset=iso-8859-1":"https://www.gutenberg.org/files/10614/10614-8.txt","application/rdf+xml":"https://www.gutenberg.org/ebooks/10614.rdf","image/jpeg":"https://www.gutenberg.org/cache/epub/10614/pg10614.cover.medium.jpg","application/octet-stream":"https://www.gutenberg.org/cache/epub/10614/pg10614-h.zip"},"download_count":11},{"id":11017,"title":"Samuel F. B. Morse, His Letters and Journals: In Two Volumes, Volume I.","authors":[{"name":"Morse, Samuel Finley Breese","birth_year":1791,"death_year":1872}],"translators":[],"subjects":["Morse, Samuel Finley Breese, 1791-1872","Telegraph"],"bookshelves":[],"languages":["en"],"copyright":false,"media_type":"Text","formats":{"text/html":"https://www.gutenberg.org/ebooks/11017.html.images","application/epub+zip":"https://www.gutenberg.org/ebooks/11017.epub3.images","application/x-mobipocket-ebook":"https://www.gutenberg.org/ebooks/11017.kf8.images","text/plain; charset=us-ascii":"https://www.gutenberg.org/ebooks/11017.txt.utf-8","text/plain; charset=iso-8859-1":"https://www.gutenberg.org/files/11017/11017-8.txt","text/plain":"https://www.gutenberg.org/files/11017/11017.zip","application/rdf+xml":"https://www.gutenberg.org/ebooks/11017.rdf","image/jpeg":"https://www.gutenberg.org/cache/epub/11017/pg11017.cover.medium.jpg","application/octet-stream":"https://www.gutenberg.org/cache/epub/11017/pg11017-h.zip"},"download_count":11},{"id":11020,"title":"Angels and Ministers, and Other Victorian Plays","authors":[{"name":"Housman, Laurence","birth_year":1865,"death_year":1959}],"translators":[],"subjects":["Disraeli, Benjamin, 1804-1881 -- Drama","Gladstone, W. E. (William Ewart), 1809-1898 -- Drama","Victoria, Queen of Great Britain, 1819-1901 -- Drama"],"bookshelves":["One Act Plays"],"languages":["en"],"copyright":false,"media_type":"Text","formats":{"text/html":"https://www.gutenberg.org/ebooks/11020.html.images","application/epub+zip":"https://www.gutenberg.org/ebooks/11020.epub3.images","application/x-mobipocket-ebook":"https://www.gutenberg.org/ebooks/11020.kf8.images","text/plain; charset=us-ascii":"https://www.gutenberg.org/ebooks/11020.txt.utf-8","text/plain; charset=iso-8859-1":"https://www.gutenberg.org/files/11020/11020-8.txt","text/plain":"https://www.gutenberg.org/files/11020/11020.zip","application/rdf+xml":"https://www.gutenberg.org/ebooks/11020.rdf","image/jpeg":"https://www.gutenberg.org/cache/epub/11020/pg11020.cover.medium.jpg","application/octet-stream":"https://www.gutenberg.org/cache/epub/11020/pg11020-h.zip"},"download_count":11},{"id":11336,"title":"The Mirror of Literature, Amusement, and Instruction. Volume 12, No. 337, October 25, 1828","authors":[{"name":"Various","birth_year":null,"death_year":null}],"translators":[],"subjects":["Popular literature -- Great Britain -- Periodicals"],"bookshelves":["The Mirror of Literature, Amusement, and Instruction"],"languages":["en"],"copyright":false,"media_type":"Text","formats":{"text/html":"https://www.gutenberg.org/ebooks/11336.html.images","text/html; charset=iso-8859-1":"https://www.gutenberg.org/files/11336/11336-h/11336-h.htm","application/epub+zip":"https://www.gutenberg.org/ebooks/11336.epub3.images","application/x-mobipocket-ebook":"https://www.gutenberg.org/ebooks/11336.kf8.images","text/plain; charset=us-ascii":"https://www.gutenberg.org/ebooks/11336.txt.utf-8","text/plain; charset=iso-8859-1":"https://www.gutenberg.org/files/11336/11336-8.txt","application/rdf+xml":"https://www.gutenberg.org/ebooks/11336.rdf","image/jpeg":"https://www.gutenberg.org/cache/epub/11336/pg11336.cover.medium.jpg","application/octet-stream":"https://www.gutenberg.org/cache/epub/11336/pg11336-h.zip"},"download_count":11},{"id":11362,"title":"The Mirror of Literature, Amusement, and Instruction. Volume 12, No. 322, July 12, 1828","authors":[{"name":"Various","birth_year":null,"death_year":null}],"translators":[],"subjects":["Popular literature -- Great Britain -- Periodicals"],"bookshelves":["The Mirror of Literature, Amusement, and Instruction"],"languages":["en"],"copyright":false,"media_type":"Text","formats":{"text/html":"https://www.gutenberg.org/ebooks/11362.html.images","text/html; charset=iso-8859-1":"https://www.gutenberg.org/files/11362/11362-h/11362-h.htm","application/epub+zip":"https://www.gutenberg.org/ebooks/11362.epub3.images","application/x-mobipocket-ebook":"https://www.gutenberg.org/ebooks/11362.kf8.images","text/plain; charset=us-ascii":"https://www.gutenberg.org/ebooks/11362.txt.utf-8","text/plain; charset=iso-8859-1":"https://www.gutenberg.org/files/11362/11362-8.txt","application/rdf+xml":"https://www.gutenberg.org/ebooks/11362.rdf","image/jpeg":"https://www.gutenberg.org/cache/epub/11362/pg11362.cover.medium.jpg","application/octet-stream":"https://www.gutenberg.org/cache/epub/11362/pg11362-h.zip"},"download_count":11},{"id":11386,"title":"The Mirror of Literature, Amusement, and Instruction. Volume 12, No. 347, December 20, 1828","authors":[{"name":"Various","birth_year":null,"death_year":null}],"translators":[],"subjects":["Popular literature -- Great Britain -- Periodicals"],"bookshelves":["The Mirror of Literature, Amusement, and Instruction"],"languages":["en"],"copyright":false,"media_type":"Text","formats":{"text/html":"https://www.gutenberg.org/ebooks/11386.html.images","text/html; charset=iso-8859-1":"https://www.gutenberg.org/files/11386/11386-h/11386-h.htm","application/epub+zip":"https://www.gutenberg.org/ebooks/11386.epub3.images","application/x-mobipocket-ebook":"https://www.gutenberg.org/ebooks/11386.kf8.images","text/plain; charset=us-ascii":"https://www.gutenberg.org/ebooks/11386.txt.utf-8","text/plain; charset=iso-8859-1":"https://www.gutenberg.org/files/11386/11386-8.txt","application/rdf+xml":"https://www.gutenberg.org/ebooks/11386.rdf","image/jpeg":"https://www.gutenberg.org/cache/epub/11386/pg11386.cover.medium.jpg","application/octet-stream":"https://www.gutenberg.org/cache/epub/11386/pg11386-h.zip"},"download_count":11},{"id":11457,"title":"The Mirror of Literature, Amusement, and Instruction. Volume 14, No. 402, Supplementary Number (1829)","authors":[{"name":"Various","birth_year":null,"death_year":null}],"translators":[],"subjects":["Popular literature -- Great Britain -- Periodicals"],"bookshelves":["The Mirror of Literature, Amusement, and Instruction"],"languages":["en"],"copyright":false,"media_type":"Text","formats":{"text/html":"https://www.gutenberg.org/ebooks/11457.html.images","text/html; charset=iso-8859-1":"https://www.gutenberg.org/files/11457/11457-h/11457-h.htm","application/epub+zip":"https://www.gutenberg.org/ebooks/11457.epub3.images","application/x-mobipocket-ebook":"https://www.gutenberg.org/ebooks/11457.kf8.images","text/plain; charset=us-ascii":"https://www.gutenberg.org/ebooks/11457.txt.utf-8","text/plain; charset=iso-8859-1":"https://www.gutenberg.org/files/11457/11457-8.txt","application/rdf+xml":"https://www.gutenberg.org/ebooks/11457.rdf","image/jpeg":"https://www.gutenberg.org/cache/epub/11457/pg11457.cover.medium.jpg","application/octet-stream":"https://www.gutenberg.org/cache/epub/11457/pg11457-h.zip"},"download_count":11},{"id":11619,"title":"Punch, or the London Charivari, Volume 153, November 21, 1917","authors":[{"name":"Various","birth_year":null,"death_year":null}],"translators":[],"subjects":["English wit and humor -- Periodicals"],"bookshelves":["Punch"],"languages":["en"],"copyright":false,"media_type":"Text","formats":{"text/html":"https://www.gutenberg.org/ebooks/11619.html.images","text/html; charset=iso-8859-1":"https://www.gutenberg.org/files/11619/11619-h/11619-h.htm","application/epub+zip":"https://www.gutenberg.org/ebooks/11619.epub3.images","application/x-mobipocket-ebook":"https://www.gutenberg.org/ebooks/11619.kf8.images","text/plain; charset=us-ascii":"https://www.gutenberg.org/ebooks/11619.txt.utf-8","text/plain; charset=iso-8859-1":"https://www.gutenberg.org/files/11619/11619-8.txt","application/rdf+xml":"https://www.gutenberg.org/ebooks/11619.rdf","image/jpeg":"https://www.gutenberg.org/cache/epub/11619/pg11619.cover.medium.jpg","application/octet-stream":"https://www.gutenberg.org/cache/epub/11619/pg11619-h.zip"},"download_count":11},{"id":11732,"title":"Punch, or the London Charivari, Volume 156, April 16, 1919","authors":[{"name":"Various","birth_year":null,"death_year":null}],"translators":[],"subjects":["English wit and humor -- Periodicals"],"bookshelves":["Punch"],"languages":["en"],"copyright":false,"media_type":"Text","formats":{"text/html":"https://www.gutenberg.org/ebooks/11732.html.images","text/html; charset=iso-8859-1":"https://www.gutenberg.org/files/11732/11732-h/11732-h.htm","application/epub+zip":"https://www.gutenberg.org/ebooks/11732.epub3.images","application/x-mobipocket-ebook":"https://www.gutenberg.org/ebooks/11732.kf8.images","text/plain; charset=us-ascii":"https://www.gutenberg.org/ebooks/11732.txt.utf-8","text/plain; charset=iso-8859-1":"https://www.gutenberg.org/files/11732/11732-8.txt","application/rdf+xml":"https://www.gutenberg.org/ebooks/11732.rdf","image/jpeg":"https://www.gutenberg.org/cache/epub/11732/pg11732.cover.medium.jpg","application/octet-stream":"https://www.gutenberg.org/cache/epub/11732/pg11732-h.zip"},"download_count":11},{"id":11741,"title":"The Mirror of Literature, Amusement, and Instruction. Volume 19, No. 539, March 24, 1832","authors":[{"name":"Various","birth_year":null,"death_year":null}],"translators":[],"subjects":["Popular literature -- Great Britain -- Periodicals"],"bookshelves":["The Mirror of Literature, Amusement, and Instruction"],"languages":["en"],"copyright":false,"media_type":"Text","formats":{"text/html":"https://www.gutenberg.org/ebooks/11741.html.images","text/html; charset=iso-8859-1":"https://www.gutenberg.org/files/11741/11741-h/11741-h.htm","application/epub+zip":"https://www.gutenberg.org/ebooks/11741.epub3.images","application/x-mobipocket-ebook":"https://www.gutenberg.org/ebooks/11741.kf8.images","text/plain; charset=us-ascii":"https://www.gutenberg.org/ebooks/11741.txt.utf-8","text/plain; charset=iso-8859-1":"https://www.gutenberg.org/files/11741/11741-8.txt","application/rdf+xml":"https://www.gutenberg.org/ebooks/11741.rdf","image/jpeg":"https://www.gutenberg.org/cache/epub/11741/pg11741.cover.medium.jpg","application/octet-stream":"https://www.gutenberg.org/cache/epub/11741/pg11741-h.zip"},"download_count":11},{"id":11795,"title":"Human Genome Project, Build 34, Chromosome Number 21","authors":[{"name":"Human Genome Project","birth_year":null,"death_year":null}],"translators":[],"subjects":["Nucleotide sequence"],"bookshelves":[],"languages":["en"],"copyright":false,"media_type":"Dataset","formats":{"text/plain":"https://www.gutenberg.org/files/11795/11795.zip","application/rdf+xml":"https://www.gutenberg.org/ebooks/11795.rdf"},"download_count":11},{"id":11798,"title":"Human Genome Project, Build 34, Chromosome Y","authors":[{"name":"Human Genome Project","birth_year":null,"death_year":null}],"translators":[],"subjects":["Nucleotide sequence"],"bookshelves":[],"languages":["en"],"copyright":false,"media_type":"Dataset","formats":{"text/plain":"https://www.gutenberg.org/files/11798/11798.zip","application/rdf+xml":"https://www.gutenberg.org/ebooks/11798.rdf"},"download_count":11},{"id":11799,"title":"Human Genome Project, Build 34, Human Genome Supplemental Data","authors":[{"name":"Human Genome Project","birth_year":null,"death_year":null}],"translators":[],"subjects":["Nucleotide sequence"],"bookshelves":[],"languages":["en"],"copyright":false,"media_type":"Dataset","formats":{"text/plain":"https://www.gutenberg.org/files/11799/11799.zip","application/rdf+xml":"https://www.gutenberg.org/ebooks/11799.rdf"},"download_count":11},{"id":11873,"title":"A Holiday in the Happy Valley with Pen and Pencil","authors":[{"name":"Swinburne, T. R.","birth_year":null,"death_year":null}],"translators":[],"subjects":["Jammu and Kashmir (India) -- Description and travel"],"bookshelves":[],"languages":["en"],"copyright":false,"media_type":"Text","formats":{"text/html":"https://www.gutenberg.org/ebooks/11873.html.images","application/epub+zip":"https://www.gutenberg.org/ebooks/11873.epub3.images","application/x-mobipocket-ebook":"https://www.gutenberg.org/ebooks/11873.kf8.images","text/plain; charset=us-ascii":"https://www.gutenberg.org/ebooks/11873.txt.utf-8","application/rdf+xml":"https://www.gutenberg.org/ebooks/11873.rdf","image/jpeg":"https://www.gutenberg.org/cache/epub/11873/pg11873.cover.medium.jpg","application/octet-stream":"https://www.gutenberg.org/files/11873/11873-0.zip"},"download_count":11},{"id":12038,"title":"Representative Plays by American Dramatists: 1856-1911:: Introduction and Bibliography","authors":[{"name":"Moses, Montrose Jonas","birth_year":1878,"death_year":1934}],"translators":[],"subjects":["American drama -- Bibliography"],"bookshelves":[],"languages":["en"],"copyright":false,"media_type":"Text","formats":{"text/html":"https://www.gutenberg.org/ebooks/12038.html.images","application/epub+zip":"https://www.gutenberg.org/ebooks/12038.epub3.images","application/x-mobipocket-ebook":"https://www.gutenberg.org/ebooks/12038.kf8.images","text/plain; charset=us-ascii":"https://www.gutenberg.org/ebooks/12038.txt.utf-8","text/plain; charset=iso-8859-1":"https://www.gutenberg.org/files/12038/12038-8.txt","application/rdf+xml":"https://www.gutenberg.org/ebooks/12038.rdf","image/jpeg":"https://www.gutenberg.org/cache/epub/12038/pg12038.cover.medium.jpg","application/octet-stream":"https://www.gutenberg.org/cache/epub/12038/pg12038-h.zip"},"download_count":11},{"id":12063,"title":"The Mirror of Literature, Amusement, and Instruction. Volume 14, No. 388, September 5, 1829","authors":[{"name":"Various","birth_year":null,"death_year":null}],"translators":[],"subjects":["Popular literature -- Great Britain -- Periodicals"],"bookshelves":["The Mirror of Literature, Amusement, and Instruction"],"languages":["en"],"copyright":false,"media_type":"Text","formats":{"text/html":"https://www.gutenberg.org/ebooks/12063.html.images","text/html; charset=iso-8859-1":"https://www.gutenberg.org/files/12063/12063-h/12063-h.htm","application/epub+zip":"https://www.gutenberg.org/ebooks/12063.epub3.images","application/x-mobipocket-ebook":"https://www.gutenberg.org/ebooks/12063.kf8.images","text/plain; charset=us-ascii":"https://www.gutenberg.org/ebooks/12063.txt.utf-8","text/plain; charset=iso-8859-1":"https://www.gutenberg.org/files/12063/12063-8.txt","application/rdf+xml":"https://www.gutenberg.org/ebooks/12063.rdf","image/jpeg":"https://www.gutenberg.org/cache/epub/12063/pg12063.cover.medium.jpg","application/octet-stream":"https://www.gutenberg.org/cache/epub/12063/pg12063-h.zip"},"download_count":11}]}