{"count":58808,"next":"http://129.241.150.113:8000/books/?languages=en&page=1126","previous":"http://129.241.150.113:8000/books/?languages=en&page=1124","results":[{"id":66705,"title":"Valuation of Real Estate in the Town of Acton. November 2, 1850.","authors":[{"name":"Brooks, Nathan","birth_year":1785,"death_year":1863},{"name":"Conant, Abraham","birth_year":1783,"death_year":1861},{"name":"Davis, Jonathan B. (Jonathan Billings)","birth_year":1790,"death_year":1868}],"translators":[],"subjects":["Real property -- Valuation -- Massachusetts -- Acton -- History"],"bookshelves":[],"languages":["en"],"copyright":false,"media_type":"Text","formats":{"text/html":"https://www.gutenberg.org/ebooks/66705.html.images","application/epub+zip":"https://www.gutenberg.org/ebooks/66705.epub3.images","application/x-mobipocket-ebook":"https://www.gutenberg.org/ebooks/66705.kf8.images","text/plain; charset=us-ascii":"https://www.gutenberg.org/ebooks/66705.txt.utf-8","application/rdf+xml":"https://www.gutenberg.org/ebooks/66705.rdf","image/jpeg":"https://www.gutenberg.org/cache/epub/66705/pg66705.cover.medium.jpg","application/octet-stream":"https://www.gutenberg.org/files/66705/66705-0.zip"},"download_count":33},{"id":66729,"title":"Pneumonia: Its Care and Prevention","authors":[{"name":"John Hancock Mutual Life Insurance Company. Life Conservation Service","birth_year":null,"death_year":null}],"translators":[],"subjects":["Pneumonia -- Popular works"],"bookshelves":[],"languages":["en"],"copyright":false,"media_type":"Text","formats":{"text/html":"https://www.gutenberg.org/ebooks/66729.html.images","application/epub+zip":"https://www.gutenberg.org/ebooks/66729.epub3.images","application/x-mobipocket-ebook":"https://www.gutenberg.org/ebooks/66729.kf8.images","text/plain; charset=us-ascii":"https://www.gutenberg.org/ebooks/66729.txt.utf-8","application/rdf+xml":"https://www.gutenberg.org/ebooks/66729.rdf","image/jpeg":"https://www.gutenberg.org/cache/epub/66729/pg66729.cover.medium.jpg","application/octet-stream":"https://www.gutenberg.org/files/66729/66729-0.zip"},"download_count":33},{"id":66759,"title":"We Run From the Hunted!","authors":[{"name":"Marlowe, Stephen","birth_year":1928,"death_year":2008}],"translators":[],"subjects":["Hunting stories","Science fiction","Short stories","Venus (Planet) -- Fiction"],"bookshelves":[],"languages":["en"],"copyright":false,"media_type":"Text","formats":{"text/html":"https://www.gutenberg.org/ebooks/66759.html.images","application/epub+zip":"https://www.gutenberg.org/ebooks/66759.epub3.images","application/x-mobipocket-ebook":"https://www.gutenberg.org/ebooks/66759.kf8.images","text/plain; charset=us-ascii":"https://www.gutenberg.org/ebooks/66759.txt.utf-8","application/rdf+xml":"https://www.gutenberg.org/ebooks/66759.rdf","image/jpeg":"https://www.gutenberg.org/cache/epub/66759/pg66759.cover.medium.jpg","application/octet-stream":"https://www.gutenberg.org/files/66759/66759-0.zip"},"download_count":33},{"id":66855,"title":"Why We Love Music","authors":[{"name":"Seashore, Carl E. (Carl Emil)","birth_year":1866,"death_year":1949}],"translators":[],"subjects":["Music -- Philosophy and aesthetics","Music -- Psychological aspects"],"bookshelves":[],"languages":["en"],"copyright":false,"media_type":"Text","formats":{"text/html":"https://www.gutenberg.org/ebooks/66855.html.images","application/epub+zip":"https://www.gutenberg.org/ebooks/66855.epub3.images","application/x-mobipocket-ebook":"https://www.gutenberg.org/ebooks/66855.kf8.images","text/plain; charset=us-ascii":"https://www.gutenberg.org/ebooks/66855.txt.utf-8","application/rdf+xml":"https://www.gutenberg.org/ebooks/66855.rdf","image/jpeg":"https://www.gutenberg.org/cache/epub/66855/pg66855.cover.medium.jpg","application/octet-stream":"https://www.gutenberg.org/files/66855/66855-0.zip"},"download_count":33},{"id":66874,"title":"The Cameronians: A Novel, Volume 2 (of 3)","authors":[{"name":"Grant, James","birth_year":1822,"death_year":1887}],"translators":[],"subjects":["Fiction"],"bookshelves":[],"languages":["en"],"copyright":false,"media_type":"Text","formats":{"text/html":"https://www.gutenberg.org/ebooks/66874.html.images","application/epub+zip":"https://www.gutenberg.org/ebooks/66874.epub3.images","application/x-mobipocket-ebook":"https://www.gutenberg.org/ebooks/66874.kf8.images","text/plain; charset=us-ascii":"https://www.gutenberg.org/ebooks/66874.txt.utf-8","application/rdf+xml":"https://www.gutenberg.org/ebooks/66874.rdf","image/jpeg":"https://www.gutenberg.org/cache/epub/66874/pg66874.cover.medium.jpg","application/octet-stream":"https://www.gutenberg.org/files/66874/66874-0.zip"},"download_count":33},{"id":66907,"title":"Broken Barriers","authors":[{"name":"Nicholson, Meredith","birth_year":1866,"death_year":1947}],"translators":[],"subjects":["Families -- Fiction","Indianapolis (Ind.) -- Fiction","Man-woman relationships -- Fiction","United States -- Social life and customs -- 20th century -- Fiction","Young women -- Fiction"],"bookshelves":[],"languages":["en"],"copyright":false,"media_type":"Text","formats":{"text/html":"https://www.gutenberg.org/ebooks/66907.html.images","application/epub+zip":"https://www.gutenberg.org/ebooks/66907.epub3.images","application/x-mobipocket-ebook":"https://www.gutenberg.org/ebooks/66907.kf8.images","text/plain; charset=us-ascii":"https://www.gutenberg.org/ebooks/66907.txt.utf-8","application/rdf+xml":"https://www.gutenberg.org/ebooks/66907.rdf","image/jpeg":"https://www.gutenberg.org/cache/epub/66907/pg66907.cover.medium.jpg","application/octet-stream":"https://www.gutenberg.org/files/66907/66907-0.zip"},"download_count":33},{"id":66914,"title":"Hildreth's \"Japan as It Was and Is\": A Handbook of Old Japan, Volume 2 (of 2)","authors":[{"name":"Hildreth, Richard","birth_year":1807,"death_year":1865}],"translators":[],"subjects":["Japan -- History"],"bookshelves":[],"languages":["en"],"copyright":false,"media_type":"Text","formats":{"text/html":"https://www.gutenberg.org/ebooks/66914.html.images","application/epub+zip":"https://www.gutenberg.org/ebooks/66914.epub3.images","application/x-mobipocket-ebook":"https://www.gutenberg.org/ebooks/66914.kf8.images","text/plain; charset=us-ascii":"https://www.gutenberg.org/ebooks/66914.txt.utf-8","application/rdf+xml":"https://www.gutenberg.org/ebooks/66914.rdf","image/jpeg":"https://www.gutenberg.org/cache/epub/66914/pg66914.cover.medium.jpg","application/octet-stream":"https://www.gutenberg.org/files/66914/66914-0.zip"},"download_count":33},{"id":66948,"title":"The Garnet Story Book: Tales of Cheer Both Old and New","authors":[],"translators":[],"subjects":["Children's stories","Fairy tales"],"bookshelves":[],"languages":["en"],"copyright":false,"media_type":"Text","formats":{"text/html":"https://www.gutenberg.org/ebooks/66948.html.images","application/epub+zip":"https://www.gutenberg.org/ebooks/66948.epub3.images","application/x-mobipocket-ebook":"https://www.gutenberg.org/ebooks/66948.kf8.images","text/plain; charset=us-ascii":"https://www.gutenberg.org/ebooks/66948.txt.utf-8","application/rdf+xml":"https://www.gutenberg.org/ebooks/66948.rdf","image/jpeg":"https://www.gutenberg.org/cache/epub/66948/pg66948.cover.medium.jpg","application/octet-stream":"https://www.gutenberg.org/files/66948/66948-0.zip"},"download_count":33},{"id":66992,"title":"The Law of Hotel Life; or, the Wrongs and Rights of Host and Guest","authors":[{"name":"Rogers, R. Vashon (Robert Vashon)","birth_year":1843,"death_year":1911}],"translators":[],"subjects":["Hotels -- Law and legislation"],"bookshelves":[],"languages":["en"],"copyright":false,"media_type":"Text","formats":{"text/html":"https://www.gutenberg.org/ebooks/66992.html.images","application/epub+zip":"https://www.gutenberg.org/ebooks/66992.epub3.images","application/x-mobipocket-ebook":"https://www.gutenberg.org/ebooks/66992.kf8.images","text/plain; charset=us-ascii":"https://www.gutenberg.org/ebooks/66992.txt.utf-8","application/rdf+xml":"https://www.gutenberg.org/ebooks/66992.rdf","image/jpeg":"https://www.gutenberg.org/cache/epub/66992/pg66992.cover.medium.jpg","application/octet-stream":"https://www.gutenberg.org/files/66992/66992-0.zip"},"download_count":33},{"id":67182,"title":"A History of Epidemic Pestilences: From the Earliest Ages, 1495 Years Before the Birth of our Saviour to 1848: With Researches into Their Nature, Causes, and Prophylaxis","authors":[{"name":"Bascome, Edward","birth_year":null,"death_year":null}],"translators":[],"subjects":["Epidemics -- History"],"bookshelves":[],"languages":["en"],"copyright":false,"media_type":"Text","formats":{"text/html":"https://www.gutenberg.org/ebooks/67182.html.images","application/epub+zip":"https://www.gutenberg.org/ebooks/67182.epub3.images","application/x-mobipocket-ebook":"https://www.gutenberg.org/ebooks/67182.kf8.images","text/plain; charset=us-ascii":"https://www.gutenberg.org/ebooks/67182.txt.utf-8","application/rdf+xml":"https://www.gutenberg.org/ebooks/67182.rdf","image/jpeg":"https://www.gutenberg.org/cache/epub/67182/pg67182.cover.medium.jpg","application/octet-stream":"https://www.gutenberg.org/files/67182/67182-0.zip"},"download_count":33},{"id":67235,"title":"The Caddo Indians of Louisiana","authors":[{"name":"Webb, Clarence H.","birth_year":1902,"death_year":1999},{"name":"Gregory, Hiram F.","birth_year":1937,"death_year":null}],"translators":[],"subjects":["Caddoan Indians -- Antiquities","Caddoan Indians -- History","Louisiana -- Antiquities"],"bookshelves":[],"languages":["en"],"copyright":false,"media_type":"Text","formats":{"text/html":"https://www.gutenberg.org/ebooks/67235.html.images","application/epub+zip":"https://www.gutenberg.org/ebooks/67235.epub3.images","application/x-mobipocket-ebook":"https://www.gutenberg.org/ebooks/67235.kf8.images","text/plain; charset=us-ascii":"https://www.gutenberg.org/ebooks/67235.txt.utf-8","application/rdf+xml":"https://www.gutenberg.org/ebooks/67235.rdf","image/jpeg":"https://www.gutenberg.org/cache/epub/67235/pg67235.cover.medium.jpg","application/octet-stream":"https://www.gutenberg.org/files/67235/67235-0.zip"},"download_count":33},{"id":67313,"title":"The Virgins of the Rocks","authors":[{"name":"D'Annunzio, Gabriele","birth_year":1863,"death_year":1938}],"translators":[{"name":"Hughes, Agatha","birth_year":null,"death_year":null}],"subjects":["Italy -- Fiction"],"bookshelves":[],"languages":["en"],"copyright":false,"media_type":"Text","formats":{"text/html":"https://www.gutenberg.org/ebooks/67313.html.images","application/epub+zip":"https://www.gutenberg.org/ebooks/67313.epub3.images","application/x-mobipocket-ebook":"https://www.gutenberg.org/ebooks/67313.kf8.images","text/plain; charset=us-ascii":"https://www.gutenberg.org/ebooks/67313.txt.utf-8","application/rdf+xml":"https://www.gutenberg.org/ebooks/67313.rdf","image/jpeg":"https://www.gutenberg.org/cache/epub/67313/pg67313.cover.medium.jpg","application/octet-stream":"https://www.gutenberg.org/files/67313/67313-0.zip"},"download_count":33},{"id":67334,"title":"Course of Empire","authors":[{"name":"Wilson, Richard","birth_year":1920,"death_year":1987}],"translators":[],"subjects":["Science fiction","Short stories","Space colonies -- Fiction"],"bookshelves":[],"languages":["en"],"copyright":false,"media_type":"Text","formats":{"text/html":"https://www.gutenberg.org/ebooks/67334.html.images","application/epub+zip":"https://www.gutenberg.org/ebooks/67334.epub3.images","application/x-mobipocket-ebook":"https://www.gutenberg.org/ebooks/67334.kf8.images","text/plain; charset=us-ascii":"https://www.gutenberg.org/ebooks/67334.txt.utf-8","application/rdf+xml":"https://www.gutenberg.org/ebooks/67334.rdf","image/jpeg":"https://www.gutenberg.org/cache/epub/67334/pg67334.cover.medium.jpg","application/octet-stream":"https://www.gutenberg.org/files/67334/67334-0.zip"},"download_count":33},{"id":67383,"title":"Little Foxes","authors":[{"name":"Stowe, Harriet Beecher","birth_year":1811,"death_year":1896}],"translators":[],"subjects":["Conduct of life"],"bookshelves":[],"languages":["en"],"copyright":false,"media_type":"Text","formats":{"text/html":"https://www.gutenberg.org/ebooks/67383.html.images","application/epub+zip":"https://www.gutenberg.org/ebooks/67383.epub3.images","application/x-mobipocket-ebook":"https://www.gutenberg.org/ebooks/67383.kf8.images","text/plain; charset=us-ascii":"https://www.gutenberg.org/ebooks/67383.txt.utf-8","application/rdf+xml":"https://www.gutenberg.org/ebooks/67383.rdf","image/jpeg":"https://www.gutenberg.org/cache/epub/67383/pg67383.cover.medium.jpg","application/octet-stream":"https://www.gutenberg.org/files/67383/67383-0.zip"},"download_count":33},{"id":67474,"title":"The Experienced Angler; or Angling Improved: Imparting Many of the Aptest Ways and Choicest Experiments for the Taking Most Sorts of Fish in Pond or River","authors":[{"name":"Venables, Robert","birth_year":null,"death_year":1687}],"translators":[],"subjects":["Fishing"],"bookshelves":[],"languages":["en"],"copyright":false,"media_type":"Text","formats":{"text/html":"https://www.gutenberg.org/ebooks/67474.html.images","application/epub+zip":"https://www.gutenberg.org/ebooks/67474.epub3.images","application/x-mobipocket-ebook":"https://www.gutenberg.org/ebooks/67474.kf8.images","text/plain; charset=us-ascii":"https://www.gutenberg.org/ebooks/67474.txt.utf-8","application/rdf+xml":"https://www.gutenberg.org/ebooks/67474.rdf","image/jpeg":"https://www.gutenberg.org/cache/epub/67474/pg67474.cover.medium.jpg","application/octet-stream":"https://www.gutenberg.org/files/67474/67474-0.zip"},"download_count":33},{"id":67528,"title":"The Cross and the Hammer: A Tale of the Days of the Vikings","authors":[{"name":"Bedford-Jones, H. (Henry)","birth_year":1887,"death_year":1949}],"translators":[],"subjects":["Vikings -- Fiction"],"bookshelves":[],"languages":["en"],"copyright":false,"media_type":"Text","formats":{"text/html":"https://www.gutenberg.org/ebooks/67528.html.images","application/epub+zip":"https://www.gutenberg.org/ebooks/67528.epub3.images","application/x-mobipocket-ebook":"https://www.gutenberg.org/ebooks/67528.kf8.images","text/plain; charset=us-ascii":"https://www.gutenberg.org/ebooks/67528.txt.utf-8","application/rdf+xml":"https://www.gutenberg.org/ebooks/67528.rdf","image/jpeg":"https://www.gutenberg.org/cache/epub/67528/pg67528.cover.medium.jpg","application/octet-stream":"https://www.gutenberg.org/files/67528/67528-0.zip"},"download_count":33},{"id":67663,"title":"The Century Illustrated Monthly Magazine (December 1912): Vol. LXXXV: New Series Vol. LXIII, November 1912 to April 1913","authors":[],"translators":[],"subjects":["Periodicals"],"bookshelves":[],"languages":["en"],"copyright":false,"media_type":"Text","formats":{"text/html":"https://www.gutenberg.org/ebooks/67663.html.images","application/epub+zip":"https://www.gutenberg.org/ebooks/67663.epub3.images","application/x-mobipocket-ebook":"https://www.gutenberg.org/ebooks/67663.kf8.images","text/plain; charset=us-ascii":"https://www.gutenberg.org/ebooks/67663.txt.utf-8","application/rdf+xml":"https://www.gutenberg.org/ebooks/67663.rdf","image/jpeg":"https://www.gutenberg.org/cache/epub/67663/pg67663.cover.medium.jpg","application/octet-stream":"https://www.gutenberg.org/files/67663/67663-0.zip"},"download_count":33},{"id":67688,"title":"Some Problems of the Peace Conference","authors":[{"name":"Haskins, Charles Homer","birth_year":1870,"death_year":1937},{"name":"Lord, Robert Howard","birth_year":1885,"death_year":1954}],"translators":[],"subjects":["Paris Peace Conference (1919-1920)","World War, 1914-1918 -- Territorial questions"],"bookshelves":[],"languages":["en"],"copyright":false,"media_type":"Text","formats":{"text/html":"https://www.gutenberg.org/ebooks/67688.html.images","application/epub+zip":"https://www.gutenberg.org/ebooks/67688.epub3.images","application/x-mobipocket-ebook":"https://www.gutenberg.org/ebooks/67688.kf8.images","text/plain; charset=us-ascii":"https://www.gutenberg.org/ebooks/67688.txt.utf-8","application/rdf+xml":"https://www.gutenberg.org/ebooks/67688.rdf","image/jpeg":"https://www.gutenberg.org/cache/epub/67688/pg67688.cover.medium.jpg","application/octet-stream":"https://www.gutenberg.org/files/67688/67688-0.zip"},"download_count":33},{"id":67768,"title":"Hand-book of Sanitary Information for Householders: Containing facts and suggestions about ventilation, drainage, care of contageous diseases, disinfection, food, and water. With appendices on disinfectants and plumbers' materials.","authors":[{"name":"Tracy, Roger Sherman","birth_year":1841,"death_year":1926}],"translators":[],"subjects":["Disinfection and disinfectants","Drinking water","Food adulteration and inspection","Hygiene","Sanitation, Household","Ventilation"],"bookshelves":[],"languages":["en"],"copyright":false,"media_type":"Text","formats":{"text/html":"https://www.gutenberg.org/ebooks/67768.html.images","application/epub+zip":"https://www.gutenberg.org/ebooks/67768.epub3.images","application/x-mobipocket-ebook":"https://www.gutenberg.org/ebooks/67768.kf8.images","text/plain; charset=us-ascii":"https://www.gutenberg.org/ebooks/67768.txt.utf-8","application/rdf+xml":"https://www.gutenberg.org/ebooks/67768.rdf","image/jpeg":"https://www.gutenberg.org/cache/epub/67768/pg67768.cover.medium.jpg","application/octet-stream":"https://www.gutenberg.org/files/67768/67768-0.zip"},"download_count":33},{"id":67777,"title":"Fairy Tales, Volume 2 (of 2)","authors":[],"translators":[],"subjects":["Fairy tales"],"bookshelves":[],"languages":["en"],"copyright":false,"media_type":"Text","formats":{"text/html":"https://www.gutenberg.org/ebooks/67777.html.images","application/epub+zip":"https://www.gutenberg.org/ebooks/67777.epub3.images","application/x-mobipocket-ebook":"https://www.gutenberg.org/ebooks/67777.kf8.images","text/plain; charset=us-ascii":"https://www.gutenberg.org/ebooks/67777.txt.utf-8","application/rdf+xml":"https://www.gutenberg.org/ebooks/67777.rdf","image/jpeg":"https://www.gutenberg.org/cache/epub/67777/pg67777.cover.medium.jpg","application/octet-stream":"https://www.gutenberg.org/files/67777/67777-0.zip"},"download_count":33},{"id":67804,"title":"The First of the English: A Novel","authors":[{"name":"Gunter, Archibald Clavering","birth_year":1847,"death_year":1907}],"translators":[],"subjects":["Historical fiction","Netherlands -- History -- Eighty Years' War, 1568-1648 -- Fiction"],"bookshelves":[],"languages":["en"],"copyright":false,"media_type":"Text","formats":{"text/html":"https://www.gutenberg.org/ebooks/67804.html.images","application/epub+zip":"https://www.gutenberg.org/ebooks/67804.epub3.images","application/x-mobipocket-ebook":"https://www.gutenberg.org/ebooks/67804.kf8.images","text/plain; charset=us-ascii":"https://www.gutenberg.org/ebooks/67804.txt.utf-8","application/rdf+xml":"https://www.gutenberg.org/ebooks/67804.rdf","image/jpeg":"https://www.gutenberg.org/cache/epub/67804/pg67804.cover.medium.jpg","application/octet-stream":"https://www.gutenberg.org/files/67804/67804-0.zip"},"download_count":33},{"id":67852,"title":"Model Aeroplanes and Their Engines: A Practical Book for Beginners","authors":[{"name":"Cavanagh, George Anthony","birth_year":1894,"death_year":null}],"translators":[],"subjects":["Airplanes -- Models"],"bookshelves":[],"languages":["en"],"copyright":false,"media_type":"Text","formats":{"text/html":"https://www.gutenberg.org/ebooks/67852.html.images","application/epub+zip":"https://www.gutenberg.org/ebooks/67852.epub3.images","application/x-mobipocket-ebook":"https://www.gutenberg.org/ebooks/67852.kf8.images","text/plain; charset=us-ascii":"https://www.gutenberg.org/ebooks/67852.txt.utf-8","application/rdf+xml":"https://www.gutenberg.org/ebooks/67852.rdf","image/jpeg":"https://www.gutenberg.org/cache/epub/67852/pg67852.cover.medium.jpg","application/octet-stream":"https://www.gutenberg.org/files/67852/67852-0.zip"},"download_count":33},{"id":67894,"title":"Victorian Poetry","authors":[{"name":"Drinkwater, John","birth_year":1882,"death_year":1937}],"translators":[],"subjects":["English poetry -- 19th century -- History and criticism","Great Britain -- History -- Victoria, 1837-1901"],"bookshelves":[],"languages":["en"],"copyright":false,"media_type":"Text","formats":{"text/html":"https://www.gutenberg.org/ebooks/67894.html.images","application/epub+zip":"https://www.gutenberg.org/ebooks/67894.epub3.images","application/x-mobipocket-ebook":"https://www.gutenberg.org/ebooks/67894.kf8.images","text/plain; charset=us-ascii":"https://www.gutenberg.org/ebooks/67894.txt.utf-8","application/rdf+xml":"https://www.gutenberg.org/ebooks/67894.rdf","image/jpeg":"https://www.gutenberg.org/cache/epub/67894/pg67894.cover.medium.jpg","application/octet-stream":"https://www.gutenberg.org/files/67894/67894-0.zip"},"download_count":33},{"id":68005,"title":"QRM-Interplanetary","authors":[{"name":"Smith, George O. (George Oliver)","birth_year":1911,"death_year":1981}],"translators":[],"subjects":["Science fiction","Space stations -- Fiction"],"bookshelves":[],"languages":["en"],"copyright":false,"media_type":"Text","formats":{"text/html":"https://www.gutenberg.org/ebooks/68005.html.images","application/epub+zip":"https://www.gutenberg.org/ebooks/68005.epub3.images","application/x-mobipocket-ebook":"https://www.gutenberg.org/ebooks/68005.kf8.images","text/plain; charset=us-ascii":"https://www.gutenberg.org/ebooks/68005.txt.utf-8","application/rdf+xml":"https://www.gutenberg.org/ebooks/68005.rdf","image/jpeg":"https://www.gutenberg.org/cache/epub/68005/pg68005.cover.medium.jpg","application/octet-stream":"https://www.gutenberg.org/files/68005/68005-0.zip"},"download_count":33},{"id":68049,"title":"Book of Detective Stories","authors":[],"translators":[],"subjects":["Detective and mystery stories, American"],"bookshelves":[],"languages":["en"],"copyright":false,"media_type":"Text","formats":{"text/html":"https://www.gutenberg.org/ebooks/68049.html.images","application/epub+zip":"https://www.gutenberg.org/ebooks/68049.epub3.images","application/x-mobipocket-ebook":"https://www.gutenberg.org/ebooks/68049.kf8.images","text/plain; charset=us-ascii":"https://www.gutenberg.org/ebooks/68049.txt.utf-8","application/rdf+xml":"https://www.gutenberg.org/ebooks/68049.rdf","image/jpeg":"https://www.gutenberg.org/cache/epub/68049/pg68049.cover.medium.jpg","application/octet-stream":"https://www.gutenberg.org/files/68049/68049-0.zip"},"download_count":33},{"id":68070,"title":"Address of President Roosevelt at Canton, Ohio, September 30, 1907","authors":[{"name":"Roosevelt, Theodore","birth_year":1858,"death_year":1919}],"translators":[],"subjects":["McKinley, William, 1843-1901","Speeches, addresses, etc."],"bookshelves":[],"languages":["en"],"copyright":false,"media_type":"Text","formats":{"text/html":"https://www.gutenberg.org/ebooks/68070.html.images","application/epub+zip":"https://www.gutenberg.org/ebooks/68070.epub3.images","application/x-mobipocket-ebook":"https://www.gutenberg.org/ebooks/68070.kf8.images","text/plain; charset=us-ascii":"https://www.gutenberg.org/ebooks/68070.txt.utf-8","application/rdf+xml":"https://www.gutenberg.org/ebooks/68070.rdf","image/jpeg":"https://www.gutenberg.org/cache/epub/68070/pg68070.cover.medium.jpg","application/octet-stream":"https://www.gutenberg.org/files/68070/68070-0.zip"},"download_count":33},{"id":68169,"title":"Sir John Dering: A romantic comedy","authors":[{"name":"Farnol, Jeffery","birth_year":1878,"death_year":1952}],"translators":[],"subjects":["English fiction -- 20th century"],"bookshelves":[],"languages":["en"],"copyright":false,"media_type":"Text","formats":{"text/html":"https://www.gutenberg.org/ebooks/68169.html.images","application/epub+zip":"https://www.gutenberg.org/ebooks/68169.epub3.images","application/x-mobipocket-ebook":"https://www.gutenberg.org/ebooks/68169.kf8.images","text/plain; charset=us-ascii":"https://www.gutenberg.org/ebooks/68169.txt.utf-8","application/rdf+xml":"https://www.gutenberg.org/ebooks/68169.rdf","image/jpeg":"https://www.gutenberg.org/cache/epub/68169/pg68169.cover.medium.jpg","application/octet-stream":"https://www.gutenberg.org/files/68169/68169-0.zip"},"download_count":33},{"id":68203,"title":"Don't look now","authors":[{"name":"Kuttner, Henry","birth_year":1915,"death_year":1958}],"translators":[],"subjects":["Bars (Drinking establishments) -- Fiction","Earth (Planet) -- Fiction","Martians -- Fiction","Science fiction","Short stories"],"bookshelves":[],"languages":["en"],"copyright":false,"media_type":"Text","formats":{"text/html":"https://www.gutenberg.org/ebooks/68203.html.images","application/epub+zip":"https://www.gutenberg.org/ebooks/68203.epub3.images","application/x-mobipocket-ebook":"https://www.gutenberg.org/ebooks/68203.kf8.images","text/plain; charset=us-ascii":"https://www.gutenberg.org/ebooks/68203.txt.utf-8","application/rdf+xml":"https://www.gutenberg.org/ebooks/68203.rdf","image/jpeg":"https://www.gutenberg.org/cache/epub/68203/pg68203.cover.medium.jpg","application/octet-stream":"https://www.gutenberg.org/files/68203/68203-0.zip"},"download_count":33},{"id":68212,"title":"Historical record of the Eighty-Sixth, or the Royal County Down Regiment of Foot: Containing an account of the formation of the regiment in 1793, and of its subsequent services to 1842.","authors":[{"name":"Cannon, Richard","birth_year":1779,"death_year":1865}],"translators":[],"subjects":["Great Britain. Army. Regiment of Foot, 86th -- History","Great Britain. Army. Royal County Down Regiment -- History"],"bookshelves":[],"languages":["en"],"copyright":false,"media_type":"Text","formats":{"text/html":"https://www.gutenberg.org/ebooks/68212.html.images","application/epub+zip":"https://www.gutenberg.org/ebooks/68212.epub3.images","application/x-mobipocket-ebook":"https://www.gutenberg.org/ebooks/68212.kf8.images","text/plain; charset=us-ascii":"https://www.gutenberg.org/ebooks/68212.txt.utf-8","application/rdf+xml":"https://www.gutenberg.org/ebooks/68212.rdf","image/jpeg":"https://www.gutenberg.org/cache/epub/68212/pg68212.cover.medium.jpg","application/octet-stream":"https://www.gutenberg.org/files/68212/68212-0.zip"},"download_count":33},{"id":68241,"title":"The profanity of paint","authors":[{"name":"Kiddier, William","birth_year":1859,"death_year":1934}],"translators":[],"subjects":["Painting"],"bookshelves":[],"languages":["en"],"copyright":false,"media_type":"Text","formats":{"text/html":"https://www.gutenberg.org/ebooks/68241.html.images","application/epub+zip":"https://www.gutenberg.org/ebooks/68241.epub3.images","application/x-mobipocket-ebook":"https://www.gutenberg.org/ebooks/68241.kf8.images","text/plain; charset=us-ascii":"https://www.gutenberg.org/ebooks/68241.txt.utf-8","application/rdf+xml":"https://www.gutenberg.org/ebooks/68241.rdf","image/jpeg":"https://www.gutenberg.org/cache/epub/68241/pg68241.cover.medium.jpg","application/octet-stream":"https://www.gutenberg.org/files/68241/68241-0.zip"},"download_count":33},{"id":68320,"title":"The works of the Rev. John Wesley, Vol. 04 (of 32)","authors":[{"name":"Wesley, John","birth_year":1703,"death_year":1791}],"translators":[],"subjects":["Methodist Church","Theology -- Early works to 1800","Theology -- History -- 18th century"],"bookshelves":[],"languages":["en"],"copyright":false,"media_type":"Text","formats":{"text/html":"https://www.gutenberg.org/ebooks/68320.html.images","application/epub+zip":"https://www.gutenberg.org/ebooks/68320.epub3.images","application/x-mobipocket-ebook":"https://www.gutenberg.org/ebooks/68320.kf8.images","text/plain; charset=us-ascii":"https://www.gutenberg.org/ebooks/68320.txt.utf-8","application/rdf+xml":"https://www.gutenberg.org/ebooks/68320.rdf","image/jpeg":"https://www.gutenberg.org/cache/epub/68320/pg68320.cover.medium.jpg","application/octet-stream":"https://www.gutenberg.org/files/68320/68320-0.zip"},"download_count":33},{"id":68332,"title":"The Rover Boys on Sunset Trail; or, The old miner's mysterious message","authors":[{"name":"Stratemeyer, Edward","birth_year":1862,"death_year":1930}],"translators":[],"subjects":["Adventure stories","Boarding schools -- Juvenile fiction","Military cadets -- Juvenile fiction","Military education -- Juvenile fiction","Western stories"],"bookshelves":[],"languages":["en"],"copyright":false,"media_type":"Text","formats":{"text/html":"https://www.gutenberg.org/ebooks/68332.html.images","application/epub+zip":"https://www.gutenberg.org/ebooks/68332.epub3.images","application/x-mobipocket-ebook":"https://www.gutenberg.org/ebooks/68332.kf8.images","text/plain; charset=us-ascii":"https://www.gutenberg.org/ebooks/68332.txt.utf-8","application/rdf+xml":"https://www.gutenberg.org/ebooks/68332.rdf","image/jpeg":"https://www.gutenberg.org/cache/epub/68332/pg68332.cover.medium.jpg","application/octet-stream":"https://www.gutenberg.org/files/68332/68332-0.zip"},"download_count":33}]}