{"count":58808,"next":"http://129.241.150.113:8000/books/?languages=en&page=595","previous":"http://129.241.150.113:8000/books/?languages=en&page=593","results":[{"id":67878,"title":"Gods of Modern Grub Street: Impressions of Contemporary Authors","authors":[{"name":"Adcock, Arthur St. John","birth_year":1864,"death_year":1930}],"translators":[],"subjects":["English fiction -- 20th century -- History and criticism","English literature -- 20th century -- History and criticism"],"bookshelves":[],"languages":["en"],"copyright":false,"media_type":"Text","formats":{"text/html":"https://www.gutenberg.org/ebooks/67878.html.images","application/epub+zip":"https://www.gutenberg.org/ebooks/67878.epub3.images","application/x-mobipocket-ebook":"https://www.gutenberg.org/ebooks/67878.kf8.images","text/plain; charset=us-ascii":"https://www.gutenberg.org/ebooks/67878.txt.utf-8","application/rdf+xml":"https://www.gutenberg.org/ebooks/67878.rdf","image/jpeg":"https://www.gutenberg.org/cache/epub/67878/pg67878.cover.medium.jpg","application/octet-stream":"https://www.gutenberg.org/files/67878/67878-0.zip"},"download_count":54},{"id":68142,"title":"From North Pole to Equator: Studies of Wild Life and Scenes in Many Lands","authors":[{"name":"Brehm, Alfred Edmund","birth_year":1829,"death_year":1884}],"translators":[{"name":"Thomson, Margaret R.","birth_year":null,"death_year":null}],"subjects":["Africa -- Description and travel","Animal behavior","Birds -- Danube River","Birds -- Lapland","Ethnology -- Russia (Federation) -- Siberia","Natural history","Siberia (Russia) -- Description and travel","Tundras"],"bookshelves":[],"languages":["en"],"copyright":false,"media_type":"Text","formats":{"text/html":"https://www.gutenberg.org/ebooks/68142.html.images","application/epub+zip":"https://www.gutenberg.org/ebooks/68142.epub3.images","application/x-mobipocket-ebook":"https://www.gutenberg.org/ebooks/68142.kf8.images","text/plain; charset=us-ascii":"https://www.gutenberg.org/ebooks/68142.txt.utf-8","application/rdf+xml":"https://www.gutenberg.org/ebooks/68142.rdf","image/jpeg":"https://www.gutenberg.org/cache/epub/68142/pg68142.cover.medium.jpg","application/octet-stream":"https://www.gutenberg.org/files/68142/68142-0.zip"},"download_count":54},{"id":68473,"title":"War cartoons","authors":[{"name":"Knott, John Francis","birth_year":1878,"death_year":1963}],"translators":[],"subjects":["World War, 1914-1918 -- Humor, caricatures, etc."],"bookshelves":[],"languages":["en"],"copyright":false,"media_type":"Text","formats":{"text/html":"https://www.gutenberg.org/ebooks/68473.html.images","application/epub+zip":"https://www.gutenberg.org/ebooks/68473.epub3.images","application/x-mobipocket-ebook":"https://www.gutenberg.org/ebooks/68473.kf8.images","text/plain; charset=us-ascii":"https://www.gutenberg.org/ebooks/68473.txt.utf-8","application/rdf+xml":"https://www.gutenberg.org/ebooks/68473.rdf","image/jpeg":"https://www.gutenberg.org/cache/epub/68473/pg68473.cover.medium.jpg","application/octet-stream":"https://www.gutenberg.org/files/68473/68473-0.zip"},"download_count":54},{"id":68600,"title":"Picnic","authors":[{"name":"Marlowe, Stephen","birth_year":1928,"death_year":2008}],"translators":[],"subjects":["Asteroids -- Fiction","Families -- Fiction","Science fiction","Short stories"],"bookshelves":[],"languages":["en"],"copyright":false,"media_type":"Text","formats":{"text/html":"https://www.gutenberg.org/ebooks/68600.html.images","application/epub+zip":"https://www.gutenberg.org/ebooks/68600.epub3.images","application/x-mobipocket-ebook":"https://www.gutenberg.org/ebooks/68600.kf8.images","text/plain; charset=us-ascii":"https://www.gutenberg.org/ebooks/68600.txt.utf-8","application/rdf+xml":"https://www.gutenberg.org/ebooks/68600.rdf","image/jpeg":"https://www.gutenberg.org/cache/epub/68600/pg68600.cover.medium.jpg","application/octet-stream":"https://www.gutenberg.org/files/68600/68600-0.zip"},"download_count":54},{"id":68627,"title":"Roger Williams, Prophet and Pioneer of Soul-Liberty","authors":[{"name":"Strickland, Arthur Barsazou","birth_year":1879,"death_year":null}],"translators":[],"subjects":["Williams, Roger, 1604?-1683"],"bookshelves":[],"languages":["en"],"copyright":false,"media_type":"Text","formats":{"text/html":"https://www.gutenberg.org/ebooks/68627.html.images","application/epub+zip":"https://www.gutenberg.org/ebooks/68627.epub3.images","application/x-mobipocket-ebook":"https://www.gutenberg.org/ebooks/68627.kf8.images","text/plain; charset=us-ascii":"https://www.gutenberg.org/ebooks/68627.txt.utf-8","application/rdf+xml":"https://www.gutenberg.org/ebooks/68627.rdf","image/jpeg":"https://www.gutenberg.org/cache/epub/68627/pg68627.cover.medium.jpg","application/octet-stream":"https://www.gutenberg.org/files/68627/68627-0.zip"},"download_count":54},{"id":69080,"title":"Walker's manly exercises: Containing rowing, sailing, riding, driving, racing, hunting, shooting, and other manly sports","authors":[{"name":"Walker, Donald","birth_year":null,"death_year":null}],"translators":[],"subjects":["Athletics","Sports"],"bookshelves":[],"languages":["en"],"copyright":false,"media_type":"Text","formats":{"text/html":"https://www.gutenberg.org/ebooks/69080.html.images","application/epub+zip":"https://www.gutenberg.org/ebooks/69080.epub3.images","application/x-mobipocket-ebook":"https://www.gutenberg.org/ebooks/69080.kf8.images","text/plain; charset=us-ascii":"https://www.gutenberg.org/ebooks/69080.txt.utf-8","application/rdf+xml":"https://www.gutenberg.org/ebooks/69080.rdf","image/jpeg":"https://www.gutenberg.org/cache/epub/69080/pg69080.cover.medium.jpg","application/octet-stream":"https://www.gutenberg.org/files/69080/69080-0.zip"},"download_count":54},{"id":69126,"title":"The works of Mr. Thomas Brown, serious and comical : in prose and verse, with his remains in four volumes compleat; vol. II","authors":[{"name":"Brown, Thomas","birth_year":1662,"death_year":1704}],"translators":[],"subjects":["English wit and humor -- Early works to 1800","Erotic literature -- Early works to 1800","Latin literature -- Translations into English"],"bookshelves":[],"languages":["en"],"copyright":false,"media_type":"Text","formats":{"text/html":"https://www.gutenberg.org/ebooks/69126.html.images","application/epub+zip":"https://www.gutenberg.org/ebooks/69126.epub3.images","application/x-mobipocket-ebook":"https://www.gutenberg.org/ebooks/69126.kf8.images","text/plain; charset=us-ascii":"https://www.gutenberg.org/ebooks/69126.txt.utf-8","application/rdf+xml":"https://www.gutenberg.org/ebooks/69126.rdf","image/jpeg":"https://www.gutenberg.org/cache/epub/69126/pg69126.cover.medium.jpg","application/octet-stream":"https://www.gutenberg.org/files/69126/69126-0.zip"},"download_count":54},{"id":69308,"title":"The call from beyond","authors":[{"name":"Simak, Clifford D.","birth_year":1904,"death_year":1988}],"translators":[],"subjects":["Adventure stories","Conspiracies -- Fiction","Mutation (Biology) -- Fiction","Pluto (Dwarf planet) -- Fiction","Science fiction"],"bookshelves":[],"languages":["en"],"copyright":false,"media_type":"Text","formats":{"text/html":"https://www.gutenberg.org/ebooks/69308.html.images","application/epub+zip":"https://www.gutenberg.org/ebooks/69308.epub3.images","application/x-mobipocket-ebook":"https://www.gutenberg.org/ebooks/69308.kf8.images","text/plain; charset=us-ascii":"https://www.gutenberg.org/ebooks/69308.txt.utf-8","application/rdf+xml":"https://www.gutenberg.org/ebooks/69308.rdf","image/jpeg":"https://www.gutenberg.org/cache/epub/69308/pg69308.cover.medium.jpg","application/octet-stream":"https://www.gutenberg.org/files/69308/69308-0.zip"},"download_count":54},{"id":69402,"title":"Twice round the clock; or, The hours of the day and night in London","authors":[{"name":"Sala, George Augustus","birth_year":1828,"death_year":1895}],"translators":[],"subjects":["London (England) -- Social life and customs -- 19th century"],"bookshelves":[],"languages":["en"],"copyright":false,"media_type":"Text","formats":{"text/html":"https://www.gutenberg.org/ebooks/69402.html.images","application/epub+zip":"https://www.gutenberg.org/ebooks/69402.epub3.images","application/x-mobipocket-ebook":"https://www.gutenberg.org/ebooks/69402.kf8.images","text/plain; charset=us-ascii":"https://www.gutenberg.org/ebooks/69402.txt.utf-8","application/rdf+xml":"https://www.gutenberg.org/ebooks/69402.rdf","image/jpeg":"https://www.gutenberg.org/cache/epub/69402/pg69402.cover.medium.jpg","application/octet-stream":"https://www.gutenberg.org/files/69402/69402-0.zip"},"download_count":54},{"id":69787,"title":"The splendour of Asia: The story and teaching of the Buddha","authors":[{"name":"Beck, L. Adams (Lily Adams)","birth_year":1862,"death_year":1931}],"translators":[],"subjects":["Buddha (The concept)"],"bookshelves":[],"languages":["en"],"copyright":false,"media_type":"Text","formats":{"text/html":"https://www.gutenberg.org/ebooks/69787.html.images","application/epub+zip":"https://www.gutenberg.org/ebooks/69787.epub3.images","application/x-mobipocket-ebook":"https://www.gutenberg.org/ebooks/69787.kf8.images","text/plain; charset=us-ascii":"https://www.gutenberg.org/ebooks/69787.txt.utf-8","application/rdf+xml":"https://www.gutenberg.org/ebooks/69787.rdf","image/jpeg":"https://www.gutenberg.org/cache/epub/69787/pg69787.cover.medium.jpg","application/octet-stream":"https://www.gutenberg.org/files/69787/69787-0.zip"},"download_count":54},{"id":69798,"title":"Smoky, the cow horse","authors":[{"name":"James, Will","birth_year":1892,"death_year":1942}],"translators":[],"subjects":["Horses -- Juvenile fiction","West (U.S.) -- Juvenile fiction"],"bookshelves":[],"languages":["en"],"copyright":false,"media_type":"Text","formats":{"text/html":"https://www.gutenberg.org/ebooks/69798.html.images","application/epub+zip":"https://www.gutenberg.org/ebooks/69798.epub3.images","application/x-mobipocket-ebook":"https://www.gutenberg.org/ebooks/69798.kf8.images","text/plain; charset=us-ascii":"https://www.gutenberg.org/ebooks/69798.txt.utf-8","application/rdf+xml":"https://www.gutenberg.org/ebooks/69798.rdf","image/jpeg":"https://www.gutenberg.org/cache/epub/69798/pg69798.cover.medium.jpg","application/octet-stream":"https://www.gutenberg.org/files/69798/69798-0.zip"},"download_count":54},{"id":70380,"title":"The \"Land & Water\" edition of Raemaekers' cartoons, volume 1","authors":[{"name":"Raemaekers, Louis","birth_year":1869,"death_year":1956}],"translators":[],"subjects":["World War, 1914-1918 -- Caricatures and cartoons"],"bookshelves":[],"languages":["en"],"copyright":false,"media_type":"Text","formats":{"text/html":"https://www.gutenberg.org/ebooks/70380.html.images","application/epub+zip":"https://www.gutenberg.org/ebooks/70380.epub3.images","application/x-mobipocket-ebook":"https://www.gutenberg.org/ebooks/70380.kf8.images","text/plain; charset=us-ascii":"https://www.gutenberg.org/ebooks/70380.txt.utf-8","application/rdf+xml":"https://www.gutenberg.org/ebooks/70380.rdf","image/jpeg":"https://www.gutenberg.org/cache/epub/70380/pg70380.cover.medium.jpg","application/octet-stream":"https://www.gutenberg.org/files/70380/70380-0.zip"},"download_count":54},{"id":70629,"title":"A popular history of the United States of America, Vol. 2 (of 2) : $b from the discovery of the American continent to the present time","authors":[{"name":"Howitt, Mary (Mary Botham)","birth_year":1799,"death_year":1888}],"translators":[],"subjects":["United States -- History"],"bookshelves":[],"languages":["en"],"copyright":false,"media_type":"Text","formats":{"text/html":"https://www.gutenberg.org/ebooks/70629.html.images","application/epub+zip":"https://www.gutenberg.org/ebooks/70629.epub3.images","application/x-mobipocket-ebook":"https://www.gutenberg.org/ebooks/70629.kf8.images","text/plain; charset=us-ascii":"https://www.gutenberg.org/ebooks/70629.txt.utf-8","application/rdf+xml":"https://www.gutenberg.org/ebooks/70629.rdf","image/jpeg":"https://www.gutenberg.org/cache/epub/70629/pg70629.cover.medium.jpg","application/octet-stream":"https://www.gutenberg.org/files/70629/70629-0.zip"},"download_count":54},{"id":71105,"title":"The story of a border city during the Civil War","authors":[{"name":"Anderson, Galusha","birth_year":1832,"death_year":1918}],"translators":[],"subjects":["Missouri -- History -- Civil War, 1861-1865","Saint Louis (Mo.) -- History -- Civil War, 1861-1865"],"bookshelves":[],"languages":["en"],"copyright":false,"media_type":"Text","formats":{"text/html":"https://www.gutenberg.org/ebooks/71105.html.images","application/epub+zip":"https://www.gutenberg.org/ebooks/71105.epub3.images","application/x-mobipocket-ebook":"https://www.gutenberg.org/ebooks/71105.kf8.images","text/plain; charset=us-ascii":"https://www.gutenberg.org/ebooks/71105.txt.utf-8","application/rdf+xml":"https://www.gutenberg.org/ebooks/71105.rdf","image/jpeg":"https://www.gutenberg.org/cache/epub/71105/pg71105.cover.medium.jpg","application/octet-stream":"https://www.gutenberg.org/files/71105/71105-0.zip"},"download_count":54},{"id":71150,"title":"Schools of Gaul in the last century of the Western Empire : $b A study of pagan and Christian education in the last century of the Western empire","authors":[{"name":"Haarhoff, T. J. (Theodore Johannes)","birth_year":1892,"death_year":1971}],"translators":[],"subjects":["Education, Ancient -- France","Gaul -- History -- 58 B.C.-511 A.D."],"bookshelves":[],"languages":["en"],"copyright":false,"media_type":"Text","formats":{"text/html":"https://www.gutenberg.org/ebooks/71150.html.images","application/epub+zip":"https://www.gutenberg.org/ebooks/71150.epub3.images","application/x-mobipocket-ebook":"https://www.gutenberg.org/ebooks/71150.kf8.images","text/plain; charset=us-ascii":"https://www.gutenberg.org/ebooks/71150.txt.utf-8","application/rdf+xml":"https://www.gutenberg.org/ebooks/71150.rdf","image/jpeg":"https://www.gutenberg.org/cache/epub/71150/pg71150.cover.medium.jpg","application/octet-stream":"https://www.gutenberg.org/files/71150/71150-0.zip"},"download_count":54},{"id":71462,"title":"Nature readers : $b Sea-side and way-side. No. 1","authors":[{"name":"Wright, Julia McNair","birth_year":1840,"death_year":1903}],"translators":[],"subjects":["Nature study -- Juvenile literature","Readers"],"bookshelves":[],"languages":["en"],"copyright":false,"media_type":"Text","formats":{"text/html":"https://www.gutenberg.org/ebooks/71462.html.images","application/epub+zip":"https://www.gutenberg.org/ebooks/71462.epub3.images","application/x-mobipocket-ebook":"https://www.gutenberg.org/ebooks/71462.kf8.images","text/plain; charset=us-ascii":"https://www.gutenberg.org/ebooks/71462.txt.utf-8","application/rdf+xml":"https://www.gutenberg.org/ebooks/71462.rdf","image/jpeg":"https://www.gutenberg.org/cache/epub/71462/pg71462.cover.medium.jpg","application/octet-stream":"https://www.gutenberg.org/files/71462/71462-h.zip"},"download_count":54},{"id":71556,"title":"The narrative of a journey undertaken in the years 1819, 1820 and 1821 through France, Italy, Savoy, Switzerland, parts of Germany bordering on the Rhine, Holland and the Netherlands : $b comprising incidents that occurred to the author, who has long suffered under a total deprivation of sight; with various points of information collected on his tour","authors":[{"name":"Holman, James","birth_year":1786,"death_year":1857}],"translators":[],"subjects":["Europe -- Description and travel"],"bookshelves":[],"languages":["en"],"copyright":false,"media_type":"Text","formats":{"text/html":"https://www.gutenberg.org/ebooks/71556.html.images","application/epub+zip":"https://www.gutenberg.org/ebooks/71556.epub3.images","application/x-mobipocket-ebook":"https://www.gutenberg.org/ebooks/71556.kf8.images","text/plain; charset=us-ascii":"https://www.gutenberg.org/ebooks/71556.txt.utf-8","application/rdf+xml":"https://www.gutenberg.org/ebooks/71556.rdf","image/jpeg":"https://www.gutenberg.org/cache/epub/71556/pg71556.cover.medium.jpg","application/octet-stream":"https://www.gutenberg.org/files/71556/71556-h.zip"},"download_count":54},{"id":71628,"title":"The band played on","authors":[{"name":"Del Rey, Lester","birth_year":1915,"death_year":1993}],"translators":[],"subjects":["Astronauts -- Fiction","Farms -- Fiction","Hurricanes -- Fiction","Man-woman relationships -- Fiction","Science fiction","Space stations -- Fiction"],"bookshelves":[],"languages":["en"],"copyright":false,"media_type":"Text","formats":{"text/html":"https://www.gutenberg.org/ebooks/71628.html.images","application/epub+zip":"https://www.gutenberg.org/ebooks/71628.epub3.images","application/x-mobipocket-ebook":"https://www.gutenberg.org/ebooks/71628.kf8.images","text/plain; charset=us-ascii":"https://www.gutenberg.org/ebooks/71628.txt.utf-8","application/rdf+xml":"https://www.gutenberg.org/ebooks/71628.rdf","image/jpeg":"https://www.gutenberg.org/cache/epub/71628/pg71628.cover.medium.jpg","application/octet-stream":"https://www.gutenberg.org/files/71628/71628-h.zip"},"download_count":54},{"id":71630,"title":"The mind of primitive man : $b A course of lectures delivered before the Lowell Institute, Boston, Mass., and the National University of Mexico, 1910-1911","authors":[{"name":"Boas, Franz","birth_year":1858,"death_year":1942}],"translators":[],"subjects":["Ethnopsychology","Race"],"bookshelves":[],"languages":["en"],"copyright":false,"media_type":"Text","formats":{"text/html":"https://www.gutenberg.org/ebooks/71630.html.images","application/epub+zip":"https://www.gutenberg.org/ebooks/71630.epub3.images","application/x-mobipocket-ebook":"https://www.gutenberg.org/ebooks/71630.kf8.images","text/plain; charset=us-ascii":"https://www.gutenberg.org/ebooks/71630.txt.utf-8","application/rdf+xml":"https://www.gutenberg.org/ebooks/71630.rdf","image/jpeg":"https://www.gutenberg.org/cache/epub/71630/pg71630.cover.medium.jpg","application/octet-stream":"https://www.gutenberg.org/files/71630/71630-h.zip"},"download_count":54},{"id":71656,"title":"The home-life of Borneo head-hunters : $b Its festivals and folk-lore","authors":[{"name":"Furness, William Henry","birth_year":1866,"death_year":1920}],"translators":[],"subjects":["Borneo -- Description and travel","Ethnology -- Borneo","Folklore -- Borneo","Kayan (Bornean people)","Kenyah (Southeast Asian people)"],"bookshelves":[],"languages":["en"],"copyright":false,"media_type":"Text","formats":{"text/html":"https://www.gutenberg.org/ebooks/71656.html.images","application/epub+zip":"https://www.gutenberg.org/ebooks/71656.epub3.images","application/x-mobipocket-ebook":"https://www.gutenberg.org/ebooks/71656.kf8.images","text/plain; charset=us-ascii":"https://www.gutenberg.org/ebooks/71656.txt.utf-8","application/rdf+xml":"https://www.gutenberg.org/ebooks/71656.rdf","image/jpeg":"https://www.gutenberg.org/cache/epub/71656/pg71656.cover.medium.jpg","application/octet-stream":"https://www.gutenberg.org/files/71656/71656-h.zip"},"download_count":54},{"id":71728,"title":"Under the Mikado's flag : $b or, Young soldiers of fortune","authors":[{"name":"Stratemeyer, Edward","birth_year":1862,"death_year":1930}],"translators":[],"subjects":["Korea -- Juvenile fiction","Manchuria (China) -- Juvenile fiction","Russo-Japanese War, 1904-1905 -- Juvenile fiction","War stories"],"bookshelves":[],"languages":["en"],"copyright":false,"media_type":"Text","formats":{"text/html":"https://www.gutenberg.org/ebooks/71728.html.images","application/epub+zip":"https://www.gutenberg.org/ebooks/71728.epub3.images","application/x-mobipocket-ebook":"https://www.gutenberg.org/ebooks/71728.kf8.images","text/plain; charset=us-ascii":"https://www.gutenberg.org/ebooks/71728.txt.utf-8","application/rdf+xml":"https://www.gutenberg.org/ebooks/71728.rdf","image/jpeg":"https://www.gutenberg.org/cache/epub/71728/pg71728.cover.medium.jpg","application/octet-stream":"https://www.gutenberg.org/files/71728/71728-h.zip"},"download_count":54},{"id":71843,"title":"Nature readers : $b Seaside and wayside No. 2","authors":[{"name":"Wright, Julia McNair","birth_year":1840,"death_year":1903}],"translators":[],"subjects":["Nature study -- Juvenile literature","Readers"],"bookshelves":[],"languages":["en"],"copyright":false,"media_type":"Text","formats":{"text/html":"https://www.gutenberg.org/ebooks/71843.html.images","application/epub+zip":"https://www.gutenberg.org/ebooks/71843.epub3.images","application/x-mobipocket-ebook":"https://www.gutenberg.org/ebooks/71843.kf8.images","text/plain; charset=us-ascii":"https://www.gutenberg.org/ebooks/71843.txt.utf-8","application/rdf+xml":"https://www.gutenberg.org/ebooks/71843.rdf","image/jpeg":"https://www.gutenberg.org/cache/epub/71843/pg71843.cover.medium.jpg","application/octet-stream":"https://www.gutenberg.org/cache/epub/71843/pg71843-h.zip"},"download_count":54},{"id":71863,"title":"Nigeria : $b Its peoples and its problems","authors":[{"name":"Morel, E. D. (Edmund Dene)","birth_year":1873,"death_year":1924}],"translators":[],"subjects":["Ethnology -- Nigeria","Nigeria -- Description and travel"],"bookshelves":[],"languages":["en"],"copyright":false,"media_type":"Text","formats":{"text/html":"https://www.gutenberg.org/ebooks/71863.html.images","application/epub+zip":"https://www.gutenberg.org/ebooks/71863.epub3.images","application/x-mobipocket-ebook":"https://www.gutenberg.org/ebooks/71863.kf8.images","text/plain; charset=us-ascii":"https://www.gutenberg.org/ebooks/71863.txt.utf-8","application/rdf+xml":"https://www.gutenberg.org/ebooks/71863.rdf","image/jpeg":"https://www.gutenberg.org/cache/epub/71863/pg71863.cover.medium.jpg","application/octet-stream":"https://www.gutenberg.org/cache/epub/71863/pg71863-h.zip"},"download_count":54},{"id":71977,"title":"Angel's Christmas, and, Little Dot","authors":[{"name":"Walton, O. F., Mrs.","birth_year":1849,"death_year":1939}],"translators":[],"subjects":["Birthdays -- Juvenile fiction","Christian fiction","Death -- Juvenile fiction"],"bookshelves":[],"languages":["en"],"copyright":false,"media_type":"Text","formats":{"text/html":"https://www.gutenberg.org/ebooks/71977.html.images","application/epub+zip":"https://www.gutenberg.org/ebooks/71977.epub3.images","application/x-mobipocket-ebook":"https://www.gutenberg.org/ebooks/71977.kf8.images","text/plain; charset=us-ascii":"https://www.gutenberg.org/ebooks/71977.txt.utf-8","application/rdf+xml":"https://www.gutenberg.org/ebooks/71977.rdf","image/jpeg":"https://www.gutenberg.org/cache/epub/71977/pg71977.cover.medium.jpg","application/octet-stream":"https://www.gutenberg.org/cache/epub/71977/pg71977-h.zip"},"download_count":54},{"id":72044,"title":"Nature readers : $b Sea-side and way-side. No. 3","authors":[{"name":"Wright, Julia McNair","birth_year":1840,"death_year":1903}],"translators":[],"subjects":["Nature study -- Juvenile literature","Readers"],"bookshelves":[],"languages":["en"],"copyright":false,"media_type":"Text","formats":{"text/html":"https://www.gutenberg.org/ebooks/72044.html.images","application/epub+zip":"https://www.gutenberg.org/ebooks/72044.epub3.images","application/x-mobipocket-ebook":"https://www.gutenberg.org/ebooks/72044.kf8.images","text/plain; charset=us-ascii":"https://www.gutenberg.org/ebooks/72044.txt.utf-8","application/rdf+xml":"https://www.gutenberg.org/ebooks/72044.rdf","image/jpeg":"https://www.gutenberg.org/cache/epub/72044/pg72044.cover.medium.jpg","application/octet-stream":"https://www.gutenberg.org/cache/epub/72044/pg72044-h.zip"},"download_count":54},{"id":72047,"title":"The Revelation of St. John the Divine : $b An interpretation","authors":[{"name":"Ames, A. H.","birth_year":null,"death_year":null}],"translators":[],"subjects":["Bible. Revelation -- Criticism, interpretation, etc."],"bookshelves":[],"languages":["en"],"copyright":false,"media_type":"Text","formats":{"text/html":"https://www.gutenberg.org/ebooks/72047.html.images","application/epub+zip":"https://www.gutenberg.org/ebooks/72047.epub3.images","application/x-mobipocket-ebook":"https://www.gutenberg.org/ebooks/72047.kf8.images","text/plain; charset=us-ascii":"https://www.gutenberg.org/ebooks/72047.txt.utf-8","application/rdf+xml":"https://www.gutenberg.org/ebooks/72047.rdf","image/jpeg":"https://www.gutenberg.org/cache/epub/72047/pg72047.cover.medium.jpg","application/octet-stream":"https://www.gutenberg.org/cache/epub/72047/pg72047-h.zip"},"download_count":54},{"id":72077,"title":"The fog princes","authors":[{"name":"Warden, Florence","birth_year":1857,"death_year":1929}],"translators":[],"subjects":["England -- Social life and customs -- 19th century -- Fiction"],"bookshelves":[],"languages":["en"],"copyright":false,"media_type":"Text","formats":{"text/html":"https://www.gutenberg.org/ebooks/72077.html.images","application/epub+zip":"https://www.gutenberg.org/ebooks/72077.epub3.images","application/x-mobipocket-ebook":"https://www.gutenberg.org/ebooks/72077.kf8.images","text/plain; charset=us-ascii":"https://www.gutenberg.org/ebooks/72077.txt.utf-8","application/rdf+xml":"https://www.gutenberg.org/ebooks/72077.rdf","image/jpeg":"https://www.gutenberg.org/cache/epub/72077/pg72077.cover.medium.jpg","application/octet-stream":"https://www.gutenberg.org/cache/epub/72077/pg72077-h.zip"},"download_count":54},{"id":72094,"title":"Robinson Crusoe, Jr. : $b A story for little folks","authors":[{"name":"Optic, Oliver","birth_year":1822,"death_year":1897}],"translators":[],"subjects":["Boys -- Juvenile fiction","Runaway children -- Juvenile fiction"],"bookshelves":[],"languages":["en"],"copyright":false,"media_type":"Text","formats":{"text/html":"https://www.gutenberg.org/ebooks/72094.html.images","application/epub+zip":"https://www.gutenberg.org/ebooks/72094.epub3.images","application/x-mobipocket-ebook":"https://www.gutenberg.org/ebooks/72094.kf8.images","text/plain; charset=us-ascii":"https://www.gutenberg.org/ebooks/72094.txt.utf-8","application/rdf+xml":"https://www.gutenberg.org/ebooks/72094.rdf","image/jpeg":"https://www.gutenberg.org/cache/epub/72094/pg72094.cover.medium.jpg","application/octet-stream":"https://www.gutenberg.org/cache/epub/72094/pg72094-h.zip"},"download_count":54},{"id":72102,"title":"A voyage to Guinea, Brasil and the West Indies : $b in His Majesty's ships, the Swallow and Weymouth","authors":[{"name":"Atkins, John","birth_year":1685,"death_year":1757}],"translators":[],"subjects":["Guinea (Region) -- Description and travel -- Early works to 1800","Slave trade -- Early works to 1800","West Indies -- Description and travel -- Early works to 1800"],"bookshelves":[],"languages":["en"],"copyright":false,"media_type":"Text","formats":{"text/html":"https://www.gutenberg.org/ebooks/72102.html.images","application/epub+zip":"https://www.gutenberg.org/ebooks/72102.epub3.images","application/x-mobipocket-ebook":"https://www.gutenberg.org/ebooks/72102.kf8.images","text/plain; charset=us-ascii":"https://www.gutenberg.org/ebooks/72102.txt.utf-8","application/rdf+xml":"https://www.gutenberg.org/ebooks/72102.rdf","image/jpeg":"https://www.gutenberg.org/cache/epub/72102/pg72102.cover.medium.jpg","application/octet-stream":"https://www.gutenberg.org/cache/epub/72102/pg72102-h.zip"},"download_count":54},{"id":72172,"title":"Title fight","authors":[{"name":"Gault, William Campbell","birth_year":1910,"death_year":1995}],"translators":[],"subjects":["Androids -- Fiction","Boxing stories","Robots -- Fiction","Science fiction","Short stories"],"bookshelves":[],"languages":["en"],"copyright":false,"media_type":"Text","formats":{"text/html":"https://www.gutenberg.org/ebooks/72172.html.images","application/epub+zip":"https://www.gutenberg.org/ebooks/72172.epub3.images","application/x-mobipocket-ebook":"https://www.gutenberg.org/ebooks/72172.kf8.images","text/plain; charset=us-ascii":"https://www.gutenberg.org/ebooks/72172.txt.utf-8","application/rdf+xml":"https://www.gutenberg.org/ebooks/72172.rdf","image/jpeg":"https://www.gutenberg.org/cache/epub/72172/pg72172.cover.medium.jpg","application/octet-stream":"https://www.gutenberg.org/cache/epub/72172/pg72172-h.zip"},"download_count":54},{"id":72199,"title":"Westy Martin in the Rockies","authors":[{"name":"Fitzhugh, Percy Keese","birth_year":1876,"death_year":1950}],"translators":[],"subjects":["Boy Scouts of America -- Juvenile fiction","Rocky Mountains -- Juvenile fiction"],"bookshelves":[],"languages":["en"],"copyright":false,"media_type":"Text","formats":{"text/html":"https://www.gutenberg.org/ebooks/72199.html.images","application/epub+zip":"https://www.gutenberg.org/ebooks/72199.epub3.images","application/x-mobipocket-ebook":"https://www.gutenberg.org/ebooks/72199.kf8.images","text/plain; charset=us-ascii":"https://www.gutenberg.org/ebooks/72199.txt.utf-8","application/rdf+xml":"https://www.gutenberg.org/ebooks/72199.rdf","image/jpeg":"https://www.gutenberg.org/cache/epub/72199/pg72199.cover.medium.jpg","application/octet-stream":"https://www.gutenberg.org/cache/epub/72199/pg72199-h.zip"},"download_count":54},{"id":288,"title":"The Certain Hour (Dizain des Poëtes)","authors":[{"name":"Cabell, James Branch","birth_year":1879,"death_year":1958}],"translators":[],"subjects":["Fantasy fiction","Short stories"],"bookshelves":["Fantasy"],"languages":["en"],"copyright":false,"media_type":"Text","formats":{"text/html":"https://www.gutenberg.org/ebooks/288.html.images","text/html; charset=iso-8859-1":"https://www.gutenberg.org/files/288/288-h/288-h.htm","application/epub+zip":"https://www.gutenberg.org/ebooks/288.epub3.images","application/x-mobipocket-ebook":"https://www.gutenberg.org/ebooks/288.kf8.images","text/plain; charset=us-ascii":"https://www.gutenberg.org/ebooks/288.txt.utf-8","text/plain; charset=iso-8859-1":"https://www.gutenberg.org/files/288/288-8.txt","application/rdf+xml":"https://www.gutenberg.org/ebooks/288.rdf","image/jpeg":"https://www.gutenberg.org/cache/epub/288/pg288.cover.medium.jpg","application/octet-stream":"https://www.gutenberg.org/cache/epub/288/pg288-h.zip"},"download_count":53}]}