{"count":58808,"next":"http://129.241.150.113:8000/books/?languages=en&page=1809","previous":"http://129.241.150.113:8000/books/?languages=en&page=1807","results":[{"id":5595,"title":"The Story of My Life — Volume 03","authors":[{"name":"Ebers, Georg","birth_year":1837,"death_year":1898}],"translators":[{"name":"Safford, Mary J.","birth_year":null,"death_year":null}],"subjects":["Ebers, Georg, 1837-1898"],"bookshelves":[],"languages":["en"],"copyright":false,"media_type":"Text","formats":{"text/html":"https://www.gutenberg.org/ebooks/5595.html.images","application/epub+zip":"https://www.gutenberg.org/ebooks/5595.epub3.images","application/x-mobipocket-ebook":"https://www.gutenberg.org/ebooks/5595.kf8.images","text/plain; charset=us-ascii":"https://www.gutenberg.org/ebooks/5595.txt.utf-8","application/rdf+xml":"https://www.gutenberg.org/ebooks/5595.rdf","image/jpeg":"https://www.gutenberg.org/cache/epub/5595/pg5595.cover.medium.jpg","application/octet-stream":"https://www.gutenberg.org/cache/epub/5595/pg5595-h.zip"},"download_count":11},{"id":6072,"title":"The Boy Allies with Uncle Sam's Cruisers","authors":[{"name":"Hayes, Clair W. (Clair Wallace)","birth_year":1887,"death_year":null}],"translators":[],"subjects":["World War, 1914-1918 -- Naval operations -- Juvenile fiction"],"bookshelves":["Children's Book Series"],"languages":["en"],"copyright":false,"media_type":"Text","formats":{"text/html":"https://www.gutenberg.org/ebooks/6072.html.images","application/epub+zip":"https://www.gutenberg.org/ebooks/6072.epub3.images","application/x-mobipocket-ebook":"https://www.gutenberg.org/ebooks/6072.kf8.images","text/plain; charset=us-ascii":"https://www.gutenberg.org/ebooks/6072.txt.utf-8","application/rdf+xml":"https://www.gutenberg.org/ebooks/6072.rdf","image/jpeg":"https://www.gutenberg.org/cache/epub/6072/pg6072.cover.medium.jpg","application/octet-stream":"https://www.gutenberg.org/cache/epub/6072/pg6072-h.zip"},"download_count":11},{"id":6082,"title":"Our Pilots in the Air","authors":[{"name":"Brown, William Perry","birth_year":1847,"death_year":1923}],"translators":[],"subjects":["World War, 1914-1918 -- Fiction"],"bookshelves":["World War I"],"languages":["en"],"copyright":false,"media_type":"Text","formats":{"text/html":"https://www.gutenberg.org/ebooks/6082.html.images","application/epub+zip":"https://www.gutenberg.org/ebooks/6082.epub3.images","application/x-mobipocket-ebook":"https://www.gutenberg.org/ebooks/6082.kf8.images","text/plain; charset=us-ascii":"https://www.gutenberg.org/ebooks/6082.txt.utf-8","application/rdf+xml":"https://www.gutenberg.org/ebooks/6082.rdf","image/jpeg":"https://www.gutenberg.org/cache/epub/6082/pg6082.cover.medium.jpg","application/octet-stream":"https://www.gutenberg.org/cache/epub/6082/pg6082-h.zip"},"download_count":11},{"id":6207,"title":"The Trail of the Sword, Volume 2","authors":[{"name":"Parker, Gilbert","birth_year":1862,"death_year":1932}],"translators":[],"subjects":["Canada -- History -- To 1763 (New France) -- Fiction"],"bookshelves":[],"languages":["en"],"copyright":false,"media_type":"Text","formats":{"text/html":"https://www.gutenberg.org/ebooks/6207.html.images","application/epub+zip":"https://www.gutenberg.org/ebooks/6207.epub3.images","application/x-mobipocket-ebook":"https://www.gutenberg.org/ebooks/6207.kf8.images","text/plain; charset=us-ascii":"https://www.gutenberg.org/ebooks/6207.txt.utf-8","application/rdf+xml":"https://www.gutenberg.org/ebooks/6207.rdf","image/jpeg":"https://www.gutenberg.org/cache/epub/6207/pg6207.cover.medium.jpg","application/octet-stream":"https://www.gutenberg.org/cache/epub/6207/pg6207-h.zip"},"download_count":11},{"id":6290,"title":"Wild Youth, Volume 2.","authors":[{"name":"Parker, Gilbert","birth_year":1862,"death_year":1932}],"translators":[],"subjects":["Canadian fiction -- 20th century"],"bookshelves":[],"languages":["en"],"copyright":false,"media_type":"Text","formats":{"text/html":"https://www.gutenberg.org/ebooks/6290.html.images","application/epub+zip":"https://www.gutenberg.org/ebooks/6290.epub3.images","application/x-mobipocket-ebook":"https://www.gutenberg.org/ebooks/6290.kf8.images","text/plain; charset=us-ascii":"https://www.gutenberg.org/ebooks/6290.txt.utf-8","application/rdf+xml":"https://www.gutenberg.org/ebooks/6290.rdf","image/jpeg":"https://www.gutenberg.org/cache/epub/6290/pg6290.cover.medium.jpg","application/octet-stream":"https://www.gutenberg.org/cache/epub/6290/pg6290-h.zip"},"download_count":11},{"id":6349,"title":"Copyright Renewals 1954","authors":[{"name":"Library of Congress. Copyright Office","birth_year":null,"death_year":null}],"translators":[],"subjects":["Copyright -- United States -- Catalogs"],"bookshelves":[],"languages":["en"],"copyright":false,"media_type":"Text","formats":{"text/html":"https://www.gutenberg.org/ebooks/6349.html.images","application/epub+zip":"https://www.gutenberg.org/ebooks/6349.epub3.images","application/x-mobipocket-ebook":"https://www.gutenberg.org/ebooks/6349.kf8.images","text/plain; charset=us-ascii":"https://www.gutenberg.org/ebooks/6349.txt.utf-8","application/rdf+xml":"https://www.gutenberg.org/ebooks/6349.rdf","image/jpeg":"https://www.gutenberg.org/cache/epub/6349/pg6349.cover.medium.jpg","application/octet-stream":"https://www.gutenberg.org/cache/epub/6349/pg6349-h.zip"},"download_count":11},{"id":6547,"title":"The Conquest of Canaan","authors":[{"name":"Tarkington, Booth","birth_year":1869,"death_year":1946}],"translators":[],"subjects":["City and town life -- Fiction","Indiana -- Fiction"],"bookshelves":[],"languages":["en"],"copyright":true,"media_type":"Sound","formats":{"text/plain; charset=us-ascii":"https://www.gutenberg.org/files/6547/6547-readme.txt","text/html; charset=iso-8859-1":"https://www.gutenberg.org/files/6547/6547-index.htm","audio/mpeg":"https://www.gutenberg.org/files/6547/mp3/6547-3.mp3","application/rdf+xml":"https://www.gutenberg.org/ebooks/6547.rdf"},"download_count":11},{"id":6552,"title":"His Own People","authors":[{"name":"Tarkington, Booth","birth_year":1869,"death_year":1946}],"translators":[],"subjects":["Americans -- Italy -- Fiction","Man-woman relationships -- Fiction","Rome (Italy) -- Social life and customs -- 20th century -- Fiction"],"bookshelves":[],"languages":["en"],"copyright":true,"media_type":"Sound","formats":{"text/plain; charset=us-ascii":"https://www.gutenberg.org/files/6552/6552-readme.txt","text/html; charset=us-ascii":"https://www.gutenberg.org/files/6552/6552-index.htm","audio/mpeg":"https://www.gutenberg.org/files/6552/mp3/6552-3.mp3","application/rdf+xml":"https://www.gutenberg.org/ebooks/6552.rdf"},"download_count":11},{"id":6569,"title":"Bessie Bradford's Prize","authors":[{"name":"Mathews, Joanna H. (Joanna Hooe)","birth_year":1849,"death_year":1901}],"translators":[],"subjects":["Children -- Conduct of life -- Juvenile fiction","Conduct of life -- Juvenile fiction","Letters -- Juvenile fiction","Police -- Juvenile fiction","Prizes (Property captured at sea) -- Juvenile fiction","Sisters -- Juvenile fiction","Students -- Juvenile fiction","Theft -- Juvenile fiction"],"bookshelves":[],"languages":["en"],"copyright":false,"media_type":"Text","formats":{"text/html":"https://www.gutenberg.org/ebooks/6569.html.images","application/epub+zip":"https://www.gutenberg.org/ebooks/6569.epub3.images","application/x-mobipocket-ebook":"https://www.gutenberg.org/ebooks/6569.kf8.images","text/plain; charset=us-ascii":"https://www.gutenberg.org/ebooks/6569.txt.utf-8","application/rdf+xml":"https://www.gutenberg.org/ebooks/6569.rdf","image/jpeg":"https://www.gutenberg.org/cache/epub/6569/pg6569.cover.medium.jpg","application/octet-stream":"https://www.gutenberg.org/cache/epub/6569/pg6569-h.zip"},"download_count":11},{"id":6631,"title":"The Sculpture and Mural Decorations of the Exposition: A Pictorial Survey of the Art of the Panama-Pacific international exposition","authors":[{"name":"Perry, Stella G. S. (Stella George Stern)","birth_year":1877,"death_year":1956}],"translators":[],"subjects":["Panama-Pacific International Exposition (1915 : San Francisco, Calif.)","Sculpture, American"],"bookshelves":[],"languages":["en"],"copyright":false,"media_type":"Text","formats":{"text/html":"https://www.gutenberg.org/ebooks/6631.html.images","application/epub+zip":"https://www.gutenberg.org/ebooks/6631.epub3.images","application/x-mobipocket-ebook":"https://www.gutenberg.org/ebooks/6631.kf8.images","text/plain; charset=us-ascii":"https://www.gutenberg.org/ebooks/6631.txt.utf-8","application/rdf+xml":"https://www.gutenberg.org/ebooks/6631.rdf","image/jpeg":"https://www.gutenberg.org/cache/epub/6631/pg6631.cover.medium.jpg","application/octet-stream":"https://www.gutenberg.org/cache/epub/6631/pg6631-h.zip"},"download_count":11},{"id":6826,"title":"Neville Trueman, the Pioneer Preacher : a tale of the war of 1812","authors":[{"name":"Withrow, W. H. (William Henry)","birth_year":1839,"death_year":1908}],"translators":[],"subjects":["Clergy -- Fiction","United States -- History -- War of 1812 -- Fiction"],"bookshelves":[],"languages":["en"],"copyright":false,"media_type":"Text","formats":{"text/html":"https://www.gutenberg.org/ebooks/6826.html.images","application/epub+zip":"https://www.gutenberg.org/ebooks/6826.epub3.images","application/x-mobipocket-ebook":"https://www.gutenberg.org/ebooks/6826.kf8.images","text/plain; charset=us-ascii":"https://www.gutenberg.org/ebooks/6826.txt.utf-8","application/rdf+xml":"https://www.gutenberg.org/ebooks/6826.rdf","image/jpeg":"https://www.gutenberg.org/cache/epub/6826/pg6826.cover.medium.jpg","application/octet-stream":"https://www.gutenberg.org/cache/epub/6826/pg6826-h.zip"},"download_count":11},{"id":6827,"title":"Boy Scouts of the Air on Lost Island","authors":[{"name":"Stuart, Gordon (Adventure story writer)","birth_year":null,"death_year":null}],"translators":[],"subjects":["Airplanes -- Juvenile fiction","Boy Scouts -- Juvenile fiction","Thieves -- Juvenile fiction"],"bookshelves":["Children's Book Series"],"languages":["en"],"copyright":false,"media_type":"Text","formats":{"text/html":"https://www.gutenberg.org/ebooks/6827.html.images","application/epub+zip":"https://www.gutenberg.org/ebooks/6827.epub3.images","application/x-mobipocket-ebook":"https://www.gutenberg.org/ebooks/6827.kf8.images","text/plain; charset=us-ascii":"https://www.gutenberg.org/ebooks/6827.txt.utf-8","application/rdf+xml":"https://www.gutenberg.org/ebooks/6827.rdf","image/jpeg":"https://www.gutenberg.org/cache/epub/6827/pg6827.cover.medium.jpg","application/octet-stream":"https://www.gutenberg.org/cache/epub/6827/pg6827-h.zip"},"download_count":11},{"id":6882,"title":"This Simian World","authors":[{"name":"Day, Clarence","birth_year":1874,"death_year":1935}],"translators":[],"subjects":["American wit and humor","Evolution (Biology) -- Wit and humor"],"bookshelves":[],"languages":["en"],"copyright":false,"media_type":"Text","formats":{"text/html":"https://www.gutenberg.org/ebooks/6882.html.images","application/epub+zip":"https://www.gutenberg.org/ebooks/6882.epub3.images","application/x-mobipocket-ebook":"https://www.gutenberg.org/ebooks/6882.kf8.images","text/plain; charset=us-ascii":"https://www.gutenberg.org/ebooks/6882.txt.utf-8","application/rdf+xml":"https://www.gutenberg.org/ebooks/6882.rdf","image/jpeg":"https://www.gutenberg.org/cache/epub/6882/pg6882.cover.medium.jpg","application/octet-stream":"https://www.gutenberg.org/cache/epub/6882/pg6882-h.zip"},"download_count":11},{"id":7090,"title":"The Little Immigrant","authors":[{"name":"Stern, Eva","birth_year":null,"death_year":null}],"translators":[],"subjects":["Biographical fiction","Immigrants -- United States -- Fiction","United States -- History -- 19th century -- Fiction"],"bookshelves":[],"languages":["en"],"copyright":false,"media_type":"Text","formats":{"text/html":"https://www.gutenberg.org/ebooks/7090.html.images","application/epub+zip":"https://www.gutenberg.org/ebooks/7090.epub3.images","application/x-mobipocket-ebook":"https://www.gutenberg.org/ebooks/7090.kf8.images","text/plain; charset=us-ascii":"https://www.gutenberg.org/ebooks/7090.txt.utf-8","application/rdf+xml":"https://www.gutenberg.org/ebooks/7090.rdf","image/jpeg":"https://www.gutenberg.org/cache/epub/7090/pg7090.cover.medium.jpg","application/octet-stream":"https://www.gutenberg.org/cache/epub/7090/pg7090-h.zip"},"download_count":11},{"id":7364,"title":"The Albany Depot : a Farce","authors":[{"name":"Howells, William Dean","birth_year":1837,"death_year":1920}],"translators":[],"subjects":["American drama -- 19th century"],"bookshelves":[],"languages":["en"],"copyright":false,"media_type":"Text","formats":{"text/html":"https://www.gutenberg.org/ebooks/7364.html.images","text/html; charset=utf-8":"https://www.gutenberg.org/files/7364/7364-h/7364-h.htm","application/epub+zip":"https://www.gutenberg.org/ebooks/7364.epub3.images","application/x-mobipocket-ebook":"https://www.gutenberg.org/ebooks/7364.kf8.images","text/plain; charset=us-ascii":"https://www.gutenberg.org/ebooks/7364.txt.utf-8","text/plain; charset=utf-8":"https://www.gutenberg.org/files/7364/7364-0.txt","application/rdf+xml":"https://www.gutenberg.org/ebooks/7364.rdf","image/jpeg":"https://www.gutenberg.org/cache/epub/7364/pg7364.cover.medium.jpg","application/octet-stream":"https://www.gutenberg.org/cache/epub/7364/pg7364-h.zip"},"download_count":11},{"id":7587,"title":"The Caxtons: A Family Picture — Volume 02","authors":[{"name":"Lytton, Edward Bulwer Lytton, Baron","birth_year":1803,"death_year":1873}],"translators":[],"subjects":["English fiction -- 19th century","Families -- Fiction"],"bookshelves":[],"languages":["en"],"copyright":false,"media_type":"Text","formats":{"text/html":"https://www.gutenberg.org/ebooks/7587.html.images","application/epub+zip":"https://www.gutenberg.org/ebooks/7587.epub3.images","application/x-mobipocket-ebook":"https://www.gutenberg.org/ebooks/7587.kf8.images","text/plain; charset=us-ascii":"https://www.gutenberg.org/ebooks/7587.txt.utf-8","application/rdf+xml":"https://www.gutenberg.org/ebooks/7587.rdf","image/jpeg":"https://www.gutenberg.org/cache/epub/7587/pg7587.cover.medium.jpg","application/octet-stream":"https://www.gutenberg.org/cache/epub/7587/pg7587-h.zip"},"download_count":11},{"id":7594,"title":"The Caxtons: A Family Picture — Volume 09","authors":[{"name":"Lytton, Edward Bulwer Lytton, Baron","birth_year":1803,"death_year":1873}],"translators":[],"subjects":["English fiction -- 19th century","Families -- Fiction"],"bookshelves":[],"languages":["en"],"copyright":false,"media_type":"Text","formats":{"text/html":"https://www.gutenberg.org/ebooks/7594.html.images","application/epub+zip":"https://www.gutenberg.org/ebooks/7594.epub3.images","application/x-mobipocket-ebook":"https://www.gutenberg.org/ebooks/7594.kf8.images","text/plain; charset=us-ascii":"https://www.gutenberg.org/ebooks/7594.txt.utf-8","application/rdf+xml":"https://www.gutenberg.org/ebooks/7594.rdf","image/jpeg":"https://www.gutenberg.org/cache/epub/7594/pg7594.cover.medium.jpg","application/octet-stream":"https://www.gutenberg.org/cache/epub/7594/pg7594-h.zip"},"download_count":11},{"id":7610,"title":"Eugene Aram — Volume 02","authors":[{"name":"Lytton, Edward Bulwer Lytton, Baron","birth_year":1803,"death_year":1873}],"translators":[],"subjects":["Aram, Eugene, 1704-1759 -- Fiction"],"bookshelves":[],"languages":["en"],"copyright":false,"media_type":"Text","formats":{"text/html":"https://www.gutenberg.org/ebooks/7610.html.images","application/epub+zip":"https://www.gutenberg.org/ebooks/7610.epub3.images","application/x-mobipocket-ebook":"https://www.gutenberg.org/ebooks/7610.kf8.images","text/plain; charset=us-ascii":"https://www.gutenberg.org/ebooks/7610.txt.utf-8","application/rdf+xml":"https://www.gutenberg.org/ebooks/7610.rdf","image/jpeg":"https://www.gutenberg.org/cache/epub/7610/pg7610.cover.medium.jpg","application/octet-stream":"https://www.gutenberg.org/cache/epub/7610/pg7610-h.zip"},"download_count":11},{"id":7635,"title":"The Disowned — Volume 05","authors":[{"name":"Lytton, Edward Bulwer Lytton, Baron","birth_year":1803,"death_year":1873}],"translators":[],"subjects":["English fiction -- 19th century"],"bookshelves":["Historical Fiction"],"languages":["en"],"copyright":false,"media_type":"Text","formats":{"text/html":"https://www.gutenberg.org/ebooks/7635.html.images","application/epub+zip":"https://www.gutenberg.org/ebooks/7635.epub3.images","application/x-mobipocket-ebook":"https://www.gutenberg.org/ebooks/7635.kf8.images","text/plain; charset=us-ascii":"https://www.gutenberg.org/ebooks/7635.txt.utf-8","application/rdf+xml":"https://www.gutenberg.org/ebooks/7635.rdf","image/jpeg":"https://www.gutenberg.org/cache/epub/7635/pg7635.cover.medium.jpg","application/octet-stream":"https://www.gutenberg.org/cache/epub/7635/pg7635-h.zip"},"download_count":11},{"id":7674,"title":"Harold : the Last of the Saxon Kings — Volume 03","authors":[{"name":"Lytton, Edward Bulwer Lytton, Baron","birth_year":1803,"death_year":1873}],"translators":[],"subjects":["Anglo-Saxons -- Kings and rulers -- Fiction","Biographical fiction","Great Britain -- History -- Edward, the Confessor, 1042-1066 -- Fiction","Great Britain -- Kings and rulers -- Fiction","Harold, King of England, 1022?-1066 -- Fiction","William I, King of England, 1027 or 8-1087 -- Fiction"],"bookshelves":["Historical Fiction"],"languages":["en"],"copyright":false,"media_type":"Text","formats":{"text/html":"https://www.gutenberg.org/ebooks/7674.html.images","application/epub+zip":"https://www.gutenberg.org/ebooks/7674.epub3.images","application/x-mobipocket-ebook":"https://www.gutenberg.org/ebooks/7674.kf8.images","text/plain; charset=us-ascii":"https://www.gutenberg.org/ebooks/7674.txt.utf-8","application/rdf+xml":"https://www.gutenberg.org/ebooks/7674.rdf","image/jpeg":"https://www.gutenberg.org/cache/epub/7674/pg7674.cover.medium.jpg","application/octet-stream":"https://www.gutenberg.org/cache/epub/7674/pg7674-h.zip"},"download_count":11},{"id":7693,"title":"A Strange Story — Volume 02","authors":[{"name":"Lytton, Edward Bulwer Lytton, Baron","birth_year":1803,"death_year":1873}],"translators":[],"subjects":["English fiction -- 19th century"],"bookshelves":[],"languages":["en"],"copyright":false,"media_type":"Text","formats":{"text/html":"https://www.gutenberg.org/ebooks/7693.html.images","application/epub+zip":"https://www.gutenberg.org/ebooks/7693.epub3.images","application/x-mobipocket-ebook":"https://www.gutenberg.org/ebooks/7693.kf8.images","text/plain; charset=us-ascii":"https://www.gutenberg.org/ebooks/7693.txt.utf-8","application/rdf+xml":"https://www.gutenberg.org/ebooks/7693.rdf","image/jpeg":"https://www.gutenberg.org/cache/epub/7693/pg7693.cover.medium.jpg","application/octet-stream":"https://www.gutenberg.org/cache/epub/7693/pg7693-h.zip"},"download_count":11},{"id":7694,"title":"A Strange Story — Volume 03","authors":[{"name":"Lytton, Edward Bulwer Lytton, Baron","birth_year":1803,"death_year":1873}],"translators":[],"subjects":["English fiction -- 19th century"],"bookshelves":[],"languages":["en"],"copyright":false,"media_type":"Text","formats":{"text/html":"https://www.gutenberg.org/ebooks/7694.html.images","application/epub+zip":"https://www.gutenberg.org/ebooks/7694.epub3.images","application/x-mobipocket-ebook":"https://www.gutenberg.org/ebooks/7694.kf8.images","text/plain; charset=us-ascii":"https://www.gutenberg.org/ebooks/7694.txt.utf-8","application/rdf+xml":"https://www.gutenberg.org/ebooks/7694.rdf","image/jpeg":"https://www.gutenberg.org/cache/epub/7694/pg7694.cover.medium.jpg","application/octet-stream":"https://www.gutenberg.org/cache/epub/7694/pg7694-h.zip"},"download_count":11},{"id":7699,"title":"A Strange Story — Volume 08","authors":[{"name":"Lytton, Edward Bulwer Lytton, Baron","birth_year":1803,"death_year":1873}],"translators":[],"subjects":["English fiction -- 19th century"],"bookshelves":[],"languages":["en"],"copyright":false,"media_type":"Text","formats":{"text/html":"https://www.gutenberg.org/ebooks/7699.html.images","application/epub+zip":"https://www.gutenberg.org/ebooks/7699.epub3.images","application/x-mobipocket-ebook":"https://www.gutenberg.org/ebooks/7699.kf8.images","text/plain; charset=us-ascii":"https://www.gutenberg.org/ebooks/7699.txt.utf-8","application/rdf+xml":"https://www.gutenberg.org/ebooks/7699.rdf","image/jpeg":"https://www.gutenberg.org/cache/epub/7699/pg7699.cover.medium.jpg","application/octet-stream":"https://www.gutenberg.org/cache/epub/7699/pg7699-h.zip"},"download_count":11},{"id":7706,"title":"\"My Novel\" — Volume 05","authors":[{"name":"Lytton, Edward Bulwer Lytton, Baron","birth_year":1803,"death_year":1873}],"translators":[],"subjects":["Death -- Fiction","Domestic fiction","England -- Fiction","Germany -- Fiction","Inventors -- Fiction","Poets -- Fiction","Rhine River -- Fiction"],"bookshelves":[],"languages":["en"],"copyright":false,"media_type":"Text","formats":{"text/html":"https://www.gutenberg.org/ebooks/7706.html.images","application/epub+zip":"https://www.gutenberg.org/ebooks/7706.epub3.images","application/x-mobipocket-ebook":"https://www.gutenberg.org/ebooks/7706.kf8.images","text/plain; charset=us-ascii":"https://www.gutenberg.org/ebooks/7706.txt.utf-8","application/rdf+xml":"https://www.gutenberg.org/ebooks/7706.rdf","image/jpeg":"https://www.gutenberg.org/cache/epub/7706/pg7706.cover.medium.jpg","application/octet-stream":"https://www.gutenberg.org/cache/epub/7706/pg7706-h.zip"},"download_count":11},{"id":7708,"title":"\"My Novel\" — Volume 07","authors":[{"name":"Lytton, Edward Bulwer Lytton, Baron","birth_year":1803,"death_year":1873}],"translators":[],"subjects":["Death -- Fiction","Domestic fiction","England -- Fiction","Germany -- Fiction","Inventors -- Fiction","Poets -- Fiction","Rhine River -- Fiction"],"bookshelves":[],"languages":["en"],"copyright":false,"media_type":"Text","formats":{"text/html":"https://www.gutenberg.org/ebooks/7708.html.images","application/epub+zip":"https://www.gutenberg.org/ebooks/7708.epub3.images","application/x-mobipocket-ebook":"https://www.gutenberg.org/ebooks/7708.kf8.images","text/plain; charset=us-ascii":"https://www.gutenberg.org/ebooks/7708.txt.utf-8","application/rdf+xml":"https://www.gutenberg.org/ebooks/7708.rdf","image/jpeg":"https://www.gutenberg.org/cache/epub/7708/pg7708.cover.medium.jpg","application/octet-stream":"https://www.gutenberg.org/cache/epub/7708/pg7708-h.zip"},"download_count":11},{"id":7728,"title":"Paul Clifford — Volume 01","authors":[{"name":"Lytton, Edward Bulwer Lytton, Baron","birth_year":1803,"death_year":1873}],"translators":[],"subjects":["Brigands and robbers -- Fiction"],"bookshelves":[],"languages":["en"],"copyright":false,"media_type":"Text","formats":{"text/html":"https://www.gutenberg.org/ebooks/7728.html.images","application/epub+zip":"https://www.gutenberg.org/ebooks/7728.epub3.images","application/x-mobipocket-ebook":"https://www.gutenberg.org/ebooks/7728.kf8.images","text/plain; charset=us-ascii":"https://www.gutenberg.org/ebooks/7728.txt.utf-8","application/rdf+xml":"https://www.gutenberg.org/ebooks/7728.rdf","image/jpeg":"https://www.gutenberg.org/cache/epub/7728/pg7728.cover.medium.jpg","application/octet-stream":"https://www.gutenberg.org/cache/epub/7728/pg7728-h.zip"},"download_count":11},{"id":7755,"title":"Godolphin, Volume 6.","authors":[{"name":"Lytton, Edward Bulwer Lytton, Baron","birth_year":1803,"death_year":1873}],"translators":[],"subjects":["England -- Social life and customs -- 19th century -- Fiction"],"bookshelves":[],"languages":["en"],"copyright":false,"media_type":"Text","formats":{"text/html":"https://www.gutenberg.org/ebooks/7755.html.images","application/epub+zip":"https://www.gutenberg.org/ebooks/7755.epub3.images","application/x-mobipocket-ebook":"https://www.gutenberg.org/ebooks/7755.kf8.images","text/plain; charset=us-ascii":"https://www.gutenberg.org/ebooks/7755.txt.utf-8","application/rdf+xml":"https://www.gutenberg.org/ebooks/7755.rdf","image/jpeg":"https://www.gutenberg.org/cache/epub/7755/pg7755.cover.medium.jpg","application/octet-stream":"https://www.gutenberg.org/cache/epub/7755/pg7755-h.zip"},"download_count":11},{"id":8054,"title":"The Bible, King James version, Book 54: 1 Timothy","authors":[{"name":"Anonymous","birth_year":null,"death_year":null}],"translators":[],"subjects":["Bible. Timothy, 1st"],"bookshelves":[],"languages":["en"],"copyright":false,"media_type":"Text","formats":{"text/html":"https://www.gutenberg.org/ebooks/8054.html.images","application/epub+zip":"https://www.gutenberg.org/ebooks/8054.epub3.images","application/x-mobipocket-ebook":"https://www.gutenberg.org/ebooks/8054.kf8.images","text/plain; charset=us-ascii":"https://www.gutenberg.org/ebooks/8054.txt.utf-8","application/rdf+xml":"https://www.gutenberg.org/ebooks/8054.rdf","image/jpeg":"https://www.gutenberg.org/cache/epub/8054/pg8054.cover.medium.jpg","application/octet-stream":"https://www.gutenberg.org/cache/epub/8054/pg8054-h.zip"},"download_count":11},{"id":8060,"title":"The Bible, King James version, Book 60: 1 Peter","authors":[{"name":"Anonymous","birth_year":null,"death_year":null}],"translators":[],"subjects":["Bible. Peter, 1st"],"bookshelves":[],"languages":["en"],"copyright":false,"media_type":"Text","formats":{"text/html":"https://www.gutenberg.org/ebooks/8060.html.images","application/epub+zip":"https://www.gutenberg.org/ebooks/8060.epub3.images","application/x-mobipocket-ebook":"https://www.gutenberg.org/ebooks/8060.kf8.images","text/plain; charset=us-ascii":"https://www.gutenberg.org/ebooks/8060.txt.utf-8","application/rdf+xml":"https://www.gutenberg.org/ebooks/8060.rdf","image/jpeg":"https://www.gutenberg.org/cache/epub/8060/pg8060.cover.medium.jpg","application/octet-stream":"https://www.gutenberg.org/cache/epub/8060/pg8060-h.zip"},"download_count":11},{"id":8064,"title":"The Bible, King James version, Book 64: 3 John","authors":[{"name":"Anonymous","birth_year":null,"death_year":null}],"translators":[],"subjects":["Bible. Epistle of John, 3rd"],"bookshelves":[],"languages":["en"],"copyright":false,"media_type":"Text","formats":{"text/html":"https://www.gutenberg.org/ebooks/8064.html.images","application/epub+zip":"https://www.gutenberg.org/ebooks/8064.epub3.images","application/x-mobipocket-ebook":"https://www.gutenberg.org/ebooks/8064.kf8.images","text/plain; charset=us-ascii":"https://www.gutenberg.org/ebooks/8064.txt.utf-8","application/rdf+xml":"https://www.gutenberg.org/ebooks/8064.rdf","image/jpeg":"https://www.gutenberg.org/cache/epub/8064/pg8064.cover.medium.jpg","application/octet-stream":"https://www.gutenberg.org/cache/epub/8064/pg8064-h.zip"},"download_count":11},{"id":8260,"title":"The World English Bible (WEB): Micah","authors":[{"name":"Anonymous","birth_year":null,"death_year":null}],"translators":[],"subjects":["Bible. Micah"],"bookshelves":[],"languages":["en"],"copyright":false,"media_type":"Text","formats":{"text/html":"https://www.gutenberg.org/ebooks/8260.html.images","application/epub+zip":"https://www.gutenberg.org/ebooks/8260.epub3.images","application/x-mobipocket-ebook":"https://www.gutenberg.org/ebooks/8260.kf8.images","text/plain; charset=us-ascii":"https://www.gutenberg.org/ebooks/8260.txt.utf-8","application/rdf+xml":"https://www.gutenberg.org/ebooks/8260.rdf","image/jpeg":"https://www.gutenberg.org/cache/epub/8260/pg8260.cover.medium.jpg","application/octet-stream":"https://www.gutenberg.org/cache/epub/8260/pg8260-h.zip"},"download_count":11},{"id":8271,"title":"The World English Bible (WEB): Acts","authors":[{"name":"Anonymous","birth_year":null,"death_year":null}],"translators":[],"subjects":["Bible. Acts"],"bookshelves":[],"languages":["en"],"copyright":false,"media_type":"Text","formats":{"text/html":"https://www.gutenberg.org/ebooks/8271.html.images","application/epub+zip":"https://www.gutenberg.org/ebooks/8271.epub3.images","application/x-mobipocket-ebook":"https://www.gutenberg.org/ebooks/8271.kf8.images","text/plain; charset=us-ascii":"https://www.gutenberg.org/ebooks/8271.txt.utf-8","application/rdf+xml":"https://www.gutenberg.org/ebooks/8271.rdf","image/jpeg":"https://www.gutenberg.org/cache/epub/8271/pg8271.cover.medium.jpg","application/octet-stream":"https://www.gutenberg.org/cache/epub/8271/pg8271-h.zip"},"download_count":11}]}