{"count":58808,"next":"http://129.241.150.113:8000/books/?languages=en&page=1612","previous":"http://129.241.150.113:8000/books/?languages=en&page=1610","results":[{"id":69874,"title":"Gout, with a section on ocular disease in the gouty","authors":[{"name":"Llewellyn, Llewellyn J. (Llewellyn Jones)","birth_year":1869,"death_year":1934}],"translators":[],"subjects":["Eye -- Diseases","Gout"],"bookshelves":[],"languages":["en"],"copyright":false,"media_type":"Text","formats":{"text/html":"https://www.gutenberg.org/ebooks/69874.html.images","application/epub+zip":"https://www.gutenberg.org/ebooks/69874.epub3.images","application/x-mobipocket-ebook":"https://www.gutenberg.org/ebooks/69874.kf8.images","text/plain; charset=us-ascii":"https://www.gutenberg.org/ebooks/69874.txt.utf-8","application/rdf+xml":"https://www.gutenberg.org/ebooks/69874.rdf","image/jpeg":"https://www.gutenberg.org/cache/epub/69874/pg69874.cover.medium.jpg","application/octet-stream":"https://www.gutenberg.org/files/69874/69874-0.zip"},"download_count":21},{"id":69996,"title":"The dawn in Russia","authors":[{"name":"Nevinson, Henry Woodd","birth_year":1856,"death_year":1941}],"translators":[],"subjects":["Russia -- History -- Nicholas II, 1894-1917","Russia -- History -- Revolution, 1905-1907","Russia -- Politics and government -- 1894-1917","Russia -- Social conditions -- 1801-1917"],"bookshelves":[],"languages":["en"],"copyright":false,"media_type":"Text","formats":{"text/html":"https://www.gutenberg.org/ebooks/69996.html.images","application/epub+zip":"https://www.gutenberg.org/ebooks/69996.epub3.images","application/x-mobipocket-ebook":"https://www.gutenberg.org/ebooks/69996.kf8.images","text/plain; charset=us-ascii":"https://www.gutenberg.org/ebooks/69996.txt.utf-8","application/rdf+xml":"https://www.gutenberg.org/ebooks/69996.rdf","image/jpeg":"https://www.gutenberg.org/cache/epub/69996/pg69996.cover.medium.jpg","application/octet-stream":"https://www.gutenberg.org/files/69996/69996-0.zip"},"download_count":21},{"id":70009,"title":"The plurality of the human race","authors":[{"name":"Pouchet, G. (Georges)","birth_year":1833,"death_year":1894}],"translators":[{"name":"Beavan, Hugh J. C.","birth_year":null,"death_year":null}],"subjects":["Monogenism and polygenism"],"bookshelves":[],"languages":["en"],"copyright":false,"media_type":"Text","formats":{"text/html":"https://www.gutenberg.org/ebooks/70009.html.images","application/epub+zip":"https://www.gutenberg.org/ebooks/70009.epub3.images","application/x-mobipocket-ebook":"https://www.gutenberg.org/ebooks/70009.kf8.images","text/plain; charset=us-ascii":"https://www.gutenberg.org/ebooks/70009.txt.utf-8","application/rdf+xml":"https://www.gutenberg.org/ebooks/70009.rdf","image/jpeg":"https://www.gutenberg.org/cache/epub/70009/pg70009.cover.medium.jpg","application/octet-stream":"https://www.gutenberg.org/files/70009/70009-0.zip"},"download_count":21},{"id":70070,"title":"Prose remains of Arthur Hugh Clough, with a selection from his letters and a memoir","authors":[{"name":"Clough, Arthur Hugh","birth_year":1819,"death_year":1861}],"translators":[],"subjects":["Clough, Arthur Hugh, 1819-1861","Clough, Arthur Hugh, 1819-1861 -- Correspondence","English literature -- 19th century","English literature -- History and criticism"],"bookshelves":[],"languages":["en"],"copyright":false,"media_type":"Text","formats":{"text/html":"https://www.gutenberg.org/ebooks/70070.html.images","application/epub+zip":"https://www.gutenberg.org/ebooks/70070.epub3.images","application/x-mobipocket-ebook":"https://www.gutenberg.org/ebooks/70070.kf8.images","text/plain; charset=us-ascii":"https://www.gutenberg.org/ebooks/70070.txt.utf-8","application/rdf+xml":"https://www.gutenberg.org/ebooks/70070.rdf","image/jpeg":"https://www.gutenberg.org/cache/epub/70070/pg70070.cover.medium.jpg","application/octet-stream":"https://www.gutenberg.org/files/70070/70070-0.zip"},"download_count":21},{"id":70188,"title":"Advertising by motion pictures","authors":[{"name":"Dench, Ernest A.","birth_year":null,"death_year":null}],"translators":[],"subjects":["Advertising","Motion pictures"],"bookshelves":[],"languages":["en"],"copyright":false,"media_type":"Text","formats":{"text/html":"https://www.gutenberg.org/ebooks/70188.html.images","application/epub+zip":"https://www.gutenberg.org/ebooks/70188.epub3.images","application/x-mobipocket-ebook":"https://www.gutenberg.org/ebooks/70188.kf8.images","text/plain; charset=us-ascii":"https://www.gutenberg.org/ebooks/70188.txt.utf-8","application/rdf+xml":"https://www.gutenberg.org/ebooks/70188.rdf","image/jpeg":"https://www.gutenberg.org/cache/epub/70188/pg70188.cover.medium.jpg","application/octet-stream":"https://www.gutenberg.org/files/70188/70188-0.zip"},"download_count":21},{"id":70190,"title":"The Yale literary magazine (Vol. LXXXIX, No. 3, December 1923)","authors":[{"name":"Various","birth_year":null,"death_year":null}],"translators":[],"subjects":["College students' writings, American -- Connecticut -- New Haven -- Periodicals","Yale University -- Periodicals"],"bookshelves":[],"languages":["en"],"copyright":false,"media_type":"Text","formats":{"text/html":"https://www.gutenberg.org/ebooks/70190.html.images","application/epub+zip":"https://www.gutenberg.org/ebooks/70190.epub3.images","application/x-mobipocket-ebook":"https://www.gutenberg.org/ebooks/70190.kf8.images","text/plain; charset=us-ascii":"https://www.gutenberg.org/ebooks/70190.txt.utf-8","application/rdf+xml":"https://www.gutenberg.org/ebooks/70190.rdf","image/jpeg":"https://www.gutenberg.org/cache/epub/70190/pg70190.cover.medium.jpg","application/octet-stream":"https://www.gutenberg.org/files/70190/70190-0.zip"},"download_count":21},{"id":70334,"title":"The moat house : $b or \"Sir Jasper's favourite niece.\"","authors":[{"name":"Stooke, Eleanora H.","birth_year":null,"death_year":null}],"translators":[],"subjects":["Christian life -- Juvenile fiction","Conduct of life -- Juvenile fiction","Contentment -- Juvenile fiction","Faith -- Juvenile fiction","Happiness -- Juvenile fiction","Money -- Juvenile fiction","Wealth -- Juvenile fiction"],"bookshelves":[],"languages":["en"],"copyright":false,"media_type":"Text","formats":{"text/html":"https://www.gutenberg.org/ebooks/70334.html.images","application/epub+zip":"https://www.gutenberg.org/ebooks/70334.epub3.images","application/x-mobipocket-ebook":"https://www.gutenberg.org/ebooks/70334.kf8.images","text/plain; charset=us-ascii":"https://www.gutenberg.org/ebooks/70334.txt.utf-8","application/rdf+xml":"https://www.gutenberg.org/ebooks/70334.rdf","image/jpeg":"https://www.gutenberg.org/cache/epub/70334/pg70334.cover.medium.jpg","application/octet-stream":"https://www.gutenberg.org/files/70334/70334-0.zip"},"download_count":21},{"id":70347,"title":"Momentum","authors":[{"name":"Dye, Charles","birth_year":1925,"death_year":1960}],"translators":[],"subjects":["Asteroids -- Fiction","Mines and mineral resources -- Fiction","Science fiction","Short stories"],"bookshelves":[],"languages":["en"],"copyright":false,"media_type":"Text","formats":{"text/html":"https://www.gutenberg.org/ebooks/70347.html.images","application/epub+zip":"https://www.gutenberg.org/ebooks/70347.epub3.images","application/x-mobipocket-ebook":"https://www.gutenberg.org/ebooks/70347.kf8.images","text/plain; charset=us-ascii":"https://www.gutenberg.org/ebooks/70347.txt.utf-8","application/rdf+xml":"https://www.gutenberg.org/ebooks/70347.rdf","image/jpeg":"https://www.gutenberg.org/cache/epub/70347/pg70347.cover.medium.jpg","application/octet-stream":"https://www.gutenberg.org/files/70347/70347-0.zip"},"download_count":21},{"id":70356,"title":"Heroes of science : $b Botanists, zoologists, and geologists","authors":[{"name":"Duncan, P. Martin (Peter Martin)","birth_year":1821,"death_year":1891}],"translators":[],"subjects":["Naturalists"],"bookshelves":[],"languages":["en"],"copyright":false,"media_type":"Text","formats":{"text/html":"https://www.gutenberg.org/ebooks/70356.html.images","application/epub+zip":"https://www.gutenberg.org/ebooks/70356.epub3.images","application/x-mobipocket-ebook":"https://www.gutenberg.org/ebooks/70356.kf8.images","text/plain; charset=us-ascii":"https://www.gutenberg.org/ebooks/70356.txt.utf-8","application/rdf+xml":"https://www.gutenberg.org/ebooks/70356.rdf","image/jpeg":"https://www.gutenberg.org/cache/epub/70356/pg70356.cover.medium.jpg","application/octet-stream":"https://www.gutenberg.org/files/70356/70356-0.zip"},"download_count":21},{"id":70429,"title":"The Radio Girls on the program : $b or, Singing and reciting at the sending station","authors":[{"name":"Penrose, Margaret","birth_year":null,"death_year":null}],"translators":[],"subjects":["Adventure stories","Fund raising -- Juvenile fiction","Girls -- Societies and clubs -- Juvenile fiction","Radio broadcasting -- Juvenile fiction","Singing -- Juvenile fiction"],"bookshelves":[],"languages":["en"],"copyright":false,"media_type":"Text","formats":{"text/html":"https://www.gutenberg.org/ebooks/70429.html.images","application/epub+zip":"https://www.gutenberg.org/ebooks/70429.epub3.images","application/x-mobipocket-ebook":"https://www.gutenberg.org/ebooks/70429.kf8.images","text/plain; charset=us-ascii":"https://www.gutenberg.org/ebooks/70429.txt.utf-8","application/rdf+xml":"https://www.gutenberg.org/ebooks/70429.rdf","image/jpeg":"https://www.gutenberg.org/cache/epub/70429/pg70429.cover.medium.jpg","application/octet-stream":"https://www.gutenberg.org/files/70429/70429-0.zip"},"download_count":21},{"id":70502,"title":"On the red staircase","authors":[{"name":"Taylor, Mary Imlay","birth_year":1878,"death_year":1938}],"translators":[],"subjects":["Historical fiction","Peter I, Emperor of Russia, 1672-1725 -- Fiction","Russia -- History -- Sofia Alekseevna, 1682-1689 -- Fiction"],"bookshelves":[],"languages":["en"],"copyright":false,"media_type":"Text","formats":{"text/html":"https://www.gutenberg.org/ebooks/70502.html.images","application/epub+zip":"https://www.gutenberg.org/ebooks/70502.epub3.images","application/x-mobipocket-ebook":"https://www.gutenberg.org/ebooks/70502.kf8.images","text/plain; charset=us-ascii":"https://www.gutenberg.org/ebooks/70502.txt.utf-8","application/rdf+xml":"https://www.gutenberg.org/ebooks/70502.rdf","image/jpeg":"https://www.gutenberg.org/cache/epub/70502/pg70502.cover.medium.jpg","application/octet-stream":"https://www.gutenberg.org/files/70502/70502-0.zip"},"download_count":21},{"id":70517,"title":"The glue book : $b How to select, prepare and use glue","authors":[{"name":"Taggart, J. A. (James Arthur)","birth_year":1884,"death_year":1955}],"translators":[],"subjects":["Glue"],"bookshelves":[],"languages":["en"],"copyright":false,"media_type":"Text","formats":{"text/html":"https://www.gutenberg.org/ebooks/70517.html.images","application/epub+zip":"https://www.gutenberg.org/ebooks/70517.epub3.images","application/x-mobipocket-ebook":"https://www.gutenberg.org/ebooks/70517.kf8.images","text/plain; charset=us-ascii":"https://www.gutenberg.org/ebooks/70517.txt.utf-8","application/rdf+xml":"https://www.gutenberg.org/ebooks/70517.rdf","image/jpeg":"https://www.gutenberg.org/cache/epub/70517/pg70517.cover.medium.jpg","application/octet-stream":"https://www.gutenberg.org/files/70517/70517-0.zip"},"download_count":21},{"id":70553,"title":"Trotwood's Monthly, Vol. I, No. 3, December 1905","authors":[{"name":"Various","birth_year":null,"death_year":null}],"translators":[],"subjects":["Agriculture -- Southern States -- Periodicals","Horses -- Periodicals","Southern States -- Periodicals"],"bookshelves":[],"languages":["en"],"copyright":false,"media_type":"Text","formats":{"text/html":"https://www.gutenberg.org/ebooks/70553.html.images","application/epub+zip":"https://www.gutenberg.org/ebooks/70553.epub3.images","application/x-mobipocket-ebook":"https://www.gutenberg.org/ebooks/70553.kf8.images","text/plain; charset=us-ascii":"https://www.gutenberg.org/ebooks/70553.txt.utf-8","application/rdf+xml":"https://www.gutenberg.org/ebooks/70553.rdf","image/jpeg":"https://www.gutenberg.org/cache/epub/70553/pg70553.cover.medium.jpg","application/octet-stream":"https://www.gutenberg.org/files/70553/70553-0.zip"},"download_count":21},{"id":70583,"title":"Stopwatch on the world","authors":[{"name":"Gilgannon, Daniel R.","birth_year":null,"death_year":null}],"translators":[],"subjects":["Physicists -- Fiction","Science fiction","Weapons -- Fiction"],"bookshelves":[],"languages":["en"],"copyright":false,"media_type":"Text","formats":{"text/html":"https://www.gutenberg.org/ebooks/70583.html.images","application/epub+zip":"https://www.gutenberg.org/ebooks/70583.epub3.images","application/x-mobipocket-ebook":"https://www.gutenberg.org/ebooks/70583.kf8.images","text/plain; charset=us-ascii":"https://www.gutenberg.org/ebooks/70583.txt.utf-8","application/rdf+xml":"https://www.gutenberg.org/ebooks/70583.rdf","image/jpeg":"https://www.gutenberg.org/cache/epub/70583/pg70583.cover.medium.jpg","application/octet-stream":"https://www.gutenberg.org/files/70583/70583-0.zip"},"download_count":21},{"id":70598,"title":"A Pet Reader","authors":[{"name":"Lawson, Edith Wilhelmina","birth_year":null,"death_year":null}],"translators":[],"subjects":["Animals -- Juvenile literature","Pets -- Juvenile literature","Readers"],"bookshelves":[],"languages":["en"],"copyright":false,"media_type":"Text","formats":{"text/html":"https://www.gutenberg.org/ebooks/70598.html.images","application/epub+zip":"https://www.gutenberg.org/ebooks/70598.epub3.images","application/x-mobipocket-ebook":"https://www.gutenberg.org/ebooks/70598.kf8.images","text/plain; charset=us-ascii":"https://www.gutenberg.org/ebooks/70598.txt.utf-8","application/rdf+xml":"https://www.gutenberg.org/ebooks/70598.rdf","image/jpeg":"https://www.gutenberg.org/cache/epub/70598/pg70598.cover.medium.jpg","application/octet-stream":"https://www.gutenberg.org/files/70598/70598-0.zip"},"download_count":21},{"id":70599,"title":"The trumpet in the dust","authors":[{"name":"Holme, Constance","birth_year":1880,"death_year":1955}],"translators":[],"subjects":["Almshouses -- Fiction","Older women -- Fiction","Villages -- England -- Fiction","Women cleaning personnel -- Fiction"],"bookshelves":[],"languages":["en"],"copyright":false,"media_type":"Text","formats":{"text/html":"https://www.gutenberg.org/ebooks/70599.html.images","application/epub+zip":"https://www.gutenberg.org/ebooks/70599.epub3.images","application/x-mobipocket-ebook":"https://www.gutenberg.org/ebooks/70599.kf8.images","text/plain; charset=us-ascii":"https://www.gutenberg.org/ebooks/70599.txt.utf-8","application/rdf+xml":"https://www.gutenberg.org/ebooks/70599.rdf","image/jpeg":"https://www.gutenberg.org/cache/epub/70599/pg70599.cover.medium.jpg","application/octet-stream":"https://www.gutenberg.org/files/70599/70599-0.zip"},"download_count":21},{"id":70636,"title":"Dropped stitches in Tennessee history","authors":[{"name":"Allison, John","birth_year":1845,"death_year":1920}],"translators":[],"subjects":["Jackson, Andrew, 1767-1845 -- Homes and haunts -- Tennessee","Tennessee -- History"],"bookshelves":[],"languages":["en"],"copyright":false,"media_type":"Text","formats":{"text/html":"https://www.gutenberg.org/ebooks/70636.html.images","application/epub+zip":"https://www.gutenberg.org/ebooks/70636.epub3.images","application/x-mobipocket-ebook":"https://www.gutenberg.org/ebooks/70636.kf8.images","text/plain; charset=us-ascii":"https://www.gutenberg.org/ebooks/70636.txt.utf-8","application/rdf+xml":"https://www.gutenberg.org/ebooks/70636.rdf","image/jpeg":"https://www.gutenberg.org/cache/epub/70636/pg70636.cover.medium.jpg","application/octet-stream":"https://www.gutenberg.org/files/70636/70636-0.zip"},"download_count":21},{"id":70645,"title":"Sam Bass","authors":[{"name":"Cunningham, Eugene","birth_year":1896,"death_year":1957}],"translators":[],"subjects":["Bass, Sam, 1851-1878 -- Fiction","Outlaws -- Fiction","Short stories","Western stories"],"bookshelves":[],"languages":["en"],"copyright":false,"media_type":"Text","formats":{"text/html":"https://www.gutenberg.org/ebooks/70645.html.images","application/epub+zip":"https://www.gutenberg.org/ebooks/70645.epub3.images","application/x-mobipocket-ebook":"https://www.gutenberg.org/ebooks/70645.kf8.images","text/plain; charset=us-ascii":"https://www.gutenberg.org/ebooks/70645.txt.utf-8","application/rdf+xml":"https://www.gutenberg.org/ebooks/70645.rdf","image/jpeg":"https://www.gutenberg.org/cache/epub/70645/pg70645.cover.medium.jpg","application/octet-stream":"https://www.gutenberg.org/files/70645/70645-0.zip"},"download_count":21},{"id":70659,"title":"Beautiful end","authors":[{"name":"Holme, Constance","birth_year":1880,"death_year":1955}],"translators":[],"subjects":["England -- Fiction","Families -- Fiction","Farms -- Fiction","Older men -- Fiction"],"bookshelves":[],"languages":["en"],"copyright":false,"media_type":"Text","formats":{"text/html":"https://www.gutenberg.org/ebooks/70659.html.images","application/epub+zip":"https://www.gutenberg.org/ebooks/70659.epub3.images","application/x-mobipocket-ebook":"https://www.gutenberg.org/ebooks/70659.kf8.images","text/plain; charset=us-ascii":"https://www.gutenberg.org/ebooks/70659.txt.utf-8","application/rdf+xml":"https://www.gutenberg.org/ebooks/70659.rdf","image/jpeg":"https://www.gutenberg.org/cache/epub/70659/pg70659.cover.medium.jpg","application/octet-stream":"https://www.gutenberg.org/files/70659/70659-0.zip"},"download_count":21},{"id":70685,"title":"Historical vignettes, 2nd series","authors":[{"name":"Capes, Bernard","birth_year":1854,"death_year":1918}],"translators":[],"subjects":["Historical fiction","Short stories, English"],"bookshelves":[],"languages":["en"],"copyright":false,"media_type":"Text","formats":{"text/html":"https://www.gutenberg.org/ebooks/70685.html.images","application/epub+zip":"https://www.gutenberg.org/ebooks/70685.epub3.images","application/x-mobipocket-ebook":"https://www.gutenberg.org/ebooks/70685.kf8.images","text/plain; charset=us-ascii":"https://www.gutenberg.org/ebooks/70685.txt.utf-8","application/rdf+xml":"https://www.gutenberg.org/ebooks/70685.rdf","image/jpeg":"https://www.gutenberg.org/cache/epub/70685/pg70685.cover.medium.jpg","application/octet-stream":"https://www.gutenberg.org/files/70685/70685-0.zip"},"download_count":21},{"id":70737,"title":"Illustrations of political economy, Volume 2 (of 9)","authors":[{"name":"Martineau, Harriet","birth_year":1802,"death_year":1876}],"translators":[],"subjects":["Didactic fiction, English","Political fiction, English","Social problems -- Fiction"],"bookshelves":[],"languages":["en"],"copyright":false,"media_type":"Text","formats":{"text/html":"https://www.gutenberg.org/ebooks/70737.html.images","application/epub+zip":"https://www.gutenberg.org/ebooks/70737.epub3.images","application/x-mobipocket-ebook":"https://www.gutenberg.org/ebooks/70737.kf8.images","text/plain; charset=us-ascii":"https://www.gutenberg.org/ebooks/70737.txt.utf-8","application/rdf+xml":"https://www.gutenberg.org/ebooks/70737.rdf","image/jpeg":"https://www.gutenberg.org/cache/epub/70737/pg70737.cover.medium.jpg","application/octet-stream":"https://www.gutenberg.org/files/70737/70737-0.zip"},"download_count":21},{"id":70779,"title":"The Highland glen : $b or, plenty and famine","authors":[{"name":"Wrench, Matilda","birth_year":null,"death_year":1866}],"translators":[],"subjects":["Famines -- Scotland -- Highlands -- History -- 19th century"],"bookshelves":[],"languages":["en"],"copyright":false,"media_type":"Text","formats":{"text/html":"https://www.gutenberg.org/ebooks/70779.html.images","application/epub+zip":"https://www.gutenberg.org/ebooks/70779.epub3.images","application/x-mobipocket-ebook":"https://www.gutenberg.org/ebooks/70779.kf8.images","text/plain; charset=us-ascii":"https://www.gutenberg.org/ebooks/70779.txt.utf-8","application/rdf+xml":"https://www.gutenberg.org/ebooks/70779.rdf","image/jpeg":"https://www.gutenberg.org/cache/epub/70779/pg70779.cover.medium.jpg","application/octet-stream":"https://www.gutenberg.org/files/70779/70779-0.zip"},"download_count":21},{"id":70791,"title":"The highest aim of the physicist","authors":[{"name":"Rowland, Henry Augustus","birth_year":1848,"death_year":1901}],"translators":[],"subjects":["Physics"],"bookshelves":[],"languages":["en"],"copyright":false,"media_type":"Text","formats":{"text/html":"https://www.gutenberg.org/ebooks/70791.html.images","application/epub+zip":"https://www.gutenberg.org/ebooks/70791.epub3.images","application/x-mobipocket-ebook":"https://www.gutenberg.org/ebooks/70791.kf8.images","text/plain; charset=us-ascii":"https://www.gutenberg.org/ebooks/70791.txt.utf-8","application/rdf+xml":"https://www.gutenberg.org/ebooks/70791.rdf","image/jpeg":"https://www.gutenberg.org/cache/epub/70791/pg70791.cover.medium.jpg","application/octet-stream":"https://www.gutenberg.org/files/70791/70791-0.zip"},"download_count":21},{"id":70855,"title":"Lilith : $b A novel","authors":[{"name":"Southworth, Emma Dorothy Eliza Nevitte","birth_year":1819,"death_year":1899}],"translators":[],"subjects":["Man-woman relationships -- Fiction","Wives -- Fiction"],"bookshelves":[],"languages":["en"],"copyright":false,"media_type":"Text","formats":{"text/html":"https://www.gutenberg.org/ebooks/70855.html.images","application/epub+zip":"https://www.gutenberg.org/ebooks/70855.epub3.images","application/x-mobipocket-ebook":"https://www.gutenberg.org/ebooks/70855.kf8.images","text/plain; charset=us-ascii":"https://www.gutenberg.org/ebooks/70855.txt.utf-8","application/rdf+xml":"https://www.gutenberg.org/ebooks/70855.rdf","image/jpeg":"https://www.gutenberg.org/cache/epub/70855/pg70855.cover.medium.jpg","application/octet-stream":"https://www.gutenberg.org/files/70855/70855-0.zip"},"download_count":21},{"id":70873,"title":"Anthony Cragg's tenant","authors":[{"name":"Giberne, Agnes","birth_year":1845,"death_year":1939}],"translators":[],"subjects":["Didactic fiction","Domestic fiction","Orphans -- Juvenile fiction"],"bookshelves":[],"languages":["en"],"copyright":false,"media_type":"Text","formats":{"text/html":"https://www.gutenberg.org/ebooks/70873.html.images","application/epub+zip":"https://www.gutenberg.org/ebooks/70873.epub3.images","application/x-mobipocket-ebook":"https://www.gutenberg.org/ebooks/70873.kf8.images","text/plain; charset=us-ascii":"https://www.gutenberg.org/ebooks/70873.txt.utf-8","application/rdf+xml":"https://www.gutenberg.org/ebooks/70873.rdf","image/jpeg":"https://www.gutenberg.org/cache/epub/70873/pg70873.cover.medium.jpg","application/octet-stream":"https://www.gutenberg.org/files/70873/70873-0.zip"},"download_count":21},{"id":70923,"title":"An experiment in gyro-hats","authors":[{"name":"Butler, Ellis Parker","birth_year":1869,"death_year":1937}],"translators":[],"subjects":["Humorous stories","Inventors -- Fiction","Science fiction","Short stories","Young men -- Fiction"],"bookshelves":[],"languages":["en"],"copyright":false,"media_type":"Text","formats":{"text/html":"https://www.gutenberg.org/ebooks/70923.html.images","application/epub+zip":"https://www.gutenberg.org/ebooks/70923.epub3.images","application/x-mobipocket-ebook":"https://www.gutenberg.org/ebooks/70923.kf8.images","text/plain; charset=us-ascii":"https://www.gutenberg.org/ebooks/70923.txt.utf-8","application/rdf+xml":"https://www.gutenberg.org/ebooks/70923.rdf","image/jpeg":"https://www.gutenberg.org/cache/epub/70923/pg70923.cover.medium.jpg","application/octet-stream":"https://www.gutenberg.org/files/70923/70923-0.zip"},"download_count":21},{"id":71051,"title":"Memoirs of the Princesse de Ligne, Vol. 2 (of 2)","authors":[{"name":"Massalska, Apolonia Helena","birth_year":1763,"death_year":1815}],"translators":[{"name":"Ensor, Laura","birth_year":null,"death_year":null}],"subjects":["Ligne, Charles Joseph, prince de, 1735-1814","Massalska, Apolonia Helena, 1763-1815"],"bookshelves":[],"languages":["en"],"copyright":false,"media_type":"Text","formats":{"text/html":"https://www.gutenberg.org/ebooks/71051.html.images","application/epub+zip":"https://www.gutenberg.org/ebooks/71051.epub3.images","application/x-mobipocket-ebook":"https://www.gutenberg.org/ebooks/71051.kf8.images","text/plain; charset=us-ascii":"https://www.gutenberg.org/ebooks/71051.txt.utf-8","application/rdf+xml":"https://www.gutenberg.org/ebooks/71051.rdf","image/jpeg":"https://www.gutenberg.org/cache/epub/71051/pg71051.cover.medium.jpg","application/octet-stream":"https://www.gutenberg.org/files/71051/71051-0.zip"},"download_count":21},{"id":71164,"title":"Two bad blue eyes","authors":[{"name":"Rita","birth_year":1860,"death_year":1938}],"translators":[],"subjects":["Fiction"],"bookshelves":[],"languages":["en"],"copyright":false,"media_type":"Text","formats":{"text/html":"https://www.gutenberg.org/ebooks/71164.html.images","application/epub+zip":"https://www.gutenberg.org/ebooks/71164.epub3.images","application/x-mobipocket-ebook":"https://www.gutenberg.org/ebooks/71164.kf8.images","text/plain; charset=us-ascii":"https://www.gutenberg.org/ebooks/71164.txt.utf-8","application/rdf+xml":"https://www.gutenberg.org/ebooks/71164.rdf","image/jpeg":"https://www.gutenberg.org/cache/epub/71164/pg71164.cover.medium.jpg","application/octet-stream":"https://www.gutenberg.org/files/71164/71164-0.zip"},"download_count":21},{"id":71201,"title":"Betty at St. Benedick's : $b A school story for girls","authors":[{"name":"Talbot, Ethel","birth_year":1880,"death_year":1944}],"translators":[],"subjects":["Boarding schools -- England -- Juvenile fiction","Girl Guides -- Juvenile fiction","Girls -- Conduct of life -- Juvenile fiction"],"bookshelves":[],"languages":["en"],"copyright":false,"media_type":"Text","formats":{"text/html":"https://www.gutenberg.org/ebooks/71201.html.images","application/epub+zip":"https://www.gutenberg.org/ebooks/71201.epub3.images","application/x-mobipocket-ebook":"https://www.gutenberg.org/ebooks/71201.kf8.images","text/plain; charset=us-ascii":"https://www.gutenberg.org/ebooks/71201.txt.utf-8","application/rdf+xml":"https://www.gutenberg.org/ebooks/71201.rdf","image/jpeg":"https://www.gutenberg.org/cache/epub/71201/pg71201.cover.medium.jpg","application/octet-stream":"https://www.gutenberg.org/files/71201/71201-0.zip"},"download_count":21},{"id":71215,"title":"Our Davie Pepper","authors":[{"name":"Sidney, Margaret","birth_year":1844,"death_year":1924}],"translators":[],"subjects":["Families -- Juvenile fiction","Fatherless families -- Juvenile fiction","Five Little Peppers (Fictitious characters) -- Juvenile fiction","Friendship -- Juvenile fiction","Siblings -- Juvenile fiction"],"bookshelves":[],"languages":["en"],"copyright":false,"media_type":"Text","formats":{"text/html":"https://www.gutenberg.org/ebooks/71215.html.images","application/epub+zip":"https://www.gutenberg.org/ebooks/71215.epub3.images","application/x-mobipocket-ebook":"https://www.gutenberg.org/ebooks/71215.kf8.images","text/plain; charset=us-ascii":"https://www.gutenberg.org/ebooks/71215.txt.utf-8","application/rdf+xml":"https://www.gutenberg.org/ebooks/71215.rdf","image/jpeg":"https://www.gutenberg.org/cache/epub/71215/pg71215.cover.medium.jpg","application/octet-stream":"https://www.gutenberg.org/files/71215/71215-0.zip"},"download_count":21},{"id":71359,"title":"Phemie Keller : $b a novel, vol. 3 of 3","authors":[{"name":"Riddell, J. H., Mrs.","birth_year":1832,"death_year":1906}],"translators":[],"subjects":["England -- Social life and customs -- Fiction","Man-woman relationships -- Fiction","Married women -- Fiction","May-December romances -- Fiction","Spouses -- Fiction"],"bookshelves":[],"languages":["en"],"copyright":false,"media_type":"Text","formats":{"text/html":"https://www.gutenberg.org/ebooks/71359.html.images","application/epub+zip":"https://www.gutenberg.org/ebooks/71359.epub3.images","application/x-mobipocket-ebook":"https://www.gutenberg.org/ebooks/71359.kf8.images","text/plain; charset=us-ascii":"https://www.gutenberg.org/ebooks/71359.txt.utf-8","application/rdf+xml":"https://www.gutenberg.org/ebooks/71359.rdf","image/jpeg":"https://www.gutenberg.org/cache/epub/71359/pg71359.cover.medium.jpg","application/octet-stream":"https://www.gutenberg.org/files/71359/71359-h.zip"},"download_count":21},{"id":71566,"title":"Cousin Becky's champions","authors":[{"name":"Stooke, Eleanora H.","birth_year":null,"death_year":null}],"translators":[],"subjects":["Conduct of life -- Juvenile fiction","England -- Juvenile fiction","Families -- Juvenile fiction"],"bookshelves":[],"languages":["en"],"copyright":false,"media_type":"Text","formats":{"text/html":"https://www.gutenberg.org/ebooks/71566.html.images","application/epub+zip":"https://www.gutenberg.org/ebooks/71566.epub3.images","application/x-mobipocket-ebook":"https://www.gutenberg.org/ebooks/71566.kf8.images","text/plain; charset=us-ascii":"https://www.gutenberg.org/ebooks/71566.txt.utf-8","application/rdf+xml":"https://www.gutenberg.org/ebooks/71566.rdf","image/jpeg":"https://www.gutenberg.org/cache/epub/71566/pg71566.cover.medium.jpg","application/octet-stream":"https://www.gutenberg.org/files/71566/71566-h.zip"},"download_count":21}]}