{"count":58808,"next":"http://129.241.150.113:8000/books/?languages=en&page=1677","previous":"http://129.241.150.113:8000/books/?languages=en&page=1675","results":[{"id":70255,"title":"Fancy free","authors":[{"name":"Phillpotts, Eden","birth_year":1862,"death_year":1960}],"translators":[],"subjects":["English wit and humor"],"bookshelves":[],"languages":["en"],"copyright":false,"media_type":"Text","formats":{"text/html":"https://www.gutenberg.org/ebooks/70255.html.images","application/epub+zip":"https://www.gutenberg.org/ebooks/70255.epub3.images","application/x-mobipocket-ebook":"https://www.gutenberg.org/ebooks/70255.kf8.images","text/plain; charset=us-ascii":"https://www.gutenberg.org/ebooks/70255.txt.utf-8","application/rdf+xml":"https://www.gutenberg.org/ebooks/70255.rdf","image/jpeg":"https://www.gutenberg.org/cache/epub/70255/pg70255.cover.medium.jpg","application/octet-stream":"https://www.gutenberg.org/files/70255/70255-0.zip"},"download_count":19},{"id":70298,"title":"The deformities of the fingers and toes","authors":[{"name":"Anderson, William","birth_year":1842,"death_year":1900}],"translators":[],"subjects":["Abnormalities, Human","Fingers -- Abnormalities","Toes -- Abnormalities"],"bookshelves":[],"languages":["en"],"copyright":false,"media_type":"Text","formats":{"text/html":"https://www.gutenberg.org/ebooks/70298.html.images","application/epub+zip":"https://www.gutenberg.org/ebooks/70298.epub3.images","application/x-mobipocket-ebook":"https://www.gutenberg.org/ebooks/70298.kf8.images","text/plain; charset=us-ascii":"https://www.gutenberg.org/ebooks/70298.txt.utf-8","application/rdf+xml":"https://www.gutenberg.org/ebooks/70298.rdf","image/jpeg":"https://www.gutenberg.org/cache/epub/70298/pg70298.cover.medium.jpg","application/octet-stream":"https://www.gutenberg.org/files/70298/70298-0.zip"},"download_count":19},{"id":70475,"title":"Atomic bonanza","authors":[{"name":"Smith, George O. (George Oliver)","birth_year":1911,"death_year":1981}],"translators":[],"subjects":["Businessmen -- Fiction","Inventions -- Fiction","Physicists -- Fiction","Radioactivity -- Fiction","Science fiction","Short stories"],"bookshelves":[],"languages":["en"],"copyright":false,"media_type":"Text","formats":{"text/html":"https://www.gutenberg.org/ebooks/70475.html.images","application/epub+zip":"https://www.gutenberg.org/ebooks/70475.epub3.images","application/x-mobipocket-ebook":"https://www.gutenberg.org/ebooks/70475.kf8.images","text/plain; charset=us-ascii":"https://www.gutenberg.org/ebooks/70475.txt.utf-8","application/rdf+xml":"https://www.gutenberg.org/ebooks/70475.rdf","image/jpeg":"https://www.gutenberg.org/cache/epub/70475/pg70475.cover.medium.jpg","application/octet-stream":"https://www.gutenberg.org/files/70475/70475-0.zip"},"download_count":19},{"id":70584,"title":"Chambers's journal of popular literature, science, and art, fifth series, no. 125, vol. III, May 22, 1886","authors":[{"name":"Various","birth_year":null,"death_year":null}],"translators":[],"subjects":["Periodicals"],"bookshelves":[],"languages":["en"],"copyright":false,"media_type":"Text","formats":{"text/html":"https://www.gutenberg.org/ebooks/70584.html.images","application/epub+zip":"https://www.gutenberg.org/ebooks/70584.epub3.images","application/x-mobipocket-ebook":"https://www.gutenberg.org/ebooks/70584.kf8.images","text/plain; charset=us-ascii":"https://www.gutenberg.org/ebooks/70584.txt.utf-8","application/rdf+xml":"https://www.gutenberg.org/ebooks/70584.rdf","image/jpeg":"https://www.gutenberg.org/cache/epub/70584/pg70584.cover.medium.jpg","application/octet-stream":"https://www.gutenberg.org/files/70584/70584-0.zip"},"download_count":19},{"id":70686,"title":"The Tallants of Barton, vol. 1 (of 3) : $b A tale of fortune and finance","authors":[{"name":"Hatton, Joseph","birth_year":1841,"death_year":1907}],"translators":[],"subjects":["English fiction -- 19th century"],"bookshelves":[],"languages":["en"],"copyright":false,"media_type":"Text","formats":{"text/html":"https://www.gutenberg.org/ebooks/70686.html.images","application/epub+zip":"https://www.gutenberg.org/ebooks/70686.epub3.images","application/x-mobipocket-ebook":"https://www.gutenberg.org/ebooks/70686.kf8.images","text/plain; charset=us-ascii":"https://www.gutenberg.org/ebooks/70686.txt.utf-8","application/rdf+xml":"https://www.gutenberg.org/ebooks/70686.rdf","image/jpeg":"https://www.gutenberg.org/cache/epub/70686/pg70686.cover.medium.jpg","application/octet-stream":"https://www.gutenberg.org/files/70686/70686-0.zip"},"download_count":19},{"id":70745,"title":"Bouncing Bet","authors":[{"name":"Gray, Joslyn","birth_year":null,"death_year":null}],"translators":[],"subjects":["Bildungsromans","Blind children -- Education -- Fiction","Blind children -- Fiction","Children -- Social life and customs -- Fiction","Girls -- Conduct of life -- Fiction","People with disabilities -- Fiction"],"bookshelves":[],"languages":["en"],"copyright":false,"media_type":"Text","formats":{"text/html":"https://www.gutenberg.org/ebooks/70745.html.images","application/epub+zip":"https://www.gutenberg.org/ebooks/70745.epub3.images","application/x-mobipocket-ebook":"https://www.gutenberg.org/ebooks/70745.kf8.images","text/plain; charset=us-ascii":"https://www.gutenberg.org/ebooks/70745.txt.utf-8","application/rdf+xml":"https://www.gutenberg.org/ebooks/70745.rdf","image/jpeg":"https://www.gutenberg.org/cache/epub/70745/pg70745.cover.medium.jpg","application/octet-stream":"https://www.gutenberg.org/files/70745/70745-0.zip"},"download_count":19},{"id":70871,"title":"Picciola : $b The prisoner of Fenestrella or, captivity captive","authors":[{"name":"Saintine, X.-B. (Xavier-Boniface)","birth_year":1798,"death_year":1865}],"translators":[],"subjects":["Prisoners -- Fiction"],"bookshelves":[],"languages":["en"],"copyright":false,"media_type":"Text","formats":{"text/html":"https://www.gutenberg.org/ebooks/70871.html.images","application/epub+zip":"https://www.gutenberg.org/ebooks/70871.epub3.images","application/x-mobipocket-ebook":"https://www.gutenberg.org/ebooks/70871.kf8.images","text/plain; charset=us-ascii":"https://www.gutenberg.org/ebooks/70871.txt.utf-8","application/rdf+xml":"https://www.gutenberg.org/ebooks/70871.rdf","image/jpeg":"https://www.gutenberg.org/cache/epub/70871/pg70871.cover.medium.jpg","application/octet-stream":"https://www.gutenberg.org/files/70871/70871-0.zip"},"download_count":19},{"id":71044,"title":"The four Corners in camp","authors":[{"name":"Blanchard, Amy Ella","birth_year":1856,"death_year":1926}],"translators":[],"subjects":["Camps -- Juvenile fiction"],"bookshelves":[],"languages":["en"],"copyright":false,"media_type":"Text","formats":{"text/html":"https://www.gutenberg.org/ebooks/71044.html.images","application/epub+zip":"https://www.gutenberg.org/ebooks/71044.epub3.images","application/x-mobipocket-ebook":"https://www.gutenberg.org/ebooks/71044.kf8.images","text/plain; charset=us-ascii":"https://www.gutenberg.org/ebooks/71044.txt.utf-8","application/rdf+xml":"https://www.gutenberg.org/ebooks/71044.rdf","image/jpeg":"https://www.gutenberg.org/cache/epub/71044/pg71044.cover.medium.jpg","application/octet-stream":"https://www.gutenberg.org/files/71044/71044-0.zip"},"download_count":19},{"id":71078,"title":"Her country","authors":[{"name":"Andrews, Mary Raymond Shipman","birth_year":1860,"death_year":1936}],"translators":[],"subjects":["World War, 1914-1918 -- Fiction"],"bookshelves":[],"languages":["en"],"copyright":false,"media_type":"Text","formats":{"text/html":"https://www.gutenberg.org/ebooks/71078.html.images","application/epub+zip":"https://www.gutenberg.org/ebooks/71078.epub3.images","application/x-mobipocket-ebook":"https://www.gutenberg.org/ebooks/71078.kf8.images","text/plain; charset=us-ascii":"https://www.gutenberg.org/ebooks/71078.txt.utf-8","application/rdf+xml":"https://www.gutenberg.org/ebooks/71078.rdf","image/jpeg":"https://www.gutenberg.org/cache/epub/71078/pg71078.cover.medium.jpg","application/octet-stream":"https://www.gutenberg.org/files/71078/71078-0.zip"},"download_count":19},{"id":71117,"title":"Thunder on the left","authors":[{"name":"Morley, Christopher","birth_year":1890,"death_year":1957}],"translators":[],"subjects":["Aging -- Fiction","Fantasy fiction"],"bookshelves":[],"languages":["en"],"copyright":false,"media_type":"Text","formats":{"text/html":"https://www.gutenberg.org/ebooks/71117.html.images","application/epub+zip":"https://www.gutenberg.org/ebooks/71117.epub3.images","application/x-mobipocket-ebook":"https://www.gutenberg.org/ebooks/71117.kf8.images","text/plain; charset=us-ascii":"https://www.gutenberg.org/ebooks/71117.txt.utf-8","application/rdf+xml":"https://www.gutenberg.org/ebooks/71117.rdf","image/jpeg":"https://www.gutenberg.org/cache/epub/71117/pg71117.cover.medium.jpg","application/octet-stream":"https://www.gutenberg.org/files/71117/71117-0.zip"},"download_count":19},{"id":71234,"title":"Some possible bearings of genetics on pathology","authors":[{"name":"Morgan, Thomas Hunt","birth_year":1866,"death_year":1945}],"translators":[],"subjects":["Diseases -- Causes and theories of causation","Genetics","Heredity","Pathology"],"bookshelves":[],"languages":["en"],"copyright":false,"media_type":"Text","formats":{"text/html":"https://www.gutenberg.org/ebooks/71234.html.images","application/epub+zip":"https://www.gutenberg.org/ebooks/71234.epub3.images","application/x-mobipocket-ebook":"https://www.gutenberg.org/ebooks/71234.kf8.images","text/plain; charset=us-ascii":"https://www.gutenberg.org/ebooks/71234.txt.utf-8","application/rdf+xml":"https://www.gutenberg.org/ebooks/71234.rdf","image/jpeg":"https://www.gutenberg.org/cache/epub/71234/pg71234.cover.medium.jpg","application/octet-stream":"https://www.gutenberg.org/files/71234/71234-0.zip"},"download_count":19},{"id":71362,"title":"Counter-currents","authors":[{"name":"Repplier, Agnes","birth_year":1855,"death_year":1950}],"translators":[],"subjects":["American essays -- 20th century"],"bookshelves":[],"languages":["en"],"copyright":false,"media_type":"Text","formats":{"text/html":"https://www.gutenberg.org/ebooks/71362.html.images","application/epub+zip":"https://www.gutenberg.org/ebooks/71362.epub3.images","application/x-mobipocket-ebook":"https://www.gutenberg.org/ebooks/71362.kf8.images","text/plain; charset=us-ascii":"https://www.gutenberg.org/ebooks/71362.txt.utf-8","application/rdf+xml":"https://www.gutenberg.org/ebooks/71362.rdf","image/jpeg":"https://www.gutenberg.org/cache/epub/71362/pg71362.cover.medium.jpg","application/octet-stream":"https://www.gutenberg.org/files/71362/71362-h.zip"},"download_count":19},{"id":71577,"title":"A patriot lad of old Boston","authors":[{"name":"Carter, Russell Gordon","birth_year":1892,"death_year":1957}],"translators":[],"subjects":["Boston (Mass.) -- History -- Revolution, 1775-1783 -- Juvenile fiction"],"bookshelves":[],"languages":["en"],"copyright":false,"media_type":"Text","formats":{"text/html":"https://www.gutenberg.org/ebooks/71577.html.images","application/epub+zip":"https://www.gutenberg.org/ebooks/71577.epub3.images","application/x-mobipocket-ebook":"https://www.gutenberg.org/ebooks/71577.kf8.images","text/plain; charset=us-ascii":"https://www.gutenberg.org/ebooks/71577.txt.utf-8","application/rdf+xml":"https://www.gutenberg.org/ebooks/71577.rdf","image/jpeg":"https://www.gutenberg.org/cache/epub/71577/pg71577.cover.medium.jpg","application/octet-stream":"https://www.gutenberg.org/files/71577/71577-h.zip"},"download_count":19},{"id":71675,"title":"Transactions of the American Society of Civil Engineers, vol. LXXII, June, 1911 : $b Experiments on retaining walls and pressures on tunnels","authors":[{"name":"Cain, Wm. (William)","birth_year":1847,"death_year":1930}],"translators":[],"subjects":["Civil engineering -- Periodicals","Retaining walls -- Design and construction","Strains and stresses","Tunnels -- Design and construction"],"bookshelves":[],"languages":["en"],"copyright":false,"media_type":"Text","formats":{"text/html":"https://www.gutenberg.org/ebooks/71675.html.images","application/epub+zip":"https://www.gutenberg.org/ebooks/71675.epub3.images","application/x-mobipocket-ebook":"https://www.gutenberg.org/ebooks/71675.kf8.images","application/rdf+xml":"https://www.gutenberg.org/ebooks/71675.rdf","image/jpeg":"https://www.gutenberg.org/cache/epub/71675/pg71675.cover.medium.jpg","application/octet-stream":"https://www.gutenberg.org/files/71675/71675-h.zip"},"download_count":19},{"id":71996,"title":"Jack Derringer : $b A tale of deep water","authors":[{"name":"Lubbock, Basil","birth_year":1876,"death_year":1944}],"translators":[],"subjects":["Seafaring life -- Fiction"],"bookshelves":[],"languages":["en"],"copyright":false,"media_type":"Text","formats":{"text/html":"https://www.gutenberg.org/ebooks/71996.html.images","application/epub+zip":"https://www.gutenberg.org/ebooks/71996.epub3.images","application/x-mobipocket-ebook":"https://www.gutenberg.org/ebooks/71996.kf8.images","text/plain; charset=us-ascii":"https://www.gutenberg.org/ebooks/71996.txt.utf-8","application/rdf+xml":"https://www.gutenberg.org/ebooks/71996.rdf","image/jpeg":"https://www.gutenberg.org/cache/epub/71996/pg71996.cover.medium.jpg","application/octet-stream":"https://www.gutenberg.org/cache/epub/71996/pg71996-h.zip"},"download_count":19},{"id":993,"title":"Malbone: An Oldport Romance","authors":[{"name":"Higginson, Thomas Wentworth","birth_year":1823,"death_year":1911}],"translators":[],"subjects":["Newport (R.I.) -- Fiction"],"bookshelves":[],"languages":["en"],"copyright":false,"media_type":"Text","formats":{"text/html":"https://www.gutenberg.org/ebooks/993.html.images","text/html; charset=utf-8":"https://www.gutenberg.org/files/993/993-h/993-h.htm","application/epub+zip":"https://www.gutenberg.org/ebooks/993.epub3.images","application/x-mobipocket-ebook":"https://www.gutenberg.org/ebooks/993.kf8.images","text/plain; charset=us-ascii":"https://www.gutenberg.org/ebooks/993.txt.utf-8","text/plain; charset=utf-8":"https://www.gutenberg.org/files/993/993-0.txt","application/rdf+xml":"https://www.gutenberg.org/ebooks/993.rdf","image/jpeg":"https://www.gutenberg.org/cache/epub/993/pg993.cover.medium.jpg","application/octet-stream":"https://www.gutenberg.org/cache/epub/993/pg993-h.zip"},"download_count":18},{"id":1296,"title":"The Provost","authors":[{"name":"Galt, John","birth_year":1779,"death_year":1839}],"translators":[],"subjects":["Humorous stories","Irvine (Scotland) -- Fiction","Merchants -- Fiction","Municipal government -- Fiction","Political fiction","Politicians -- Fiction","Scotland -- Social life and customs -- Fiction"],"bookshelves":[],"languages":["en"],"copyright":false,"media_type":"Text","formats":{"text/html":"https://www.gutenberg.org/ebooks/1296.html.images","application/epub+zip":"https://www.gutenberg.org/ebooks/1296.epub3.images","application/x-mobipocket-ebook":"https://www.gutenberg.org/ebooks/1296.kf8.images","text/plain; charset=us-ascii":"https://www.gutenberg.org/ebooks/1296.txt.utf-8","application/rdf+xml":"https://www.gutenberg.org/ebooks/1296.rdf","image/jpeg":"https://www.gutenberg.org/cache/epub/1296/pg1296.cover.medium.jpg","application/octet-stream":"https://www.gutenberg.org/cache/epub/1296/pg1296-h.zip"},"download_count":18},{"id":1333,"title":"Robert F. Murray (Author of the Scarlet Gown): His Poems; with a Memoir","authors":[{"name":"Murray, R. F. (Robert Fuller)","birth_year":1863,"death_year":1894}],"translators":[],"subjects":["Poetry"],"bookshelves":[],"languages":["en"],"copyright":false,"media_type":"Text","formats":{"text/html":"https://www.gutenberg.org/ebooks/1333.html.images","application/epub+zip":"https://www.gutenberg.org/ebooks/1333.epub3.images","application/x-mobipocket-ebook":"https://www.gutenberg.org/ebooks/1333.kf8.images","text/plain; charset=us-ascii":"https://www.gutenberg.org/ebooks/1333.txt.utf-8","application/rdf+xml":"https://www.gutenberg.org/ebooks/1333.rdf","image/jpeg":"https://www.gutenberg.org/cache/epub/1333/pg1333.cover.medium.jpg","application/octet-stream":"https://www.gutenberg.org/cache/epub/1333/pg1333-h.zip"},"download_count":18},{"id":1768,"title":"King Richard III","authors":[{"name":"Shakespeare, William","birth_year":1564,"death_year":1616}],"translators":[],"subjects":["Great Britain -- History -- Richard III, 1483-1485 -- Drama","Great Britain -- Kings and rulers -- Drama","Historical drama","Richard III, King of England, 1452-1485 -- Drama","Tragedies"],"bookshelves":[],"languages":["en"],"copyright":false,"media_type":"Text","formats":{"application/rdf+xml":"https://www.gutenberg.org/ebooks/1768.rdf","text/html":"https://www.gutenberg.org/ebooks/1768.html.images","application/epub+zip":"https://www.gutenberg.org/ebooks/1768.epub3.images","application/x-mobipocket-ebook":"https://www.gutenberg.org/ebooks/1768.kf8.images","text/plain; charset=us-ascii":"https://www.gutenberg.org/ebooks/1768.txt.utf-8","image/jpeg":"https://www.gutenberg.org/cache/epub/1768/pg1768.cover.medium.jpg","application/octet-stream":"https://www.gutenberg.org/cache/epub/1768/pg1768-h.zip"},"download_count":18},{"id":1788,"title":"Sir John Oldcastle","authors":[{"name":"Shakespeare (spurious and doubtful works)","birth_year":1564,"death_year":1616}],"translators":[],"subjects":["Oldcastle, John, Sir, -1417 -- Drama"],"bookshelves":[],"languages":["en"],"copyright":false,"media_type":"Text","formats":{"text/html":"https://www.gutenberg.org/ebooks/1788.html.images","application/epub+zip":"https://www.gutenberg.org/ebooks/1788.epub3.images","application/x-mobipocket-ebook":"https://www.gutenberg.org/ebooks/1788.kf8.images","text/plain; charset=us-ascii":"https://www.gutenberg.org/ebooks/1788.txt.utf-8","application/rdf+xml":"https://www.gutenberg.org/ebooks/1788.rdf","image/jpeg":"https://www.gutenberg.org/cache/epub/1788/pg1788.cover.medium.jpg","application/octet-stream":"https://www.gutenberg.org/files/1788/1788-0.zip"},"download_count":18},{"id":2277,"title":"Condensed Novels","authors":[{"name":"Harte, Bret","birth_year":1836,"death_year":1902}],"translators":[],"subjects":["Fiction","Parodies"],"bookshelves":[],"languages":["en"],"copyright":false,"media_type":"Text","formats":{"text/html":"https://www.gutenberg.org/ebooks/2277.html.images","text/html; charset=iso-8859-1":"https://www.gutenberg.org/files/2277/2277-h/2277-h.htm","application/epub+zip":"https://www.gutenberg.org/ebooks/2277.epub3.images","application/x-mobipocket-ebook":"https://www.gutenberg.org/ebooks/2277.kf8.images","text/plain; charset=us-ascii":"https://www.gutenberg.org/ebooks/2277.txt.utf-8","application/rdf+xml":"https://www.gutenberg.org/ebooks/2277.rdf","image/jpeg":"https://www.gutenberg.org/cache/epub/2277/pg2277.cover.medium.jpg","application/octet-stream":"https://www.gutenberg.org/cache/epub/2277/pg2277-h.zip"},"download_count":18},{"id":2362,"title":"The Story of Wellesley","authors":[{"name":"Converse, Florence","birth_year":1871,"death_year":1967}],"translators":[],"subjects":["Wellesley College"],"bookshelves":[],"languages":["en"],"copyright":false,"media_type":"Text","formats":{"text/html":"https://www.gutenberg.org/ebooks/2362.html.images","text/html; charset=iso-8859-1":"https://www.gutenberg.org/files/2362/2362-h/2362-h.htm","application/epub+zip":"https://www.gutenberg.org/ebooks/2362.epub3.images","application/x-mobipocket-ebook":"https://www.gutenberg.org/ebooks/2362.kf8.images","text/plain; charset=us-ascii":"https://www.gutenberg.org/ebooks/2362.txt.utf-8","application/rdf+xml":"https://www.gutenberg.org/ebooks/2362.rdf","image/jpeg":"https://www.gutenberg.org/cache/epub/2362/pg2362.cover.medium.jpg","application/octet-stream":"https://www.gutenberg.org/cache/epub/2362/pg2362-h.zip"},"download_count":18},{"id":3105,"title":"That Fortune","authors":[{"name":"Warner, Charles Dudley","birth_year":1829,"death_year":1900}],"translators":[],"subjects":["American fiction -- 19th century"],"bookshelves":[],"languages":["en"],"copyright":false,"media_type":"Text","formats":{"text/html":"https://www.gutenberg.org/ebooks/3105.html.images","text/html; charset=utf-8":"https://www.gutenberg.org/files/3105/3105-h/3105-h.htm","application/epub+zip":"https://www.gutenberg.org/ebooks/3105.epub3.images","application/x-mobipocket-ebook":"https://www.gutenberg.org/ebooks/3105.kf8.images","text/plain; charset=us-ascii":"https://www.gutenberg.org/ebooks/3105.txt.utf-8","text/plain; charset=utf-8":"https://www.gutenberg.org/files/3105/3105-0.txt","application/rdf+xml":"https://www.gutenberg.org/ebooks/3105.rdf","image/jpeg":"https://www.gutenberg.org/cache/epub/3105/pg3105.cover.medium.jpg","application/octet-stream":"https://www.gutenberg.org/cache/epub/3105/pg3105-h.zip"},"download_count":18},{"id":3119,"title":"What Is Your Culture to Me?","authors":[{"name":"Warner, Charles Dudley","birth_year":1829,"death_year":1900}],"translators":[],"subjects":["Essays"],"bookshelves":[],"languages":["en"],"copyright":false,"media_type":"Text","formats":{"text/html":"https://www.gutenberg.org/ebooks/3119.html.images","application/epub+zip":"https://www.gutenberg.org/ebooks/3119.epub3.images","application/x-mobipocket-ebook":"https://www.gutenberg.org/ebooks/3119.kf8.images","text/plain; charset=us-ascii":"https://www.gutenberg.org/ebooks/3119.txt.utf-8","application/rdf+xml":"https://www.gutenberg.org/ebooks/3119.rdf","image/jpeg":"https://www.gutenberg.org/cache/epub/3119/pg3119.cover.medium.jpg","application/octet-stream":"https://www.gutenberg.org/cache/epub/3119/pg3119-h.zip"},"download_count":18},{"id":3123,"title":"The Novel and the Common School","authors":[{"name":"Warner, Charles Dudley","birth_year":1829,"death_year":1900}],"translators":[],"subjects":["Education -- United States"],"bookshelves":[],"languages":["en"],"copyright":false,"media_type":"Text","formats":{"text/html":"https://www.gutenberg.org/ebooks/3123.html.images","application/epub+zip":"https://www.gutenberg.org/ebooks/3123.epub3.images","application/x-mobipocket-ebook":"https://www.gutenberg.org/ebooks/3123.kf8.images","text/plain; charset=us-ascii":"https://www.gutenberg.org/ebooks/3123.txt.utf-8","application/rdf+xml":"https://www.gutenberg.org/ebooks/3123.rdf","image/jpeg":"https://www.gutenberg.org/cache/epub/3123/pg3123.cover.medium.jpg","application/octet-stream":"https://www.gutenberg.org/cache/epub/3123/pg3123-h.zip"},"download_count":18},{"id":3148,"title":"A Village Stradivarius","authors":[{"name":"Wiggin, Kate Douglas Smith","birth_year":1856,"death_year":1923}],"translators":[],"subjects":["United States -- Social life and customs -- 19th century -- Fiction"],"bookshelves":[],"languages":["en"],"copyright":false,"media_type":"Text","formats":{"text/html":"https://www.gutenberg.org/ebooks/3148.html.images","application/epub+zip":"https://www.gutenberg.org/ebooks/3148.epub3.images","application/x-mobipocket-ebook":"https://www.gutenberg.org/ebooks/3148.kf8.images","text/plain; charset=us-ascii":"https://www.gutenberg.org/ebooks/3148.txt.utf-8","text/plain; charset=utf-8":"https://www.gutenberg.org/files/3148/3148-0.txt","application/rdf+xml":"https://www.gutenberg.org/ebooks/3148.rdf","image/jpeg":"https://www.gutenberg.org/cache/epub/3148/pg3148.cover.medium.jpg","application/octet-stream":"https://www.gutenberg.org/cache/epub/3148/pg3148-h.zip"},"download_count":18},{"id":3170,"title":"Chants for Socialists","authors":[{"name":"Morris, William","birth_year":1834,"death_year":1896}],"translators":[],"subjects":["Socialism -- Poetry"],"bookshelves":[],"languages":["en"],"copyright":false,"media_type":"Text","formats":{"text/html":"https://www.gutenberg.org/ebooks/3170.html.images","application/epub+zip":"https://www.gutenberg.org/ebooks/3170.epub3.images","application/x-mobipocket-ebook":"https://www.gutenberg.org/ebooks/3170.kf8.images","text/plain; charset=us-ascii":"https://www.gutenberg.org/ebooks/3170.txt.utf-8","text/plain; charset=utf-8":"https://www.gutenberg.org/files/3170/3170-0.txt","application/rdf+xml":"https://www.gutenberg.org/ebooks/3170.rdf","image/jpeg":"https://www.gutenberg.org/cache/epub/3170/pg3170.cover.medium.jpg","application/octet-stream":"https://www.gutenberg.org/cache/epub/3170/pg3170-h.zip"},"download_count":18},{"id":3257,"title":"New Thought Pastels","authors":[{"name":"Wilcox, Ella Wheeler","birth_year":1850,"death_year":1919}],"translators":[],"subjects":["American poetry"],"bookshelves":[],"languages":["en"],"copyright":false,"media_type":"Text","formats":{"text/html":"https://www.gutenberg.org/ebooks/3257.html.images","application/epub+zip":"https://www.gutenberg.org/ebooks/3257.epub3.images","application/x-mobipocket-ebook":"https://www.gutenberg.org/ebooks/3257.kf8.images","text/plain; charset=us-ascii":"https://www.gutenberg.org/ebooks/3257.txt.utf-8","text/plain; charset=utf-8":"https://www.gutenberg.org/files/3257/3257-0.txt","application/rdf+xml":"https://www.gutenberg.org/ebooks/3257.rdf","image/jpeg":"https://www.gutenberg.org/cache/epub/3257/pg3257.cover.medium.jpg","application/octet-stream":"https://www.gutenberg.org/cache/epub/3257/pg3257-h.zip"},"download_count":18},{"id":3271,"title":"The Complete Works of Artemus Ward — Part 1: Essays, Sketches, and Letters","authors":[{"name":"Ward, Artemus","birth_year":1834,"death_year":1867}],"translators":[],"subjects":["American wit and humor"],"bookshelves":[],"languages":["en"],"copyright":false,"media_type":"Text","formats":{"text/html":"https://www.gutenberg.org/ebooks/3271.html.images","application/epub+zip":"https://www.gutenberg.org/ebooks/3271.epub3.images","application/x-mobipocket-ebook":"https://www.gutenberg.org/ebooks/3271.kf8.images","text/plain; charset=us-ascii":"https://www.gutenberg.org/ebooks/3271.txt.utf-8","application/rdf+xml":"https://www.gutenberg.org/ebooks/3271.rdf","image/jpeg":"https://www.gutenberg.org/cache/epub/3271/pg3271.cover.medium.jpg","application/octet-stream":"https://www.gutenberg.org/cache/epub/3271/pg3271-h.zip"},"download_count":18},{"id":3341,"title":"The Wandering Jew — Volume 03","authors":[{"name":"Sue, Eugène","birth_year":1804,"death_year":1857}],"translators":[],"subjects":["France -- History -- Louis Philippe, 1830-1848 -- Fiction","Historical fiction","Inheritance and succession -- Fiction","Jesuits -- Fiction","Wandering Jew -- Fiction"],"bookshelves":[],"languages":["en"],"copyright":false,"media_type":"Text","formats":{"text/html":"https://www.gutenberg.org/ebooks/3341.html.images","application/epub+zip":"https://www.gutenberg.org/ebooks/3341.epub3.images","application/x-mobipocket-ebook":"https://www.gutenberg.org/ebooks/3341.kf8.images","text/plain; charset=us-ascii":"https://www.gutenberg.org/ebooks/3341.txt.utf-8","application/rdf+xml":"https://www.gutenberg.org/ebooks/3341.rdf","image/jpeg":"https://www.gutenberg.org/cache/epub/3341/pg3341.cover.medium.jpg","application/octet-stream":"https://www.gutenberg.org/cache/epub/3341/pg3341-h.zip"},"download_count":18},{"id":3345,"title":"The Wandering Jew — Volume 07","authors":[{"name":"Sue, Eugène","birth_year":1804,"death_year":1857}],"translators":[],"subjects":["France -- History -- Louis Philippe, 1830-1848 -- Fiction","Historical fiction","Inheritance and succession -- Fiction","Jesuits -- Fiction","Wandering Jew -- Fiction"],"bookshelves":[],"languages":["en"],"copyright":false,"media_type":"Text","formats":{"text/html":"https://www.gutenberg.org/ebooks/3345.html.images","application/epub+zip":"https://www.gutenberg.org/ebooks/3345.epub3.images","application/x-mobipocket-ebook":"https://www.gutenberg.org/ebooks/3345.kf8.images","text/plain; charset=us-ascii":"https://www.gutenberg.org/ebooks/3345.txt.utf-8","application/rdf+xml":"https://www.gutenberg.org/ebooks/3345.rdf","image/jpeg":"https://www.gutenberg.org/cache/epub/3345/pg3345.cover.medium.jpg","application/octet-stream":"https://www.gutenberg.org/cache/epub/3345/pg3345-h.zip"},"download_count":18},{"id":3352,"title":"Letters to His Son, 1748: On the Fine Art of Becoming a Man of the World and a Gentleman","authors":[{"name":"Chesterfield, Philip Dormer Stanhope, Earl of","birth_year":1694,"death_year":1773}],"translators":[],"subjects":["Conduct of life"],"bookshelves":[],"languages":["en"],"copyright":false,"media_type":"Text","formats":{"text/html":"https://www.gutenberg.org/ebooks/3352.html.images","application/epub+zip":"https://www.gutenberg.org/ebooks/3352.epub3.images","application/x-mobipocket-ebook":"https://www.gutenberg.org/ebooks/3352.kf8.images","text/plain; charset=us-ascii":"https://www.gutenberg.org/ebooks/3352.txt.utf-8","application/rdf+xml":"https://www.gutenberg.org/ebooks/3352.rdf","image/jpeg":"https://www.gutenberg.org/cache/epub/3352/pg3352.cover.medium.jpg","application/octet-stream":"https://www.gutenberg.org/cache/epub/3352/pg3352-h.zip"},"download_count":18}]}