{"count":58808,"next":"http://129.241.150.113:8000/books/?languages=en&page=1377","previous":"http://129.241.150.113:8000/books/?languages=en&page=1375","results":[{"id":69667,"title":"The giftie gien","authors":[{"name":"Jameson, Malcolm","birth_year":1891,"death_year":1945}],"translators":[],"subjects":["Businessmen -- Fiction","Fantasy fiction","Future life -- Fiction","Short stories"],"bookshelves":[],"languages":["en"],"copyright":false,"media_type":"Text","formats":{"text/html":"https://www.gutenberg.org/ebooks/69667.html.images","application/epub+zip":"https://www.gutenberg.org/ebooks/69667.epub3.images","application/x-mobipocket-ebook":"https://www.gutenberg.org/ebooks/69667.kf8.images","text/plain; charset=us-ascii":"https://www.gutenberg.org/ebooks/69667.txt.utf-8","application/rdf+xml":"https://www.gutenberg.org/ebooks/69667.rdf","image/jpeg":"https://www.gutenberg.org/cache/epub/69667/pg69667.cover.medium.jpg","application/octet-stream":"https://www.gutenberg.org/files/69667/69667-0.zip"},"download_count":27},{"id":69735,"title":"New Nick Carter weekly no. 197: The little glass vial; or A beautiful blackmailer brought to bay","authors":[{"name":"Carter, Nicholas (House name)","birth_year":null,"death_year":null}],"translators":[],"subjects":["Detective and mystery stories, American -- Periodicals","Dime novels -- Periodicals"],"bookshelves":[],"languages":["en"],"copyright":false,"media_type":"Text","formats":{"text/html":"https://www.gutenberg.org/ebooks/69735.html.images","application/epub+zip":"https://www.gutenberg.org/ebooks/69735.epub3.images","application/x-mobipocket-ebook":"https://www.gutenberg.org/ebooks/69735.kf8.images","text/plain; charset=us-ascii":"https://www.gutenberg.org/ebooks/69735.txt.utf-8","application/rdf+xml":"https://www.gutenberg.org/ebooks/69735.rdf","image/jpeg":"https://www.gutenberg.org/cache/epub/69735/pg69735.cover.medium.jpg","application/octet-stream":"https://www.gutenberg.org/files/69735/69735-0.zip"},"download_count":27},{"id":69769,"title":"The boys' book of Indian battles and adventures, with anecdotes about them","authors":[],"translators":[],"subjects":["Indians of North America -- Anecdotes"],"bookshelves":[],"languages":["en"],"copyright":false,"media_type":"Text","formats":{"text/html":"https://www.gutenberg.org/ebooks/69769.html.images","application/epub+zip":"https://www.gutenberg.org/ebooks/69769.epub3.images","application/x-mobipocket-ebook":"https://www.gutenberg.org/ebooks/69769.kf8.images","text/plain; charset=us-ascii":"https://www.gutenberg.org/ebooks/69769.txt.utf-8","application/rdf+xml":"https://www.gutenberg.org/ebooks/69769.rdf","image/jpeg":"https://www.gutenberg.org/cache/epub/69769/pg69769.cover.medium.jpg","application/octet-stream":"https://www.gutenberg.org/files/69769/69769-0.zip"},"download_count":27},{"id":69890,"title":"The golden bridle","authors":[{"name":"Rice, Jane","birth_year":1913,"death_year":2003}],"translators":[],"subjects":["Horse racing -- Fiction","Jockeys -- Fiction","Mythology, Greek -- Fiction"],"bookshelves":[],"languages":["en"],"copyright":false,"media_type":"Text","formats":{"text/html":"https://www.gutenberg.org/ebooks/69890.html.images","application/epub+zip":"https://www.gutenberg.org/ebooks/69890.epub3.images","application/x-mobipocket-ebook":"https://www.gutenberg.org/ebooks/69890.kf8.images","text/plain; charset=us-ascii":"https://www.gutenberg.org/ebooks/69890.txt.utf-8","application/rdf+xml":"https://www.gutenberg.org/ebooks/69890.rdf","image/jpeg":"https://www.gutenberg.org/cache/epub/69890/pg69890.cover.medium.jpg","application/octet-stream":"https://www.gutenberg.org/files/69890/69890-0.zip"},"download_count":27},{"id":69975,"title":"Linotype mechanism","authors":[{"name":"Means, Raymond","birth_year":null,"death_year":null},{"name":"Swank, Alvin Garfield","birth_year":1874,"death_year":null}],"translators":[],"subjects":["Linotype"],"bookshelves":[],"languages":["en"],"copyright":false,"media_type":"Text","formats":{"text/html":"https://www.gutenberg.org/ebooks/69975.html.images","application/epub+zip":"https://www.gutenberg.org/ebooks/69975.epub3.images","application/x-mobipocket-ebook":"https://www.gutenberg.org/ebooks/69975.kf8.images","text/plain; charset=us-ascii":"https://www.gutenberg.org/ebooks/69975.txt.utf-8","application/rdf+xml":"https://www.gutenberg.org/ebooks/69975.rdf","image/jpeg":"https://www.gutenberg.org/cache/epub/69975/pg69975.cover.medium.jpg","application/octet-stream":"https://www.gutenberg.org/files/69975/69975-0.zip"},"download_count":27},{"id":70003,"title":"Flight 18","authors":[{"name":"Torak, Paul A.","birth_year":null,"death_year":null}],"translators":[],"subjects":["Air travel -- Fiction","Businessmen -- Fiction","Science fiction","Short stories"],"bookshelves":[],"languages":["en"],"copyright":false,"media_type":"Text","formats":{"text/html":"https://www.gutenberg.org/ebooks/70003.html.images","application/epub+zip":"https://www.gutenberg.org/ebooks/70003.epub3.images","application/x-mobipocket-ebook":"https://www.gutenberg.org/ebooks/70003.kf8.images","text/plain; charset=us-ascii":"https://www.gutenberg.org/ebooks/70003.txt.utf-8","application/rdf+xml":"https://www.gutenberg.org/ebooks/70003.rdf","image/jpeg":"https://www.gutenberg.org/cache/epub/70003/pg70003.cover.medium.jpg","application/octet-stream":"https://www.gutenberg.org/files/70003/70003-0.zip"},"download_count":27},{"id":70047,"title":"The peaceful atom","authors":[{"name":"Hunt, Bernice Kohn","birth_year":1920,"death_year":null}],"translators":[],"subjects":["Atoms","Atoms -- Juvenile literature","Nuclear energy -- Juvenile literature"],"bookshelves":[],"languages":["en"],"copyright":false,"media_type":"Text","formats":{"text/html":"https://www.gutenberg.org/ebooks/70047.html.images","application/epub+zip":"https://www.gutenberg.org/ebooks/70047.epub3.images","application/x-mobipocket-ebook":"https://www.gutenberg.org/ebooks/70047.kf8.images","text/plain; charset=us-ascii":"https://www.gutenberg.org/ebooks/70047.txt.utf-8","application/rdf+xml":"https://www.gutenberg.org/ebooks/70047.rdf","image/jpeg":"https://www.gutenberg.org/cache/epub/70047/pg70047.cover.medium.jpg","application/octet-stream":"https://www.gutenberg.org/files/70047/70047-0.zip"},"download_count":27},{"id":70214,"title":"Peeps at many lands: Wales","authors":[{"name":"Wilmot-Buxton, E. M. (Ethel Mary)","birth_year":null,"death_year":null}],"translators":[],"subjects":["Wales -- Description and travel"],"bookshelves":[],"languages":["en"],"copyright":false,"media_type":"Text","formats":{"text/html":"https://www.gutenberg.org/ebooks/70214.html.images","application/epub+zip":"https://www.gutenberg.org/ebooks/70214.epub3.images","application/x-mobipocket-ebook":"https://www.gutenberg.org/ebooks/70214.kf8.images","text/plain; charset=us-ascii":"https://www.gutenberg.org/ebooks/70214.txt.utf-8","application/rdf+xml":"https://www.gutenberg.org/ebooks/70214.rdf","image/jpeg":"https://www.gutenberg.org/cache/epub/70214/pg70214.cover.medium.jpg","application/octet-stream":"https://www.gutenberg.org/files/70214/70214-0.zip"},"download_count":27},{"id":70240,"title":"Fruits of the agathon","authors":[{"name":"Harness, Charles L.","birth_year":1915,"death_year":2005}],"translators":[],"subjects":["Psychiatrists -- Fiction","Psychic ability -- Fiction","Science fiction","Scientists -- Fiction"],"bookshelves":[],"languages":["en"],"copyright":false,"media_type":"Text","formats":{"text/html":"https://www.gutenberg.org/ebooks/70240.html.images","application/epub+zip":"https://www.gutenberg.org/ebooks/70240.epub3.images","application/x-mobipocket-ebook":"https://www.gutenberg.org/ebooks/70240.kf8.images","text/plain; charset=us-ascii":"https://www.gutenberg.org/ebooks/70240.txt.utf-8","application/rdf+xml":"https://www.gutenberg.org/ebooks/70240.rdf","image/jpeg":"https://www.gutenberg.org/cache/epub/70240/pg70240.cover.medium.jpg","application/octet-stream":"https://www.gutenberg.org/files/70240/70240-0.zip"},"download_count":27},{"id":70293,"title":"The old South : $b A monograph","authors":[{"name":"Hamill, H. M. (Howard Melancthon)","birth_year":1847,"death_year":1915}],"translators":[],"subjects":["African Americans -- Southern States","Slavery -- United States","Southern States","Southern States -- Intellectual life","Southern States -- Social life and customs"],"bookshelves":[],"languages":["en"],"copyright":false,"media_type":"Text","formats":{"text/html":"https://www.gutenberg.org/ebooks/70293.html.images","application/epub+zip":"https://www.gutenberg.org/ebooks/70293.epub3.images","application/x-mobipocket-ebook":"https://www.gutenberg.org/ebooks/70293.kf8.images","text/plain; charset=us-ascii":"https://www.gutenberg.org/ebooks/70293.txt.utf-8","application/rdf+xml":"https://www.gutenberg.org/ebooks/70293.rdf","image/jpeg":"https://www.gutenberg.org/cache/epub/70293/pg70293.cover.medium.jpg","application/octet-stream":"https://www.gutenberg.org/files/70293/70293-0.zip"},"download_count":27},{"id":70328,"title":"Bobby and Betty with the workers","authors":[{"name":"Dopp, Katharine Elizabeth","birth_year":1863,"death_year":1944}],"translators":[],"subjects":["Readers (Primary)"],"bookshelves":[],"languages":["en"],"copyright":false,"media_type":"Text","formats":{"text/html":"https://www.gutenberg.org/ebooks/70328.html.images","application/epub+zip":"https://www.gutenberg.org/ebooks/70328.epub3.images","application/x-mobipocket-ebook":"https://www.gutenberg.org/ebooks/70328.kf8.images","text/plain; charset=us-ascii":"https://www.gutenberg.org/ebooks/70328.txt.utf-8","application/rdf+xml":"https://www.gutenberg.org/ebooks/70328.rdf","image/jpeg":"https://www.gutenberg.org/cache/epub/70328/pg70328.cover.medium.jpg","application/octet-stream":"https://www.gutenberg.org/files/70328/70328-0.zip"},"download_count":27},{"id":70343,"title":"History for ready reference, Volume 5, Tunnage to Zyp and Supplement","authors":[{"name":"Larned, J. N. (Josephus Nelson)","birth_year":1836,"death_year":1913}],"translators":[],"subjects":["History -- Dictionaries"],"bookshelves":[],"languages":["en"],"copyright":false,"media_type":"Text","formats":{"text/html":"https://www.gutenberg.org/ebooks/70343.html.images","application/epub+zip":"https://www.gutenberg.org/ebooks/70343.epub3.images","application/x-mobipocket-ebook":"https://www.gutenberg.org/ebooks/70343.kf8.images","text/plain; charset=us-ascii":"https://www.gutenberg.org/ebooks/70343.txt.utf-8","application/rdf+xml":"https://www.gutenberg.org/ebooks/70343.rdf","image/jpeg":"https://www.gutenberg.org/cache/epub/70343/pg70343.cover.medium.jpg","application/octet-stream":"https://www.gutenberg.org/files/70343/70343-0.zip"},"download_count":27},{"id":70348,"title":"Imitation of death","authors":[{"name":"Del Rey, Lester","birth_year":1915,"death_year":1993}],"translators":[],"subjects":["Androids -- Fiction","Political fiction","Science fiction","Short stories"],"bookshelves":[],"languages":["en"],"copyright":false,"media_type":"Text","formats":{"text/html":"https://www.gutenberg.org/ebooks/70348.html.images","application/epub+zip":"https://www.gutenberg.org/ebooks/70348.epub3.images","application/x-mobipocket-ebook":"https://www.gutenberg.org/ebooks/70348.kf8.images","text/plain; charset=us-ascii":"https://www.gutenberg.org/ebooks/70348.txt.utf-8","application/rdf+xml":"https://www.gutenberg.org/ebooks/70348.rdf","image/jpeg":"https://www.gutenberg.org/cache/epub/70348/pg70348.cover.medium.jpg","application/octet-stream":"https://www.gutenberg.org/files/70348/70348-0.zip"},"download_count":27},{"id":70417,"title":"Tinting and toning of Eastman positive motion picture film : $b Second edition—revised","authors":[{"name":"Eastman Kodak Company","birth_year":null,"death_year":null}],"translators":[],"subjects":["Color cinematography","Motion picture film"],"bookshelves":[],"languages":["en"],"copyright":false,"media_type":"Text","formats":{"text/html":"https://www.gutenberg.org/ebooks/70417.html.images","application/epub+zip":"https://www.gutenberg.org/ebooks/70417.epub3.images","application/x-mobipocket-ebook":"https://www.gutenberg.org/ebooks/70417.kf8.images","text/plain; charset=us-ascii":"https://www.gutenberg.org/ebooks/70417.txt.utf-8","application/rdf+xml":"https://www.gutenberg.org/ebooks/70417.rdf","image/jpeg":"https://www.gutenberg.org/cache/epub/70417/pg70417.cover.medium.jpg","application/octet-stream":"https://www.gutenberg.org/files/70417/70417-0.zip"},"download_count":27},{"id":70506,"title":"The family at Misrule","authors":[{"name":"Turner, Ethel","birth_year":1870,"death_year":1958}],"translators":[],"subjects":["Australia -- Juvenile fiction","Children -- Conduct of life -- Juvenile fiction","Conduct of life -- Juvenile fiction","Country life -- Juvenile fiction","Domestic fiction","Family -- Juvenile fiction","Obedience -- Juvenile fiction","Siblings -- Juvenile fiction","Students -- Juvenile fiction","Woolcot family (Fictitious characters) -- Juvenile fiction"],"bookshelves":[],"languages":["en"],"copyright":false,"media_type":"Text","formats":{"text/html":"https://www.gutenberg.org/ebooks/70506.html.images","application/epub+zip":"https://www.gutenberg.org/ebooks/70506.epub3.images","application/x-mobipocket-ebook":"https://www.gutenberg.org/ebooks/70506.kf8.images","text/plain; charset=us-ascii":"https://www.gutenberg.org/ebooks/70506.txt.utf-8","application/rdf+xml":"https://www.gutenberg.org/ebooks/70506.rdf","image/jpeg":"https://www.gutenberg.org/cache/epub/70506/pg70506.cover.medium.jpg","application/octet-stream":"https://www.gutenberg.org/files/70506/70506-0.zip"},"download_count":27},{"id":70529,"title":"Little Arthur's history of England","authors":[{"name":"Callcott, Maria, Lady","birth_year":1785,"death_year":1842}],"translators":[],"subjects":["Great Britain -- History -- Juvenile literature"],"bookshelves":[],"languages":["en"],"copyright":false,"media_type":"Text","formats":{"text/html":"https://www.gutenberg.org/ebooks/70529.html.images","application/epub+zip":"https://www.gutenberg.org/ebooks/70529.epub3.images","application/x-mobipocket-ebook":"https://www.gutenberg.org/ebooks/70529.kf8.images","text/plain; charset=us-ascii":"https://www.gutenberg.org/ebooks/70529.txt.utf-8","application/rdf+xml":"https://www.gutenberg.org/ebooks/70529.rdf","image/jpeg":"https://www.gutenberg.org/cache/epub/70529/pg70529.cover.medium.jpg","application/octet-stream":"https://www.gutenberg.org/files/70529/70529-0.zip"},"download_count":27},{"id":70563,"title":"The romance of my childhood and youth","authors":[{"name":"Adam, Juliette","birth_year":1836,"death_year":1936}],"translators":[],"subjects":["Adam, Juliette, 1836-1936","Authors, French -- Biography"],"bookshelves":[],"languages":["en"],"copyright":false,"media_type":"Text","formats":{"text/html":"https://www.gutenberg.org/ebooks/70563.html.images","application/epub+zip":"https://www.gutenberg.org/ebooks/70563.epub3.images","application/x-mobipocket-ebook":"https://www.gutenberg.org/ebooks/70563.kf8.images","text/plain; charset=us-ascii":"https://www.gutenberg.org/ebooks/70563.txt.utf-8","application/rdf+xml":"https://www.gutenberg.org/ebooks/70563.rdf","image/jpeg":"https://www.gutenberg.org/cache/epub/70563/pg70563.cover.medium.jpg","application/octet-stream":"https://www.gutenberg.org/files/70563/70563-0.zip"},"download_count":27},{"id":70571,"title":"Earth needs a killer","authors":[{"name":"Walton, Bryce","birth_year":1918,"death_year":1988}],"translators":[],"subjects":["Adventure stories","Murderers -- Fiction","Psychic ability -- Fiction","Science fiction"],"bookshelves":[],"languages":["en"],"copyright":false,"media_type":"Text","formats":{"text/html":"https://www.gutenberg.org/ebooks/70571.html.images","application/epub+zip":"https://www.gutenberg.org/ebooks/70571.epub3.images","application/x-mobipocket-ebook":"https://www.gutenberg.org/ebooks/70571.kf8.images","text/plain; charset=us-ascii":"https://www.gutenberg.org/ebooks/70571.txt.utf-8","application/rdf+xml":"https://www.gutenberg.org/ebooks/70571.rdf","image/jpeg":"https://www.gutenberg.org/cache/epub/70571/pg70571.cover.medium.jpg","application/octet-stream":"https://www.gutenberg.org/files/70571/70571-0.zip"},"download_count":27},{"id":70658,"title":"The life of Rev. Henry Martyn : $b Written for the American Sunday School Union, with some account of Abdool Messeeh, a Hindoo convert","authors":[{"name":"Hall, John","birth_year":1806,"death_year":1894},{"name":"Sargent, John","birth_year":1780,"death_year":1833}],"translators":[],"subjects":["Abdool Messeeh, 1771 or 1772-1827","Martyn, Henry, 1781-1812"],"bookshelves":[],"languages":["en"],"copyright":false,"media_type":"Text","formats":{"text/html":"https://www.gutenberg.org/ebooks/70658.html.images","application/epub+zip":"https://www.gutenberg.org/ebooks/70658.epub3.images","application/x-mobipocket-ebook":"https://www.gutenberg.org/ebooks/70658.kf8.images","text/plain; charset=us-ascii":"https://www.gutenberg.org/ebooks/70658.txt.utf-8","application/rdf+xml":"https://www.gutenberg.org/ebooks/70658.rdf","image/jpeg":"https://www.gutenberg.org/cache/epub/70658/pg70658.cover.medium.jpg","application/octet-stream":"https://www.gutenberg.org/files/70658/70658-0.zip"},"download_count":27},{"id":70703,"title":"Christmas builders","authors":[{"name":"Jefferson, Charles Edward","birth_year":1860,"death_year":1937}],"translators":[],"subjects":["Christmas"],"bookshelves":[],"languages":["en"],"copyright":false,"media_type":"Text","formats":{"text/html":"https://www.gutenberg.org/ebooks/70703.html.images","application/epub+zip":"https://www.gutenberg.org/ebooks/70703.epub3.images","application/x-mobipocket-ebook":"https://www.gutenberg.org/ebooks/70703.kf8.images","text/plain; charset=us-ascii":"https://www.gutenberg.org/ebooks/70703.txt.utf-8","application/rdf+xml":"https://www.gutenberg.org/ebooks/70703.rdf","image/jpeg":"https://www.gutenberg.org/cache/epub/70703/pg70703.cover.medium.jpg","application/octet-stream":"https://www.gutenberg.org/files/70703/70703-0.zip"},"download_count":27},{"id":70849,"title":"Rodeo","authors":[{"name":"Tuttle, W. C. (Wilbur C.)","birth_year":1883,"death_year":1969}],"translators":[],"subjects":["Rodeos -- Fiction","Short stories"],"bookshelves":[],"languages":["en"],"copyright":false,"media_type":"Text","formats":{"text/html":"https://www.gutenberg.org/ebooks/70849.html.images","application/epub+zip":"https://www.gutenberg.org/ebooks/70849.epub3.images","application/x-mobipocket-ebook":"https://www.gutenberg.org/ebooks/70849.kf8.images","text/plain; charset=us-ascii":"https://www.gutenberg.org/ebooks/70849.txt.utf-8","application/rdf+xml":"https://www.gutenberg.org/ebooks/70849.rdf","image/jpeg":"https://www.gutenberg.org/cache/epub/70849/pg70849.cover.medium.jpg","application/octet-stream":"https://www.gutenberg.org/files/70849/70849-0.zip"},"download_count":27},{"id":70884,"title":"French without a master : $b A farce in one act","authors":[{"name":"Bernard, Tristan","birth_year":1866,"death_year":1947}],"translators":[{"name":"Clark, Barrett H. (Barrett Harper)","birth_year":1890,"death_year":1953}],"subjects":["Comedies","Farces","French drama -- Translations into English"],"bookshelves":[],"languages":["en"],"copyright":false,"media_type":"Text","formats":{"text/html":"https://www.gutenberg.org/ebooks/70884.html.images","application/epub+zip":"https://www.gutenberg.org/ebooks/70884.epub3.images","application/x-mobipocket-ebook":"https://www.gutenberg.org/ebooks/70884.kf8.images","text/plain; charset=us-ascii":"https://www.gutenberg.org/ebooks/70884.txt.utf-8","application/rdf+xml":"https://www.gutenberg.org/ebooks/70884.rdf","image/jpeg":"https://www.gutenberg.org/cache/epub/70884/pg70884.cover.medium.jpg","application/octet-stream":"https://www.gutenberg.org/files/70884/70884-0.zip"},"download_count":27},{"id":70901,"title":"The great fraud of Ulster","authors":[{"name":"Healy, T. M. (Timothy Michael)","birth_year":1855,"death_year":1931}],"translators":[],"subjects":["Ireland -- History -- 17th century","Ulster (Northern Ireland and Ireland) -- History"],"bookshelves":[],"languages":["en"],"copyright":false,"media_type":"Text","formats":{"text/html":"https://www.gutenberg.org/ebooks/70901.html.images","application/epub+zip":"https://www.gutenberg.org/ebooks/70901.epub3.images","application/x-mobipocket-ebook":"https://www.gutenberg.org/ebooks/70901.kf8.images","text/plain; charset=us-ascii":"https://www.gutenberg.org/ebooks/70901.txt.utf-8","application/rdf+xml":"https://www.gutenberg.org/ebooks/70901.rdf","image/jpeg":"https://www.gutenberg.org/cache/epub/70901/pg70901.cover.medium.jpg","application/octet-stream":"https://www.gutenberg.org/files/70901/70901-0.zip"},"download_count":27},{"id":70928,"title":"A book of Christmas verse","authors":[],"translators":[],"subjects":["Carols","Christmas -- Poetry","Christmas poetry"],"bookshelves":[],"languages":["en"],"copyright":false,"media_type":"Text","formats":{"text/html":"https://www.gutenberg.org/ebooks/70928.html.images","application/epub+zip":"https://www.gutenberg.org/ebooks/70928.epub3.images","application/x-mobipocket-ebook":"https://www.gutenberg.org/ebooks/70928.kf8.images","text/plain; charset=us-ascii":"https://www.gutenberg.org/ebooks/70928.txt.utf-8","application/rdf+xml":"https://www.gutenberg.org/ebooks/70928.rdf","image/jpeg":"https://www.gutenberg.org/cache/epub/70928/pg70928.cover.medium.jpg","application/octet-stream":"https://www.gutenberg.org/files/70928/70928-0.zip"},"download_count":27},{"id":71047,"title":"Lewis and Irene","authors":[{"name":"Morand, Paul","birth_year":1888,"death_year":1976}],"translators":[{"name":"Holland, Vyvyan Beresford","birth_year":1886,"death_year":1967}],"subjects":["Bankers -- Fiction","Capitalists and financiers -- Fiction","Man-woman relationships -- Fiction"],"bookshelves":[],"languages":["en"],"copyright":false,"media_type":"Text","formats":{"text/html":"https://www.gutenberg.org/ebooks/71047.html.images","application/epub+zip":"https://www.gutenberg.org/ebooks/71047.epub3.images","application/x-mobipocket-ebook":"https://www.gutenberg.org/ebooks/71047.kf8.images","text/plain; charset=us-ascii":"https://www.gutenberg.org/ebooks/71047.txt.utf-8","application/rdf+xml":"https://www.gutenberg.org/ebooks/71047.rdf","image/jpeg":"https://www.gutenberg.org/cache/epub/71047/pg71047.cover.medium.jpg","application/octet-stream":"https://www.gutenberg.org/files/71047/71047-0.zip"},"download_count":27},{"id":71112,"title":"Far above rubies (Vol. 1 of 3) : $b A novel","authors":[{"name":"Riddell, J. H., Mrs.","birth_year":1832,"death_year":1906}],"translators":[],"subjects":["Fiction"],"bookshelves":[],"languages":["en"],"copyright":false,"media_type":"Text","formats":{"text/html":"https://www.gutenberg.org/ebooks/71112.html.images","application/epub+zip":"https://www.gutenberg.org/ebooks/71112.epub3.images","application/x-mobipocket-ebook":"https://www.gutenberg.org/ebooks/71112.kf8.images","text/plain; charset=us-ascii":"https://www.gutenberg.org/ebooks/71112.txt.utf-8","application/rdf+xml":"https://www.gutenberg.org/ebooks/71112.rdf","image/jpeg":"https://www.gutenberg.org/cache/epub/71112/pg71112.cover.medium.jpg","application/octet-stream":"https://www.gutenberg.org/files/71112/71112-0.zip"},"download_count":27},{"id":71177,"title":"The trial of Sacco and Vanzetti : $b A summary of the outstanding testimony","authors":[{"name":"Bernheimer, Louis","birth_year":null,"death_year":null}],"translators":[],"subjects":["Sacco-Vanzetti Trial, Dedham, Mass., 1921"],"bookshelves":[],"languages":["en"],"copyright":false,"media_type":"Text","formats":{"text/html":"https://www.gutenberg.org/ebooks/71177.html.images","application/epub+zip":"https://www.gutenberg.org/ebooks/71177.epub3.images","application/x-mobipocket-ebook":"https://www.gutenberg.org/ebooks/71177.kf8.images","text/plain; charset=us-ascii":"https://www.gutenberg.org/ebooks/71177.txt.utf-8","application/rdf+xml":"https://www.gutenberg.org/ebooks/71177.rdf","image/jpeg":"https://www.gutenberg.org/cache/epub/71177/pg71177.cover.medium.jpg","application/octet-stream":"https://www.gutenberg.org/files/71177/71177-0.zip"},"download_count":27},{"id":71186,"title":"The magazine of history with notes and queries, Vol. I, No. 4, April 1905","authors":[{"name":"Various","birth_year":null,"death_year":null}],"translators":[],"subjects":["History -- Periodicals","United States -- History -- Periodicals"],"bookshelves":[],"languages":["en"],"copyright":false,"media_type":"Text","formats":{"text/html":"https://www.gutenberg.org/ebooks/71186.html.images","application/epub+zip":"https://www.gutenberg.org/ebooks/71186.epub3.images","application/x-mobipocket-ebook":"https://www.gutenberg.org/ebooks/71186.kf8.images","text/plain; charset=us-ascii":"https://www.gutenberg.org/ebooks/71186.txt.utf-8","application/rdf+xml":"https://www.gutenberg.org/ebooks/71186.rdf","image/jpeg":"https://www.gutenberg.org/cache/epub/71186/pg71186.cover.medium.jpg","application/octet-stream":"https://www.gutenberg.org/files/71186/71186-0.zip"},"download_count":27},{"id":71344,"title":"Nouvellettes of the musicians","authors":[{"name":"Ellet, E. F. (Elizabeth Fries)","birth_year":1818,"death_year":1877}],"translators":[],"subjects":["Music -- Anecdotes"],"bookshelves":[],"languages":["en"],"copyright":false,"media_type":"Text","formats":{"text/html":"https://www.gutenberg.org/ebooks/71344.html.images","application/epub+zip":"https://www.gutenberg.org/ebooks/71344.epub3.images","application/x-mobipocket-ebook":"https://www.gutenberg.org/ebooks/71344.kf8.images","text/plain; charset=us-ascii":"https://www.gutenberg.org/ebooks/71344.txt.utf-8","application/rdf+xml":"https://www.gutenberg.org/ebooks/71344.rdf","image/jpeg":"https://www.gutenberg.org/cache/epub/71344/pg71344.cover.medium.jpg","application/octet-stream":"https://www.gutenberg.org/files/71344/71344-0.zip"},"download_count":27},{"id":71346,"title":"The young ship builder","authors":[{"name":"Swett, Sophie","birth_year":1858,"death_year":1912}],"translators":[],"subjects":["Business -- Juvenile fiction","New England -- Juvenile fiction","Orphans -- Juvenile fiction","Shipyards -- Juvenile fiction","Siblings -- Juvenile fiction","Stepfamilies -- Juvenile fiction"],"bookshelves":[],"languages":["en"],"copyright":false,"media_type":"Text","formats":{"text/html":"https://www.gutenberg.org/ebooks/71346.html.images","application/epub+zip":"https://www.gutenberg.org/ebooks/71346.epub3.images","application/x-mobipocket-ebook":"https://www.gutenberg.org/ebooks/71346.kf8.images","text/plain; charset=us-ascii":"https://www.gutenberg.org/ebooks/71346.txt.utf-8","application/rdf+xml":"https://www.gutenberg.org/ebooks/71346.rdf","image/jpeg":"https://www.gutenberg.org/cache/epub/71346/pg71346.cover.medium.jpg","application/octet-stream":"https://www.gutenberg.org/files/71346/71346-0.zip"},"download_count":27},{"id":71407,"title":"Nature's carol singers","authors":[{"name":"Kearton, Richard","birth_year":1862,"death_year":1928}],"translators":[],"subjects":["Birds"],"bookshelves":[],"languages":["en"],"copyright":false,"media_type":"Text","formats":{"text/html":"https://www.gutenberg.org/ebooks/71407.html.images","application/epub+zip":"https://www.gutenberg.org/ebooks/71407.epub3.images","application/x-mobipocket-ebook":"https://www.gutenberg.org/ebooks/71407.kf8.images","text/plain; charset=us-ascii":"https://www.gutenberg.org/ebooks/71407.txt.utf-8","application/rdf+xml":"https://www.gutenberg.org/ebooks/71407.rdf","image/jpeg":"https://www.gutenberg.org/cache/epub/71407/pg71407.cover.medium.jpg","application/octet-stream":"https://www.gutenberg.org/files/71407/71407-h.zip"},"download_count":27},{"id":71427,"title":"Two young lumbermen : $b or, From Maine to Oregon for fortune","authors":[{"name":"Stratemeyer, Edward","birth_year":1862,"death_year":1930}],"translators":[],"subjects":["Logging -- Juvenile fiction","Lumbermen -- Juvenile fiction","Maine -- Juvenile fiction","Oregon -- Juvenile fiction"],"bookshelves":[],"languages":["en"],"copyright":false,"media_type":"Text","formats":{"text/html":"https://www.gutenberg.org/ebooks/71427.html.images","application/epub+zip":"https://www.gutenberg.org/ebooks/71427.epub3.images","application/x-mobipocket-ebook":"https://www.gutenberg.org/ebooks/71427.kf8.images","text/plain; charset=us-ascii":"https://www.gutenberg.org/ebooks/71427.txt.utf-8","application/rdf+xml":"https://www.gutenberg.org/ebooks/71427.rdf","image/jpeg":"https://www.gutenberg.org/cache/epub/71427/pg71427.cover.medium.jpg","application/octet-stream":"https://www.gutenberg.org/files/71427/71427-h.zip"},"download_count":27}]}