{"count":58808,"next":"http://129.241.150.113:8000/books/?languages=en&page=1832","previous":"http://129.241.150.113:8000/books/?languages=en&page=1830","results":[{"id":5593,"title":"The Story of My Life — Volume 01","authors":[{"name":"Ebers, Georg","birth_year":1837,"death_year":1898}],"translators":[{"name":"Safford, Mary J.","birth_year":null,"death_year":null}],"subjects":["Ebers, Georg, 1837-1898"],"bookshelves":[],"languages":["en"],"copyright":false,"media_type":"Text","formats":{"text/html":"https://www.gutenberg.org/ebooks/5593.html.images","application/epub+zip":"https://www.gutenberg.org/ebooks/5593.epub3.images","application/x-mobipocket-ebook":"https://www.gutenberg.org/ebooks/5593.kf8.images","text/plain; charset=us-ascii":"https://www.gutenberg.org/ebooks/5593.txt.utf-8","application/rdf+xml":"https://www.gutenberg.org/ebooks/5593.rdf","image/jpeg":"https://www.gutenberg.org/cache/epub/5593/pg5593.cover.medium.jpg","application/octet-stream":"https://www.gutenberg.org/cache/epub/5593/pg5593-h.zip"},"download_count":6},{"id":5870,"title":"Hidden Treasure: The Story of a Chore Boy Who Made the Old Farm Pay","authors":[{"name":"Simpson, John Thomas","birth_year":null,"death_year":null}],"translators":[],"subjects":["Farm life"],"bookshelves":[],"languages":["en"],"copyright":false,"media_type":"Text","formats":{"text/html":"https://www.gutenberg.org/ebooks/5870.html.images","application/epub+zip":"https://www.gutenberg.org/ebooks/5870.epub3.images","application/x-mobipocket-ebook":"https://www.gutenberg.org/ebooks/5870.kf8.images","text/plain; charset=us-ascii":"https://www.gutenberg.org/ebooks/5870.txt.utf-8","application/rdf+xml":"https://www.gutenberg.org/ebooks/5870.rdf","image/jpeg":"https://www.gutenberg.org/cache/epub/5870/pg5870.cover.medium.jpg","application/octet-stream":"https://www.gutenberg.org/cache/epub/5870/pg5870-h.zip"},"download_count":6},{"id":7581,"title":"Widger's Quotes and Images from Zibeline by Phillipe de Massa: The French Immortals: Quotes and Images","authors":[{"name":"Massa, Philippe, marquis de","birth_year":1831,"death_year":1911}],"translators":[],"subjects":["Quotations, French -- Translations into English"],"bookshelves":[],"languages":["en"],"copyright":false,"media_type":"Text","formats":{"text/html":"https://www.gutenberg.org/ebooks/7581.html.images","text/html; charset=us-ascii":"https://www.gutenberg.org/files/7581/7581-h/7581-h.htm","application/epub+zip":"https://www.gutenberg.org/ebooks/7581.epub3.images","application/x-mobipocket-ebook":"https://www.gutenberg.org/ebooks/7581.kf8.images","text/plain; charset=us-ascii":"https://www.gutenberg.org/ebooks/7581.txt.utf-8","application/rdf+xml":"https://www.gutenberg.org/ebooks/7581.rdf","image/jpeg":"https://www.gutenberg.org/cache/epub/7581/pg7581.cover.medium.jpg","application/octet-stream":"https://www.gutenberg.org/cache/epub/7581/pg7581-h.zip"},"download_count":6},{"id":7592,"title":"The Caxtons: A Family Picture — Volume 07","authors":[{"name":"Lytton, Edward Bulwer Lytton, Baron","birth_year":1803,"death_year":1873}],"translators":[],"subjects":["English fiction -- 19th century","Families -- Fiction"],"bookshelves":[],"languages":["en"],"copyright":false,"media_type":"Text","formats":{"text/html":"https://www.gutenberg.org/ebooks/7592.html.images","application/epub+zip":"https://www.gutenberg.org/ebooks/7592.epub3.images","application/x-mobipocket-ebook":"https://www.gutenberg.org/ebooks/7592.kf8.images","text/plain; charset=us-ascii":"https://www.gutenberg.org/ebooks/7592.txt.utf-8","application/rdf+xml":"https://www.gutenberg.org/ebooks/7592.rdf","image/jpeg":"https://www.gutenberg.org/cache/epub/7592/pg7592.cover.medium.jpg","application/octet-stream":"https://www.gutenberg.org/cache/epub/7592/pg7592-h.zip"},"download_count":6},{"id":7695,"title":"A Strange Story — Volume 04","authors":[{"name":"Lytton, Edward Bulwer Lytton, Baron","birth_year":1803,"death_year":1873}],"translators":[],"subjects":["English fiction -- 19th century"],"bookshelves":[],"languages":["en"],"copyright":false,"media_type":"Text","formats":{"text/html":"https://www.gutenberg.org/ebooks/7695.html.images","application/epub+zip":"https://www.gutenberg.org/ebooks/7695.epub3.images","application/x-mobipocket-ebook":"https://www.gutenberg.org/ebooks/7695.kf8.images","text/plain; charset=us-ascii":"https://www.gutenberg.org/ebooks/7695.txt.utf-8","application/rdf+xml":"https://www.gutenberg.org/ebooks/7695.rdf","image/jpeg":"https://www.gutenberg.org/cache/epub/7695/pg7695.cover.medium.jpg","application/octet-stream":"https://www.gutenberg.org/cache/epub/7695/pg7695-h.zip"},"download_count":6},{"id":7721,"title":"The Last of the Barons — Volume 07","authors":[{"name":"Lytton, Edward Bulwer Lytton, Baron","birth_year":1803,"death_year":1873}],"translators":[],"subjects":["Great Britain -- History -- Wars of the Roses, 1455-1485 -- Fiction","Warwick, Richard Neville, Earl of, 1428-1471 -- Fiction"],"bookshelves":["Historical Fiction"],"languages":["en"],"copyright":false,"media_type":"Text","formats":{"text/html":"https://www.gutenberg.org/ebooks/7721.html.images","application/epub+zip":"https://www.gutenberg.org/ebooks/7721.epub3.images","application/x-mobipocket-ebook":"https://www.gutenberg.org/ebooks/7721.kf8.images","text/plain; charset=us-ascii":"https://www.gutenberg.org/ebooks/7721.txt.utf-8","application/rdf+xml":"https://www.gutenberg.org/ebooks/7721.rdf","image/jpeg":"https://www.gutenberg.org/cache/epub/7721/pg7721.cover.medium.jpg","application/octet-stream":"https://www.gutenberg.org/cache/epub/7721/pg7721-h.zip"},"download_count":6},{"id":7750,"title":"Godolphin, Volume 1.","authors":[{"name":"Lytton, Edward Bulwer Lytton, Baron","birth_year":1803,"death_year":1873}],"translators":[],"subjects":["England -- Social life and customs -- 19th century -- Fiction"],"bookshelves":[],"languages":["en"],"copyright":false,"media_type":"Text","formats":{"text/html":"https://www.gutenberg.org/ebooks/7750.html.images","application/epub+zip":"https://www.gutenberg.org/ebooks/7750.epub3.images","application/x-mobipocket-ebook":"https://www.gutenberg.org/ebooks/7750.kf8.images","text/plain; charset=us-ascii":"https://www.gutenberg.org/ebooks/7750.txt.utf-8","application/rdf+xml":"https://www.gutenberg.org/ebooks/7750.rdf","image/jpeg":"https://www.gutenberg.org/cache/epub/7750/pg7750.cover.medium.jpg","application/octet-stream":"https://www.gutenberg.org/cache/epub/7750/pg7750-h.zip"},"download_count":6},{"id":7916,"title":"American Historical and Literary Curiosities, Part 16.: Second Series","authors":[{"name":"Smith, J. Jay (John Jay)","birth_year":1798,"death_year":1881}],"translators":[],"subjects":["Autographs -- United States -- Facsimiles","United States -- History -- Revolution, 1775-1783 -- Sources"],"bookshelves":[],"languages":["en"],"copyright":false,"media_type":"Text","formats":{"text/html":"https://www.gutenberg.org/ebooks/7916.html.images","text/html; charset=us-ascii":"https://www.gutenberg.org/files/7916/7916-h/7916-h.htm","application/epub+zip":"https://www.gutenberg.org/ebooks/7916.epub3.images","application/x-mobipocket-ebook":"https://www.gutenberg.org/ebooks/7916.kf8.images","text/plain; charset=us-ascii":"https://www.gutenberg.org/ebooks/7916.txt.utf-8","text/plain; charset=iso-8859-1":"https://www.gutenberg.org/files/7916/7916.txt","application/rdf+xml":"https://www.gutenberg.org/ebooks/7916.rdf","image/jpeg":"https://www.gutenberg.org/cache/epub/7916/pg7916.cover.medium.jpg","application/octet-stream":"https://www.gutenberg.org/cache/epub/7916/pg7916-h.zip"},"download_count":6},{"id":8236,"title":"The World English Bible (WEB): 1 Samuel","authors":[{"name":"Anonymous","birth_year":null,"death_year":null}],"translators":[],"subjects":["Bible. Samuel, 1st"],"bookshelves":[],"languages":["en"],"copyright":false,"media_type":"Text","formats":{"text/html":"https://www.gutenberg.org/ebooks/8236.html.images","application/epub+zip":"https://www.gutenberg.org/ebooks/8236.epub3.images","application/x-mobipocket-ebook":"https://www.gutenberg.org/ebooks/8236.kf8.images","text/plain; charset=us-ascii":"https://www.gutenberg.org/ebooks/8236.txt.utf-8","application/rdf+xml":"https://www.gutenberg.org/ebooks/8236.rdf","image/jpeg":"https://www.gutenberg.org/cache/epub/8236/pg8236.cover.medium.jpg","application/octet-stream":"https://www.gutenberg.org/cache/epub/8236/pg8236-h.zip"},"download_count":6},{"id":8339,"title":"The Bible, Douay-Rheims, Book 39: Nahum: The Challoner Revision","authors":[],"translators":[],"subjects":["Bible. Nahum"],"bookshelves":[],"languages":["en"],"copyright":false,"media_type":"Text","formats":{"text/html":"https://www.gutenberg.org/ebooks/8339.html.images","application/epub+zip":"https://www.gutenberg.org/ebooks/8339.epub3.images","application/x-mobipocket-ebook":"https://www.gutenberg.org/ebooks/8339.kf8.images","text/plain; charset=us-ascii":"https://www.gutenberg.org/ebooks/8339.txt.utf-8","application/rdf+xml":"https://www.gutenberg.org/ebooks/8339.rdf","image/jpeg":"https://www.gutenberg.org/cache/epub/8339/pg8339.cover.medium.jpg","application/octet-stream":"https://www.gutenberg.org/cache/epub/8339/pg8339-h.zip"},"download_count":6},{"id":8343,"title":"The Bible, Douay-Rheims, Book 43: Zacharias: The Challoner Revision","authors":[],"translators":[],"subjects":["Bible. Zechariah"],"bookshelves":[],"languages":["en"],"copyright":false,"media_type":"Text","formats":{"text/html":"https://www.gutenberg.org/ebooks/8343.html.images","application/epub+zip":"https://www.gutenberg.org/ebooks/8343.epub3.images","application/x-mobipocket-ebook":"https://www.gutenberg.org/ebooks/8343.kf8.images","text/plain; charset=us-ascii":"https://www.gutenberg.org/ebooks/8343.txt.utf-8","application/rdf+xml":"https://www.gutenberg.org/ebooks/8343.rdf","image/jpeg":"https://www.gutenberg.org/cache/epub/8343/pg8343.cover.medium.jpg","application/octet-stream":"https://www.gutenberg.org/cache/epub/8343/pg8343-h.zip"},"download_count":6},{"id":8365,"title":"The Bible, Douay-Rheims, Book 65: Hebrews: The Challoner Revision","authors":[],"translators":[],"subjects":["Bible. Hebrews"],"bookshelves":[],"languages":["en"],"copyright":false,"media_type":"Text","formats":{"text/html":"https://www.gutenberg.org/ebooks/8365.html.images","application/epub+zip":"https://www.gutenberg.org/ebooks/8365.epub3.images","application/x-mobipocket-ebook":"https://www.gutenberg.org/ebooks/8365.kf8.images","text/plain; charset=us-ascii":"https://www.gutenberg.org/ebooks/8365.txt.utf-8","application/rdf+xml":"https://www.gutenberg.org/ebooks/8365.rdf","image/jpeg":"https://www.gutenberg.org/cache/epub/8365/pg8365.cover.medium.jpg","application/octet-stream":"https://www.gutenberg.org/cache/epub/8365/pg8365-h.zip"},"download_count":6},{"id":9341,"title":"Chance: A Tale in Two Parts","authors":[{"name":"Conrad, Joseph","birth_year":1857,"death_year":1924}],"translators":[],"subjects":["Children of prisoners -- Fiction","Fathers and daughters -- Fiction","Love stories","Psychological fiction","Sea stories","Ship captains' spouses -- Fiction","Young women -- Fiction"],"bookshelves":[],"languages":["en"],"copyright":true,"media_type":"Sound","formats":{"text/plain; charset=us-ascii":"https://www.gutenberg.org/files/9341/9341-readme.txt","text/html; charset=iso-8859-1":"https://www.gutenberg.org/files/9341/9341-index.htm","audio/mpeg":"https://www.gutenberg.org/files/9341/mp3/9341-000.mp3","application/rdf+xml":"https://www.gutenberg.org/ebooks/9341.rdf","application/octet-stream":"https://www.gutenberg.org/files/9341/9341-mp3.zip"},"download_count":6},{"id":10242,"title":"Plaque No. 6: Exp. No. 27, Recorder #20","authors":[{"name":"Losey's Orchestra","birth_year":null,"death_year":null}],"translators":[],"subjects":["Sound -- Recording and reproducing"],"bookshelves":[],"languages":["en"],"copyright":false,"media_type":"Sound","formats":{"text/plain; charset=us-ascii":"https://www.gutenberg.org/files/10242/10242-m/10242-m-readme.txt","audio/mpeg":"https://www.gutenberg.org/files/10242/10242-m/10242-m-001.mp3","application/rdf+xml":"https://www.gutenberg.org/ebooks/10242.rdf"},"download_count":6},{"id":11778,"title":"Human Genome Project, Build 34, Chromosome Number 04","authors":[{"name":"Human Genome Project","birth_year":null,"death_year":null}],"translators":[],"subjects":["Nucleotide sequence"],"bookshelves":[],"languages":["en"],"copyright":false,"media_type":"Dataset","formats":{"text/plain":"https://www.gutenberg.org/files/11778/11778.zip","application/rdf+xml":"https://www.gutenberg.org/ebooks/11778.rdf"},"download_count":6},{"id":11781,"title":"Human Genome Project, Build 34, Chromosome Number 07","authors":[{"name":"Human Genome Project","birth_year":null,"death_year":null}],"translators":[],"subjects":["Nucleotide sequence"],"bookshelves":[],"languages":["en"],"copyright":false,"media_type":"Dataset","formats":{"text/plain":"https://www.gutenberg.org/files/11781/11781.zip","application/rdf+xml":"https://www.gutenberg.org/ebooks/11781.rdf"},"download_count":6},{"id":11791,"title":"Human Genome Project, Build 34, Chromosome Number 17","authors":[{"name":"Human Genome Project","birth_year":null,"death_year":null}],"translators":[],"subjects":["Nucleotide sequence"],"bookshelves":[],"languages":["en"],"copyright":false,"media_type":"Dataset","formats":{"text/plain":"https://www.gutenberg.org/files/11791/11791.zip","application/rdf+xml":"https://www.gutenberg.org/ebooks/11791.rdf"},"download_count":6},{"id":12690,"title":"The High School Pitcher; or, Dick & Co. on the Gridley Diamond","authors":[{"name":"Hancock, H. Irving (Harrie Irving)","birth_year":1868,"death_year":1922}],"translators":[],"subjects":["Baseball -- Juvenile fiction","School sports -- Juvenile fiction","Teenage boys -- Juvenile fiction"],"bookshelves":[],"languages":["en"],"copyright":false,"media_type":"Text","formats":{"text/html":"https://www.gutenberg.org/ebooks/12690.html.images","application/epub+zip":"https://www.gutenberg.org/ebooks/12690.epub3.images","application/x-mobipocket-ebook":"https://www.gutenberg.org/ebooks/12690.kf8.images","text/plain; charset=us-ascii":"https://www.gutenberg.org/ebooks/12690.txt.utf-8","application/rdf+xml":"https://www.gutenberg.org/ebooks/12690.rdf","image/jpeg":"https://www.gutenberg.org/cache/epub/12690/pg12690.cover.medium.jpg","application/octet-stream":"https://www.gutenberg.org/cache/epub/12690/pg12690-h.zip"},"download_count":6},{"id":12766,"title":"The Mirror of Literature, Amusement, and Instruction. Volume 17, No. 484, April 9, 1831","authors":[{"name":"Various","birth_year":null,"death_year":null}],"translators":[],"subjects":["Popular literature -- Great Britain -- Periodicals"],"bookshelves":["The Mirror of Literature, Amusement, and Instruction"],"languages":["en"],"copyright":false,"media_type":"Text","formats":{"text/html":"https://www.gutenberg.org/ebooks/12766.html.images","text/html; charset=iso-8859-1":"https://www.gutenberg.org/files/12766/12766-h/12766-h.htm","application/epub+zip":"https://www.gutenberg.org/ebooks/12766.epub3.images","application/x-mobipocket-ebook":"https://www.gutenberg.org/ebooks/12766.kf8.images","text/plain; charset=us-ascii":"https://www.gutenberg.org/ebooks/12766.txt.utf-8","text/plain; charset=iso-8859-1":"https://www.gutenberg.org/files/12766/12766-8.txt","application/rdf+xml":"https://www.gutenberg.org/ebooks/12766.rdf","image/jpeg":"https://www.gutenberg.org/cache/epub/12766/pg12766.cover.medium.jpg","application/octet-stream":"https://www.gutenberg.org/cache/epub/12766/pg12766-h.zip"},"download_count":6},{"id":13538,"title":"Punch, or the London Charivari, Volume 101, September 5, 1891","authors":[{"name":"Various","birth_year":null,"death_year":null}],"translators":[],"subjects":["English wit and humor -- Periodicals"],"bookshelves":["Punch"],"languages":["en"],"copyright":false,"media_type":"Text","formats":{"text/html":"https://www.gutenberg.org/ebooks/13538.html.images","text/html; charset=iso-8859-1":"https://www.gutenberg.org/files/13538/13538-h/13538-h.htm","application/epub+zip":"https://www.gutenberg.org/ebooks/13538.epub3.images","application/x-mobipocket-ebook":"https://www.gutenberg.org/ebooks/13538.kf8.images","text/plain; charset=us-ascii":"https://www.gutenberg.org/ebooks/13538.txt.utf-8","text/plain; charset=iso-8859-1":"https://www.gutenberg.org/files/13538/13538-8.txt","application/rdf+xml":"https://www.gutenberg.org/ebooks/13538.rdf","image/jpeg":"https://www.gutenberg.org/cache/epub/13538/pg13538.cover.medium.jpg","application/octet-stream":"https://www.gutenberg.org/cache/epub/13538/pg13538-h.zip"},"download_count":6},{"id":15142,"title":"Punch, or the London Charivari, Volume 103, August 13, 1892","authors":[{"name":"Various","birth_year":null,"death_year":null}],"translators":[],"subjects":["English wit and humor -- Periodicals"],"bookshelves":["Punch"],"languages":["en"],"copyright":false,"media_type":"Text","formats":{"text/html":"https://www.gutenberg.org/ebooks/15142.html.images","text/html; charset=iso-8859-1":"https://www.gutenberg.org/files/15142/15142-h/15142-h.htm","application/epub+zip":"https://www.gutenberg.org/ebooks/15142.epub3.images","application/x-mobipocket-ebook":"https://www.gutenberg.org/ebooks/15142.kf8.images","text/plain; charset=us-ascii":"https://www.gutenberg.org/ebooks/15142.txt.utf-8","text/plain; charset=iso-8859-1":"https://www.gutenberg.org/files/15142/15142-8.txt","application/rdf+xml":"https://www.gutenberg.org/ebooks/15142.rdf","image/jpeg":"https://www.gutenberg.org/cache/epub/15142/pg15142.cover.medium.jpg","application/octet-stream":"https://www.gutenberg.org/cache/epub/15142/pg15142-h.zip"},"download_count":6},{"id":18988,"title":"The first of April; $b or, The triumphs of folly: A poem dedicated to a celebrated duchess. By the author of The Diaboliad.","authors":[{"name":"Combe, William","birth_year":1742,"death_year":1823}],"translators":[],"subjects":["English poetry -- 18th century"],"bookshelves":[],"languages":["en"],"copyright":false,"media_type":"Text","formats":{"text/html":"https://www.gutenberg.org/ebooks/18988.html.images","text/html; charset=iso-8859-1":"https://www.gutenberg.org/files/18988/18988-h/18988-h.htm","application/epub+zip":"https://www.gutenberg.org/ebooks/18988.epub3.images","application/x-mobipocket-ebook":"https://www.gutenberg.org/ebooks/18988.kf8.images","text/plain; charset=us-ascii":"https://www.gutenberg.org/ebooks/18988.txt.utf-8","application/rdf+xml":"https://www.gutenberg.org/ebooks/18988.rdf","image/jpeg":"https://www.gutenberg.org/cache/epub/18988/pg18988.cover.medium.jpg","application/octet-stream":"https://www.gutenberg.org/cache/epub/18988/pg18988-h.zip"},"download_count":6},{"id":36097,"title":"New York","authors":[{"name":"Cooper, James Fenimore","birth_year":1789,"death_year":1851}],"translators":[],"subjects":["New York (N.Y.)"],"bookshelves":[],"languages":["en"],"copyright":true,"media_type":"Sound","formats":{"text/plain; charset=us-ascii":"https://www.gutenberg.org/files/36097/36097-readme.txt","text/html; charset=iso-8859-1":"https://www.gutenberg.org/files/36097/36097-index.htm","audio/mpeg":"https://www.gutenberg.org/files/36097/mp3/36097-00.mp3","application/rdf+xml":"https://www.gutenberg.org/ebooks/36097.rdf","application/octet-stream":"https://www.gutenberg.org/files/36097/36097-mp3.zip"},"download_count":6},{"id":39202,"title":"Ever Heard This? Over Three Hundred Good Stories","authors":[{"name":"Chambers, F. W.","birth_year":null,"death_year":null}],"translators":[],"subjects":["English wit and humor"],"bookshelves":[],"languages":["en"],"copyright":false,"media_type":"Text","formats":{"text/html":"https://www.gutenberg.org/ebooks/39202.html.images","text/html; charset=utf-8":"https://www.gutenberg.org/files/39202/39202-h/39202-h.html","application/epub+zip":"https://www.gutenberg.org/ebooks/39202.epub3.images","application/pdf":"https://www.gutenberg.org/ebooks/39202.pdf.images","application/x-mobipocket-ebook":"https://www.gutenberg.org/ebooks/39202.kf8.images","text/plain; charset=us-ascii":"https://www.gutenberg.org/ebooks/39202.txt.utf-8","text/plain; charset=utf-8":"https://www.gutenberg.org/files/39202/39202-0.txt","text/plain; charset=iso-8859-1":"https://www.gutenberg.org/files/39202/39202-8.txt","application/rdf+xml":"https://www.gutenberg.org/ebooks/39202.rdf","text/x-rst":"https://www.gutenberg.org/ebooks/39202.rst.gen","image/jpeg":"https://www.gutenberg.org/cache/epub/39202/pg39202.cover.medium.jpg","application/octet-stream":"https://www.gutenberg.org/cache/epub/39202/pg39202-h.zip"},"download_count":6},{"id":45342,"title":"Punch or the London Charivari, Vol. 148, January 27, 1915","authors":[{"name":"Various","birth_year":null,"death_year":null}],"translators":[],"subjects":["English wit and humor -- Periodicals"],"bookshelves":[],"languages":["en"],"copyright":false,"media_type":"Text","formats":{"text/html":"https://www.gutenberg.org/ebooks/45342.html.images","text/html; charset=iso-8859-1":"https://www.gutenberg.org/files/45342/45342-h/45342-h.htm","application/epub+zip":"https://www.gutenberg.org/ebooks/45342.epub3.images","application/x-mobipocket-ebook":"https://www.gutenberg.org/ebooks/45342.kf8.images","text/plain; charset=us-ascii":"https://www.gutenberg.org/ebooks/45342.txt.utf-8","text/plain; charset=iso-8859-1":"https://www.gutenberg.org/files/45342/45342-8.txt","application/rdf+xml":"https://www.gutenberg.org/ebooks/45342.rdf","image/jpeg":"https://www.gutenberg.org/cache/epub/45342/pg45342.cover.medium.jpg","application/octet-stream":"https://www.gutenberg.org/cache/epub/45342/pg45342-h.zip"},"download_count":6},{"id":52863,"title":"The New Sunday Liquor Law Vindicated","authors":[{"name":"Ritchie, J. Ewing (James Ewing)","birth_year":1820,"death_year":1898}],"translators":[],"subjects":["Liquor laws -- Great Britain","Sunday"],"bookshelves":[],"languages":["en"],"copyright":false,"media_type":"Text","formats":{"text/html":"https://www.gutenberg.org/ebooks/52863.html.images","application/epub+zip":"https://www.gutenberg.org/ebooks/52863.epub3.images","application/x-mobipocket-ebook":"https://www.gutenberg.org/ebooks/52863.kf8.images","text/plain; charset=us-ascii":"https://www.gutenberg.org/ebooks/52863.txt.utf-8","text/plain; charset=utf-8":"https://www.gutenberg.org/files/52863/52863-0.txt","application/rdf+xml":"https://www.gutenberg.org/ebooks/52863.rdf","image/jpeg":"https://www.gutenberg.org/cache/epub/52863/pg52863.cover.medium.jpg","application/octet-stream":"https://www.gutenberg.org/cache/epub/52863/pg52863-h.zip"},"download_count":6},{"id":53803,"title":"Report of a special committee of the City Council, on the improvement of the Fire Department: and also, on the best means of obtaining an additional supply of water for fire purposes, for the city of Halifax, N.S.","authors":[{"name":"Halifax (N.S.). City Council. Special Committee on the Improvement of the Fire Department","birth_year":null,"death_year":null}],"translators":[],"subjects":["Fire-departments -- Nova Scotia -- Halifax","Water-supply -- Nova Scotia -- Halifax"],"bookshelves":[],"languages":["en"],"copyright":false,"media_type":"Text","formats":{"text/html":"https://www.gutenberg.org/ebooks/53803.html.images","text/html; charset=utf-8":"https://www.gutenberg.org/files/53803/53803-h/53803-h.htm","application/epub+zip":"https://www.gutenberg.org/ebooks/53803.epub3.images","application/x-mobipocket-ebook":"https://www.gutenberg.org/ebooks/53803.kf8.images","text/plain; charset=us-ascii":"https://www.gutenberg.org/ebooks/53803.txt.utf-8","text/plain; charset=utf-8":"https://www.gutenberg.org/files/53803/53803-0.txt","application/rdf+xml":"https://www.gutenberg.org/ebooks/53803.rdf","image/jpeg":"https://www.gutenberg.org/cache/epub/53803/pg53803.cover.medium.jpg","application/octet-stream":"https://www.gutenberg.org/cache/epub/53803/pg53803-h.zip"},"download_count":6},{"id":54416,"title":"The Irish Penny Journal, Vol. 1 No. 22, November 28, 1840","authors":[{"name":"Various","birth_year":null,"death_year":null}],"translators":[],"subjects":["Ireland -- Periodicals"],"bookshelves":[],"languages":["en"],"copyright":false,"media_type":"Text","formats":{"text/html":"https://www.gutenberg.org/ebooks/54416.html.images","text/html; charset=utf-8":"https://www.gutenberg.org/files/54416/54416-h/54416-h.htm","application/epub+zip":"https://www.gutenberg.org/ebooks/54416.epub3.images","application/x-mobipocket-ebook":"https://www.gutenberg.org/ebooks/54416.kf8.images","text/plain; charset=us-ascii":"https://www.gutenberg.org/ebooks/54416.txt.utf-8","text/plain; charset=utf-8":"https://www.gutenberg.org/files/54416/54416-0.txt","application/rdf+xml":"https://www.gutenberg.org/ebooks/54416.rdf","image/jpeg":"https://www.gutenberg.org/cache/epub/54416/pg54416.cover.medium.jpg","application/octet-stream":"https://www.gutenberg.org/cache/epub/54416/pg54416-h.zip"},"download_count":6},{"id":67105,"title":"The Animals' Christmas Tree","authors":[{"name":"Peters, John P. (John Punnett)","birth_year":1852,"death_year":1921}],"translators":[],"subjects":["Animals -- Juvenile fiction","Christmas stories","Conflict management -- Juvenile fiction","Peace -- Juvenile fiction"],"bookshelves":[],"languages":["en"],"copyright":false,"media_type":"Text","formats":{"text/html":"https://www.gutenberg.org/ebooks/67105.html.images","application/epub+zip":"https://www.gutenberg.org/ebooks/67105.epub3.images","application/x-mobipocket-ebook":"https://www.gutenberg.org/ebooks/67105.kf8.images","text/plain; charset=us-ascii":"https://www.gutenberg.org/ebooks/67105.txt.utf-8","application/rdf+xml":"https://www.gutenberg.org/ebooks/67105.rdf","image/jpeg":"https://www.gutenberg.org/cache/epub/67105/pg67105.cover.medium.jpg","application/octet-stream":"https://www.gutenberg.org/files/67105/67105-0.zip"},"download_count":6},{"id":68211,"title":"Gold and glory; or, Wild ways of other days, a tale of early American discovery","authors":[{"name":"Stebbing, Grace","birth_year":1840,"death_year":1936}],"translators":[],"subjects":["Mexico -- History -- Conquest, 1519-1540 -- Fiction"],"bookshelves":[],"languages":["en"],"copyright":false,"media_type":"Text","formats":{"text/html":"https://www.gutenberg.org/ebooks/68211.html.images","application/epub+zip":"https://www.gutenberg.org/ebooks/68211.epub3.images","application/x-mobipocket-ebook":"https://www.gutenberg.org/ebooks/68211.kf8.images","text/plain; charset=us-ascii":"https://www.gutenberg.org/ebooks/68211.txt.utf-8","application/rdf+xml":"https://www.gutenberg.org/ebooks/68211.rdf","image/jpeg":"https://www.gutenberg.org/cache/epub/68211/pg68211.cover.medium.jpg","application/octet-stream":"https://www.gutenberg.org/files/68211/68211-0.zip"},"download_count":6},{"id":69513,"title":"The aneroid barometer: its construction and use","authors":[{"name":"Plympton, George W. (George Washington)","birth_year":1827,"death_year":1907}],"translators":[],"subjects":["Aneroid barometers"],"bookshelves":[],"languages":["en"],"copyright":false,"media_type":"Text","formats":{"text/html":"https://www.gutenberg.org/ebooks/69513.html.images","application/epub+zip":"https://www.gutenberg.org/ebooks/69513.epub3.images","application/x-mobipocket-ebook":"https://www.gutenberg.org/ebooks/69513.kf8.images","application/rdf+xml":"https://www.gutenberg.org/ebooks/69513.rdf","image/jpeg":"https://www.gutenberg.org/cache/epub/69513/pg69513.cover.medium.jpg","application/octet-stream":"https://www.gutenberg.org/cache/epub/69513/pg69513-h.zip"},"download_count":6},{"id":69976,"title":"All about Little Boy Blue","authors":[{"name":"Sterne, Emma Gelders","birth_year":1894,"death_year":1971}],"translators":[],"subjects":["Boys -- Juvenile fiction","Fairies -- Juvenile fiction","Farm life -- Juvenile fiction"],"bookshelves":[],"languages":["en"],"copyright":false,"media_type":"Text","formats":{"text/html":"https://www.gutenberg.org/ebooks/69976.html.images","application/epub+zip":"https://www.gutenberg.org/ebooks/69976.epub3.images","application/x-mobipocket-ebook":"https://www.gutenberg.org/ebooks/69976.kf8.images","text/plain; charset=us-ascii":"https://www.gutenberg.org/ebooks/69976.txt.utf-8","application/rdf+xml":"https://www.gutenberg.org/ebooks/69976.rdf","image/jpeg":"https://www.gutenberg.org/cache/epub/69976/pg69976.cover.medium.jpg","application/octet-stream":"https://www.gutenberg.org/files/69976/69976-0.zip"},"download_count":6}]}