{"count":58808,"next":"http://129.241.150.113:8000/books/?languages=en&page=1127","previous":"http://129.241.150.113:8000/books/?languages=en&page=1125","results":[{"id":68334,"title":"Best laid schemes","authors":[{"name":"Nicholson, Meredith","birth_year":1866,"death_year":1947}],"translators":[],"subjects":["American fiction -- 20th century","Short stories, American"],"bookshelves":[],"languages":["en"],"copyright":false,"media_type":"Text","formats":{"text/html":"https://www.gutenberg.org/ebooks/68334.html.images","application/epub+zip":"https://www.gutenberg.org/ebooks/68334.epub3.images","application/x-mobipocket-ebook":"https://www.gutenberg.org/ebooks/68334.kf8.images","text/plain; charset=us-ascii":"https://www.gutenberg.org/ebooks/68334.txt.utf-8","application/rdf+xml":"https://www.gutenberg.org/ebooks/68334.rdf","image/jpeg":"https://www.gutenberg.org/cache/epub/68334/pg68334.cover.medium.jpg","application/octet-stream":"https://www.gutenberg.org/files/68334/68334-0.zip"},"download_count":33},{"id":68371,"title":"The luckless trapper; or, The haunted hunter","authors":[{"name":"Eyster, William R. (William Reynolds)","birth_year":1841,"death_year":1918}],"translators":[],"subjects":["African Americans -- Fiction","Apparitions -- Fiction","Hunters -- Fiction","Indians of North America -- Fiction","Missing persons -- Investigation -- Fiction","Northwestern States -- Fiction","Trappers -- Fiction","Triangles (Interpersonal relations) -- Fiction"],"bookshelves":[],"languages":["en"],"copyright":false,"media_type":"Text","formats":{"text/html":"https://www.gutenberg.org/ebooks/68371.html.images","application/epub+zip":"https://www.gutenberg.org/ebooks/68371.epub3.images","application/x-mobipocket-ebook":"https://www.gutenberg.org/ebooks/68371.kf8.images","text/plain; charset=us-ascii":"https://www.gutenberg.org/ebooks/68371.txt.utf-8","application/rdf+xml":"https://www.gutenberg.org/ebooks/68371.rdf","image/jpeg":"https://www.gutenberg.org/cache/epub/68371/pg68371.cover.medium.jpg","application/octet-stream":"https://www.gutenberg.org/files/68371/68371-0.zip"},"download_count":33},{"id":68383,"title":"The Philistine : $b a periodical of protest (Vol. I, No. 3, August 1895)","authors":[{"name":"Various","birth_year":null,"death_year":null}],"translators":[],"subjects":["American literature -- Periodicals","American periodicals","Society of the Philistines (East Aurora, N.Y.) -- Periodicals"],"bookshelves":[],"languages":["en"],"copyright":false,"media_type":"Text","formats":{"text/html":"https://www.gutenberg.org/ebooks/68383.html.images","application/epub+zip":"https://www.gutenberg.org/ebooks/68383.epub3.images","application/x-mobipocket-ebook":"https://www.gutenberg.org/ebooks/68383.kf8.images","text/plain; charset=us-ascii":"https://www.gutenberg.org/ebooks/68383.txt.utf-8","application/rdf+xml":"https://www.gutenberg.org/ebooks/68383.rdf","image/jpeg":"https://www.gutenberg.org/cache/epub/68383/pg68383.cover.medium.jpg","application/octet-stream":"https://www.gutenberg.org/files/68383/68383-0.zip"},"download_count":33},{"id":68426,"title":"Two fares east","authors":[{"name":"Tuttle, W. C. (Wilbur C.)","birth_year":1883,"death_year":1969}],"translators":[],"subjects":["Hartley, Hashknife (Fictitious character) -- Fiction","Stevens, Sleepy (Fictitious character) -- Fiction","Western stories"],"bookshelves":[],"languages":["en"],"copyright":false,"media_type":"Text","formats":{"text/html":"https://www.gutenberg.org/ebooks/68426.html.images","application/epub+zip":"https://www.gutenberg.org/ebooks/68426.epub3.images","application/x-mobipocket-ebook":"https://www.gutenberg.org/ebooks/68426.kf8.images","text/plain; charset=us-ascii":"https://www.gutenberg.org/ebooks/68426.txt.utf-8","application/rdf+xml":"https://www.gutenberg.org/ebooks/68426.rdf","image/jpeg":"https://www.gutenberg.org/cache/epub/68426/pg68426.cover.medium.jpg","application/octet-stream":"https://www.gutenberg.org/files/68426/68426-0.zip"},"download_count":33},{"id":68477,"title":"Quest to Centaurus","authors":[{"name":"Smith, George O. (George Oliver)","birth_year":1911,"death_year":1981}],"translators":[],"subjects":["Graffiti -- Fiction","Interstellar travel -- Fiction","Science fiction"],"bookshelves":[],"languages":["en"],"copyright":false,"media_type":"Text","formats":{"text/html":"https://www.gutenberg.org/ebooks/68477.html.images","application/epub+zip":"https://www.gutenberg.org/ebooks/68477.epub3.images","application/x-mobipocket-ebook":"https://www.gutenberg.org/ebooks/68477.kf8.images","text/plain; charset=us-ascii":"https://www.gutenberg.org/ebooks/68477.txt.utf-8","application/rdf+xml":"https://www.gutenberg.org/ebooks/68477.rdf","image/jpeg":"https://www.gutenberg.org/cache/epub/68477/pg68477.cover.medium.jpg","application/octet-stream":"https://www.gutenberg.org/files/68477/68477-0.zip"},"download_count":33},{"id":68620,"title":"The philatelic index: being an alphabetical list of the principal articles contained in a selection of some of the best known philatelic magazines in the English language up to the end of 1904","authors":[{"name":"Long, William A. R. Jex","birth_year":null,"death_year":null}],"translators":[],"subjects":["Postage stamps -- Indexes"],"bookshelves":[],"languages":["en"],"copyright":false,"media_type":"Text","formats":{"text/html":"https://www.gutenberg.org/ebooks/68620.html.images","application/epub+zip":"https://www.gutenberg.org/ebooks/68620.epub3.images","application/x-mobipocket-ebook":"https://www.gutenberg.org/ebooks/68620.kf8.images","text/plain; charset=us-ascii":"https://www.gutenberg.org/ebooks/68620.txt.utf-8","application/rdf+xml":"https://www.gutenberg.org/ebooks/68620.rdf","image/jpeg":"https://www.gutenberg.org/cache/epub/68620/pg68620.cover.medium.jpg","application/octet-stream":"https://www.gutenberg.org/files/68620/68620-0.zip"},"download_count":33},{"id":68681,"title":"The cross word puzzle book: Second series","authors":[],"translators":[],"subjects":["Crossword puzzles","Puzzles"],"bookshelves":[],"languages":["en"],"copyright":false,"media_type":"Text","formats":{"text/html":"https://www.gutenberg.org/ebooks/68681.html.images","application/epub+zip":"https://www.gutenberg.org/ebooks/68681.epub3.images","application/x-mobipocket-ebook":"https://www.gutenberg.org/ebooks/68681.kf8.images","text/plain; charset=us-ascii":"https://www.gutenberg.org/ebooks/68681.txt.utf-8","application/rdf+xml":"https://www.gutenberg.org/ebooks/68681.rdf","image/jpeg":"https://www.gutenberg.org/cache/epub/68681/pg68681.cover.medium.jpg","application/octet-stream":"https://www.gutenberg.org/files/68681/68681-0.zip"},"download_count":33},{"id":68759,"title":"The economic position of women","authors":[{"name":"Academy of Political Science in the City of New York","birth_year":null,"death_year":null}],"translators":[],"subjects":["Women -- Employment -- United States","Women -- United States -- Economic conditions"],"bookshelves":[],"languages":["en"],"copyright":false,"media_type":"Text","formats":{"text/html":"https://www.gutenberg.org/ebooks/68759.html.images","application/epub+zip":"https://www.gutenberg.org/ebooks/68759.epub3.images","application/x-mobipocket-ebook":"https://www.gutenberg.org/ebooks/68759.kf8.images","text/plain; charset=us-ascii":"https://www.gutenberg.org/ebooks/68759.txt.utf-8","application/rdf+xml":"https://www.gutenberg.org/ebooks/68759.rdf","image/jpeg":"https://www.gutenberg.org/cache/epub/68759/pg68759.cover.medium.jpg","application/octet-stream":"https://www.gutenberg.org/files/68759/68759-0.zip"},"download_count":33},{"id":69156,"title":"Observations on the slave trade and a description of some part of the coast of Guinea, during a voyage, made in 1787, and 1788, in company with Doctor A. Sparrman and Captain Arrehenius","authors":[{"name":"Wadström, Carl Bernhard","birth_year":1746,"death_year":1799}],"translators":[],"subjects":["Guinea -- Description and travel -- Early works to 1800","Slave trade -- Africa, West -- Early works to 1800"],"bookshelves":[],"languages":["en"],"copyright":false,"media_type":"Text","formats":{"text/html":"https://www.gutenberg.org/ebooks/69156.html.images","application/epub+zip":"https://www.gutenberg.org/ebooks/69156.epub3.images","application/x-mobipocket-ebook":"https://www.gutenberg.org/ebooks/69156.kf8.images","text/plain; charset=us-ascii":"https://www.gutenberg.org/ebooks/69156.txt.utf-8","application/rdf+xml":"https://www.gutenberg.org/ebooks/69156.rdf","image/jpeg":"https://www.gutenberg.org/cache/epub/69156/pg69156.cover.medium.jpg","application/octet-stream":"https://www.gutenberg.org/files/69156/69156-0.zip"},"download_count":33},{"id":69186,"title":"The narcotic drug problem","authors":[{"name":"Bishop, Ernest S. (Ernest Simons)","birth_year":1876,"death_year":1927}],"translators":[],"subjects":["Drug addiction"],"bookshelves":[],"languages":["en"],"copyright":false,"media_type":"Text","formats":{"text/html":"https://www.gutenberg.org/ebooks/69186.html.images","application/epub+zip":"https://www.gutenberg.org/ebooks/69186.epub3.images","application/x-mobipocket-ebook":"https://www.gutenberg.org/ebooks/69186.kf8.images","text/plain; charset=us-ascii":"https://www.gutenberg.org/ebooks/69186.txt.utf-8","application/rdf+xml":"https://www.gutenberg.org/ebooks/69186.rdf","image/jpeg":"https://www.gutenberg.org/cache/epub/69186/pg69186.cover.medium.jpg","application/octet-stream":"https://www.gutenberg.org/files/69186/69186-0.zip"},"download_count":33},{"id":69223,"title":"Queer little people","authors":[{"name":"Stowe, Harriet Beecher","birth_year":1811,"death_year":1896}],"translators":[],"subjects":["Animals -- Juvenile fiction","Children's stories, American"],"bookshelves":[],"languages":["en"],"copyright":false,"media_type":"Text","formats":{"text/html":"https://www.gutenberg.org/ebooks/69223.html.images","application/epub+zip":"https://www.gutenberg.org/ebooks/69223.epub3.images","application/x-mobipocket-ebook":"https://www.gutenberg.org/ebooks/69223.kf8.images","text/plain; charset=us-ascii":"https://www.gutenberg.org/ebooks/69223.txt.utf-8","application/rdf+xml":"https://www.gutenberg.org/ebooks/69223.rdf","image/jpeg":"https://www.gutenberg.org/cache/epub/69223/pg69223.cover.medium.jpg","application/octet-stream":"https://www.gutenberg.org/files/69223/69223-0.zip"},"download_count":33},{"id":69317,"title":"The Radio Girls on Station Island: The wireless from the steam yacht","authors":[{"name":"Penrose, Margaret","birth_year":null,"death_year":null}],"translators":[],"subjects":["Friendship -- Juvenile fiction","Islands -- Juvenile fiction","Mystery and detective stories","Right of property -- Juvenile fiction","Telegraph, Wireless -- Juvenile fiction","Yachts -- Juvenile fiction"],"bookshelves":[],"languages":["en"],"copyright":false,"media_type":"Text","formats":{"text/html":"https://www.gutenberg.org/ebooks/69317.html.images","application/epub+zip":"https://www.gutenberg.org/ebooks/69317.epub3.images","application/x-mobipocket-ebook":"https://www.gutenberg.org/ebooks/69317.kf8.images","text/plain; charset=us-ascii":"https://www.gutenberg.org/ebooks/69317.txt.utf-8","application/rdf+xml":"https://www.gutenberg.org/ebooks/69317.rdf","image/jpeg":"https://www.gutenberg.org/cache/epub/69317/pg69317.cover.medium.jpg","application/octet-stream":"https://www.gutenberg.org/files/69317/69317-0.zip"},"download_count":33},{"id":69345,"title":"The mother's book","authors":[{"name":"Child, Lydia Maria","birth_year":1802,"death_year":1880}],"translators":[],"subjects":["Child rearing","Children -- Conduct of life","Mother and child"],"bookshelves":[],"languages":["en"],"copyright":false,"media_type":"Text","formats":{"text/html":"https://www.gutenberg.org/ebooks/69345.html.images","application/epub+zip":"https://www.gutenberg.org/ebooks/69345.epub3.images","application/x-mobipocket-ebook":"https://www.gutenberg.org/ebooks/69345.kf8.images","text/plain; charset=us-ascii":"https://www.gutenberg.org/ebooks/69345.txt.utf-8","application/rdf+xml":"https://www.gutenberg.org/ebooks/69345.rdf","image/jpeg":"https://www.gutenberg.org/cache/epub/69345/pg69345.cover.medium.jpg","application/octet-stream":"https://www.gutenberg.org/files/69345/69345-0.zip"},"download_count":33},{"id":69350,"title":"The vanishers","authors":[{"name":"Burks, Arthur J.","birth_year":1898,"death_year":1974}],"translators":[],"subjects":["Marines -- Fiction","Science fiction"],"bookshelves":[],"languages":["en"],"copyright":false,"media_type":"Text","formats":{"text/html":"https://www.gutenberg.org/ebooks/69350.html.images","application/epub+zip":"https://www.gutenberg.org/ebooks/69350.epub3.images","application/x-mobipocket-ebook":"https://www.gutenberg.org/ebooks/69350.kf8.images","text/plain; charset=us-ascii":"https://www.gutenberg.org/ebooks/69350.txt.utf-8","application/rdf+xml":"https://www.gutenberg.org/ebooks/69350.rdf","image/jpeg":"https://www.gutenberg.org/cache/epub/69350/pg69350.cover.medium.jpg","application/octet-stream":"https://www.gutenberg.org/files/69350/69350-0.zip"},"download_count":33},{"id":69352,"title":"The X Bar X boys on Whirlpool River","authors":[{"name":"Ferris, James Cody","birth_year":null,"death_year":null}],"translators":[],"subjects":["Cattle stealing -- Juvenile fiction","Cowboys -- Juvenile fiction","Ranch life -- Juvenile fiction","Western stories"],"bookshelves":[],"languages":["en"],"copyright":false,"media_type":"Text","formats":{"text/html":"https://www.gutenberg.org/ebooks/69352.html.images","application/epub+zip":"https://www.gutenberg.org/ebooks/69352.epub3.images","application/x-mobipocket-ebook":"https://www.gutenberg.org/ebooks/69352.kf8.images","text/plain; charset=us-ascii":"https://www.gutenberg.org/ebooks/69352.txt.utf-8","application/rdf+xml":"https://www.gutenberg.org/ebooks/69352.rdf","image/jpeg":"https://www.gutenberg.org/cache/epub/69352/pg69352.cover.medium.jpg","application/octet-stream":"https://www.gutenberg.org/files/69352/69352-0.zip"},"download_count":33},{"id":69386,"title":"Origin of modern calculating machines","authors":[{"name":"Turck, J. A. V.","birth_year":null,"death_year":null}],"translators":[],"subjects":["Calculators"],"bookshelves":[],"languages":["en"],"copyright":false,"media_type":"Text","formats":{"text/html":"https://www.gutenberg.org/ebooks/69386.html.images","application/epub+zip":"https://www.gutenberg.org/ebooks/69386.epub3.images","application/x-mobipocket-ebook":"https://www.gutenberg.org/ebooks/69386.kf8.images","text/plain; charset=us-ascii":"https://www.gutenberg.org/ebooks/69386.txt.utf-8","application/rdf+xml":"https://www.gutenberg.org/ebooks/69386.rdf","image/jpeg":"https://www.gutenberg.org/cache/epub/69386/pg69386.cover.medium.jpg","application/octet-stream":"https://www.gutenberg.org/files/69386/69386-0.zip"},"download_count":33},{"id":69553,"title":"Feudal tyrants; or, The Counts of Carlsheim and Sargans, volume 1 (of 4)","authors":[{"name":"Naubert, Benedikte","birth_year":1756,"death_year":1819}],"translators":[{"name":"Lewis, M. G. (Matthew Gregory)","birth_year":1775,"death_year":1818}],"subjects":["German fiction -- Translations into English"],"bookshelves":[],"languages":["en"],"copyright":false,"media_type":"Text","formats":{"text/html":"https://www.gutenberg.org/ebooks/69553.html.images","application/epub+zip":"https://www.gutenberg.org/ebooks/69553.epub3.images","application/x-mobipocket-ebook":"https://www.gutenberg.org/ebooks/69553.kf8.images","text/plain; charset=us-ascii":"https://www.gutenberg.org/ebooks/69553.txt.utf-8","application/rdf+xml":"https://www.gutenberg.org/ebooks/69553.rdf","image/jpeg":"https://www.gutenberg.org/cache/epub/69553/pg69553.cover.medium.jpg","application/octet-stream":"https://www.gutenberg.org/files/69553/69553-0.zip"},"download_count":33},{"id":69556,"title":"Golden rules of medical evidence","authors":[{"name":"Atkinson, Stanley B. (Stanley Bean)","birth_year":null,"death_year":null}],"translators":[],"subjects":["Medical jurisprudence"],"bookshelves":[],"languages":["en"],"copyright":false,"media_type":"Text","formats":{"text/html":"https://www.gutenberg.org/ebooks/69556.html.images","application/epub+zip":"https://www.gutenberg.org/ebooks/69556.epub3.images","application/x-mobipocket-ebook":"https://www.gutenberg.org/ebooks/69556.kf8.images","text/plain; charset=us-ascii":"https://www.gutenberg.org/ebooks/69556.txt.utf-8","application/rdf+xml":"https://www.gutenberg.org/ebooks/69556.rdf","image/jpeg":"https://www.gutenberg.org/cache/epub/69556/pg69556.cover.medium.jpg","application/octet-stream":"https://www.gutenberg.org/files/69556/69556-0.zip"},"download_count":33},{"id":69562,"title":"Gas and flame in modern warfare","authors":[{"name":"Auld, Samuel James Manson","birth_year":1882,"death_year":null}],"translators":[],"subjects":["Chemical warfare","Flame throwers","Gases, Asphyxiating and poisonous -- War use"],"bookshelves":[],"languages":["en"],"copyright":false,"media_type":"Text","formats":{"text/html":"https://www.gutenberg.org/ebooks/69562.html.images","application/epub+zip":"https://www.gutenberg.org/ebooks/69562.epub3.images","application/x-mobipocket-ebook":"https://www.gutenberg.org/ebooks/69562.kf8.images","text/plain; charset=us-ascii":"https://www.gutenberg.org/ebooks/69562.txt.utf-8","application/rdf+xml":"https://www.gutenberg.org/ebooks/69562.rdf","image/jpeg":"https://www.gutenberg.org/cache/epub/69562/pg69562.cover.medium.jpg","application/octet-stream":"https://www.gutenberg.org/files/69562/69562-0.zip"},"download_count":33},{"id":69692,"title":"Frederick Douglass","authors":[{"name":"Washington, Booker T.","birth_year":1856,"death_year":1915}],"translators":[],"subjects":["Abolitionists -- United States -- Biography","African American abolitionists -- Biography","Antislavery movements -- United States -- History -- 19th century","Douglass, Frederick, 1818-1895","United States -- Race relations -- History -- 19th century"],"bookshelves":[],"languages":["en"],"copyright":false,"media_type":"Text","formats":{"text/html":"https://www.gutenberg.org/ebooks/69692.html.images","application/epub+zip":"https://www.gutenberg.org/ebooks/69692.epub3.images","application/x-mobipocket-ebook":"https://www.gutenberg.org/ebooks/69692.kf8.images","text/plain; charset=us-ascii":"https://www.gutenberg.org/ebooks/69692.txt.utf-8","application/rdf+xml":"https://www.gutenberg.org/ebooks/69692.rdf","image/jpeg":"https://www.gutenberg.org/cache/epub/69692/pg69692.cover.medium.jpg","application/octet-stream":"https://www.gutenberg.org/files/69692/69692-0.zip"},"download_count":33},{"id":69813,"title":"Go she must!","authors":[{"name":"Garnett, David","birth_year":1892,"death_year":1981}],"translators":[],"subjects":["British -- France -- Paris -- Fiction","Children of clergy -- Fiction","Fathers and daughters -- Fiction","Man-woman relationships -- Fiction","Villages -- England -- Fiction","Young women -- Fiction"],"bookshelves":[],"languages":["en"],"copyright":false,"media_type":"Text","formats":{"text/html":"https://www.gutenberg.org/ebooks/69813.html.images","application/epub+zip":"https://www.gutenberg.org/ebooks/69813.epub3.images","application/x-mobipocket-ebook":"https://www.gutenberg.org/ebooks/69813.kf8.images","text/plain; charset=us-ascii":"https://www.gutenberg.org/ebooks/69813.txt.utf-8","application/rdf+xml":"https://www.gutenberg.org/ebooks/69813.rdf","image/jpeg":"https://www.gutenberg.org/cache/epub/69813/pg69813.cover.medium.jpg","application/octet-stream":"https://www.gutenberg.org/files/69813/69813-0.zip"},"download_count":33},{"id":69832,"title":"A history of the mathematical theories of attraction and the figure of the earth from the time of Newton to that of Laplace. Volume 2","authors":[{"name":"Todhunter, I. (Isaac)","birth_year":1820,"death_year":1884}],"translators":[],"subjects":["Attractions of ellipsoids","Earth (Planet) -- Figure","Rotating masses of fluid"],"bookshelves":[],"languages":["en"],"copyright":false,"media_type":"Text","formats":{"application/pdf":"https://www.gutenberg.org/files/69832/69832-p/69832.pdf","application/rdf+xml":"https://www.gutenberg.org/ebooks/69832.rdf","application/prs.tex":"https://www.gutenberg.org/files/69832/69832-t/69832.tex","image/jpeg":"https://www.gutenberg.org/cache/epub/69832/pg69832.cover.medium.jpg"},"download_count":33},{"id":69837,"title":"An index finger","authors":[{"name":"Abrojal, Tulis","birth_year":null,"death_year":null}],"translators":[],"subjects":["Interpersonal relations -- Fiction","Spiritualism -- Fiction","United States -- Social life and customs -- 19th century -- Fiction"],"bookshelves":[],"languages":["en"],"copyright":false,"media_type":"Text","formats":{"text/html":"https://www.gutenberg.org/ebooks/69837.html.images","application/epub+zip":"https://www.gutenberg.org/ebooks/69837.epub3.images","application/x-mobipocket-ebook":"https://www.gutenberg.org/ebooks/69837.kf8.images","text/plain; charset=us-ascii":"https://www.gutenberg.org/ebooks/69837.txt.utf-8","application/rdf+xml":"https://www.gutenberg.org/ebooks/69837.rdf","image/jpeg":"https://www.gutenberg.org/cache/epub/69837/pg69837.cover.medium.jpg","application/octet-stream":"https://www.gutenberg.org/files/69837/69837-0.zip"},"download_count":33},{"id":69906,"title":"Through lands that were dark: Being a record of a year's missionary journey in Africa and Madagascar","authors":[{"name":"Hawkins, F. H.","birth_year":null,"death_year":null}],"translators":[],"subjects":["London Missionary Society -- History","Missions -- Madagascar","Missions -- South Africa","Missions -- Zambia"],"bookshelves":[],"languages":["en"],"copyright":false,"media_type":"Text","formats":{"text/html":"https://www.gutenberg.org/ebooks/69906.html.images","application/epub+zip":"https://www.gutenberg.org/ebooks/69906.epub3.images","application/x-mobipocket-ebook":"https://www.gutenberg.org/ebooks/69906.kf8.images","text/plain; charset=us-ascii":"https://www.gutenberg.org/ebooks/69906.txt.utf-8","application/rdf+xml":"https://www.gutenberg.org/ebooks/69906.rdf","image/jpeg":"https://www.gutenberg.org/cache/epub/69906/pg69906.cover.medium.jpg","application/octet-stream":"https://www.gutenberg.org/files/69906/69906-0.zip"},"download_count":33},{"id":69912,"title":"The Popish Plot: A study in the history of the reign of Charles II","authors":[{"name":"Pollock, John","birth_year":1878,"death_year":1963}],"translators":[],"subjects":["Popish Plot, 1678"],"bookshelves":[],"languages":["en"],"copyright":false,"media_type":"Text","formats":{"text/html":"https://www.gutenberg.org/ebooks/69912.html.images","application/epub+zip":"https://www.gutenberg.org/ebooks/69912.epub3.images","application/x-mobipocket-ebook":"https://www.gutenberg.org/ebooks/69912.kf8.images","text/plain; charset=us-ascii":"https://www.gutenberg.org/ebooks/69912.txt.utf-8","application/rdf+xml":"https://www.gutenberg.org/ebooks/69912.rdf","image/jpeg":"https://www.gutenberg.org/cache/epub/69912/pg69912.cover.medium.jpg","application/octet-stream":"https://www.gutenberg.org/files/69912/69912-0.zip"},"download_count":33},{"id":70014,"title":"How to paint permanent pictures","authors":[{"name":"Toch, Maximilian","birth_year":1864,"death_year":1946}],"translators":[],"subjects":["Colors","Painting -- Technique","Pigments"],"bookshelves":[],"languages":["en"],"copyright":false,"media_type":"Text","formats":{"text/html":"https://www.gutenberg.org/ebooks/70014.html.images","application/epub+zip":"https://www.gutenberg.org/ebooks/70014.epub3.images","application/x-mobipocket-ebook":"https://www.gutenberg.org/ebooks/70014.kf8.images","text/plain; charset=us-ascii":"https://www.gutenberg.org/ebooks/70014.txt.utf-8","application/rdf+xml":"https://www.gutenberg.org/ebooks/70014.rdf","image/jpeg":"https://www.gutenberg.org/cache/epub/70014/pg70014.cover.medium.jpg","application/octet-stream":"https://www.gutenberg.org/files/70014/70014-0.zip"},"download_count":33},{"id":70116,"title":"The Safety First Club fights fire","authors":[{"name":"Nichols, William Theophilus","birth_year":1863,"death_year":null}],"translators":[],"subjects":["Boys -- Conduct of life -- Juvenile fiction","Boys -- Societies and clubs -- Juvenile fiction","Camping -- Juvenile fiction","Forest fires -- Juvenile fiction"],"bookshelves":[],"languages":["en"],"copyright":false,"media_type":"Text","formats":{"text/html":"https://www.gutenberg.org/ebooks/70116.html.images","application/epub+zip":"https://www.gutenberg.org/ebooks/70116.epub3.images","application/x-mobipocket-ebook":"https://www.gutenberg.org/ebooks/70116.kf8.images","text/plain; charset=us-ascii":"https://www.gutenberg.org/ebooks/70116.txt.utf-8","application/rdf+xml":"https://www.gutenberg.org/ebooks/70116.rdf","image/jpeg":"https://www.gutenberg.org/cache/epub/70116/pg70116.cover.medium.jpg","application/octet-stream":"https://www.gutenberg.org/files/70116/70116-0.zip"},"download_count":33},{"id":70132,"title":"Mezzotints in modern music: $b Brahms, Tschaïkowsky, Chopin, Richard Strauss, Liszt and Wagner","authors":[{"name":"Huneker, James","birth_year":1857,"death_year":1921}],"translators":[],"subjects":["Brahms, Johannes, 1833-1897","Chopin, Frédéric, 1810-1849","Liszt, Franz, 1811-1886","Music -- 19th century -- History and criticism","Strauss, Richard, 1864-1949","Tchaikovsky, Peter Ilich, 1840-1893","Wagner, Richard, 1813-1883"],"bookshelves":[],"languages":["en"],"copyright":false,"media_type":"Text","formats":{"text/html":"https://www.gutenberg.org/ebooks/70132.html.images","application/epub+zip":"https://www.gutenberg.org/ebooks/70132.epub3.images","application/x-mobipocket-ebook":"https://www.gutenberg.org/ebooks/70132.kf8.images","text/plain; charset=us-ascii":"https://www.gutenberg.org/ebooks/70132.txt.utf-8","application/rdf+xml":"https://www.gutenberg.org/ebooks/70132.rdf","image/jpeg":"https://www.gutenberg.org/cache/epub/70132/pg70132.cover.medium.jpg","application/octet-stream":"https://www.gutenberg.org/files/70132/70132-0.zip"},"download_count":33},{"id":70142,"title":"The story of Santa Klaus : $b Told for children of all ages from six to sixty","authors":[{"name":"Walsh, William S.","birth_year":1854,"death_year":1919}],"translators":[],"subjects":["Christmas -- Juvenile literature","Santa Claus -- Juvenile literature"],"bookshelves":[],"languages":["en"],"copyright":false,"media_type":"Text","formats":{"text/html":"https://www.gutenberg.org/ebooks/70142.html.images","application/epub+zip":"https://www.gutenberg.org/ebooks/70142.epub3.images","application/x-mobipocket-ebook":"https://www.gutenberg.org/ebooks/70142.kf8.images","text/plain; charset=us-ascii":"https://www.gutenberg.org/ebooks/70142.txt.utf-8","application/rdf+xml":"https://www.gutenberg.org/ebooks/70142.rdf","image/jpeg":"https://www.gutenberg.org/cache/epub/70142/pg70142.cover.medium.jpg","application/octet-stream":"https://www.gutenberg.org/files/70142/70142-0.zip"},"download_count":33},{"id":70168,"title":"Up the ladder; $b or, striving and thriving","authors":[{"name":"Leslie, Madeline","birth_year":1815,"death_year":1893}],"translators":[],"subjects":["Alcoholics -- Juvenile fiction","Apprentices -- Juvenile fiction","Christian life -- Juvenile fiction","Diligence -- Juvenile fiction","Merchants -- Juvenile fiction","Success -- Juvenile fiction"],"bookshelves":[],"languages":["en"],"copyright":false,"media_type":"Text","formats":{"text/html":"https://www.gutenberg.org/ebooks/70168.html.images","application/epub+zip":"https://www.gutenberg.org/ebooks/70168.epub3.images","application/x-mobipocket-ebook":"https://www.gutenberg.org/ebooks/70168.kf8.images","text/plain; charset=us-ascii":"https://www.gutenberg.org/ebooks/70168.txt.utf-8","application/rdf+xml":"https://www.gutenberg.org/ebooks/70168.rdf","image/jpeg":"https://www.gutenberg.org/cache/epub/70168/pg70168.cover.medium.jpg","application/octet-stream":"https://www.gutenberg.org/files/70168/70168-0.zip"},"download_count":33},{"id":70364,"title":"And there was light","authors":[{"name":"Del Rey, Lester","birth_year":1915,"death_year":1993}],"translators":[],"subjects":["Science fiction","Short stories","Weapons -- Fiction"],"bookshelves":[],"languages":["en"],"copyright":false,"media_type":"Text","formats":{"text/html":"https://www.gutenberg.org/ebooks/70364.html.images","application/epub+zip":"https://www.gutenberg.org/ebooks/70364.epub3.images","application/x-mobipocket-ebook":"https://www.gutenberg.org/ebooks/70364.kf8.images","text/plain; charset=us-ascii":"https://www.gutenberg.org/ebooks/70364.txt.utf-8","application/rdf+xml":"https://www.gutenberg.org/ebooks/70364.rdf","image/jpeg":"https://www.gutenberg.org/cache/epub/70364/pg70364.cover.medium.jpg","application/octet-stream":"https://www.gutenberg.org/files/70364/70364-0.zip"},"download_count":33},{"id":70373,"title":"Our Arctic province : $b Alaska and the Seal Islands","authors":[{"name":"Elliott, Henry Wood","birth_year":1846,"death_year":1930}],"translators":[],"subjects":["Alaska -- Description and travel"],"bookshelves":[],"languages":["en"],"copyright":false,"media_type":"Text","formats":{"text/html":"https://www.gutenberg.org/ebooks/70373.html.images","application/epub+zip":"https://www.gutenberg.org/ebooks/70373.epub3.images","application/x-mobipocket-ebook":"https://www.gutenberg.org/ebooks/70373.kf8.images","text/plain; charset=us-ascii":"https://www.gutenberg.org/ebooks/70373.txt.utf-8","application/rdf+xml":"https://www.gutenberg.org/ebooks/70373.rdf","image/jpeg":"https://www.gutenberg.org/cache/epub/70373/pg70373.cover.medium.jpg","application/octet-stream":"https://www.gutenberg.org/files/70373/70373-0.zip"},"download_count":33}]}