{"count":58808,"next":"http://129.241.150.113:8000/books/?languages=en&page=1817","previous":"http://129.241.150.113:8000/books/?languages=en&page=1815","results":[{"id":7593,"title":"The Caxtons: A Family Picture — Volume 08","authors":[{"name":"Lytton, Edward Bulwer Lytton, Baron","birth_year":1803,"death_year":1873}],"translators":[],"subjects":["English fiction -- 19th century","Families -- Fiction"],"bookshelves":[],"languages":["en"],"copyright":false,"media_type":"Text","formats":{"text/html":"https://www.gutenberg.org/ebooks/7593.html.images","application/epub+zip":"https://www.gutenberg.org/ebooks/7593.epub3.images","application/x-mobipocket-ebook":"https://www.gutenberg.org/ebooks/7593.kf8.images","text/plain; charset=us-ascii":"https://www.gutenberg.org/ebooks/7593.txt.utf-8","application/rdf+xml":"https://www.gutenberg.org/ebooks/7593.rdf","image/jpeg":"https://www.gutenberg.org/cache/epub/7593/pg7593.cover.medium.jpg","application/octet-stream":"https://www.gutenberg.org/cache/epub/7593/pg7593-h.zip"},"download_count":10},{"id":7638,"title":"The Disowned — Volume 08","authors":[{"name":"Lytton, Edward Bulwer Lytton, Baron","birth_year":1803,"death_year":1873}],"translators":[],"subjects":["English fiction -- 19th century"],"bookshelves":[],"languages":["en"],"copyright":false,"media_type":"Text","formats":{"text/html":"https://www.gutenberg.org/ebooks/7638.html.images","application/epub+zip":"https://www.gutenberg.org/ebooks/7638.epub3.images","application/x-mobipocket-ebook":"https://www.gutenberg.org/ebooks/7638.kf8.images","text/plain; charset=us-ascii":"https://www.gutenberg.org/ebooks/7638.txt.utf-8","application/rdf+xml":"https://www.gutenberg.org/ebooks/7638.rdf","image/jpeg":"https://www.gutenberg.org/cache/epub/7638/pg7638.cover.medium.jpg","application/octet-stream":"https://www.gutenberg.org/cache/epub/7638/pg7638-h.zip"},"download_count":10},{"id":7662,"title":"What Will He Do with It? — Volume 04","authors":[{"name":"Lytton, Edward Bulwer Lytton, Baron","birth_year":1803,"death_year":1873}],"translators":[],"subjects":["English fiction -- 19th century"],"bookshelves":[],"languages":["en"],"copyright":false,"media_type":"Text","formats":{"text/html":"https://www.gutenberg.org/ebooks/7662.html.images","application/epub+zip":"https://www.gutenberg.org/ebooks/7662.epub3.images","application/x-mobipocket-ebook":"https://www.gutenberg.org/ebooks/7662.kf8.images","text/plain; charset=us-ascii":"https://www.gutenberg.org/ebooks/7662.txt.utf-8","application/rdf+xml":"https://www.gutenberg.org/ebooks/7662.rdf","image/jpeg":"https://www.gutenberg.org/cache/epub/7662/pg7662.cover.medium.jpg","application/octet-stream":"https://www.gutenberg.org/cache/epub/7662/pg7662-h.zip"},"download_count":10},{"id":7678,"title":"Harold : the Last of the Saxon Kings — Volume 07","authors":[{"name":"Lytton, Edward Bulwer Lytton, Baron","birth_year":1803,"death_year":1873}],"translators":[],"subjects":["Anglo-Saxons -- Kings and rulers -- Fiction","Biographical fiction","Great Britain -- History -- Edward, the Confessor, 1042-1066 -- Fiction","Great Britain -- Kings and rulers -- Fiction","Harold, King of England, 1022?-1066 -- Fiction","William I, King of England, 1027 or 8-1087 -- Fiction"],"bookshelves":["Historical Fiction"],"languages":["en"],"copyright":false,"media_type":"Text","formats":{"text/html":"https://www.gutenberg.org/ebooks/7678.html.images","application/epub+zip":"https://www.gutenberg.org/ebooks/7678.epub3.images","application/x-mobipocket-ebook":"https://www.gutenberg.org/ebooks/7678.kf8.images","text/plain; charset=us-ascii":"https://www.gutenberg.org/ebooks/7678.txt.utf-8","application/rdf+xml":"https://www.gutenberg.org/ebooks/7678.rdf","image/jpeg":"https://www.gutenberg.org/cache/epub/7678/pg7678.cover.medium.jpg","application/octet-stream":"https://www.gutenberg.org/cache/epub/7678/pg7678-h.zip"},"download_count":10},{"id":7698,"title":"A Strange Story — Volume 07","authors":[{"name":"Lytton, Edward Bulwer Lytton, Baron","birth_year":1803,"death_year":1873}],"translators":[],"subjects":["English fiction -- 19th century"],"bookshelves":[],"languages":["en"],"copyright":false,"media_type":"Text","formats":{"text/html":"https://www.gutenberg.org/ebooks/7698.html.images","application/epub+zip":"https://www.gutenberg.org/ebooks/7698.epub3.images","application/x-mobipocket-ebook":"https://www.gutenberg.org/ebooks/7698.kf8.images","text/plain; charset=us-ascii":"https://www.gutenberg.org/ebooks/7698.txt.utf-8","application/rdf+xml":"https://www.gutenberg.org/ebooks/7698.rdf","image/jpeg":"https://www.gutenberg.org/cache/epub/7698/pg7698.cover.medium.jpg","application/octet-stream":"https://www.gutenberg.org/cache/epub/7698/pg7698-h.zip"},"download_count":10},{"id":7767,"title":"The Graymouse Family","authors":[{"name":"Leonard, Nellie M. (Nellie Mabel)","birth_year":1875,"death_year":null}],"translators":[],"subjects":["Mice -- Juvenile fiction"],"bookshelves":[],"languages":["en"],"copyright":false,"media_type":"Text","formats":{"text/html":"https://www.gutenberg.org/ebooks/7767.html.images","application/epub+zip":"https://www.gutenberg.org/ebooks/7767.epub3.images","application/x-mobipocket-ebook":"https://www.gutenberg.org/ebooks/7767.kf8.images","text/plain; charset=us-ascii":"https://www.gutenberg.org/ebooks/7767.txt.utf-8","application/rdf+xml":"https://www.gutenberg.org/ebooks/7767.rdf","image/jpeg":"https://www.gutenberg.org/cache/epub/7767/pg7767.cover.medium.jpg","application/octet-stream":"https://www.gutenberg.org/cache/epub/7767/pg7767-h.zip"},"download_count":10},{"id":7913,"title":"American Historical and Literary Curiosities, Part 13.: Second Series","authors":[{"name":"Smith, J. Jay (John Jay)","birth_year":1798,"death_year":1881}],"translators":[],"subjects":["Autographs -- United States -- Facsimiles","United States -- History -- Revolution, 1775-1783 -- Sources"],"bookshelves":[],"languages":["en"],"copyright":false,"media_type":"Text","formats":{"text/html":"https://www.gutenberg.org/ebooks/7913.html.images","text/html; charset=iso-8859-1":"https://www.gutenberg.org/files/7913/7913-h/7913-h.htm","application/epub+zip":"https://www.gutenberg.org/ebooks/7913.epub3.images","application/x-mobipocket-ebook":"https://www.gutenberg.org/ebooks/7913.kf8.images","text/plain; charset=us-ascii":"https://www.gutenberg.org/ebooks/7913.txt.utf-8","text/plain; charset=iso-8859-1":"https://www.gutenberg.org/files/7913/7913.txt","application/rdf+xml":"https://www.gutenberg.org/ebooks/7913.rdf","image/jpeg":"https://www.gutenberg.org/cache/epub/7913/pg7913.cover.medium.jpg","application/octet-stream":"https://www.gutenberg.org/cache/epub/7913/pg7913-h.zip"},"download_count":10},{"id":7922,"title":"American Historical and Literary Curiosities, Part 22.: Second Series","authors":[{"name":"Smith, J. Jay (John Jay)","birth_year":1798,"death_year":1881}],"translators":[],"subjects":["Autographs -- United States -- Facsimiles","United States -- History -- Revolution, 1775-1783 -- Sources"],"bookshelves":[],"languages":["en"],"copyright":false,"media_type":"Text","formats":{"text/html":"https://www.gutenberg.org/ebooks/7922.html.images","text/html; charset=iso-8859-1":"https://www.gutenberg.org/files/7922/7922-h/7922-h.htm","application/epub+zip":"https://www.gutenberg.org/ebooks/7922.epub3.images","application/x-mobipocket-ebook":"https://www.gutenberg.org/ebooks/7922.kf8.images","text/plain; charset=us-ascii":"https://www.gutenberg.org/ebooks/7922.txt.utf-8","text/plain; charset=iso-8859-1":"https://www.gutenberg.org/files/7922/7922.txt","application/rdf+xml":"https://www.gutenberg.org/ebooks/7922.rdf","image/jpeg":"https://www.gutenberg.org/cache/epub/7922/pg7922.cover.medium.jpg","application/octet-stream":"https://www.gutenberg.org/cache/epub/7922/pg7922-h.zip"},"download_count":10},{"id":8007,"title":"The Bible, King James version, Book 7: Judges","authors":[{"name":"Anonymous","birth_year":null,"death_year":null}],"translators":[],"subjects":["Bible. Judges"],"bookshelves":["Judaism"],"languages":["en"],"copyright":false,"media_type":"Text","formats":{"text/html":"https://www.gutenberg.org/ebooks/8007.html.images","application/epub+zip":"https://www.gutenberg.org/ebooks/8007.epub3.images","application/x-mobipocket-ebook":"https://www.gutenberg.org/ebooks/8007.kf8.images","text/plain; charset=us-ascii":"https://www.gutenberg.org/ebooks/8007.txt.utf-8","application/rdf+xml":"https://www.gutenberg.org/ebooks/8007.rdf","image/jpeg":"https://www.gutenberg.org/cache/epub/8007/pg8007.cover.medium.jpg","application/octet-stream":"https://www.gutenberg.org/cache/epub/8007/pg8007-h.zip"},"download_count":10},{"id":8045,"title":"The Bible, King James version, Book 45: Romans","authors":[{"name":"Anonymous","birth_year":null,"death_year":null}],"translators":[],"subjects":["Bible. Romans"],"bookshelves":[],"languages":["en"],"copyright":false,"media_type":"Text","formats":{"text/html":"https://www.gutenberg.org/ebooks/8045.html.images","application/epub+zip":"https://www.gutenberg.org/ebooks/8045.epub3.images","application/x-mobipocket-ebook":"https://www.gutenberg.org/ebooks/8045.kf8.images","text/plain; charset=us-ascii":"https://www.gutenberg.org/ebooks/8045.txt.utf-8","application/rdf+xml":"https://www.gutenberg.org/ebooks/8045.rdf","image/jpeg":"https://www.gutenberg.org/cache/epub/8045/pg8045.cover.medium.jpg","application/octet-stream":"https://www.gutenberg.org/cache/epub/8045/pg8045-h.zip"},"download_count":10},{"id":8047,"title":"The Bible, King James version, Book 47: 2 Corinthians","authors":[{"name":"Anonymous","birth_year":null,"death_year":null}],"translators":[],"subjects":["Bible. Corinthians, 2nd"],"bookshelves":["Harvard Classics"],"languages":["en"],"copyright":false,"media_type":"Text","formats":{"text/html":"https://www.gutenberg.org/ebooks/8047.html.images","application/epub+zip":"https://www.gutenberg.org/ebooks/8047.epub3.images","application/x-mobipocket-ebook":"https://www.gutenberg.org/ebooks/8047.kf8.images","text/plain; charset=us-ascii":"https://www.gutenberg.org/ebooks/8047.txt.utf-8","application/rdf+xml":"https://www.gutenberg.org/ebooks/8047.rdf","image/jpeg":"https://www.gutenberg.org/cache/epub/8047/pg8047.cover.medium.jpg","application/octet-stream":"https://www.gutenberg.org/cache/epub/8047/pg8047-h.zip"},"download_count":10},{"id":8272,"title":"The World English Bible (WEB): Romans","authors":[{"name":"Anonymous","birth_year":null,"death_year":null}],"translators":[],"subjects":["Bible. Romans"],"bookshelves":[],"languages":["en"],"copyright":false,"media_type":"Text","formats":{"text/html":"https://www.gutenberg.org/ebooks/8272.html.images","application/epub+zip":"https://www.gutenberg.org/ebooks/8272.epub3.images","application/x-mobipocket-ebook":"https://www.gutenberg.org/ebooks/8272.kf8.images","text/plain; charset=us-ascii":"https://www.gutenberg.org/ebooks/8272.txt.utf-8","application/rdf+xml":"https://www.gutenberg.org/ebooks/8272.rdf","image/jpeg":"https://www.gutenberg.org/cache/epub/8272/pg8272.cover.medium.jpg","application/octet-stream":"https://www.gutenberg.org/cache/epub/8272/pg8272-h.zip"},"download_count":10},{"id":8273,"title":"The World English Bible (WEB): 1 Corinthians","authors":[{"name":"Anonymous","birth_year":null,"death_year":null}],"translators":[],"subjects":["Bible. Corinthians, 1st"],"bookshelves":[],"languages":["en"],"copyright":false,"media_type":"Text","formats":{"text/html":"https://www.gutenberg.org/ebooks/8273.html.images","application/epub+zip":"https://www.gutenberg.org/ebooks/8273.epub3.images","application/x-mobipocket-ebook":"https://www.gutenberg.org/ebooks/8273.kf8.images","text/plain; charset=us-ascii":"https://www.gutenberg.org/ebooks/8273.txt.utf-8","application/rdf+xml":"https://www.gutenberg.org/ebooks/8273.rdf","image/jpeg":"https://www.gutenberg.org/cache/epub/8273/pg8273.cover.medium.jpg","application/octet-stream":"https://www.gutenberg.org/cache/epub/8273/pg8273-h.zip"},"download_count":10},{"id":8278,"title":"The World English Bible (WEB): Colossians","authors":[{"name":"Anonymous","birth_year":null,"death_year":null}],"translators":[],"subjects":["Bible. Colossians"],"bookshelves":[],"languages":["en"],"copyright":false,"media_type":"Text","formats":{"text/html":"https://www.gutenberg.org/ebooks/8278.html.images","application/epub+zip":"https://www.gutenberg.org/ebooks/8278.epub3.images","application/x-mobipocket-ebook":"https://www.gutenberg.org/ebooks/8278.kf8.images","text/plain; charset=us-ascii":"https://www.gutenberg.org/ebooks/8278.txt.utf-8","application/rdf+xml":"https://www.gutenberg.org/ebooks/8278.rdf","image/jpeg":"https://www.gutenberg.org/cache/epub/8278/pg8278.cover.medium.jpg","application/octet-stream":"https://www.gutenberg.org/cache/epub/8278/pg8278-h.zip"},"download_count":10},{"id":8283,"title":"The World English Bible (WEB): Titus","authors":[{"name":"Anonymous","birth_year":null,"death_year":null}],"translators":[],"subjects":["Bible. Titus"],"bookshelves":[],"languages":["en"],"copyright":false,"media_type":"Text","formats":{"text/html":"https://www.gutenberg.org/ebooks/8283.html.images","application/epub+zip":"https://www.gutenberg.org/ebooks/8283.epub3.images","application/x-mobipocket-ebook":"https://www.gutenberg.org/ebooks/8283.kf8.images","text/plain; charset=us-ascii":"https://www.gutenberg.org/ebooks/8283.txt.utf-8","application/rdf+xml":"https://www.gutenberg.org/ebooks/8283.rdf","image/jpeg":"https://www.gutenberg.org/cache/epub/8283/pg8283.cover.medium.jpg","application/octet-stream":"https://www.gutenberg.org/cache/epub/8283/pg8283-h.zip"},"download_count":10},{"id":8287,"title":"The World English Bible (WEB): 1 Peter","authors":[{"name":"Anonymous","birth_year":null,"death_year":null}],"translators":[],"subjects":["Bible. Peter, 1st"],"bookshelves":[],"languages":["en"],"copyright":false,"media_type":"Text","formats":{"text/html":"https://www.gutenberg.org/ebooks/8287.html.images","application/epub+zip":"https://www.gutenberg.org/ebooks/8287.epub3.images","application/x-mobipocket-ebook":"https://www.gutenberg.org/ebooks/8287.kf8.images","text/plain; charset=us-ascii":"https://www.gutenberg.org/ebooks/8287.txt.utf-8","application/rdf+xml":"https://www.gutenberg.org/ebooks/8287.rdf","image/jpeg":"https://www.gutenberg.org/cache/epub/8287/pg8287.cover.medium.jpg","application/octet-stream":"https://www.gutenberg.org/cache/epub/8287/pg8287-h.zip"},"download_count":10},{"id":8314,"title":"The Bible, Douay-Rheims, Book 14: 2 Paralipomenon: The Challoner Revision","authors":[],"translators":[],"subjects":["Bible. Chronicles, 2nd"],"bookshelves":[],"languages":["en"],"copyright":false,"media_type":"Text","formats":{"text/html":"https://www.gutenberg.org/ebooks/8314.html.images","application/epub+zip":"https://www.gutenberg.org/ebooks/8314.epub3.images","application/x-mobipocket-ebook":"https://www.gutenberg.org/ebooks/8314.kf8.images","text/plain; charset=us-ascii":"https://www.gutenberg.org/ebooks/8314.txt.utf-8","application/rdf+xml":"https://www.gutenberg.org/ebooks/8314.rdf","image/jpeg":"https://www.gutenberg.org/cache/epub/8314/pg8314.cover.medium.jpg","application/octet-stream":"https://www.gutenberg.org/cache/epub/8314/pg8314-h.zip"},"download_count":10},{"id":8319,"title":"The Bible, Douay-Rheims, Book 19: Esther: The Challoner Revision","authors":[],"translators":[],"subjects":["Bible. Esther"],"bookshelves":[],"languages":["en"],"copyright":false,"media_type":"Text","formats":{"text/html":"https://www.gutenberg.org/ebooks/8319.html.images","application/epub+zip":"https://www.gutenberg.org/ebooks/8319.epub3.images","application/x-mobipocket-ebook":"https://www.gutenberg.org/ebooks/8319.kf8.images","text/plain; charset=us-ascii":"https://www.gutenberg.org/ebooks/8319.txt.utf-8","application/rdf+xml":"https://www.gutenberg.org/ebooks/8319.rdf","image/jpeg":"https://www.gutenberg.org/cache/epub/8319/pg8319.cover.medium.jpg","application/octet-stream":"https://www.gutenberg.org/cache/epub/8319/pg8319-h.zip"},"download_count":10},{"id":8322,"title":"The Bible, Douay-Rheims, Book 22: Proverbs: The Challoner Revision","authors":[],"translators":[],"subjects":["Bible. Proverbs"],"bookshelves":[],"languages":["en"],"copyright":false,"media_type":"Text","formats":{"text/html":"https://www.gutenberg.org/ebooks/8322.html.images","application/epub+zip":"https://www.gutenberg.org/ebooks/8322.epub3.images","application/x-mobipocket-ebook":"https://www.gutenberg.org/ebooks/8322.kf8.images","text/plain; charset=us-ascii":"https://www.gutenberg.org/ebooks/8322.txt.utf-8","application/rdf+xml":"https://www.gutenberg.org/ebooks/8322.rdf","image/jpeg":"https://www.gutenberg.org/cache/epub/8322/pg8322.cover.medium.jpg","application/octet-stream":"https://www.gutenberg.org/cache/epub/8322/pg8322-h.zip"},"download_count":10},{"id":8330,"title":"The Bible, Douay-Rheims, Book 30: Baruch: The Challoner Revision","authors":[],"translators":[],"subjects":["Bible. Apocrypha. Baruch"],"bookshelves":[],"languages":["en"],"copyright":false,"media_type":"Text","formats":{"text/html":"https://www.gutenberg.org/ebooks/8330.html.images","application/epub+zip":"https://www.gutenberg.org/ebooks/8330.epub3.images","application/x-mobipocket-ebook":"https://www.gutenberg.org/ebooks/8330.kf8.images","text/plain; charset=us-ascii":"https://www.gutenberg.org/ebooks/8330.txt.utf-8","application/rdf+xml":"https://www.gutenberg.org/ebooks/8330.rdf","image/jpeg":"https://www.gutenberg.org/cache/epub/8330/pg8330.cover.medium.jpg","application/octet-stream":"https://www.gutenberg.org/cache/epub/8330/pg8330-h.zip"},"download_count":10},{"id":8335,"title":"The Bible, Douay-Rheims, Book 35: Amos: The Challoner Revision","authors":[],"translators":[],"subjects":["Bible. Amos"],"bookshelves":[],"languages":["en"],"copyright":false,"media_type":"Text","formats":{"text/html":"https://www.gutenberg.org/ebooks/8335.html.images","application/epub+zip":"https://www.gutenberg.org/ebooks/8335.epub3.images","application/x-mobipocket-ebook":"https://www.gutenberg.org/ebooks/8335.kf8.images","text/plain; charset=us-ascii":"https://www.gutenberg.org/ebooks/8335.txt.utf-8","application/rdf+xml":"https://www.gutenberg.org/ebooks/8335.rdf","image/jpeg":"https://www.gutenberg.org/cache/epub/8335/pg8335.cover.medium.jpg","application/octet-stream":"https://www.gutenberg.org/cache/epub/8335/pg8335-h.zip"},"download_count":10},{"id":8356,"title":"The Bible, Douay-Rheims, Book 56: Ephesians: The Challoner Revision","authors":[],"translators":[],"subjects":["Bible. Ephesians"],"bookshelves":[],"languages":["en"],"copyright":false,"media_type":"Text","formats":{"text/html":"https://www.gutenberg.org/ebooks/8356.html.images","application/epub+zip":"https://www.gutenberg.org/ebooks/8356.epub3.images","application/x-mobipocket-ebook":"https://www.gutenberg.org/ebooks/8356.kf8.images","text/plain; charset=us-ascii":"https://www.gutenberg.org/ebooks/8356.txt.utf-8","application/rdf+xml":"https://www.gutenberg.org/ebooks/8356.rdf","image/jpeg":"https://www.gutenberg.org/cache/epub/8356/pg8356.cover.medium.jpg","application/octet-stream":"https://www.gutenberg.org/cache/epub/8356/pg8356-h.zip"},"download_count":10},{"id":8513,"title":"The Three Cities Trilogy: Lourdes, Volume 3","authors":[{"name":"Zola, Émile","birth_year":1840,"death_year":1902}],"translators":[{"name":"Vizetelly, Ernest Alfred","birth_year":1853,"death_year":1922}],"subjects":["Catholics -- Fiction","Christian pilgrims and pilgrimages -- Fiction","Clergy -- Fiction","Lourdes (France) -- Fiction"],"bookshelves":[],"languages":["en"],"copyright":false,"media_type":"Text","formats":{"text/html":"https://www.gutenberg.org/ebooks/8513.html.images","application/epub+zip":"https://www.gutenberg.org/ebooks/8513.epub3.images","application/x-mobipocket-ebook":"https://www.gutenberg.org/ebooks/8513.kf8.images","text/plain; charset=us-ascii":"https://www.gutenberg.org/ebooks/8513.txt.utf-8","application/rdf+xml":"https://www.gutenberg.org/ebooks/8513.rdf","image/jpeg":"https://www.gutenberg.org/cache/epub/8513/pg8513.cover.medium.jpg","application/octet-stream":"https://www.gutenberg.org/cache/epub/8513/pg8513-h.zip"},"download_count":10},{"id":8634,"title":"His Last Bow","authors":[{"name":"Doyle, Arthur Conan","birth_year":1859,"death_year":1930}],"translators":[],"subjects":["Detective and mystery stories, English","Holmes, Sherlock (Fictitious character) -- Fiction","Private investigators -- England -- Fiction"],"bookshelves":[],"languages":["en"],"copyright":true,"media_type":"Sound","formats":{"text/plain; charset=us-ascii":"https://www.gutenberg.org/files/8634/8634-readme.txt","text/html; charset=iso-8859-1":"https://www.gutenberg.org/files/8634/8634-index.htm","audio/mpeg":"https://www.gutenberg.org/files/8634/mp3/8634-000.mp3","application/rdf+xml":"https://www.gutenberg.org/ebooks/8634.rdf"},"download_count":10},{"id":9027,"title":"Alonzo Fitz and Other Stories","authors":[{"name":"Twain, Mark","birth_year":1835,"death_year":1910}],"translators":[],"subjects":["Essays","Short stories"],"bookshelves":[],"languages":["en"],"copyright":true,"media_type":"Sound","formats":{"text/plain; charset=us-ascii":"https://www.gutenberg.org/files/9027/9027-readme.txt","text/html; charset=iso-8859-1":"https://www.gutenberg.org/files/9027/9027-index.htm","audio/mpeg":"https://www.gutenberg.org/files/9027/mp3/9027-000.mp3","application/rdf+xml":"https://www.gutenberg.org/ebooks/9027.rdf","application/octet-stream":"https://www.gutenberg.org/files/9027/9027-mp3.zip"},"download_count":10},{"id":9271,"title":"The Bickerstaff-Partridge Papers","authors":[{"name":"Swift, Jonathan","birth_year":1667,"death_year":1745}],"translators":[],"subjects":["Satire, English"],"bookshelves":[],"languages":["en"],"copyright":true,"media_type":"Sound","formats":{"text/plain; charset=us-ascii":"https://www.gutenberg.org/files/9271/9271-readme.txt","text/html; charset=iso-8859-1":"https://www.gutenberg.org/files/9271/9271-index.htm","audio/mpeg":"https://www.gutenberg.org/files/9271/mp3/9271-000.mp3","application/rdf+xml":"https://www.gutenberg.org/ebooks/9271.rdf","application/octet-stream":"https://www.gutenberg.org/files/9271/9271-mp3.zip"},"download_count":10},{"id":9355,"title":"The Rescue","authors":[{"name":"Conrad, Joseph","birth_year":1857,"death_year":1924}],"translators":[],"subjects":["Lingard, Tom (Fictitious character) -- Fiction","Love stories","Malay Archipelago -- Fiction","Rescues -- Fiction","Sea stories","Yachting -- Fiction"],"bookshelves":[],"languages":["en"],"copyright":true,"media_type":"Sound","formats":{"text/plain; charset=us-ascii":"https://www.gutenberg.org/files/9355/9355-readme.txt","text/html; charset=iso-8859-1":"https://www.gutenberg.org/files/9355/9355-index.htm","audio/mpeg":"https://www.gutenberg.org/files/9355/mp3/9355-000.mp3","application/rdf+xml":"https://www.gutenberg.org/ebooks/9355.rdf","application/octet-stream":"https://www.gutenberg.org/files/9355/9355-mp3.zip"},"download_count":10},{"id":9381,"title":"The Atlantic Monthly, Volume 04, No. 24, October, 1859: A Magazine of Literature, Art, and Politics","authors":[{"name":"Various","birth_year":null,"death_year":null}],"translators":[],"subjects":["American periodicals"],"bookshelves":["The Atlantic Monthly"],"languages":["en"],"copyright":false,"media_type":"Text","formats":{"text/html":"https://www.gutenberg.org/ebooks/9381.html.images","application/epub+zip":"https://www.gutenberg.org/ebooks/9381.epub3.images","application/x-mobipocket-ebook":"https://www.gutenberg.org/ebooks/9381.kf8.images","text/plain; charset=us-ascii":"https://www.gutenberg.org/ebooks/9381.txt.utf-8","text/plain; charset=iso-8859-1":"https://www.gutenberg.org/files/9381/9381-8.txt","application/rdf+xml":"https://www.gutenberg.org/ebooks/9381.rdf","image/jpeg":"https://www.gutenberg.org/cache/epub/9381/pg9381.cover.medium.jpg","application/octet-stream":"https://www.gutenberg.org/cache/epub/9381/pg9381-h.zip"},"download_count":10},{"id":9533,"title":"Little Travels and Roadside Sketches","authors":[{"name":"Thackeray, William Makepeace","birth_year":1811,"death_year":1863}],"translators":[],"subjects":["Belgium -- Description and travel","Thackeray, William Makepeace, 1811-1863 -- Travel -- Belgium"],"bookshelves":[],"languages":["en"],"copyright":true,"media_type":"Sound","formats":{"text/plain; charset=us-ascii":"https://www.gutenberg.org/files/9533/9533-readme.txt","text/html; charset=iso-8859-1":"https://www.gutenberg.org/files/9533/9533-index.htm","audio/mpeg":"https://www.gutenberg.org/files/9533/mp3/9533-000.mp3","application/rdf+xml":"https://www.gutenberg.org/ebooks/9533.rdf","application/octet-stream":"https://www.gutenberg.org/files/9533/9533-mp3.zip"},"download_count":10},{"id":9569,"title":"Mountain Pictures, and other poems: Part 2 From Volume II of The Works of John Greenleaf Whittier","authors":[{"name":"Whittier, John Greenleaf","birth_year":1807,"death_year":1892}],"translators":[],"subjects":["American poetry -- 19th century"],"bookshelves":[],"languages":["en"],"copyright":false,"media_type":"Text","formats":{"text/html":"https://www.gutenberg.org/ebooks/9569.html.images","application/epub+zip":"https://www.gutenberg.org/ebooks/9569.epub3.images","application/x-mobipocket-ebook":"https://www.gutenberg.org/ebooks/9569.kf8.images","text/plain; charset=us-ascii":"https://www.gutenberg.org/ebooks/9569.txt.utf-8","application/rdf+xml":"https://www.gutenberg.org/ebooks/9569.rdf","image/jpeg":"https://www.gutenberg.org/cache/epub/9569/pg9569.cover.medium.jpg","application/octet-stream":"https://www.gutenberg.org/cache/epub/9569/pg9569-h.zip"},"download_count":10},{"id":9721,"title":"Master Humphrey's Clock","authors":[{"name":"Dickens, Charles","birth_year":1812,"death_year":1870}],"translators":[],"subjects":["England -- Social life and customs -- 19th century -- Fiction","Gordon Riots, 1780 -- Fiction","Great Britain -- History -- 18th century -- Fiction","Historical fiction"],"bookshelves":[],"languages":["en"],"copyright":true,"media_type":"Sound","formats":{"text/plain; charset=us-ascii":"https://www.gutenberg.org/files/9721/9721-readme.txt","text/html; charset=iso-8859-1":"https://www.gutenberg.org/files/9721/9721-index.htm","audio/mpeg":"https://www.gutenberg.org/files/9721/mp3/9721-000.mp3","application/rdf+xml":"https://www.gutenberg.org/ebooks/9721.rdf","application/octet-stream":"https://www.gutenberg.org/files/9721/9721-mp3.zip"},"download_count":10},{"id":9729,"title":"Perils of Certain English Prisoners","authors":[{"name":"Dickens, Charles","birth_year":1812,"death_year":1870}],"translators":[],"subjects":["English fiction -- 19th century"],"bookshelves":[],"languages":["en"],"copyright":true,"media_type":"Sound","formats":{"text/plain; charset=us-ascii":"https://www.gutenberg.org/files/9729/9729-readme.txt","text/html; charset=iso-8859-1":"https://www.gutenberg.org/files/9729/9729-index.htm","audio/mpeg":"https://www.gutenberg.org/files/9729/mp3/9729-000.mp3","application/rdf+xml":"https://www.gutenberg.org/ebooks/9729.rdf","application/octet-stream":"https://www.gutenberg.org/files/9729/9729-mp3.zip"},"download_count":10}]}