{"count":58808,"next":"http://129.241.150.113:8000/books/?languages=en&page=1702","previous":"http://129.241.150.113:8000/books/?languages=en&page=1700","results":[{"id":66648,"title":"Newshound","authors":[{"name":"Marlowe, Stephen","birth_year":1928,"death_year":2008}],"translators":[],"subjects":["Journalists -- Fiction","Science fiction"],"bookshelves":[],"languages":["en"],"copyright":false,"media_type":"Text","formats":{"text/html":"https://www.gutenberg.org/ebooks/66648.html.images","application/epub+zip":"https://www.gutenberg.org/ebooks/66648.epub3.images","application/x-mobipocket-ebook":"https://www.gutenberg.org/ebooks/66648.kf8.images","text/plain; charset=us-ascii":"https://www.gutenberg.org/ebooks/66648.txt.utf-8","application/rdf+xml":"https://www.gutenberg.org/ebooks/66648.rdf","image/jpeg":"https://www.gutenberg.org/cache/epub/66648/pg66648.cover.medium.jpg","application/octet-stream":"https://www.gutenberg.org/files/66648/66648-0.zip"},"download_count":18},{"id":66683,"title":"The Story of the Battle Hymn of the Republic","authors":[{"name":"Hall, Florence Howe","birth_year":1845,"death_year":1922}],"translators":[],"subjects":["Battle hymn of the republic (Song)","Howe, Julia Ward, 1819-1910. Battle hymn of the Republic"],"bookshelves":[],"languages":["en"],"copyright":false,"media_type":"Text","formats":{"text/html":"https://www.gutenberg.org/ebooks/66683.html.images","application/epub+zip":"https://www.gutenberg.org/ebooks/66683.epub3.images","application/x-mobipocket-ebook":"https://www.gutenberg.org/ebooks/66683.kf8.images","text/plain; charset=us-ascii":"https://www.gutenberg.org/ebooks/66683.txt.utf-8","application/rdf+xml":"https://www.gutenberg.org/ebooks/66683.rdf","image/jpeg":"https://www.gutenberg.org/cache/epub/66683/pg66683.cover.medium.jpg","application/octet-stream":"https://www.gutenberg.org/files/66683/66683-0.zip"},"download_count":18},{"id":66714,"title":"The Cosmic Snare","authors":[{"name":"Marlowe, Stephen","birth_year":1928,"death_year":2008}],"translators":[],"subjects":["Criminals -- Fiction","Interstellar travel -- Fiction","Science fiction","Short stories","Spouses -- Fiction"],"bookshelves":[],"languages":["en"],"copyright":false,"media_type":"Text","formats":{"text/html":"https://www.gutenberg.org/ebooks/66714.html.images","application/epub+zip":"https://www.gutenberg.org/ebooks/66714.epub3.images","application/x-mobipocket-ebook":"https://www.gutenberg.org/ebooks/66714.kf8.images","text/plain; charset=us-ascii":"https://www.gutenberg.org/ebooks/66714.txt.utf-8","application/rdf+xml":"https://www.gutenberg.org/ebooks/66714.rdf","image/jpeg":"https://www.gutenberg.org/cache/epub/66714/pg66714.cover.medium.jpg","application/octet-stream":"https://www.gutenberg.org/files/66714/66714-0.zip"},"download_count":18},{"id":66721,"title":"At Odds with the Regent: A Story of the Cellamare Conspiracy","authors":[{"name":"Stevenson, Burton Egbert","birth_year":1872,"death_year":1962}],"translators":[],"subjects":["Cellamare Conspiracy, 1718 -- Fiction"],"bookshelves":[],"languages":["en"],"copyright":false,"media_type":"Text","formats":{"text/html":"https://www.gutenberg.org/ebooks/66721.html.images","application/epub+zip":"https://www.gutenberg.org/ebooks/66721.epub3.images","application/x-mobipocket-ebook":"https://www.gutenberg.org/ebooks/66721.kf8.images","text/plain; charset=us-ascii":"https://www.gutenberg.org/ebooks/66721.txt.utf-8","application/rdf+xml":"https://www.gutenberg.org/ebooks/66721.rdf","image/jpeg":"https://www.gutenberg.org/cache/epub/66721/pg66721.cover.medium.jpg","application/octet-stream":"https://www.gutenberg.org/files/66721/66721-0.zip"},"download_count":18},{"id":66730,"title":"The Girl's Own Paper, Vol. VIII, No. 374, February 26, 1887","authors":[{"name":"Various","birth_year":null,"death_year":null}],"translators":[],"subjects":["Children's literature -- Periodicals"],"bookshelves":[],"languages":["en"],"copyright":false,"media_type":"Text","formats":{"text/html":"https://www.gutenberg.org/ebooks/66730.html.images","application/epub+zip":"https://www.gutenberg.org/ebooks/66730.epub3.images","application/x-mobipocket-ebook":"https://www.gutenberg.org/ebooks/66730.kf8.images","text/plain; charset=us-ascii":"https://www.gutenberg.org/ebooks/66730.txt.utf-8","application/rdf+xml":"https://www.gutenberg.org/ebooks/66730.rdf","image/jpeg":"https://www.gutenberg.org/cache/epub/66730/pg66730.cover.medium.jpg","application/octet-stream":"https://www.gutenberg.org/files/66730/66730-0.zip"},"download_count":18},{"id":66775,"title":"Bottoms Up: An Application of the Slapstick to Satire","authors":[{"name":"Nathan, George Jean","birth_year":1882,"death_year":1958}],"translators":[],"subjects":["American wit and humor"],"bookshelves":[],"languages":["en"],"copyright":false,"media_type":"Text","formats":{"text/html":"https://www.gutenberg.org/ebooks/66775.html.images","application/epub+zip":"https://www.gutenberg.org/ebooks/66775.epub3.images","application/x-mobipocket-ebook":"https://www.gutenberg.org/ebooks/66775.kf8.images","text/plain; charset=us-ascii":"https://www.gutenberg.org/ebooks/66775.txt.utf-8","application/rdf+xml":"https://www.gutenberg.org/ebooks/66775.rdf","image/jpeg":"https://www.gutenberg.org/cache/epub/66775/pg66775.cover.medium.jpg","application/octet-stream":"https://www.gutenberg.org/files/66775/66775-0.zip"},"download_count":18},{"id":66794,"title":"The Heritage","authors":[{"name":"Grier, Sydney C.","birth_year":1868,"death_year":1933}],"translators":[],"subjects":["English fiction"],"bookshelves":[],"languages":["en"],"copyright":false,"media_type":"Text","formats":{"text/html":"https://www.gutenberg.org/ebooks/66794.html.images","application/epub+zip":"https://www.gutenberg.org/ebooks/66794.epub3.images","application/x-mobipocket-ebook":"https://www.gutenberg.org/ebooks/66794.kf8.images","text/plain; charset=us-ascii":"https://www.gutenberg.org/ebooks/66794.txt.utf-8","application/rdf+xml":"https://www.gutenberg.org/ebooks/66794.rdf","image/jpeg":"https://www.gutenberg.org/cache/epub/66794/pg66794.cover.medium.jpg","application/octet-stream":"https://www.gutenberg.org/files/66794/66794-0.zip"},"download_count":18},{"id":66975,"title":"The Secret of Toni","authors":[{"name":"Seawell, Molly Elliot","birth_year":1860,"death_year":1916}],"translators":[],"subjects":["France -- Fiction","Friendship -- Fiction","Man-woman relationships -- Fiction"],"bookshelves":[],"languages":["en"],"copyright":false,"media_type":"Text","formats":{"text/html":"https://www.gutenberg.org/ebooks/66975.html.images","application/epub+zip":"https://www.gutenberg.org/ebooks/66975.epub3.images","application/x-mobipocket-ebook":"https://www.gutenberg.org/ebooks/66975.kf8.images","text/plain; charset=us-ascii":"https://www.gutenberg.org/ebooks/66975.txt.utf-8","application/rdf+xml":"https://www.gutenberg.org/ebooks/66975.rdf","image/jpeg":"https://www.gutenberg.org/cache/epub/66975/pg66975.cover.medium.jpg","application/octet-stream":"https://www.gutenberg.org/files/66975/66975-0.zip"},"download_count":18},{"id":67030,"title":"Ralph on the Midnight Flyer; or, The Wreck at Shadow Valley","authors":[{"name":"Chapman, Allen","birth_year":null,"death_year":null}],"translators":[],"subjects":["Railroads -- Juvenile fiction"],"bookshelves":[],"languages":["en"],"copyright":false,"media_type":"Text","formats":{"text/html":"https://www.gutenberg.org/ebooks/67030.html.images","application/epub+zip":"https://www.gutenberg.org/ebooks/67030.epub3.images","application/x-mobipocket-ebook":"https://www.gutenberg.org/ebooks/67030.kf8.images","text/plain; charset=us-ascii":"https://www.gutenberg.org/ebooks/67030.txt.utf-8","application/rdf+xml":"https://www.gutenberg.org/ebooks/67030.rdf","image/jpeg":"https://www.gutenberg.org/cache/epub/67030/pg67030.cover.medium.jpg","application/octet-stream":"https://www.gutenberg.org/files/67030/67030-0.zip"},"download_count":18},{"id":67045,"title":"The Cholera: the claims of the poor upon the rich","authors":[{"name":"Beggs, Thomas","birth_year":1808,"death_year":1896}],"translators":[],"subjects":["Cholera -- Great Britain","Medical policy -- Great Britain","Poor -- Great Britain","Public health -- Great Britain"],"bookshelves":[],"languages":["en"],"copyright":false,"media_type":"Text","formats":{"text/html":"https://www.gutenberg.org/ebooks/67045.html.images","application/epub+zip":"https://www.gutenberg.org/ebooks/67045.epub3.images","application/x-mobipocket-ebook":"https://www.gutenberg.org/ebooks/67045.kf8.images","text/plain; charset=us-ascii":"https://www.gutenberg.org/ebooks/67045.txt.utf-8","application/rdf+xml":"https://www.gutenberg.org/ebooks/67045.rdf","image/jpeg":"https://www.gutenberg.org/cache/epub/67045/pg67045.cover.medium.jpg","application/octet-stream":"https://www.gutenberg.org/files/67045/67045-0.zip"},"download_count":18},{"id":67061,"title":"Lives of Two Cats","authors":[{"name":"Loti, Pierre","birth_year":1850,"death_year":1923}],"translators":[{"name":"Richards, Mary B.","birth_year":null,"death_year":null}],"subjects":["Cats"],"bookshelves":[],"languages":["en"],"copyright":false,"media_type":"Text","formats":{"text/html":"https://www.gutenberg.org/ebooks/67061.html.images","application/epub+zip":"https://www.gutenberg.org/ebooks/67061.epub3.images","application/x-mobipocket-ebook":"https://www.gutenberg.org/ebooks/67061.kf8.images","text/plain; charset=us-ascii":"https://www.gutenberg.org/ebooks/67061.txt.utf-8","application/rdf+xml":"https://www.gutenberg.org/ebooks/67061.rdf","image/jpeg":"https://www.gutenberg.org/cache/epub/67061/pg67061.cover.medium.jpg","application/octet-stream":"https://www.gutenberg.org/files/67061/67061-0.zip"},"download_count":18},{"id":67091,"title":"Norma: A Flower Scout","authors":[{"name":"Roy, Lillian Elizabeth","birth_year":1868,"death_year":1932}],"translators":[],"subjects":["Country life -- Juvenile fiction","Gardening -- Juvenile fiction","Girl Scouts -- Juvenile fiction"],"bookshelves":[],"languages":["en"],"copyright":false,"media_type":"Text","formats":{"text/html":"https://www.gutenberg.org/ebooks/67091.html.images","application/epub+zip":"https://www.gutenberg.org/ebooks/67091.epub3.images","application/x-mobipocket-ebook":"https://www.gutenberg.org/ebooks/67091.kf8.images","text/plain; charset=us-ascii":"https://www.gutenberg.org/ebooks/67091.txt.utf-8","application/rdf+xml":"https://www.gutenberg.org/ebooks/67091.rdf","image/jpeg":"https://www.gutenberg.org/cache/epub/67091/pg67091.cover.medium.jpg","application/octet-stream":"https://www.gutenberg.org/files/67091/67091-0.zip"},"download_count":18},{"id":67100,"title":"Bumps and His Buddies","authors":[{"name":"Gulbransen, Marie Helene","birth_year":null,"death_year":null}],"translators":[],"subjects":["Children -- Juvenile fiction","Children's stories","Fantasy fiction"],"bookshelves":[],"languages":["en"],"copyright":false,"media_type":"Text","formats":{"text/html":"https://www.gutenberg.org/ebooks/67100.html.images","application/epub+zip":"https://www.gutenberg.org/ebooks/67100.epub3.images","application/x-mobipocket-ebook":"https://www.gutenberg.org/ebooks/67100.kf8.images","text/plain; charset=us-ascii":"https://www.gutenberg.org/ebooks/67100.txt.utf-8","application/rdf+xml":"https://www.gutenberg.org/ebooks/67100.rdf","image/jpeg":"https://www.gutenberg.org/cache/epub/67100/pg67100.cover.medium.jpg","application/octet-stream":"https://www.gutenberg.org/files/67100/67100-0.zip"},"download_count":18},{"id":67206,"title":"\"All's not Gold that Glitters;\" or, The Young Californian","authors":[{"name":"Haven, Alice B. (Alice Bradley)","birth_year":1827,"death_year":1863}],"translators":[],"subjects":["California -- Gold discoveries -- Juvenile fiction","Christian life -- Juvenile fiction","Families -- Juvenile fiction","Fathers and sons -- Juvenile fiction","Mothers and sons -- Juvenile fiction","San Francisco (Calif.) -- Juvenile fiction"],"bookshelves":[],"languages":["en"],"copyright":false,"media_type":"Text","formats":{"text/html":"https://www.gutenberg.org/ebooks/67206.html.images","application/epub+zip":"https://www.gutenberg.org/ebooks/67206.epub3.images","application/x-mobipocket-ebook":"https://www.gutenberg.org/ebooks/67206.kf8.images","text/plain; charset=us-ascii":"https://www.gutenberg.org/ebooks/67206.txt.utf-8","application/rdf+xml":"https://www.gutenberg.org/ebooks/67206.rdf","image/jpeg":"https://www.gutenberg.org/cache/epub/67206/pg67206.cover.medium.jpg","application/octet-stream":"https://www.gutenberg.org/files/67206/67206-0.zip"},"download_count":18},{"id":67266,"title":"Dogs Always Know","authors":[{"name":"Holding, Elisabeth Sanxay","birth_year":1889,"death_year":1955}],"translators":[],"subjects":["Boardinghouses -- Fiction","Dogs -- Fiction","Love stories","Man-woman relationships -- Fiction"],"bookshelves":[],"languages":["en"],"copyright":false,"media_type":"Text","formats":{"text/html":"https://www.gutenberg.org/ebooks/67266.html.images","application/epub+zip":"https://www.gutenberg.org/ebooks/67266.epub3.images","application/x-mobipocket-ebook":"https://www.gutenberg.org/ebooks/67266.kf8.images","text/plain; charset=us-ascii":"https://www.gutenberg.org/ebooks/67266.txt.utf-8","application/rdf+xml":"https://www.gutenberg.org/ebooks/67266.rdf","image/jpeg":"https://www.gutenberg.org/cache/epub/67266/pg67266.cover.medium.jpg","application/octet-stream":"https://www.gutenberg.org/files/67266/67266-0.zip"},"download_count":18},{"id":67335,"title":"The Futile Flight of John Arthur Benn","authors":[{"name":"Wilson, Richard","birth_year":1920,"death_year":1987}],"translators":[],"subjects":["Science fiction","Short stories","Time travel -- Fiction"],"bookshelves":[],"languages":["en"],"copyright":false,"media_type":"Text","formats":{"text/html":"https://www.gutenberg.org/ebooks/67335.html.images","application/epub+zip":"https://www.gutenberg.org/ebooks/67335.epub3.images","application/x-mobipocket-ebook":"https://www.gutenberg.org/ebooks/67335.kf8.images","text/plain; charset=us-ascii":"https://www.gutenberg.org/ebooks/67335.txt.utf-8","application/rdf+xml":"https://www.gutenberg.org/ebooks/67335.rdf","image/jpeg":"https://www.gutenberg.org/cache/epub/67335/pg67335.cover.medium.jpg","application/octet-stream":"https://www.gutenberg.org/files/67335/67335-0.zip"},"download_count":18},{"id":67338,"title":"The Two Dianas, Volume 2 (of 3)","authors":[{"name":"Meurice, Paul","birth_year":1820,"death_year":1905}],"translators":[],"subjects":["France -- History -- Henry II, 1547-1559 -- Fiction","Montgomery, Gabriel, comte de, 1530-1574 -- Fiction"],"bookshelves":[],"languages":["en"],"copyright":false,"media_type":"Text","formats":{"text/html":"https://www.gutenberg.org/ebooks/67338.html.images","application/epub+zip":"https://www.gutenberg.org/ebooks/67338.epub3.images","application/x-mobipocket-ebook":"https://www.gutenberg.org/ebooks/67338.kf8.images","text/plain; charset=us-ascii":"https://www.gutenberg.org/ebooks/67338.txt.utf-8","application/rdf+xml":"https://www.gutenberg.org/ebooks/67338.rdf","image/jpeg":"https://www.gutenberg.org/cache/epub/67338/pg67338.cover.medium.jpg","application/octet-stream":"https://www.gutenberg.org/files/67338/67338-0.zip"},"download_count":18},{"id":67411,"title":"Blotted Out","authors":[{"name":"Holding, Elisabeth Sanxay","birth_year":1889,"death_year":1955}],"translators":[],"subjects":["Man-woman relationships -- Fiction","Mystery fiction","Young men -- Fiction"],"bookshelves":[],"languages":["en"],"copyright":false,"media_type":"Text","formats":{"text/html":"https://www.gutenberg.org/ebooks/67411.html.images","application/epub+zip":"https://www.gutenberg.org/ebooks/67411.epub3.images","application/x-mobipocket-ebook":"https://www.gutenberg.org/ebooks/67411.kf8.images","text/plain; charset=us-ascii":"https://www.gutenberg.org/ebooks/67411.txt.utf-8","application/rdf+xml":"https://www.gutenberg.org/ebooks/67411.rdf","image/jpeg":"https://www.gutenberg.org/cache/epub/67411/pg67411.cover.medium.jpg","application/octet-stream":"https://www.gutenberg.org/files/67411/67411-0.zip"},"download_count":18},{"id":67428,"title":"Type and Presses in America: A Brief Historical Sketch of the Development of Type Casting and Press Building in the United States","authors":[{"name":"Hamilton, Frederick W. (Frederick William)","birth_year":1860,"death_year":1940}],"translators":[],"subjects":["Printing presses","Type and type-founding -- United States -- History"],"bookshelves":[],"languages":["en"],"copyright":false,"media_type":"Text","formats":{"text/html":"https://www.gutenberg.org/ebooks/67428.html.images","application/epub+zip":"https://www.gutenberg.org/ebooks/67428.epub3.images","application/x-mobipocket-ebook":"https://www.gutenberg.org/ebooks/67428.kf8.images","text/plain; charset=us-ascii":"https://www.gutenberg.org/ebooks/67428.txt.utf-8","application/rdf+xml":"https://www.gutenberg.org/ebooks/67428.rdf","image/jpeg":"https://www.gutenberg.org/cache/epub/67428/pg67428.cover.medium.jpg","application/octet-stream":"https://www.gutenberg.org/files/67428/67428-0.zip"},"download_count":18},{"id":67430,"title":"Cricket","authors":[{"name":"Timlow, Elizabeth Weston","birth_year":1861,"death_year":1931}],"translators":[],"subjects":["Conduct of life -- Juvenile fiction","Family -- Juvenile fiction","Fourth of July -- Juvenile fiction","Friendship -- Juvenile fiction","Kittens -- Juvenile fiction","Siblings -- Juvenile fiction","Youth -- Conduct of life -- Juvenile fiction"],"bookshelves":[],"languages":["en"],"copyright":false,"media_type":"Text","formats":{"text/html":"https://www.gutenberg.org/ebooks/67430.html.images","application/epub+zip":"https://www.gutenberg.org/ebooks/67430.epub3.images","application/x-mobipocket-ebook":"https://www.gutenberg.org/ebooks/67430.kf8.images","text/plain; charset=us-ascii":"https://www.gutenberg.org/ebooks/67430.txt.utf-8","application/rdf+xml":"https://www.gutenberg.org/ebooks/67430.rdf","image/jpeg":"https://www.gutenberg.org/cache/epub/67430/pg67430.cover.medium.jpg","application/octet-stream":"https://www.gutenberg.org/files/67430/67430-0.zip"},"download_count":18},{"id":67433,"title":"Dixie Kitten","authors":[{"name":"Tappan, Eva March","birth_year":1854,"death_year":1930}],"translators":[],"subjects":["Cats -- Juvenile fiction"],"bookshelves":[],"languages":["en"],"copyright":false,"media_type":"Text","formats":{"text/html":"https://www.gutenberg.org/ebooks/67433.html.images","application/epub+zip":"https://www.gutenberg.org/ebooks/67433.epub3.images","application/x-mobipocket-ebook":"https://www.gutenberg.org/ebooks/67433.kf8.images","text/plain; charset=us-ascii":"https://www.gutenberg.org/ebooks/67433.txt.utf-8","application/rdf+xml":"https://www.gutenberg.org/ebooks/67433.rdf","image/jpeg":"https://www.gutenberg.org/cache/epub/67433/pg67433.cover.medium.jpg","application/octet-stream":"https://www.gutenberg.org/files/67433/67433-0.zip"},"download_count":18},{"id":67453,"title":"A Treatise on the Plague and Yellow Fever: With an Appendix, containing histories of the plague at Athens in the time of the Peloponnesian War; at Constantinople in the time of Justinian; at London in 1665; at Marseilles in 1720","authors":[{"name":"Tytler, James","birth_year":1745,"death_year":1804}],"translators":[],"subjects":["Plague -- Early works to 1800","Yellow fever -- Early works to 1800"],"bookshelves":[],"languages":["en"],"copyright":false,"media_type":"Text","formats":{"text/html":"https://www.gutenberg.org/ebooks/67453.html.images","application/epub+zip":"https://www.gutenberg.org/ebooks/67453.epub3.images","application/x-mobipocket-ebook":"https://www.gutenberg.org/ebooks/67453.kf8.images","text/plain; charset=us-ascii":"https://www.gutenberg.org/ebooks/67453.txt.utf-8","application/rdf+xml":"https://www.gutenberg.org/ebooks/67453.rdf","image/jpeg":"https://www.gutenberg.org/cache/epub/67453/pg67453.cover.medium.jpg","application/octet-stream":"https://www.gutenberg.org/files/67453/67453-0.zip"},"download_count":18},{"id":67495,"title":"From Sea to Sea; Or, Clint Webb's Cruise on the Windjammer","authors":[{"name":"Foster, W. Bert (Walter Bertram)","birth_year":1869,"death_year":1929}],"translators":[],"subjects":["Sea stories","Windjammers (Sailing ships) -- Juvenile fiction"],"bookshelves":[],"languages":["en"],"copyright":false,"media_type":"Text","formats":{"text/html":"https://www.gutenberg.org/ebooks/67495.html.images","application/epub+zip":"https://www.gutenberg.org/ebooks/67495.epub3.images","application/x-mobipocket-ebook":"https://www.gutenberg.org/ebooks/67495.kf8.images","text/plain; charset=us-ascii":"https://www.gutenberg.org/ebooks/67495.txt.utf-8","application/rdf+xml":"https://www.gutenberg.org/ebooks/67495.rdf","image/jpeg":"https://www.gutenberg.org/cache/epub/67495/pg67495.cover.medium.jpg","application/octet-stream":"https://www.gutenberg.org/files/67495/67495-0.zip"},"download_count":18},{"id":67600,"title":"How to Trace a Pedigree","authors":[{"name":"Crofton, Helen Augusta","birth_year":null,"death_year":null}],"translators":[],"subjects":["Genealogy"],"bookshelves":[],"languages":["en"],"copyright":false,"media_type":"Text","formats":{"text/html":"https://www.gutenberg.org/ebooks/67600.html.images","application/epub+zip":"https://www.gutenberg.org/ebooks/67600.epub3.images","application/x-mobipocket-ebook":"https://www.gutenberg.org/ebooks/67600.kf8.images","text/plain; charset=us-ascii":"https://www.gutenberg.org/ebooks/67600.txt.utf-8","application/rdf+xml":"https://www.gutenberg.org/ebooks/67600.rdf","image/jpeg":"https://www.gutenberg.org/cache/epub/67600/pg67600.cover.medium.jpg","application/octet-stream":"https://www.gutenberg.org/files/67600/67600-0.zip"},"download_count":18},{"id":67649,"title":"Lumber Lyrics","authors":[{"name":"Mason, Walt","birth_year":1862,"death_year":1939}],"translators":[],"subjects":["Lumber trade -- Poetry","Prose poems, American"],"bookshelves":[],"languages":["en"],"copyright":false,"media_type":"Text","formats":{"text/html":"https://www.gutenberg.org/ebooks/67649.html.images","application/epub+zip":"https://www.gutenberg.org/ebooks/67649.epub3.images","application/x-mobipocket-ebook":"https://www.gutenberg.org/ebooks/67649.kf8.images","text/plain; charset=us-ascii":"https://www.gutenberg.org/ebooks/67649.txt.utf-8","application/rdf+xml":"https://www.gutenberg.org/ebooks/67649.rdf","image/jpeg":"https://www.gutenberg.org/cache/epub/67649/pg67649.cover.medium.jpg","application/octet-stream":"https://www.gutenberg.org/files/67649/67649-0.zip"},"download_count":18},{"id":67670,"title":"A Marriage in High Life, Volume II","authors":[{"name":"Scott, Lady (Caroline Lucy)","birth_year":1784,"death_year":1857}],"translators":[],"subjects":["Great Britain -- Social life and customs -- 19th century -- Fiction","Marriage -- Fiction"],"bookshelves":[],"languages":["en"],"copyright":false,"media_type":"Text","formats":{"text/html":"https://www.gutenberg.org/ebooks/67670.html.images","application/epub+zip":"https://www.gutenberg.org/ebooks/67670.epub3.images","application/x-mobipocket-ebook":"https://www.gutenberg.org/ebooks/67670.kf8.images","text/plain; charset=us-ascii":"https://www.gutenberg.org/ebooks/67670.txt.utf-8","application/rdf+xml":"https://www.gutenberg.org/ebooks/67670.rdf","image/jpeg":"https://www.gutenberg.org/cache/epub/67670/pg67670.cover.medium.jpg","application/octet-stream":"https://www.gutenberg.org/files/67670/67670-0.zip"},"download_count":18},{"id":67675,"title":"Psychological Aspects of the Problem of Atmospheric Smoke Pollution","authors":[{"name":"Wallin, J. E. Wallace (John Edward Wallace)","birth_year":1876,"death_year":1969}],"translators":[],"subjects":["Human beings -- Effect of environment on","Smoke"],"bookshelves":[],"languages":["en"],"copyright":false,"media_type":"Text","formats":{"text/html":"https://www.gutenberg.org/ebooks/67675.html.images","application/epub+zip":"https://www.gutenberg.org/ebooks/67675.epub3.images","application/x-mobipocket-ebook":"https://www.gutenberg.org/ebooks/67675.kf8.images","text/plain; charset=us-ascii":"https://www.gutenberg.org/ebooks/67675.txt.utf-8","application/rdf+xml":"https://www.gutenberg.org/ebooks/67675.rdf","image/jpeg":"https://www.gutenberg.org/cache/epub/67675/pg67675.cover.medium.jpg","application/octet-stream":"https://www.gutenberg.org/files/67675/67675-0.zip"},"download_count":18},{"id":67693,"title":"The Aldine Speller: Part One, for Grades One and Two","authors":[{"name":"Bryce, Catherine T. (Catherine Turner)","birth_year":1871,"death_year":1951},{"name":"Sherman, Frank J.","birth_year":null,"death_year":null}],"translators":[],"subjects":["Spellers"],"bookshelves":[],"languages":["en"],"copyright":false,"media_type":"Text","formats":{"text/html":"https://www.gutenberg.org/ebooks/67693.html.images","application/epub+zip":"https://www.gutenberg.org/ebooks/67693.epub3.images","application/x-mobipocket-ebook":"https://www.gutenberg.org/ebooks/67693.kf8.images","text/plain; charset=us-ascii":"https://www.gutenberg.org/ebooks/67693.txt.utf-8","application/rdf+xml":"https://www.gutenberg.org/ebooks/67693.rdf","image/jpeg":"https://www.gutenberg.org/cache/epub/67693/pg67693.cover.medium.jpg","application/octet-stream":"https://www.gutenberg.org/files/67693/67693-0.zip"},"download_count":18},{"id":67822,"title":"The Ghost of One Man Coulee","authors":[{"name":"Bower, B. M.","birth_year":1871,"death_year":1940}],"translators":[],"subjects":["Cowboys -- Fiction","Ghost stories","Short stories","Western stories"],"bookshelves":[],"languages":["en"],"copyright":false,"media_type":"Text","formats":{"text/html":"https://www.gutenberg.org/ebooks/67822.html.images","application/epub+zip":"https://www.gutenberg.org/ebooks/67822.epub3.images","application/x-mobipocket-ebook":"https://www.gutenberg.org/ebooks/67822.kf8.images","text/plain; charset=us-ascii":"https://www.gutenberg.org/ebooks/67822.txt.utf-8","application/rdf+xml":"https://www.gutenberg.org/ebooks/67822.rdf","image/jpeg":"https://www.gutenberg.org/cache/epub/67822/pg67822.cover.medium.jpg","application/octet-stream":"https://www.gutenberg.org/files/67822/67822-0.zip"},"download_count":18},{"id":67899,"title":"The Motor Rangers on Blue Water; or, The Secret of the Derelict","authors":[{"name":"Goldfrap, John Henry","birth_year":1879,"death_year":1917}],"translators":[],"subjects":["Adventure stories","Boats and boating -- Juvenile fiction","Derelicts -- Juvenile fiction","Schooners -- Juvenile fiction","Sea stories"],"bookshelves":[],"languages":["en"],"copyright":false,"media_type":"Text","formats":{"text/html":"https://www.gutenberg.org/ebooks/67899.html.images","application/epub+zip":"https://www.gutenberg.org/ebooks/67899.epub3.images","application/x-mobipocket-ebook":"https://www.gutenberg.org/ebooks/67899.kf8.images","text/plain; charset=us-ascii":"https://www.gutenberg.org/ebooks/67899.txt.utf-8","application/rdf+xml":"https://www.gutenberg.org/ebooks/67899.rdf","image/jpeg":"https://www.gutenberg.org/cache/epub/67899/pg67899.cover.medium.jpg","application/octet-stream":"https://www.gutenberg.org/files/67899/67899-0.zip"},"download_count":18},{"id":67905,"title":"Count Zarka: A Romance","authors":[{"name":"Magnay, William, Sir","birth_year":1855,"death_year":1917}],"translators":[],"subjects":["Adventure stories","English fiction -- 20th century"],"bookshelves":[],"languages":["en"],"copyright":false,"media_type":"Text","formats":{"text/html":"https://www.gutenberg.org/ebooks/67905.html.images","application/epub+zip":"https://www.gutenberg.org/ebooks/67905.epub3.images","application/x-mobipocket-ebook":"https://www.gutenberg.org/ebooks/67905.kf8.images","text/plain; charset=us-ascii":"https://www.gutenberg.org/ebooks/67905.txt.utf-8","application/rdf+xml":"https://www.gutenberg.org/ebooks/67905.rdf","image/jpeg":"https://www.gutenberg.org/cache/epub/67905/pg67905.cover.medium.jpg","application/octet-stream":"https://www.gutenberg.org/files/67905/67905-0.zip"},"download_count":18},{"id":67937,"title":"The Song of Tiadatha","authors":[{"name":"Rutter, Owen","birth_year":1889,"death_year":1944}],"translators":[],"subjects":["Longfellow, Henry Wadsworth, 1807-1882 -- Parodies, imitations, etc.","World War, 1914-1918 -- Poetry"],"bookshelves":[],"languages":["en"],"copyright":false,"media_type":"Text","formats":{"text/html":"https://www.gutenberg.org/ebooks/67937.html.images","application/epub+zip":"https://www.gutenberg.org/ebooks/67937.epub3.images","application/x-mobipocket-ebook":"https://www.gutenberg.org/ebooks/67937.kf8.images","text/plain; charset=us-ascii":"https://www.gutenberg.org/ebooks/67937.txt.utf-8","application/rdf+xml":"https://www.gutenberg.org/ebooks/67937.rdf","image/jpeg":"https://www.gutenberg.org/cache/epub/67937/pg67937.cover.medium.jpg","application/octet-stream":"https://www.gutenberg.org/files/67937/67937-0.zip"},"download_count":18}]}