{"count":58808,"next":"http://129.241.150.113:8000/books/?languages=en&page=1818","previous":"http://129.241.150.113:8000/books/?languages=en&page=1816","results":[{"id":9736,"title":"Sunday under Three Heads","authors":[{"name":"Dickens, Charles","birth_year":1812,"death_year":1870}],"translators":[],"subjects":["England -- Social life and customs -- 19th century","Sunday"],"bookshelves":[],"languages":["en"],"copyright":true,"media_type":"Sound","formats":{"text/plain; charset=us-ascii":"https://www.gutenberg.org/files/9736/9736-readme.txt","text/html; charset=iso-8859-1":"https://www.gutenberg.org/files/9736/9736-index.htm","audio/mpeg":"https://www.gutenberg.org/files/9736/mp3/9736-000.mp3","application/rdf+xml":"https://www.gutenberg.org/ebooks/9736.rdf","application/octet-stream":"https://www.gutenberg.org/files/9736/9736-mp3.zip"},"download_count":10},{"id":9742,"title":"The Wreck of the Golden Mary","authors":[{"name":"Dickens, Charles","birth_year":1812,"death_year":1870}],"translators":[],"subjects":["Gold mines and mining -- Fiction","Sea stories","Shipwrecks -- Fiction","Short stories"],"bookshelves":[],"languages":["en"],"copyright":true,"media_type":"Sound","formats":{"text/plain; charset=us-ascii":"https://www.gutenberg.org/files/9742/9742-readme.txt","text/html; charset=iso-8859-1":"https://www.gutenberg.org/files/9742/9742-index.htm","audio/mpeg":"https://www.gutenberg.org/files/9742/mp3/9742-000.mp3","application/rdf+xml":"https://www.gutenberg.org/ebooks/9742.rdf","application/octet-stream":"https://www.gutenberg.org/files/9742/9742-mp3.zip"},"download_count":10},{"id":10078,"title":"Plain Words from America: A Letter to a German Professor (1917)","authors":[{"name":"Johnson, Douglas Wilson","birth_year":1878,"death_year":1944}],"translators":[],"subjects":["World War, 1914-1918 -- Public opinion"],"bookshelves":["Germany"],"languages":["en"],"copyright":false,"media_type":"Text","formats":{"text/html":"https://www.gutenberg.org/ebooks/10078.html.images","application/epub+zip":"https://www.gutenberg.org/ebooks/10078.epub3.images","application/x-mobipocket-ebook":"https://www.gutenberg.org/ebooks/10078.kf8.images","text/plain; charset=us-ascii":"https://www.gutenberg.org/ebooks/10078.txt.utf-8","text/plain; charset=iso-8859-1":"https://www.gutenberg.org/files/10078/10078-8.txt","application/rdf+xml":"https://www.gutenberg.org/ebooks/10078.rdf","image/jpeg":"https://www.gutenberg.org/cache/epub/10078/pg10078.cover.medium.jpg","application/octet-stream":"https://www.gutenberg.org/cache/epub/10078/pg10078-h.zip"},"download_count":10},{"id":10191,"title":"Fourth of July at Punkin Center","authors":[{"name":"Stewart, Cal","birth_year":1856,"death_year":1919}],"translators":[],"subjects":["American wit and humor","Humorous recitations"],"bookshelves":[],"languages":["en"],"copyright":false,"media_type":"Sound","formats":{"text/plain; charset=us-ascii":"https://www.gutenberg.org/files/10191/10191-m/10191-m-readme.txt","audio/mpeg":"https://www.gutenberg.org/files/10191/10191-m/10191-m-001.mp3","application/rdf+xml":"https://www.gutenberg.org/ebooks/10191.rdf"},"download_count":10},{"id":10208,"title":"The Rights of Labor","authors":[{"name":"Taft, William H. (William Howard)","birth_year":1857,"death_year":1930}],"translators":[],"subjects":["Industrial relations -- United States","Labor unions -- United States"],"bookshelves":[],"languages":["en"],"copyright":false,"media_type":"Sound","formats":{"text/plain; charset=us-ascii":"https://www.gutenberg.org/files/10208/10208-m/10208-m-readme.txt","audio/mpeg":"https://www.gutenberg.org/files/10208/10208-m/10208-m-001.mp3","application/rdf+xml":"https://www.gutenberg.org/ebooks/10208.rdf"},"download_count":10},{"id":10227,"title":"Tolstoy's Plower Story","authors":[],"translators":[],"subjects":["Tolstoy, Leo, graf, 1828-1910 -- Anecdotes"],"bookshelves":[],"languages":["en"],"copyright":false,"media_type":"Sound","formats":{"text/plain; charset=us-ascii":"https://www.gutenberg.org/files/10227/10227-m/10227-m-readme.txt","audio/mpeg":"https://www.gutenberg.org/files/10227/10227-m/10227-m-001.mp3","application/rdf+xml":"https://www.gutenberg.org/ebooks/10227.rdf"},"download_count":10},{"id":10389,"title":"Northern Trails, Book I.","authors":[{"name":"Long, William J. (William Joseph)","birth_year":1867,"death_year":1952}],"translators":[],"subjects":["Animals -- Anecdotes"],"bookshelves":[],"languages":["en"],"copyright":false,"media_type":"Text","formats":{"text/html":"https://www.gutenberg.org/ebooks/10389.html.images","application/epub+zip":"https://www.gutenberg.org/ebooks/10389.epub3.images","application/x-mobipocket-ebook":"https://www.gutenberg.org/ebooks/10389.kf8.images","text/plain; charset=us-ascii":"https://www.gutenberg.org/ebooks/10389.txt.utf-8","text/plain; charset=iso-8859-1":"https://www.gutenberg.org/files/10389/10389-8.txt","application/rdf+xml":"https://www.gutenberg.org/ebooks/10389.rdf","image/jpeg":"https://www.gutenberg.org/cache/epub/10389/pg10389.cover.medium.jpg","application/octet-stream":"https://www.gutenberg.org/cache/epub/10389/pg10389-h.zip"},"download_count":10},{"id":10423,"title":"Triplets : Fox Trot","authors":[],"translators":[],"subjects":["Foxtrots","Xylophone with orchestra"],"bookshelves":[],"languages":["en"],"copyright":false,"media_type":"Sound","formats":{"text/plain; charset=us-ascii":"https://www.gutenberg.org/files/10423/10423-m/10423-m-readme.txt","text/plain":"https://www.gutenberg.org/files/10423/10423-m.zip","audio/mpeg":"https://www.gutenberg.org/files/10423/10423-m/10423-m-001.mp3","application/rdf+xml":"https://www.gutenberg.org/ebooks/10423.rdf"},"download_count":10},{"id":11006,"title":"The Book with the Yellow Cover","authors":[{"name":"Wetterau, John Moncure","birth_year":null,"death_year":null}],"translators":[],"subjects":["Poetry"],"bookshelves":[],"languages":["en"],"copyright":true,"media_type":"Text","formats":{"text/html":"https://www.gutenberg.org/ebooks/11006.html.images","application/epub+zip":"https://www.gutenberg.org/ebooks/11006.epub3.images","application/x-mobipocket-ebook":"https://www.gutenberg.org/ebooks/11006.kf8.images","text/plain; charset=us-ascii":"https://www.gutenberg.org/ebooks/11006.txt.utf-8","text/plain":"https://www.gutenberg.org/files/11006/11006.zip","application/rdf+xml":"https://www.gutenberg.org/ebooks/11006.rdf","image/jpeg":"https://www.gutenberg.org/cache/epub/11006/pg11006.cover.medium.jpg","application/octet-stream":"https://www.gutenberg.org/cache/epub/11006/pg11006-h.zip"},"download_count":10},{"id":11264,"title":"The Mirror of Literature, Amusement, and Instruction. Volume 12, No. 327, August 16, 1828","authors":[{"name":"Various","birth_year":null,"death_year":null}],"translators":[],"subjects":["Popular literature -- Great Britain -- Periodicals"],"bookshelves":["The Mirror of Literature, Amusement, and Instruction"],"languages":["en"],"copyright":false,"media_type":"Text","formats":{"text/html":"https://www.gutenberg.org/ebooks/11264.html.images","text/html; charset=iso-8859-1":"https://www.gutenberg.org/files/11264/11264-h/11264-h.htm","application/epub+zip":"https://www.gutenberg.org/ebooks/11264.epub3.images","application/x-mobipocket-ebook":"https://www.gutenberg.org/ebooks/11264.kf8.images","text/plain; charset=us-ascii":"https://www.gutenberg.org/ebooks/11264.txt.utf-8","text/plain; charset=iso-8859-1":"https://www.gutenberg.org/files/11264/11264-8.txt","text/plain":"https://www.gutenberg.org/files/11264/11264.zip","application/rdf+xml":"https://www.gutenberg.org/ebooks/11264.rdf","image/jpeg":"https://www.gutenberg.org/cache/epub/11264/pg11264.cover.medium.jpg","application/octet-stream":"https://www.gutenberg.org/cache/epub/11264/pg11264-h.zip"},"download_count":10},{"id":11316,"title":"The Atlantic Monthly, Volume 08, No. 47, September, 1861: A Magazine of Literature, Art, and Politics","authors":[{"name":"Various","birth_year":null,"death_year":null}],"translators":[],"subjects":["American periodicals"],"bookshelves":["The Atlantic Monthly"],"languages":["en"],"copyright":false,"media_type":"Text","formats":{"text/html":"https://www.gutenberg.org/ebooks/11316.html.images","application/epub+zip":"https://www.gutenberg.org/ebooks/11316.epub3.images","application/x-mobipocket-ebook":"https://www.gutenberg.org/ebooks/11316.kf8.images","text/plain; charset=us-ascii":"https://www.gutenberg.org/ebooks/11316.txt.utf-8","text/plain; charset=iso-8859-1":"https://www.gutenberg.org/files/11316/11316-8.txt","application/rdf+xml":"https://www.gutenberg.org/ebooks/11316.rdf","image/jpeg":"https://www.gutenberg.org/cache/epub/11316/pg11316.cover.medium.jpg","application/octet-stream":"https://www.gutenberg.org/cache/epub/11316/pg11316-h.zip"},"download_count":10},{"id":11401,"title":"The Mirror of Literature, Amusement, and Instruction. Volume 10, No. 271, September 1, 1827","authors":[{"name":"Various","birth_year":null,"death_year":null}],"translators":[],"subjects":["Popular literature -- Great Britain -- Periodicals"],"bookshelves":["The Mirror of Literature, Amusement, and Instruction"],"languages":["en"],"copyright":false,"media_type":"Text","formats":{"text/html":"https://www.gutenberg.org/ebooks/11401.html.images","text/html; charset=iso-8859-1":"https://www.gutenberg.org/files/11401/11401-h/11401-h.htm","application/epub+zip":"https://www.gutenberg.org/ebooks/11401.epub3.images","application/x-mobipocket-ebook":"https://www.gutenberg.org/ebooks/11401.kf8.images","text/plain; charset=us-ascii":"https://www.gutenberg.org/ebooks/11401.txt.utf-8","text/plain; charset=iso-8859-1":"https://www.gutenberg.org/files/11401/11401-8.txt","application/rdf+xml":"https://www.gutenberg.org/ebooks/11401.rdf","image/jpeg":"https://www.gutenberg.org/cache/epub/11401/pg11401.cover.medium.jpg","application/octet-stream":"https://www.gutenberg.org/cache/epub/11401/pg11401-h.zip"},"download_count":10},{"id":12292,"title":"Punch, or the London Charivari, Volume 99, July 26, 1890","authors":[{"name":"Various","birth_year":null,"death_year":null}],"translators":[],"subjects":["English wit and humor -- Periodicals"],"bookshelves":["Punch"],"languages":["en"],"copyright":false,"media_type":"Text","formats":{"text/html":"https://www.gutenberg.org/ebooks/12292.html.images","text/html; charset=iso-8859-1":"https://www.gutenberg.org/files/12292/12292-h/12292-h.htm","application/epub+zip":"https://www.gutenberg.org/ebooks/12292.epub3.images","application/x-mobipocket-ebook":"https://www.gutenberg.org/ebooks/12292.kf8.images","text/plain; charset=us-ascii":"https://www.gutenberg.org/ebooks/12292.txt.utf-8","text/plain; charset=iso-8859-1":"https://www.gutenberg.org/files/12292/12292-8.txt","application/rdf+xml":"https://www.gutenberg.org/ebooks/12292.rdf","image/jpeg":"https://www.gutenberg.org/cache/epub/12292/pg12292.cover.medium.jpg","application/octet-stream":"https://www.gutenberg.org/cache/epub/12292/pg12292-h.zip"},"download_count":10},{"id":12323,"title":"Punch, or the London Charivari, Volume 99, August 2, 1890","authors":[{"name":"Various","birth_year":null,"death_year":null}],"translators":[],"subjects":["English wit and humor -- Periodicals"],"bookshelves":["Punch"],"languages":["en"],"copyright":false,"media_type":"Text","formats":{"text/html":"https://www.gutenberg.org/ebooks/12323.html.images","text/html; charset=iso-8859-1":"https://www.gutenberg.org/files/12323/12323-h/12323-h.htm","application/epub+zip":"https://www.gutenberg.org/ebooks/12323.epub3.images","application/x-mobipocket-ebook":"https://www.gutenberg.org/ebooks/12323.kf8.images","text/plain; charset=us-ascii":"https://www.gutenberg.org/ebooks/12323.txt.utf-8","text/plain; charset=iso-8859-1":"https://www.gutenberg.org/files/12323/12323-8.txt","application/rdf+xml":"https://www.gutenberg.org/ebooks/12323.rdf","image/jpeg":"https://www.gutenberg.org/cache/epub/12323/pg12323.cover.medium.jpg","application/octet-stream":"https://www.gutenberg.org/cache/epub/12323/pg12323-h.zip"},"download_count":10},{"id":12554,"title":"The Mirror of Literature, Amusement, and Instruction. Volume 19, No. 555, Supplementary Number","authors":[{"name":"Various","birth_year":null,"death_year":null}],"translators":[],"subjects":["Popular literature -- Great Britain -- Periodicals"],"bookshelves":["The Mirror of Literature, Amusement, and Instruction"],"languages":["en"],"copyright":false,"media_type":"Text","formats":{"text/html":"https://www.gutenberg.org/ebooks/12554.html.images","text/html; charset=iso-8859-1":"https://www.gutenberg.org/files/12554/12554-h/12554-h.htm","application/epub+zip":"https://www.gutenberg.org/ebooks/12554.epub3.images","application/x-mobipocket-ebook":"https://www.gutenberg.org/ebooks/12554.kf8.images","text/plain; charset=us-ascii":"https://www.gutenberg.org/ebooks/12554.txt.utf-8","text/plain; charset=iso-8859-1":"https://www.gutenberg.org/files/12554/12554-8.txt","application/rdf+xml":"https://www.gutenberg.org/ebooks/12554.rdf","image/jpeg":"https://www.gutenberg.org/cache/epub/12554/pg12554.cover.medium.jpg","application/octet-stream":"https://www.gutenberg.org/cache/epub/12554/pg12554-h.zip"},"download_count":10},{"id":12593,"title":"The Atlantic Monthly, Volume 11, No. 65, March, 1863: A Magazine of Literature, Art, and Politics","authors":[{"name":"Various","birth_year":null,"death_year":null}],"translators":[],"subjects":["American periodicals"],"bookshelves":["The Atlantic Monthly"],"languages":["en"],"copyright":false,"media_type":"Text","formats":{"text/html":"https://www.gutenberg.org/ebooks/12593.html.images","application/epub+zip":"https://www.gutenberg.org/ebooks/12593.epub3.images","application/x-mobipocket-ebook":"https://www.gutenberg.org/ebooks/12593.kf8.images","text/plain; charset=us-ascii":"https://www.gutenberg.org/ebooks/12593.txt.utf-8","text/plain; charset=iso-8859-1":"https://www.gutenberg.org/files/12593/12593-8.txt","application/rdf+xml":"https://www.gutenberg.org/ebooks/12593.rdf","image/jpeg":"https://www.gutenberg.org/cache/epub/12593/pg12593.cover.medium.jpg","application/octet-stream":"https://www.gutenberg.org/cache/epub/12593/pg12593-h.zip"},"download_count":10},{"id":12609,"title":"Back to the Woods: The Story of a Fall from Grace","authors":[{"name":"Hobart, George V. (George Vere)","birth_year":1867,"death_year":1926}],"translators":[],"subjects":["Humorous stories","United States -- Social life and customs -- Fiction"],"bookshelves":[],"languages":["en"],"copyright":false,"media_type":"Text","formats":{"text/html":"https://www.gutenberg.org/ebooks/12609.html.images","application/epub+zip":"https://www.gutenberg.org/ebooks/12609.epub3.images","application/x-mobipocket-ebook":"https://www.gutenberg.org/ebooks/12609.kf8.images","text/plain; charset=us-ascii":"https://www.gutenberg.org/ebooks/12609.txt.utf-8","application/rdf+xml":"https://www.gutenberg.org/ebooks/12609.rdf","image/jpeg":"https://www.gutenberg.org/cache/epub/12609/pg12609.cover.medium.jpg","application/octet-stream":"https://www.gutenberg.org/cache/epub/12609/pg12609-h.zip"},"download_count":10},{"id":12716,"title":"Dedication","authors":[{"name":"Kipling, Rudyard","birth_year":1865,"death_year":1936}],"translators":[],"subjects":["Poetry"],"bookshelves":[],"languages":["en"],"copyright":true,"media_type":"Sound","formats":{"text/plain; charset=us-ascii":"https://www.gutenberg.org/files/12716/12716-readme.txt","application/octet-stream":"https://www.gutenberg.org/files/12716/readme-license.txt","audio/mpeg":"https://www.gutenberg.org/files/12716/12716-m/12716-m.mp3","application/rdf+xml":"https://www.gutenberg.org/ebooks/12716.rdf"},"download_count":10},{"id":12721,"title":"Sonnet #55","authors":[{"name":"Shakespeare, William","birth_year":1564,"death_year":1616}],"translators":[],"subjects":["English poetry","Sonnets, English"],"bookshelves":[],"languages":["en"],"copyright":true,"media_type":"Sound","formats":{"text/plain; charset=us-ascii":"https://www.gutenberg.org/files/12721/12721-readme.txt","application/octet-stream":"https://www.gutenberg.org/files/12721/readme-license.txt","audio/mpeg":"https://www.gutenberg.org/files/12721/12721-m/12721-m-055.mp3","application/rdf+xml":"https://www.gutenberg.org/ebooks/12721.rdf"},"download_count":10},{"id":12772,"title":"Cowper","authors":[{"name":"Smith, Goldwin","birth_year":1823,"death_year":1910}],"translators":[],"subjects":["Cowper, William, 1731-1800","Poets, English -- 18th century -- Biography"],"bookshelves":[],"languages":["en"],"copyright":false,"media_type":"Text","formats":{"text/html":"https://www.gutenberg.org/ebooks/12772.html.images","application/epub+zip":"https://www.gutenberg.org/ebooks/12772.epub3.images","application/x-mobipocket-ebook":"https://www.gutenberg.org/ebooks/12772.kf8.images","text/plain; charset=us-ascii":"https://www.gutenberg.org/ebooks/12772.txt.utf-8","application/rdf+xml":"https://www.gutenberg.org/ebooks/12772.rdf","image/jpeg":"https://www.gutenberg.org/cache/epub/12772/pg12772.cover.medium.jpg","application/octet-stream":"https://www.gutenberg.org/cache/epub/12772/pg12772-h.zip"},"download_count":10},{"id":12965,"title":"The Mirror of Literature, Amusement, and Instruction. Volume 17, No. 486, April 23, 1831","authors":[{"name":"Various","birth_year":null,"death_year":null}],"translators":[],"subjects":["Popular literature -- Great Britain -- Periodicals"],"bookshelves":["The Mirror of Literature, Amusement, and Instruction"],"languages":["en"],"copyright":false,"media_type":"Text","formats":{"text/html":"https://www.gutenberg.org/ebooks/12965.html.images","text/html; charset=iso-8859-1":"https://www.gutenberg.org/files/12965/12965-h/12965-h.htm","application/epub+zip":"https://www.gutenberg.org/ebooks/12965.epub3.images","application/x-mobipocket-ebook":"https://www.gutenberg.org/ebooks/12965.kf8.images","text/plain; charset=us-ascii":"https://www.gutenberg.org/ebooks/12965.txt.utf-8","text/plain; charset=iso-8859-1":"https://www.gutenberg.org/files/12965/12965-8.txt","application/rdf+xml":"https://www.gutenberg.org/ebooks/12965.rdf","image/jpeg":"https://www.gutenberg.org/cache/epub/12965/pg12965.cover.medium.jpg","application/octet-stream":"https://www.gutenberg.org/cache/epub/12965/pg12965-h.zip"},"download_count":10},{"id":13020,"title":"The Boy Allies at Verdun; Or, Saving France from the Enemy","authors":[{"name":"Hayes, Clair W. (Clair Wallace)","birth_year":1887,"death_year":null}],"translators":[],"subjects":["Verdun, Battle of, Verdun, France, 1916 -- Juvenile fiction","World War, 1914-1918 -- France -- Juvenile fiction"],"bookshelves":["Children's Book Series","World War I"],"languages":["en"],"copyright":false,"media_type":"Text","formats":{"text/html":"https://www.gutenberg.org/ebooks/13020.html.images","application/epub+zip":"https://www.gutenberg.org/ebooks/13020.epub3.images","application/x-mobipocket-ebook":"https://www.gutenberg.org/ebooks/13020.kf8.images","text/plain; charset=us-ascii":"https://www.gutenberg.org/ebooks/13020.txt.utf-8","text/plain; charset=iso-8859-1":"https://www.gutenberg.org/files/13020/13020-8.txt","application/rdf+xml":"https://www.gutenberg.org/ebooks/13020.rdf","image/jpeg":"https://www.gutenberg.org/cache/epub/13020/pg13020.cover.medium.jpg","application/octet-stream":"https://www.gutenberg.org/cache/epub/13020/pg13020-h.zip"},"download_count":10},{"id":13066,"title":"Lord Elgin","authors":[{"name":"Bourinot, John George","birth_year":1837,"death_year":1902}],"translators":[],"subjects":["Canada -- History -- 1841-1867","Elgin, James Bruce, Earl of, 1811-1863"],"bookshelves":[],"languages":["en"],"copyright":false,"media_type":"Text","formats":{"text/html":"https://www.gutenberg.org/ebooks/13066.html.images","application/epub+zip":"https://www.gutenberg.org/ebooks/13066.epub3.images","application/x-mobipocket-ebook":"https://www.gutenberg.org/ebooks/13066.kf8.images","text/plain; charset=us-ascii":"https://www.gutenberg.org/ebooks/13066.txt.utf-8","text/plain; charset=iso-8859-1":"https://www.gutenberg.org/files/13066/13066-8.txt","application/rdf+xml":"https://www.gutenberg.org/ebooks/13066.rdf","image/jpeg":"https://www.gutenberg.org/cache/epub/13066/pg13066.cover.medium.jpg","application/octet-stream":"https://www.gutenberg.org/cache/epub/13066/pg13066-h.zip"},"download_count":10},{"id":13353,"title":"Four Psalms XXIII. XXXVI. LII. CXXI.: Interpreted for practical use","authors":[{"name":"Smith, George Adam","birth_year":1856,"death_year":1942}],"translators":[],"subjects":["Bible. Psalms -- Criticism, interpretation, etc."],"bookshelves":[],"languages":["en"],"copyright":false,"media_type":"Text","formats":{"text/html":"https://www.gutenberg.org/ebooks/13353.html.images","application/epub+zip":"https://www.gutenberg.org/ebooks/13353.epub3.images","application/x-mobipocket-ebook":"https://www.gutenberg.org/ebooks/13353.kf8.images","text/plain; charset=us-ascii":"https://www.gutenberg.org/ebooks/13353.txt.utf-8","application/rdf+xml":"https://www.gutenberg.org/ebooks/13353.rdf","image/jpeg":"https://www.gutenberg.org/cache/epub/13353/pg13353.cover.medium.jpg","application/octet-stream":"https://www.gutenberg.org/cache/epub/13353/pg13353-h.zip"},"download_count":10},{"id":13895,"title":"Patricia","authors":[{"name":"Jacobs, Caroline Emilia","birth_year":1872,"death_year":1909}],"translators":[],"subjects":["Girls -- Juvenile fiction"],"bookshelves":[],"languages":["en"],"copyright":false,"media_type":"Text","formats":{"text/html":"https://www.gutenberg.org/ebooks/13895.html.images","text/html; charset=iso-8859-1":"https://www.gutenberg.org/files/13895/13895-h/13895-h.htm","application/epub+zip":"https://www.gutenberg.org/ebooks/13895.epub3.images","application/x-mobipocket-ebook":"https://www.gutenberg.org/ebooks/13895.kf8.images","text/plain; charset=us-ascii":"https://www.gutenberg.org/ebooks/13895.txt.utf-8","text/plain; charset=iso-8859-1":"https://www.gutenberg.org/files/13895/13895-8.txt","application/rdf+xml":"https://www.gutenberg.org/ebooks/13895.rdf","image/jpeg":"https://www.gutenberg.org/cache/epub/13895/pg13895.cover.medium.jpg","application/octet-stream":"https://www.gutenberg.org/cache/epub/13895/pg13895-h.zip"},"download_count":10},{"id":14344,"title":"Punch, or the London Charivari, Volume 102, February 27, 1892","authors":[{"name":"Various","birth_year":null,"death_year":null}],"translators":[],"subjects":["English wit and humor -- Periodicals"],"bookshelves":["Punch"],"languages":["en"],"copyright":false,"media_type":"Text","formats":{"text/html":"https://www.gutenberg.org/ebooks/14344.html.images","text/html; charset=iso-8859-1":"https://www.gutenberg.org/files/14344/14344-h/14344-h.htm","application/epub+zip":"https://www.gutenberg.org/ebooks/14344.epub3.images","application/x-mobipocket-ebook":"https://www.gutenberg.org/ebooks/14344.kf8.images","text/plain; charset=us-ascii":"https://www.gutenberg.org/ebooks/14344.txt.utf-8","text/plain; charset=iso-8859-1":"https://www.gutenberg.org/files/14344/14344-8.txt","application/rdf+xml":"https://www.gutenberg.org/ebooks/14344.rdf","image/jpeg":"https://www.gutenberg.org/cache/epub/14344/pg14344.cover.medium.jpg","application/octet-stream":"https://www.gutenberg.org/cache/epub/14344/pg14344-h.zip"},"download_count":10},{"id":14767,"title":"Punch, or the London Charivari, Volume 152, February 21, 1917","authors":[{"name":"Various","birth_year":null,"death_year":null}],"translators":[],"subjects":["English wit and humor -- Periodicals"],"bookshelves":["Punch"],"languages":["en"],"copyright":false,"media_type":"Text","formats":{"text/html":"https://www.gutenberg.org/ebooks/14767.html.images","text/html; charset=iso-8859-1":"https://www.gutenberg.org/files/14767/14767-h/14767-h.htm","application/epub+zip":"https://www.gutenberg.org/ebooks/14767.epub3.images","application/x-mobipocket-ebook":"https://www.gutenberg.org/ebooks/14767.kf8.images","text/plain; charset=us-ascii":"https://www.gutenberg.org/ebooks/14767.txt.utf-8","text/plain; charset=iso-8859-1":"https://www.gutenberg.org/files/14767/14767-8.txt","application/rdf+xml":"https://www.gutenberg.org/ebooks/14767.rdf","image/jpeg":"https://www.gutenberg.org/cache/epub/14767/pg14767.cover.medium.jpg","application/octet-stream":"https://www.gutenberg.org/cache/epub/14767/pg14767-h.zip"},"download_count":10},{"id":14779,"title":"Mr. Fortescue: An Andean Romance","authors":[{"name":"Westall, William","birth_year":1834,"death_year":1903}],"translators":[],"subjects":["Andes Region -- Fiction"],"bookshelves":[],"languages":["en"],"copyright":false,"media_type":"Text","formats":{"text/html":"https://www.gutenberg.org/ebooks/14779.html.images","text/html; charset=iso-8859-1":"https://www.gutenberg.org/files/14779/14779-h/14779-h.htm","application/epub+zip":"https://www.gutenberg.org/ebooks/14779.epub3.images","application/x-mobipocket-ebook":"https://www.gutenberg.org/ebooks/14779.kf8.images","text/plain; charset=us-ascii":"https://www.gutenberg.org/ebooks/14779.txt.utf-8","text/plain; charset=iso-8859-1":"https://www.gutenberg.org/files/14779/14779-8.txt","application/rdf+xml":"https://www.gutenberg.org/ebooks/14779.rdf","image/jpeg":"https://www.gutenberg.org/cache/epub/14779/pg14779.cover.medium.jpg","application/octet-stream":"https://www.gutenberg.org/cache/epub/14779/pg14779-h.zip"},"download_count":10},{"id":14926,"title":"Punch, or the London Charivari, Volume 1, September 5, 1841","authors":[{"name":"Various","birth_year":null,"death_year":null}],"translators":[],"subjects":["English wit and humor -- Periodicals"],"bookshelves":["Punch"],"languages":["en"],"copyright":false,"media_type":"Text","formats":{"text/html":"https://www.gutenberg.org/ebooks/14926.html.images","text/html; charset=iso-8859-1":"https://www.gutenberg.org/files/14926/14926-h/14926-h.htm","application/epub+zip":"https://www.gutenberg.org/ebooks/14926.epub3.images","application/x-mobipocket-ebook":"https://www.gutenberg.org/ebooks/14926.kf8.images","text/plain; charset=us-ascii":"https://www.gutenberg.org/ebooks/14926.txt.utf-8","text/plain; charset=iso-8859-1":"https://www.gutenberg.org/files/14926/14926-8.txt","application/rdf+xml":"https://www.gutenberg.org/ebooks/14926.rdf","image/jpeg":"https://www.gutenberg.org/cache/epub/14926/pg14926.cover.medium.jpg","application/octet-stream":"https://www.gutenberg.org/cache/epub/14926/pg14926-h.zip"},"download_count":10},{"id":14935,"title":"Punch, or the London Charivari, Volume 1, November 6, 1841,","authors":[{"name":"Various","birth_year":null,"death_year":null}],"translators":[],"subjects":["English wit and humor -- Periodicals"],"bookshelves":["Punch"],"languages":["en"],"copyright":false,"media_type":"Text","formats":{"text/html":"https://www.gutenberg.org/ebooks/14935.html.images","text/html; charset=iso-8859-1":"https://www.gutenberg.org/files/14935/14935-h/14935-h.htm","application/epub+zip":"https://www.gutenberg.org/ebooks/14935.epub3.images","application/x-mobipocket-ebook":"https://www.gutenberg.org/ebooks/14935.kf8.images","text/plain; charset=us-ascii":"https://www.gutenberg.org/ebooks/14935.txt.utf-8","text/plain; charset=iso-8859-1":"https://www.gutenberg.org/files/14935/14935-8.txt","application/rdf+xml":"https://www.gutenberg.org/ebooks/14935.rdf","image/jpeg":"https://www.gutenberg.org/cache/epub/14935/pg14935.cover.medium.jpg","application/octet-stream":"https://www.gutenberg.org/cache/epub/14935/pg14935-h.zip"},"download_count":10},{"id":15439,"title":"Punch, or the London Charivari, Volume 103, October 1, 1892","authors":[{"name":"Various","birth_year":null,"death_year":null}],"translators":[],"subjects":["English wit and humor -- Periodicals"],"bookshelves":["Punch"],"languages":["en"],"copyright":false,"media_type":"Text","formats":{"text/html":"https://www.gutenberg.org/ebooks/15439.html.images","text/html; charset=iso-8859-1":"https://www.gutenberg.org/files/15439/15439-h/15439-h.htm","application/epub+zip":"https://www.gutenberg.org/ebooks/15439.epub3.images","application/x-mobipocket-ebook":"https://www.gutenberg.org/ebooks/15439.kf8.images","text/plain; charset=us-ascii":"https://www.gutenberg.org/ebooks/15439.txt.utf-8","text/plain; charset=iso-8859-1":"https://www.gutenberg.org/files/15439/15439-8.txt","application/rdf+xml":"https://www.gutenberg.org/ebooks/15439.rdf","image/jpeg":"https://www.gutenberg.org/cache/epub/15439/pg15439.cover.medium.jpg","application/octet-stream":"https://www.gutenberg.org/cache/epub/15439/pg15439-h.zip"},"download_count":10},{"id":16024,"title":"The Great Round World and What Is Going On In It, Vol. 1, No. 46, September 23, 1897: A Weekly Magazine for Boys and Girls","authors":[{"name":"Various","birth_year":null,"death_year":null}],"translators":[],"subjects":["History, Modern -- 19th century -- Juvenile literature -- Periodicals"],"bookshelves":["The Great Round World And What Is Going On In It"],"languages":["en"],"copyright":false,"media_type":"Text","formats":{"text/html":"https://www.gutenberg.org/ebooks/16024.html.images","text/html; charset=iso-8859-1":"https://www.gutenberg.org/files/16024/16024-h/16024-h.htm","application/epub+zip":"https://www.gutenberg.org/ebooks/16024.epub3.images","application/x-mobipocket-ebook":"https://www.gutenberg.org/ebooks/16024.kf8.images","text/plain; charset=us-ascii":"https://www.gutenberg.org/ebooks/16024.txt.utf-8","text/plain; charset=iso-8859-1":"https://www.gutenberg.org/files/16024/16024-8.txt","application/rdf+xml":"https://www.gutenberg.org/ebooks/16024.rdf","image/jpeg":"https://www.gutenberg.org/cache/epub/16024/pg16024.cover.medium.jpg","application/octet-stream":"https://www.gutenberg.org/cache/epub/16024/pg16024-h.zip"},"download_count":10}]}