{"count":58808,"next":"http://129.241.150.113:8000/books/?languages=en&page=1417","previous":"http://129.241.150.113:8000/books/?languages=en&page=1415","results":[{"id":66562,"title":"Mission Work among the Negroes and the Indians:: What Is Being Accomplished by Means of the Annual Collection Taken Up for Our Missions","authors":[{"name":"Catholic Church. Commission for Catholic Missions among the Colored People and the Indians","birth_year":null,"death_year":null}],"translators":[],"subjects":["African Americans -- Missions","Catholic Church -- Missions -- United States","Indians of North America -- Missions"],"bookshelves":[],"languages":["en"],"copyright":false,"media_type":"Text","formats":{"text/html":"https://www.gutenberg.org/ebooks/66562.html.images","application/epub+zip":"https://www.gutenberg.org/ebooks/66562.epub3.images","application/x-mobipocket-ebook":"https://www.gutenberg.org/ebooks/66562.kf8.images","text/plain; charset=us-ascii":"https://www.gutenberg.org/ebooks/66562.txt.utf-8","application/rdf+xml":"https://www.gutenberg.org/ebooks/66562.rdf","image/jpeg":"https://www.gutenberg.org/cache/epub/66562/pg66562.cover.medium.jpg","application/octet-stream":"https://www.gutenberg.org/files/66562/66562-0.zip"},"download_count":26},{"id":66588,"title":"A Man-Sized Pet","authors":[{"name":"Tuttle, W. C. (Wilbur C.)","birth_year":1883,"death_year":1969}],"translators":[],"subjects":["Pets -- Fiction","Short stories","Simpkins, Magpie (Fictitious character) -- Fiction","West (U.S.) -- Fiction"],"bookshelves":[],"languages":["en"],"copyright":false,"media_type":"Text","formats":{"text/html":"https://www.gutenberg.org/ebooks/66588.html.images","application/epub+zip":"https://www.gutenberg.org/ebooks/66588.epub3.images","application/x-mobipocket-ebook":"https://www.gutenberg.org/ebooks/66588.kf8.images","text/plain; charset=us-ascii":"https://www.gutenberg.org/ebooks/66588.txt.utf-8","application/rdf+xml":"https://www.gutenberg.org/ebooks/66588.rdf","image/jpeg":"https://www.gutenberg.org/cache/epub/66588/pg66588.cover.medium.jpg","application/octet-stream":"https://www.gutenberg.org/files/66588/66588-0.zip"},"download_count":26},{"id":66643,"title":"Byliny Book: Hero Tales of Russia","authors":[{"name":"Harrison, Marion Chilton","birth_year":null,"death_year":null}],"translators":[],"subjects":["Byliny","Legends -- Russia (Federation)"],"bookshelves":[],"languages":["en"],"copyright":false,"media_type":"Text","formats":{"text/html":"https://www.gutenberg.org/ebooks/66643.html.images","application/epub+zip":"https://www.gutenberg.org/ebooks/66643.epub3.images","application/x-mobipocket-ebook":"https://www.gutenberg.org/ebooks/66643.kf8.images","text/plain; charset=us-ascii":"https://www.gutenberg.org/ebooks/66643.txt.utf-8","application/rdf+xml":"https://www.gutenberg.org/ebooks/66643.rdf","image/jpeg":"https://www.gutenberg.org/cache/epub/66643/pg66643.cover.medium.jpg","application/octet-stream":"https://www.gutenberg.org/files/66643/66643-0.zip"},"download_count":26},{"id":66646,"title":"Es Percipi","authors":[{"name":"Marlowe, Stephen","birth_year":1928,"death_year":2008}],"translators":[],"subjects":["Diplomats -- Fiction","Earth (Planet) -- Fiction","Human-alien encounters -- Fiction","Identity -- Fiction","Science fiction","Technology -- Fiction"],"bookshelves":[],"languages":["en"],"copyright":false,"media_type":"Text","formats":{"text/html":"https://www.gutenberg.org/ebooks/66646.html.images","application/epub+zip":"https://www.gutenberg.org/ebooks/66646.epub3.images","application/x-mobipocket-ebook":"https://www.gutenberg.org/ebooks/66646.kf8.images","text/plain; charset=us-ascii":"https://www.gutenberg.org/ebooks/66646.txt.utf-8","application/rdf+xml":"https://www.gutenberg.org/ebooks/66646.rdf","image/jpeg":"https://www.gutenberg.org/cache/epub/66646/pg66646.cover.medium.jpg","application/octet-stream":"https://www.gutenberg.org/files/66646/66646-0.zip"},"download_count":26},{"id":66685,"title":"The Tunnel Under the Channel","authors":[{"name":"Whiteside, Thomas","birth_year":1918,"death_year":1997}],"translators":[],"subjects":["Tunnels -- English Channel"],"bookshelves":[],"languages":["en"],"copyright":false,"media_type":"Text","formats":{"text/html":"https://www.gutenberg.org/ebooks/66685.html.images","application/epub+zip":"https://www.gutenberg.org/ebooks/66685.epub3.images","application/x-mobipocket-ebook":"https://www.gutenberg.org/ebooks/66685.kf8.images","text/plain; charset=us-ascii":"https://www.gutenberg.org/ebooks/66685.txt.utf-8","application/rdf+xml":"https://www.gutenberg.org/ebooks/66685.rdf","image/jpeg":"https://www.gutenberg.org/cache/epub/66685/pg66685.cover.medium.jpg","application/octet-stream":"https://www.gutenberg.org/files/66685/66685-0.zip"},"download_count":26},{"id":66698,"title":"Not in the Script","authors":[{"name":"Marmor, Arnold","birth_year":1927,"death_year":1978}],"translators":[],"subjects":["Dramatists -- Fiction","Human-alien encounters -- Fiction","Martians -- Fiction","Science fiction","Short stories"],"bookshelves":[],"languages":["en"],"copyright":false,"media_type":"Text","formats":{"text/html":"https://www.gutenberg.org/ebooks/66698.html.images","application/epub+zip":"https://www.gutenberg.org/ebooks/66698.epub3.images","application/x-mobipocket-ebook":"https://www.gutenberg.org/ebooks/66698.kf8.images","text/plain; charset=us-ascii":"https://www.gutenberg.org/ebooks/66698.txt.utf-8","application/rdf+xml":"https://www.gutenberg.org/ebooks/66698.rdf","image/jpeg":"https://www.gutenberg.org/cache/epub/66698/pg66698.cover.medium.jpg","application/octet-stream":"https://www.gutenberg.org/files/66698/66698-0.zip"},"download_count":26},{"id":66758,"title":"Nick Carter Stories No. 139, May 8, 1915: The Pressing Peril","authors":[{"name":"Carter, Nicholas (House name)","birth_year":null,"death_year":null},{"name":"Phillips, Roland Ashford","birth_year":null,"death_year":null}],"translators":[],"subjects":["Detective and mystery stories, American -- Periodicals","Popular literature -- Periodicals"],"bookshelves":[],"languages":["en"],"copyright":false,"media_type":"Text","formats":{"text/html":"https://www.gutenberg.org/ebooks/66758.html.images","application/epub+zip":"https://www.gutenberg.org/ebooks/66758.epub3.images","application/x-mobipocket-ebook":"https://www.gutenberg.org/ebooks/66758.kf8.images","text/plain; charset=us-ascii":"https://www.gutenberg.org/ebooks/66758.txt.utf-8","application/rdf+xml":"https://www.gutenberg.org/ebooks/66758.rdf","image/jpeg":"https://www.gutenberg.org/cache/epub/66758/pg66758.cover.medium.jpg","application/octet-stream":"https://www.gutenberg.org/files/66758/66758-0.zip"},"download_count":26},{"id":66790,"title":"Russian Silhouettes: More Stories of Russian Life","authors":[{"name":"Chekhov, Anton Pavlovich","birth_year":1860,"death_year":1904}],"translators":[{"name":"Fell, Marian","birth_year":null,"death_year":null}],"subjects":["Chekhov, Anton Pavlovich, 1860-1904 -- Translations into English","Russia -- Social life and customs -- 1533-1917 -- Fiction","Short stories, Russian -- Translations into English"],"bookshelves":[],"languages":["en"],"copyright":false,"media_type":"Text","formats":{"text/html":"https://www.gutenberg.org/ebooks/66790.html.images","application/epub+zip":"https://www.gutenberg.org/ebooks/66790.epub3.images","application/x-mobipocket-ebook":"https://www.gutenberg.org/ebooks/66790.kf8.images","text/plain; charset=us-ascii":"https://www.gutenberg.org/ebooks/66790.txt.utf-8","application/rdf+xml":"https://www.gutenberg.org/ebooks/66790.rdf","image/jpeg":"https://www.gutenberg.org/cache/epub/66790/pg66790.cover.medium.jpg","application/octet-stream":"https://www.gutenberg.org/files/66790/66790-0.zip"},"download_count":26},{"id":66859,"title":"Shadow in the House","authors":[{"name":"Gluck, Sinclair","birth_year":1887,"death_year":1956}],"translators":[],"subjects":["Detective and mystery stories","Murder -- Investigation -- Fiction","Police -- Fiction"],"bookshelves":[],"languages":["en"],"copyright":false,"media_type":"Text","formats":{"text/html":"https://www.gutenberg.org/ebooks/66859.html.images","application/epub+zip":"https://www.gutenberg.org/ebooks/66859.epub3.images","application/x-mobipocket-ebook":"https://www.gutenberg.org/ebooks/66859.kf8.images","text/plain; charset=us-ascii":"https://www.gutenberg.org/ebooks/66859.txt.utf-8","application/rdf+xml":"https://www.gutenberg.org/ebooks/66859.rdf","image/jpeg":"https://www.gutenberg.org/cache/epub/66859/pg66859.cover.medium.jpg","application/octet-stream":"https://www.gutenberg.org/files/66859/66859-0.zip"},"download_count":26},{"id":66875,"title":"The Cameronians: A Novel, Volume 3 (of 3)","authors":[{"name":"Grant, James","birth_year":1822,"death_year":1887}],"translators":[],"subjects":["Fiction"],"bookshelves":[],"languages":["en"],"copyright":false,"media_type":"Text","formats":{"text/html":"https://www.gutenberg.org/ebooks/66875.html.images","application/epub+zip":"https://www.gutenberg.org/ebooks/66875.epub3.images","application/x-mobipocket-ebook":"https://www.gutenberg.org/ebooks/66875.kf8.images","text/plain; charset=us-ascii":"https://www.gutenberg.org/ebooks/66875.txt.utf-8","application/rdf+xml":"https://www.gutenberg.org/ebooks/66875.rdf","image/jpeg":"https://www.gutenberg.org/cache/epub/66875/pg66875.cover.medium.jpg","application/octet-stream":"https://www.gutenberg.org/files/66875/66875-0.zip"},"download_count":26},{"id":66910,"title":"Wesley's Designated Successor: The Life, Letters, and Literary Labours of the Rev. John William Fletcher, Vicar of Madeley, Shropshire","authors":[{"name":"Tyerman, L. (Luke)","birth_year":1819,"death_year":1889}],"translators":[],"subjects":["Fletcher, John, 1729-1785"],"bookshelves":[],"languages":["en"],"copyright":false,"media_type":"Text","formats":{"text/html":"https://www.gutenberg.org/ebooks/66910.html.images","application/epub+zip":"https://www.gutenberg.org/ebooks/66910.epub3.images","application/x-mobipocket-ebook":"https://www.gutenberg.org/ebooks/66910.kf8.images","text/plain; charset=us-ascii":"https://www.gutenberg.org/ebooks/66910.txt.utf-8","application/rdf+xml":"https://www.gutenberg.org/ebooks/66910.rdf","image/jpeg":"https://www.gutenberg.org/cache/epub/66910/pg66910.cover.medium.jpg","application/octet-stream":"https://www.gutenberg.org/files/66910/66910-0.zip"},"download_count":26},{"id":66936,"title":"The Yale Literary Magazine (Vol. I, No. 3, April 1836)","authors":[{"name":"Various","birth_year":null,"death_year":null}],"translators":[],"subjects":["College students' writings, American -- Connecticut -- New Haven -- Periodicals","Yale University -- Periodicals"],"bookshelves":[],"languages":["en"],"copyright":false,"media_type":"Text","formats":{"text/html":"https://www.gutenberg.org/ebooks/66936.html.images","application/epub+zip":"https://www.gutenberg.org/ebooks/66936.epub3.images","application/x-mobipocket-ebook":"https://www.gutenberg.org/ebooks/66936.kf8.images","text/plain; charset=us-ascii":"https://www.gutenberg.org/ebooks/66936.txt.utf-8","application/rdf+xml":"https://www.gutenberg.org/ebooks/66936.rdf","image/jpeg":"https://www.gutenberg.org/cache/epub/66936/pg66936.cover.medium.jpg","application/octet-stream":"https://www.gutenberg.org/files/66936/66936-0.zip"},"download_count":26},{"id":67009,"title":"Chambers's Journal of Popular Literature, Science, and Art, Fifth Series, No. 109, Vol. III, January 30, 1886","authors":[{"name":"Various","birth_year":null,"death_year":null}],"translators":[],"subjects":["Periodicals"],"bookshelves":[],"languages":["en"],"copyright":false,"media_type":"Text","formats":{"text/html":"https://www.gutenberg.org/ebooks/67009.html.images","application/epub+zip":"https://www.gutenberg.org/ebooks/67009.epub3.images","application/x-mobipocket-ebook":"https://www.gutenberg.org/ebooks/67009.kf8.images","text/plain; charset=us-ascii":"https://www.gutenberg.org/ebooks/67009.txt.utf-8","application/rdf+xml":"https://www.gutenberg.org/ebooks/67009.rdf","image/jpeg":"https://www.gutenberg.org/cache/epub/67009/pg67009.cover.medium.jpg","application/octet-stream":"https://www.gutenberg.org/files/67009/67009-0.zip"},"download_count":26},{"id":67014,"title":"Chambers's Journal of Popular Literature, Science, and Art, Fifth Series, No. 110, Vol. III, February 6, 1886","authors":[{"name":"Various","birth_year":null,"death_year":null}],"translators":[],"subjects":["Periodicals"],"bookshelves":[],"languages":["en"],"copyright":false,"media_type":"Text","formats":{"text/html":"https://www.gutenberg.org/ebooks/67014.html.images","application/epub+zip":"https://www.gutenberg.org/ebooks/67014.epub3.images","application/x-mobipocket-ebook":"https://www.gutenberg.org/ebooks/67014.kf8.images","text/plain; charset=us-ascii":"https://www.gutenberg.org/ebooks/67014.txt.utf-8","application/rdf+xml":"https://www.gutenberg.org/ebooks/67014.rdf","image/jpeg":"https://www.gutenberg.org/cache/epub/67014/pg67014.cover.medium.jpg","application/octet-stream":"https://www.gutenberg.org/files/67014/67014-0.zip"},"download_count":26},{"id":67018,"title":"In the Rockies with Kit Carson","authors":[{"name":"McIntyre, John T. (John Thomas)","birth_year":1871,"death_year":1951}],"translators":[],"subjects":["Carson, Kit, 1809-1868 -- Fiction","Rocky Mountains -- Fiction"],"bookshelves":[],"languages":["en"],"copyright":false,"media_type":"Text","formats":{"text/html":"https://www.gutenberg.org/ebooks/67018.html.images","application/epub+zip":"https://www.gutenberg.org/ebooks/67018.epub3.images","application/x-mobipocket-ebook":"https://www.gutenberg.org/ebooks/67018.kf8.images","text/plain; charset=us-ascii":"https://www.gutenberg.org/ebooks/67018.txt.utf-8","application/rdf+xml":"https://www.gutenberg.org/ebooks/67018.rdf","image/jpeg":"https://www.gutenberg.org/cache/epub/67018/pg67018.cover.medium.jpg","application/octet-stream":"https://www.gutenberg.org/files/67018/67018-0.zip"},"download_count":26},{"id":67020,"title":"Chambers's Journal of Popular Literature, Science, and Art, Fifth Series, No. 111, Vol. III, February 13, 1886","authors":[{"name":"Various","birth_year":null,"death_year":null}],"translators":[],"subjects":["Periodicals"],"bookshelves":[],"languages":["en"],"copyright":false,"media_type":"Text","formats":{"text/html":"https://www.gutenberg.org/ebooks/67020.html.images","application/epub+zip":"https://www.gutenberg.org/ebooks/67020.epub3.images","application/x-mobipocket-ebook":"https://www.gutenberg.org/ebooks/67020.kf8.images","text/plain; charset=us-ascii":"https://www.gutenberg.org/ebooks/67020.txt.utf-8","application/rdf+xml":"https://www.gutenberg.org/ebooks/67020.rdf","image/jpeg":"https://www.gutenberg.org/cache/epub/67020/pg67020.cover.medium.jpg","application/octet-stream":"https://www.gutenberg.org/files/67020/67020-0.zip"},"download_count":26},{"id":67089,"title":"The Master Rogue: The Confessions of a Croesus","authors":[{"name":"Phillips, David Graham","birth_year":1867,"death_year":1911}],"translators":[],"subjects":["Children of the rich -- Fiction","Families -- Fiction","Millionaires -- Fiction","United States -- Social life and customs -- Fiction"],"bookshelves":[],"languages":["en"],"copyright":false,"media_type":"Text","formats":{"text/html":"https://www.gutenberg.org/ebooks/67089.html.images","application/epub+zip":"https://www.gutenberg.org/ebooks/67089.epub3.images","application/x-mobipocket-ebook":"https://www.gutenberg.org/ebooks/67089.kf8.images","text/plain; charset=us-ascii":"https://www.gutenberg.org/ebooks/67089.txt.utf-8","application/rdf+xml":"https://www.gutenberg.org/ebooks/67089.rdf","image/jpeg":"https://www.gutenberg.org/cache/epub/67089/pg67089.cover.medium.jpg","application/octet-stream":"https://www.gutenberg.org/files/67089/67089-0.zip"},"download_count":26},{"id":67117,"title":"History of Iridotomy: Knife-Needle vs. Scissors—Description of Author's V-Shaped Method","authors":[{"name":"Ziegler, S. Lewis (Samuel Lewis)","birth_year":1861,"death_year":1926}],"translators":[],"subjects":["Eye -- Abnormalities","Iridectomy","Iris (Eye) -- Surgery","Ophthalmology"],"bookshelves":[],"languages":["en"],"copyright":false,"media_type":"Text","formats":{"text/html":"https://www.gutenberg.org/ebooks/67117.html.images","application/epub+zip":"https://www.gutenberg.org/ebooks/67117.epub3.images","application/x-mobipocket-ebook":"https://www.gutenberg.org/ebooks/67117.kf8.images","text/plain; charset=us-ascii":"https://www.gutenberg.org/ebooks/67117.txt.utf-8","application/rdf+xml":"https://www.gutenberg.org/ebooks/67117.rdf","image/jpeg":"https://www.gutenberg.org/cache/epub/67117/pg67117.cover.medium.jpg","application/octet-stream":"https://www.gutenberg.org/files/67117/67117-0.zip"},"download_count":26},{"id":67278,"title":"A Secret Service: Being Strange Tales of a Nihilist","authors":[{"name":"Le Queux, William","birth_year":1864,"death_year":1927}],"translators":[],"subjects":["Nihilism -- Fiction","Russia -- Politics and government -- 1801-1917 -- Fiction"],"bookshelves":[],"languages":["en"],"copyright":false,"media_type":"Text","formats":{"text/html":"https://www.gutenberg.org/ebooks/67278.html.images","application/epub+zip":"https://www.gutenberg.org/ebooks/67278.epub3.images","application/x-mobipocket-ebook":"https://www.gutenberg.org/ebooks/67278.kf8.images","text/plain; charset=us-ascii":"https://www.gutenberg.org/ebooks/67278.txt.utf-8","application/rdf+xml":"https://www.gutenberg.org/ebooks/67278.rdf","image/jpeg":"https://www.gutenberg.org/cache/epub/67278/pg67278.cover.medium.jpg","application/octet-stream":"https://www.gutenberg.org/files/67278/67278-0.zip"},"download_count":26},{"id":67292,"title":"The Man Higher Up","authors":[{"name":"Balmer, Edwin","birth_year":1883,"death_year":1959},{"name":"MacHarg, William","birth_year":1872,"death_year":1951}],"translators":[],"subjects":["Detective and mystery stories","New York (N.Y.) -- Fiction","Science fiction","Trant, Luther (Fictitious character) -- Fiction"],"bookshelves":[],"languages":["en"],"copyright":false,"media_type":"Text","formats":{"text/html":"https://www.gutenberg.org/ebooks/67292.html.images","application/epub+zip":"https://www.gutenberg.org/ebooks/67292.epub3.images","application/x-mobipocket-ebook":"https://www.gutenberg.org/ebooks/67292.kf8.images","text/plain; charset=us-ascii":"https://www.gutenberg.org/ebooks/67292.txt.utf-8","application/rdf+xml":"https://www.gutenberg.org/ebooks/67292.rdf","image/jpeg":"https://www.gutenberg.org/cache/epub/67292/pg67292.cover.medium.jpg","application/octet-stream":"https://www.gutenberg.org/files/67292/67292-0.zip"},"download_count":26},{"id":67315,"title":"Twenty Talks to Teachers","authors":[{"name":"Sanders, Thomas E.","birth_year":1868,"death_year":null}],"translators":[],"subjects":["Teachers","Teaching"],"bookshelves":[],"languages":["en"],"copyright":false,"media_type":"Text","formats":{"text/html":"https://www.gutenberg.org/ebooks/67315.html.images","application/epub+zip":"https://www.gutenberg.org/ebooks/67315.epub3.images","application/x-mobipocket-ebook":"https://www.gutenberg.org/ebooks/67315.kf8.images","text/plain; charset=us-ascii":"https://www.gutenberg.org/ebooks/67315.txt.utf-8","application/rdf+xml":"https://www.gutenberg.org/ebooks/67315.rdf","image/jpeg":"https://www.gutenberg.org/cache/epub/67315/pg67315.cover.medium.jpg","application/octet-stream":"https://www.gutenberg.org/files/67315/67315-0.zip"},"download_count":26},{"id":67349,"title":"The Negro Migrant in Pittsburgh","authors":[{"name":"Epstein, Abraham","birth_year":1892,"death_year":1942}],"translators":[],"subjects":["African Americans -- Pennsylvania -- Pittsburgh"],"bookshelves":[],"languages":["en"],"copyright":false,"media_type":"Text","formats":{"text/html":"https://www.gutenberg.org/ebooks/67349.html.images","application/epub+zip":"https://www.gutenberg.org/ebooks/67349.epub3.images","application/x-mobipocket-ebook":"https://www.gutenberg.org/ebooks/67349.kf8.images","text/plain; charset=us-ascii":"https://www.gutenberg.org/ebooks/67349.txt.utf-8","application/rdf+xml":"https://www.gutenberg.org/ebooks/67349.rdf","image/jpeg":"https://www.gutenberg.org/cache/epub/67349/pg67349.cover.medium.jpg","application/octet-stream":"https://www.gutenberg.org/files/67349/67349-0.zip"},"download_count":26},{"id":67375,"title":"Jackson's Gymnastics for the Fingers and Wrist: being a system of gymnastics, based on anatomical principles, for developing and strengthening the muscles of the hand for musical, mechanical and medical purposes: with thirty-seven diagrams","authors":[{"name":"Jackson, Edwin Ward","birth_year":null,"death_year":null}],"translators":[],"subjects":["Hand exercises","Musical instruments -- Instruction and study"],"bookshelves":[],"languages":["en"],"copyright":false,"media_type":"Text","formats":{"text/html":"https://www.gutenberg.org/ebooks/67375.html.images","application/epub+zip":"https://www.gutenberg.org/ebooks/67375.epub3.images","application/x-mobipocket-ebook":"https://www.gutenberg.org/ebooks/67375.kf8.images","text/plain; charset=us-ascii":"https://www.gutenberg.org/ebooks/67375.txt.utf-8","application/rdf+xml":"https://www.gutenberg.org/ebooks/67375.rdf","image/jpeg":"https://www.gutenberg.org/cache/epub/67375/pg67375.cover.medium.jpg","application/octet-stream":"https://www.gutenberg.org/files/67375/67375-0.zip"},"download_count":26},{"id":67439,"title":"The Bee Keeper's Guide, Third Edition: Containing concise practical directions for the management of bees, upon the depriving system","authors":[{"name":"Payne, J. H.","birth_year":null,"death_year":null}],"translators":[],"subjects":["Bee culture","Bees"],"bookshelves":[],"languages":["en"],"copyright":false,"media_type":"Text","formats":{"text/html":"https://www.gutenberg.org/ebooks/67439.html.images","application/epub+zip":"https://www.gutenberg.org/ebooks/67439.epub3.images","application/x-mobipocket-ebook":"https://www.gutenberg.org/ebooks/67439.kf8.images","text/plain; charset=us-ascii":"https://www.gutenberg.org/ebooks/67439.txt.utf-8","application/rdf+xml":"https://www.gutenberg.org/ebooks/67439.rdf","image/jpeg":"https://www.gutenberg.org/cache/epub/67439/pg67439.cover.medium.jpg","application/octet-stream":"https://www.gutenberg.org/files/67439/67439-0.zip"},"download_count":26},{"id":67457,"title":"Death in Transit","authors":[{"name":"Sohl, Jerry","birth_year":1913,"death_year":2002}],"translators":[],"subjects":["Interstellar travel -- Fiction","Loneliness -- Fiction","Man-woman relationships -- Fiction","Science fiction","Short stories","Space ships -- Fiction","Widowers -- Fiction"],"bookshelves":[],"languages":["en"],"copyright":false,"media_type":"Text","formats":{"text/html":"https://www.gutenberg.org/ebooks/67457.html.images","application/epub+zip":"https://www.gutenberg.org/ebooks/67457.epub3.images","application/x-mobipocket-ebook":"https://www.gutenberg.org/ebooks/67457.kf8.images","text/plain; charset=us-ascii":"https://www.gutenberg.org/ebooks/67457.txt.utf-8","application/rdf+xml":"https://www.gutenberg.org/ebooks/67457.rdf","image/jpeg":"https://www.gutenberg.org/cache/epub/67457/pg67457.cover.medium.jpg","application/octet-stream":"https://www.gutenberg.org/files/67457/67457-0.zip"},"download_count":26},{"id":67476,"title":"The Automaton Ear, and Other Sketches","authors":[{"name":"McLandburgh, Florence","birth_year":1850,"death_year":1934}],"translators":[],"subjects":["American fiction -- 19th century","Short stories, American"],"bookshelves":[],"languages":["en"],"copyright":false,"media_type":"Text","formats":{"text/html":"https://www.gutenberg.org/ebooks/67476.html.images","application/epub+zip":"https://www.gutenberg.org/ebooks/67476.epub3.images","application/x-mobipocket-ebook":"https://www.gutenberg.org/ebooks/67476.kf8.images","text/plain; charset=us-ascii":"https://www.gutenberg.org/ebooks/67476.txt.utf-8","application/rdf+xml":"https://www.gutenberg.org/ebooks/67476.rdf","image/jpeg":"https://www.gutenberg.org/cache/epub/67476/pg67476.cover.medium.jpg","application/octet-stream":"https://www.gutenberg.org/files/67476/67476-0.zip"},"download_count":26},{"id":67484,"title":"A United States Midshipman in Japan","authors":[{"name":"Stirling, Yates","birth_year":1872,"death_year":1948}],"translators":[],"subjects":["Japan -- Juvenile fiction","United States. Navy -- Juvenile fiction"],"bookshelves":[],"languages":["en"],"copyright":false,"media_type":"Text","formats":{"text/html":"https://www.gutenberg.org/ebooks/67484.html.images","application/epub+zip":"https://www.gutenberg.org/ebooks/67484.epub3.images","application/x-mobipocket-ebook":"https://www.gutenberg.org/ebooks/67484.kf8.images","text/plain; charset=us-ascii":"https://www.gutenberg.org/ebooks/67484.txt.utf-8","application/rdf+xml":"https://www.gutenberg.org/ebooks/67484.rdf","image/jpeg":"https://www.gutenberg.org/cache/epub/67484/pg67484.cover.medium.jpg","application/octet-stream":"https://www.gutenberg.org/files/67484/67484-0.zip"},"download_count":26},{"id":67509,"title":"Two in Arcadia","authors":[{"name":"Finch, Lucine","birth_year":null,"death_year":1947}],"translators":[],"subjects":["American poetry -- 20th century","Love poetry"],"bookshelves":[],"languages":["en"],"copyright":false,"media_type":"Text","formats":{"text/html":"https://www.gutenberg.org/ebooks/67509.html.images","application/epub+zip":"https://www.gutenberg.org/ebooks/67509.epub3.images","application/x-mobipocket-ebook":"https://www.gutenberg.org/ebooks/67509.kf8.images","text/plain; charset=us-ascii":"https://www.gutenberg.org/ebooks/67509.txt.utf-8","application/rdf+xml":"https://www.gutenberg.org/ebooks/67509.rdf","image/jpeg":"https://www.gutenberg.org/cache/epub/67509/pg67509.cover.medium.jpg","application/octet-stream":"https://www.gutenberg.org/files/67509/67509-0.zip"},"download_count":26},{"id":67527,"title":"The Foot-prints of the Creator : $b or, The Asterolepis of Stromness","authors":[{"name":"Miller, Hugh","birth_year":1802,"death_year":1856}],"translators":[],"subjects":["Asterolepididae","Creation","Evolution","Fishes, Fossil","Geology -- Scotland","Miller, Hugh, 1802-1856","Paleontology -- Scotland"],"bookshelves":[],"languages":["en"],"copyright":false,"media_type":"Text","formats":{"text/html":"https://www.gutenberg.org/ebooks/67527.html.images","application/epub+zip":"https://www.gutenberg.org/ebooks/67527.epub3.images","application/x-mobipocket-ebook":"https://www.gutenberg.org/ebooks/67527.kf8.images","text/plain; charset=us-ascii":"https://www.gutenberg.org/ebooks/67527.txt.utf-8","application/rdf+xml":"https://www.gutenberg.org/ebooks/67527.rdf","image/jpeg":"https://www.gutenberg.org/cache/epub/67527/pg67527.cover.medium.jpg","application/octet-stream":"https://www.gutenberg.org/files/67527/67527-0.zip"},"download_count":26},{"id":67604,"title":"A Peep Into the Past","authors":[{"name":"Beerbohm, Max, Sir","birth_year":1872,"death_year":1956}],"translators":[],"subjects":["Wilde, Oscar, 1854-1900"],"bookshelves":[],"languages":["en"],"copyright":false,"media_type":"Text","formats":{"text/html":"https://www.gutenberg.org/ebooks/67604.html.images","application/epub+zip":"https://www.gutenberg.org/ebooks/67604.epub3.images","application/x-mobipocket-ebook":"https://www.gutenberg.org/ebooks/67604.kf8.images","text/plain; charset=us-ascii":"https://www.gutenberg.org/ebooks/67604.txt.utf-8","application/rdf+xml":"https://www.gutenberg.org/ebooks/67604.rdf","image/jpeg":"https://www.gutenberg.org/cache/epub/67604/pg67604.cover.medium.jpg","application/octet-stream":"https://www.gutenberg.org/files/67604/67604-0.zip"},"download_count":26},{"id":67617,"title":"Nick Carter Stories No. 147, July 3, 1915: On Death's Trail; or, Nick Carter's Strangest Case","authors":[{"name":"Carter, Nicholas (House name)","birth_year":null,"death_year":null},{"name":"Boston, Ralph","birth_year":null,"death_year":null}],"translators":[],"subjects":["Detective and mystery stories, American -- Periodicals","Popular literature -- Periodicals"],"bookshelves":[],"languages":["en"],"copyright":false,"media_type":"Text","formats":{"text/html":"https://www.gutenberg.org/ebooks/67617.html.images","application/epub+zip":"https://www.gutenberg.org/ebooks/67617.epub3.images","application/x-mobipocket-ebook":"https://www.gutenberg.org/ebooks/67617.kf8.images","text/plain; charset=us-ascii":"https://www.gutenberg.org/ebooks/67617.txt.utf-8","application/rdf+xml":"https://www.gutenberg.org/ebooks/67617.rdf","image/jpeg":"https://www.gutenberg.org/cache/epub/67617/pg67617.cover.medium.jpg","application/octet-stream":"https://www.gutenberg.org/files/67617/67617-0.zip"},"download_count":26},{"id":67618,"title":"Nick Carter Stories No. 146, June 26, 1915: Paying the Price; or, Nick Carter's Perilous Venture","authors":[{"name":"Carter, Nicholas (House name)","birth_year":null,"death_year":null},{"name":"Waddell, C. C. (Charles Carey)","birth_year":1868,"death_year":1930}],"translators":[],"subjects":["Detective and mystery stories, American -- Periodicals","Popular literature -- Periodicals"],"bookshelves":[],"languages":["en"],"copyright":false,"media_type":"Text","formats":{"text/html":"https://www.gutenberg.org/ebooks/67618.html.images","application/epub+zip":"https://www.gutenberg.org/ebooks/67618.epub3.images","application/x-mobipocket-ebook":"https://www.gutenberg.org/ebooks/67618.kf8.images","text/plain; charset=us-ascii":"https://www.gutenberg.org/ebooks/67618.txt.utf-8","application/rdf+xml":"https://www.gutenberg.org/ebooks/67618.rdf","image/jpeg":"https://www.gutenberg.org/cache/epub/67618/pg67618.cover.medium.jpg","application/octet-stream":"https://www.gutenberg.org/files/67618/67618-0.zip"},"download_count":26}]}