{"count":58808,"next":"http://129.241.150.113:8000/books/?languages=en&page=785","previous":"http://129.241.150.113:8000/books/?languages=en&page=783","results":[{"id":67938,"title":"Through Russian Central Asia","authors":[{"name":"Graham, Stephen","birth_year":1884,"death_year":1975}],"translators":[],"subjects":["Asia, Central -- Description and travel","Graham, Stephen, 1884-1975 -- Travel -- Asia, Central"],"bookshelves":[],"languages":["en"],"copyright":false,"media_type":"Text","formats":{"text/html":"https://www.gutenberg.org/ebooks/67938.html.images","application/epub+zip":"https://www.gutenberg.org/ebooks/67938.epub3.images","application/x-mobipocket-ebook":"https://www.gutenberg.org/ebooks/67938.kf8.images","text/plain; charset=us-ascii":"https://www.gutenberg.org/ebooks/67938.txt.utf-8","application/rdf+xml":"https://www.gutenberg.org/ebooks/67938.rdf","image/jpeg":"https://www.gutenberg.org/cache/epub/67938/pg67938.cover.medium.jpg","application/octet-stream":"https://www.gutenberg.org/files/67938/67938-0.zip"},"download_count":44},{"id":67968,"title":"How to Use and Enjoy Your New Frigidaire Refrigerator","authors":[{"name":"General Motors Corporation. Frigidaire Division","birth_year":null,"death_year":null}],"translators":[],"subjects":["Cookbooks","Frozen foods","Refrigerators -- Handbooks, manuals, etc."],"bookshelves":[],"languages":["en"],"copyright":false,"media_type":"Text","formats":{"text/html":"https://www.gutenberg.org/ebooks/67968.html.images","application/epub+zip":"https://www.gutenberg.org/ebooks/67968.epub3.images","application/x-mobipocket-ebook":"https://www.gutenberg.org/ebooks/67968.kf8.images","text/plain; charset=us-ascii":"https://www.gutenberg.org/ebooks/67968.txt.utf-8","application/rdf+xml":"https://www.gutenberg.org/ebooks/67968.rdf","image/jpeg":"https://www.gutenberg.org/cache/epub/67968/pg67968.cover.medium.jpg","application/octet-stream":"https://www.gutenberg.org/files/67968/67968-0.zip"},"download_count":44},{"id":68092,"title":"Cargoes for Crusoes","authors":[{"name":"Overton, Grant M. (Grant Martin)","birth_year":1887,"death_year":1930}],"translators":[],"subjects":["American literature -- 20th century -- History and criticism","English literature -- 20th century -- History and criticism","English-speaking countries -- Intellectual life -- 20th century"],"bookshelves":[],"languages":["en"],"copyright":false,"media_type":"Text","formats":{"text/html":"https://www.gutenberg.org/ebooks/68092.html.images","application/epub+zip":"https://www.gutenberg.org/ebooks/68092.epub3.images","application/x-mobipocket-ebook":"https://www.gutenberg.org/ebooks/68092.kf8.images","text/plain; charset=us-ascii":"https://www.gutenberg.org/ebooks/68092.txt.utf-8","application/rdf+xml":"https://www.gutenberg.org/ebooks/68092.rdf","image/jpeg":"https://www.gutenberg.org/cache/epub/68092/pg68092.cover.medium.jpg","application/octet-stream":"https://www.gutenberg.org/files/68092/68092-0.zip"},"download_count":44},{"id":68830,"title":"The nutrition of man","authors":[{"name":"Chittenden, R. H. (Russell Henry)","birth_year":1856,"death_year":1943}],"translators":[],"subjects":["Nutrition"],"bookshelves":[],"languages":["en"],"copyright":false,"media_type":"Text","formats":{"text/html":"https://www.gutenberg.org/ebooks/68830.html.images","application/epub+zip":"https://www.gutenberg.org/ebooks/68830.epub3.images","application/x-mobipocket-ebook":"https://www.gutenberg.org/ebooks/68830.kf8.images","text/plain; charset=us-ascii":"https://www.gutenberg.org/ebooks/68830.txt.utf-8","application/rdf+xml":"https://www.gutenberg.org/ebooks/68830.rdf","image/jpeg":"https://www.gutenberg.org/cache/epub/68830/pg68830.cover.medium.jpg","application/octet-stream":"https://www.gutenberg.org/files/68830/68830-0.zip"},"download_count":44},{"id":68962,"title":"Best o' luck: How a fighting Kentuckian won the thanks of Britain's King","authors":[{"name":"McClintock, Alexander","birth_year":1893,"death_year":1918}],"translators":[],"subjects":["World War, 1914-1918 -- Personal narratives, American"],"bookshelves":[],"languages":["en"],"copyright":false,"media_type":"Text","formats":{"text/html":"https://www.gutenberg.org/ebooks/68962.html.images","application/epub+zip":"https://www.gutenberg.org/ebooks/68962.epub3.images","application/x-mobipocket-ebook":"https://www.gutenberg.org/ebooks/68962.kf8.images","text/plain; charset=us-ascii":"https://www.gutenberg.org/ebooks/68962.txt.utf-8","application/rdf+xml":"https://www.gutenberg.org/ebooks/68962.rdf","image/jpeg":"https://www.gutenberg.org/cache/epub/68962/pg68962.cover.medium.jpg","application/octet-stream":"https://www.gutenberg.org/files/68962/68962-0.zip"},"download_count":44},{"id":68966,"title":"The Snake's Pass","authors":[{"name":"Stoker, Bram","birth_year":1847,"death_year":1912}],"translators":[],"subjects":["Ireland -- Social conditions -- Fiction","Love stories"],"bookshelves":[],"languages":["en"],"copyright":false,"media_type":"Text","formats":{"text/html":"https://www.gutenberg.org/ebooks/68966.html.images","application/epub+zip":"https://www.gutenberg.org/ebooks/68966.epub3.images","application/x-mobipocket-ebook":"https://www.gutenberg.org/ebooks/68966.kf8.images","text/plain; charset=us-ascii":"https://www.gutenberg.org/ebooks/68966.txt.utf-8","application/rdf+xml":"https://www.gutenberg.org/ebooks/68966.rdf","image/jpeg":"https://www.gutenberg.org/cache/epub/68966/pg68966.cover.medium.jpg","application/octet-stream":"https://www.gutenberg.org/files/68966/68966-0.zip"},"download_count":44},{"id":69004,"title":"The Trevor case","authors":[{"name":"Lincoln, Natalie Sumner","birth_year":1881,"death_year":1935}],"translators":[],"subjects":["Detective and mystery stories","Murder -- Investigation -- Fiction","Washington (D.C.) -- Fiction"],"bookshelves":[],"languages":["en"],"copyright":false,"media_type":"Text","formats":{"text/html":"https://www.gutenberg.org/ebooks/69004.html.images","application/epub+zip":"https://www.gutenberg.org/ebooks/69004.epub3.images","application/x-mobipocket-ebook":"https://www.gutenberg.org/ebooks/69004.kf8.images","text/plain; charset=us-ascii":"https://www.gutenberg.org/ebooks/69004.txt.utf-8","application/rdf+xml":"https://www.gutenberg.org/ebooks/69004.rdf","image/jpeg":"https://www.gutenberg.org/cache/epub/69004/pg69004.cover.medium.jpg","application/octet-stream":"https://www.gutenberg.org/files/69004/69004-0.zip"},"download_count":44},{"id":69072,"title":"The Haliburton primer","authors":[{"name":"Haliburton, M. W. (Margaret Winifred)","birth_year":1855,"death_year":1928}],"translators":[],"subjects":["Readers (Primary)"],"bookshelves":[],"languages":["en"],"copyright":false,"media_type":"Text","formats":{"text/html":"https://www.gutenberg.org/ebooks/69072.html.images","application/epub+zip":"https://www.gutenberg.org/ebooks/69072.epub3.images","application/x-mobipocket-ebook":"https://www.gutenberg.org/ebooks/69072.kf8.images","text/plain; charset=us-ascii":"https://www.gutenberg.org/ebooks/69072.txt.utf-8","application/rdf+xml":"https://www.gutenberg.org/ebooks/69072.rdf","image/jpeg":"https://www.gutenberg.org/cache/epub/69072/pg69072.cover.medium.jpg","application/octet-stream":"https://www.gutenberg.org/files/69072/69072-0.zip"},"download_count":44},{"id":69125,"title":"The higher education of women","authors":[{"name":"Davies, Emily","birth_year":1830,"death_year":1921}],"translators":[],"subjects":["Women -- Education (Higher) -- Great Britain"],"bookshelves":[],"languages":["en"],"copyright":false,"media_type":"Text","formats":{"text/html":"https://www.gutenberg.org/ebooks/69125.html.images","application/epub+zip":"https://www.gutenberg.org/ebooks/69125.epub3.images","application/x-mobipocket-ebook":"https://www.gutenberg.org/ebooks/69125.kf8.images","text/plain; charset=us-ascii":"https://www.gutenberg.org/ebooks/69125.txt.utf-8","application/rdf+xml":"https://www.gutenberg.org/ebooks/69125.rdf","image/jpeg":"https://www.gutenberg.org/cache/epub/69125/pg69125.cover.medium.jpg","application/octet-stream":"https://www.gutenberg.org/files/69125/69125-0.zip"},"download_count":44},{"id":69397,"title":"Tales of the supernatural: Six romantic stories","authors":[{"name":"Platt, James","birth_year":null,"death_year":null}],"translators":[],"subjects":["Paranormal fiction"],"bookshelves":[],"languages":["en"],"copyright":false,"media_type":"Text","formats":{"text/html":"https://www.gutenberg.org/ebooks/69397.html.images","application/epub+zip":"https://www.gutenberg.org/ebooks/69397.epub3.images","application/x-mobipocket-ebook":"https://www.gutenberg.org/ebooks/69397.kf8.images","text/plain; charset=us-ascii":"https://www.gutenberg.org/ebooks/69397.txt.utf-8","application/rdf+xml":"https://www.gutenberg.org/ebooks/69397.rdf","image/jpeg":"https://www.gutenberg.org/cache/epub/69397/pg69397.cover.medium.jpg","application/octet-stream":"https://www.gutenberg.org/files/69397/69397-0.zip"},"download_count":44},{"id":69466,"title":"A few days in Athens: being the translation of a Greek manuscript discovered in Herculaneum","authors":[{"name":"Wright, Frances","birth_year":1795,"death_year":1852}],"translators":[],"subjects":["Athens (Greece) -- Fiction","Biographical fiction","Epicurus, 341 B.C.-270 B.C. -- Fiction","Greece -- History -- To 146 B.C. -- Fiction","Philosophers -- Fiction"],"bookshelves":[],"languages":["en"],"copyright":false,"media_type":"Text","formats":{"text/html":"https://www.gutenberg.org/ebooks/69466.html.images","application/epub+zip":"https://www.gutenberg.org/ebooks/69466.epub3.images","application/x-mobipocket-ebook":"https://www.gutenberg.org/ebooks/69466.kf8.images","text/plain; charset=us-ascii":"https://www.gutenberg.org/ebooks/69466.txt.utf-8","application/rdf+xml":"https://www.gutenberg.org/ebooks/69466.rdf","image/jpeg":"https://www.gutenberg.org/cache/epub/69466/pg69466.cover.medium.jpg","application/octet-stream":"https://www.gutenberg.org/files/69466/69466-0.zip"},"download_count":44},{"id":69574,"title":"Excavations at the LoDaisKa Site in the Denver, Colorado area","authors":[{"name":"Irwin, H. T. (Henry Thomas Johnson)","birth_year":null,"death_year":1978},{"name":"Irwin-Williams, Cynthia","birth_year":1936,"death_year":1990}],"translators":[],"subjects":["Denver (Colo.) -- Antiquities","Indians of North America -- Colorado -- Denver Region -- Antiquities","Pawnee Indians","Ute Indians"],"bookshelves":[],"languages":["en"],"copyright":false,"media_type":"Text","formats":{"text/html":"https://www.gutenberg.org/ebooks/69574.html.images","application/epub+zip":"https://www.gutenberg.org/ebooks/69574.epub3.images","application/x-mobipocket-ebook":"https://www.gutenberg.org/ebooks/69574.kf8.images","text/plain; charset=us-ascii":"https://www.gutenberg.org/ebooks/69574.txt.utf-8","application/rdf+xml":"https://www.gutenberg.org/ebooks/69574.rdf","image/jpeg":"https://www.gutenberg.org/cache/epub/69574/pg69574.cover.medium.jpg","application/octet-stream":"https://www.gutenberg.org/files/69574/69574-0.zip"},"download_count":44},{"id":69814,"title":"Campaign and battle of Lynchburg, Va.","authors":[{"name":"Blackford, Charles Minor","birth_year":1833,"death_year":1903}],"translators":[],"subjects":["Lynchburg (Va.) -- History -- Civil War, 1861-1865","Lynchburg, Battle of, Lynchburg, Va., 1864"],"bookshelves":[],"languages":["en"],"copyright":false,"media_type":"Text","formats":{"text/html":"https://www.gutenberg.org/ebooks/69814.html.images","application/epub+zip":"https://www.gutenberg.org/ebooks/69814.epub3.images","application/x-mobipocket-ebook":"https://www.gutenberg.org/ebooks/69814.kf8.images","text/plain; charset=us-ascii":"https://www.gutenberg.org/ebooks/69814.txt.utf-8","application/rdf+xml":"https://www.gutenberg.org/ebooks/69814.rdf","image/jpeg":"https://www.gutenberg.org/cache/epub/69814/pg69814.cover.medium.jpg","application/octet-stream":"https://www.gutenberg.org/files/69814/69814-0.zip"},"download_count":44},{"id":69934,"title":"Early British trackways, moats, mounds, camps, and sites","authors":[{"name":"Watkins, Alfred","birth_year":1855,"death_year":1935}],"translators":[],"subjects":["Great Britain -- Antiquities","Leys -- Great Britain","Megalithic monuments -- Great Britain","Mounds -- Great Britain"],"bookshelves":[],"languages":["en"],"copyright":false,"media_type":"Text","formats":{"text/html":"https://www.gutenberg.org/ebooks/69934.html.images","application/epub+zip":"https://www.gutenberg.org/ebooks/69934.epub3.images","application/x-mobipocket-ebook":"https://www.gutenberg.org/ebooks/69934.kf8.images","text/plain; charset=us-ascii":"https://www.gutenberg.org/ebooks/69934.txt.utf-8","application/rdf+xml":"https://www.gutenberg.org/ebooks/69934.rdf","image/jpeg":"https://www.gutenberg.org/cache/epub/69934/pg69934.cover.medium.jpg","application/octet-stream":"https://www.gutenberg.org/files/69934/69934-0.zip"},"download_count":44},{"id":70048,"title":"The great Skene mystery","authors":[{"name":"Capes, Bernard","birth_year":1854,"death_year":1918}],"translators":[],"subjects":["English fiction -- 20th century"],"bookshelves":[],"languages":["en"],"copyright":false,"media_type":"Text","formats":{"text/html":"https://www.gutenberg.org/ebooks/70048.html.images","application/epub+zip":"https://www.gutenberg.org/ebooks/70048.epub3.images","application/x-mobipocket-ebook":"https://www.gutenberg.org/ebooks/70048.kf8.images","text/plain; charset=us-ascii":"https://www.gutenberg.org/ebooks/70048.txt.utf-8","application/rdf+xml":"https://www.gutenberg.org/ebooks/70048.rdf","image/jpeg":"https://www.gutenberg.org/cache/epub/70048/pg70048.cover.medium.jpg","application/octet-stream":"https://www.gutenberg.org/files/70048/70048-0.zip"},"download_count":44},{"id":70165,"title":"Elizabeth Hooton : $b First Quaker woman preacher (1600-1672)","authors":[{"name":"Manners, Emily","birth_year":null,"death_year":null}],"translators":[],"subjects":["Hooton, Elizabeth, approximately 1600-1672","Quakers -- Biography"],"bookshelves":[],"languages":["en"],"copyright":false,"media_type":"Text","formats":{"text/html":"https://www.gutenberg.org/ebooks/70165.html.images","application/epub+zip":"https://www.gutenberg.org/ebooks/70165.epub3.images","application/x-mobipocket-ebook":"https://www.gutenberg.org/ebooks/70165.kf8.images","text/plain; charset=us-ascii":"https://www.gutenberg.org/ebooks/70165.txt.utf-8","application/rdf+xml":"https://www.gutenberg.org/ebooks/70165.rdf","image/jpeg":"https://www.gutenberg.org/cache/epub/70165/pg70165.cover.medium.jpg","application/octet-stream":"https://www.gutenberg.org/files/70165/70165-0.zip"},"download_count":44},{"id":70412,"title":"Scripture texts illustrated by general literature","authors":[{"name":"Jacox, Francis","birth_year":1825,"death_year":1897}],"translators":[],"subjects":["Homiletical illustrations"],"bookshelves":[],"languages":["en"],"copyright":false,"media_type":"Text","formats":{"text/html":"https://www.gutenberg.org/ebooks/70412.html.images","application/epub+zip":"https://www.gutenberg.org/ebooks/70412.epub3.images","application/x-mobipocket-ebook":"https://www.gutenberg.org/ebooks/70412.kf8.images","text/plain; charset=us-ascii":"https://www.gutenberg.org/ebooks/70412.txt.utf-8","application/rdf+xml":"https://www.gutenberg.org/ebooks/70412.rdf","image/jpeg":"https://www.gutenberg.org/cache/epub/70412/pg70412.cover.medium.jpg","application/octet-stream":"https://www.gutenberg.org/files/70412/70412-0.zip"},"download_count":44},{"id":70493,"title":"The Prince of Wales and other famous Americans","authors":[],"translators":[],"subjects":["Caricatures and cartoons -- United States"],"bookshelves":[],"languages":["en"],"copyright":false,"media_type":"Text","formats":{"text/html":"https://www.gutenberg.org/ebooks/70493.html.images","application/epub+zip":"https://www.gutenberg.org/ebooks/70493.epub3.images","application/x-mobipocket-ebook":"https://www.gutenberg.org/ebooks/70493.kf8.images","text/plain; charset=us-ascii":"https://www.gutenberg.org/ebooks/70493.txt.utf-8","application/rdf+xml":"https://www.gutenberg.org/ebooks/70493.rdf","image/jpeg":"https://www.gutenberg.org/cache/epub/70493/pg70493.cover.medium.jpg","application/octet-stream":"https://www.gutenberg.org/files/70493/70493-0.zip"},"download_count":44},{"id":70638,"title":"Ribbon in the sky","authors":[{"name":"Leinster, Murray","birth_year":1896,"death_year":1975}],"translators":[],"subjects":["Physicians -- Fiction","Science fiction","Space colonies -- Fiction","Space medicine -- Fiction"],"bookshelves":[],"languages":["en"],"copyright":false,"media_type":"Text","formats":{"text/html":"https://www.gutenberg.org/ebooks/70638.html.images","application/epub+zip":"https://www.gutenberg.org/ebooks/70638.epub3.images","application/x-mobipocket-ebook":"https://www.gutenberg.org/ebooks/70638.kf8.images","text/plain; charset=us-ascii":"https://www.gutenberg.org/ebooks/70638.txt.utf-8","application/rdf+xml":"https://www.gutenberg.org/ebooks/70638.rdf","image/jpeg":"https://www.gutenberg.org/cache/epub/70638/pg70638.cover.medium.jpg","application/octet-stream":"https://www.gutenberg.org/files/70638/70638-0.zip"},"download_count":44},{"id":70695,"title":"Bakst : $b The story of Leon Bakst's life","authors":[{"name":"Levinson, André","birth_year":1887,"death_year":1933}],"translators":[],"subjects":["Bakst, Léon, 1866-1924"],"bookshelves":[],"languages":["en"],"copyright":false,"media_type":"Text","formats":{"text/html":"https://www.gutenberg.org/ebooks/70695.html.images","application/epub+zip":"https://www.gutenberg.org/ebooks/70695.epub3.images","application/x-mobipocket-ebook":"https://www.gutenberg.org/ebooks/70695.kf8.images","text/plain; charset=us-ascii":"https://www.gutenberg.org/ebooks/70695.txt.utf-8","application/rdf+xml":"https://www.gutenberg.org/ebooks/70695.rdf","image/jpeg":"https://www.gutenberg.org/cache/epub/70695/pg70695.cover.medium.jpg","application/octet-stream":"https://www.gutenberg.org/files/70695/70695-0.zip"},"download_count":44},{"id":70710,"title":"Makers of Japan","authors":[{"name":"Morris, J. (John) (Writer on Japan)","birth_year":null,"death_year":null}],"translators":[],"subjects":["Japan -- Biography"],"bookshelves":[],"languages":["en"],"copyright":false,"media_type":"Text","formats":{"text/html":"https://www.gutenberg.org/ebooks/70710.html.images","application/epub+zip":"https://www.gutenberg.org/ebooks/70710.epub3.images","application/x-mobipocket-ebook":"https://www.gutenberg.org/ebooks/70710.kf8.images","text/plain; charset=us-ascii":"https://www.gutenberg.org/ebooks/70710.txt.utf-8","application/rdf+xml":"https://www.gutenberg.org/ebooks/70710.rdf","image/jpeg":"https://www.gutenberg.org/cache/epub/70710/pg70710.cover.medium.jpg","application/octet-stream":"https://www.gutenberg.org/files/70710/70710-0.zip"},"download_count":44},{"id":70716,"title":"Illustrations of political economy, Volume 1 (of 9)","authors":[{"name":"Martineau, Harriet","birth_year":1802,"death_year":1876}],"translators":[],"subjects":["Didactic fiction, English","Political fiction, English","Social problems -- Fiction"],"bookshelves":[],"languages":["en"],"copyright":false,"media_type":"Text","formats":{"text/html":"https://www.gutenberg.org/ebooks/70716.html.images","application/epub+zip":"https://www.gutenberg.org/ebooks/70716.epub3.images","application/x-mobipocket-ebook":"https://www.gutenberg.org/ebooks/70716.kf8.images","text/plain; charset=us-ascii":"https://www.gutenberg.org/ebooks/70716.txt.utf-8","application/rdf+xml":"https://www.gutenberg.org/ebooks/70716.rdf","image/jpeg":"https://www.gutenberg.org/cache/epub/70716/pg70716.cover.medium.jpg","application/octet-stream":"https://www.gutenberg.org/files/70716/70716-0.zip"},"download_count":44},{"id":70840,"title":"The journal of Montaigne's travels in Italy by way of Switzerland and Germany in 1580 and 1581, Volume 3 (of 3)","authors":[{"name":"Montaigne, Michel de","birth_year":1533,"death_year":1592}],"translators":[{"name":"Waters, W. G. (William George)","birth_year":1844,"death_year":1928}],"subjects":["Germany -- Description and travel","Italy -- Description and travel","Switzerland -- Description and travel"],"bookshelves":[],"languages":["en"],"copyright":false,"media_type":"Text","formats":{"text/html":"https://www.gutenberg.org/ebooks/70840.html.images","application/epub+zip":"https://www.gutenberg.org/ebooks/70840.epub3.images","application/x-mobipocket-ebook":"https://www.gutenberg.org/ebooks/70840.kf8.images","text/plain; charset=us-ascii":"https://www.gutenberg.org/ebooks/70840.txt.utf-8","application/rdf+xml":"https://www.gutenberg.org/ebooks/70840.rdf","image/jpeg":"https://www.gutenberg.org/cache/epub/70840/pg70840.cover.medium.jpg","application/octet-stream":"https://www.gutenberg.org/files/70840/70840-0.zip"},"download_count":44},{"id":70856,"title":"William Tyndale","authors":[{"name":"Ellis, James J. (James Joseph)","birth_year":null,"death_year":null}],"translators":[],"subjects":["Reformation -- England -- Biography","Tyndale, William, -1536"],"bookshelves":[],"languages":["en"],"copyright":false,"media_type":"Text","formats":{"text/html":"https://www.gutenberg.org/ebooks/70856.html.images","application/epub+zip":"https://www.gutenberg.org/ebooks/70856.epub3.images","application/x-mobipocket-ebook":"https://www.gutenberg.org/ebooks/70856.kf8.images","text/plain; charset=us-ascii":"https://www.gutenberg.org/ebooks/70856.txt.utf-8","application/rdf+xml":"https://www.gutenberg.org/ebooks/70856.rdf","image/jpeg":"https://www.gutenberg.org/cache/epub/70856/pg70856.cover.medium.jpg","application/octet-stream":"https://www.gutenberg.org/files/70856/70856-0.zip"},"download_count":44},{"id":70906,"title":"Sherwood Anderson : $b a bibliography","authors":[{"name":"Lohf, Kenneth A.","birth_year":1925,"death_year":2002},{"name":"Sheehy, Eugene P. (Eugene Paul)","birth_year":1922,"death_year":2013}],"translators":[],"subjects":["Anderson, Sherwood, 1876-1941 -- Bibliography"],"bookshelves":[],"languages":["en"],"copyright":false,"media_type":"Text","formats":{"text/html":"https://www.gutenberg.org/ebooks/70906.html.images","application/epub+zip":"https://www.gutenberg.org/ebooks/70906.epub3.images","application/x-mobipocket-ebook":"https://www.gutenberg.org/ebooks/70906.kf8.images","text/plain; charset=us-ascii":"https://www.gutenberg.org/ebooks/70906.txt.utf-8","application/rdf+xml":"https://www.gutenberg.org/ebooks/70906.rdf","image/jpeg":"https://www.gutenberg.org/cache/epub/70906/pg70906.cover.medium.jpg","application/octet-stream":"https://www.gutenberg.org/files/70906/70906-0.zip"},"download_count":44},{"id":70977,"title":"Good for evil : $b or, Rose Cottage","authors":[{"name":"Leslie, Madeline","birth_year":1815,"death_year":1893}],"translators":[],"subjects":["Children's stories","Christian life -- Juvenile fiction","Faith -- Juvenile fiction","Young women -- Juvenile fiction"],"bookshelves":[],"languages":["en"],"copyright":false,"media_type":"Text","formats":{"text/html":"https://www.gutenberg.org/ebooks/70977.html.images","application/epub+zip":"https://www.gutenberg.org/ebooks/70977.epub3.images","application/x-mobipocket-ebook":"https://www.gutenberg.org/ebooks/70977.kf8.images","text/plain; charset=us-ascii":"https://www.gutenberg.org/ebooks/70977.txt.utf-8","application/rdf+xml":"https://www.gutenberg.org/ebooks/70977.rdf","image/jpeg":"https://www.gutenberg.org/cache/epub/70977/pg70977.cover.medium.jpg","application/octet-stream":"https://www.gutenberg.org/files/70977/70977-0.zip"},"download_count":44},{"id":71103,"title":"The pillars of Hercules : $b or, A narrative of travels in Spain and Morocco in 1848; vol. 2","authors":[{"name":"Urquhart, David","birth_year":1805,"death_year":1877}],"translators":[],"subjects":["Morocco -- Description and travel","Spain -- Description and travel"],"bookshelves":[],"languages":["en"],"copyright":false,"media_type":"Text","formats":{"text/html":"https://www.gutenberg.org/ebooks/71103.html.images","application/epub+zip":"https://www.gutenberg.org/ebooks/71103.epub3.images","application/x-mobipocket-ebook":"https://www.gutenberg.org/ebooks/71103.kf8.images","text/plain; charset=us-ascii":"https://www.gutenberg.org/ebooks/71103.txt.utf-8","application/rdf+xml":"https://www.gutenberg.org/ebooks/71103.rdf","image/jpeg":"https://www.gutenberg.org/cache/epub/71103/pg71103.cover.medium.jpg","application/octet-stream":"https://www.gutenberg.org/files/71103/71103-0.zip"},"download_count":44},{"id":71244,"title":"Nelly : $b or, The best inheritance.","authors":[{"name":"Guernsey, Lucy Ellen","birth_year":1826,"death_year":1899}],"translators":[],"subjects":["Christian life -- Juvenile fiction","Faith -- Juvenile fiction","Grandmothers -- Juvenile fiction","Honesty -- Juvenile fiction","Intergenerational relations -- Juvenile fiction","Irish Americans -- Juvenile fiction"],"bookshelves":[],"languages":["en"],"copyright":false,"media_type":"Text","formats":{"text/html":"https://www.gutenberg.org/ebooks/71244.html.images","application/epub+zip":"https://www.gutenberg.org/ebooks/71244.epub3.images","application/x-mobipocket-ebook":"https://www.gutenberg.org/ebooks/71244.kf8.images","text/plain; charset=us-ascii":"https://www.gutenberg.org/ebooks/71244.txt.utf-8","application/rdf+xml":"https://www.gutenberg.org/ebooks/71244.rdf","image/jpeg":"https://www.gutenberg.org/cache/epub/71244/pg71244.cover.medium.jpg","application/octet-stream":"https://www.gutenberg.org/files/71244/71244-0.zip"},"download_count":44},{"id":71246,"title":"Swiss allmends, and a walk to see them : $b being a second month in Switzerland","authors":[{"name":"Zincke, F. Barham (Foster Barham)","birth_year":1817,"death_year":1893}],"translators":[],"subjects":["Switzerland -- Description and travel"],"bookshelves":[],"languages":["en"],"copyright":false,"media_type":"Text","formats":{"text/html":"https://www.gutenberg.org/ebooks/71246.html.images","application/epub+zip":"https://www.gutenberg.org/ebooks/71246.epub3.images","application/x-mobipocket-ebook":"https://www.gutenberg.org/ebooks/71246.kf8.images","text/plain; charset=us-ascii":"https://www.gutenberg.org/ebooks/71246.txt.utf-8","application/rdf+xml":"https://www.gutenberg.org/ebooks/71246.rdf","image/jpeg":"https://www.gutenberg.org/cache/epub/71246/pg71246.cover.medium.jpg","application/octet-stream":"https://www.gutenberg.org/files/71246/71246-0.zip"},"download_count":44},{"id":71406,"title":"The history of the condition of women in various ages and nations : $b Vol. 1 (of 2), Comprising the women of Asia and Africa","authors":[{"name":"Child, Lydia Maria","birth_year":1802,"death_year":1880}],"translators":[],"subjects":["Women -- History","Women -- Social conditions"],"bookshelves":[],"languages":["en"],"copyright":false,"media_type":"Text","formats":{"text/html":"https://www.gutenberg.org/ebooks/71406.html.images","application/epub+zip":"https://www.gutenberg.org/ebooks/71406.epub3.images","application/x-mobipocket-ebook":"https://www.gutenberg.org/ebooks/71406.kf8.images","text/plain; charset=us-ascii":"https://www.gutenberg.org/ebooks/71406.txt.utf-8","application/rdf+xml":"https://www.gutenberg.org/ebooks/71406.rdf","image/jpeg":"https://www.gutenberg.org/cache/epub/71406/pg71406.cover.medium.jpg","application/octet-stream":"https://www.gutenberg.org/files/71406/71406-h.zip"},"download_count":44},{"id":71551,"title":"The French Revolution","authors":[{"name":"Mallet, Charles Edward, Sir","birth_year":1862,"death_year":1947}],"translators":[],"subjects":["France -- History -- Revolution, 1789-1799"],"bookshelves":[],"languages":["en"],"copyright":false,"media_type":"Text","formats":{"text/html":"https://www.gutenberg.org/ebooks/71551.html.images","application/epub+zip":"https://www.gutenberg.org/ebooks/71551.epub3.images","application/x-mobipocket-ebook":"https://www.gutenberg.org/ebooks/71551.kf8.images","text/plain; charset=us-ascii":"https://www.gutenberg.org/ebooks/71551.txt.utf-8","application/rdf+xml":"https://www.gutenberg.org/ebooks/71551.rdf","image/jpeg":"https://www.gutenberg.org/cache/epub/71551/pg71551.cover.medium.jpg","application/octet-stream":"https://www.gutenberg.org/files/71551/71551-h.zip"},"download_count":44},{"id":71578,"title":"Bonnie Scotland and what we owe her","authors":[{"name":"Griffis, William Elliot","birth_year":1843,"death_year":1928}],"translators":[],"subjects":["Scotland","Scotland -- Description and travel"],"bookshelves":[],"languages":["en"],"copyright":false,"media_type":"Text","formats":{"text/html":"https://www.gutenberg.org/ebooks/71578.html.images","application/epub+zip":"https://www.gutenberg.org/ebooks/71578.epub3.images","application/x-mobipocket-ebook":"https://www.gutenberg.org/ebooks/71578.kf8.images","text/plain; charset=us-ascii":"https://www.gutenberg.org/ebooks/71578.txt.utf-8","application/rdf+xml":"https://www.gutenberg.org/ebooks/71578.rdf","image/jpeg":"https://www.gutenberg.org/cache/epub/71578/pg71578.cover.medium.jpg","application/octet-stream":"https://www.gutenberg.org/files/71578/71578-h.zip"},"download_count":44}]}