{"count":58808,"next":"http://129.241.150.113:8000/books/?languages=en&page=1728","previous":"http://129.241.150.113:8000/books/?languages=en&page=1726","results":[{"id":69538,"title":"Riches have wings; or, A tale for the rich and poor","authors":[{"name":"Arthur, T. S. (Timothy Shay)","birth_year":1809,"death_year":1885}],"translators":[],"subjects":["United States -- Social life and customs -- 19th century -- Fiction","Wealth -- Moral and ethical aspects -- Fiction"],"bookshelves":[],"languages":["en"],"copyright":false,"media_type":"Text","formats":{"text/html":"https://www.gutenberg.org/ebooks/69538.html.images","application/epub+zip":"https://www.gutenberg.org/ebooks/69538.epub3.images","application/x-mobipocket-ebook":"https://www.gutenberg.org/ebooks/69538.kf8.images","text/plain; charset=us-ascii":"https://www.gutenberg.org/ebooks/69538.txt.utf-8","application/rdf+xml":"https://www.gutenberg.org/ebooks/69538.rdf","image/jpeg":"https://www.gutenberg.org/cache/epub/69538/pg69538.cover.medium.jpg","application/octet-stream":"https://www.gutenberg.org/files/69538/69538-0.zip"},"download_count":17},{"id":69545,"title":"Oliver October","authors":[{"name":"McCutcheon, George Barr","birth_year":1866,"death_year":1928}],"translators":[],"subjects":["American fiction -- 20th century","Prophecies -- Fiction"],"bookshelves":[],"languages":["en"],"copyright":false,"media_type":"Text","formats":{"text/html":"https://www.gutenberg.org/ebooks/69545.html.images","application/epub+zip":"https://www.gutenberg.org/ebooks/69545.epub3.images","application/x-mobipocket-ebook":"https://www.gutenberg.org/ebooks/69545.kf8.images","text/plain; charset=us-ascii":"https://www.gutenberg.org/ebooks/69545.txt.utf-8","application/rdf+xml":"https://www.gutenberg.org/ebooks/69545.rdf","image/jpeg":"https://www.gutenberg.org/cache/epub/69545/pg69545.cover.medium.jpg","application/octet-stream":"https://www.gutenberg.org/files/69545/69545-0.zip"},"download_count":17},{"id":69570,"title":"Friends and cousins","authors":[{"name":"Brown, Abbie Farwell","birth_year":1871,"death_year":1927}],"translators":[],"subjects":["Children -- Juvenile fiction","Islands -- Juvenile fiction","Vacations -- Juvenile fiction"],"bookshelves":[],"languages":["en"],"copyright":false,"media_type":"Text","formats":{"text/html":"https://www.gutenberg.org/ebooks/69570.html.images","application/epub+zip":"https://www.gutenberg.org/ebooks/69570.epub3.images","application/x-mobipocket-ebook":"https://www.gutenberg.org/ebooks/69570.kf8.images","text/plain; charset=us-ascii":"https://www.gutenberg.org/ebooks/69570.txt.utf-8","application/rdf+xml":"https://www.gutenberg.org/ebooks/69570.rdf","image/jpeg":"https://www.gutenberg.org/cache/epub/69570/pg69570.cover.medium.jpg","application/octet-stream":"https://www.gutenberg.org/files/69570/69570-0.zip"},"download_count":17},{"id":69571,"title":"Euterpe; or, The future of art","authors":[{"name":"McColvin, Lionel R. (Lionel Roy)","birth_year":1896,"death_year":1976}],"translators":[],"subjects":["Art"],"bookshelves":[],"languages":["en"],"copyright":false,"media_type":"Text","formats":{"text/html":"https://www.gutenberg.org/ebooks/69571.html.images","application/epub+zip":"https://www.gutenberg.org/ebooks/69571.epub3.images","application/x-mobipocket-ebook":"https://www.gutenberg.org/ebooks/69571.kf8.images","text/plain; charset=us-ascii":"https://www.gutenberg.org/ebooks/69571.txt.utf-8","application/rdf+xml":"https://www.gutenberg.org/ebooks/69571.rdf","image/jpeg":"https://www.gutenberg.org/cache/epub/69571/pg69571.cover.medium.jpg","application/octet-stream":"https://www.gutenberg.org/files/69571/69571-0.zip"},"download_count":17},{"id":69577,"title":"The zoology of the voyage of H.M.S. Beagle [vol. 2 of 5]: Mammalia","authors":[{"name":"Waterhouse, G. R. (George Robert)","birth_year":1810,"death_year":1888}],"translators":[],"subjects":["Beagle Expedition (1831-1836)","Mammals","Zoology"],"bookshelves":[],"languages":["en"],"copyright":false,"media_type":"Text","formats":{"text/html":"https://www.gutenberg.org/ebooks/69577.html.images","application/epub+zip":"https://www.gutenberg.org/ebooks/69577.epub3.images","application/x-mobipocket-ebook":"https://www.gutenberg.org/ebooks/69577.kf8.images","text/plain; charset=us-ascii":"https://www.gutenberg.org/ebooks/69577.txt.utf-8","application/rdf+xml":"https://www.gutenberg.org/ebooks/69577.rdf","image/jpeg":"https://www.gutenberg.org/cache/epub/69577/pg69577.cover.medium.jpg","application/octet-stream":"https://www.gutenberg.org/files/69577/69577-0.zip"},"download_count":17},{"id":69613,"title":"Storm","authors":[{"name":"Sutcliffe, Halliwell","birth_year":1870,"death_year":1932}],"translators":[],"subjects":["Adventure stories","Landowners -- Fiction","Outlaws -- Fiction","Vendetta -- Fiction","Yorkshire (England) -- Fiction"],"bookshelves":[],"languages":["en"],"copyright":false,"media_type":"Text","formats":{"text/html":"https://www.gutenberg.org/ebooks/69613.html.images","application/epub+zip":"https://www.gutenberg.org/ebooks/69613.epub3.images","application/x-mobipocket-ebook":"https://www.gutenberg.org/ebooks/69613.kf8.images","text/plain; charset=us-ascii":"https://www.gutenberg.org/ebooks/69613.txt.utf-8","application/rdf+xml":"https://www.gutenberg.org/ebooks/69613.rdf","image/jpeg":"https://www.gutenberg.org/cache/epub/69613/pg69613.cover.medium.jpg","application/octet-stream":"https://www.gutenberg.org/files/69613/69613-0.zip"},"download_count":17},{"id":69625,"title":"Feudal tyrants; or, The Counts of Carlsheim and Sargans, volume 4 (of 4)","authors":[{"name":"Naubert, Benedikte","birth_year":1756,"death_year":1819}],"translators":[{"name":"Lewis, M. G. (Matthew Gregory)","birth_year":1775,"death_year":1818}],"subjects":["German fiction -- Translations into English"],"bookshelves":[],"languages":["en"],"copyright":false,"media_type":"Text","formats":{"text/html":"https://www.gutenberg.org/ebooks/69625.html.images","application/epub+zip":"https://www.gutenberg.org/ebooks/69625.epub3.images","application/x-mobipocket-ebook":"https://www.gutenberg.org/ebooks/69625.kf8.images","text/plain; charset=us-ascii":"https://www.gutenberg.org/ebooks/69625.txt.utf-8","application/rdf+xml":"https://www.gutenberg.org/ebooks/69625.rdf","image/jpeg":"https://www.gutenberg.org/cache/epub/69625/pg69625.cover.medium.jpg","application/octet-stream":"https://www.gutenberg.org/files/69625/69625-0.zip"},"download_count":17},{"id":69635,"title":"Recent research on radioactivity","authors":[{"name":"Curie, Pierre","birth_year":1859,"death_year":1906}],"translators":[],"subjects":["Radioactivity"],"bookshelves":[],"languages":["en"],"copyright":false,"media_type":"Text","formats":{"text/html":"https://www.gutenberg.org/ebooks/69635.html.images","application/epub+zip":"https://www.gutenberg.org/ebooks/69635.epub3.images","application/x-mobipocket-ebook":"https://www.gutenberg.org/ebooks/69635.kf8.images","application/rdf+xml":"https://www.gutenberg.org/ebooks/69635.rdf","image/jpeg":"https://www.gutenberg.org/cache/epub/69635/pg69635.cover.medium.jpg","application/octet-stream":"https://www.gutenberg.org/files/69635/69635-h.zip"},"download_count":17},{"id":69642,"title":"Woodburn Grange: A story of English country life; vol. 2 of 3","authors":[{"name":"Howitt, William","birth_year":1792,"death_year":1879}],"translators":[],"subjects":["Religious fiction"],"bookshelves":[],"languages":["en"],"copyright":false,"media_type":"Text","formats":{"text/html":"https://www.gutenberg.org/ebooks/69642.html.images","application/epub+zip":"https://www.gutenberg.org/ebooks/69642.epub3.images","application/x-mobipocket-ebook":"https://www.gutenberg.org/ebooks/69642.kf8.images","text/plain; charset=us-ascii":"https://www.gutenberg.org/ebooks/69642.txt.utf-8","application/rdf+xml":"https://www.gutenberg.org/ebooks/69642.rdf","image/jpeg":"https://www.gutenberg.org/cache/epub/69642/pg69642.cover.medium.jpg","application/octet-stream":"https://www.gutenberg.org/files/69642/69642-0.zip"},"download_count":17},{"id":69716,"title":"Life and labor in the spirit world: Being a description of localities, employments, surroundings, and conditions in the spheres.","authors":[{"name":"Longley, Mary T. (Mary Theresa)","birth_year":1853,"death_year":1928}],"translators":[],"subjects":["Spirit writings","Spirits"],"bookshelves":[],"languages":["en"],"copyright":false,"media_type":"Text","formats":{"text/html":"https://www.gutenberg.org/ebooks/69716.html.images","application/epub+zip":"https://www.gutenberg.org/ebooks/69716.epub3.images","application/x-mobipocket-ebook":"https://www.gutenberg.org/ebooks/69716.kf8.images","text/plain; charset=us-ascii":"https://www.gutenberg.org/ebooks/69716.txt.utf-8","application/rdf+xml":"https://www.gutenberg.org/ebooks/69716.rdf","image/jpeg":"https://www.gutenberg.org/cache/epub/69716/pg69716.cover.medium.jpg","application/octet-stream":"https://www.gutenberg.org/files/69716/69716-0.zip"},"download_count":17},{"id":69741,"title":"The house of five gables","authors":[{"name":"Holmes, Mary Johnson","birth_year":null,"death_year":null}],"translators":[],"subjects":["United States -- Social life and customs -- 19th century -- Fiction","Wheeling (W. Va.) -- Fiction"],"bookshelves":[],"languages":["en"],"copyright":false,"media_type":"Text","formats":{"text/html":"https://www.gutenberg.org/ebooks/69741.html.images","application/epub+zip":"https://www.gutenberg.org/ebooks/69741.epub3.images","application/x-mobipocket-ebook":"https://www.gutenberg.org/ebooks/69741.kf8.images","text/plain; charset=us-ascii":"https://www.gutenberg.org/ebooks/69741.txt.utf-8","application/rdf+xml":"https://www.gutenberg.org/ebooks/69741.rdf","image/jpeg":"https://www.gutenberg.org/cache/epub/69741/pg69741.cover.medium.jpg","application/octet-stream":"https://www.gutenberg.org/files/69741/69741-0.zip"},"download_count":17},{"id":69783,"title":"A synopsis of the palms of Puerto Rico","authors":[{"name":"Cook, O. F. (Orator Fuller)","birth_year":1867,"death_year":1949}],"translators":[],"subjects":["Palms -- Puerto Rico"],"bookshelves":[],"languages":["en"],"copyright":false,"media_type":"Text","formats":{"text/html":"https://www.gutenberg.org/ebooks/69783.html.images","application/epub+zip":"https://www.gutenberg.org/ebooks/69783.epub3.images","application/x-mobipocket-ebook":"https://www.gutenberg.org/ebooks/69783.kf8.images","text/plain; charset=us-ascii":"https://www.gutenberg.org/ebooks/69783.txt.utf-8","application/rdf+xml":"https://www.gutenberg.org/ebooks/69783.rdf","image/jpeg":"https://www.gutenberg.org/cache/epub/69783/pg69783.cover.medium.jpg","application/octet-stream":"https://www.gutenberg.org/files/69783/69783-0.zip"},"download_count":17},{"id":69784,"title":"Shadows and sunbeams: Being a second series of Fern leaves from Fanny's portfolio","authors":[{"name":"Fern, Fanny","birth_year":1811,"death_year":1872}],"translators":[],"subjects":["American essays -- 19th century","Short stories, American"],"bookshelves":[],"languages":["en"],"copyright":false,"media_type":"Text","formats":{"text/html":"https://www.gutenberg.org/ebooks/69784.html.images","application/epub+zip":"https://www.gutenberg.org/ebooks/69784.epub3.images","application/x-mobipocket-ebook":"https://www.gutenberg.org/ebooks/69784.kf8.images","text/plain; charset=us-ascii":"https://www.gutenberg.org/ebooks/69784.txt.utf-8","application/rdf+xml":"https://www.gutenberg.org/ebooks/69784.rdf","image/jpeg":"https://www.gutenberg.org/cache/epub/69784/pg69784.cover.medium.jpg","application/octet-stream":"https://www.gutenberg.org/files/69784/69784-0.zip"},"download_count":17},{"id":69785,"title":"West Lawn, and The rector of St. Mark's","authors":[{"name":"Holmes, Mary Jane","birth_year":1825,"death_year":1907}],"translators":[],"subjects":["American fiction -- 19th century","Clergy -- Fiction","Domestic fiction","Mate selection -- Fiction"],"bookshelves":[],"languages":["en"],"copyright":false,"media_type":"Text","formats":{"text/html":"https://www.gutenberg.org/ebooks/69785.html.images","application/epub+zip":"https://www.gutenberg.org/ebooks/69785.epub3.images","application/x-mobipocket-ebook":"https://www.gutenberg.org/ebooks/69785.kf8.images","text/plain; charset=us-ascii":"https://www.gutenberg.org/ebooks/69785.txt.utf-8","application/rdf+xml":"https://www.gutenberg.org/ebooks/69785.rdf","image/jpeg":"https://www.gutenberg.org/cache/epub/69785/pg69785.cover.medium.jpg","application/octet-stream":"https://www.gutenberg.org/files/69785/69785-0.zip"},"download_count":17},{"id":69908,"title":"The Review, Vol. 1, No. 11, November 1911","authors":[{"name":"Various","birth_year":null,"death_year":null}],"translators":[],"subjects":["Prisons -- Periodicals"],"bookshelves":[],"languages":["en"],"copyright":false,"media_type":"Text","formats":{"text/html":"https://www.gutenberg.org/ebooks/69908.html.images","application/epub+zip":"https://www.gutenberg.org/ebooks/69908.epub3.images","application/x-mobipocket-ebook":"https://www.gutenberg.org/ebooks/69908.kf8.images","text/plain; charset=us-ascii":"https://www.gutenberg.org/ebooks/69908.txt.utf-8","application/rdf+xml":"https://www.gutenberg.org/ebooks/69908.rdf","image/jpeg":"https://www.gutenberg.org/cache/epub/69908/pg69908.cover.medium.jpg","application/octet-stream":"https://www.gutenberg.org/files/69908/69908-0.zip"},"download_count":17},{"id":69946,"title":"The wolf trail","authors":[{"name":"Pocock, Roger","birth_year":1865,"death_year":1941}],"translators":[],"subjects":["Canada, Western -- Fiction"],"bookshelves":[],"languages":["en"],"copyright":false,"media_type":"Text","formats":{"text/html":"https://www.gutenberg.org/ebooks/69946.html.images","application/epub+zip":"https://www.gutenberg.org/ebooks/69946.epub3.images","application/x-mobipocket-ebook":"https://www.gutenberg.org/ebooks/69946.kf8.images","text/plain; charset=us-ascii":"https://www.gutenberg.org/ebooks/69946.txt.utf-8","application/rdf+xml":"https://www.gutenberg.org/ebooks/69946.rdf","image/jpeg":"https://www.gutenberg.org/cache/epub/69946/pg69946.cover.medium.jpg","application/octet-stream":"https://www.gutenberg.org/files/69946/69946-0.zip"},"download_count":17},{"id":69970,"title":"The English Husbandman (The Second Booke): $b Contayning the Ordering of the Kitchin-Garden, and the Planting of strange flowers: the breeding of all manner of Cattell.","authors":[{"name":"Markham, Gervase","birth_year":null,"death_year":1637}],"translators":[],"subjects":["Agriculture -- Early works to 1800","Agriculture -- England -- Early works to 1800","Gardening -- Early works to 1800","Gardening -- England -- Early works to 1800"],"bookshelves":[],"languages":["en"],"copyright":false,"media_type":"Text","formats":{"text/html":"https://www.gutenberg.org/ebooks/69970.html.images","application/epub+zip":"https://www.gutenberg.org/ebooks/69970.epub3.images","application/x-mobipocket-ebook":"https://www.gutenberg.org/ebooks/69970.kf8.images","text/plain; charset=us-ascii":"https://www.gutenberg.org/ebooks/69970.txt.utf-8","application/rdf+xml":"https://www.gutenberg.org/ebooks/69970.rdf","image/jpeg":"https://www.gutenberg.org/cache/epub/69970/pg69970.cover.medium.jpg","application/octet-stream":"https://www.gutenberg.org/files/69970/69970-0.zip"},"download_count":17},{"id":69991,"title":"Stock and stalks : $b A book for the dairy farmer","authors":[{"name":"Roberts, James Russel","birth_year":null,"death_year":null}],"translators":[],"subjects":["Dairying"],"bookshelves":[],"languages":["en"],"copyright":false,"media_type":"Text","formats":{"text/html":"https://www.gutenberg.org/ebooks/69991.html.images","application/epub+zip":"https://www.gutenberg.org/ebooks/69991.epub3.images","application/x-mobipocket-ebook":"https://www.gutenberg.org/ebooks/69991.kf8.images","text/plain; charset=us-ascii":"https://www.gutenberg.org/ebooks/69991.txt.utf-8","application/rdf+xml":"https://www.gutenberg.org/ebooks/69991.rdf","image/jpeg":"https://www.gutenberg.org/cache/epub/69991/pg69991.cover.medium.jpg","application/octet-stream":"https://www.gutenberg.org/files/69991/69991-0.zip"},"download_count":17},{"id":70089,"title":"Drifted ashore; $b or, a child without a name","authors":[{"name":"Everett-Green, Evelyn","birth_year":1856,"death_year":1932}],"translators":[],"subjects":["Amnesia -- Fiction","Boys -- Fiction","Christian life -- Fiction","Foundlings -- Fiction"],"bookshelves":[],"languages":["en"],"copyright":false,"media_type":"Text","formats":{"text/html":"https://www.gutenberg.org/ebooks/70089.html.images","application/epub+zip":"https://www.gutenberg.org/ebooks/70089.epub3.images","application/x-mobipocket-ebook":"https://www.gutenberg.org/ebooks/70089.kf8.images","text/plain; charset=us-ascii":"https://www.gutenberg.org/ebooks/70089.txt.utf-8","application/rdf+xml":"https://www.gutenberg.org/ebooks/70089.rdf","image/jpeg":"https://www.gutenberg.org/cache/epub/70089/pg70089.cover.medium.jpg","application/octet-stream":"https://www.gutenberg.org/files/70089/70089-0.zip"},"download_count":17},{"id":70130,"title":"To Panama and back : $b The record of an experience","authors":[{"name":"Byford, Henry T. (Henry Turman)","birth_year":1853,"death_year":1938}],"translators":[],"subjects":["Pan-American Medical Congress (4th : 1905 : Panama, Panama)","Panama -- Description and travel"],"bookshelves":[],"languages":["en"],"copyright":false,"media_type":"Text","formats":{"text/html":"https://www.gutenberg.org/ebooks/70130.html.images","application/epub+zip":"https://www.gutenberg.org/ebooks/70130.epub3.images","application/x-mobipocket-ebook":"https://www.gutenberg.org/ebooks/70130.kf8.images","text/plain; charset=us-ascii":"https://www.gutenberg.org/ebooks/70130.txt.utf-8","application/rdf+xml":"https://www.gutenberg.org/ebooks/70130.rdf","image/jpeg":"https://www.gutenberg.org/cache/epub/70130/pg70130.cover.medium.jpg","application/octet-stream":"https://www.gutenberg.org/files/70130/70130-0.zip"},"download_count":17},{"id":70160,"title":"Bombs awry","authors":[{"name":"Smith, George O. (George Oliver)","birth_year":1911,"death_year":1981}],"translators":[],"subjects":["Inventors -- Fiction","Science fiction","War games -- Fiction","Weapons -- Fiction"],"bookshelves":[],"languages":["en"],"copyright":false,"media_type":"Text","formats":{"text/html":"https://www.gutenberg.org/ebooks/70160.html.images","application/epub+zip":"https://www.gutenberg.org/ebooks/70160.epub3.images","application/x-mobipocket-ebook":"https://www.gutenberg.org/ebooks/70160.kf8.images","text/plain; charset=us-ascii":"https://www.gutenberg.org/ebooks/70160.txt.utf-8","application/rdf+xml":"https://www.gutenberg.org/ebooks/70160.rdf","image/jpeg":"https://www.gutenberg.org/cache/epub/70160/pg70160.cover.medium.jpg","application/octet-stream":"https://www.gutenberg.org/files/70160/70160-0.zip"},"download_count":17},{"id":70204,"title":"Confederate wizards of the saddle: $b being reminiscences and observations of one who rode with Morgan","authors":[{"name":"Young, Bennett H. (Bennett Henderson)","birth_year":1843,"death_year":1919}],"translators":[],"subjects":["Confederate States of America. Army. Morgan's Cavalry Division -- Biography","United States -- History -- Civil War, 1861-1865 -- Cavalry operations","United States -- History -- Civil War, 1861-1865 -- Regimental histories","Young, Bennett H. (Bennett Henderson), 1843-1919"],"bookshelves":[],"languages":["en"],"copyright":false,"media_type":"Text","formats":{"text/html":"https://www.gutenberg.org/ebooks/70204.html.images","application/epub+zip":"https://www.gutenberg.org/ebooks/70204.epub3.images","application/x-mobipocket-ebook":"https://www.gutenberg.org/ebooks/70204.kf8.images","text/plain; charset=us-ascii":"https://www.gutenberg.org/ebooks/70204.txt.utf-8","application/rdf+xml":"https://www.gutenberg.org/ebooks/70204.rdf","image/jpeg":"https://www.gutenberg.org/cache/epub/70204/pg70204.cover.medium.jpg","application/octet-stream":"https://www.gutenberg.org/files/70204/70204-0.zip"},"download_count":17},{"id":70215,"title":"The belly of Gor Jeetl","authors":[{"name":"Stearns, Charles A.","birth_year":null,"death_year":null}],"translators":[],"subjects":["Architects -- Fiction","Diplomats -- Fiction","Journalists -- Fiction","Man-woman relationships -- Fiction","Science fiction","Short stories"],"bookshelves":[],"languages":["en"],"copyright":false,"media_type":"Text","formats":{"text/html":"https://www.gutenberg.org/ebooks/70215.html.images","application/epub+zip":"https://www.gutenberg.org/ebooks/70215.epub3.images","application/x-mobipocket-ebook":"https://www.gutenberg.org/ebooks/70215.kf8.images","text/plain; charset=us-ascii":"https://www.gutenberg.org/ebooks/70215.txt.utf-8","application/rdf+xml":"https://www.gutenberg.org/ebooks/70215.rdf","image/jpeg":"https://www.gutenberg.org/cache/epub/70215/pg70215.cover.medium.jpg","application/octet-stream":"https://www.gutenberg.org/files/70215/70215-0.zip"},"download_count":17},{"id":70309,"title":"Songs of the Slav : $b Translations from the Czecho-Slovak","authors":[{"name":"Bezruč, Petr","birth_year":1867,"death_year":1958},{"name":"Čech, Svatopluk","birth_year":1846,"death_year":1908},{"name":"Hálek, Vítězslav","birth_year":1835,"death_year":1874},{"name":"Kollár, Ján","birth_year":1793,"death_year":1852},{"name":"Machar, J. S.","birth_year":1864,"death_year":1942}],"translators":[{"name":"Kotouč, Otto","birth_year":1885,"death_year":1973}],"subjects":["Czech poetry -- Translations into English"],"bookshelves":[],"languages":["en"],"copyright":false,"media_type":"Text","formats":{"text/html":"https://www.gutenberg.org/ebooks/70309.html.images","application/epub+zip":"https://www.gutenberg.org/ebooks/70309.epub3.images","application/x-mobipocket-ebook":"https://www.gutenberg.org/ebooks/70309.kf8.images","text/plain; charset=us-ascii":"https://www.gutenberg.org/ebooks/70309.txt.utf-8","application/rdf+xml":"https://www.gutenberg.org/ebooks/70309.rdf","image/jpeg":"https://www.gutenberg.org/cache/epub/70309/pg70309.cover.medium.jpg","application/octet-stream":"https://www.gutenberg.org/files/70309/70309-0.zip"},"download_count":17},{"id":70366,"title":"Antiquities of the Mesa Verde National Park : $b Spruce-tree House","authors":[{"name":"Fewkes, Jesse Walter","birth_year":1850,"death_year":1930}],"translators":[],"subjects":["Cliff-dwellers -- Colorado -- Mesa Verde National Park","Government publications","Indians of North America -- Colorado -- Antiquities","Mesa Verde National Park (Colo.) -- Antiquities"],"bookshelves":[],"languages":["en"],"copyright":false,"media_type":"Text","formats":{"text/html":"https://www.gutenberg.org/ebooks/70366.html.images","application/epub+zip":"https://www.gutenberg.org/ebooks/70366.epub3.images","application/x-mobipocket-ebook":"https://www.gutenberg.org/ebooks/70366.kf8.images","text/plain; charset=us-ascii":"https://www.gutenberg.org/ebooks/70366.txt.utf-8","application/rdf+xml":"https://www.gutenberg.org/ebooks/70366.rdf","image/jpeg":"https://www.gutenberg.org/cache/epub/70366/pg70366.cover.medium.jpg","application/octet-stream":"https://www.gutenberg.org/files/70366/70366-0.zip"},"download_count":17},{"id":70595,"title":"A visit to the Bazaar","authors":[{"name":"Lover of children","birth_year":null,"death_year":null}],"translators":[],"subjects":["Markets -- Juvenile fiction","Soho Square (London, England) -- Juvenile fiction"],"bookshelves":[],"languages":["en"],"copyright":false,"media_type":"Text","formats":{"text/html":"https://www.gutenberg.org/ebooks/70595.html.images","application/epub+zip":"https://www.gutenberg.org/ebooks/70595.epub3.images","application/x-mobipocket-ebook":"https://www.gutenberg.org/ebooks/70595.kf8.images","text/plain; charset=us-ascii":"https://www.gutenberg.org/ebooks/70595.txt.utf-8","application/rdf+xml":"https://www.gutenberg.org/ebooks/70595.rdf","image/jpeg":"https://www.gutenberg.org/cache/epub/70595/pg70595.cover.medium.jpg","application/octet-stream":"https://www.gutenberg.org/files/70595/70595-0.zip"},"download_count":17},{"id":70635,"title":"Lively plays for live people","authors":[{"name":"Denison, Thomas S. (Thomas Stewart)","birth_year":1848,"death_year":1911}],"translators":[],"subjects":["American drama -- 19th century","Comedies","Farces"],"bookshelves":[],"languages":["en"],"copyright":false,"media_type":"Text","formats":{"text/html":"https://www.gutenberg.org/ebooks/70635.html.images","application/epub+zip":"https://www.gutenberg.org/ebooks/70635.epub3.images","application/x-mobipocket-ebook":"https://www.gutenberg.org/ebooks/70635.kf8.images","text/plain; charset=us-ascii":"https://www.gutenberg.org/ebooks/70635.txt.utf-8","application/rdf+xml":"https://www.gutenberg.org/ebooks/70635.rdf","image/jpeg":"https://www.gutenberg.org/cache/epub/70635/pg70635.cover.medium.jpg","application/octet-stream":"https://www.gutenberg.org/files/70635/70635-0.zip"},"download_count":17},{"id":70808,"title":"Edith Lyle : $b A novel","authors":[{"name":"Holmes, Mary Jane","birth_year":1825,"death_year":1907}],"translators":[],"subjects":["Man-woman relationships -- Fiction","Mothers and daughters -- Fiction","Young women -- Fiction"],"bookshelves":[],"languages":["en"],"copyright":false,"media_type":"Text","formats":{"text/html":"https://www.gutenberg.org/ebooks/70808.html.images","application/epub+zip":"https://www.gutenberg.org/ebooks/70808.epub3.images","application/x-mobipocket-ebook":"https://www.gutenberg.org/ebooks/70808.kf8.images","text/plain; charset=us-ascii":"https://www.gutenberg.org/ebooks/70808.txt.utf-8","application/rdf+xml":"https://www.gutenberg.org/ebooks/70808.rdf","image/jpeg":"https://www.gutenberg.org/cache/epub/70808/pg70808.cover.medium.jpg","application/octet-stream":"https://www.gutenberg.org/files/70808/70808-0.zip"},"download_count":17},{"id":70820,"title":"Blair of Balaclava : $b A hero of the Light Brigade","authors":[{"name":"Lynn, Escott","birth_year":1866,"death_year":1950}],"translators":[],"subjects":["Crimean War, 1853-1856 -- Fiction"],"bookshelves":[],"languages":["en"],"copyright":false,"media_type":"Text","formats":{"text/html":"https://www.gutenberg.org/ebooks/70820.html.images","application/epub+zip":"https://www.gutenberg.org/ebooks/70820.epub3.images","application/x-mobipocket-ebook":"https://www.gutenberg.org/ebooks/70820.kf8.images","text/plain; charset=us-ascii":"https://www.gutenberg.org/ebooks/70820.txt.utf-8","application/rdf+xml":"https://www.gutenberg.org/ebooks/70820.rdf","image/jpeg":"https://www.gutenberg.org/cache/epub/70820/pg70820.cover.medium.jpg","application/octet-stream":"https://www.gutenberg.org/files/70820/70820-0.zip"},"download_count":17},{"id":70863,"title":"On the effect of the motion of a body upon the velocity with which it is traversed by light","authors":[{"name":"Fizeau, H. (Hippolyte)","birth_year":1819,"death_year":1896}],"translators":[],"subjects":["Light -- Speed","Motion"],"bookshelves":[],"languages":["en"],"copyright":false,"media_type":"Text","formats":{"text/html":"https://www.gutenberg.org/ebooks/70863.html.images","application/epub+zip":"https://www.gutenberg.org/ebooks/70863.epub3.images","application/x-mobipocket-ebook":"https://www.gutenberg.org/ebooks/70863.kf8.images","application/rdf+xml":"https://www.gutenberg.org/ebooks/70863.rdf","image/jpeg":"https://www.gutenberg.org/cache/epub/70863/pg70863.cover.medium.jpg","application/octet-stream":"https://www.gutenberg.org/files/70863/70863-h.zip"},"download_count":17},{"id":70872,"title":"Spears of destiny : $b A story of the first capture of Constantinople","authors":[{"name":"Smith, Arthur D. Howden (Arthur Douglas Howden)","birth_year":1887,"death_year":1945}],"translators":[],"subjects":["Crusades -- Fourth, 1202-1204 -- Fiction","Istanbul (Turkey) -- History -- Siege, 1203-1204 -- Fiction"],"bookshelves":[],"languages":["en"],"copyright":false,"media_type":"Text","formats":{"text/html":"https://www.gutenberg.org/ebooks/70872.html.images","application/epub+zip":"https://www.gutenberg.org/ebooks/70872.epub3.images","application/x-mobipocket-ebook":"https://www.gutenberg.org/ebooks/70872.kf8.images","text/plain; charset=us-ascii":"https://www.gutenberg.org/ebooks/70872.txt.utf-8","application/rdf+xml":"https://www.gutenberg.org/ebooks/70872.rdf","image/jpeg":"https://www.gutenberg.org/cache/epub/70872/pg70872.cover.medium.jpg","application/octet-stream":"https://www.gutenberg.org/files/70872/70872-0.zip"},"download_count":17},{"id":70902,"title":"Many happy returns of the day!","authors":[{"name":"Butler, Ellis Parker","birth_year":1869,"death_year":1937}],"translators":[],"subjects":["Birthdays"],"bookshelves":[],"languages":["en"],"copyright":false,"media_type":"Text","formats":{"text/html":"https://www.gutenberg.org/ebooks/70902.html.images","application/epub+zip":"https://www.gutenberg.org/ebooks/70902.epub3.images","application/x-mobipocket-ebook":"https://www.gutenberg.org/ebooks/70902.kf8.images","text/plain; charset=us-ascii":"https://www.gutenberg.org/ebooks/70902.txt.utf-8","application/rdf+xml":"https://www.gutenberg.org/ebooks/70902.rdf","image/jpeg":"https://www.gutenberg.org/cache/epub/70902/pg70902.cover.medium.jpg","application/octet-stream":"https://www.gutenberg.org/files/70902/70902-0.zip"},"download_count":17}]}