{"count":58808,"next":"http://129.241.150.113:8000/books/?languages=en&page=1089","previous":"http://129.241.150.113:8000/books/?languages=en&page=1087","results":[{"id":67614,"title":"The Boy's Book of the Sea","authors":[{"name":"Wood, Eric","birth_year":null,"death_year":null}],"translators":[],"subjects":["Sea stories"],"bookshelves":[],"languages":["en"],"copyright":false,"media_type":"Text","formats":{"text/html":"https://www.gutenberg.org/ebooks/67614.html.images","application/epub+zip":"https://www.gutenberg.org/ebooks/67614.epub3.images","application/x-mobipocket-ebook":"https://www.gutenberg.org/ebooks/67614.kf8.images","text/plain; charset=us-ascii":"https://www.gutenberg.org/ebooks/67614.txt.utf-8","application/rdf+xml":"https://www.gutenberg.org/ebooks/67614.rdf","image/jpeg":"https://www.gutenberg.org/cache/epub/67614/pg67614.cover.medium.jpg","application/octet-stream":"https://www.gutenberg.org/files/67614/67614-0.zip"},"download_count":34},{"id":67645,"title":"Dialogue","authors":[{"name":"Hope, Anthony","birth_year":1863,"death_year":1933}],"translators":[],"subjects":["Dialogue","English literature -- History and criticism"],"bookshelves":[],"languages":["en"],"copyright":false,"media_type":"Text","formats":{"text/html":"https://www.gutenberg.org/ebooks/67645.html.images","application/epub+zip":"https://www.gutenberg.org/ebooks/67645.epub3.images","application/x-mobipocket-ebook":"https://www.gutenberg.org/ebooks/67645.kf8.images","text/plain; charset=us-ascii":"https://www.gutenberg.org/ebooks/67645.txt.utf-8","application/rdf+xml":"https://www.gutenberg.org/ebooks/67645.rdf","image/jpeg":"https://www.gutenberg.org/cache/epub/67645/pg67645.cover.medium.jpg","application/octet-stream":"https://www.gutenberg.org/files/67645/67645-0.zip"},"download_count":34},{"id":67646,"title":"All for Love; or, Her Heart's Sacrifice","authors":[{"name":"Miller, Alex. McVeigh, Mrs.","birth_year":1850,"death_year":1937}],"translators":[],"subjects":["Dime novels","Fiction","Romance fiction"],"bookshelves":[],"languages":["en"],"copyright":false,"media_type":"Text","formats":{"text/html":"https://www.gutenberg.org/ebooks/67646.html.images","application/epub+zip":"https://www.gutenberg.org/ebooks/67646.epub3.images","application/x-mobipocket-ebook":"https://www.gutenberg.org/ebooks/67646.kf8.images","text/plain; charset=us-ascii":"https://www.gutenberg.org/ebooks/67646.txt.utf-8","application/rdf+xml":"https://www.gutenberg.org/ebooks/67646.rdf","image/jpeg":"https://www.gutenberg.org/cache/epub/67646/pg67646.cover.medium.jpg","application/octet-stream":"https://www.gutenberg.org/files/67646/67646-0.zip"},"download_count":34},{"id":67679,"title":"The Council of Seven","authors":[{"name":"Snaith, J. C. (John Collis)","birth_year":1876,"death_year":1936}],"translators":[],"subjects":["Dystopias -- Fiction"],"bookshelves":[],"languages":["en"],"copyright":false,"media_type":"Text","formats":{"text/html":"https://www.gutenberg.org/ebooks/67679.html.images","application/epub+zip":"https://www.gutenberg.org/ebooks/67679.epub3.images","application/x-mobipocket-ebook":"https://www.gutenberg.org/ebooks/67679.kf8.images","text/plain; charset=us-ascii":"https://www.gutenberg.org/ebooks/67679.txt.utf-8","application/rdf+xml":"https://www.gutenberg.org/ebooks/67679.rdf","image/jpeg":"https://www.gutenberg.org/cache/epub/67679/pg67679.cover.medium.jpg","application/octet-stream":"https://www.gutenberg.org/files/67679/67679-0.zip"},"download_count":34},{"id":67783,"title":"Gaudenzia, Pride of the Palio","authors":[{"name":"Henry, Marguerite","birth_year":1902,"death_year":1997}],"translators":[],"subjects":["Horse racing -- Juvenile fiction","Palio di Siena (Festival) (Siena, Italy) -- Juvenile fiction","Siena (Italy) -- Juvenile fiction"],"bookshelves":[],"languages":["en"],"copyright":false,"media_type":"Text","formats":{"text/html":"https://www.gutenberg.org/ebooks/67783.html.images","application/epub+zip":"https://www.gutenberg.org/ebooks/67783.epub3.images","application/x-mobipocket-ebook":"https://www.gutenberg.org/ebooks/67783.kf8.images","text/plain; charset=us-ascii":"https://www.gutenberg.org/ebooks/67783.txt.utf-8","application/rdf+xml":"https://www.gutenberg.org/ebooks/67783.rdf","image/jpeg":"https://www.gutenberg.org/cache/epub/67783/pg67783.cover.medium.jpg","application/octet-stream":"https://www.gutenberg.org/files/67783/67783-0.zip"},"download_count":34},{"id":67908,"title":"Fatigue Study: The Elimination of Humanity's Greatest Unnecessary Waste: A First Step in Motion Study","authors":[{"name":"Gilbreth, Lillian Moller","birth_year":1878,"death_year":1972},{"name":"Gilbreth, Frank B. (Frank Bunker)","birth_year":1868,"death_year":1924}],"translators":[],"subjects":["Fatigue","Industrial efficiency","Motion study"],"bookshelves":[],"languages":["en"],"copyright":false,"media_type":"Text","formats":{"text/html":"https://www.gutenberg.org/ebooks/67908.html.images","application/epub+zip":"https://www.gutenberg.org/ebooks/67908.epub3.images","application/x-mobipocket-ebook":"https://www.gutenberg.org/ebooks/67908.kf8.images","text/plain; charset=us-ascii":"https://www.gutenberg.org/ebooks/67908.txt.utf-8","application/rdf+xml":"https://www.gutenberg.org/ebooks/67908.rdf","image/jpeg":"https://www.gutenberg.org/cache/epub/67908/pg67908.cover.medium.jpg","application/octet-stream":"https://www.gutenberg.org/files/67908/67908-0.zip"},"download_count":34},{"id":67992,"title":"Twentieth Century French Writers: Reviews and Reminiscences","authors":[{"name":"Robinson, A. Mary F. (Agnes Mary Frances)","birth_year":1857,"death_year":1944}],"translators":[],"subjects":["French literature -- 20th century -- History and criticism"],"bookshelves":[],"languages":["en"],"copyright":false,"media_type":"Text","formats":{"text/html":"https://www.gutenberg.org/ebooks/67992.html.images","application/epub+zip":"https://www.gutenberg.org/ebooks/67992.epub3.images","application/x-mobipocket-ebook":"https://www.gutenberg.org/ebooks/67992.kf8.images","text/plain; charset=us-ascii":"https://www.gutenberg.org/ebooks/67992.txt.utf-8","application/rdf+xml":"https://www.gutenberg.org/ebooks/67992.rdf","image/jpeg":"https://www.gutenberg.org/cache/epub/67992/pg67992.cover.medium.jpg","application/octet-stream":"https://www.gutenberg.org/files/67992/67992-0.zip"},"download_count":34},{"id":68088,"title":"Glad ghosts","authors":[{"name":"Lawrence, D. H. (David Herbert)","birth_year":1885,"death_year":1930}],"translators":[],"subjects":["England -- Fiction","Ghost stories","Man-woman relationships -- Fiction"],"bookshelves":[],"languages":["en"],"copyright":false,"media_type":"Text","formats":{"text/html":"https://www.gutenberg.org/ebooks/68088.html.images","application/epub+zip":"https://www.gutenberg.org/ebooks/68088.epub3.images","application/x-mobipocket-ebook":"https://www.gutenberg.org/ebooks/68088.kf8.images","text/plain; charset=us-ascii":"https://www.gutenberg.org/ebooks/68088.txt.utf-8","application/rdf+xml":"https://www.gutenberg.org/ebooks/68088.rdf","image/jpeg":"https://www.gutenberg.org/cache/epub/68088/pg68088.cover.medium.jpg","application/octet-stream":"https://www.gutenberg.org/files/68088/68088-0.zip"},"download_count":34},{"id":68089,"title":"Nick Carter Stories No. 151, July 31, 1915: The Mystery of the Crossed Needles; or Nick Carter and the Yellow Tong","authors":[{"name":"Carter, Nicholas (House name)","birth_year":null,"death_year":null},{"name":"Boston, Ralph","birth_year":null,"death_year":null}],"translators":[],"subjects":["Detective and mystery stories, American -- Periodicals","Popular literature -- Periodicals"],"bookshelves":[],"languages":["en"],"copyright":false,"media_type":"Text","formats":{"text/html":"https://www.gutenberg.org/ebooks/68089.html.images","application/epub+zip":"https://www.gutenberg.org/ebooks/68089.epub3.images","application/x-mobipocket-ebook":"https://www.gutenberg.org/ebooks/68089.kf8.images","text/plain; charset=us-ascii":"https://www.gutenberg.org/ebooks/68089.txt.utf-8","application/rdf+xml":"https://www.gutenberg.org/ebooks/68089.rdf","image/jpeg":"https://www.gutenberg.org/cache/epub/68089/pg68089.cover.medium.jpg","application/octet-stream":"https://www.gutenberg.org/files/68089/68089-0.zip"},"download_count":34},{"id":68279,"title":"The well in the desert","authors":[{"name":"Knapp, Adeline","birth_year":1860,"death_year":1909}],"translators":[],"subjects":["Arizona -- Fiction","Deserts -- Fiction","Escaped prisoners -- Fiction","Love stories","Sick -- Fiction","Southwest, New -- Fiction","Western stories"],"bookshelves":[],"languages":["en"],"copyright":false,"media_type":"Text","formats":{"text/html":"https://www.gutenberg.org/ebooks/68279.html.images","application/epub+zip":"https://www.gutenberg.org/ebooks/68279.epub3.images","application/x-mobipocket-ebook":"https://www.gutenberg.org/ebooks/68279.kf8.images","text/plain; charset=us-ascii":"https://www.gutenberg.org/ebooks/68279.txt.utf-8","application/rdf+xml":"https://www.gutenberg.org/ebooks/68279.rdf","image/jpeg":"https://www.gutenberg.org/cache/epub/68279/pg68279.cover.medium.jpg","application/octet-stream":"https://www.gutenberg.org/files/68279/68279-0.zip"},"download_count":34},{"id":68285,"title":"Practical hints to builders and those contemplating building: Facts worth considering relating to foundation, cellar, kitchen, chimney, cistern, brick-work, mortar, heating, ventilation, the roof, and many items of interest to builders.","authors":[{"name":"National Sheet Metal Roofing Co.","birth_year":null,"death_year":null}],"translators":[],"subjects":["Building","Roofing"],"bookshelves":[],"languages":["en"],"copyright":false,"media_type":"Text","formats":{"text/html":"https://www.gutenberg.org/ebooks/68285.html.images","application/epub+zip":"https://www.gutenberg.org/ebooks/68285.epub3.images","application/x-mobipocket-ebook":"https://www.gutenberg.org/ebooks/68285.kf8.images","text/plain; charset=us-ascii":"https://www.gutenberg.org/ebooks/68285.txt.utf-8","application/rdf+xml":"https://www.gutenberg.org/ebooks/68285.rdf","image/jpeg":"https://www.gutenberg.org/cache/epub/68285/pg68285.cover.medium.jpg","application/octet-stream":"https://www.gutenberg.org/files/68285/68285-0.zip"},"download_count":34},{"id":68308,"title":"The Mexican War diary of George B. McClellan","authors":[{"name":"McClellan, George B. (George Brinton)","birth_year":1826,"death_year":1885}],"translators":[],"subjects":["McClellan, George B. (George Brinton), 1826-1885 -- Diaries","Mexican War, 1846-1848 -- Personal narratives, American","Soldiers -- United States -- Diaries"],"bookshelves":[],"languages":["en"],"copyright":false,"media_type":"Text","formats":{"text/html":"https://www.gutenberg.org/ebooks/68308.html.images","application/epub+zip":"https://www.gutenberg.org/ebooks/68308.epub3.images","application/x-mobipocket-ebook":"https://www.gutenberg.org/ebooks/68308.kf8.images","text/plain; charset=us-ascii":"https://www.gutenberg.org/ebooks/68308.txt.utf-8","application/rdf+xml":"https://www.gutenberg.org/ebooks/68308.rdf","image/jpeg":"https://www.gutenberg.org/cache/epub/68308/pg68308.cover.medium.jpg","application/octet-stream":"https://www.gutenberg.org/files/68308/68308-0.zip"},"download_count":34},{"id":68325,"title":"Nomad","authors":[{"name":"Smith, George O. (George Oliver)","birth_year":1911,"death_year":1981}],"translators":[],"subjects":["Science fiction"],"bookshelves":[],"languages":["en"],"copyright":false,"media_type":"Text","formats":{"text/html":"https://www.gutenberg.org/ebooks/68325.html.images","application/epub+zip":"https://www.gutenberg.org/ebooks/68325.epub3.images","application/x-mobipocket-ebook":"https://www.gutenberg.org/ebooks/68325.kf8.images","text/plain; charset=us-ascii":"https://www.gutenberg.org/ebooks/68325.txt.utf-8","application/rdf+xml":"https://www.gutenberg.org/ebooks/68325.rdf","image/jpeg":"https://www.gutenberg.org/cache/epub/68325/pg68325.cover.medium.jpg","application/octet-stream":"https://www.gutenberg.org/files/68325/68325-0.zip"},"download_count":34},{"id":68326,"title":"History of electric light","authors":[{"name":"Schroeder, Henry","birth_year":1879,"death_year":1952}],"translators":[],"subjects":["Electric lighting -- History"],"bookshelves":[],"languages":["en"],"copyright":false,"media_type":"Text","formats":{"text/html":"https://www.gutenberg.org/ebooks/68326.html.images","application/epub+zip":"https://www.gutenberg.org/ebooks/68326.epub3.images","application/x-mobipocket-ebook":"https://www.gutenberg.org/ebooks/68326.kf8.images","text/plain; charset=us-ascii":"https://www.gutenberg.org/ebooks/68326.txt.utf-8","application/rdf+xml":"https://www.gutenberg.org/ebooks/68326.rdf","image/jpeg":"https://www.gutenberg.org/cache/epub/68326/pg68326.cover.medium.jpg","application/octet-stream":"https://www.gutenberg.org/files/68326/68326-0.zip"},"download_count":34},{"id":68348,"title":"England under the Angevin Kings, Volumes I and II","authors":[{"name":"Norgate, Kate","birth_year":1853,"death_year":1935}],"translators":[],"subjects":["Anjou, House of","England -- Civilization -- 1066-1485","Great Britain -- History -- Angevin period, 1154-1216"],"bookshelves":[],"languages":["en"],"copyright":false,"media_type":"Text","formats":{"text/html":"https://www.gutenberg.org/ebooks/68348.html.images","application/epub+zip":"https://www.gutenberg.org/ebooks/68348.epub3.images","application/x-mobipocket-ebook":"https://www.gutenberg.org/ebooks/68348.kf8.images","text/plain; charset=us-ascii":"https://www.gutenberg.org/ebooks/68348.txt.utf-8","application/rdf+xml":"https://www.gutenberg.org/ebooks/68348.rdf","image/jpeg":"https://www.gutenberg.org/cache/epub/68348/pg68348.cover.medium.jpg","application/octet-stream":"https://www.gutenberg.org/files/68348/68348-0.zip"},"download_count":34},{"id":68373,"title":"The Gently Orbiting Blonde","authors":[{"name":"Peterson, John Victor","birth_year":null,"death_year":null}],"translators":[],"subjects":["Antigravity -- Fiction","Inventors -- Fiction","New Mexico -- Fiction","Newlyweds -- Fiction","Science fiction","Short stories"],"bookshelves":[],"languages":["en"],"copyright":false,"media_type":"Text","formats":{"text/html":"https://www.gutenberg.org/ebooks/68373.html.images","application/epub+zip":"https://www.gutenberg.org/ebooks/68373.epub3.images","application/x-mobipocket-ebook":"https://www.gutenberg.org/ebooks/68373.kf8.images","text/plain; charset=us-ascii":"https://www.gutenberg.org/ebooks/68373.txt.utf-8","application/rdf+xml":"https://www.gutenberg.org/ebooks/68373.rdf","image/jpeg":"https://www.gutenberg.org/cache/epub/68373/pg68373.cover.medium.jpg","application/octet-stream":"https://www.gutenberg.org/files/68373/68373-0.zip"},"download_count":34},{"id":68413,"title":"Jack the runaway; or, On the road with a circus","authors":[{"name":"Webster, Frank V.","birth_year":null,"death_year":null}],"translators":[],"subjects":["Circus -- Juvenile fiction","Mystery and detective stories","Runaway teenagers -- Juvenile fiction"],"bookshelves":[],"languages":["en"],"copyright":false,"media_type":"Text","formats":{"text/html":"https://www.gutenberg.org/ebooks/68413.html.images","application/epub+zip":"https://www.gutenberg.org/ebooks/68413.epub3.images","application/x-mobipocket-ebook":"https://www.gutenberg.org/ebooks/68413.kf8.images","text/plain; charset=us-ascii":"https://www.gutenberg.org/ebooks/68413.txt.utf-8","application/rdf+xml":"https://www.gutenberg.org/ebooks/68413.rdf","image/jpeg":"https://www.gutenberg.org/cache/epub/68413/pg68413.cover.medium.jpg","application/octet-stream":"https://www.gutenberg.org/files/68413/68413-0.zip"},"download_count":34},{"id":68471,"title":"Tom the telephone boy; or, The mystery of a message","authors":[{"name":"Webster, Frank V.","birth_year":null,"death_year":null}],"translators":[],"subjects":["Mystery and detective stories","Robbery -- Juvenile fiction","Telephone operators -- Juvenile fiction"],"bookshelves":[],"languages":["en"],"copyright":false,"media_type":"Text","formats":{"text/html":"https://www.gutenberg.org/ebooks/68471.html.images","application/epub+zip":"https://www.gutenberg.org/ebooks/68471.epub3.images","application/x-mobipocket-ebook":"https://www.gutenberg.org/ebooks/68471.kf8.images","text/plain; charset=us-ascii":"https://www.gutenberg.org/ebooks/68471.txt.utf-8","application/rdf+xml":"https://www.gutenberg.org/ebooks/68471.rdf","image/jpeg":"https://www.gutenberg.org/cache/epub/68471/pg68471.cover.medium.jpg","application/octet-stream":"https://www.gutenberg.org/files/68471/68471-0.zip"},"download_count":34},{"id":68478,"title":"Skit-tree planet","authors":[{"name":"Leinster, Murray","birth_year":1896,"death_year":1975}],"translators":[],"subjects":["Human-alien encounters -- Fiction","Interstellar travel -- Fiction","Life on other planets -- Fiction","Outer space -- Exploration -- Fiction","Science fiction","Short stories"],"bookshelves":[],"languages":["en"],"copyright":false,"media_type":"Text","formats":{"text/html":"https://www.gutenberg.org/ebooks/68478.html.images","application/epub+zip":"https://www.gutenberg.org/ebooks/68478.epub3.images","application/x-mobipocket-ebook":"https://www.gutenberg.org/ebooks/68478.kf8.images","text/plain; charset=us-ascii":"https://www.gutenberg.org/ebooks/68478.txt.utf-8","application/rdf+xml":"https://www.gutenberg.org/ebooks/68478.rdf","image/jpeg":"https://www.gutenberg.org/cache/epub/68478/pg68478.cover.medium.jpg","application/octet-stream":"https://www.gutenberg.org/files/68478/68478-0.zip"},"download_count":34},{"id":68498,"title":"The sky sheriff: The pioneer spirit lives again in the Texas Airplane Patrol","authors":[{"name":"Burtis, Thomson","birth_year":1896,"death_year":1971}],"translators":[],"subjects":["Air pilots -- Fiction","Law enforcement -- Fiction","Robbery -- Fiction","Texas -- Fiction"],"bookshelves":[],"languages":["en"],"copyright":false,"media_type":"Text","formats":{"text/html":"https://www.gutenberg.org/ebooks/68498.html.images","application/epub+zip":"https://www.gutenberg.org/ebooks/68498.epub3.images","application/x-mobipocket-ebook":"https://www.gutenberg.org/ebooks/68498.kf8.images","text/plain; charset=us-ascii":"https://www.gutenberg.org/ebooks/68498.txt.utf-8","application/rdf+xml":"https://www.gutenberg.org/ebooks/68498.rdf","image/jpeg":"https://www.gutenberg.org/cache/epub/68498/pg68498.cover.medium.jpg","application/octet-stream":"https://www.gutenberg.org/files/68498/68498-0.zip"},"download_count":34},{"id":68753,"title":"Forgotten danger","authors":[{"name":"Samachson, Joseph","birth_year":1906,"death_year":1980}],"translators":[],"subjects":["Amnesiacs -- Fiction","Science fiction","Short stories"],"bookshelves":[],"languages":["en"],"copyright":false,"media_type":"Text","formats":{"text/html":"https://www.gutenberg.org/ebooks/68753.html.images","application/epub+zip":"https://www.gutenberg.org/ebooks/68753.epub3.images","application/x-mobipocket-ebook":"https://www.gutenberg.org/ebooks/68753.kf8.images","text/plain; charset=us-ascii":"https://www.gutenberg.org/ebooks/68753.txt.utf-8","application/rdf+xml":"https://www.gutenberg.org/ebooks/68753.rdf","image/jpeg":"https://www.gutenberg.org/cache/epub/68753/pg68753.cover.medium.jpg","application/octet-stream":"https://www.gutenberg.org/files/68753/68753-0.zip"},"download_count":34},{"id":68778,"title":"Elements of show card writing: A course of instruction on how to make business-building show cards.","authors":[{"name":"De Wild, John H.","birth_year":null,"death_year":null}],"translators":[],"subjects":["Advertising cards","Lettering"],"bookshelves":[],"languages":["en"],"copyright":false,"media_type":"Text","formats":{"text/html":"https://www.gutenberg.org/ebooks/68778.html.images","application/epub+zip":"https://www.gutenberg.org/ebooks/68778.epub3.images","application/x-mobipocket-ebook":"https://www.gutenberg.org/ebooks/68778.kf8.images","text/plain; charset=us-ascii":"https://www.gutenberg.org/ebooks/68778.txt.utf-8","application/rdf+xml":"https://www.gutenberg.org/ebooks/68778.rdf","image/jpeg":"https://www.gutenberg.org/cache/epub/68778/pg68778.cover.medium.jpg","application/octet-stream":"https://www.gutenberg.org/files/68778/68778-0.zip"},"download_count":34},{"id":68810,"title":"The nameless man","authors":[{"name":"Lincoln, Natalie Sumner","birth_year":1881,"death_year":1935}],"translators":[],"subjects":["Detective and mystery stories","Interpersonal relations -- Fiction","Murder -- Investigation -- Fiction","Railroad travel -- Fiction","Washington (D.C.) -- Social life and customs -- Fiction"],"bookshelves":[],"languages":["en"],"copyright":false,"media_type":"Text","formats":{"text/html":"https://www.gutenberg.org/ebooks/68810.html.images","application/epub+zip":"https://www.gutenberg.org/ebooks/68810.epub3.images","application/x-mobipocket-ebook":"https://www.gutenberg.org/ebooks/68810.kf8.images","text/plain; charset=us-ascii":"https://www.gutenberg.org/ebooks/68810.txt.utf-8","application/rdf+xml":"https://www.gutenberg.org/ebooks/68810.rdf","image/jpeg":"https://www.gutenberg.org/cache/epub/68810/pg68810.cover.medium.jpg","application/octet-stream":"https://www.gutenberg.org/files/68810/68810-0.zip"},"download_count":34},{"id":69009,"title":"Definition","authors":[{"name":"Knight, Damon","birth_year":1922,"death_year":2002}],"translators":[],"subjects":["Human-alien encounters -- Fiction","Proselytizing -- Fiction","Science fiction","Short stories","Space travelers -- Fiction","Spouses -- Fiction"],"bookshelves":[],"languages":["en"],"copyright":false,"media_type":"Text","formats":{"text/html":"https://www.gutenberg.org/ebooks/69009.html.images","application/epub+zip":"https://www.gutenberg.org/ebooks/69009.epub3.images","application/x-mobipocket-ebook":"https://www.gutenberg.org/ebooks/69009.kf8.images","text/plain; charset=us-ascii":"https://www.gutenberg.org/ebooks/69009.txt.utf-8","application/rdf+xml":"https://www.gutenberg.org/ebooks/69009.rdf","image/jpeg":"https://www.gutenberg.org/cache/epub/69009/pg69009.cover.medium.jpg","application/octet-stream":"https://www.gutenberg.org/files/69009/69009-0.zip"},"download_count":34},{"id":69117,"title":"The jumping kangaroo and the apple butter cat","authors":[{"name":"Harrington, John Walker","birth_year":1868,"death_year":1952}],"translators":[],"subjects":["Animals -- Juvenile fiction","Children's stories"],"bookshelves":[],"languages":["en"],"copyright":false,"media_type":"Text","formats":{"text/html":"https://www.gutenberg.org/ebooks/69117.html.images","application/epub+zip":"https://www.gutenberg.org/ebooks/69117.epub3.images","application/x-mobipocket-ebook":"https://www.gutenberg.org/ebooks/69117.kf8.images","text/plain; charset=us-ascii":"https://www.gutenberg.org/ebooks/69117.txt.utf-8","application/rdf+xml":"https://www.gutenberg.org/ebooks/69117.rdf","image/jpeg":"https://www.gutenberg.org/cache/epub/69117/pg69117.cover.medium.jpg","application/octet-stream":"https://www.gutenberg.org/files/69117/69117-0.zip"},"download_count":34},{"id":69119,"title":"An outlaw's pledge; or, The raid on the old stockade","authors":[{"name":"Dair, Spencer","birth_year":null,"death_year":null}],"translators":[],"subjects":["Adventure stories","Badlands (S.D. and Neb.) -- Fiction","Dime novels -- Periodicals","Outlaws -- Fiction","Western stories"],"bookshelves":[],"languages":["en"],"copyright":false,"media_type":"Text","formats":{"text/html":"https://www.gutenberg.org/ebooks/69119.html.images","application/epub+zip":"https://www.gutenberg.org/ebooks/69119.epub3.images","application/x-mobipocket-ebook":"https://www.gutenberg.org/ebooks/69119.kf8.images","text/plain; charset=us-ascii":"https://www.gutenberg.org/ebooks/69119.txt.utf-8","application/rdf+xml":"https://www.gutenberg.org/ebooks/69119.rdf","image/jpeg":"https://www.gutenberg.org/cache/epub/69119/pg69119.cover.medium.jpg","application/octet-stream":"https://www.gutenberg.org/files/69119/69119-0.zip"},"download_count":34},{"id":69131,"title":"The Northmen in Britain","authors":[{"name":"Hull, Eleanor","birth_year":1860,"death_year":1935}],"translators":[],"subjects":["Great Britain -- Civilization -- Scandinavian influences","Great Britain -- History -- To 1066","Northmen -- Great Britain"],"bookshelves":[],"languages":["en"],"copyright":false,"media_type":"Text","formats":{"text/html":"https://www.gutenberg.org/ebooks/69131.html.images","application/epub+zip":"https://www.gutenberg.org/ebooks/69131.epub3.images","application/x-mobipocket-ebook":"https://www.gutenberg.org/ebooks/69131.kf8.images","text/plain; charset=us-ascii":"https://www.gutenberg.org/ebooks/69131.txt.utf-8","application/rdf+xml":"https://www.gutenberg.org/ebooks/69131.rdf","image/jpeg":"https://www.gutenberg.org/cache/epub/69131/pg69131.cover.medium.jpg","application/octet-stream":"https://www.gutenberg.org/files/69131/69131-0.zip"},"download_count":34},{"id":69312,"title":"The Naiad: A ghost story","authors":[{"name":"Sand, George","birth_year":1804,"death_year":1876}],"translators":[{"name":"Zérèga, Katherine Berry di","birth_year":null,"death_year":null}],"subjects":["French fiction -- Translations into English"],"bookshelves":[],"languages":["en"],"copyright":false,"media_type":"Text","formats":{"text/html":"https://www.gutenberg.org/ebooks/69312.html.images","application/epub+zip":"https://www.gutenberg.org/ebooks/69312.epub3.images","application/x-mobipocket-ebook":"https://www.gutenberg.org/ebooks/69312.kf8.images","text/plain; charset=us-ascii":"https://www.gutenberg.org/ebooks/69312.txt.utf-8","application/rdf+xml":"https://www.gutenberg.org/ebooks/69312.rdf","image/jpeg":"https://www.gutenberg.org/cache/epub/69312/pg69312.cover.medium.jpg","application/octet-stream":"https://www.gutenberg.org/files/69312/69312-0.zip"},"download_count":34},{"id":69332,"title":"Les beaux messieurs de Bois-Doré Vol. 2 (of 2)","authors":[{"name":"Sand, George","birth_year":1804,"death_year":1876}],"translators":[{"name":"Ives, George Burnham","birth_year":1856,"death_year":1930}],"subjects":["France -- History -- Louis XIII, 1610-1643 -- Fiction"],"bookshelves":[],"languages":["en"],"copyright":false,"media_type":"Text","formats":{"text/html":"https://www.gutenberg.org/ebooks/69332.html.images","application/epub+zip":"https://www.gutenberg.org/ebooks/69332.epub3.images","application/x-mobipocket-ebook":"https://www.gutenberg.org/ebooks/69332.kf8.images","text/plain; charset=us-ascii":"https://www.gutenberg.org/ebooks/69332.txt.utf-8","application/rdf+xml":"https://www.gutenberg.org/ebooks/69332.rdf","image/jpeg":"https://www.gutenberg.org/cache/epub/69332/pg69332.cover.medium.jpg","application/octet-stream":"https://www.gutenberg.org/files/69332/69332-0.zip"},"download_count":34},{"id":69356,"title":"The X Bar X boys on the ranch","authors":[{"name":"Ferris, James Cody","birth_year":null,"death_year":null}],"translators":[],"subjects":["Cattle stealing -- Juvenile fiction","Cowboys -- Juvenile fiction","Ranch life -- Juvenile fiction","Western stories"],"bookshelves":[],"languages":["en"],"copyright":false,"media_type":"Text","formats":{"text/html":"https://www.gutenberg.org/ebooks/69356.html.images","application/epub+zip":"https://www.gutenberg.org/ebooks/69356.epub3.images","application/x-mobipocket-ebook":"https://www.gutenberg.org/ebooks/69356.kf8.images","text/plain; charset=us-ascii":"https://www.gutenberg.org/ebooks/69356.txt.utf-8","application/rdf+xml":"https://www.gutenberg.org/ebooks/69356.rdf","image/jpeg":"https://www.gutenberg.org/cache/epub/69356/pg69356.cover.medium.jpg","application/octet-stream":"https://www.gutenberg.org/files/69356/69356-0.zip"},"download_count":34},{"id":69358,"title":"Siren satellite","authors":[{"name":"Barnes, Arthur K.","birth_year":1909,"death_year":1969}],"translators":[],"subjects":["Man-woman relationships -- Fiction","Mutiny -- Fiction","Science fiction","Space ships -- Fiction","Triton (Satellite) -- Fiction"],"bookshelves":[],"languages":["en"],"copyright":false,"media_type":"Text","formats":{"text/html":"https://www.gutenberg.org/ebooks/69358.html.images","application/epub+zip":"https://www.gutenberg.org/ebooks/69358.epub3.images","application/x-mobipocket-ebook":"https://www.gutenberg.org/ebooks/69358.kf8.images","text/plain; charset=us-ascii":"https://www.gutenberg.org/ebooks/69358.txt.utf-8","application/rdf+xml":"https://www.gutenberg.org/ebooks/69358.rdf","image/jpeg":"https://www.gutenberg.org/cache/epub/69358/pg69358.cover.medium.jpg","application/octet-stream":"https://www.gutenberg.org/files/69358/69358-0.zip"},"download_count":34},{"id":69516,"title":"Piety","authors":[{"name":"St. Clair, Margaret","birth_year":1911,"death_year":1995}],"translators":[],"subjects":["Immortality -- Fiction","Science fiction","Short stories"],"bookshelves":[],"languages":["en"],"copyright":false,"media_type":"Text","formats":{"text/html":"https://www.gutenberg.org/ebooks/69516.html.images","application/epub+zip":"https://www.gutenberg.org/ebooks/69516.epub3.images","application/x-mobipocket-ebook":"https://www.gutenberg.org/ebooks/69516.kf8.images","text/plain; charset=us-ascii":"https://www.gutenberg.org/ebooks/69516.txt.utf-8","application/rdf+xml":"https://www.gutenberg.org/ebooks/69516.rdf","image/jpeg":"https://www.gutenberg.org/cache/epub/69516/pg69516.cover.medium.jpg","application/octet-stream":"https://www.gutenberg.org/files/69516/69516-0.zip"},"download_count":34}]}