{"count":58808,"next":"http://129.241.150.113:8000/books/?languages=en&page=1825","previous":"http://129.241.150.113:8000/books/?languages=en&page=1823","results":[{"id":54911,"title":"An Account of the Sore Throat Attended With Ulcers: A Disease Which Hath of Late Years Appeared in This City, and in Several Parts of the Nation","authors":[{"name":"Fothergill, John","birth_year":1712,"death_year":1780}],"translators":[],"subjects":["Diphtheria"],"bookshelves":[],"languages":["en"],"copyright":false,"media_type":"Text","formats":{"text/html":"https://www.gutenberg.org/ebooks/54911.html.images","text/html; charset=utf-8":"https://www.gutenberg.org/files/54911/54911-h/54911-h.htm","application/epub+zip":"https://www.gutenberg.org/ebooks/54911.epub3.images","application/x-mobipocket-ebook":"https://www.gutenberg.org/ebooks/54911.kf8.images","text/plain; charset=us-ascii":"https://www.gutenberg.org/ebooks/54911.txt.utf-8","text/plain; charset=utf-8":"https://www.gutenberg.org/files/54911/54911-0.txt","application/rdf+xml":"https://www.gutenberg.org/ebooks/54911.rdf","image/jpeg":"https://www.gutenberg.org/cache/epub/54911/pg54911.cover.medium.jpg","application/octet-stream":"https://www.gutenberg.org/cache/epub/54911/pg54911-h.zip"},"download_count":9},{"id":55603,"title":"The Irish Penny Journal, Vol. 1 No. 51, June 19, 1841","authors":[{"name":"Various","birth_year":null,"death_year":null}],"translators":[],"subjects":["Ireland -- Periodicals"],"bookshelves":[],"languages":["en"],"copyright":false,"media_type":"Text","formats":{"text/html":"https://www.gutenberg.org/ebooks/55603.html.images","text/html; charset=utf-8":"https://www.gutenberg.org/files/55603/55603-h/55603-h.htm","application/epub+zip":"https://www.gutenberg.org/ebooks/55603.epub3.images","application/x-mobipocket-ebook":"https://www.gutenberg.org/ebooks/55603.kf8.images","text/plain; charset=us-ascii":"https://www.gutenberg.org/ebooks/55603.txt.utf-8","text/plain; charset=utf-8":"https://www.gutenberg.org/files/55603/55603-0.txt","application/rdf+xml":"https://www.gutenberg.org/ebooks/55603.rdf","image/jpeg":"https://www.gutenberg.org/cache/epub/55603/pg55603.cover.medium.jpg","application/octet-stream":"https://www.gutenberg.org/cache/epub/55603/pg55603-h.zip"},"download_count":9},{"id":55717,"title":"In the Days of Queen Mary","authors":[{"name":"Crake, E. E. (Edward Ebenezer)","birth_year":null,"death_year":null}],"translators":[],"subjects":["Mary I, Queen of England, 1516-1558 -- Fiction"],"bookshelves":[],"languages":["en"],"copyright":false,"media_type":"Text","formats":{"text/html":"https://www.gutenberg.org/ebooks/55717.html.images","text/html; charset=utf-8":"https://www.gutenberg.org/files/55717/55717-h/55717-h.htm","application/epub+zip":"https://www.gutenberg.org/ebooks/55717.epub3.images","application/x-mobipocket-ebook":"https://www.gutenberg.org/ebooks/55717.kf8.images","text/plain; charset=us-ascii":"https://www.gutenberg.org/ebooks/55717.txt.utf-8","text/plain; charset=utf-8":"https://www.gutenberg.org/files/55717/55717-0.txt","application/rdf+xml":"https://www.gutenberg.org/ebooks/55717.rdf","image/jpeg":"https://www.gutenberg.org/cache/epub/55717/pg55717.cover.medium.jpg","application/octet-stream":"https://www.gutenberg.org/cache/epub/55717/pg55717-h.zip"},"download_count":9},{"id":55955,"title":"Ports of Entry: Missionary Herald","authors":[{"name":"Council of Women for Home Missions","birth_year":null,"death_year":null},{"name":"Home Missions Council (U.S.)","birth_year":null,"death_year":null}],"translators":[],"subjects":["City missions -- New York (State) -- New York","Home missions -- New York (State) -- New York","Missions -- Ellis Island (N.J. and N.Y.)","Women in missionary work -- New York (State) -- New York"],"bookshelves":[],"languages":["en"],"copyright":false,"media_type":"Text","formats":{"text/html":"https://www.gutenberg.org/ebooks/55955.html.images","text/html; charset=utf-8":"https://www.gutenberg.org/files/55955/55955-h/55955-h.htm","application/epub+zip":"https://www.gutenberg.org/ebooks/55955.epub3.images","application/x-mobipocket-ebook":"https://www.gutenberg.org/ebooks/55955.kf8.images","text/plain; charset=us-ascii":"https://www.gutenberg.org/ebooks/55955.txt.utf-8","text/plain; charset=utf-8":"https://www.gutenberg.org/files/55955/55955-0.txt","application/rdf+xml":"https://www.gutenberg.org/ebooks/55955.rdf","image/jpeg":"https://www.gutenberg.org/cache/epub/55955/pg55955.cover.medium.jpg","application/octet-stream":"https://www.gutenberg.org/cache/epub/55955/pg55955-h.zip"},"download_count":9},{"id":57397,"title":"Sermons by the late Rev. Richard de Courcy","authors":[{"name":"De Courcy, Richard","birth_year":1743,"death_year":1803}],"translators":[],"subjects":["Church of England -- Sermons","Sermons, English -- 18th century"],"bookshelves":[],"languages":["en"],"copyright":false,"media_type":"Text","formats":{"text/html":"https://www.gutenberg.org/ebooks/57397.html.images","application/epub+zip":"https://www.gutenberg.org/ebooks/57397.epub3.images","application/x-mobipocket-ebook":"https://www.gutenberg.org/ebooks/57397.kf8.images","text/plain; charset=us-ascii":"https://www.gutenberg.org/ebooks/57397.txt.utf-8","text/plain; charset=utf-8":"https://www.gutenberg.org/files/57397/57397-0.txt","application/rdf+xml":"https://www.gutenberg.org/ebooks/57397.rdf","image/jpeg":"https://www.gutenberg.org/cache/epub/57397/pg57397.cover.medium.jpg","application/octet-stream":"https://www.gutenberg.org/cache/epub/57397/pg57397-h.zip"},"download_count":9},{"id":58011,"title":"The Living Letter, Written with the Pen of Truth: Being the Substance of a Sermon, Preached at the Obelisk Chapel, St. George's Fields, on Sunday Morning, Sept. 26, 1813.","authors":[{"name":"Church, J. (John)","birth_year":null,"death_year":null}],"translators":[],"subjects":["Sermons, English -- 19th century"],"bookshelves":[],"languages":["en"],"copyright":false,"media_type":"Text","formats":{"text/html":"https://www.gutenberg.org/ebooks/58011.html.images","application/epub+zip":"https://www.gutenberg.org/ebooks/58011.epub3.images","application/x-mobipocket-ebook":"https://www.gutenberg.org/ebooks/58011.kf8.images","text/plain; charset=us-ascii":"https://www.gutenberg.org/ebooks/58011.txt.utf-8","text/plain; charset=utf-8":"https://www.gutenberg.org/files/58011/58011-0.txt","application/rdf+xml":"https://www.gutenberg.org/ebooks/58011.rdf","image/jpeg":"https://www.gutenberg.org/cache/epub/58011/pg58011.cover.medium.jpg","application/octet-stream":"https://www.gutenberg.org/cache/epub/58011/pg58011-h.zip"},"download_count":9},{"id":62206,"title":"A few lines against the opening of the Crystal Palace on the Sabbath day","authors":[{"name":"Wrench, John Elwin","birth_year":null,"death_year":null}],"translators":[],"subjects":["Crystal Palace (Sydenham, London, England) -- Poetry","Sabbath -- Poetry"],"bookshelves":[],"languages":["en"],"copyright":false,"media_type":"Text","formats":{"text/html":"https://www.gutenberg.org/ebooks/62206.html.images","application/epub+zip":"https://www.gutenberg.org/ebooks/62206.epub3.images","application/x-mobipocket-ebook":"https://www.gutenberg.org/ebooks/62206.kf8.images","text/plain; charset=us-ascii":"https://www.gutenberg.org/ebooks/62206.txt.utf-8","text/plain; charset=utf-8":"https://www.gutenberg.org/files/62206/62206-0.txt","application/rdf+xml":"https://www.gutenberg.org/ebooks/62206.rdf","image/jpeg":"https://www.gutenberg.org/cache/epub/62206/pg62206.cover.medium.jpg","application/octet-stream":"https://www.gutenberg.org/cache/epub/62206/pg62206-h.zip"},"download_count":9},{"id":64407,"title":"Dick Merriwell's Aëro Dash; Or, Winning Above the Clouds","authors":[{"name":"Standish, Burt L.","birth_year":1866,"death_year":1945}],"translators":[],"subjects":["Adventure stories","Dime novels","Merriwell, Dick (Fictitious character) -- Juvenile fiction"],"bookshelves":[],"languages":["en"],"copyright":false,"media_type":"Text","formats":{"text/html":"https://www.gutenberg.org/ebooks/64407.html.images","text/html; charset=utf-8":"https://www.gutenberg.org/files/64407/64407-h/64407-h.htm","application/epub+zip":"https://www.gutenberg.org/ebooks/64407.epub3.images","application/x-mobipocket-ebook":"https://www.gutenberg.org/ebooks/64407.kf8.images","text/plain; charset=us-ascii":"https://www.gutenberg.org/ebooks/64407.txt.utf-8","text/plain; charset=utf-8":"https://www.gutenberg.org/files/64407/64407-0.txt","application/rdf+xml":"https://www.gutenberg.org/ebooks/64407.rdf","image/jpeg":"https://www.gutenberg.org/cache/epub/64407/pg64407.cover.medium.jpg","application/octet-stream":"https://www.gutenberg.org/cache/epub/64407/pg64407-h.zip"},"download_count":9},{"id":65406,"title":"The Girl's Own Paper, Vol. VIII, No. 364, December 18, 1886","authors":[{"name":"Various","birth_year":null,"death_year":null}],"translators":[],"subjects":["Children's literature -- Periodicals"],"bookshelves":[],"languages":["en"],"copyright":false,"media_type":"Text","formats":{"text/html":"https://www.gutenberg.org/ebooks/65406.html.images","text/html; charset=utf-8":"https://www.gutenberg.org/files/65406/65406-h/65406-h.htm","application/epub+zip":"https://www.gutenberg.org/ebooks/65406.epub3.images","application/x-mobipocket-ebook":"https://www.gutenberg.org/ebooks/65406.kf8.images","text/plain; charset=us-ascii":"https://www.gutenberg.org/ebooks/65406.txt.utf-8","text/plain; charset=utf-8":"https://www.gutenberg.org/files/65406/65406-0.txt","application/rdf+xml":"https://www.gutenberg.org/ebooks/65406.rdf","image/jpeg":"https://www.gutenberg.org/cache/epub/65406/pg65406.cover.medium.jpg","application/octet-stream":"https://www.gutenberg.org/cache/epub/65406/pg65406-h.zip"},"download_count":9},{"id":65601,"title":"The Trail of Black Hawk","authors":[{"name":"Tomlinson, Paul G. (Paul Greene)","birth_year":1888,"death_year":null}],"translators":[],"subjects":["Biographical fiction","Black Hawk War, 1832 -- Juvenile fiction","Black Hawk, Sauk chief, 1767-1838 -- Juvenile fiction","Sauk Indians -- Juvenile fiction","War stories"],"bookshelves":[],"languages":["en"],"copyright":false,"media_type":"Text","formats":{"text/html":"https://www.gutenberg.org/ebooks/65601.html.images","text/html; charset=utf-8":"https://www.gutenberg.org/files/65601/65601-h/65601-h.htm","application/epub+zip":"https://www.gutenberg.org/ebooks/65601.epub3.images","application/x-mobipocket-ebook":"https://www.gutenberg.org/ebooks/65601.kf8.images","text/plain; charset=us-ascii":"https://www.gutenberg.org/ebooks/65601.txt.utf-8","text/plain; charset=utf-8":"https://www.gutenberg.org/files/65601/65601-0.txt","application/rdf+xml":"https://www.gutenberg.org/ebooks/65601.rdf","image/jpeg":"https://www.gutenberg.org/cache/epub/65601/pg65601.cover.medium.jpg","application/octet-stream":"https://www.gutenberg.org/cache/epub/65601/pg65601-h.zip"},"download_count":9},{"id":66828,"title":"The Pilgrims' First Christmas","authors":[{"name":"Scribner, Josephine Pittman","birth_year":null,"death_year":null}],"translators":[],"subjects":["Christmas stories","Historical fiction","Pilgrims (New Plymouth Colony) -- Fiction"],"bookshelves":[],"languages":["en"],"copyright":false,"media_type":"Text","formats":{"text/html":"https://www.gutenberg.org/ebooks/66828.html.images","application/epub+zip":"https://www.gutenberg.org/ebooks/66828.epub3.images","application/x-mobipocket-ebook":"https://www.gutenberg.org/ebooks/66828.kf8.images","text/plain; charset=us-ascii":"https://www.gutenberg.org/ebooks/66828.txt.utf-8","application/rdf+xml":"https://www.gutenberg.org/ebooks/66828.rdf","image/jpeg":"https://www.gutenberg.org/cache/epub/66828/pg66828.cover.medium.jpg","application/octet-stream":"https://www.gutenberg.org/files/66828/66828-0.zip"},"download_count":9},{"id":66876,"title":"In Naaman's House","authors":[{"name":"Finney, Marian MacLean","birth_year":null,"death_year":null}],"translators":[],"subjects":["Bible stories, English -- Old Testament","Elisha (Biblical prophet) -- Fiction","Naaman, the Syrian -- Fiction"],"bookshelves":[],"languages":["en"],"copyright":false,"media_type":"Text","formats":{"text/html":"https://www.gutenberg.org/ebooks/66876.html.images","application/epub+zip":"https://www.gutenberg.org/ebooks/66876.epub3.images","application/x-mobipocket-ebook":"https://www.gutenberg.org/ebooks/66876.kf8.images","text/plain; charset=us-ascii":"https://www.gutenberg.org/ebooks/66876.txt.utf-8","application/rdf+xml":"https://www.gutenberg.org/ebooks/66876.rdf","image/jpeg":"https://www.gutenberg.org/cache/epub/66876/pg66876.cover.medium.jpg","application/octet-stream":"https://www.gutenberg.org/files/66876/66876-0.zip"},"download_count":9},{"id":66926,"title":"Hoppy Toad Tales","authors":[{"name":"Hennessey, William A.","birth_year":null,"death_year":null}],"translators":[],"subjects":["Animals -- Juvenile fiction","Toads -- Juvenile fiction"],"bookshelves":[],"languages":["en"],"copyright":false,"media_type":"Text","formats":{"text/html":"https://www.gutenberg.org/ebooks/66926.html.images","application/epub+zip":"https://www.gutenberg.org/ebooks/66926.epub3.images","application/x-mobipocket-ebook":"https://www.gutenberg.org/ebooks/66926.kf8.images","text/plain; charset=us-ascii":"https://www.gutenberg.org/ebooks/66926.txt.utf-8","application/rdf+xml":"https://www.gutenberg.org/ebooks/66926.rdf","image/jpeg":"https://www.gutenberg.org/cache/epub/66926/pg66926.cover.medium.jpg","application/octet-stream":"https://www.gutenberg.org/files/66926/66926-0.zip"},"download_count":9},{"id":67051,"title":"Carson of Red River","authors":[{"name":"Bindloss, Harold","birth_year":1866,"death_year":1945}],"translators":[],"subjects":["Northwest, Canadian -- Fiction","Red River Settlement -- Fiction","Young men -- Fiction"],"bookshelves":[],"languages":["en"],"copyright":false,"media_type":"Text","formats":{"text/html":"https://www.gutenberg.org/ebooks/67051.html.images","application/epub+zip":"https://www.gutenberg.org/ebooks/67051.epub3.images","application/x-mobipocket-ebook":"https://www.gutenberg.org/ebooks/67051.kf8.images","text/plain; charset=us-ascii":"https://www.gutenberg.org/ebooks/67051.txt.utf-8","application/rdf+xml":"https://www.gutenberg.org/ebooks/67051.rdf","image/jpeg":"https://www.gutenberg.org/cache/epub/67051/pg67051.cover.medium.jpg","application/octet-stream":"https://www.gutenberg.org/files/67051/67051-0.zip"},"download_count":9},{"id":67395,"title":"Lincoln, the American","authors":[{"name":"Lowden, Frank O. (Frank Orren)","birth_year":1861,"death_year":1943}],"translators":[],"subjects":["Lincoln, Abraham, 1809-1865"],"bookshelves":[],"languages":["en"],"copyright":false,"media_type":"Text","formats":{"text/html":"https://www.gutenberg.org/ebooks/67395.html.images","application/epub+zip":"https://www.gutenberg.org/ebooks/67395.epub3.images","application/x-mobipocket-ebook":"https://www.gutenberg.org/ebooks/67395.kf8.images","text/plain; charset=us-ascii":"https://www.gutenberg.org/ebooks/67395.txt.utf-8","application/rdf+xml":"https://www.gutenberg.org/ebooks/67395.rdf","image/jpeg":"https://www.gutenberg.org/cache/epub/67395/pg67395.cover.medium.jpg","application/octet-stream":"https://www.gutenberg.org/files/67395/67395-0.zip"},"download_count":9},{"id":67500,"title":"A Copper Harvest; or, The Boys who Worked a Deserted Mine","authors":[{"name":"Self-made man","birth_year":1853,"death_year":1915}],"translators":[],"subjects":["Copper mines and mining -- Fiction","Dime novels"],"bookshelves":[],"languages":["en"],"copyright":false,"media_type":"Text","formats":{"text/html":"https://www.gutenberg.org/ebooks/67500.html.images","application/epub+zip":"https://www.gutenberg.org/ebooks/67500.epub3.images","application/x-mobipocket-ebook":"https://www.gutenberg.org/ebooks/67500.kf8.images","text/plain; charset=us-ascii":"https://www.gutenberg.org/ebooks/67500.txt.utf-8","application/rdf+xml":"https://www.gutenberg.org/ebooks/67500.rdf","image/jpeg":"https://www.gutenberg.org/cache/epub/67500/pg67500.cover.medium.jpg","application/octet-stream":"https://www.gutenberg.org/files/67500/67500-0.zip"},"download_count":9},{"id":67642,"title":"The Cruise of the Gyro-Car","authors":[{"name":"Strang, Herbert","birth_year":null,"death_year":null}],"translators":[],"subjects":["Europe -- Juvenile fiction","Inventions -- Juvenile fiction","Motor vehicles, Amphibious -- Juvenile fiction","Voyages and travels -- Juvenile fiction"],"bookshelves":[],"languages":["en"],"copyright":false,"media_type":"Text","formats":{"text/html":"https://www.gutenberg.org/ebooks/67642.html.images","application/epub+zip":"https://www.gutenberg.org/ebooks/67642.epub3.images","application/x-mobipocket-ebook":"https://www.gutenberg.org/ebooks/67642.kf8.images","text/plain; charset=us-ascii":"https://www.gutenberg.org/ebooks/67642.txt.utf-8","application/rdf+xml":"https://www.gutenberg.org/ebooks/67642.rdf","image/jpeg":"https://www.gutenberg.org/cache/epub/67642/pg67642.cover.medium.jpg","application/octet-stream":"https://www.gutenberg.org/files/67642/67642-0.zip"},"download_count":9},{"id":68162,"title":"The bushwhackers & other stories","authors":[{"name":"Craddock, Charles Egbert","birth_year":1850,"death_year":1922}],"translators":[],"subjects":["Mountain life -- Fiction","Tennessee -- Social life and customs -- Fiction"],"bookshelves":[],"languages":["en"],"copyright":false,"media_type":"Text","formats":{"text/html":"https://www.gutenberg.org/ebooks/68162.html.images","application/epub+zip":"https://www.gutenberg.org/ebooks/68162.epub3.images","application/x-mobipocket-ebook":"https://www.gutenberg.org/ebooks/68162.kf8.images","text/plain; charset=us-ascii":"https://www.gutenberg.org/ebooks/68162.txt.utf-8","application/rdf+xml":"https://www.gutenberg.org/ebooks/68162.rdf","image/jpeg":"https://www.gutenberg.org/cache/epub/68162/pg68162.cover.medium.jpg","application/octet-stream":"https://www.gutenberg.org/files/68162/68162-0.zip"},"download_count":9},{"id":68521,"title":"Through the mill: The life of a mill-boy","authors":[{"name":"Brown, Frederic Kenyon","birth_year":1882,"death_year":null}],"translators":[],"subjects":["Child labor -- United States","Cotton manufacture -- United States","Textile workers -- United States"],"bookshelves":[],"languages":["en"],"copyright":false,"media_type":"Text","formats":{"text/html":"https://www.gutenberg.org/ebooks/68521.html.images","application/epub+zip":"https://www.gutenberg.org/ebooks/68521.epub3.images","application/x-mobipocket-ebook":"https://www.gutenberg.org/ebooks/68521.kf8.images","text/plain; charset=us-ascii":"https://www.gutenberg.org/ebooks/68521.txt.utf-8","application/rdf+xml":"https://www.gutenberg.org/ebooks/68521.rdf","image/jpeg":"https://www.gutenberg.org/cache/epub/68521/pg68521.cover.medium.jpg","application/octet-stream":"https://www.gutenberg.org/files/68521/68521-0.zip"},"download_count":9},{"id":68653,"title":"The Southern Literary Messenger, Vol. II., No. 4, March, 1836","authors":[{"name":"Various","birth_year":null,"death_year":null}],"translators":[],"subjects":["American literature -- 19th century -- Periodicals"],"bookshelves":[],"languages":["en"],"copyright":false,"media_type":"Text","formats":{"text/html":"https://www.gutenberg.org/ebooks/68653.html.images","application/epub+zip":"https://www.gutenberg.org/ebooks/68653.epub3.images","application/x-mobipocket-ebook":"https://www.gutenberg.org/ebooks/68653.kf8.images","text/plain; charset=us-ascii":"https://www.gutenberg.org/ebooks/68653.txt.utf-8","application/rdf+xml":"https://www.gutenberg.org/ebooks/68653.rdf","image/jpeg":"https://www.gutenberg.org/cache/epub/68653/pg68653.cover.medium.jpg","application/octet-stream":"https://www.gutenberg.org/files/68653/68653-0.zip"},"download_count":9},{"id":68824,"title":"Lewesdon Hill, with other poems","authors":[{"name":"Crowe, William","birth_year":1745,"death_year":1829}],"translators":[],"subjects":["English poetry -- 19th century","Landscapes -- England -- Dorset -- Poetry"],"bookshelves":[],"languages":["en"],"copyright":false,"media_type":"Text","formats":{"text/html":"https://www.gutenberg.org/ebooks/68824.html.images","application/epub+zip":"https://www.gutenberg.org/ebooks/68824.epub3.images","application/x-mobipocket-ebook":"https://www.gutenberg.org/ebooks/68824.kf8.images","text/plain; charset=us-ascii":"https://www.gutenberg.org/ebooks/68824.txt.utf-8","application/rdf+xml":"https://www.gutenberg.org/ebooks/68824.rdf","image/jpeg":"https://www.gutenberg.org/cache/epub/68824/pg68824.cover.medium.jpg","application/octet-stream":"https://www.gutenberg.org/files/68824/68824-0.zip"},"download_count":9},{"id":69135,"title":"Flying Plover: His stories, told him by Squat-by-the-fire","authors":[{"name":"Roberts, Theodore Goodridge","birth_year":1877,"death_year":1953}],"translators":[],"subjects":["Animals -- Juvenile fiction","Indians of North America -- Juvenile fiction","Labrador (N.L.) -- Juvenile fiction"],"bookshelves":[],"languages":["en"],"copyright":false,"media_type":"Text","formats":{"text/html":"https://www.gutenberg.org/ebooks/69135.html.images","application/epub+zip":"https://www.gutenberg.org/ebooks/69135.epub3.images","application/x-mobipocket-ebook":"https://www.gutenberg.org/ebooks/69135.kf8.images","text/plain; charset=us-ascii":"https://www.gutenberg.org/ebooks/69135.txt.utf-8","application/rdf+xml":"https://www.gutenberg.org/ebooks/69135.rdf","image/jpeg":"https://www.gutenberg.org/cache/epub/69135/pg69135.cover.medium.jpg","application/octet-stream":"https://www.gutenberg.org/files/69135/69135-0.zip"},"download_count":9},{"id":69379,"title":"Prince Ragnal, and other holiday verses","authors":[{"name":"Donnelly, Eleanor C. (Eleanor Cecilia)","birth_year":1838,"death_year":1917}],"translators":[],"subjects":["Christmas poetry"],"bookshelves":[],"languages":["en"],"copyright":false,"media_type":"Text","formats":{"text/html":"https://www.gutenberg.org/ebooks/69379.html.images","application/epub+zip":"https://www.gutenberg.org/ebooks/69379.epub3.images","application/x-mobipocket-ebook":"https://www.gutenberg.org/ebooks/69379.kf8.images","text/plain; charset=us-ascii":"https://www.gutenberg.org/ebooks/69379.txt.utf-8","application/rdf+xml":"https://www.gutenberg.org/ebooks/69379.rdf","image/jpeg":"https://www.gutenberg.org/cache/epub/69379/pg69379.cover.medium.jpg","application/octet-stream":"https://www.gutenberg.org/files/69379/69379-0.zip"},"download_count":9},{"id":69461,"title":"Rondah; or, thirty-three years in a star","authors":[{"name":"Dieudonné, Florence Carpenter","birth_year":1850,"death_year":1927}],"translators":[],"subjects":["Life on other planets -- Fiction","Outer space -- Exploration -- Fiction","Science fiction"],"bookshelves":[],"languages":["en"],"copyright":false,"media_type":"Text","formats":{"text/html":"https://www.gutenberg.org/ebooks/69461.html.images","application/epub+zip":"https://www.gutenberg.org/ebooks/69461.epub3.images","application/x-mobipocket-ebook":"https://www.gutenberg.org/ebooks/69461.kf8.images","text/plain; charset=us-ascii":"https://www.gutenberg.org/ebooks/69461.txt.utf-8","application/rdf+xml":"https://www.gutenberg.org/ebooks/69461.rdf","image/jpeg":"https://www.gutenberg.org/cache/epub/69461/pg69461.cover.medium.jpg","application/octet-stream":"https://www.gutenberg.org/files/69461/69461-0.zip"},"download_count":9},{"id":70131,"title":"How he won her: $b A sequel to \"Fair play.\"","authors":[{"name":"Southworth, Emma Dorothy Eliza Nevitte","birth_year":1819,"death_year":1899}],"translators":[],"subjects":["American fiction -- 19th century"],"bookshelves":[],"languages":["en"],"copyright":false,"media_type":"Text","formats":{"text/html":"https://www.gutenberg.org/ebooks/70131.html.images","application/epub+zip":"https://www.gutenberg.org/ebooks/70131.epub3.images","application/x-mobipocket-ebook":"https://www.gutenberg.org/ebooks/70131.kf8.images","text/plain; charset=us-ascii":"https://www.gutenberg.org/ebooks/70131.txt.utf-8","application/rdf+xml":"https://www.gutenberg.org/ebooks/70131.rdf","image/jpeg":"https://www.gutenberg.org/cache/epub/70131/pg70131.cover.medium.jpg","application/octet-stream":"https://www.gutenberg.org/files/70131/70131-0.zip"},"download_count":9},{"id":70170,"title":"Three years in field hospitals of the Army of the Potomac","authors":[{"name":"Holstein, Anna M. (Anna Morris)","birth_year":1824,"death_year":1900}],"translators":[],"subjects":["Nurses","United States -- History -- Civil War, 1861-1865 -- Hospitals","United States -- History -- Civil War, 1861-1865 -- Prisoners and prisons","United States -- History -- Civil War, 1861-1865 -- Regimental histories -- Army of the Potomac"],"bookshelves":[],"languages":["en"],"copyright":false,"media_type":"Text","formats":{"text/html":"https://www.gutenberg.org/ebooks/70170.html.images","application/epub+zip":"https://www.gutenberg.org/ebooks/70170.epub3.images","application/x-mobipocket-ebook":"https://www.gutenberg.org/ebooks/70170.kf8.images","text/plain; charset=us-ascii":"https://www.gutenberg.org/ebooks/70170.txt.utf-8","application/rdf+xml":"https://www.gutenberg.org/ebooks/70170.rdf","image/jpeg":"https://www.gutenberg.org/cache/epub/70170/pg70170.cover.medium.jpg","application/octet-stream":"https://www.gutenberg.org/files/70170/70170-0.zip"},"download_count":9},{"id":70234,"title":"Hugh Worthington : $b A novel","authors":[{"name":"Holmes, Mary Jane","birth_year":1825,"death_year":1907}],"translators":[],"subjects":["American fiction -- 19th century"],"bookshelves":[],"languages":["en"],"copyright":false,"media_type":"Text","formats":{"text/html":"https://www.gutenberg.org/ebooks/70234.html.images","application/epub+zip":"https://www.gutenberg.org/ebooks/70234.epub3.images","application/x-mobipocket-ebook":"https://www.gutenberg.org/ebooks/70234.kf8.images","text/plain; charset=us-ascii":"https://www.gutenberg.org/ebooks/70234.txt.utf-8","application/rdf+xml":"https://www.gutenberg.org/ebooks/70234.rdf","image/jpeg":"https://www.gutenberg.org/cache/epub/70234/pg70234.cover.medium.jpg","application/octet-stream":"https://www.gutenberg.org/files/70234/70234-0.zip"},"download_count":9},{"id":70473,"title":"Forrest House : $b A novel","authors":[{"name":"Holmes, Mary Jane","birth_year":1825,"death_year":1907}],"translators":[],"subjects":["American fiction -- 19th century","Dime novels","Popular literature"],"bookshelves":[],"languages":["en"],"copyright":false,"media_type":"Text","formats":{"text/html":"https://www.gutenberg.org/ebooks/70473.html.images","application/epub+zip":"https://www.gutenberg.org/ebooks/70473.epub3.images","application/x-mobipocket-ebook":"https://www.gutenberg.org/ebooks/70473.kf8.images","text/plain; charset=us-ascii":"https://www.gutenberg.org/ebooks/70473.txt.utf-8","application/rdf+xml":"https://www.gutenberg.org/ebooks/70473.rdf","image/jpeg":"https://www.gutenberg.org/cache/epub/70473/pg70473.cover.medium.jpg","application/octet-stream":"https://www.gutenberg.org/files/70473/70473-0.zip"},"download_count":9},{"id":2201,"title":"Human Genome Project, rough draft, Chromosome Number 01","authors":[{"name":"Human Genome Project","birth_year":null,"death_year":null}],"translators":[],"subjects":["Human Genome Project","Human gene mapping","Human genetics","Nucleotide sequence"],"bookshelves":[],"languages":["en"],"copyright":false,"media_type":"Dataset","formats":{"text/plain; charset=us-ascii":"https://www.gutenberg.org/files/2201/2201.zip","application/rdf+xml":"https://www.gutenberg.org/ebooks/2201.rdf"},"download_count":8},{"id":2204,"title":"Human Genome Project, rough draft, Chromosome Number 04","authors":[{"name":"Human Genome Project","birth_year":null,"death_year":null}],"translators":[],"subjects":["Human Genome Project","Human gene mapping","Human genetics","Nucleotide sequence"],"bookshelves":[],"languages":["en"],"copyright":false,"media_type":"Dataset","formats":{"text/plain; charset=us-ascii":"https://www.gutenberg.org/files/2204/2204.zip","application/rdf+xml":"https://www.gutenberg.org/ebooks/2204.rdf"},"download_count":8},{"id":2205,"title":"Human Genome Project, rough draft, Chromosome Number 05","authors":[{"name":"Human Genome Project","birth_year":null,"death_year":null}],"translators":[],"subjects":["Human Genome Project","Human gene mapping","Human genetics","Nucleotide sequence"],"bookshelves":[],"languages":["en"],"copyright":false,"media_type":"Dataset","formats":{"text/plain; charset=us-ascii":"https://www.gutenberg.org/files/2205/2205.zip","application/rdf+xml":"https://www.gutenberg.org/ebooks/2205.rdf"},"download_count":8},{"id":2304,"title":"Legends and Lyrics. Part 2","authors":[{"name":"Procter, Adelaide Anne","birth_year":1825,"death_year":1864}],"translators":[],"subjects":["English poetry -- 19th century"],"bookshelves":[],"languages":["en"],"copyright":false,"media_type":"Text","formats":{"text/html":"https://www.gutenberg.org/ebooks/2304.html.images","application/epub+zip":"https://www.gutenberg.org/ebooks/2304.epub3.images","application/x-mobipocket-ebook":"https://www.gutenberg.org/ebooks/2304.kf8.images","text/plain; charset=us-ascii":"https://www.gutenberg.org/ebooks/2304.txt.utf-8","application/rdf+xml":"https://www.gutenberg.org/ebooks/2304.rdf","image/jpeg":"https://www.gutenberg.org/cache/epub/2304/pg2304.cover.medium.jpg","application/octet-stream":"https://www.gutenberg.org/cache/epub/2304/pg2304-h.zip"},"download_count":8}]}