{"count":58808,"next":"http://129.241.150.113:8000/books/?languages=en&page=1645","previous":"http://129.241.150.113:8000/books/?languages=en&page=1643","results":[{"id":69801,"title":"The dread Apache: That early-day scourge of the Southwest","authors":[{"name":"Freeman, Merrill Pingree","birth_year":1844,"death_year":1915}],"translators":[],"subjects":["Apache Indians","Apache Kid, approximately 1860-","Indians of North America -- Southwest, New"],"bookshelves":[],"languages":["en"],"copyright":false,"media_type":"Text","formats":{"text/html":"https://www.gutenberg.org/ebooks/69801.html.images","application/epub+zip":"https://www.gutenberg.org/ebooks/69801.epub3.images","application/x-mobipocket-ebook":"https://www.gutenberg.org/ebooks/69801.kf8.images","text/plain; charset=us-ascii":"https://www.gutenberg.org/ebooks/69801.txt.utf-8","application/rdf+xml":"https://www.gutenberg.org/ebooks/69801.rdf","image/jpeg":"https://www.gutenberg.org/cache/epub/69801/pg69801.cover.medium.jpg","application/octet-stream":"https://www.gutenberg.org/files/69801/69801-0.zip"},"download_count":20},{"id":69839,"title":"The Piccinino, Volume 1 (of 2)","authors":[{"name":"Sand, George","birth_year":1804,"death_year":1876}],"translators":[{"name":"Ives, George Burnham","birth_year":1856,"death_year":1930}],"subjects":["French fiction -- Translations into English"],"bookshelves":[],"languages":["en"],"copyright":false,"media_type":"Text","formats":{"text/html":"https://www.gutenberg.org/ebooks/69839.html.images","application/epub+zip":"https://www.gutenberg.org/ebooks/69839.epub3.images","application/x-mobipocket-ebook":"https://www.gutenberg.org/ebooks/69839.kf8.images","text/plain; charset=us-ascii":"https://www.gutenberg.org/ebooks/69839.txt.utf-8","application/rdf+xml":"https://www.gutenberg.org/ebooks/69839.rdf","image/jpeg":"https://www.gutenberg.org/cache/epub/69839/pg69839.cover.medium.jpg","application/octet-stream":"https://www.gutenberg.org/files/69839/69839-0.zip"},"download_count":20},{"id":69909,"title":"Cork: Being the story of the origin of cork, the processes employed in its manufacture & its various uses in the world to-day","authors":[{"name":"Armstrong Cork Company","birth_year":null,"death_year":null}],"translators":[],"subjects":["Cork"],"bookshelves":[],"languages":["en"],"copyright":false,"media_type":"Text","formats":{"text/html":"https://www.gutenberg.org/ebooks/69909.html.images","application/epub+zip":"https://www.gutenberg.org/ebooks/69909.epub3.images","application/x-mobipocket-ebook":"https://www.gutenberg.org/ebooks/69909.kf8.images","text/plain; charset=us-ascii":"https://www.gutenberg.org/ebooks/69909.txt.utf-8","application/rdf+xml":"https://www.gutenberg.org/ebooks/69909.rdf","image/jpeg":"https://www.gutenberg.org/cache/epub/69909/pg69909.cover.medium.jpg","application/octet-stream":"https://www.gutenberg.org/files/69909/69909-0.zip"},"download_count":20},{"id":69938,"title":"Told in the twilight","authors":[{"name":"Weatherly, F. E. (Frederic Edward)","birth_year":1848,"death_year":1929}],"translators":[],"subjects":["Children's poetry","Picture books for children"],"bookshelves":[],"languages":["en"],"copyright":false,"media_type":"Text","formats":{"text/html":"https://www.gutenberg.org/ebooks/69938.html.images","application/epub+zip":"https://www.gutenberg.org/ebooks/69938.epub3.images","application/x-mobipocket-ebook":"https://www.gutenberg.org/ebooks/69938.kf8.images","text/plain; charset=us-ascii":"https://www.gutenberg.org/ebooks/69938.txt.utf-8","application/rdf+xml":"https://www.gutenberg.org/ebooks/69938.rdf","image/jpeg":"https://www.gutenberg.org/cache/epub/69938/pg69938.cover.medium.jpg","application/octet-stream":"https://www.gutenberg.org/files/69938/69938-0.zip"},"download_count":20},{"id":69954,"title":"The Cameron pride; or, purified by suffering : $b A novel","authors":[{"name":"Holmes, Mary Jane","birth_year":1825,"death_year":1907}],"translators":[],"subjects":["American fiction -- 19th century"],"bookshelves":[],"languages":["en"],"copyright":false,"media_type":"Text","formats":{"text/html":"https://www.gutenberg.org/ebooks/69954.html.images","application/epub+zip":"https://www.gutenberg.org/ebooks/69954.epub3.images","application/x-mobipocket-ebook":"https://www.gutenberg.org/ebooks/69954.kf8.images","text/plain; charset=us-ascii":"https://www.gutenberg.org/ebooks/69954.txt.utf-8","application/rdf+xml":"https://www.gutenberg.org/ebooks/69954.rdf","image/jpeg":"https://www.gutenberg.org/cache/epub/69954/pg69954.cover.medium.jpg","application/octet-stream":"https://www.gutenberg.org/files/69954/69954-0.zip"},"download_count":20},{"id":69957,"title":"Finding youth : $b A human experience","authors":[{"name":"Andrews, Gertrude Nelson","birth_year":null,"death_year":null}],"translators":[],"subjects":["Old age"],"bookshelves":[],"languages":["en"],"copyright":false,"media_type":"Text","formats":{"text/html":"https://www.gutenberg.org/ebooks/69957.html.images","application/epub+zip":"https://www.gutenberg.org/ebooks/69957.epub3.images","application/x-mobipocket-ebook":"https://www.gutenberg.org/ebooks/69957.kf8.images","text/plain; charset=us-ascii":"https://www.gutenberg.org/ebooks/69957.txt.utf-8","application/rdf+xml":"https://www.gutenberg.org/ebooks/69957.rdf","image/jpeg":"https://www.gutenberg.org/cache/epub/69957/pg69957.cover.medium.jpg","application/octet-stream":"https://www.gutenberg.org/files/69957/69957-0.zip"},"download_count":20},{"id":69999,"title":"Jigsaw","authors":[{"name":"McMorrow, Tom","birth_year":null,"death_year":null}],"translators":[],"subjects":["Epistolary fiction","Experiments -- Fiction","Science fiction","Short stories","Teleportation -- Fiction"],"bookshelves":[],"languages":["en"],"copyright":false,"media_type":"Text","formats":{"text/html":"https://www.gutenberg.org/ebooks/69999.html.images","application/epub+zip":"https://www.gutenberg.org/ebooks/69999.epub3.images","application/x-mobipocket-ebook":"https://www.gutenberg.org/ebooks/69999.kf8.images","text/plain; charset=us-ascii":"https://www.gutenberg.org/ebooks/69999.txt.utf-8","application/rdf+xml":"https://www.gutenberg.org/ebooks/69999.rdf","image/jpeg":"https://www.gutenberg.org/cache/epub/69999/pg69999.cover.medium.jpg","application/octet-stream":"https://www.gutenberg.org/files/69999/69999-0.zip"},"download_count":20},{"id":70038,"title":"Freak trees of the State of New York","authors":[{"name":"Whipple, Gurth Adelbert","birth_year":1876,"death_year":1952}],"translators":[],"subjects":["Photography -- Awards -- New York (State)","Trees -- Abnormalities -- New York (State) -- Pictorial works"],"bookshelves":[],"languages":["en"],"copyright":false,"media_type":"Text","formats":{"text/html":"https://www.gutenberg.org/ebooks/70038.html.images","application/epub+zip":"https://www.gutenberg.org/ebooks/70038.epub3.images","application/x-mobipocket-ebook":"https://www.gutenberg.org/ebooks/70038.kf8.images","text/plain; charset=us-ascii":"https://www.gutenberg.org/ebooks/70038.txt.utf-8","application/rdf+xml":"https://www.gutenberg.org/ebooks/70038.rdf","image/jpeg":"https://www.gutenberg.org/cache/epub/70038/pg70038.cover.medium.jpg","application/octet-stream":"https://www.gutenberg.org/files/70038/70038-0.zip"},"download_count":20},{"id":70067,"title":"Cheese and its economical uses in the diet","authors":[{"name":"Hunt, Caroline Louisa","birth_year":1865,"death_year":1927},{"name":"Langworthy, C. F. (Charles Ford)","birth_year":1864,"death_year":1932}],"translators":[],"subjects":["Cheese","Cookbooks","Cooking (Cheese)"],"bookshelves":[],"languages":["en"],"copyright":false,"media_type":"Text","formats":{"text/html":"https://www.gutenberg.org/ebooks/70067.html.images","application/epub+zip":"https://www.gutenberg.org/ebooks/70067.epub3.images","application/x-mobipocket-ebook":"https://www.gutenberg.org/ebooks/70067.kf8.images","text/plain; charset=us-ascii":"https://www.gutenberg.org/ebooks/70067.txt.utf-8","application/rdf+xml":"https://www.gutenberg.org/ebooks/70067.rdf","image/jpeg":"https://www.gutenberg.org/cache/epub/70067/pg70067.cover.medium.jpg","application/octet-stream":"https://www.gutenberg.org/files/70067/70067-0.zip"},"download_count":20},{"id":70086,"title":"Sketch of the Reformation in England","authors":[{"name":"Blunt, John J. (John James)","birth_year":1794,"death_year":1855}],"translators":[],"subjects":["Great Britain -- Church history","Reformation -- England"],"bookshelves":[],"languages":["en"],"copyright":false,"media_type":"Text","formats":{"text/html":"https://www.gutenberg.org/ebooks/70086.html.images","application/epub+zip":"https://www.gutenberg.org/ebooks/70086.epub3.images","application/x-mobipocket-ebook":"https://www.gutenberg.org/ebooks/70086.kf8.images","text/plain; charset=us-ascii":"https://www.gutenberg.org/ebooks/70086.txt.utf-8","application/rdf+xml":"https://www.gutenberg.org/ebooks/70086.rdf","image/jpeg":"https://www.gutenberg.org/cache/epub/70086/pg70086.cover.medium.jpg","application/octet-stream":"https://www.gutenberg.org/files/70086/70086-0.zip"},"download_count":20},{"id":70156,"title":"The house of the wizard","authors":[{"name":"Taylor, Mary Imlay","birth_year":1878,"death_year":1938}],"translators":[],"subjects":["Great Britain -- History -- Henry VIII, 1509-1547 -- Fiction","Historical fiction"],"bookshelves":[],"languages":["en"],"copyright":false,"media_type":"Text","formats":{"text/html":"https://www.gutenberg.org/ebooks/70156.html.images","application/epub+zip":"https://www.gutenberg.org/ebooks/70156.epub3.images","application/x-mobipocket-ebook":"https://www.gutenberg.org/ebooks/70156.kf8.images","text/plain; charset=us-ascii":"https://www.gutenberg.org/ebooks/70156.txt.utf-8","application/rdf+xml":"https://www.gutenberg.org/ebooks/70156.rdf","image/jpeg":"https://www.gutenberg.org/cache/epub/70156/pg70156.cover.medium.jpg","application/octet-stream":"https://www.gutenberg.org/files/70156/70156-0.zip"},"download_count":20},{"id":70239,"title":"Whistle stop in space","authors":[{"name":"Crossen, Kendell Foster","birth_year":1910,"death_year":1981}],"translators":[],"subjects":["Adventure stories","Human-alien encounters -- Fiction","Humorous stories","Political fiction","Science fiction"],"bookshelves":[],"languages":["en"],"copyright":false,"media_type":"Text","formats":{"text/html":"https://www.gutenberg.org/ebooks/70239.html.images","application/epub+zip":"https://www.gutenberg.org/ebooks/70239.epub3.images","application/x-mobipocket-ebook":"https://www.gutenberg.org/ebooks/70239.kf8.images","text/plain; charset=us-ascii":"https://www.gutenberg.org/ebooks/70239.txt.utf-8","application/rdf+xml":"https://www.gutenberg.org/ebooks/70239.rdf","image/jpeg":"https://www.gutenberg.org/cache/epub/70239/pg70239.cover.medium.jpg","application/octet-stream":"https://www.gutenberg.org/files/70239/70239-0.zip"},"download_count":20},{"id":70253,"title":"James Sherman Kimball : $b A sketch","authors":[{"name":"Kimball, James William","birth_year":1812,"death_year":1885}],"translators":[],"subjects":["Kimball, James Sherman, -1864","United States Christian Commission"],"bookshelves":[],"languages":["en"],"copyright":false,"media_type":"Text","formats":{"text/html":"https://www.gutenberg.org/ebooks/70253.html.images","application/epub+zip":"https://www.gutenberg.org/ebooks/70253.epub3.images","application/x-mobipocket-ebook":"https://www.gutenberg.org/ebooks/70253.kf8.images","text/plain; charset=us-ascii":"https://www.gutenberg.org/ebooks/70253.txt.utf-8","application/rdf+xml":"https://www.gutenberg.org/ebooks/70253.rdf","image/jpeg":"https://www.gutenberg.org/cache/epub/70253/pg70253.cover.medium.jpg","application/octet-stream":"https://www.gutenberg.org/files/70253/70253-0.zip"},"download_count":20},{"id":70266,"title":"Lyrical tales","authors":[{"name":"Robinson, Mary","birth_year":1758,"death_year":1800}],"translators":[],"subjects":["English poetry -- 18th century"],"bookshelves":[],"languages":["en"],"copyright":false,"media_type":"Text","formats":{"text/html":"https://www.gutenberg.org/ebooks/70266.html.images","application/epub+zip":"https://www.gutenberg.org/ebooks/70266.epub3.images","application/x-mobipocket-ebook":"https://www.gutenberg.org/ebooks/70266.kf8.images","text/plain; charset=us-ascii":"https://www.gutenberg.org/ebooks/70266.txt.utf-8","application/rdf+xml":"https://www.gutenberg.org/ebooks/70266.rdf","image/jpeg":"https://www.gutenberg.org/cache/epub/70266/pg70266.cover.medium.jpg","application/octet-stream":"https://www.gutenberg.org/files/70266/70266-0.zip"},"download_count":20},{"id":70292,"title":"Least said, soonest mended","authors":[{"name":"Giberne, Agnes","birth_year":1845,"death_year":1939}],"translators":[],"subjects":["Girls -- Conduct of life -- Juvenile fiction","Gossip -- Juvenile fiction"],"bookshelves":[],"languages":["en"],"copyright":false,"media_type":"Text","formats":{"text/html":"https://www.gutenberg.org/ebooks/70292.html.images","application/epub+zip":"https://www.gutenberg.org/ebooks/70292.epub3.images","application/x-mobipocket-ebook":"https://www.gutenberg.org/ebooks/70292.kf8.images","text/plain; charset=us-ascii":"https://www.gutenberg.org/ebooks/70292.txt.utf-8","application/rdf+xml":"https://www.gutenberg.org/ebooks/70292.rdf","image/jpeg":"https://www.gutenberg.org/cache/epub/70292/pg70292.cover.medium.jpg","application/octet-stream":"https://www.gutenberg.org/files/70292/70292-0.zip"},"download_count":20},{"id":70341,"title":"Moo cow tales","authors":[{"name":"Bland, Rosamund E. Nesbit (Rosamund Edith Nesbit)","birth_year":1886,"death_year":1950}],"translators":[],"subjects":["Children's stories","Cows -- Juvenile fiction"],"bookshelves":[],"languages":["en"],"copyright":false,"media_type":"Text","formats":{"text/html":"https://www.gutenberg.org/ebooks/70341.html.images","application/epub+zip":"https://www.gutenberg.org/ebooks/70341.epub3.images","application/x-mobipocket-ebook":"https://www.gutenberg.org/ebooks/70341.kf8.images","text/plain; charset=us-ascii":"https://www.gutenberg.org/ebooks/70341.txt.utf-8","application/rdf+xml":"https://www.gutenberg.org/ebooks/70341.rdf","image/jpeg":"https://www.gutenberg.org/cache/epub/70341/pg70341.cover.medium.jpg","application/octet-stream":"https://www.gutenberg.org/files/70341/70341-0.zip"},"download_count":20},{"id":70349,"title":"When the squadron dropped anchor","authors":[{"name":"Burtis, Thomson","birth_year":1896,"death_year":1971}],"translators":[],"subjects":["Short stories","United States. Navy -- Officers -- Fiction"],"bookshelves":[],"languages":["en"],"copyright":false,"media_type":"Text","formats":{"text/html":"https://www.gutenberg.org/ebooks/70349.html.images","application/epub+zip":"https://www.gutenberg.org/ebooks/70349.epub3.images","application/x-mobipocket-ebook":"https://www.gutenberg.org/ebooks/70349.kf8.images","text/plain; charset=us-ascii":"https://www.gutenberg.org/ebooks/70349.txt.utf-8","application/rdf+xml":"https://www.gutenberg.org/ebooks/70349.rdf","image/jpeg":"https://www.gutenberg.org/cache/epub/70349/pg70349.cover.medium.jpg","application/octet-stream":"https://www.gutenberg.org/files/70349/70349-0.zip"},"download_count":20},{"id":70404,"title":"The Negro as a soldier","authors":[{"name":"Fleetwood, Christian A. (Christian Abraham)","birth_year":1840,"death_year":1914}],"translators":[],"subjects":["African American soldiers","United States -- History -- Civil War, 1861-1865 -- African Americans"],"bookshelves":[],"languages":["en"],"copyright":false,"media_type":"Text","formats":{"text/html":"https://www.gutenberg.org/ebooks/70404.html.images","application/epub+zip":"https://www.gutenberg.org/ebooks/70404.epub3.images","application/x-mobipocket-ebook":"https://www.gutenberg.org/ebooks/70404.kf8.images","text/plain; charset=us-ascii":"https://www.gutenberg.org/ebooks/70404.txt.utf-8","application/rdf+xml":"https://www.gutenberg.org/ebooks/70404.rdf","image/jpeg":"https://www.gutenberg.org/cache/epub/70404/pg70404.cover.medium.jpg","application/octet-stream":"https://www.gutenberg.org/files/70404/70404-0.zip"},"download_count":20},{"id":70413,"title":"The presidential snapshot : $b or, The all-seeing eye","authors":[{"name":"Lebhar, Bertram","birth_year":null,"death_year":null}],"translators":[],"subjects":["Americans -- South America -- Fiction","Dime novels","Photographers -- Fiction","Political prisoners -- Fiction"],"bookshelves":[],"languages":["en"],"copyright":false,"media_type":"Text","formats":{"text/html":"https://www.gutenberg.org/ebooks/70413.html.images","application/epub+zip":"https://www.gutenberg.org/ebooks/70413.epub3.images","application/x-mobipocket-ebook":"https://www.gutenberg.org/ebooks/70413.kf8.images","text/plain; charset=us-ascii":"https://www.gutenberg.org/ebooks/70413.txt.utf-8","application/rdf+xml":"https://www.gutenberg.org/ebooks/70413.rdf","image/jpeg":"https://www.gutenberg.org/cache/epub/70413/pg70413.cover.medium.jpg","application/octet-stream":"https://www.gutenberg.org/files/70413/70413-0.zip"},"download_count":20},{"id":70463,"title":"The Pennsylvania Journal of prison discipline and philanthropy (Vol. VIII, No. III, July 1853)","authors":[{"name":"Philadelphia Society for Alleviating the Miseries of Public Prisons","birth_year":null,"death_year":null}],"translators":[],"subjects":["Charities -- Periodicals","Prisons -- Periodicals"],"bookshelves":[],"languages":["en"],"copyright":false,"media_type":"Text","formats":{"text/html":"https://www.gutenberg.org/ebooks/70463.html.images","application/epub+zip":"https://www.gutenberg.org/ebooks/70463.epub3.images","application/x-mobipocket-ebook":"https://www.gutenberg.org/ebooks/70463.kf8.images","text/plain; charset=us-ascii":"https://www.gutenberg.org/ebooks/70463.txt.utf-8","application/rdf+xml":"https://www.gutenberg.org/ebooks/70463.rdf","image/jpeg":"https://www.gutenberg.org/cache/epub/70463/pg70463.cover.medium.jpg","application/octet-stream":"https://www.gutenberg.org/files/70463/70463-0.zip"},"download_count":20},{"id":70575,"title":"Marooned on Australia : $b being the narration by Diedrich Buys of his discoveries and exploits in Terra Australis Incognita about the year 1630 / by Ernest Favenc","authors":[{"name":"Favenc, Ernest","birth_year":1846,"death_year":1908}],"translators":[],"subjects":["Batavia (Ship) -- Juvenile fiction","Castaways -- Juvenile fiction","Western Australia -- Discovery and exploration -- Juvenile fiction"],"bookshelves":[],"languages":["en"],"copyright":false,"media_type":"Text","formats":{"text/html":"https://www.gutenberg.org/ebooks/70575.html.images","application/epub+zip":"https://www.gutenberg.org/ebooks/70575.epub3.images","application/x-mobipocket-ebook":"https://www.gutenberg.org/ebooks/70575.kf8.images","text/plain; charset=us-ascii":"https://www.gutenberg.org/ebooks/70575.txt.utf-8","application/rdf+xml":"https://www.gutenberg.org/ebooks/70575.rdf","image/jpeg":"https://www.gutenberg.org/cache/epub/70575/pg70575.cover.medium.jpg","application/octet-stream":"https://www.gutenberg.org/files/70575/70575-0.zip"},"download_count":20},{"id":70707,"title":"The Philistine : $b a periodical of protest (Vol. II, No. 4, March 1896)","authors":[{"name":"Various","birth_year":null,"death_year":null}],"translators":[],"subjects":["American literature -- Periodicals","American periodicals","Society of the Philistines (East Aurora, N.Y.) -- Periodicals"],"bookshelves":[],"languages":["en"],"copyright":false,"media_type":"Text","formats":{"text/html":"https://www.gutenberg.org/ebooks/70707.html.images","application/epub+zip":"https://www.gutenberg.org/ebooks/70707.epub3.images","application/x-mobipocket-ebook":"https://www.gutenberg.org/ebooks/70707.kf8.images","text/plain; charset=us-ascii":"https://www.gutenberg.org/ebooks/70707.txt.utf-8","application/rdf+xml":"https://www.gutenberg.org/ebooks/70707.rdf","image/jpeg":"https://www.gutenberg.org/cache/epub/70707/pg70707.cover.medium.jpg","application/octet-stream":"https://www.gutenberg.org/files/70707/70707-0.zip"},"download_count":20},{"id":70920,"title":"Whilst father was fighting","authors":[{"name":"Stooke, Eleanora H.","birth_year":null,"death_year":null}],"translators":[],"subjects":["Aunts -- Juvenile fiction","Boardinghouses -- Juvenile fiction","Brothers -- Juvenile fiction","Children -- Juvenile fiction","Christian life -- Juvenile fiction","World War, 1914-1918 -- England -- Juvenile fiction"],"bookshelves":[],"languages":["en"],"copyright":false,"media_type":"Text","formats":{"text/html":"https://www.gutenberg.org/ebooks/70920.html.images","application/epub+zip":"https://www.gutenberg.org/ebooks/70920.epub3.images","application/x-mobipocket-ebook":"https://www.gutenberg.org/ebooks/70920.kf8.images","text/plain; charset=us-ascii":"https://www.gutenberg.org/ebooks/70920.txt.utf-8","application/rdf+xml":"https://www.gutenberg.org/ebooks/70920.rdf","image/jpeg":"https://www.gutenberg.org/cache/epub/70920/pg70920.cover.medium.jpg","application/octet-stream":"https://www.gutenberg.org/files/70920/70920-0.zip"},"download_count":20},{"id":71010,"title":"The British soldier : $b his courage and humour","authors":[{"name":"Hardy, E. J. (Edward John)","birth_year":1849,"death_year":1920}],"translators":[],"subjects":["World War, 1914-1918"],"bookshelves":[],"languages":["en"],"copyright":false,"media_type":"Text","formats":{"text/html":"https://www.gutenberg.org/ebooks/71010.html.images","application/epub+zip":"https://www.gutenberg.org/ebooks/71010.epub3.images","application/x-mobipocket-ebook":"https://www.gutenberg.org/ebooks/71010.kf8.images","text/plain; charset=us-ascii":"https://www.gutenberg.org/ebooks/71010.txt.utf-8","application/rdf+xml":"https://www.gutenberg.org/ebooks/71010.rdf","image/jpeg":"https://www.gutenberg.org/cache/epub/71010/pg71010.cover.medium.jpg","application/octet-stream":"https://www.gutenberg.org/files/71010/71010-0.zip"},"download_count":20},{"id":71019,"title":"The Summers readers: second reader","authors":[{"name":"Summers, Maud","birth_year":null,"death_year":null}],"translators":[],"subjects":["Readers (Elementary)"],"bookshelves":[],"languages":["en"],"copyright":false,"media_type":"Text","formats":{"text/html":"https://www.gutenberg.org/ebooks/71019.html.images","application/epub+zip":"https://www.gutenberg.org/ebooks/71019.epub3.images","application/x-mobipocket-ebook":"https://www.gutenberg.org/ebooks/71019.kf8.images","text/plain; charset=us-ascii":"https://www.gutenberg.org/ebooks/71019.txt.utf-8","application/rdf+xml":"https://www.gutenberg.org/ebooks/71019.rdf","image/jpeg":"https://www.gutenberg.org/cache/epub/71019/pg71019.cover.medium.jpg","application/octet-stream":"https://www.gutenberg.org/files/71019/71019-0.zip"},"download_count":20},{"id":71036,"title":"John Williams : $b or The sailor boy","authors":[{"name":"Dix, Dorothea Lynde","birth_year":1802,"death_year":1887}],"translators":[],"subjects":["Children's stories","Conduct of life -- Juvenile fiction","Seafaring life -- Juvenile fiction","Temperance -- Juvenile fiction"],"bookshelves":[],"languages":["en"],"copyright":false,"media_type":"Text","formats":{"text/html":"https://www.gutenberg.org/ebooks/71036.html.images","application/epub+zip":"https://www.gutenberg.org/ebooks/71036.epub3.images","application/x-mobipocket-ebook":"https://www.gutenberg.org/ebooks/71036.kf8.images","text/plain; charset=us-ascii":"https://www.gutenberg.org/ebooks/71036.txt.utf-8","application/rdf+xml":"https://www.gutenberg.org/ebooks/71036.rdf","image/jpeg":"https://www.gutenberg.org/cache/epub/71036/pg71036.cover.medium.jpg","application/octet-stream":"https://www.gutenberg.org/files/71036/71036-0.zip"},"download_count":20},{"id":71314,"title":"The Half-Century Magazine (Vol. I, No. 1, August, 1916)","authors":[{"name":"Various","birth_year":null,"death_year":null}],"translators":[],"subjects":["African Americans -- Periodicals"],"bookshelves":[],"languages":["en"],"copyright":false,"media_type":"Text","formats":{"text/html":"https://www.gutenberg.org/ebooks/71314.html.images","application/epub+zip":"https://www.gutenberg.org/ebooks/71314.epub3.images","application/x-mobipocket-ebook":"https://www.gutenberg.org/ebooks/71314.kf8.images","text/plain; charset=us-ascii":"https://www.gutenberg.org/ebooks/71314.txt.utf-8","application/rdf+xml":"https://www.gutenberg.org/ebooks/71314.rdf","image/jpeg":"https://www.gutenberg.org/cache/epub/71314/pg71314.cover.medium.jpg","application/octet-stream":"https://www.gutenberg.org/files/71314/71314-0.zip"},"download_count":20},{"id":71327,"title":"Trial of the Major War Criminals Before the International Military Tribunal, Nuremburg, 14 November 1945-1 October 1946, Volume 16","authors":[{"name":"Various","birth_year":null,"death_year":null}],"translators":[],"subjects":["Göring, Hermann, 1893-1946 -- Trials, litigation, etc.","Nuremberg Trial of Major German War Criminals, Nuremberg, Germany, 1945-1946","War crime trials -- Germany -- Nuremberg"],"bookshelves":[],"languages":["en"],"copyright":false,"media_type":"Text","formats":{"text/html":"https://www.gutenberg.org/ebooks/71327.html.images","application/epub+zip":"https://www.gutenberg.org/ebooks/71327.epub3.images","application/x-mobipocket-ebook":"https://www.gutenberg.org/ebooks/71327.kf8.images","text/plain; charset=us-ascii":"https://www.gutenberg.org/ebooks/71327.txt.utf-8","application/rdf+xml":"https://www.gutenberg.org/ebooks/71327.rdf","image/jpeg":"https://www.gutenberg.org/cache/epub/71327/pg71327.cover.medium.jpg","application/octet-stream":"https://www.gutenberg.org/files/71327/71327-0.zip"},"download_count":20},{"id":71349,"title":"The shotgun princess","authors":[{"name":"Rouse, William Merriam","birth_year":1884,"death_year":1937}],"translators":[],"subjects":["Adirondack Mountains (N.Y.) -- Fiction","Courtship -- Fiction","Humorous stories","Short stories","Siblings -- Fiction"],"bookshelves":[],"languages":["en"],"copyright":false,"media_type":"Text","formats":{"text/html":"https://www.gutenberg.org/ebooks/71349.html.images","application/epub+zip":"https://www.gutenberg.org/ebooks/71349.epub3.images","application/x-mobipocket-ebook":"https://www.gutenberg.org/ebooks/71349.kf8.images","text/plain; charset=us-ascii":"https://www.gutenberg.org/ebooks/71349.txt.utf-8","application/rdf+xml":"https://www.gutenberg.org/ebooks/71349.rdf","image/jpeg":"https://www.gutenberg.org/cache/epub/71349/pg71349.cover.medium.jpg","application/octet-stream":"https://www.gutenberg.org/files/71349/71349-h.zip"},"download_count":20},{"id":71367,"title":"Poppy Ott and the galloping snail","authors":[{"name":"Edwards, Leo","birth_year":1884,"death_year":1944}],"translators":[],"subjects":["Boys -- Juvenile fiction","Detective and mystery stories","Humorous stories","Illinois -- Juvenile fiction"],"bookshelves":[],"languages":["en"],"copyright":false,"media_type":"Text","formats":{"text/html":"https://www.gutenberg.org/ebooks/71367.html.images","application/epub+zip":"https://www.gutenberg.org/ebooks/71367.epub3.images","application/x-mobipocket-ebook":"https://www.gutenberg.org/ebooks/71367.kf8.images","text/plain; charset=us-ascii":"https://www.gutenberg.org/ebooks/71367.txt.utf-8","application/rdf+xml":"https://www.gutenberg.org/ebooks/71367.rdf","image/jpeg":"https://www.gutenberg.org/cache/epub/71367/pg71367.cover.medium.jpg","application/octet-stream":"https://www.gutenberg.org/files/71367/71367-h.zip"},"download_count":20},{"id":71425,"title":"A chant of love for England, and other poems","authors":[{"name":"Cone, Helen Gray","birth_year":1859,"death_year":1934}],"translators":[],"subjects":["American poetry -- 20th century"],"bookshelves":[],"languages":["en"],"copyright":false,"media_type":"Text","formats":{"text/html":"https://www.gutenberg.org/ebooks/71425.html.images","application/epub+zip":"https://www.gutenberg.org/ebooks/71425.epub3.images","application/x-mobipocket-ebook":"https://www.gutenberg.org/ebooks/71425.kf8.images","text/plain; charset=us-ascii":"https://www.gutenberg.org/ebooks/71425.txt.utf-8","application/rdf+xml":"https://www.gutenberg.org/ebooks/71425.rdf","image/jpeg":"https://www.gutenberg.org/cache/epub/71425/pg71425.cover.medium.jpg","application/octet-stream":"https://www.gutenberg.org/files/71425/71425-h.zip"},"download_count":20},{"id":71444,"title":"Chambers's Journal of Popular Literature, Science, and Art, fifth series, no. 127, vol. III, June 5, 1886","authors":[{"name":"Various","birth_year":null,"death_year":null}],"translators":[],"subjects":["Periodicals"],"bookshelves":[],"languages":["en"],"copyright":false,"media_type":"Text","formats":{"text/html":"https://www.gutenberg.org/ebooks/71444.html.images","application/epub+zip":"https://www.gutenberg.org/ebooks/71444.epub3.images","application/x-mobipocket-ebook":"https://www.gutenberg.org/ebooks/71444.kf8.images","text/plain; charset=us-ascii":"https://www.gutenberg.org/ebooks/71444.txt.utf-8","application/rdf+xml":"https://www.gutenberg.org/ebooks/71444.rdf","image/jpeg":"https://www.gutenberg.org/cache/epub/71444/pg71444.cover.medium.jpg","application/octet-stream":"https://www.gutenberg.org/files/71444/71444-h.zip"},"download_count":20}]}