{"count":58808,"next":"http://129.241.150.113:8000/books/?languages=en&page=1090","previous":"http://129.241.150.113:8000/books/?languages=en&page=1088","results":[{"id":69668,"title":"The education of Uncle Paul","authors":[{"name":"Blackwood, Algernon","birth_year":1869,"death_year":1951}],"translators":[],"subjects":["Children -- Fiction","Fantasy fiction","Paranormal fiction"],"bookshelves":[],"languages":["en"],"copyright":false,"media_type":"Text","formats":{"text/html":"https://www.gutenberg.org/ebooks/69668.html.images","application/epub+zip":"https://www.gutenberg.org/ebooks/69668.epub3.images","application/x-mobipocket-ebook":"https://www.gutenberg.org/ebooks/69668.kf8.images","text/plain; charset=us-ascii":"https://www.gutenberg.org/ebooks/69668.txt.utf-8","application/rdf+xml":"https://www.gutenberg.org/ebooks/69668.rdf","image/jpeg":"https://www.gutenberg.org/cache/epub/69668/pg69668.cover.medium.jpg","application/octet-stream":"https://www.gutenberg.org/files/69668/69668-0.zip"},"download_count":34},{"id":69859,"title":"Table traits, with something on them","authors":[{"name":"Doran, Dr. (John)","birth_year":1807,"death_year":1878}],"translators":[],"subjects":["Gastronomy"],"bookshelves":[],"languages":["en"],"copyright":false,"media_type":"Text","formats":{"text/html":"https://www.gutenberg.org/ebooks/69859.html.images","application/epub+zip":"https://www.gutenberg.org/ebooks/69859.epub3.images","application/x-mobipocket-ebook":"https://www.gutenberg.org/ebooks/69859.kf8.images","text/plain; charset=us-ascii":"https://www.gutenberg.org/ebooks/69859.txt.utf-8","application/rdf+xml":"https://www.gutenberg.org/ebooks/69859.rdf","image/jpeg":"https://www.gutenberg.org/cache/epub/69859/pg69859.cover.medium.jpg","application/octet-stream":"https://www.gutenberg.org/files/69859/69859-0.zip"},"download_count":34},{"id":69886,"title":"Famous pets of famous people","authors":[{"name":"Lewis, Eleanor","birth_year":null,"death_year":null}],"translators":[],"subjects":["Animals -- Anecdotes","Domestic animals","Pets"],"bookshelves":[],"languages":["en"],"copyright":false,"media_type":"Text","formats":{"text/html":"https://www.gutenberg.org/ebooks/69886.html.images","application/epub+zip":"https://www.gutenberg.org/ebooks/69886.epub3.images","application/x-mobipocket-ebook":"https://www.gutenberg.org/ebooks/69886.kf8.images","text/plain; charset=us-ascii":"https://www.gutenberg.org/ebooks/69886.txt.utf-8","application/rdf+xml":"https://www.gutenberg.org/ebooks/69886.rdf","image/jpeg":"https://www.gutenberg.org/cache/epub/69886/pg69886.cover.medium.jpg","application/octet-stream":"https://www.gutenberg.org/files/69886/69886-0.zip"},"download_count":34},{"id":69940,"title":"The ionian cycle","authors":[{"name":"Tenn, William","birth_year":1920,"death_year":2010}],"translators":[],"subjects":["Human-alien encounters -- Fiction","Science fiction","Survival -- Fiction"],"bookshelves":[],"languages":["en"],"copyright":false,"media_type":"Text","formats":{"text/html":"https://www.gutenberg.org/ebooks/69940.html.images","application/epub+zip":"https://www.gutenberg.org/ebooks/69940.epub3.images","application/x-mobipocket-ebook":"https://www.gutenberg.org/ebooks/69940.kf8.images","text/plain; charset=us-ascii":"https://www.gutenberg.org/ebooks/69940.txt.utf-8","application/rdf+xml":"https://www.gutenberg.org/ebooks/69940.rdf","image/jpeg":"https://www.gutenberg.org/cache/epub/69940/pg69940.cover.medium.jpg","application/octet-stream":"https://www.gutenberg.org/files/69940/69940-0.zip"},"download_count":34},{"id":69985,"title":"Ilex cassine, the aboriginal North American tea: $b Its history, distribution, and use among the native North American Indians","authors":[{"name":"Hale, Edwin M. (Edwin Moses)","birth_year":1829,"death_year":1899}],"translators":[],"subjects":["Aquifoliaceae","Black drink","Ilex vomitoria","Indians of North America -- Food -- Southern States"],"bookshelves":[],"languages":["en"],"copyright":false,"media_type":"Text","formats":{"text/html":"https://www.gutenberg.org/ebooks/69985.html.images","application/epub+zip":"https://www.gutenberg.org/ebooks/69985.epub3.images","application/x-mobipocket-ebook":"https://www.gutenberg.org/ebooks/69985.kf8.images","text/plain; charset=us-ascii":"https://www.gutenberg.org/ebooks/69985.txt.utf-8","application/rdf+xml":"https://www.gutenberg.org/ebooks/69985.rdf","image/jpeg":"https://www.gutenberg.org/cache/epub/69985/pg69985.cover.medium.jpg","application/octet-stream":"https://www.gutenberg.org/files/69985/69985-0.zip"},"download_count":34},{"id":70075,"title":"Palm trees of the Amazon and their uses","authors":[{"name":"Wallace, Alfred Russel","birth_year":1823,"death_year":1913}],"translators":[],"subjects":["Palms -- Amazon River Valley"],"bookshelves":[],"languages":["en"],"copyright":false,"media_type":"Text","formats":{"text/html":"https://www.gutenberg.org/ebooks/70075.html.images","application/epub+zip":"https://www.gutenberg.org/ebooks/70075.epub3.images","application/x-mobipocket-ebook":"https://www.gutenberg.org/ebooks/70075.kf8.images","text/plain; charset=us-ascii":"https://www.gutenberg.org/ebooks/70075.txt.utf-8","application/rdf+xml":"https://www.gutenberg.org/ebooks/70075.rdf","image/jpeg":"https://www.gutenberg.org/cache/epub/70075/pg70075.cover.medium.jpg","application/octet-stream":"https://www.gutenberg.org/files/70075/70075-0.zip"},"download_count":34},{"id":70259,"title":"Season's best dishes for 2 or 4 or 6","authors":[{"name":"Taylor, Mary Lee","birth_year":1891,"death_year":1944},{"name":"Pet Milk Company","birth_year":null,"death_year":null}],"translators":[],"subjects":["Christmas cooking","Cookbooks","Cooking (Evaporated milk)","Cooking, American"],"bookshelves":[],"languages":["en"],"copyright":false,"media_type":"Text","formats":{"text/html":"https://www.gutenberg.org/ebooks/70259.html.images","application/epub+zip":"https://www.gutenberg.org/ebooks/70259.epub3.images","application/x-mobipocket-ebook":"https://www.gutenberg.org/ebooks/70259.kf8.images","text/plain; charset=us-ascii":"https://www.gutenberg.org/ebooks/70259.txt.utf-8","application/rdf+xml":"https://www.gutenberg.org/ebooks/70259.rdf","image/jpeg":"https://www.gutenberg.org/cache/epub/70259/pg70259.cover.medium.jpg","application/octet-stream":"https://www.gutenberg.org/files/70259/70259-0.zip"},"download_count":34},{"id":70272,"title":"The theory of relativity and its influence on scientific thought","authors":[{"name":"Eddington, Arthur Stanley, Sir","birth_year":1882,"death_year":1944}],"translators":[],"subjects":["Relativity (Physics)","Science -- Philosophy"],"bookshelves":[],"languages":["en"],"copyright":false,"media_type":"Text","formats":{"text/html":"https://www.gutenberg.org/ebooks/70272.html.images","application/epub+zip":"https://www.gutenberg.org/ebooks/70272.epub3.images","application/x-mobipocket-ebook":"https://www.gutenberg.org/ebooks/70272.kf8.images","text/plain; charset=us-ascii":"https://www.gutenberg.org/ebooks/70272.txt.utf-8","application/rdf+xml":"https://www.gutenberg.org/ebooks/70272.rdf","image/jpeg":"https://www.gutenberg.org/cache/epub/70272/pg70272.cover.medium.jpg","application/octet-stream":"https://www.gutenberg.org/files/70272/70272-0.zip"},"download_count":34},{"id":70350,"title":"Dr. B. Mure's materia medica : $b or, provings of the principal animal and vegetable poisons of the Brazilian Empire, and their application in the treatment of disease","authors":[{"name":"Mure, Benoît","birth_year":1809,"death_year":1858}],"translators":[{"name":"Hempel, Charles J. (Charles Julius)","birth_year":1811,"death_year":1879}],"subjects":["Homeopathy","Materia medica, Vegetable"],"bookshelves":[],"languages":["en"],"copyright":false,"media_type":"Text","formats":{"text/html":"https://www.gutenberg.org/ebooks/70350.html.images","application/epub+zip":"https://www.gutenberg.org/ebooks/70350.epub3.images","application/x-mobipocket-ebook":"https://www.gutenberg.org/ebooks/70350.kf8.images","text/plain; charset=us-ascii":"https://www.gutenberg.org/ebooks/70350.txt.utf-8","application/rdf+xml":"https://www.gutenberg.org/ebooks/70350.rdf","image/jpeg":"https://www.gutenberg.org/cache/epub/70350/pg70350.cover.medium.jpg","application/octet-stream":"https://www.gutenberg.org/files/70350/70350-0.zip"},"download_count":34},{"id":70393,"title":"Prejudices","authors":[{"name":"Flandrau, Charles Macomb","birth_year":1871,"death_year":1938}],"translators":[],"subjects":["American essays -- 20th century"],"bookshelves":[],"languages":["en"],"copyright":false,"media_type":"Text","formats":{"text/html":"https://www.gutenberg.org/ebooks/70393.html.images","application/epub+zip":"https://www.gutenberg.org/ebooks/70393.epub3.images","application/x-mobipocket-ebook":"https://www.gutenberg.org/ebooks/70393.kf8.images","text/plain; charset=us-ascii":"https://www.gutenberg.org/ebooks/70393.txt.utf-8","application/rdf+xml":"https://www.gutenberg.org/ebooks/70393.rdf","image/jpeg":"https://www.gutenberg.org/cache/epub/70393/pg70393.cover.medium.jpg","application/octet-stream":"https://www.gutenberg.org/files/70393/70393-0.zip"},"download_count":34},{"id":70405,"title":"Selected etchings by Piranesi, series 1.","authors":[],"translators":[],"subjects":["Etching, Italian","Piranesi, Giovanni Battista, 1720-1778"],"bookshelves":[],"languages":["en"],"copyright":false,"media_type":"Text","formats":{"text/html":"https://www.gutenberg.org/ebooks/70405.html.images","application/epub+zip":"https://www.gutenberg.org/ebooks/70405.epub3.images","application/x-mobipocket-ebook":"https://www.gutenberg.org/ebooks/70405.kf8.images","text/plain; charset=us-ascii":"https://www.gutenberg.org/ebooks/70405.txt.utf-8","application/rdf+xml":"https://www.gutenberg.org/ebooks/70405.rdf","image/jpeg":"https://www.gutenberg.org/cache/epub/70405/pg70405.cover.medium.jpg","application/octet-stream":"https://www.gutenberg.org/files/70405/70405-0.zip"},"download_count":34},{"id":70470,"title":"The Bodleian Library at Oxford","authors":[{"name":"Madan, Falconer","birth_year":1851,"death_year":1935}],"translators":[],"subjects":["Bodleian Library"],"bookshelves":[],"languages":["en"],"copyright":false,"media_type":"Text","formats":{"text/html":"https://www.gutenberg.org/ebooks/70470.html.images","application/epub+zip":"https://www.gutenberg.org/ebooks/70470.epub3.images","application/x-mobipocket-ebook":"https://www.gutenberg.org/ebooks/70470.kf8.images","text/plain; charset=us-ascii":"https://www.gutenberg.org/ebooks/70470.txt.utf-8","application/rdf+xml":"https://www.gutenberg.org/ebooks/70470.rdf","image/jpeg":"https://www.gutenberg.org/cache/epub/70470/pg70470.cover.medium.jpg","application/octet-stream":"https://www.gutenberg.org/files/70470/70470-0.zip"},"download_count":34},{"id":70525,"title":"Sahara","authors":[{"name":"Buchanan, Angus","birth_year":1886,"death_year":1954}],"translators":[],"subjects":["Natural history -- Sahara","Sahara -- Description and travel"],"bookshelves":[],"languages":["en"],"copyright":false,"media_type":"Text","formats":{"text/html":"https://www.gutenberg.org/ebooks/70525.html.images","application/epub+zip":"https://www.gutenberg.org/ebooks/70525.epub3.images","application/x-mobipocket-ebook":"https://www.gutenberg.org/ebooks/70525.kf8.images","text/plain; charset=us-ascii":"https://www.gutenberg.org/ebooks/70525.txt.utf-8","application/rdf+xml":"https://www.gutenberg.org/ebooks/70525.rdf","image/jpeg":"https://www.gutenberg.org/cache/epub/70525/pg70525.cover.medium.jpg","application/octet-stream":"https://www.gutenberg.org/files/70525/70525-0.zip"},"download_count":34},{"id":70729,"title":"Vortigern; an historical play","authors":[{"name":"Ireland, W. H. (William Henry)","birth_year":1777,"death_year":1835}],"translators":[],"subjects":["Ireland, W. H. (William Henry), 1777-1835","Literary forgeries and mystifications -- Early works to 1800","Shakespeare, William, 1564-1616 -- Forgeries","Tragedies","Vortigern, active 450 -- Drama"],"bookshelves":[],"languages":["en"],"copyright":false,"media_type":"Text","formats":{"text/html":"https://www.gutenberg.org/ebooks/70729.html.images","application/epub+zip":"https://www.gutenberg.org/ebooks/70729.epub3.images","application/x-mobipocket-ebook":"https://www.gutenberg.org/ebooks/70729.kf8.images","text/plain; charset=us-ascii":"https://www.gutenberg.org/ebooks/70729.txt.utf-8","application/rdf+xml":"https://www.gutenberg.org/ebooks/70729.rdf","image/jpeg":"https://www.gutenberg.org/cache/epub/70729/pg70729.cover.medium.jpg","application/octet-stream":"https://www.gutenberg.org/files/70729/70729-0.zip"},"download_count":34},{"id":70834,"title":"The negro: the southerner's problem","authors":[{"name":"Page, Thomas Nelson","birth_year":1853,"death_year":1922}],"translators":[],"subjects":["African Americans","United States -- Race relations"],"bookshelves":[],"languages":["en"],"copyright":false,"media_type":"Text","formats":{"text/html":"https://www.gutenberg.org/ebooks/70834.html.images","application/epub+zip":"https://www.gutenberg.org/ebooks/70834.epub3.images","application/x-mobipocket-ebook":"https://www.gutenberg.org/ebooks/70834.kf8.images","text/plain; charset=us-ascii":"https://www.gutenberg.org/ebooks/70834.txt.utf-8","application/rdf+xml":"https://www.gutenberg.org/ebooks/70834.rdf","image/jpeg":"https://www.gutenberg.org/cache/epub/70834/pg70834.cover.medium.jpg","application/octet-stream":"https://www.gutenberg.org/files/70834/70834-0.zip"},"download_count":34},{"id":70918,"title":"Lions 'n' tigers 'n' everything","authors":[{"name":"Cooper, Courtney Ryley","birth_year":1886,"death_year":1940}],"translators":[],"subjects":["Animals","Circus"],"bookshelves":[],"languages":["en"],"copyright":false,"media_type":"Text","formats":{"text/html":"https://www.gutenberg.org/ebooks/70918.html.images","application/epub+zip":"https://www.gutenberg.org/ebooks/70918.epub3.images","application/x-mobipocket-ebook":"https://www.gutenberg.org/ebooks/70918.kf8.images","text/plain; charset=us-ascii":"https://www.gutenberg.org/ebooks/70918.txt.utf-8","application/rdf+xml":"https://www.gutenberg.org/ebooks/70918.rdf","image/jpeg":"https://www.gutenberg.org/cache/epub/70918/pg70918.cover.medium.jpg","application/octet-stream":"https://www.gutenberg.org/files/70918/70918-0.zip"},"download_count":34},{"id":70972,"title":"The man-killers","authors":[{"name":"Coolidge, Dane","birth_year":1873,"death_year":1940}],"translators":[],"subjects":["Arizona -- Fiction","Love stories","Vendetta -- Fiction","Western stories"],"bookshelves":[],"languages":["en"],"copyright":false,"media_type":"Text","formats":{"text/html":"https://www.gutenberg.org/ebooks/70972.html.images","application/epub+zip":"https://www.gutenberg.org/ebooks/70972.epub3.images","application/x-mobipocket-ebook":"https://www.gutenberg.org/ebooks/70972.kf8.images","text/plain; charset=us-ascii":"https://www.gutenberg.org/ebooks/70972.txt.utf-8","application/rdf+xml":"https://www.gutenberg.org/ebooks/70972.rdf","image/jpeg":"https://www.gutenberg.org/cache/epub/70972/pg70972.cover.medium.jpg","application/octet-stream":"https://www.gutenberg.org/files/70972/70972-0.zip"},"download_count":34},{"id":71008,"title":"The poems of Winthrop Mackworth Praed. [selected]","authors":[{"name":"Praed, Winthrop Mackworth","birth_year":1802,"death_year":1839}],"translators":[],"subjects":["English poetry -- 19th century"],"bookshelves":[],"languages":["en"],"copyright":false,"media_type":"Text","formats":{"text/html":"https://www.gutenberg.org/ebooks/71008.html.images","application/epub+zip":"https://www.gutenberg.org/ebooks/71008.epub3.images","application/x-mobipocket-ebook":"https://www.gutenberg.org/ebooks/71008.kf8.images","text/plain; charset=us-ascii":"https://www.gutenberg.org/ebooks/71008.txt.utf-8","application/rdf+xml":"https://www.gutenberg.org/ebooks/71008.rdf","image/jpeg":"https://www.gutenberg.org/cache/epub/71008/pg71008.cover.medium.jpg","application/octet-stream":"https://www.gutenberg.org/files/71008/71008-0.zip"},"download_count":34},{"id":71021,"title":"Battling with waves and lawyers : $b a genuine history of perils of the deep and an authentic record of the most important shipping case ever dealt with in the supreme courts of Australasia","authors":[],"translators":[],"subjects":["Alert (Ship : 1877-1893)","Liability for marine accidents","Navigation -- Australia -- History","Shipwrecks -- Australia -- Victoria"],"bookshelves":[],"languages":["en"],"copyright":false,"media_type":"Text","formats":{"text/html":"https://www.gutenberg.org/ebooks/71021.html.images","application/epub+zip":"https://www.gutenberg.org/ebooks/71021.epub3.images","application/x-mobipocket-ebook":"https://www.gutenberg.org/ebooks/71021.kf8.images","text/plain; charset=us-ascii":"https://www.gutenberg.org/ebooks/71021.txt.utf-8","application/rdf+xml":"https://www.gutenberg.org/ebooks/71021.rdf","image/jpeg":"https://www.gutenberg.org/cache/epub/71021/pg71021.cover.medium.jpg","application/octet-stream":"https://www.gutenberg.org/files/71021/71021-0.zip"},"download_count":34},{"id":71029,"title":"Jasper's old shed, and how the light shone in","authors":[{"name":"Coker, A. M.","birth_year":null,"death_year":null}],"translators":[],"subjects":["Children -- Religious life -- Juvenile fiction","Children and death -- Juvenile fiction","Christmas stories","Conversion -- Christianity -- Juvenile fiction","Friendship -- Juvenile fiction","Missions -- England -- Juvenile fiction"],"bookshelves":[],"languages":["en"],"copyright":false,"media_type":"Text","formats":{"text/html":"https://www.gutenberg.org/ebooks/71029.html.images","application/epub+zip":"https://www.gutenberg.org/ebooks/71029.epub3.images","application/x-mobipocket-ebook":"https://www.gutenberg.org/ebooks/71029.kf8.images","text/plain; charset=us-ascii":"https://www.gutenberg.org/ebooks/71029.txt.utf-8","application/rdf+xml":"https://www.gutenberg.org/ebooks/71029.rdf","image/jpeg":"https://www.gutenberg.org/cache/epub/71029/pg71029.cover.medium.jpg","application/octet-stream":"https://www.gutenberg.org/files/71029/71029-0.zip"},"download_count":34},{"id":71081,"title":"An account of a useful discovery to distill double the usual quantity of sea-water, by blowing showers of air up through the distilling liquor : $b and an account of the great benefit of ventilators in many instances, in preserving the health and lives of people, in slave and other transport ships ... also an account of the good effect of blowing showers of air up through milk, thereby to cure the ill taste which is occasioned by some kinds of food of cows.","authors":[{"name":"Hales, Stephen","birth_year":1677,"death_year":1761}],"translators":[],"subjects":["Seawater -- Distillation","Ships -- Heating and ventilation"],"bookshelves":[],"languages":["en"],"copyright":false,"media_type":"Text","formats":{"text/html":"https://www.gutenberg.org/ebooks/71081.html.images","application/epub+zip":"https://www.gutenberg.org/ebooks/71081.epub3.images","application/x-mobipocket-ebook":"https://www.gutenberg.org/ebooks/71081.kf8.images","text/plain; charset=us-ascii":"https://www.gutenberg.org/ebooks/71081.txt.utf-8","application/rdf+xml":"https://www.gutenberg.org/ebooks/71081.rdf","image/jpeg":"https://www.gutenberg.org/cache/epub/71081/pg71081.cover.medium.jpg","application/octet-stream":"https://www.gutenberg.org/files/71081/71081-0.zip"},"download_count":34},{"id":71088,"title":"The chemical nature of the alpha particles from radioactive substances","authors":[{"name":"Rutherford, Ernest","birth_year":1871,"death_year":1937}],"translators":[],"subjects":["Alpha rays"],"bookshelves":[],"languages":["en"],"copyright":false,"media_type":"Text","formats":{"text/html":"https://www.gutenberg.org/ebooks/71088.html.images","application/epub+zip":"https://www.gutenberg.org/ebooks/71088.epub3.images","application/x-mobipocket-ebook":"https://www.gutenberg.org/ebooks/71088.kf8.images","text/plain; charset=us-ascii":"https://www.gutenberg.org/ebooks/71088.txt.utf-8","application/rdf+xml":"https://www.gutenberg.org/ebooks/71088.rdf","image/jpeg":"https://www.gutenberg.org/cache/epub/71088/pg71088.cover.medium.jpg","application/octet-stream":"https://www.gutenberg.org/files/71088/71088-0.zip"},"download_count":34},{"id":71213,"title":"Adventures of the runaway rocking chair","authors":[{"name":"Garis, Howard Roger","birth_year":1873,"death_year":1962}],"translators":[],"subjects":["Furniture -- Juvenile fiction","Grandmothers -- Juvenile fiction","Rocking chairs -- Juvenile fiction"],"bookshelves":[],"languages":["en"],"copyright":false,"media_type":"Text","formats":{"text/html":"https://www.gutenberg.org/ebooks/71213.html.images","application/epub+zip":"https://www.gutenberg.org/ebooks/71213.epub3.images","application/x-mobipocket-ebook":"https://www.gutenberg.org/ebooks/71213.kf8.images","text/plain; charset=us-ascii":"https://www.gutenberg.org/ebooks/71213.txt.utf-8","application/rdf+xml":"https://www.gutenberg.org/ebooks/71213.rdf","image/jpeg":"https://www.gutenberg.org/cache/epub/71213/pg71213.cover.medium.jpg","application/octet-stream":"https://www.gutenberg.org/files/71213/71213-0.zip"},"download_count":34},{"id":71279,"title":"The Emperor of Elam, and other stories","authors":[{"name":"Dwight, H. G. (Harrison Griswold)","birth_year":1875,"death_year":1959}],"translators":[],"subjects":["American fiction -- 20th century","Short stories, American"],"bookshelves":[],"languages":["en"],"copyright":false,"media_type":"Text","formats":{"text/html":"https://www.gutenberg.org/ebooks/71279.html.images","application/epub+zip":"https://www.gutenberg.org/ebooks/71279.epub3.images","application/x-mobipocket-ebook":"https://www.gutenberg.org/ebooks/71279.kf8.images","text/plain; charset=us-ascii":"https://www.gutenberg.org/ebooks/71279.txt.utf-8","application/rdf+xml":"https://www.gutenberg.org/ebooks/71279.rdf","image/jpeg":"https://www.gutenberg.org/cache/epub/71279/pg71279.cover.medium.jpg","application/octet-stream":"https://www.gutenberg.org/files/71279/71279-0.zip"},"download_count":34},{"id":71306,"title":"The high school rivals : $b or, Frank Markham's struggles","authors":[{"name":"Webster, Frank V.","birth_year":null,"death_year":null}],"translators":[],"subjects":["High school students -- Juvenile fiction","Schools -- Juvenile fiction"],"bookshelves":[],"languages":["en"],"copyright":false,"media_type":"Text","formats":{"text/html":"https://www.gutenberg.org/ebooks/71306.html.images","application/epub+zip":"https://www.gutenberg.org/ebooks/71306.epub3.images","application/x-mobipocket-ebook":"https://www.gutenberg.org/ebooks/71306.kf8.images","text/plain; charset=us-ascii":"https://www.gutenberg.org/ebooks/71306.txt.utf-8","application/rdf+xml":"https://www.gutenberg.org/ebooks/71306.rdf","image/jpeg":"https://www.gutenberg.org/cache/epub/71306/pg71306.cover.medium.jpg","application/octet-stream":"https://www.gutenberg.org/files/71306/71306-0.zip"},"download_count":34},{"id":71365,"title":"The ascendancy of France, 1598-1715","authors":[{"name":"Wakeman, Henry Offley","birth_year":1852,"death_year":1899}],"translators":[],"subjects":["Europe -- History -- 17th century"],"bookshelves":[],"languages":["en"],"copyright":false,"media_type":"Text","formats":{"text/html":"https://www.gutenberg.org/ebooks/71365.html.images","application/epub+zip":"https://www.gutenberg.org/ebooks/71365.epub3.images","application/x-mobipocket-ebook":"https://www.gutenberg.org/ebooks/71365.kf8.images","text/plain; charset=us-ascii":"https://www.gutenberg.org/ebooks/71365.txt.utf-8","application/rdf+xml":"https://www.gutenberg.org/ebooks/71365.rdf","image/jpeg":"https://www.gutenberg.org/cache/epub/71365/pg71365.cover.medium.jpg","application/octet-stream":"https://www.gutenberg.org/files/71365/71365-h.zip"},"download_count":34},{"id":71493,"title":"Diligent Dick : $b or, the young farmer","authors":[{"name":"Leslie, Madeline","birth_year":1815,"death_year":1893}],"translators":[],"subjects":["Christian life -- Juvenile fiction","Country life -- Juvenile fiction","Diligence -- Juvenile fiction","Mothers and sons -- Juvenile fiction"],"bookshelves":[],"languages":["en"],"copyright":false,"media_type":"Text","formats":{"text/html":"https://www.gutenberg.org/ebooks/71493.html.images","application/epub+zip":"https://www.gutenberg.org/ebooks/71493.epub3.images","application/x-mobipocket-ebook":"https://www.gutenberg.org/ebooks/71493.kf8.images","text/plain; charset=us-ascii":"https://www.gutenberg.org/ebooks/71493.txt.utf-8","application/rdf+xml":"https://www.gutenberg.org/ebooks/71493.rdf","image/jpeg":"https://www.gutenberg.org/cache/epub/71493/pg71493.cover.medium.jpg","application/octet-stream":"https://www.gutenberg.org/files/71493/71493-h.zip"},"download_count":34},{"id":71518,"title":"Essay on art and photography","authors":[{"name":"Sutton, A. V.","birth_year":null,"death_year":null}],"translators":[],"subjects":["Art and photography"],"bookshelves":[],"languages":["en"],"copyright":false,"media_type":"Text","formats":{"text/html":"https://www.gutenberg.org/ebooks/71518.html.images","application/epub+zip":"https://www.gutenberg.org/ebooks/71518.epub3.images","application/x-mobipocket-ebook":"https://www.gutenberg.org/ebooks/71518.kf8.images","text/plain; charset=us-ascii":"https://www.gutenberg.org/ebooks/71518.txt.utf-8","application/rdf+xml":"https://www.gutenberg.org/ebooks/71518.rdf","image/jpeg":"https://www.gutenberg.org/cache/epub/71518/pg71518.cover.medium.jpg","application/octet-stream":"https://www.gutenberg.org/files/71518/71518-h.zip"},"download_count":34},{"id":71546,"title":"Wits' End","authors":[{"name":"Blanchard, Amy Ella","birth_year":1856,"death_year":1926}],"translators":[],"subjects":["Conduct of life -- Juvenile fiction","Families -- Juvenile fiction","Islands -- Juvenile fiction","Sailing -- Juvenile fiction","Youth -- Conduct of life -- Juvenile fiction"],"bookshelves":[],"languages":["en"],"copyright":false,"media_type":"Text","formats":{"text/html":"https://www.gutenberg.org/ebooks/71546.html.images","application/epub+zip":"https://www.gutenberg.org/ebooks/71546.epub3.images","application/x-mobipocket-ebook":"https://www.gutenberg.org/ebooks/71546.kf8.images","text/plain; charset=us-ascii":"https://www.gutenberg.org/ebooks/71546.txt.utf-8","application/rdf+xml":"https://www.gutenberg.org/ebooks/71546.rdf","image/jpeg":"https://www.gutenberg.org/cache/epub/71546/pg71546.cover.medium.jpg","application/octet-stream":"https://www.gutenberg.org/files/71546/71546-h.zip"},"download_count":34},{"id":71568,"title":"The show must go on","authors":[{"name":"Slesar, Henry","birth_year":1927,"death_year":2002}],"translators":[],"subjects":["Science fiction","Short stories","Television programs -- Fiction"],"bookshelves":[],"languages":["en"],"copyright":false,"media_type":"Text","formats":{"text/html":"https://www.gutenberg.org/ebooks/71568.html.images","application/epub+zip":"https://www.gutenberg.org/ebooks/71568.epub3.images","application/x-mobipocket-ebook":"https://www.gutenberg.org/ebooks/71568.kf8.images","text/plain; charset=us-ascii":"https://www.gutenberg.org/ebooks/71568.txt.utf-8","application/rdf+xml":"https://www.gutenberg.org/ebooks/71568.rdf","image/jpeg":"https://www.gutenberg.org/cache/epub/71568/pg71568.cover.medium.jpg","application/octet-stream":"https://www.gutenberg.org/files/71568/71568-h.zip"},"download_count":34},{"id":71708,"title":"The Bird boys : $b Or, the young sky pilots' first air voyage","authors":[{"name":"Langworthy, John Luther","birth_year":null,"death_year":null}],"translators":[],"subjects":["Aeronautics -- Juvenile fiction"],"bookshelves":[],"languages":["en"],"copyright":false,"media_type":"Text","formats":{"text/html":"https://www.gutenberg.org/ebooks/71708.html.images","application/epub+zip":"https://www.gutenberg.org/ebooks/71708.epub3.images","application/x-mobipocket-ebook":"https://www.gutenberg.org/ebooks/71708.kf8.images","text/plain; charset=us-ascii":"https://www.gutenberg.org/ebooks/71708.txt.utf-8","application/rdf+xml":"https://www.gutenberg.org/ebooks/71708.rdf","image/jpeg":"https://www.gutenberg.org/cache/epub/71708/pg71708.cover.medium.jpg","application/octet-stream":"https://www.gutenberg.org/files/71708/71708-h.zip"},"download_count":34},{"id":71760,"title":"Aunt Milly's diamonds","authors":[{"name":"Lamb, Ruth","birth_year":1829,"death_year":1916}],"translators":[],"subjects":["Aunts -- Juvenile fiction","Children -- Conduct of life -- Juvenile fiction","Christian life -- Juvenile fiction","Christmas -- Juvenile fiction","Conduct of life -- Juvenile fiction","Diamonds -- Juvenile fiction","Grandparents -- Juvenile fiction"],"bookshelves":[],"languages":["en"],"copyright":false,"media_type":"Text","formats":{"text/html":"https://www.gutenberg.org/ebooks/71760.html.images","application/epub+zip":"https://www.gutenberg.org/ebooks/71760.epub3.images","application/x-mobipocket-ebook":"https://www.gutenberg.org/ebooks/71760.kf8.images","text/plain; charset=us-ascii":"https://www.gutenberg.org/ebooks/71760.txt.utf-8","application/rdf+xml":"https://www.gutenberg.org/ebooks/71760.rdf","image/jpeg":"https://www.gutenberg.org/cache/epub/71760/pg71760.cover.medium.jpg","application/octet-stream":"https://www.gutenberg.org/files/71760/71760-h.zip"},"download_count":34}]}