{"count":58808,"next":"http://129.241.150.113:8000/books/?languages=en&page=1708","previous":"http://129.241.150.113:8000/books/?languages=en&page=1706","results":[{"id":5695,"title":"Jim Cummings; Or, The Great Adams Express Robbery","authors":[{"name":"Pinkerton, A. Frank","birth_year":null,"death_year":null}],"translators":[],"subjects":["Mystery and detective stories","Train robberies -- United States -- Fiction"],"bookshelves":[],"languages":["en"],"copyright":false,"media_type":"Text","formats":{"text/html":"https://www.gutenberg.org/ebooks/5695.html.images","application/epub+zip":"https://www.gutenberg.org/ebooks/5695.epub3.images","application/x-mobipocket-ebook":"https://www.gutenberg.org/ebooks/5695.kf8.images","text/plain; charset=us-ascii":"https://www.gutenberg.org/ebooks/5695.txt.utf-8","application/rdf+xml":"https://www.gutenberg.org/ebooks/5695.rdf","image/jpeg":"https://www.gutenberg.org/cache/epub/5695/pg5695.cover.medium.jpg","application/octet-stream":"https://www.gutenberg.org/cache/epub/5695/pg5695-h.zip"},"download_count":17},{"id":5732,"title":"Bunny Brown and His Sister Sue","authors":[{"name":"Hope, Laura Lee","birth_year":null,"death_year":null}],"translators":[],"subjects":["Brown, Bunny (Fictitious character) -- Juvenile fiction","Siblings -- Juvenile fiction"],"bookshelves":["Children's Book Series"],"languages":["en"],"copyright":false,"media_type":"Text","formats":{"text/html":"https://www.gutenberg.org/ebooks/5732.html.images","application/epub+zip":"https://www.gutenberg.org/ebooks/5732.epub3.images","application/x-mobipocket-ebook":"https://www.gutenberg.org/ebooks/5732.kf8.images","text/plain; charset=us-ascii":"https://www.gutenberg.org/ebooks/5732.txt.utf-8","application/rdf+xml":"https://www.gutenberg.org/ebooks/5732.rdf","image/jpeg":"https://www.gutenberg.org/cache/epub/5732/pg5732.cover.medium.jpg","application/octet-stream":"https://www.gutenberg.org/cache/epub/5732/pg5732-h.zip"},"download_count":17},{"id":5796,"title":"Journeys Through Bookland, Vol. 2","authors":[{"name":"Sylvester, Charles Herbert","birth_year":null,"death_year":null}],"translators":[],"subjects":["Children's literature","Literature -- Collections"],"bookshelves":["Children's Anthologies"],"languages":["en"],"copyright":false,"media_type":"Text","formats":{"text/html":"https://www.gutenberg.org/ebooks/5796.html.images","application/epub+zip":"https://www.gutenberg.org/ebooks/5796.epub3.images","application/x-mobipocket-ebook":"https://www.gutenberg.org/ebooks/5796.kf8.images","text/plain; charset=us-ascii":"https://www.gutenberg.org/ebooks/5796.txt.utf-8","application/rdf+xml":"https://www.gutenberg.org/ebooks/5796.rdf","image/jpeg":"https://www.gutenberg.org/cache/epub/5796/pg5796.cover.medium.jpg","application/octet-stream":"https://www.gutenberg.org/cache/epub/5796/pg5796-h.zip"},"download_count":17},{"id":5818,"title":"The Gilded Age, Part 1.","authors":[{"name":"Twain, Mark","birth_year":1835,"death_year":1910},{"name":"Warner, Charles Dudley","birth_year":1829,"death_year":1900}],"translators":[],"subjects":["Businessmen -- Fiction","Legislators -- Fiction","Political corruption -- Fiction","Political fiction","Satire","Speculation -- Fiction","Washington (D.C.) -- Fiction"],"bookshelves":[],"languages":["en"],"copyright":false,"media_type":"Text","formats":{"text/html":"https://www.gutenberg.org/ebooks/5818.html.images","text/html; charset=iso-8859-1":"https://www.gutenberg.org/files/5818/5818-h/5818-h.htm","application/epub+zip":"https://www.gutenberg.org/ebooks/5818.epub3.images","application/x-mobipocket-ebook":"https://www.gutenberg.org/ebooks/5818.kf8.images","text/plain; charset=us-ascii":"https://www.gutenberg.org/ebooks/5818.txt.utf-8","application/rdf+xml":"https://www.gutenberg.org/ebooks/5818.rdf","image/jpeg":"https://www.gutenberg.org/cache/epub/5818/pg5818.cover.medium.jpg","application/octet-stream":"https://www.gutenberg.org/cache/epub/5818/pg5818-h.zip"},"download_count":17},{"id":5842,"title":"Sketches New and Old, Part 7.","authors":[{"name":"Twain, Mark","birth_year":1835,"death_year":1910}],"translators":[],"subjects":["Humorous stories, American","United States -- Social life and customs -- Fiction"],"bookshelves":[],"languages":["en"],"copyright":false,"media_type":"Text","formats":{"text/html":"https://www.gutenberg.org/ebooks/5842.html.images","text/html; charset=iso-8859-1":"https://www.gutenberg.org/files/5842/5842-h/5842-h.htm","application/epub+zip":"https://www.gutenberg.org/ebooks/5842.epub3.images","application/x-mobipocket-ebook":"https://www.gutenberg.org/ebooks/5842.kf8.images","text/plain; charset=us-ascii":"https://www.gutenberg.org/ebooks/5842.txt.utf-8","application/rdf+xml":"https://www.gutenberg.org/ebooks/5842.rdf","image/jpeg":"https://www.gutenberg.org/cache/epub/5842/pg5842.cover.medium.jpg","application/octet-stream":"https://www.gutenberg.org/cache/epub/5842/pg5842-h.zip"},"download_count":17},{"id":5845,"title":"The Story of a Calico Clown","authors":[{"name":"Hope, Laura Lee","birth_year":null,"death_year":null}],"translators":[],"subjects":["Toys -- Juvenile fiction"],"bookshelves":[],"languages":["en"],"copyright":false,"media_type":"Text","formats":{"text/html":"https://www.gutenberg.org/ebooks/5845.html.images","application/epub+zip":"https://www.gutenberg.org/ebooks/5845.epub3.images","application/x-mobipocket-ebook":"https://www.gutenberg.org/ebooks/5845.kf8.images","text/plain; charset=us-ascii":"https://www.gutenberg.org/ebooks/5845.txt.utf-8","application/rdf+xml":"https://www.gutenberg.org/ebooks/5845.rdf","image/jpeg":"https://www.gutenberg.org/cache/epub/5845/pg5845.cover.medium.jpg","application/octet-stream":"https://www.gutenberg.org/cache/epub/5845/pg5845-h.zip"},"download_count":17},{"id":5862,"title":"Personal Memoirs of U. S. Grant, Part 3.","authors":[{"name":"Grant, Ulysses S. (Ulysses Simpson)","birth_year":1822,"death_year":1885}],"translators":[],"subjects":["Generals -- United States -- Biography","Grant, Ulysses S. (Ulysses Simpson), 1822-1885","Mexican War, 1846-1848 -- Personal narratives","United States -- History -- Civil War, 1861-1865 -- Campaigns","United States -- History -- Civil War, 1861-1865 -- Personal narratives","United States. Army -- Biography"],"bookshelves":["US Civil War"],"languages":["en"],"copyright":false,"media_type":"Text","formats":{"text/html":"https://www.gutenberg.org/ebooks/5862.html.images","text/html; charset=iso-8859-1":"https://www.gutenberg.org/files/5862/5862-h/5862-h.htm","application/epub+zip":"https://www.gutenberg.org/ebooks/5862.epub3.images","application/x-mobipocket-ebook":"https://www.gutenberg.org/ebooks/5862.kf8.images","text/plain; charset=us-ascii":"https://www.gutenberg.org/ebooks/5862.txt.utf-8","application/rdf+xml":"https://www.gutenberg.org/ebooks/5862.rdf","image/jpeg":"https://www.gutenberg.org/cache/epub/5862/pg5862.cover.medium.jpg","application/octet-stream":"https://www.gutenberg.org/cache/epub/5862/pg5862-h.zip"},"download_count":17},{"id":5990,"title":"Rosamond, or, the Youthful Error: A Tale of Riverside; And Other Stories","authors":[{"name":"Holmes, Mary Jane","birth_year":1825,"death_year":1907}],"translators":[],"subjects":["Fiction"],"bookshelves":[],"languages":["en"],"copyright":false,"media_type":"Text","formats":{"text/html":"https://www.gutenberg.org/ebooks/5990.html.images","application/epub+zip":"https://www.gutenberg.org/ebooks/5990.epub3.images","application/x-mobipocket-ebook":"https://www.gutenberg.org/ebooks/5990.kf8.images","text/plain; charset=us-ascii":"https://www.gutenberg.org/ebooks/5990.txt.utf-8","application/rdf+xml":"https://www.gutenberg.org/ebooks/5990.rdf","image/jpeg":"https://www.gutenberg.org/cache/epub/5990/pg5990.cover.medium.jpg","application/octet-stream":"https://www.gutenberg.org/cache/epub/5990/pg5990-h.zip"},"download_count":17},{"id":6244,"title":"The Right of Way — Volume 02","authors":[{"name":"Parker, Gilbert","birth_year":1862,"death_year":1932}],"translators":[],"subjects":["Canadian fiction"],"bookshelves":["Bestsellers, American, 1895-1923"],"languages":["en"],"copyright":false,"media_type":"Text","formats":{"text/html":"https://www.gutenberg.org/ebooks/6244.html.images","application/epub+zip":"https://www.gutenberg.org/ebooks/6244.epub3.images","application/x-mobipocket-ebook":"https://www.gutenberg.org/ebooks/6244.kf8.images","text/plain; charset=us-ascii":"https://www.gutenberg.org/ebooks/6244.txt.utf-8","application/rdf+xml":"https://www.gutenberg.org/ebooks/6244.rdf","image/jpeg":"https://www.gutenberg.org/cache/epub/6244/pg6244.cover.medium.jpg","application/octet-stream":"https://www.gutenberg.org/cache/epub/6244/pg6244-h.zip"},"download_count":17},{"id":6250,"title":"Michel and Angele [A Ladder of Swords] — Volume 1","authors":[{"name":"Parker, Gilbert","birth_year":1862,"death_year":1932}],"translators":[],"subjects":["Great Britain -- History -- Elizabeth, 1558-1603 -- Fiction","Huguenots -- Fiction","Jersey (Channel Islands) -- Fiction"],"bookshelves":[],"languages":["en"],"copyright":false,"media_type":"Text","formats":{"text/html":"https://www.gutenberg.org/ebooks/6250.html.images","application/epub+zip":"https://www.gutenberg.org/ebooks/6250.epub3.images","application/x-mobipocket-ebook":"https://www.gutenberg.org/ebooks/6250.kf8.images","text/plain; charset=us-ascii":"https://www.gutenberg.org/ebooks/6250.txt.utf-8","application/rdf+xml":"https://www.gutenberg.org/ebooks/6250.rdf","image/jpeg":"https://www.gutenberg.org/cache/epub/6250/pg6250.cover.medium.jpg","application/octet-stream":"https://www.gutenberg.org/cache/epub/6250/pg6250-h.zip"},"download_count":17},{"id":6264,"title":"The Weavers: a tale of England and Egypt of fifty years ago - Volume 4","authors":[{"name":"Parker, Gilbert","birth_year":1862,"death_year":1932}],"translators":[],"subjects":["Society of Friends -- Fiction"],"bookshelves":["Bestsellers, American, 1895-1923"],"languages":["en"],"copyright":false,"media_type":"Text","formats":{"text/html":"https://www.gutenberg.org/ebooks/6264.html.images","application/epub+zip":"https://www.gutenberg.org/ebooks/6264.epub3.images","application/x-mobipocket-ebook":"https://www.gutenberg.org/ebooks/6264.kf8.images","text/plain; charset=us-ascii":"https://www.gutenberg.org/ebooks/6264.txt.utf-8","application/rdf+xml":"https://www.gutenberg.org/ebooks/6264.rdf","image/jpeg":"https://www.gutenberg.org/cache/epub/6264/pg6264.cover.medium.jpg","application/octet-stream":"https://www.gutenberg.org/cache/epub/6264/pg6264-h.zip"},"download_count":17},{"id":6266,"title":"The Weavers: a tale of England and Egypt of fifty years ago - Volume 6","authors":[{"name":"Parker, Gilbert","birth_year":1862,"death_year":1932}],"translators":[],"subjects":["Society of Friends -- Fiction"],"bookshelves":["Bestsellers, American, 1895-1923"],"languages":["en"],"copyright":false,"media_type":"Text","formats":{"text/html":"https://www.gutenberg.org/ebooks/6266.html.images","application/epub+zip":"https://www.gutenberg.org/ebooks/6266.epub3.images","application/x-mobipocket-ebook":"https://www.gutenberg.org/ebooks/6266.kf8.images","text/plain; charset=us-ascii":"https://www.gutenberg.org/ebooks/6266.txt.utf-8","application/rdf+xml":"https://www.gutenberg.org/ebooks/6266.rdf","image/jpeg":"https://www.gutenberg.org/cache/epub/6266/pg6266.cover.medium.jpg","application/octet-stream":"https://www.gutenberg.org/cache/epub/6266/pg6266-h.zip"},"download_count":17},{"id":6270,"title":"Embers, Volume 3.","authors":[{"name":"Parker, Gilbert","birth_year":1862,"death_year":1932}],"translators":[],"subjects":["Canadian poetry"],"bookshelves":[],"languages":["en"],"copyright":false,"media_type":"Text","formats":{"text/html":"https://www.gutenberg.org/ebooks/6270.html.images","application/epub+zip":"https://www.gutenberg.org/ebooks/6270.epub3.images","application/x-mobipocket-ebook":"https://www.gutenberg.org/ebooks/6270.kf8.images","text/plain; charset=us-ascii":"https://www.gutenberg.org/ebooks/6270.txt.utf-8","application/rdf+xml":"https://www.gutenberg.org/ebooks/6270.rdf","image/jpeg":"https://www.gutenberg.org/cache/epub/6270/pg6270.cover.medium.jpg","application/octet-stream":"https://www.gutenberg.org/cache/epub/6270/pg6270-h.zip"},"download_count":17},{"id":6296,"title":"Carnac's Folly, Volume 1.","authors":[{"name":"Parker, Gilbert","birth_year":1862,"death_year":1932}],"translators":[],"subjects":["Fiction"],"bookshelves":[],"languages":["en"],"copyright":false,"media_type":"Text","formats":{"text/html":"https://www.gutenberg.org/ebooks/6296.html.images","application/epub+zip":"https://www.gutenberg.org/ebooks/6296.epub3.images","application/x-mobipocket-ebook":"https://www.gutenberg.org/ebooks/6296.kf8.images","text/plain; charset=us-ascii":"https://www.gutenberg.org/ebooks/6296.txt.utf-8","application/rdf+xml":"https://www.gutenberg.org/ebooks/6296.rdf","image/jpeg":"https://www.gutenberg.org/cache/epub/6296/pg6296.cover.medium.jpg","application/octet-stream":"https://www.gutenberg.org/cache/epub/6296/pg6296-h.zip"},"download_count":17},{"id":6336,"title":"The Misuse of Mind","authors":[{"name":"Stephen, Karin","birth_year":1889,"death_year":1953}],"translators":[],"subjects":["Bergson, Henri, 1859-1941","Knowledge, Theory of"],"bookshelves":[],"languages":["en"],"copyright":false,"media_type":"Text","formats":{"text/html":"https://www.gutenberg.org/ebooks/6336.html.images","text/html; charset=utf-8":"https://www.gutenberg.org/files/6336/6336-h/6336-h.htm","application/epub+zip":"https://www.gutenberg.org/ebooks/6336.epub3.images","application/x-mobipocket-ebook":"https://www.gutenberg.org/ebooks/6336.kf8.images","text/plain; charset=us-ascii":"https://www.gutenberg.org/ebooks/6336.txt.utf-8","text/plain; charset=utf-8":"https://www.gutenberg.org/files/6336/6336-0.txt","application/rdf+xml":"https://www.gutenberg.org/ebooks/6336.rdf","image/jpeg":"https://www.gutenberg.org/cache/epub/6336/pg6336.cover.medium.jpg","application/octet-stream":"https://www.gutenberg.org/cache/epub/6336/pg6336-h.zip"},"download_count":17},{"id":6337,"title":"The Boy Allies under Two Flags","authors":[{"name":"Hayes, Clair W. (Clair Wallace)","birth_year":1887,"death_year":null}],"translators":[],"subjects":["World War, 1914-1918 -- Naval operations -- Juvenile fiction"],"bookshelves":["Children's Book Series"],"languages":["en"],"copyright":false,"media_type":"Text","formats":{"text/html":"https://www.gutenberg.org/ebooks/6337.html.images","application/epub+zip":"https://www.gutenberg.org/ebooks/6337.epub3.images","application/x-mobipocket-ebook":"https://www.gutenberg.org/ebooks/6337.kf8.images","text/plain; charset=us-ascii":"https://www.gutenberg.org/ebooks/6337.txt.utf-8","application/rdf+xml":"https://www.gutenberg.org/ebooks/6337.rdf","image/jpeg":"https://www.gutenberg.org/cache/epub/6337/pg6337.cover.medium.jpg","application/octet-stream":"https://www.gutenberg.org/cache/epub/6337/pg6337-h.zip"},"download_count":17},{"id":6350,"title":"Via Crucis: A Romance of the Second Crusade","authors":[{"name":"Crawford, F. Marion (Francis Marion)","birth_year":1854,"death_year":1909}],"translators":[],"subjects":["Crusades -- Second, 1147-1149 -- Fiction"],"bookshelves":[],"languages":["en"],"copyright":false,"media_type":"Text","formats":{"text/html":"https://www.gutenberg.org/ebooks/6350.html.images","application/epub+zip":"https://www.gutenberg.org/ebooks/6350.epub3.images","application/x-mobipocket-ebook":"https://www.gutenberg.org/ebooks/6350.kf8.images","text/plain; charset=us-ascii":"https://www.gutenberg.org/ebooks/6350.txt.utf-8","application/rdf+xml":"https://www.gutenberg.org/ebooks/6350.rdf","image/jpeg":"https://www.gutenberg.org/cache/epub/6350/pg6350.cover.medium.jpg","application/octet-stream":"https://www.gutenberg.org/cache/epub/6350/pg6350-h.zip"},"download_count":17},{"id":6370,"title":"The Story of the Odyssey","authors":[{"name":"Homer","birth_year":-750,"death_year":-650},{"name":"Church, Alfred John","birth_year":1829,"death_year":1912}],"translators":[],"subjects":["Odysseus, King of Ithaca (Mythological character) -- Juvenile literature"],"bookshelves":[],"languages":["en"],"copyright":false,"media_type":"Text","formats":{"text/html":"https://www.gutenberg.org/ebooks/6370.html.images","application/epub+zip":"https://www.gutenberg.org/ebooks/6370.epub3.images","application/x-mobipocket-ebook":"https://www.gutenberg.org/ebooks/6370.kf8.images","text/plain; charset=us-ascii":"https://www.gutenberg.org/ebooks/6370.txt.utf-8","application/rdf+xml":"https://www.gutenberg.org/ebooks/6370.rdf","image/jpeg":"https://www.gutenberg.org/cache/epub/6370/pg6370.cover.medium.jpg","application/octet-stream":"https://www.gutenberg.org/cache/epub/6370/pg6370-h.zip"},"download_count":17},{"id":6473,"title":"Practical Argumentation","authors":[{"name":"Pattee, George K. (George Kynett)","birth_year":1879,"death_year":1926}],"translators":[],"subjects":["Debates and debating"],"bookshelves":[],"languages":["en"],"copyright":false,"media_type":"Text","formats":{"text/html":"https://www.gutenberg.org/ebooks/6473.html.images","application/epub+zip":"https://www.gutenberg.org/ebooks/6473.epub3.images","application/x-mobipocket-ebook":"https://www.gutenberg.org/ebooks/6473.kf8.images","text/plain; charset=us-ascii":"https://www.gutenberg.org/ebooks/6473.txt.utf-8","application/rdf+xml":"https://www.gutenberg.org/ebooks/6473.rdf","image/jpeg":"https://www.gutenberg.org/cache/epub/6473/pg6473.cover.medium.jpg","application/octet-stream":"https://www.gutenberg.org/cache/epub/6473/pg6473-h.zip"},"download_count":17},{"id":6502,"title":"The Acadian Exiles : a Chronicle of the Land of Evangeline","authors":[{"name":"Doughty, Arthur G. (Arthur George), Sir","birth_year":1860,"death_year":1936}],"translators":[],"subjects":["Acadia","Nova Scotia -- History"],"bookshelves":[],"languages":["en"],"copyright":false,"media_type":"Text","formats":{"text/html":"https://www.gutenberg.org/ebooks/6502.html.images","application/epub+zip":"https://www.gutenberg.org/ebooks/6502.epub3.images","application/x-mobipocket-ebook":"https://www.gutenberg.org/ebooks/6502.kf8.images","text/plain; charset=us-ascii":"https://www.gutenberg.org/ebooks/6502.txt.utf-8","application/rdf+xml":"https://www.gutenberg.org/ebooks/6502.rdf","image/jpeg":"https://www.gutenberg.org/cache/epub/6502/pg6502.cover.medium.jpg","application/octet-stream":"https://www.gutenberg.org/cache/epub/6502/pg6502-h.zip"},"download_count":17},{"id":6554,"title":"Penrod","authors":[{"name":"Tarkington, Booth","birth_year":1869,"death_year":1946}],"translators":[],"subjects":["Bildungsromans","Boys -- Fiction","Humorous stories","Middle West -- Fiction"],"bookshelves":["Bestsellers, American, 1895-1923"],"languages":["en"],"copyright":true,"media_type":"Sound","formats":{"text/plain; charset=us-ascii":"https://www.gutenberg.org/files/6554/6554-readme.txt","text/html; charset=iso-8859-1":"https://www.gutenberg.org/files/6554/6554-index.htm","audio/mpeg":"https://www.gutenberg.org/files/6554/mp3/6554-3.mp3","application/rdf+xml":"https://www.gutenberg.org/ebooks/6554.rdf"},"download_count":17},{"id":6609,"title":"Myths and Legends of Our Own Land — Volume 04 : Tales of Puritan Land","authors":[{"name":"Skinner, Charles M. (Charles Montgomery)","birth_year":1852,"death_year":1907}],"translators":[],"subjects":["Folklore -- United States"],"bookshelves":[],"languages":["en"],"copyright":false,"media_type":"Text","formats":{"text/html":"https://www.gutenberg.org/ebooks/6609.html.images","application/epub+zip":"https://www.gutenberg.org/ebooks/6609.epub3.images","application/x-mobipocket-ebook":"https://www.gutenberg.org/ebooks/6609.kf8.images","text/plain; charset=us-ascii":"https://www.gutenberg.org/ebooks/6609.txt.utf-8","application/rdf+xml":"https://www.gutenberg.org/ebooks/6609.rdf","image/jpeg":"https://www.gutenberg.org/cache/epub/6609/pg6609.cover.medium.jpg","application/octet-stream":"https://www.gutenberg.org/cache/epub/6609/pg6609-h.zip"},"download_count":17},{"id":6705,"title":"Mrs. Shelley","authors":[{"name":"Rossetti, Lucy Madox Brown","birth_year":1843,"death_year":1894}],"translators":[],"subjects":["Authors, English -- 19th century -- Biography","Shelley, Mary Wollstonecraft, 1797-1851","Women and literature -- England -- History -- 19th century"],"bookshelves":[],"languages":["en"],"copyright":false,"media_type":"Text","formats":{"text/html":"https://www.gutenberg.org/ebooks/6705.html.images","application/epub+zip":"https://www.gutenberg.org/ebooks/6705.epub3.images","application/x-mobipocket-ebook":"https://www.gutenberg.org/ebooks/6705.kf8.images","text/plain; charset=us-ascii":"https://www.gutenberg.org/ebooks/6705.txt.utf-8","text/plain; charset=iso-8859-1":"https://www.gutenberg.org/files/6705/6705-8.txt","application/rdf+xml":"https://www.gutenberg.org/ebooks/6705.rdf","image/jpeg":"https://www.gutenberg.org/cache/epub/6705/pg6705.cover.medium.jpg","application/octet-stream":"https://www.gutenberg.org/cache/epub/6705/pg6705-h.zip"},"download_count":17},{"id":6732,"title":"A Lady's Life on a Farm in Manitoba","authors":[{"name":"Hall, M. G. C. (Mary Georgina Caroline)","birth_year":null,"death_year":null}],"translators":[],"subjects":["Frontier and pioneer life -- Manitoba","Manitoba -- Description and travel"],"bookshelves":[],"languages":["en"],"copyright":false,"media_type":"Text","formats":{"text/html":"https://www.gutenberg.org/ebooks/6732.html.images","application/epub+zip":"https://www.gutenberg.org/ebooks/6732.epub3.images","application/x-mobipocket-ebook":"https://www.gutenberg.org/ebooks/6732.kf8.images","text/plain; charset=us-ascii":"https://www.gutenberg.org/ebooks/6732.txt.utf-8","application/rdf+xml":"https://www.gutenberg.org/ebooks/6732.rdf","image/jpeg":"https://www.gutenberg.org/cache/epub/6732/pg6732.cover.medium.jpg","application/octet-stream":"https://www.gutenberg.org/cache/epub/6732/pg6732-h.zip"},"download_count":17},{"id":6767,"title":"Formation of the Union, 1750-1829","authors":[{"name":"Hart, Albert Bushnell","birth_year":1854,"death_year":1943}],"translators":[],"subjects":["United States -- History","United States -- Politics and government"],"bookshelves":[],"languages":["en"],"copyright":false,"media_type":"Text","formats":{"text/html":"https://www.gutenberg.org/ebooks/6767.html.images","application/epub+zip":"https://www.gutenberg.org/ebooks/6767.epub3.images","application/x-mobipocket-ebook":"https://www.gutenberg.org/ebooks/6767.kf8.images","text/plain; charset=us-ascii":"https://www.gutenberg.org/ebooks/6767.txt.utf-8","text/plain; charset=iso-8859-1":"https://www.gutenberg.org/files/6767/6767-8.txt","application/rdf+xml":"https://www.gutenberg.org/ebooks/6767.rdf","image/jpeg":"https://www.gutenberg.org/cache/epub/6767/pg6767.cover.medium.jpg","application/octet-stream":"https://www.gutenberg.org/cache/epub/6767/pg6767-h.zip"},"download_count":17},{"id":6774,"title":"The Thirty Years War — Volume 05","authors":[{"name":"Schiller, Friedrich","birth_year":1759,"death_year":1805}],"translators":[],"subjects":["Thirty Years' War, 1618-1648"],"bookshelves":[],"languages":["en"],"copyright":false,"media_type":"Text","formats":{"text/html":"https://www.gutenberg.org/ebooks/6774.html.images","application/epub+zip":"https://www.gutenberg.org/ebooks/6774.epub3.images","application/x-mobipocket-ebook":"https://www.gutenberg.org/ebooks/6774.kf8.images","text/plain; charset=us-ascii":"https://www.gutenberg.org/ebooks/6774.txt.utf-8","application/rdf+xml":"https://www.gutenberg.org/ebooks/6774.rdf","image/jpeg":"https://www.gutenberg.org/cache/epub/6774/pg6774.cover.medium.jpg","application/octet-stream":"https://www.gutenberg.org/cache/epub/6774/pg6774-h.zip"},"download_count":17},{"id":6777,"title":"History of the Revolt of the Netherlands — Volume 02","authors":[{"name":"Schiller, Friedrich","birth_year":1759,"death_year":1805}],"translators":[],"subjects":["Huguenots","Netherlands -- History -- Eighty Years' War, 1568-1648"],"bookshelves":[],"languages":["en"],"copyright":false,"media_type":"Text","formats":{"text/html":"https://www.gutenberg.org/ebooks/6777.html.images","application/epub+zip":"https://www.gutenberg.org/ebooks/6777.epub3.images","application/x-mobipocket-ebook":"https://www.gutenberg.org/ebooks/6777.kf8.images","text/plain; charset=us-ascii":"https://www.gutenberg.org/ebooks/6777.txt.utf-8","application/rdf+xml":"https://www.gutenberg.org/ebooks/6777.rdf","image/jpeg":"https://www.gutenberg.org/cache/epub/6777/pg6777.cover.medium.jpg","application/octet-stream":"https://www.gutenberg.org/cache/epub/6777/pg6777-h.zip"},"download_count":17},{"id":6855,"title":"Ideala","authors":[{"name":"Grand, Sarah","birth_year":1854,"death_year":1943}],"translators":[],"subjects":["Feminists -- England -- Fiction"],"bookshelves":[],"languages":["en"],"copyright":false,"media_type":"Text","formats":{"text/html":"https://www.gutenberg.org/ebooks/6855.html.images","application/epub+zip":"https://www.gutenberg.org/ebooks/6855.epub3.images","application/x-mobipocket-ebook":"https://www.gutenberg.org/ebooks/6855.kf8.images","text/plain; charset=us-ascii":"https://www.gutenberg.org/ebooks/6855.txt.utf-8","text/plain; charset=iso-8859-1":"https://www.gutenberg.org/files/6855/6855.txt","application/rdf+xml":"https://www.gutenberg.org/ebooks/6855.rdf","image/jpeg":"https://www.gutenberg.org/cache/epub/6855/pg6855.cover.medium.jpg","application/octet-stream":"https://www.gutenberg.org/cache/epub/6855/pg6855-h.zip"},"download_count":17},{"id":6972,"title":"Lays from the West","authors":[{"name":"Nicholl, M. A.","birth_year":null,"death_year":null}],"translators":[],"subjects":["Canadian poetry"],"bookshelves":[],"languages":["en"],"copyright":false,"media_type":"Text","formats":{"text/html":"https://www.gutenberg.org/ebooks/6972.html.images","application/epub+zip":"https://www.gutenberg.org/ebooks/6972.epub3.images","application/x-mobipocket-ebook":"https://www.gutenberg.org/ebooks/6972.kf8.images","text/plain; charset=us-ascii":"https://www.gutenberg.org/ebooks/6972.txt.utf-8","text/plain; charset=utf-8":"https://www.gutenberg.org/files/6972/6972-0.txt","application/rdf+xml":"https://www.gutenberg.org/ebooks/6972.rdf","image/jpeg":"https://www.gutenberg.org/cache/epub/6972/pg6972.cover.medium.jpg","application/octet-stream":"https://www.gutenberg.org/cache/epub/6972/pg6972-h.zip"},"download_count":17},{"id":7034,"title":"Fleurs De Lys, and Other Poems","authors":[{"name":"Weir, Arthur","birth_year":1864,"death_year":1902}],"translators":[],"subjects":["Canadian poetry -- 19th century"],"bookshelves":[],"languages":["en"],"copyright":false,"media_type":"Text","formats":{"text/html":"https://www.gutenberg.org/ebooks/7034.html.images","application/epub+zip":"https://www.gutenberg.org/ebooks/7034.epub3.images","application/x-mobipocket-ebook":"https://www.gutenberg.org/ebooks/7034.kf8.images","text/plain; charset=us-ascii":"https://www.gutenberg.org/ebooks/7034.txt.utf-8","text/plain; charset=iso-8859-1":"https://www.gutenberg.org/files/7034/7034-8.txt","application/rdf+xml":"https://www.gutenberg.org/ebooks/7034.rdf","image/jpeg":"https://www.gutenberg.org/cache/epub/7034/pg7034.cover.medium.jpg","application/octet-stream":"https://www.gutenberg.org/cache/epub/7034/pg7034-h.zip"},"download_count":17},{"id":7056,"title":"Along the Shore","authors":[{"name":"Lathrop, Rose Hawthorne","birth_year":1851,"death_year":1926}],"translators":[],"subjects":["American poetry -- 19th century"],"bookshelves":[],"languages":["en"],"copyright":false,"media_type":"Text","formats":{"text/html":"https://www.gutenberg.org/ebooks/7056.html.images","text/html; charset=iso-8859-1":"https://www.gutenberg.org/files/7056/7056-h/7056-h.htm","application/epub+zip":"https://www.gutenberg.org/ebooks/7056.epub3.images","application/x-mobipocket-ebook":"https://www.gutenberg.org/ebooks/7056.kf8.images","text/plain; charset=us-ascii":"https://www.gutenberg.org/ebooks/7056.txt.utf-8","text/plain; charset=iso-8859-1":"https://www.gutenberg.org/files/7056/7056-8.txt","application/rdf+xml":"https://www.gutenberg.org/ebooks/7056.rdf","image/jpeg":"https://www.gutenberg.org/cache/epub/7056/pg7056.cover.medium.jpg","application/octet-stream":"https://www.gutenberg.org/cache/epub/7056/pg7056-h.zip"},"download_count":17},{"id":7147,"title":"The French in the Heart of America","authors":[{"name":"Finley, John H. (John Huston)","birth_year":1863,"death_year":1940}],"translators":[],"subjects":["Canada -- History -- To 1763 (New France)","French -- North America","Mississippi River Valley -- History"],"bookshelves":[],"languages":["en"],"copyright":false,"media_type":"Text","formats":{"text/html":"https://www.gutenberg.org/ebooks/7147.html.images","application/epub+zip":"https://www.gutenberg.org/ebooks/7147.epub3.images","application/x-mobipocket-ebook":"https://www.gutenberg.org/ebooks/7147.kf8.images","text/plain; charset=us-ascii":"https://www.gutenberg.org/ebooks/7147.txt.utf-8","text/plain; charset=iso-8859-1":"https://www.gutenberg.org/files/7147/7147-8.txt","application/rdf+xml":"https://www.gutenberg.org/ebooks/7147.rdf","image/jpeg":"https://www.gutenberg.org/cache/epub/7147/pg7147.cover.medium.jpg","application/octet-stream":"https://www.gutenberg.org/cache/epub/7147/pg7147-h.zip"},"download_count":17}]}