{"count":58808,"next":"http://129.241.150.113:8000/books/?languages=en&page=1507","previous":"http://129.241.150.113:8000/books/?languages=en&page=1505","results":[{"id":8612,"title":"Through Space to Mars; Or, the Longest Journey on Record","authors":[{"name":"Rockwood, Roy","birth_year":null,"death_year":null}],"translators":[],"subjects":["Science fiction","Space flight to Mars -- Juvenile fiction"],"bookshelves":["Science Fiction"],"languages":["en"],"copyright":true,"media_type":"Sound","formats":{"text/plain; charset=us-ascii":"https://www.gutenberg.org/files/8612/8612-readme.txt","text/html; charset=iso-8859-1":"https://www.gutenberg.org/files/8612/8612-index.htm","audio/mpeg":"https://www.gutenberg.org/files/8612/mp3/8612-000.mp3","application/rdf+xml":"https://www.gutenberg.org/ebooks/8612.rdf","application/octet-stream":"https://www.gutenberg.org/files/8612/8612-mp3.zip"},"download_count":23},{"id":8638,"title":"Jack in the Forecastle; or, Incidents in the Early Life of Hawser Martingale","authors":[{"name":"Sleeper, John Sherburne","birth_year":1794,"death_year":1878}],"translators":[],"subjects":["Seafaring life"],"bookshelves":[],"languages":["en"],"copyright":false,"media_type":"Text","formats":{"text/html":"https://www.gutenberg.org/ebooks/8638.html.images","text/html; charset=us-ascii":"https://www.gutenberg.org/files/8638/8638-h/8638-h.htm","application/epub+zip":"https://www.gutenberg.org/ebooks/8638.epub3.images","application/x-mobipocket-ebook":"https://www.gutenberg.org/ebooks/8638.kf8.images","text/plain; charset=us-ascii":"https://www.gutenberg.org/ebooks/8638.txt.utf-8","application/rdf+xml":"https://www.gutenberg.org/ebooks/8638.rdf","image/jpeg":"https://www.gutenberg.org/cache/epub/8638/pg8638.cover.medium.jpg","application/octet-stream":"https://www.gutenberg.org/cache/epub/8638/pg8638-h.zip"},"download_count":23},{"id":8722,"title":"The Three Cities Trilogy: Rome, Volume 2","authors":[{"name":"Zola, Émile","birth_year":1840,"death_year":1902}],"translators":[{"name":"Vizetelly, Ernest Alfred","birth_year":1853,"death_year":1922}],"subjects":["Catholics -- Fiction","Christian pilgrims and pilgrimages -- Fiction","Clergy -- Fiction","Rome (Italy) -- Fiction"],"bookshelves":[],"languages":["en"],"copyright":false,"media_type":"Text","formats":{"text/html":"https://www.gutenberg.org/ebooks/8722.html.images","application/epub+zip":"https://www.gutenberg.org/ebooks/8722.epub3.images","application/x-mobipocket-ebook":"https://www.gutenberg.org/ebooks/8722.kf8.images","text/plain; charset=us-ascii":"https://www.gutenberg.org/ebooks/8722.txt.utf-8","application/rdf+xml":"https://www.gutenberg.org/ebooks/8722.rdf","image/jpeg":"https://www.gutenberg.org/cache/epub/8722/pg8722.cover.medium.jpg","application/octet-stream":"https://www.gutenberg.org/cache/epub/8722/pg8722-h.zip"},"download_count":23},{"id":8850,"title":"Weymouth New Testament in Modern Speech, 1 John","authors":[{"name":"Weymouth, Richard Francis","birth_year":1822,"death_year":1902}],"translators":[],"subjects":["Bible. John"],"bookshelves":[],"languages":["en"],"copyright":false,"media_type":"Text","formats":{"text/html":"https://www.gutenberg.org/ebooks/8850.html.images","application/epub+zip":"https://www.gutenberg.org/ebooks/8850.epub3.images","application/x-mobipocket-ebook":"https://www.gutenberg.org/ebooks/8850.kf8.images","text/plain; charset=us-ascii":"https://www.gutenberg.org/ebooks/8850.txt.utf-8","application/rdf+xml":"https://www.gutenberg.org/ebooks/8850.rdf","image/jpeg":"https://www.gutenberg.org/cache/epub/8850/pg8850.cover.medium.jpg","application/octet-stream":"https://www.gutenberg.org/cache/epub/8850/pg8850-h.zip"},"download_count":23},{"id":8903,"title":"The Atlantic Monthly, Volume 02, No. 08, June 1858: A Magazine of Literature, Art, and Politics","authors":[{"name":"Various","birth_year":null,"death_year":null}],"translators":[],"subjects":["American periodicals"],"bookshelves":["The Atlantic Monthly"],"languages":["en"],"copyright":false,"media_type":"Text","formats":{"text/html":"https://www.gutenberg.org/ebooks/8903.html.images","application/epub+zip":"https://www.gutenberg.org/ebooks/8903.epub3.images","application/x-mobipocket-ebook":"https://www.gutenberg.org/ebooks/8903.kf8.images","text/plain; charset=us-ascii":"https://www.gutenberg.org/ebooks/8903.txt.utf-8","text/plain; charset=iso-8859-1":"https://www.gutenberg.org/files/8903/8903-8.txt","application/rdf+xml":"https://www.gutenberg.org/ebooks/8903.rdf","image/jpeg":"https://www.gutenberg.org/cache/epub/8903/pg8903.cover.medium.jpg","application/octet-stream":"https://www.gutenberg.org/cache/epub/8903/pg8903-h.zip"},"download_count":23},{"id":8942,"title":"The Last Hope","authors":[{"name":"Merriman, Henry Seton","birth_year":1862,"death_year":1903}],"translators":[],"subjects":["Adventure stories","Royalists -- France -- Fiction"],"bookshelves":[],"languages":["en"],"copyright":false,"media_type":"Text","formats":{"text/html":"https://www.gutenberg.org/ebooks/8942.html.images","text/html; charset=utf-8":"https://www.gutenberg.org/files/8942/8942-h/8942-h.htm","application/epub+zip":"https://www.gutenberg.org/ebooks/8942.epub3.images","application/x-mobipocket-ebook":"https://www.gutenberg.org/ebooks/8942.kf8.images","text/plain; charset=us-ascii":"https://www.gutenberg.org/ebooks/8942.txt.utf-8","text/plain; charset=iso-8859-1":"https://www.gutenberg.org/files/8942/8942-8.txt","application/rdf+xml":"https://www.gutenberg.org/ebooks/8942.rdf","image/jpeg":"https://www.gutenberg.org/cache/epub/8942/pg8942.cover.medium.jpg","application/octet-stream":"https://www.gutenberg.org/cache/epub/8942/pg8942-h.zip"},"download_count":23},{"id":8944,"title":"The Elect Lady","authors":[{"name":"MacDonald, George","birth_year":1824,"death_year":1905}],"translators":[],"subjects":["Christian fiction","Scotland -- Fiction"],"bookshelves":[],"languages":["en"],"copyright":false,"media_type":"Text","formats":{"text/html":"https://www.gutenberg.org/ebooks/8944.html.images","text/html; charset=utf-8":"https://www.gutenberg.org/files/8944/8944-h/8944-h.htm","application/epub+zip":"https://www.gutenberg.org/ebooks/8944.epub3.images","application/x-mobipocket-ebook":"https://www.gutenberg.org/ebooks/8944.kf8.images","text/plain; charset=us-ascii":"https://www.gutenberg.org/ebooks/8944.txt.utf-8","text/plain; charset=utf-8":"https://www.gutenberg.org/files/8944/8944-0.txt","text/plain; charset=iso-8859-1":"https://www.gutenberg.org/files/8944/8944-8.txt","application/rdf+xml":"https://www.gutenberg.org/ebooks/8944.rdf","image/jpeg":"https://www.gutenberg.org/cache/epub/8944/pg8944.cover.medium.jpg","application/octet-stream":"https://www.gutenberg.org/cache/epub/8944/pg8944-h.zip"},"download_count":23},{"id":8968,"title":"The World Set Free","authors":[{"name":"Wells, H. G. (Herbert George)","birth_year":1866,"death_year":1946}],"translators":[],"subjects":["Imaginary wars and battles -- Fiction","Nuclear warfare -- Fiction","War stories"],"bookshelves":["Science Fiction"],"languages":["en"],"copyright":true,"media_type":"Sound","formats":{"text/plain; charset=us-ascii":"https://www.gutenberg.org/files/8968/8968-readme.txt","text/html; charset=iso-8859-1":"https://www.gutenberg.org/files/8968/8968-index.htm","audio/mpeg":"https://www.gutenberg.org/files/8968/mp3/8968-000.mp3","application/rdf+xml":"https://www.gutenberg.org/ebooks/8968.rdf","application/octet-stream":"https://www.gutenberg.org/files/8968/8968-mp3.zip"},"download_count":23},{"id":9010,"title":"On the Decay of the Art of Lying","authors":[{"name":"Twain, Mark","birth_year":1835,"death_year":1910}],"translators":[],"subjects":["Essays"],"bookshelves":[],"languages":["en"],"copyright":true,"media_type":"Sound","formats":{"text/plain; charset=us-ascii":"https://www.gutenberg.org/files/9010/9010-readme.txt","text/html; charset=iso-8859-1":"https://www.gutenberg.org/files/9010/9010-index.htm","audio/mpeg":"https://www.gutenberg.org/files/9010/mp3/9010-000.mp3","application/rdf+xml":"https://www.gutenberg.org/ebooks/9010.rdf","application/octet-stream":"https://www.gutenberg.org/files/9010/9010-mp3.zip"},"download_count":23},{"id":9024,"title":"The Man That Corrupted Hadleyburg and Other Stories","authors":[{"name":"Twain, Mark","birth_year":1835,"death_year":1910}],"translators":[],"subjects":["City and town life -- Fiction","Honesty -- Fiction","Humorous stories, American","Short stories","United States -- Social life and customs -- 19th century -- Fiction"],"bookshelves":[],"languages":["en"],"copyright":true,"media_type":"Sound","formats":{"text/plain; charset=us-ascii":"https://www.gutenberg.org/files/9024/9024-readme.txt","text/html; charset=iso-8859-1":"https://www.gutenberg.org/files/9024/9024-index.htm","audio/mpeg":"https://www.gutenberg.org/files/9024/mp3/9024-000.mp3","application/rdf+xml":"https://www.gutenberg.org/ebooks/9024.rdf","application/octet-stream":"https://www.gutenberg.org/files/9024/9024-mp3.zip"},"download_count":23},{"id":9169,"title":"The Three Cities Trilogy: Paris, Complete","authors":[{"name":"Zola, Émile","birth_year":1840,"death_year":1902}],"translators":[{"name":"Vizetelly, Ernest Alfred","birth_year":1853,"death_year":1922}],"subjects":["Catholics -- Fiction","Clergy -- Fiction","Man-woman relationships -- Fiction","Paris (France) -- Fiction"],"bookshelves":[],"languages":["en"],"copyright":false,"media_type":"Text","formats":{"text/html":"https://www.gutenberg.org/ebooks/9169.html.images","application/epub+zip":"https://www.gutenberg.org/ebooks/9169.epub3.images","application/x-mobipocket-ebook":"https://www.gutenberg.org/ebooks/9169.kf8.images","text/plain; charset=us-ascii":"https://www.gutenberg.org/ebooks/9169.txt.utf-8","application/rdf+xml":"https://www.gutenberg.org/ebooks/9169.rdf","image/jpeg":"https://www.gutenberg.org/cache/epub/9169/pg9169.cover.medium.jpg","application/octet-stream":"https://www.gutenberg.org/files/9169/9169-0.zip"},"download_count":23},{"id":9201,"title":"Sunday at Home (From \"Twice Told Tales\")","authors":[{"name":"Hawthorne, Nathaniel","birth_year":1804,"death_year":1864}],"translators":[],"subjects":["Historical fiction, American","New England -- Social life and customs -- Fiction","Short stories"],"bookshelves":["Children's Literature"],"languages":["en"],"copyright":false,"media_type":"Text","formats":{"text/html":"https://www.gutenberg.org/ebooks/9201.html.images","text/html; charset=iso-8859-1":"https://www.gutenberg.org/files/9201/9201-h/9201-h.htm","application/epub+zip":"https://www.gutenberg.org/ebooks/9201.epub3.images","application/x-mobipocket-ebook":"https://www.gutenberg.org/ebooks/9201.kf8.images","text/plain; charset=us-ascii":"https://www.gutenberg.org/ebooks/9201.txt.utf-8","application/rdf+xml":"https://www.gutenberg.org/ebooks/9201.rdf","image/jpeg":"https://www.gutenberg.org/cache/epub/9201/pg9201.cover.medium.jpg","application/octet-stream":"https://www.gutenberg.org/cache/epub/9201/pg9201-h.zip"},"download_count":23},{"id":9265,"title":"The Atlantic Monthly, Volume 04, No. 22, August, 1859: A Magazine of Literature, Art, and Politics","authors":[{"name":"Various","birth_year":null,"death_year":null}],"translators":[],"subjects":["American periodicals"],"bookshelves":["The Atlantic Monthly"],"languages":["en"],"copyright":false,"media_type":"Text","formats":{"text/html":"https://www.gutenberg.org/ebooks/9265.html.images","application/epub+zip":"https://www.gutenberg.org/ebooks/9265.epub3.images","application/x-mobipocket-ebook":"https://www.gutenberg.org/ebooks/9265.kf8.images","text/plain; charset=us-ascii":"https://www.gutenberg.org/ebooks/9265.txt.utf-8","text/plain; charset=iso-8859-1":"https://www.gutenberg.org/files/9265/9265-8.txt","application/rdf+xml":"https://www.gutenberg.org/ebooks/9265.rdf","image/jpeg":"https://www.gutenberg.org/cache/epub/9265/pg9265.cover.medium.jpg","application/octet-stream":"https://www.gutenberg.org/cache/epub/9265/pg9265-h.zip"},"download_count":23},{"id":9377,"title":"London Pride, Or, When the World Was Younger","authors":[{"name":"Braddon, M. E. (Mary Elizabeth)","birth_year":1835,"death_year":1915}],"translators":[],"subjects":["Great Britain -- History -- Charles II, 1660-1685 -- Fiction","London (England) -- Fiction"],"bookshelves":["Historical Fiction"],"languages":["en"],"copyright":false,"media_type":"Text","formats":{"text/html":"https://www.gutenberg.org/ebooks/9377.html.images","application/epub+zip":"https://www.gutenberg.org/ebooks/9377.epub3.images","application/x-mobipocket-ebook":"https://www.gutenberg.org/ebooks/9377.kf8.images","text/plain; charset=us-ascii":"https://www.gutenberg.org/ebooks/9377.txt.utf-8","application/rdf+xml":"https://www.gutenberg.org/ebooks/9377.rdf","image/jpeg":"https://www.gutenberg.org/cache/epub/9377/pg9377.cover.medium.jpg","application/octet-stream":"https://www.gutenberg.org/files/9377/9377-0.zip"},"download_count":23},{"id":9387,"title":"Theresa Marchmont, or, the Maid of Honour: A Tale","authors":[{"name":"Gore, Mrs. (Catherine Grace Frances)","birth_year":1799,"death_year":1861}],"translators":[],"subjects":["Fiction"],"bookshelves":[],"languages":["en"],"copyright":false,"media_type":"Text","formats":{"text/html":"https://www.gutenberg.org/ebooks/9387.html.images","text/html; charset=utf-8":"https://www.gutenberg.org/files/9387/9387-h/9387-h.htm","application/epub+zip":"https://www.gutenberg.org/ebooks/9387.epub3.images","application/x-mobipocket-ebook":"https://www.gutenberg.org/ebooks/9387.kf8.images","text/plain; charset=us-ascii":"https://www.gutenberg.org/ebooks/9387.txt.utf-8","text/plain; charset=utf-8":"https://www.gutenberg.org/files/9387/9387-0.txt","text/plain; charset=iso-8859-1":"https://www.gutenberg.org/files/9387/9387-8.txt","application/rdf+xml":"https://www.gutenberg.org/ebooks/9387.rdf","image/jpeg":"https://www.gutenberg.org/cache/epub/9387/pg9387.cover.medium.jpg","application/octet-stream":"https://www.gutenberg.org/cache/epub/9387/pg9387-h.zip"},"download_count":23},{"id":9399,"title":"A Roman Lawyer in Jerusalem : First Century","authors":[{"name":"Story, William Wetmore","birth_year":1819,"death_year":1895}],"translators":[],"subjects":["Judas Iscariot -- Poetry"],"bookshelves":[],"languages":["en"],"copyright":false,"media_type":"Text","formats":{"text/html":"https://www.gutenberg.org/ebooks/9399.html.images","application/epub+zip":"https://www.gutenberg.org/ebooks/9399.epub3.images","application/x-mobipocket-ebook":"https://www.gutenberg.org/ebooks/9399.kf8.images","text/plain; charset=us-ascii":"https://www.gutenberg.org/ebooks/9399.txt.utf-8","application/rdf+xml":"https://www.gutenberg.org/ebooks/9399.rdf","image/jpeg":"https://www.gutenberg.org/cache/epub/9399/pg9399.cover.medium.jpg","application/octet-stream":"https://www.gutenberg.org/cache/epub/9399/pg9399-h.zip"},"download_count":23},{"id":9451,"title":"The Woodlanders","authors":[{"name":"Hardy, Thomas","birth_year":1840,"death_year":1928}],"translators":[],"subjects":["Arranged marriage -- Fiction","Dorset (England) -- Fiction","Forests and forestry -- Fiction","Love stories","Pastoral fiction","Psychological fiction","Social classes -- Fiction","Triangles (Interpersonal relations) -- Fiction"],"bookshelves":[],"languages":["en"],"copyright":true,"media_type":"Sound","formats":{"text/plain; charset=us-ascii":"https://www.gutenberg.org/files/9451/9451-readme.txt","text/html; charset=iso-8859-1":"https://www.gutenberg.org/files/9451/9451-index.htm","audio/mpeg":"https://www.gutenberg.org/files/9451/mp3/9451-000.mp3","application/rdf+xml":"https://www.gutenberg.org/ebooks/9451.rdf","application/octet-stream":"https://www.gutenberg.org/files/9451/9451-mp3.zip"},"download_count":23},{"id":9461,"title":"The Foolish Lovers","authors":[{"name":"Ervine, St. John G. (St. John Greer)","birth_year":1883,"death_year":1971}],"translators":[],"subjects":["Ulster (Northern Ireland and Ireland) -- Fiction"],"bookshelves":[],"languages":["en"],"copyright":false,"media_type":"Text","formats":{"text/html":"https://www.gutenberg.org/ebooks/9461.html.images","text/html; charset=iso-8859-1":"https://www.gutenberg.org/files/9461/9461-h/9461-h.htm","application/epub+zip":"https://www.gutenberg.org/ebooks/9461.epub3.images","application/x-mobipocket-ebook":"https://www.gutenberg.org/ebooks/9461.kf8.images","text/plain; charset=us-ascii":"https://www.gutenberg.org/ebooks/9461.txt.utf-8","text/plain; charset=iso-8859-1":"https://www.gutenberg.org/files/9461/9461-8.txt","application/rdf+xml":"https://www.gutenberg.org/ebooks/9461.rdf","image/jpeg":"https://www.gutenberg.org/cache/epub/9461/pg9461.cover.medium.jpg","application/octet-stream":"https://www.gutenberg.org/cache/epub/9461/pg9461-h.zip"},"download_count":23},{"id":9577,"title":"Anti-Slavery Poems 3.: Part 3 From Volume III of The Works of John Greenleaf Whittier","authors":[{"name":"Whittier, John Greenleaf","birth_year":1807,"death_year":1892}],"translators":[],"subjects":["Slavery -- United States -- Poetry"],"bookshelves":[],"languages":["en"],"copyright":false,"media_type":"Text","formats":{"text/html":"https://www.gutenberg.org/ebooks/9577.html.images","application/epub+zip":"https://www.gutenberg.org/ebooks/9577.epub3.images","application/x-mobipocket-ebook":"https://www.gutenberg.org/ebooks/9577.kf8.images","text/plain; charset=us-ascii":"https://www.gutenberg.org/ebooks/9577.txt.utf-8","application/rdf+xml":"https://www.gutenberg.org/ebooks/9577.rdf","image/jpeg":"https://www.gutenberg.org/cache/epub/9577/pg9577.cover.medium.jpg","application/octet-stream":"https://www.gutenberg.org/cache/epub/9577/pg9577-h.zip"},"download_count":23},{"id":9676,"title":"Silas Marner","authors":[{"name":"Eliot, George","birth_year":1819,"death_year":1880}],"translators":[],"subjects":["Adopted children -- Fiction","Domestic fiction","England -- Fiction","England -- Social life and customs -- 19th century -- Fiction","Fathers and daughters -- Fiction","Foundlings -- Fiction","Weavers -- Fiction"],"bookshelves":[],"languages":["en"],"copyright":true,"media_type":"Sound","formats":{"text/plain; charset=us-ascii":"https://www.gutenberg.org/files/9676/9676-readme.txt","text/html; charset=iso-8859-1":"https://www.gutenberg.org/files/9676/9676-index.htm","audio/mpeg":"https://www.gutenberg.org/files/9676/mp3/9676-000.mp3","application/rdf+xml":"https://www.gutenberg.org/ebooks/9676.rdf","application/octet-stream":"https://www.gutenberg.org/files/9676/9676-mp3.zip"},"download_count":23},{"id":9699,"title":"Martin Chuzzlewit","authors":[{"name":"Dickens, Charles","birth_year":1812,"death_year":1870}],"translators":[],"subjects":["Adventure stories","Avarice -- Fiction","Bildungsromans","Black humor","British -- United States -- Fiction","England -- Fiction","Grandfathers -- Fiction","Satire","United States -- Description and travel -- Fiction","Young men -- Fiction"],"bookshelves":[],"languages":["en"],"copyright":true,"media_type":"Sound","formats":{"text/plain; charset=us-ascii":"https://www.gutenberg.org/files/9699/9699-readme.txt","text/html; charset=iso-8859-1":"https://www.gutenberg.org/files/9699/9699-index.htm","audio/mpeg":"https://www.gutenberg.org/files/9699/mp3/9699-000.mp3","application/rdf+xml":"https://www.gutenberg.org/ebooks/9699.rdf","application/octet-stream":"https://www.gutenberg.org/files/9699/9699-mp3.zip"},"download_count":23},{"id":9733,"title":"Sketches by Boz, illustrative of everyday life and every-day people","authors":[{"name":"Dickens, Charles","birth_year":1812,"death_year":1870}],"translators":[],"subjects":["London (England) -- Social life and customs -- 19th century","London (England) -- Social life and customs -- 19th century -- Fiction"],"bookshelves":[],"languages":["en"],"copyright":true,"media_type":"Sound","formats":{"text/plain; charset=us-ascii":"https://www.gutenberg.org/files/9733/9733-readme.txt","text/html; charset=iso-8859-1":"https://www.gutenberg.org/files/9733/9733-index.htm","audio/mpeg":"https://www.gutenberg.org/files/9733/mp3/9733-000.mp3","application/rdf+xml":"https://www.gutenberg.org/ebooks/9733.rdf","application/octet-stream":"https://www.gutenberg.org/files/9733/9733-mp3.zip"},"download_count":23},{"id":9753,"title":"Night and Morning, Volume 4","authors":[{"name":"Lytton, Edward Bulwer Lytton, Baron","birth_year":1803,"death_year":1873}],"translators":[],"subjects":["English fiction"],"bookshelves":[],"languages":["en"],"copyright":false,"media_type":"Text","formats":{"text/html":"https://www.gutenberg.org/ebooks/9753.html.images","application/epub+zip":"https://www.gutenberg.org/ebooks/9753.epub3.images","application/x-mobipocket-ebook":"https://www.gutenberg.org/ebooks/9753.kf8.images","text/plain; charset=us-ascii":"https://www.gutenberg.org/ebooks/9753.txt.utf-8","application/rdf+xml":"https://www.gutenberg.org/ebooks/9753.rdf","image/jpeg":"https://www.gutenberg.org/cache/epub/9753/pg9753.cover.medium.jpg","application/octet-stream":"https://www.gutenberg.org/cache/epub/9753/pg9753-h.zip"},"download_count":23},{"id":9831,"title":"The Court of the Empress Josephine","authors":[{"name":"Imbert de Saint-Amand","birth_year":1834,"death_year":1900}],"translators":[{"name":"Perry, Thomas Sergeant","birth_year":1845,"death_year":1928}],"subjects":["Josephine, Empress, consort of Napoleon I, Emperor of the French, 1763-1814"],"bookshelves":[],"languages":["en"],"copyright":false,"media_type":"Text","formats":{"text/html":"https://www.gutenberg.org/ebooks/9831.html.images","application/epub+zip":"https://www.gutenberg.org/ebooks/9831.epub3.images","application/x-mobipocket-ebook":"https://www.gutenberg.org/ebooks/9831.kf8.images","text/plain; charset=us-ascii":"https://www.gutenberg.org/ebooks/9831.txt.utf-8","text/plain; charset=iso-8859-1":"https://www.gutenberg.org/files/9831/9831-8.txt","application/rdf+xml":"https://www.gutenberg.org/ebooks/9831.rdf","image/jpeg":"https://www.gutenberg.org/cache/epub/9831/pg9831.cover.medium.jpg","application/octet-stream":"https://www.gutenberg.org/cache/epub/9831/pg9831-h.zip"},"download_count":23},{"id":9882,"title":"The Mirror of Literature, Amusement, and Instruction. Volume 10, No. 262, July 7, 1827","authors":[{"name":"Various","birth_year":null,"death_year":null}],"translators":[],"subjects":["Popular literature -- Great Britain -- Periodicals"],"bookshelves":["The Mirror of Literature, Amusement, and Instruction"],"languages":["en"],"copyright":false,"media_type":"Text","formats":{"text/html":"https://www.gutenberg.org/ebooks/9882.html.images","text/html; charset=iso-8859-1":"https://www.gutenberg.org/files/9882/9882-h/9882-h.htm","application/epub+zip":"https://www.gutenberg.org/ebooks/9882.epub3.images","application/x-mobipocket-ebook":"https://www.gutenberg.org/ebooks/9882.kf8.images","text/plain; charset=us-ascii":"https://www.gutenberg.org/ebooks/9882.txt.utf-8","text/plain; charset=iso-8859-1":"https://www.gutenberg.org/files/9882/9882-8.txt","application/rdf+xml":"https://www.gutenberg.org/ebooks/9882.rdf","image/jpeg":"https://www.gutenberg.org/cache/epub/9882/pg9882.cover.medium.jpg","application/octet-stream":"https://www.gutenberg.org/cache/epub/9882/pg9882-h.zip"},"download_count":23},{"id":9888,"title":"The Spread Eagle and Other Stories","authors":[{"name":"Morris, Gouverneur","birth_year":1876,"death_year":1953}],"translators":[],"subjects":["Fiction","Short stories"],"bookshelves":[],"languages":["en"],"copyright":false,"media_type":"Text","formats":{"text/html":"https://www.gutenberg.org/ebooks/9888.html.images","application/epub+zip":"https://www.gutenberg.org/ebooks/9888.epub3.images","application/x-mobipocket-ebook":"https://www.gutenberg.org/ebooks/9888.kf8.images","text/plain; charset=us-ascii":"https://www.gutenberg.org/ebooks/9888.txt.utf-8","text/plain; charset=iso-8859-1":"https://www.gutenberg.org/files/9888/9888-8.txt","application/rdf+xml":"https://www.gutenberg.org/ebooks/9888.rdf","image/jpeg":"https://www.gutenberg.org/cache/epub/9888/pg9888.cover.medium.jpg","application/octet-stream":"https://www.gutenberg.org/cache/epub/9888/pg9888-h.zip"},"download_count":23},{"id":9985,"title":"Pocahontas: A Poem","authors":[{"name":"Castleman, Virginia Carter","birth_year":null,"death_year":null}],"translators":[],"subjects":["Pocahontas, -1617 -- Poetry"],"bookshelves":[],"languages":["en"],"copyright":false,"media_type":"Text","formats":{"text/html":"https://www.gutenberg.org/ebooks/9985.html.images","application/epub+zip":"https://www.gutenberg.org/ebooks/9985.epub3.images","application/x-mobipocket-ebook":"https://www.gutenberg.org/ebooks/9985.kf8.images","text/plain; charset=us-ascii":"https://www.gutenberg.org/ebooks/9985.txt.utf-8","text/plain; charset=iso-8859-1":"https://www.gutenberg.org/files/9985/9985-8.txt","application/rdf+xml":"https://www.gutenberg.org/ebooks/9985.rdf","image/jpeg":"https://www.gutenberg.org/cache/epub/9985/pg9985.cover.medium.jpg","application/octet-stream":"https://www.gutenberg.org/cache/epub/9985/pg9985-h.zip"},"download_count":23},{"id":9993,"title":"Captivating Mary Carstairs","authors":[{"name":"Harrison, Henry Sydnor","birth_year":1880,"death_year":1930}],"translators":[],"subjects":["Fiction"],"bookshelves":[],"languages":["en"],"copyright":false,"media_type":"Text","formats":{"text/html":"https://www.gutenberg.org/ebooks/9993.html.images","application/epub+zip":"https://www.gutenberg.org/ebooks/9993.epub3.images","application/x-mobipocket-ebook":"https://www.gutenberg.org/ebooks/9993.kf8.images","text/plain; charset=us-ascii":"https://www.gutenberg.org/ebooks/9993.txt.utf-8","text/plain; charset=iso-8859-1":"https://www.gutenberg.org/files/9993/9993-8.txt","application/rdf+xml":"https://www.gutenberg.org/ebooks/9993.rdf","image/jpeg":"https://www.gutenberg.org/cache/epub/9993/pg9993.cover.medium.jpg","application/octet-stream":"https://www.gutenberg.org/cache/epub/9993/pg9993-h.zip"},"download_count":23},{"id":10015,"title":"Punchinello, Volume 1, No. 19, August 6, 1870","authors":[{"name":"Various","birth_year":null,"death_year":null}],"translators":[],"subjects":["American wit and humor -- Periodicals"],"bookshelves":["Punchinello"],"languages":["en"],"copyright":false,"media_type":"Text","formats":{"text/html":"https://www.gutenberg.org/ebooks/10015.html.images","text/html; charset=us-ascii":"https://www.gutenberg.org/files/10015/10015-h/10015-h.htm","application/epub+zip":"https://www.gutenberg.org/ebooks/10015.epub3.images","application/x-mobipocket-ebook":"https://www.gutenberg.org/ebooks/10015.kf8.images","text/plain; charset=us-ascii":"https://www.gutenberg.org/ebooks/10015.txt.utf-8","application/rdf+xml":"https://www.gutenberg.org/ebooks/10015.rdf","image/jpeg":"https://www.gutenberg.org/cache/epub/10015/pg10015.cover.medium.jpg","application/octet-stream":"https://www.gutenberg.org/cache/epub/10015/pg10015-h.zip"},"download_count":23},{"id":10042,"title":"The Child Under Eight","authors":[{"name":"Murray, E. R. (Elsie Riach)","birth_year":1861,"death_year":1932},{"name":"Smith, Henrietta Brown","birth_year":1868,"death_year":null}],"translators":[],"subjects":["Child development","Child psychology","Education"],"bookshelves":[],"languages":["en"],"copyright":false,"media_type":"Text","formats":{"text/html":"https://www.gutenberg.org/ebooks/10042.html.images","application/epub+zip":"https://www.gutenberg.org/ebooks/10042.epub3.images","application/x-mobipocket-ebook":"https://www.gutenberg.org/ebooks/10042.kf8.images","text/plain; charset=us-ascii":"https://www.gutenberg.org/ebooks/10042.txt.utf-8","text/plain; charset=iso-8859-1":"https://www.gutenberg.org/files/10042/10042-8.txt","application/rdf+xml":"https://www.gutenberg.org/ebooks/10042.rdf","image/jpeg":"https://www.gutenberg.org/cache/epub/10042/pg10042.cover.medium.jpg","application/octet-stream":"https://www.gutenberg.org/cache/epub/10042/pg10042-h.zip"},"download_count":23},{"id":10046,"title":"Salute to Adventurers","authors":[{"name":"Buchan, John","birth_year":1875,"death_year":1940}],"translators":[],"subjects":["Glasgow (Scotland) -- Fiction","Historical fiction","Jamestown (Va.) -- Fiction","Scottish Americans -- Virginia -- Fiction","Virginia -- History -- Colonial period, ca. 1600-1775 -- Fiction"],"bookshelves":[],"languages":["en"],"copyright":false,"media_type":"Text","formats":{"text/html":"https://www.gutenberg.org/ebooks/10046.html.images","application/epub+zip":"https://www.gutenberg.org/ebooks/10046.epub3.images","application/x-mobipocket-ebook":"https://www.gutenberg.org/ebooks/10046.kf8.images","text/plain; charset=us-ascii":"https://www.gutenberg.org/ebooks/10046.txt.utf-8","application/rdf+xml":"https://www.gutenberg.org/ebooks/10046.rdf","image/jpeg":"https://www.gutenberg.org/cache/epub/10046/pg10046.cover.medium.jpg","application/octet-stream":"https://www.gutenberg.org/cache/epub/10046/pg10046-h.zip"},"download_count":23},{"id":10048,"title":"Billie Bradley and Her Inheritance; Or, The Queer Homestead at Cherry Corners","authors":[{"name":"Wheeler, Janet D.","birth_year":null,"death_year":null}],"translators":[],"subjects":["Girls -- Juvenile fiction","Inheritance and succession -- Juvenile fiction"],"bookshelves":["Children's Book Series"],"languages":["en"],"copyright":false,"media_type":"Text","formats":{"text/html":"https://www.gutenberg.org/ebooks/10048.html.images","application/epub+zip":"https://www.gutenberg.org/ebooks/10048.epub3.images","application/x-mobipocket-ebook":"https://www.gutenberg.org/ebooks/10048.kf8.images","text/plain; charset=us-ascii":"https://www.gutenberg.org/ebooks/10048.txt.utf-8","application/rdf+xml":"https://www.gutenberg.org/ebooks/10048.rdf","image/jpeg":"https://www.gutenberg.org/cache/epub/10048/pg10048.cover.medium.jpg","application/octet-stream":"https://www.gutenberg.org/cache/epub/10048/pg10048-h.zip"},"download_count":23}]}