{"count":58808,"next":"http://129.241.150.113:8000/books/?languages=en&page=1831","previous":"http://129.241.150.113:8000/books/?languages=en&page=1829","results":[{"id":25984,"title":"The Big Drum: A Comedy in Four Acts","authors":[{"name":"Pinero, Arthur Wing","birth_year":1855,"death_year":1934}],"translators":[],"subjects":["Comedies","English drama"],"bookshelves":[],"languages":["en"],"copyright":false,"media_type":"Text","formats":{"application/rdf+xml":"https://www.gutenberg.org/ebooks/25984.rdf","text/html":"https://www.gutenberg.org/ebooks/25984.html.images","text/html; charset=iso-8859-1":"https://www.gutenberg.org/files/25984/25984-h/25984-h.htm","application/epub+zip":"https://www.gutenberg.org/ebooks/25984.epub3.images","application/x-mobipocket-ebook":"https://www.gutenberg.org/ebooks/25984.kf8.images","text/plain; charset=us-ascii":"https://www.gutenberg.org/ebooks/25984.txt.utf-8","text/plain; charset=iso-8859-1":"https://www.gutenberg.org/files/25984/25984-8.txt","image/jpeg":"https://www.gutenberg.org/cache/epub/25984/pg25984.cover.medium.jpg","application/octet-stream":"https://www.gutenberg.org/cache/epub/25984/pg25984-h.zip"},"download_count":7},{"id":34356,"title":"Fires of St. John: A Drama in Four Acts","authors":[{"name":"Sudermann, Hermann","birth_year":1857,"death_year":1928}],"translators":[{"name":"Swickard, Charles","birth_year":null,"death_year":null}],"subjects":["German drama -- Translations into English"],"bookshelves":[],"languages":["en"],"copyright":false,"media_type":"Text","formats":{"text/html":"https://www.gutenberg.org/ebooks/34356.html.images","text/html; charset=iso-8859-1":"https://www.gutenberg.org/files/34356/34356-h/34356-h.htm","application/epub+zip":"https://www.gutenberg.org/ebooks/34356.epub3.images","application/x-mobipocket-ebook":"https://www.gutenberg.org/ebooks/34356.kf8.images","text/plain; charset=us-ascii":"https://www.gutenberg.org/ebooks/34356.txt.utf-8","text/plain; charset=iso-8859-1":"https://www.gutenberg.org/files/34356/34356-8.txt","application/rdf+xml":"https://www.gutenberg.org/ebooks/34356.rdf","image/jpeg":"https://www.gutenberg.org/cache/epub/34356/pg34356.cover.medium.jpg","application/octet-stream":"https://www.gutenberg.org/cache/epub/34356/pg34356-h.zip"},"download_count":7},{"id":39590,"title":"Some Account of Llangollen and Its Vicinity: Including a Circuit of About Seven Miles","authors":[{"name":"Simpson, W. T. (Wilfrid Tord)","birth_year":null,"death_year":null}],"translators":[],"subjects":["Llangollen (Wales)"],"bookshelves":[],"languages":["en"],"copyright":false,"media_type":"Text","formats":{"text/html":"https://www.gutenberg.org/ebooks/39590.html.images","application/epub+zip":"https://www.gutenberg.org/ebooks/39590.epub3.images","application/x-mobipocket-ebook":"https://www.gutenberg.org/ebooks/39590.kf8.images","text/plain; charset=us-ascii":"https://www.gutenberg.org/ebooks/39590.txt.utf-8","text/plain; charset=utf-8":"https://www.gutenberg.org/files/39590/39590-0.txt","application/rdf+xml":"https://www.gutenberg.org/ebooks/39590.rdf","image/jpeg":"https://www.gutenberg.org/cache/epub/39590/pg39590.cover.medium.jpg","application/octet-stream":"https://www.gutenberg.org/cache/epub/39590/pg39590-h.zip"},"download_count":7},{"id":41236,"title":"The Little Washington's Relatives","authors":[{"name":"Roy, Lillian Elizabeth","birth_year":1868,"death_year":1932}],"translators":[],"subjects":["Children -- Juvenile fiction","Families -- Juvenile fiction","Washington, George, 1732-1799 -- Juvenile literature"],"bookshelves":[],"languages":["en"],"copyright":false,"media_type":"Text","formats":{"text/html":"https://www.gutenberg.org/ebooks/41236.html.images","text/html; charset=utf-8":"https://www.gutenberg.org/files/41236/41236-h/41236-h.htm","application/epub+zip":"https://www.gutenberg.org/ebooks/41236.epub3.images","application/x-mobipocket-ebook":"https://www.gutenberg.org/ebooks/41236.kf8.images","text/plain; charset=us-ascii":"https://www.gutenberg.org/ebooks/41236.txt.utf-8","text/plain; charset=utf-8":"https://www.gutenberg.org/files/41236/41236-0.txt","text/plain; charset=iso-8859-1":"https://www.gutenberg.org/files/41236/41236-8.txt","application/rdf+xml":"https://www.gutenberg.org/ebooks/41236.rdf","image/jpeg":"https://www.gutenberg.org/cache/epub/41236/pg41236.cover.medium.jpg","application/octet-stream":"https://www.gutenberg.org/cache/epub/41236/pg41236-h.zip"},"download_count":7},{"id":43106,"title":"Not Without Thorns","authors":[{"name":"Molesworth, Mrs.","birth_year":1839,"death_year":1921}],"translators":[],"subjects":["Husband and wife -- Fiction","Man-woman relationships -- Fiction"],"bookshelves":[],"languages":["en"],"copyright":false,"media_type":"Text","formats":{"text/html":"https://www.gutenberg.org/ebooks/43106.html.images","text/html; charset=utf-8":"https://www.gutenberg.org/files/43106/43106-h/43106-h.htm","application/epub+zip":"https://www.gutenberg.org/ebooks/43106.epub3.images","application/x-mobipocket-ebook":"https://www.gutenberg.org/ebooks/43106.kf8.images","text/plain; charset=us-ascii":"https://www.gutenberg.org/ebooks/43106.txt.utf-8","application/rdf+xml":"https://www.gutenberg.org/ebooks/43106.rdf","image/jpeg":"https://www.gutenberg.org/cache/epub/43106/pg43106.cover.medium.jpg","application/octet-stream":"https://www.gutenberg.org/cache/epub/43106/pg43106-h.zip"},"download_count":7},{"id":49695,"title":"Motor Matt's Close Call; or, The Snare of Don Carlos","authors":[{"name":"Matthews, Stanley R.","birth_year":null,"death_year":null}],"translators":[],"subjects":["Adventure stories","Belize -- Juvenile fiction","Dime novels","Mechanics -- Juvenile fiction","Submarines (Ships) -- Juvenile fiction"],"bookshelves":[],"languages":["en"],"copyright":false,"media_type":"Text","formats":{"text/html":"https://www.gutenberg.org/ebooks/49695.html.images","text/html; charset=iso-8859-1":"https://www.gutenberg.org/files/49695/49695-h/49695-h.htm","application/epub+zip":"https://www.gutenberg.org/ebooks/49695.epub3.images","application/x-mobipocket-ebook":"https://www.gutenberg.org/ebooks/49695.kf8.images","text/plain; charset=us-ascii":"https://www.gutenberg.org/ebooks/49695.txt.utf-8","text/plain; charset=iso-8859-1":"https://www.gutenberg.org/files/49695/49695-8.txt","application/rdf+xml":"https://www.gutenberg.org/ebooks/49695.rdf","image/jpeg":"https://www.gutenberg.org/cache/epub/49695/pg49695.cover.medium.jpg","application/octet-stream":"https://www.gutenberg.org/cache/epub/49695/pg49695-h.zip"},"download_count":7},{"id":51770,"title":"Connected Poems","authors":[{"name":"Seabridge, Charles","birth_year":null,"death_year":null}],"translators":[],"subjects":["Poetry"],"bookshelves":[],"languages":["en"],"copyright":false,"media_type":"Text","formats":{"text/html":"https://www.gutenberg.org/ebooks/51770.html.images","text/html; charset=utf-8":"https://www.gutenberg.org/files/51770/51770-h/51770-h.htm","application/epub+zip":"https://www.gutenberg.org/ebooks/51770.epub3.images","application/x-mobipocket-ebook":"https://www.gutenberg.org/ebooks/51770.kf8.images","text/plain; charset=us-ascii":"https://www.gutenberg.org/ebooks/51770.txt.utf-8","text/plain; charset=utf-8":"https://www.gutenberg.org/files/51770/51770-0.txt","application/rdf+xml":"https://www.gutenberg.org/ebooks/51770.rdf","image/jpeg":"https://www.gutenberg.org/cache/epub/51770/pg51770.cover.medium.jpg","application/octet-stream":"https://www.gutenberg.org/cache/epub/51770/pg51770-h.zip"},"download_count":7},{"id":53496,"title":"Reminiscences of Epping Forest","authors":[],"translators":[],"subjects":["Epping Forest (England : Forest)","Roebuck Hotel (Buckhurst Hill, England)"],"bookshelves":[],"languages":["en"],"copyright":false,"media_type":"Text","formats":{"text/html":"https://www.gutenberg.org/ebooks/53496.html.images","application/epub+zip":"https://www.gutenberg.org/ebooks/53496.epub3.images","application/x-mobipocket-ebook":"https://www.gutenberg.org/ebooks/53496.kf8.images","text/plain; charset=us-ascii":"https://www.gutenberg.org/ebooks/53496.txt.utf-8","text/plain; charset=utf-8":"https://www.gutenberg.org/files/53496/53496-0.txt","application/rdf+xml":"https://www.gutenberg.org/ebooks/53496.rdf","image/jpeg":"https://www.gutenberg.org/cache/epub/53496/pg53496.cover.medium.jpg","application/octet-stream":"https://www.gutenberg.org/cache/epub/53496/pg53496-h.zip"},"download_count":7},{"id":54297,"title":"The Irish Penny Journal, Vol. 1 No. 19, November 7, 1840","authors":[{"name":"Various","birth_year":null,"death_year":null}],"translators":[],"subjects":["Ireland -- Periodicals"],"bookshelves":[],"languages":["en"],"copyright":false,"media_type":"Text","formats":{"text/html":"https://www.gutenberg.org/ebooks/54297.html.images","text/html; charset=utf-8":"https://www.gutenberg.org/files/54297/54297-h/54297-h.htm","application/epub+zip":"https://www.gutenberg.org/ebooks/54297.epub3.images","application/x-mobipocket-ebook":"https://www.gutenberg.org/ebooks/54297.kf8.images","text/plain; charset=us-ascii":"https://www.gutenberg.org/ebooks/54297.txt.utf-8","text/plain; charset=utf-8":"https://www.gutenberg.org/files/54297/54297-0.txt","application/rdf+xml":"https://www.gutenberg.org/ebooks/54297.rdf","image/jpeg":"https://www.gutenberg.org/cache/epub/54297/pg54297.cover.medium.jpg","application/octet-stream":"https://www.gutenberg.org/cache/epub/54297/pg54297-h.zip"},"download_count":7},{"id":54388,"title":"The Irish Penny Journal, Vol. 1 No. 20, November 14, 1840","authors":[{"name":"Various","birth_year":null,"death_year":null}],"translators":[],"subjects":["Ireland -- Periodicals"],"bookshelves":[],"languages":["en"],"copyright":false,"media_type":"Text","formats":{"text/html":"https://www.gutenberg.org/ebooks/54388.html.images","text/html; charset=utf-8":"https://www.gutenberg.org/files/54388/54388-h/54388-h.htm","application/epub+zip":"https://www.gutenberg.org/ebooks/54388.epub3.images","application/x-mobipocket-ebook":"https://www.gutenberg.org/ebooks/54388.kf8.images","text/plain; charset=us-ascii":"https://www.gutenberg.org/ebooks/54388.txt.utf-8","text/plain; charset=utf-8":"https://www.gutenberg.org/files/54388/54388-0.txt","application/rdf+xml":"https://www.gutenberg.org/ebooks/54388.rdf","image/jpeg":"https://www.gutenberg.org/cache/epub/54388/pg54388.cover.medium.jpg","application/octet-stream":"https://www.gutenberg.org/cache/epub/54388/pg54388-h.zip"},"download_count":7},{"id":54442,"title":"The Irish Penny Journal, Vol. 1 No. 23, December 5, 1840","authors":[{"name":"Various","birth_year":null,"death_year":null}],"translators":[],"subjects":["Ireland -- Periodicals"],"bookshelves":[],"languages":["en"],"copyright":false,"media_type":"Text","formats":{"text/html":"https://www.gutenberg.org/ebooks/54442.html.images","text/html; charset=utf-8":"https://www.gutenberg.org/files/54442/54442-h/54442-h.htm","application/epub+zip":"https://www.gutenberg.org/ebooks/54442.epub3.images","application/x-mobipocket-ebook":"https://www.gutenberg.org/ebooks/54442.kf8.images","text/plain; charset=us-ascii":"https://www.gutenberg.org/ebooks/54442.txt.utf-8","text/plain; charset=utf-8":"https://www.gutenberg.org/files/54442/54442-0.txt","application/rdf+xml":"https://www.gutenberg.org/ebooks/54442.rdf","image/jpeg":"https://www.gutenberg.org/cache/epub/54442/pg54442.cover.medium.jpg","application/octet-stream":"https://www.gutenberg.org/cache/epub/54442/pg54442-h.zip"},"download_count":7},{"id":59975,"title":"The Impostor: A Tale of Old Annapolis","authors":[{"name":"Scott, John Reed","birth_year":1869,"death_year":1942}],"translators":[],"subjects":["Annapolis (Md.) -- History -- Colonial period, ca. 1600-1775 -- Fiction","Impostors and imposture -- Fiction"],"bookshelves":[],"languages":["en"],"copyright":false,"media_type":"Text","formats":{"text/html":"https://www.gutenberg.org/ebooks/59975.html.images","application/epub+zip":"https://www.gutenberg.org/ebooks/59975.epub3.images","application/x-mobipocket-ebook":"https://www.gutenberg.org/ebooks/59975.kf8.images","text/plain; charset=us-ascii":"https://www.gutenberg.org/ebooks/59975.txt.utf-8","text/plain; charset=iso-8859-1":"https://www.gutenberg.org/files/59975/59975-8.txt","application/rdf+xml":"https://www.gutenberg.org/ebooks/59975.rdf","image/jpeg":"https://www.gutenberg.org/cache/epub/59975/pg59975.cover.medium.jpg","application/octet-stream":"https://www.gutenberg.org/cache/epub/59975/pg59975-h.zip"},"download_count":7},{"id":63068,"title":"The Washington Peace Carillon","authors":[{"name":"Shull, James Marion","birth_year":1872,"death_year":null}],"translators":[],"subjects":["Carillons -- Washington, D.C."],"bookshelves":[],"languages":["en"],"copyright":false,"media_type":"Text","formats":{"text/html":"https://www.gutenberg.org/ebooks/63068.html.images","text/html; charset=utf-8":"https://www.gutenberg.org/files/63068/63068-h/63068-h.htm","application/epub+zip":"https://www.gutenberg.org/ebooks/63068.epub3.images","application/x-mobipocket-ebook":"https://www.gutenberg.org/ebooks/63068.kf8.images","text/plain; charset=us-ascii":"https://www.gutenberg.org/ebooks/63068.txt.utf-8","text/plain; charset=utf-8":"https://www.gutenberg.org/files/63068/63068-0.txt","application/rdf+xml":"https://www.gutenberg.org/ebooks/63068.rdf","image/jpeg":"https://www.gutenberg.org/cache/epub/63068/pg63068.cover.medium.jpg","application/octet-stream":"https://www.gutenberg.org/cache/epub/63068/pg63068-h.zip"},"download_count":7},{"id":65625,"title":"The first of May: a new version of a celebrated modern ballad: sixth edition","authors":[{"name":"Drury, Anna H. (Anna Harriet)","birth_year":1824,"death_year":1912}],"translators":[],"subjects":["Great Exhibition (1851 : London, England) -- Poetry"],"bookshelves":[],"languages":["en"],"copyright":false,"media_type":"Text","formats":{"text/html":"https://www.gutenberg.org/ebooks/65625.html.images","text/html; charset=utf-8":"https://www.gutenberg.org/files/65625/65625-h/65625-h.htm","application/epub+zip":"https://www.gutenberg.org/ebooks/65625.epub3.images","application/x-mobipocket-ebook":"https://www.gutenberg.org/ebooks/65625.kf8.images","text/plain; charset=us-ascii":"https://www.gutenberg.org/ebooks/65625.txt.utf-8","text/plain; charset=utf-8":"https://www.gutenberg.org/files/65625/65625-0.txt","application/rdf+xml":"https://www.gutenberg.org/ebooks/65625.rdf","image/jpeg":"https://www.gutenberg.org/cache/epub/65625/pg65625.cover.medium.jpg","application/octet-stream":"https://www.gutenberg.org/cache/epub/65625/pg65625-h.zip"},"download_count":7},{"id":66851,"title":"The Prize","authors":[{"name":"Grier, Sydney C.","birth_year":1868,"death_year":1933}],"translators":[],"subjects":["English fiction"],"bookshelves":[],"languages":["en"],"copyright":false,"media_type":"Text","formats":{"text/html":"https://www.gutenberg.org/ebooks/66851.html.images","application/epub+zip":"https://www.gutenberg.org/ebooks/66851.epub3.images","application/x-mobipocket-ebook":"https://www.gutenberg.org/ebooks/66851.kf8.images","text/plain; charset=us-ascii":"https://www.gutenberg.org/ebooks/66851.txt.utf-8","application/rdf+xml":"https://www.gutenberg.org/ebooks/66851.rdf","image/jpeg":"https://www.gutenberg.org/cache/epub/66851/pg66851.cover.medium.jpg","application/octet-stream":"https://www.gutenberg.org/files/66851/66851-0.zip"},"download_count":7},{"id":67034,"title":"The Child and the Dream: A Christmas Story","authors":[{"name":"Stow, Marion Cook","birth_year":1875,"death_year":1910}],"translators":[],"subjects":["Christmas stories"],"bookshelves":[],"languages":["en"],"copyright":false,"media_type":"Text","formats":{"text/html":"https://www.gutenberg.org/ebooks/67034.html.images","application/epub+zip":"https://www.gutenberg.org/ebooks/67034.epub3.images","application/x-mobipocket-ebook":"https://www.gutenberg.org/ebooks/67034.kf8.images","text/plain; charset=us-ascii":"https://www.gutenberg.org/ebooks/67034.txt.utf-8","application/rdf+xml":"https://www.gutenberg.org/ebooks/67034.rdf","image/jpeg":"https://www.gutenberg.org/cache/epub/67034/pg67034.cover.medium.jpg","application/octet-stream":"https://www.gutenberg.org/files/67034/67034-0.zip"},"download_count":7},{"id":68164,"title":"In the volcano's mouth; or, A boy against an army","authors":[{"name":"Sheridan, Frank","birth_year":null,"death_year":null}],"translators":[],"subjects":["Adventure stories","Dime novels"],"bookshelves":[],"languages":["en"],"copyright":false,"media_type":"Text","formats":{"text/html":"https://www.gutenberg.org/ebooks/68164.html.images","application/epub+zip":"https://www.gutenberg.org/ebooks/68164.epub3.images","application/x-mobipocket-ebook":"https://www.gutenberg.org/ebooks/68164.kf8.images","text/plain; charset=us-ascii":"https://www.gutenberg.org/ebooks/68164.txt.utf-8","application/rdf+xml":"https://www.gutenberg.org/ebooks/68164.rdf","image/jpeg":"https://www.gutenberg.org/cache/epub/68164/pg68164.cover.medium.jpg","application/octet-stream":"https://www.gutenberg.org/files/68164/68164-0.zip"},"download_count":7},{"id":69444,"title":"Present status and prospects of the Peace Movement","authors":[{"name":"Suttner, Bertha von","birth_year":1843,"death_year":1914}],"translators":[],"subjects":["Peace movements"],"bookshelves":[],"languages":["en"],"copyright":false,"media_type":"Text","formats":{"text/html":"https://www.gutenberg.org/ebooks/69444.html.images","application/epub+zip":"https://www.gutenberg.org/ebooks/69444.epub3.images","application/x-mobipocket-ebook":"https://www.gutenberg.org/ebooks/69444.kf8.images","text/plain; charset=us-ascii":"https://www.gutenberg.org/ebooks/69444.txt.utf-8","application/rdf+xml":"https://www.gutenberg.org/ebooks/69444.rdf","image/jpeg":"https://www.gutenberg.org/cache/epub/69444/pg69444.cover.medium.jpg","application/octet-stream":"https://www.gutenberg.org/files/69444/69444-0.zip"},"download_count":7},{"id":69772,"title":"A Christmas snowflake: a rhyme for children","authors":[{"name":"Granniss, Anna J. (Anna Jane)","birth_year":1856,"death_year":null}],"translators":[],"subjects":["American poetry","Christmas poetry"],"bookshelves":[],"languages":["en"],"copyright":false,"media_type":"Text","formats":{"text/html":"https://www.gutenberg.org/ebooks/69772.html.images","application/epub+zip":"https://www.gutenberg.org/ebooks/69772.epub3.images","application/x-mobipocket-ebook":"https://www.gutenberg.org/ebooks/69772.kf8.images","text/plain; charset=us-ascii":"https://www.gutenberg.org/ebooks/69772.txt.utf-8","application/rdf+xml":"https://www.gutenberg.org/ebooks/69772.rdf","image/jpeg":"https://www.gutenberg.org/cache/epub/69772/pg69772.cover.medium.jpg","application/octet-stream":"https://www.gutenberg.org/files/69772/69772-0.zip"},"download_count":7},{"id":69780,"title":"Mrs. Hallam's companion; and The Spring Farm, and other tales","authors":[{"name":"Holmes, Mary Jane","birth_year":1825,"death_year":1907}],"translators":[],"subjects":["American fiction -- 19th century"],"bookshelves":[],"languages":["en"],"copyright":false,"media_type":"Text","formats":{"text/html":"https://www.gutenberg.org/ebooks/69780.html.images","application/epub+zip":"https://www.gutenberg.org/ebooks/69780.epub3.images","application/x-mobipocket-ebook":"https://www.gutenberg.org/ebooks/69780.kf8.images","text/plain; charset=us-ascii":"https://www.gutenberg.org/ebooks/69780.txt.utf-8","application/rdf+xml":"https://www.gutenberg.org/ebooks/69780.rdf","image/jpeg":"https://www.gutenberg.org/cache/epub/69780/pg69780.cover.medium.jpg","application/octet-stream":"https://www.gutenberg.org/files/69780/69780-0.zip"},"download_count":7},{"id":69800,"title":"Christmas stories","authors":[{"name":"Holmes, Mary Jane","birth_year":1825,"death_year":1907}],"translators":[],"subjects":["American fiction -- 19th century","Christmas stories, American"],"bookshelves":[],"languages":["en"],"copyright":false,"media_type":"Text","formats":{"text/html":"https://www.gutenberg.org/ebooks/69800.html.images","application/epub+zip":"https://www.gutenberg.org/ebooks/69800.epub3.images","application/x-mobipocket-ebook":"https://www.gutenberg.org/ebooks/69800.kf8.images","text/plain; charset=us-ascii":"https://www.gutenberg.org/ebooks/69800.txt.utf-8","application/rdf+xml":"https://www.gutenberg.org/ebooks/69800.rdf","image/jpeg":"https://www.gutenberg.org/cache/epub/69800/pg69800.cover.medium.jpg","application/octet-stream":"https://www.gutenberg.org/files/69800/69800-0.zip"},"download_count":7},{"id":70211,"title":"At Hotel On-de-Blink : $b An entertainment in two parts","authors":[{"name":"Seiler, George P.","birth_year":null,"death_year":null}],"translators":[],"subjects":["Comedies","Drama","Farces"],"bookshelves":[],"languages":["en"],"copyright":false,"media_type":"Text","formats":{"text/html":"https://www.gutenberg.org/ebooks/70211.html.images","application/epub+zip":"https://www.gutenberg.org/ebooks/70211.epub3.images","application/x-mobipocket-ebook":"https://www.gutenberg.org/ebooks/70211.kf8.images","text/plain; charset=us-ascii":"https://www.gutenberg.org/ebooks/70211.txt.utf-8","application/rdf+xml":"https://www.gutenberg.org/ebooks/70211.rdf","image/jpeg":"https://www.gutenberg.org/cache/epub/70211/pg70211.cover.medium.jpg","application/octet-stream":"https://www.gutenberg.org/files/70211/70211-0.zip"},"download_count":7},{"id":2206,"title":"Human Genome Project, rough draft, Chromosome Number 06","authors":[{"name":"Human Genome Project","birth_year":null,"death_year":null}],"translators":[],"subjects":["Human Genome Project","Human gene mapping","Human genetics","Nucleotide sequence"],"bookshelves":[],"languages":["en"],"copyright":false,"media_type":"Dataset","formats":{"text/plain; charset=us-ascii":"https://www.gutenberg.org/files/2206/2206.zip","application/rdf+xml":"https://www.gutenberg.org/ebooks/2206.rdf"},"download_count":6},{"id":2210,"title":"Human Genome Project, rough draft, Chromosome Number 10","authors":[{"name":"Human Genome Project","birth_year":null,"death_year":null}],"translators":[],"subjects":["Human Genome Project","Human gene mapping","Human genetics","Nucleotide sequence"],"bookshelves":[],"languages":["en"],"copyright":false,"media_type":"Dataset","formats":{"text/plain; charset=us-ascii":"https://www.gutenberg.org/files/2210/2210.zip","application/rdf+xml":"https://www.gutenberg.org/ebooks/2210.rdf"},"download_count":6},{"id":2215,"title":"Human Genome Project, rough draft, Chromosome Number 15","authors":[{"name":"Human Genome Project","birth_year":null,"death_year":null}],"translators":[],"subjects":["Human Genome Project","Human gene mapping","Human genetics","Nucleotide sequence"],"bookshelves":[],"languages":["en"],"copyright":false,"media_type":"Dataset","formats":{"text/plain; charset=us-ascii":"https://www.gutenberg.org/files/2215/2215.zip","application/rdf+xml":"https://www.gutenberg.org/ebooks/2215.rdf"},"download_count":6},{"id":2219,"title":"Human Genome Project, rough draft, Chromosome Number 19","authors":[{"name":"Human Genome Project","birth_year":null,"death_year":null}],"translators":[],"subjects":["Human Genome Project","Human gene mapping","Human genetics","Nucleotide sequence"],"bookshelves":[],"languages":["en"],"copyright":false,"media_type":"Dataset","formats":{"text/plain; charset=us-ascii":"https://www.gutenberg.org/files/2219/2219.zip","application/rdf+xml":"https://www.gutenberg.org/ebooks/2219.rdf"},"download_count":6},{"id":3521,"title":"Human Genome Project, Chromosome Number 21","authors":[{"name":"Human Genome Project","birth_year":null,"death_year":null}],"translators":[],"subjects":["Human Genome Project","Human gene mapping","Human genetics","Nucleotide sequence"],"bookshelves":[],"languages":["en"],"copyright":false,"media_type":"Dataset","formats":{"text/plain; charset=us-ascii":"https://www.gutenberg.org/files/3521/3521.zip","application/rdf+xml":"https://www.gutenberg.org/ebooks/3521.rdf"},"download_count":6},{"id":3524,"title":"Human Genome Project, Y Chromosome","authors":[{"name":"Human Genome Project","birth_year":null,"death_year":null}],"translators":[],"subjects":["Human Genome Project","Human gene mapping","Human genetics","Nucleotide sequence"],"bookshelves":[],"languages":["en"],"copyright":false,"media_type":"Dataset","formats":{"text/plain; charset=us-ascii":"https://www.gutenberg.org/files/3524/3524.zip","application/rdf+xml":"https://www.gutenberg.org/ebooks/3524.rdf"},"download_count":6},{"id":4846,"title":"History of the United Netherlands from the Death of William the Silent to the Twelve Year's Truce, 1586c","authors":[{"name":"Motley, John Lothrop","birth_year":1814,"death_year":1877}],"translators":[],"subjects":["Netherlands -- History -- Eighty Years' War, 1568-1648"],"bookshelves":[],"languages":["en"],"copyright":false,"media_type":"Text","formats":{"text/html":"https://www.gutenberg.org/ebooks/4846.html.images","application/epub+zip":"https://www.gutenberg.org/ebooks/4846.epub3.images","application/x-mobipocket-ebook":"https://www.gutenberg.org/ebooks/4846.kf8.images","text/plain; charset=us-ascii":"https://www.gutenberg.org/ebooks/4846.txt.utf-8","application/rdf+xml":"https://www.gutenberg.org/ebooks/4846.rdf","image/jpeg":"https://www.gutenberg.org/cache/epub/4846/pg4846.cover.medium.jpg","application/octet-stream":"https://www.gutenberg.org/cache/epub/4846/pg4846-h.zip"},"download_count":6},{"id":4863,"title":"History of the United Netherlands, 1590-92","authors":[{"name":"Motley, John Lothrop","birth_year":1814,"death_year":1877}],"translators":[],"subjects":["Netherlands -- History -- Eighty Years' War, 1568-1648"],"bookshelves":[],"languages":["en"],"copyright":false,"media_type":"Text","formats":{"text/html":"https://www.gutenberg.org/ebooks/4863.html.images","application/epub+zip":"https://www.gutenberg.org/ebooks/4863.epub3.images","application/x-mobipocket-ebook":"https://www.gutenberg.org/ebooks/4863.kf8.images","text/plain; charset=us-ascii":"https://www.gutenberg.org/ebooks/4863.txt.utf-8","application/rdf+xml":"https://www.gutenberg.org/ebooks/4863.rdf","image/jpeg":"https://www.gutenberg.org/cache/epub/4863/pg4863.cover.medium.jpg","application/octet-stream":"https://www.gutenberg.org/cache/epub/4863/pg4863-h.zip"},"download_count":6},{"id":4865,"title":"History of the United Netherlands, 1592-94","authors":[{"name":"Motley, John Lothrop","birth_year":1814,"death_year":1877}],"translators":[],"subjects":["Netherlands -- History -- Eighty Years' War, 1568-1648"],"bookshelves":[],"languages":["en"],"copyright":false,"media_type":"Text","formats":{"text/html":"https://www.gutenberg.org/ebooks/4865.html.images","application/epub+zip":"https://www.gutenberg.org/ebooks/4865.epub3.images","application/x-mobipocket-ebook":"https://www.gutenberg.org/ebooks/4865.kf8.images","text/plain; charset=us-ascii":"https://www.gutenberg.org/ebooks/4865.txt.utf-8","application/rdf+xml":"https://www.gutenberg.org/ebooks/4865.rdf","image/jpeg":"https://www.gutenberg.org/cache/epub/4865/pg4865.cover.medium.jpg","application/octet-stream":"https://www.gutenberg.org/cache/epub/4865/pg4865-h.zip"},"download_count":6},{"id":5357,"title":"The Inside of the Cup — Volume 02","authors":[{"name":"Churchill, Winston","birth_year":1871,"death_year":1947}],"translators":[],"subjects":["Attitude change -- Fiction","Christian ethics -- Fiction","Christian life -- Fiction","Conscience -- Religious aspects -- Fiction"],"bookshelves":["Bestsellers, American, 1895-1923"],"languages":["en"],"copyright":false,"media_type":"Text","formats":{"text/html":"https://www.gutenberg.org/ebooks/5357.html.images","application/epub+zip":"https://www.gutenberg.org/ebooks/5357.epub3.images","application/x-mobipocket-ebook":"https://www.gutenberg.org/ebooks/5357.kf8.images","text/plain; charset=us-ascii":"https://www.gutenberg.org/ebooks/5357.txt.utf-8","application/rdf+xml":"https://www.gutenberg.org/ebooks/5357.rdf","image/jpeg":"https://www.gutenberg.org/cache/epub/5357/pg5357.cover.medium.jpg","application/octet-stream":"https://www.gutenberg.org/cache/epub/5357/pg5357-h.zip"},"download_count":6}]}