{"count":58808,"next":"http://129.241.150.113:8000/books/?languages=en&page=1537","previous":"http://129.241.150.113:8000/books/?languages=en&page=1535","results":[{"id":67838,"title":"Instructions for the Management of Harvey's Sea Torpedo","authors":[{"name":"Harvey, Frederick","birth_year":null,"death_year":null}],"translators":[],"subjects":["Torpedoes"],"bookshelves":[],"languages":["en"],"copyright":false,"media_type":"Text","formats":{"text/html":"https://www.gutenberg.org/ebooks/67838.html.images","application/epub+zip":"https://www.gutenberg.org/ebooks/67838.epub3.images","application/x-mobipocket-ebook":"https://www.gutenberg.org/ebooks/67838.kf8.images","text/plain; charset=us-ascii":"https://www.gutenberg.org/ebooks/67838.txt.utf-8","application/rdf+xml":"https://www.gutenberg.org/ebooks/67838.rdf","image/jpeg":"https://www.gutenberg.org/cache/epub/67838/pg67838.cover.medium.jpg","application/octet-stream":"https://www.gutenberg.org/files/67838/67838-0.zip"},"download_count":23},{"id":67856,"title":"Eris","authors":[{"name":"Chambers, Robert W. (Robert William)","birth_year":1865,"death_year":1933}],"translators":[],"subjects":["American fiction -- 20th century"],"bookshelves":[],"languages":["en"],"copyright":false,"media_type":"Text","formats":{"text/html":"https://www.gutenberg.org/ebooks/67856.html.images","application/epub+zip":"https://www.gutenberg.org/ebooks/67856.epub3.images","application/x-mobipocket-ebook":"https://www.gutenberg.org/ebooks/67856.kf8.images","text/plain; charset=us-ascii":"https://www.gutenberg.org/ebooks/67856.txt.utf-8","application/rdf+xml":"https://www.gutenberg.org/ebooks/67856.rdf","image/jpeg":"https://www.gutenberg.org/cache/epub/67856/pg67856.cover.medium.jpg","application/octet-stream":"https://www.gutenberg.org/files/67856/67856-0.zip"},"download_count":23},{"id":67951,"title":"My Secret Service: Vienna, Sophia, Constantinople, Nish, Belgrade, Asia Minor, etc.","authors":[{"name":"Man who dined with the Kaiser","birth_year":null,"death_year":null}],"translators":[],"subjects":["World War, 1914-1918 -- Personal narratives","World War, 1914-1918 -- Secret service"],"bookshelves":[],"languages":["en"],"copyright":false,"media_type":"Text","formats":{"text/html":"https://www.gutenberg.org/ebooks/67951.html.images","application/epub+zip":"https://www.gutenberg.org/ebooks/67951.epub3.images","application/x-mobipocket-ebook":"https://www.gutenberg.org/ebooks/67951.kf8.images","text/plain; charset=us-ascii":"https://www.gutenberg.org/ebooks/67951.txt.utf-8","application/rdf+xml":"https://www.gutenberg.org/ebooks/67951.rdf","image/jpeg":"https://www.gutenberg.org/cache/epub/67951/pg67951.cover.medium.jpg","application/octet-stream":"https://www.gutenberg.org/files/67951/67951-0.zip"},"download_count":23},{"id":67987,"title":"H.M.I.: Some Passages in the Life of One of H.M. Inspectors of Schools","authors":[{"name":"Sneyd-Kynnersley, E. M. (Edmund McKenzie)","birth_year":1841,"death_year":1933}],"translators":[],"subjects":["Education -- Great Britain","School management and organization -- Great Britain"],"bookshelves":[],"languages":["en"],"copyright":false,"media_type":"Text","formats":{"text/html":"https://www.gutenberg.org/ebooks/67987.html.images","application/epub+zip":"https://www.gutenberg.org/ebooks/67987.epub3.images","application/x-mobipocket-ebook":"https://www.gutenberg.org/ebooks/67987.kf8.images","text/plain; charset=us-ascii":"https://www.gutenberg.org/ebooks/67987.txt.utf-8","application/rdf+xml":"https://www.gutenberg.org/ebooks/67987.rdf","image/jpeg":"https://www.gutenberg.org/cache/epub/67987/pg67987.cover.medium.jpg","application/octet-stream":"https://www.gutenberg.org/files/67987/67987-0.zip"},"download_count":23},{"id":68020,"title":"The Yale Literary Magazine (Vol. LXXXVIII, No. 2, November 1922)","authors":[{"name":"Various","birth_year":null,"death_year":null}],"translators":[],"subjects":["College students' writings, American -- Connecticut -- New Haven -- Periodicals","Yale University -- Periodicals"],"bookshelves":[],"languages":["en"],"copyright":false,"media_type":"Text","formats":{"text/html":"https://www.gutenberg.org/ebooks/68020.html.images","application/epub+zip":"https://www.gutenberg.org/ebooks/68020.epub3.images","application/x-mobipocket-ebook":"https://www.gutenberg.org/ebooks/68020.kf8.images","text/plain; charset=us-ascii":"https://www.gutenberg.org/ebooks/68020.txt.utf-8","application/rdf+xml":"https://www.gutenberg.org/ebooks/68020.rdf","image/jpeg":"https://www.gutenberg.org/cache/epub/68020/pg68020.cover.medium.jpg","application/octet-stream":"https://www.gutenberg.org/files/68020/68020-0.zip"},"download_count":23},{"id":68035,"title":"Chambers's Journal of Popular Literature, Science, and Art, Fifth Series, No. 114, Vol. III, March 6, 1886","authors":[{"name":"Various","birth_year":null,"death_year":null}],"translators":[],"subjects":["Periodicals"],"bookshelves":[],"languages":["en"],"copyright":false,"media_type":"Text","formats":{"text/html":"https://www.gutenberg.org/ebooks/68035.html.images","application/epub+zip":"https://www.gutenberg.org/ebooks/68035.epub3.images","application/x-mobipocket-ebook":"https://www.gutenberg.org/ebooks/68035.kf8.images","text/plain; charset=us-ascii":"https://www.gutenberg.org/ebooks/68035.txt.utf-8","application/rdf+xml":"https://www.gutenberg.org/ebooks/68035.rdf","image/jpeg":"https://www.gutenberg.org/cache/epub/68035/pg68035.cover.medium.jpg","application/octet-stream":"https://www.gutenberg.org/files/68035/68035-0.zip"},"download_count":23},{"id":68066,"title":"On poetic interpretation of nature","authors":[{"name":"Shairp, John Campbell","birth_year":1819,"death_year":1885}],"translators":[],"subjects":["Nature in literature","Poetry -- History and criticism"],"bookshelves":[],"languages":["en"],"copyright":false,"media_type":"Text","formats":{"text/html":"https://www.gutenberg.org/ebooks/68066.html.images","application/epub+zip":"https://www.gutenberg.org/ebooks/68066.epub3.images","application/x-mobipocket-ebook":"https://www.gutenberg.org/ebooks/68066.kf8.images","text/plain; charset=us-ascii":"https://www.gutenberg.org/ebooks/68066.txt.utf-8","application/rdf+xml":"https://www.gutenberg.org/ebooks/68066.rdf","image/jpeg":"https://www.gutenberg.org/cache/epub/68066/pg68066.cover.medium.jpg","application/octet-stream":"https://www.gutenberg.org/files/68066/68066-0.zip"},"download_count":23},{"id":68082,"title":"The blackest page in modern history: Events in Armenia in 1915: the facts and the responsibilities","authors":[{"name":"Gibbons, Herbert Adams","birth_year":1880,"death_year":1934}],"translators":[],"subjects":["Armenian Genocide, 1915-1923","Armenian question"],"bookshelves":[],"languages":["en"],"copyright":false,"media_type":"Text","formats":{"text/html":"https://www.gutenberg.org/ebooks/68082.html.images","application/epub+zip":"https://www.gutenberg.org/ebooks/68082.epub3.images","application/x-mobipocket-ebook":"https://www.gutenberg.org/ebooks/68082.kf8.images","text/plain; charset=us-ascii":"https://www.gutenberg.org/ebooks/68082.txt.utf-8","application/rdf+xml":"https://www.gutenberg.org/ebooks/68082.rdf","image/jpeg":"https://www.gutenberg.org/cache/epub/68082/pg68082.cover.medium.jpg","application/octet-stream":"https://www.gutenberg.org/files/68082/68082-0.zip"},"download_count":23},{"id":68095,"title":"Reminiscences of the Chattanooga campaign: A paper read at the reunion of Company B, Fortieth Ohio volunteer infantry, at Xenia, O., August 22, 1894","authors":[{"name":"Doan, Isaac C.","birth_year":null,"death_year":null}],"translators":[],"subjects":["Chattanooga, Battle of, Chattanooga, Tenn., 1863","Chickamauga, Battle of, Ga., 1863","Doan, Isaac C.","United States -- History -- Civil War, 1861-1865 -- Campaigns","United States -- History -- Civil War, 1861-1865 -- Personal narratives","United States. Army. Ohio Infantry Regiment, 40th (1861-1864)"],"bookshelves":[],"languages":["en"],"copyright":false,"media_type":"Text","formats":{"text/html":"https://www.gutenberg.org/ebooks/68095.html.images","application/epub+zip":"https://www.gutenberg.org/ebooks/68095.epub3.images","application/x-mobipocket-ebook":"https://www.gutenberg.org/ebooks/68095.kf8.images","text/plain; charset=us-ascii":"https://www.gutenberg.org/ebooks/68095.txt.utf-8","application/rdf+xml":"https://www.gutenberg.org/ebooks/68095.rdf","image/jpeg":"https://www.gutenberg.org/cache/epub/68095/pg68095.cover.medium.jpg","application/octet-stream":"https://www.gutenberg.org/files/68095/68095-0.zip"},"download_count":23},{"id":68097,"title":"Report on the New York Botanical Garden","authors":[{"name":"Olmsted Brothers","birth_year":null,"death_year":null}],"translators":[],"subjects":["New York Botanical Garden"],"bookshelves":[],"languages":["en"],"copyright":false,"media_type":"Text","formats":{"text/html":"https://www.gutenberg.org/ebooks/68097.html.images","application/epub+zip":"https://www.gutenberg.org/ebooks/68097.epub3.images","application/x-mobipocket-ebook":"https://www.gutenberg.org/ebooks/68097.kf8.images","text/plain; charset=us-ascii":"https://www.gutenberg.org/ebooks/68097.txt.utf-8","application/rdf+xml":"https://www.gutenberg.org/ebooks/68097.rdf","image/jpeg":"https://www.gutenberg.org/cache/epub/68097/pg68097.cover.medium.jpg","application/octet-stream":"https://www.gutenberg.org/files/68097/68097-0.zip"},"download_count":23},{"id":68159,"title":"Good citizenship","authors":[{"name":"Cleveland, Grover","birth_year":1837,"death_year":1908}],"translators":[],"subjects":["Citizenship","Holidays","National characteristics, American","Patriotism"],"bookshelves":[],"languages":["en"],"copyright":false,"media_type":"Text","formats":{"text/html":"https://www.gutenberg.org/ebooks/68159.html.images","application/epub+zip":"https://www.gutenberg.org/ebooks/68159.epub3.images","application/x-mobipocket-ebook":"https://www.gutenberg.org/ebooks/68159.kf8.images","text/plain; charset=us-ascii":"https://www.gutenberg.org/ebooks/68159.txt.utf-8","application/rdf+xml":"https://www.gutenberg.org/ebooks/68159.rdf","image/jpeg":"https://www.gutenberg.org/cache/epub/68159/pg68159.cover.medium.jpg","application/octet-stream":"https://www.gutenberg.org/files/68159/68159-0.zip"},"download_count":23},{"id":68160,"title":"The black cat (vol. I, no. 3, December 1895)","authors":[{"name":"Various","birth_year":null,"death_year":null}],"translators":[],"subjects":["Short stories, American -- Periodicals"],"bookshelves":[],"languages":["en"],"copyright":false,"media_type":"Text","formats":{"text/html":"https://www.gutenberg.org/ebooks/68160.html.images","application/epub+zip":"https://www.gutenberg.org/ebooks/68160.epub3.images","application/x-mobipocket-ebook":"https://www.gutenberg.org/ebooks/68160.kf8.images","text/plain; charset=us-ascii":"https://www.gutenberg.org/ebooks/68160.txt.utf-8","application/rdf+xml":"https://www.gutenberg.org/ebooks/68160.rdf","image/jpeg":"https://www.gutenberg.org/cache/epub/68160/pg68160.cover.medium.jpg","application/octet-stream":"https://www.gutenberg.org/files/68160/68160-0.zip"},"download_count":23},{"id":68161,"title":"Trouble Times Two","authors":[{"name":"Smith, George O. (George Oliver)","birth_year":1911,"death_year":1981}],"translators":[],"subjects":["Engineers -- Fiction","Multiple personality -- Fiction","Physicists -- Fiction","Science fiction"],"bookshelves":[],"languages":["en"],"copyright":false,"media_type":"Text","formats":{"text/html":"https://www.gutenberg.org/ebooks/68161.html.images","application/epub+zip":"https://www.gutenberg.org/ebooks/68161.epub3.images","application/x-mobipocket-ebook":"https://www.gutenberg.org/ebooks/68161.kf8.images","text/plain; charset=us-ascii":"https://www.gutenberg.org/ebooks/68161.txt.utf-8","application/rdf+xml":"https://www.gutenberg.org/ebooks/68161.rdf","image/jpeg":"https://www.gutenberg.org/cache/epub/68161/pg68161.cover.medium.jpg","application/octet-stream":"https://www.gutenberg.org/files/68161/68161-0.zip"},"download_count":23},{"id":68249,"title":"When a witch is young: a historical novel","authors":[{"name":"Mighels, Philip Verrill","birth_year":1869,"death_year":1911}],"translators":[],"subjects":["Historical fiction","Massachusetts -- History -- Colonial period, ca. 1600-1775 -- Fiction","Puritans -- New England -- Fiction","Witchcraft -- New England -- Fiction"],"bookshelves":[],"languages":["en"],"copyright":false,"media_type":"Text","formats":{"text/html":"https://www.gutenberg.org/ebooks/68249.html.images","application/epub+zip":"https://www.gutenberg.org/ebooks/68249.epub3.images","application/x-mobipocket-ebook":"https://www.gutenberg.org/ebooks/68249.kf8.images","text/plain; charset=us-ascii":"https://www.gutenberg.org/ebooks/68249.txt.utf-8","application/rdf+xml":"https://www.gutenberg.org/ebooks/68249.rdf","image/jpeg":"https://www.gutenberg.org/cache/epub/68249/pg68249.cover.medium.jpg","application/octet-stream":"https://www.gutenberg.org/files/68249/68249-0.zip"},"download_count":23},{"id":68273,"title":"Love's bitterest cup","authors":[{"name":"Southworth, Emma Dorothy Eliza Nevitte","birth_year":1819,"death_year":1899}],"translators":[],"subjects":["Impediments to marriage -- Fiction","Romance fiction","United States -- Social life and customs -- 19th century -- Fiction","Young women -- Conduct of life -- Fiction"],"bookshelves":[],"languages":["en"],"copyright":false,"media_type":"Text","formats":{"text/html":"https://www.gutenberg.org/ebooks/68273.html.images","application/epub+zip":"https://www.gutenberg.org/ebooks/68273.epub3.images","application/x-mobipocket-ebook":"https://www.gutenberg.org/ebooks/68273.kf8.images","text/plain; charset=us-ascii":"https://www.gutenberg.org/ebooks/68273.txt.utf-8","application/rdf+xml":"https://www.gutenberg.org/ebooks/68273.rdf","image/jpeg":"https://www.gutenberg.org/cache/epub/68273/pg68273.cover.medium.jpg","application/octet-stream":"https://www.gutenberg.org/files/68273/68273-0.zip"},"download_count":23},{"id":68293,"title":"Dulcie Carlyon: A novel. Volume 1 (of 3)","authors":[{"name":"Grant, James","birth_year":1822,"death_year":1887}],"translators":[],"subjects":["Fiction"],"bookshelves":[],"languages":["en"],"copyright":false,"media_type":"Text","formats":{"text/html":"https://www.gutenberg.org/ebooks/68293.html.images","application/epub+zip":"https://www.gutenberg.org/ebooks/68293.epub3.images","application/x-mobipocket-ebook":"https://www.gutenberg.org/ebooks/68293.kf8.images","text/plain; charset=us-ascii":"https://www.gutenberg.org/ebooks/68293.txt.utf-8","application/rdf+xml":"https://www.gutenberg.org/ebooks/68293.rdf","image/jpeg":"https://www.gutenberg.org/cache/epub/68293/pg68293.cover.medium.jpg","application/octet-stream":"https://www.gutenberg.org/files/68293/68293-0.zip"},"download_count":23},{"id":68354,"title":"The Undamned","authors":[{"name":"Smith, George O. (George Oliver)","birth_year":1911,"death_year":1981}],"translators":[],"subjects":["Nuclear warfare -- Fiction","Nuclear weapons -- Fiction","Science fiction","Spouses -- Fiction","Telepathy -- Fiction"],"bookshelves":[],"languages":["en"],"copyright":false,"media_type":"Text","formats":{"text/html":"https://www.gutenberg.org/ebooks/68354.html.images","application/epub+zip":"https://www.gutenberg.org/ebooks/68354.epub3.images","application/x-mobipocket-ebook":"https://www.gutenberg.org/ebooks/68354.kf8.images","text/plain; charset=us-ascii":"https://www.gutenberg.org/ebooks/68354.txt.utf-8","application/rdf+xml":"https://www.gutenberg.org/ebooks/68354.rdf","image/jpeg":"https://www.gutenberg.org/cache/epub/68354/pg68354.cover.medium.jpg","application/octet-stream":"https://www.gutenberg.org/files/68354/68354-0.zip"},"download_count":23},{"id":68361,"title":"Nick Carter Stories No. 159, September 25, 1915: Driven from cover; or, Nick Carter's double ruse.","authors":[{"name":"Carter, Nicholas (House name)","birth_year":null,"death_year":null}],"translators":[],"subjects":["Detective and mystery stories, American -- Periodicals","Popular literature -- Periodicals"],"bookshelves":[],"languages":["en"],"copyright":false,"media_type":"Text","formats":{"text/html":"https://www.gutenberg.org/ebooks/68361.html.images","application/epub+zip":"https://www.gutenberg.org/ebooks/68361.epub3.images","application/x-mobipocket-ebook":"https://www.gutenberg.org/ebooks/68361.kf8.images","text/plain; charset=us-ascii":"https://www.gutenberg.org/ebooks/68361.txt.utf-8","application/rdf+xml":"https://www.gutenberg.org/ebooks/68361.rdf","image/jpeg":"https://www.gutenberg.org/cache/epub/68361/pg68361.cover.medium.jpg","application/octet-stream":"https://www.gutenberg.org/files/68361/68361-0.zip"},"download_count":23},{"id":68417,"title":"The lighting of the Christmas tree","authors":[{"name":"Lagerlöf, Selma","birth_year":1858,"death_year":1940},{"name":"Palmer, Josephine Ludlow","birth_year":null,"death_year":null},{"name":"Thorp, Annie Longfellow","birth_year":1852,"death_year":1931}],"translators":[],"subjects":["Christmas plays"],"bookshelves":[],"languages":["en"],"copyright":false,"media_type":"Text","formats":{"text/html":"https://www.gutenberg.org/ebooks/68417.html.images","application/epub+zip":"https://www.gutenberg.org/ebooks/68417.epub3.images","application/x-mobipocket-ebook":"https://www.gutenberg.org/ebooks/68417.kf8.images","text/plain; charset=us-ascii":"https://www.gutenberg.org/ebooks/68417.txt.utf-8","application/rdf+xml":"https://www.gutenberg.org/ebooks/68417.rdf","image/jpeg":"https://www.gutenberg.org/cache/epub/68417/pg68417.cover.medium.jpg","application/octet-stream":"https://www.gutenberg.org/files/68417/68417-0.zip"},"download_count":23},{"id":68441,"title":"In the cards","authors":[{"name":"Smith, George O. (George Oliver)","birth_year":1911,"death_year":1981}],"translators":[],"subjects":["Adventure stories","Science fiction","Space ships -- Fiction","Thieves -- Fiction"],"bookshelves":[],"languages":["en"],"copyright":false,"media_type":"Text","formats":{"text/html":"https://www.gutenberg.org/ebooks/68441.html.images","application/epub+zip":"https://www.gutenberg.org/ebooks/68441.epub3.images","application/x-mobipocket-ebook":"https://www.gutenberg.org/ebooks/68441.kf8.images","text/plain; charset=us-ascii":"https://www.gutenberg.org/ebooks/68441.txt.utf-8","application/rdf+xml":"https://www.gutenberg.org/ebooks/68441.rdf","image/jpeg":"https://www.gutenberg.org/cache/epub/68441/pg68441.cover.medium.jpg","application/octet-stream":"https://www.gutenberg.org/files/68441/68441-0.zip"},"download_count":23},{"id":68480,"title":"The naval cadet: A story of adventures on land and sea","authors":[{"name":"Stables, Gordon","birth_year":1840,"death_year":1910}],"translators":[],"subjects":["Adventure stories","Conduct of life -- Juvenile fiction","Indigenous peoples -- Juvenile fiction","Papua New Guinea -- Juvenile fiction","Sailors -- Juvenile fiction","Seafaring life -- Juvenile fiction","Venezuela -- Juvenile fiction","Voyages and travels -- Juvenile fiction","Youth -- Conduct of life -- Juvenile fiction"],"bookshelves":[],"languages":["en"],"copyright":false,"media_type":"Text","formats":{"text/html":"https://www.gutenberg.org/ebooks/68480.html.images","application/epub+zip":"https://www.gutenberg.org/ebooks/68480.epub3.images","application/x-mobipocket-ebook":"https://www.gutenberg.org/ebooks/68480.kf8.images","text/plain; charset=us-ascii":"https://www.gutenberg.org/ebooks/68480.txt.utf-8","application/rdf+xml":"https://www.gutenberg.org/ebooks/68480.rdf","image/jpeg":"https://www.gutenberg.org/cache/epub/68480/pg68480.cover.medium.jpg","application/octet-stream":"https://www.gutenberg.org/files/68480/68480-0.zip"},"download_count":23},{"id":68522,"title":"Life of Liszt","authors":[{"name":"Nohl, Ludwig","birth_year":1831,"death_year":1885}],"translators":[{"name":"Upton, George P. (George Putnam)","birth_year":1834,"death_year":1919}],"subjects":["Liszt, Franz, 1811-1886"],"bookshelves":[],"languages":["en"],"copyright":false,"media_type":"Text","formats":{"text/html":"https://www.gutenberg.org/ebooks/68522.html.images","application/epub+zip":"https://www.gutenberg.org/ebooks/68522.epub3.images","application/x-mobipocket-ebook":"https://www.gutenberg.org/ebooks/68522.kf8.images","text/plain; charset=us-ascii":"https://www.gutenberg.org/ebooks/68522.txt.utf-8","application/rdf+xml":"https://www.gutenberg.org/ebooks/68522.rdf","image/jpeg":"https://www.gutenberg.org/cache/epub/68522/pg68522.cover.medium.jpg","application/octet-stream":"https://www.gutenberg.org/files/68522/68522-0.zip"},"download_count":23},{"id":68524,"title":"The optimist","authors":[{"name":"Delafield, E. M.","birth_year":1890,"death_year":1943}],"translators":[],"subjects":["Children of clergy -- Fiction","Clergy -- England -- Fiction","England -- Social life and customs -- 20th century -- Fiction","World War, 1914-1918 -- Veterans -- Fiction"],"bookshelves":[],"languages":["en"],"copyright":false,"media_type":"Text","formats":{"text/html":"https://www.gutenberg.org/ebooks/68524.html.images","application/epub+zip":"https://www.gutenberg.org/ebooks/68524.epub3.images","application/x-mobipocket-ebook":"https://www.gutenberg.org/ebooks/68524.kf8.images","text/plain; charset=us-ascii":"https://www.gutenberg.org/ebooks/68524.txt.utf-8","application/rdf+xml":"https://www.gutenberg.org/ebooks/68524.rdf","image/jpeg":"https://www.gutenberg.org/cache/epub/68524/pg68524.cover.medium.jpg","application/octet-stream":"https://www.gutenberg.org/files/68524/68524-0.zip"},"download_count":23},{"id":68530,"title":"Crystals","authors":[{"name":"Tutton, A. E. H. (Alfred Edwin Howard)","birth_year":1864,"death_year":1938}],"translators":[],"subjects":["Crystallography"],"bookshelves":[],"languages":["en"],"copyright":false,"media_type":"Text","formats":{"text/html":"https://www.gutenberg.org/ebooks/68530.html.images","application/epub+zip":"https://www.gutenberg.org/ebooks/68530.epub3.images","application/x-mobipocket-ebook":"https://www.gutenberg.org/ebooks/68530.kf8.images","text/plain; charset=us-ascii":"https://www.gutenberg.org/ebooks/68530.txt.utf-8","application/rdf+xml":"https://www.gutenberg.org/ebooks/68530.rdf","image/jpeg":"https://www.gutenberg.org/cache/epub/68530/pg68530.cover.medium.jpg","application/octet-stream":"https://www.gutenberg.org/files/68530/68530-0.zip"},"download_count":23},{"id":68540,"title":"Pelts and palisades: The story of fur and the rivalry for pelts in early America","authors":[{"name":"Hale, Nathaniel C. (Nathaniel Claiborne)","birth_year":1903,"death_year":1948}],"translators":[],"subjects":["Fur trade -- Canada","Fur trade -- United States","United States -- History -- Colonial period, ca. 1600-1775"],"bookshelves":[],"languages":["en"],"copyright":false,"media_type":"Text","formats":{"text/html":"https://www.gutenberg.org/ebooks/68540.html.images","application/epub+zip":"https://www.gutenberg.org/ebooks/68540.epub3.images","application/x-mobipocket-ebook":"https://www.gutenberg.org/ebooks/68540.kf8.images","text/plain; charset=us-ascii":"https://www.gutenberg.org/ebooks/68540.txt.utf-8","application/rdf+xml":"https://www.gutenberg.org/ebooks/68540.rdf","image/jpeg":"https://www.gutenberg.org/cache/epub/68540/pg68540.cover.medium.jpg","application/octet-stream":"https://www.gutenberg.org/files/68540/68540-0.zip"},"download_count":23},{"id":68544,"title":"St. Cuthbert's tower","authors":[{"name":"Warden, Florence","birth_year":1857,"death_year":1929}],"translators":[],"subjects":["Clergy -- Fiction","Farms -- Fiction","Mystery fiction","Yorkshire (England) -- Fiction","Young women -- Fiction"],"bookshelves":[],"languages":["en"],"copyright":false,"media_type":"Text","formats":{"text/html":"https://www.gutenberg.org/ebooks/68544.html.images","application/epub+zip":"https://www.gutenberg.org/ebooks/68544.epub3.images","application/x-mobipocket-ebook":"https://www.gutenberg.org/ebooks/68544.kf8.images","text/plain; charset=us-ascii":"https://www.gutenberg.org/ebooks/68544.txt.utf-8","application/rdf+xml":"https://www.gutenberg.org/ebooks/68544.rdf","image/jpeg":"https://www.gutenberg.org/cache/epub/68544/pg68544.cover.medium.jpg","application/octet-stream":"https://www.gutenberg.org/files/68544/68544-0.zip"},"download_count":23},{"id":68548,"title":"The Arizona Callahan","authors":[{"name":"Bedford-Jones, H. (Henry)","birth_year":1887,"death_year":1949}],"translators":[],"subjects":["Adventure stories","Beaver Island (Mich.) -- Fiction"],"bookshelves":[],"languages":["en"],"copyright":false,"media_type":"Text","formats":{"text/html":"https://www.gutenberg.org/ebooks/68548.html.images","application/epub+zip":"https://www.gutenberg.org/ebooks/68548.epub3.images","application/x-mobipocket-ebook":"https://www.gutenberg.org/ebooks/68548.kf8.images","text/plain; charset=us-ascii":"https://www.gutenberg.org/ebooks/68548.txt.utf-8","application/rdf+xml":"https://www.gutenberg.org/ebooks/68548.rdf","image/jpeg":"https://www.gutenberg.org/cache/epub/68548/pg68548.cover.medium.jpg","application/octet-stream":"https://www.gutenberg.org/files/68548/68548-0.zip"},"download_count":23},{"id":68615,"title":"Breathes there a man","authors":[{"name":"Fritch, Charles E.","birth_year":1927,"death_year":2012}],"translators":[],"subjects":["Dystopias -- Fiction","Science fiction","Short stories","Totalitarianism -- Fiction"],"bookshelves":[],"languages":["en"],"copyright":false,"media_type":"Text","formats":{"text/html":"https://www.gutenberg.org/ebooks/68615.html.images","application/epub+zip":"https://www.gutenberg.org/ebooks/68615.epub3.images","application/x-mobipocket-ebook":"https://www.gutenberg.org/ebooks/68615.kf8.images","text/plain; charset=us-ascii":"https://www.gutenberg.org/ebooks/68615.txt.utf-8","application/rdf+xml":"https://www.gutenberg.org/ebooks/68615.rdf","image/jpeg":"https://www.gutenberg.org/cache/epub/68615/pg68615.cover.medium.jpg","application/octet-stream":"https://www.gutenberg.org/files/68615/68615-0.zip"},"download_count":23},{"id":68677,"title":"Timid Lucy","authors":[{"name":"Baker, Sarah S. (Sarah Schoonmaker)","birth_year":1824,"death_year":1906}],"translators":[],"subjects":["Christian life -- Juvenile fiction","Fathers and daughters -- Juvenile fiction","Physicians -- Family relationships -- Juvenile fiction","Siblings -- Juvenile fiction","Sunday school literature","Teasing -- Juvenile fiction","Timidity -- Juvenile fiction"],"bookshelves":[],"languages":["en"],"copyright":false,"media_type":"Text","formats":{"text/html":"https://www.gutenberg.org/ebooks/68677.html.images","application/epub+zip":"https://www.gutenberg.org/ebooks/68677.epub3.images","application/x-mobipocket-ebook":"https://www.gutenberg.org/ebooks/68677.kf8.images","text/plain; charset=us-ascii":"https://www.gutenberg.org/ebooks/68677.txt.utf-8","application/rdf+xml":"https://www.gutenberg.org/ebooks/68677.rdf","image/jpeg":"https://www.gutenberg.org/cache/epub/68677/pg68677.cover.medium.jpg","application/octet-stream":"https://www.gutenberg.org/files/68677/68677-0.zip"},"download_count":23},{"id":68738,"title":"The Lanchester tradition","authors":[{"name":"Bradby, G. F. (Godfrey Fox)","birth_year":1863,"death_year":1947}],"translators":[],"subjects":["Endowed public schools (Great Britain) -- Fiction"],"bookshelves":[],"languages":["en"],"copyright":false,"media_type":"Text","formats":{"text/html":"https://www.gutenberg.org/ebooks/68738.html.images","application/epub+zip":"https://www.gutenberg.org/ebooks/68738.epub3.images","application/x-mobipocket-ebook":"https://www.gutenberg.org/ebooks/68738.kf8.images","text/plain; charset=us-ascii":"https://www.gutenberg.org/ebooks/68738.txt.utf-8","application/rdf+xml":"https://www.gutenberg.org/ebooks/68738.rdf","image/jpeg":"https://www.gutenberg.org/cache/epub/68738/pg68738.cover.medium.jpg","application/octet-stream":"https://www.gutenberg.org/files/68738/68738-0.zip"},"download_count":23},{"id":68763,"title":"A modern exodus: a novel","authors":[{"name":"Guttenberg, Violet","birth_year":null,"death_year":null}],"translators":[],"subjects":["Antisemitism -- Fiction","Jews -- England -- Fiction","Jews -- Palestine -- Fiction","Speculative fiction","Zionism -- Fiction"],"bookshelves":[],"languages":["en"],"copyright":false,"media_type":"Text","formats":{"text/html":"https://www.gutenberg.org/ebooks/68763.html.images","application/epub+zip":"https://www.gutenberg.org/ebooks/68763.epub3.images","application/x-mobipocket-ebook":"https://www.gutenberg.org/ebooks/68763.kf8.images","text/plain; charset=us-ascii":"https://www.gutenberg.org/ebooks/68763.txt.utf-8","application/rdf+xml":"https://www.gutenberg.org/ebooks/68763.rdf","image/jpeg":"https://www.gutenberg.org/cache/epub/68763/pg68763.cover.medium.jpg","application/octet-stream":"https://www.gutenberg.org/files/68763/68763-0.zip"},"download_count":23},{"id":68800,"title":"Angelica","authors":[{"name":"Holding, Elisabeth Sanxay","birth_year":1889,"death_year":1955}],"translators":[],"subjects":["Man-woman relationships -- Fiction","Single mothers -- Fiction","Social classes -- Fiction","Young women -- Fiction"],"bookshelves":[],"languages":["en"],"copyright":false,"media_type":"Text","formats":{"text/html":"https://www.gutenberg.org/ebooks/68800.html.images","application/epub+zip":"https://www.gutenberg.org/ebooks/68800.epub3.images","application/x-mobipocket-ebook":"https://www.gutenberg.org/ebooks/68800.kf8.images","text/plain; charset=us-ascii":"https://www.gutenberg.org/ebooks/68800.txt.utf-8","application/rdf+xml":"https://www.gutenberg.org/ebooks/68800.rdf","image/jpeg":"https://www.gutenberg.org/cache/epub/68800/pg68800.cover.medium.jpg","application/octet-stream":"https://www.gutenberg.org/files/68800/68800-0.zip"},"download_count":23}]}