{"count":58808,"next":"http://129.241.150.113:8000/books/?languages=en&page=835","previous":"http://129.241.150.113:8000/books/?languages=en&page=833","results":[{"id":66161,"title":"Special Detective (Ashton-Kirk)","authors":[{"name":"McIntyre, John T. (John Thomas)","birth_year":1871,"death_year":1951}],"translators":[],"subjects":["American fiction -- 20th century","Detective and mystery stories"],"bookshelves":[],"languages":["en"],"copyright":false,"media_type":"Text","formats":{"text/html":"https://www.gutenberg.org/ebooks/66161.html.images","application/epub+zip":"https://www.gutenberg.org/ebooks/66161.epub3.images","application/x-mobipocket-ebook":"https://www.gutenberg.org/ebooks/66161.kf8.images","text/plain; charset=us-ascii":"https://www.gutenberg.org/ebooks/66161.txt.utf-8","application/rdf+xml":"https://www.gutenberg.org/ebooks/66161.rdf","image/jpeg":"https://www.gutenberg.org/cache/epub/66161/pg66161.cover.medium.jpg","application/octet-stream":"https://www.gutenberg.org/files/66161/66161-0.zip"},"download_count":42},{"id":66254,"title":"A Briefe Discovrse of a Disease called the Suffocation of the Mother","authors":[{"name":"Jorden, Edward","birth_year":1569,"death_year":1632}],"translators":[],"subjects":["Hysteria -- Early works to 1900","Uterus -- Displacements -- Early works to 1800"],"bookshelves":[],"languages":["en"],"copyright":false,"media_type":"Text","formats":{"text/html":"https://www.gutenberg.org/ebooks/66254.html.images","application/epub+zip":"https://www.gutenberg.org/ebooks/66254.epub3.images","application/x-mobipocket-ebook":"https://www.gutenberg.org/ebooks/66254.kf8.images","text/plain; charset=us-ascii":"https://www.gutenberg.org/ebooks/66254.txt.utf-8","application/rdf+xml":"https://www.gutenberg.org/ebooks/66254.rdf","image/jpeg":"https://www.gutenberg.org/cache/epub/66254/pg66254.cover.medium.jpg","application/octet-stream":"https://www.gutenberg.org/files/66254/66254-0.zip"},"download_count":42},{"id":66460,"title":"The Book of Gallant Vagabonds","authors":[{"name":"Beston, Henry","birth_year":1888,"death_year":1968}],"translators":[],"subjects":["Adventure and adventurers -- Biography","Belzoni, Giovanni Battista, 1778-1823","Bruce, James, 1730-1794","Ledyard, John, 1751-1789","Morton, Thomas, 1575-1646","Rimbaud, Arthur, 1854-1891","Trelawny, Edward John, 1792-1881"],"bookshelves":[],"languages":["en"],"copyright":false,"media_type":"Text","formats":{"text/html":"https://www.gutenberg.org/ebooks/66460.html.images","application/epub+zip":"https://www.gutenberg.org/ebooks/66460.epub3.images","application/x-mobipocket-ebook":"https://www.gutenberg.org/ebooks/66460.kf8.images","text/plain; charset=us-ascii":"https://www.gutenberg.org/ebooks/66460.txt.utf-8","application/rdf+xml":"https://www.gutenberg.org/ebooks/66460.rdf","image/jpeg":"https://www.gutenberg.org/cache/epub/66460/pg66460.cover.medium.jpg","application/octet-stream":"https://www.gutenberg.org/files/66460/66460-0.zip"},"download_count":42},{"id":66533,"title":"Benton's Venture","authors":[{"name":"Barbour, Ralph Henry","birth_year":1870,"death_year":1944}],"translators":[],"subjects":["Adventure stories","Automobiles -- Juvenile fiction","New York (State) -- Fiction","Teenage boys -- Fiction"],"bookshelves":[],"languages":["en"],"copyright":false,"media_type":"Text","formats":{"text/html":"https://www.gutenberg.org/ebooks/66533.html.images","application/epub+zip":"https://www.gutenberg.org/ebooks/66533.epub3.images","application/x-mobipocket-ebook":"https://www.gutenberg.org/ebooks/66533.kf8.images","text/plain; charset=us-ascii":"https://www.gutenberg.org/ebooks/66533.txt.utf-8","application/rdf+xml":"https://www.gutenberg.org/ebooks/66533.rdf","image/jpeg":"https://www.gutenberg.org/cache/epub/66533/pg66533.cover.medium.jpg","application/octet-stream":"https://www.gutenberg.org/files/66533/66533-0.zip"},"download_count":42},{"id":66542,"title":"Nick Carter Stories No. 138 May 1, 1915; The Traitors of the Tropics; or, Nick Carter's Royal Flush","authors":[{"name":"Carter, Nicholas (House name)","birth_year":null,"death_year":null}],"translators":[],"subjects":["Attempted assassination -- Fiction","Caribbean Area -- Fiction","Coups d'état -- Fiction","Deception -- Fiction","Detective and mystery stories","Dime novels"],"bookshelves":[],"languages":["en"],"copyright":false,"media_type":"Text","formats":{"text/html":"https://www.gutenberg.org/ebooks/66542.html.images","application/epub+zip":"https://www.gutenberg.org/ebooks/66542.epub3.images","application/x-mobipocket-ebook":"https://www.gutenberg.org/ebooks/66542.kf8.images","text/plain; charset=us-ascii":"https://www.gutenberg.org/ebooks/66542.txt.utf-8","application/rdf+xml":"https://www.gutenberg.org/ebooks/66542.rdf","image/jpeg":"https://www.gutenberg.org/cache/epub/66542/pg66542.cover.medium.jpg","application/octet-stream":"https://www.gutenberg.org/files/66542/66542-0.zip"},"download_count":42},{"id":66545,"title":"The Heir of Mondolfo","authors":[{"name":"Shelley, Mary Wollstonecraft","birth_year":1797,"death_year":1851}],"translators":[],"subjects":["Fathers and sons -- Fiction","Husband and wife -- Fiction","Naples (Kingdom) -- Fiction","Social classes -- Fiction"],"bookshelves":[],"languages":["en"],"copyright":false,"media_type":"Text","formats":{"text/html":"https://www.gutenberg.org/ebooks/66545.html.images","application/epub+zip":"https://www.gutenberg.org/ebooks/66545.epub3.images","application/x-mobipocket-ebook":"https://www.gutenberg.org/ebooks/66545.kf8.images","text/plain; charset=us-ascii":"https://www.gutenberg.org/ebooks/66545.txt.utf-8","application/rdf+xml":"https://www.gutenberg.org/ebooks/66545.rdf","image/jpeg":"https://www.gutenberg.org/cache/epub/66545/pg66545.cover.medium.jpg","application/octet-stream":"https://www.gutenberg.org/files/66545/66545-0.zip"},"download_count":42},{"id":66552,"title":"The Bibliomaniac","authors":[{"name":"Nodier, Charles","birth_year":1780,"death_year":1844}],"translators":[{"name":"Wright, Mabel Osgood","birth_year":1859,"death_year":1934}],"subjects":["Bibliomania"],"bookshelves":[],"languages":["en"],"copyright":false,"media_type":"Text","formats":{"text/html":"https://www.gutenberg.org/ebooks/66552.html.images","application/epub+zip":"https://www.gutenberg.org/ebooks/66552.epub3.images","application/x-mobipocket-ebook":"https://www.gutenberg.org/ebooks/66552.kf8.images","text/plain; charset=us-ascii":"https://www.gutenberg.org/ebooks/66552.txt.utf-8","application/rdf+xml":"https://www.gutenberg.org/ebooks/66552.rdf","image/jpeg":"https://www.gutenberg.org/cache/epub/66552/pg66552.cover.medium.jpg","application/octet-stream":"https://www.gutenberg.org/files/66552/66552-0.zip"},"download_count":42},{"id":66716,"title":"The supernatural in early Spanish literature: Studied in the works of the court of Alfonso X, el Sabio","authors":[{"name":"Callcott, Frank","birth_year":1891,"death_year":null}],"translators":[],"subjects":["Alfonso X, King of Castile and Leon, 1221-1284","Mary, Blessed Virgin, Saint -- Legends","Miracles","Spanish literature -- To 1500 -- History and criticism","Supernatural in literature"],"bookshelves":[],"languages":["en"],"copyright":false,"media_type":"Text","formats":{"text/html":"https://www.gutenberg.org/ebooks/66716.html.images","application/epub+zip":"https://www.gutenberg.org/ebooks/66716.epub3.images","application/x-mobipocket-ebook":"https://www.gutenberg.org/ebooks/66716.kf8.images","text/plain; charset=us-ascii":"https://www.gutenberg.org/ebooks/66716.txt.utf-8","application/rdf+xml":"https://www.gutenberg.org/ebooks/66716.rdf","image/jpeg":"https://www.gutenberg.org/cache/epub/66716/pg66716.cover.medium.jpg","application/octet-stream":"https://www.gutenberg.org/files/66716/66716-0.zip"},"download_count":42},{"id":66816,"title":"Automatic finger control: Seventh Edition","authors":[{"name":"U.S. School of Music","birth_year":null,"death_year":null}],"translators":[],"subjects":["Mind and body","Music -- Performance -- Physiological aspects","Musical instruments -- Instruction and study","Musical instruments -- Studies and exercises","Physical education and training"],"bookshelves":[],"languages":["en"],"copyright":false,"media_type":"Text","formats":{"text/html":"https://www.gutenberg.org/ebooks/66816.html.images","application/epub+zip":"https://www.gutenberg.org/ebooks/66816.epub3.images","application/x-mobipocket-ebook":"https://www.gutenberg.org/ebooks/66816.kf8.images","text/plain; charset=us-ascii":"https://www.gutenberg.org/ebooks/66816.txt.utf-8","application/rdf+xml":"https://www.gutenberg.org/ebooks/66816.rdf","image/jpeg":"https://www.gutenberg.org/cache/epub/66816/pg66816.cover.medium.jpg","application/octet-stream":"https://www.gutenberg.org/files/66816/66816-0.zip"},"download_count":42},{"id":66898,"title":"Dough or Dynamite","authors":[{"name":"Tuttle, W. C. (Wilbur C.)","birth_year":1883,"death_year":1969}],"translators":[],"subjects":["Cowboys -- Fiction","Western stories"],"bookshelves":[],"languages":["en"],"copyright":false,"media_type":"Text","formats":{"text/html":"https://www.gutenberg.org/ebooks/66898.html.images","application/epub+zip":"https://www.gutenberg.org/ebooks/66898.epub3.images","application/x-mobipocket-ebook":"https://www.gutenberg.org/ebooks/66898.kf8.images","text/plain; charset=us-ascii":"https://www.gutenberg.org/ebooks/66898.txt.utf-8","application/rdf+xml":"https://www.gutenberg.org/ebooks/66898.rdf","image/jpeg":"https://www.gutenberg.org/cache/epub/66898/pg66898.cover.medium.jpg","application/octet-stream":"https://www.gutenberg.org/files/66898/66898-0.zip"},"download_count":42},{"id":66915,"title":"The Spring of a Lion","authors":[{"name":"Haggard, H. Rider (Henry Rider)","birth_year":1856,"death_year":1925}],"translators":[],"subjects":["Adventure stories","Hunting stories","Lion hunting -- Fiction","Quatermain, Allan (Fictitious character) -- Fiction","Short stories","South Africa -- Fiction"],"bookshelves":[],"languages":["en"],"copyright":false,"media_type":"Text","formats":{"text/html":"https://www.gutenberg.org/ebooks/66915.html.images","application/epub+zip":"https://www.gutenberg.org/ebooks/66915.epub3.images","application/x-mobipocket-ebook":"https://www.gutenberg.org/ebooks/66915.kf8.images","text/plain; charset=us-ascii":"https://www.gutenberg.org/ebooks/66915.txt.utf-8","application/rdf+xml":"https://www.gutenberg.org/ebooks/66915.rdf","image/jpeg":"https://www.gutenberg.org/cache/epub/66915/pg66915.cover.medium.jpg","application/octet-stream":"https://www.gutenberg.org/files/66915/66915-0.zip"},"download_count":42},{"id":67198,"title":"Constantino Brumidi, Michelangelo of the United States Capitol","authors":[{"name":"Murdock, Myrtle Cheney","birth_year":1885,"death_year":1980}],"translators":[],"subjects":["Brumidi, Constantino, 1805-1880"],"bookshelves":[],"languages":["en"],"copyright":false,"media_type":"Text","formats":{"text/html":"https://www.gutenberg.org/ebooks/67198.html.images","application/epub+zip":"https://www.gutenberg.org/ebooks/67198.epub3.images","application/x-mobipocket-ebook":"https://www.gutenberg.org/ebooks/67198.kf8.images","text/plain; charset=us-ascii":"https://www.gutenberg.org/ebooks/67198.txt.utf-8","application/rdf+xml":"https://www.gutenberg.org/ebooks/67198.rdf","image/jpeg":"https://www.gutenberg.org/cache/epub/67198/pg67198.cover.medium.jpg","application/octet-stream":"https://www.gutenberg.org/files/67198/67198-0.zip"},"download_count":42},{"id":67199,"title":"Return to Gone-Away","authors":[{"name":"Enright, Elizabeth","birth_year":1909,"death_year":1968}],"translators":[],"subjects":["Cousins -- Juvenile fiction","Family -- Juvenile fiction","Vacations -- Juvenile fiction"],"bookshelves":[],"languages":["en"],"copyright":false,"media_type":"Text","formats":{"text/html":"https://www.gutenberg.org/ebooks/67199.html.images","application/epub+zip":"https://www.gutenberg.org/ebooks/67199.epub3.images","application/x-mobipocket-ebook":"https://www.gutenberg.org/ebooks/67199.kf8.images","text/plain; charset=us-ascii":"https://www.gutenberg.org/ebooks/67199.txt.utf-8","application/rdf+xml":"https://www.gutenberg.org/ebooks/67199.rdf","image/jpeg":"https://www.gutenberg.org/cache/epub/67199/pg67199.cover.medium.jpg","application/octet-stream":"https://www.gutenberg.org/files/67199/67199-0.zip"},"download_count":42},{"id":67228,"title":"The King's Own Borderers: A Military Romance, Volume 3 (of 3)","authors":[{"name":"Grant, James","birth_year":1822,"death_year":1887}],"translators":[],"subjects":["Soldiers -- Fiction"],"bookshelves":[],"languages":["en"],"copyright":false,"media_type":"Text","formats":{"text/html":"https://www.gutenberg.org/ebooks/67228.html.images","application/epub+zip":"https://www.gutenberg.org/ebooks/67228.epub3.images","application/x-mobipocket-ebook":"https://www.gutenberg.org/ebooks/67228.kf8.images","text/plain; charset=us-ascii":"https://www.gutenberg.org/ebooks/67228.txt.utf-8","application/rdf+xml":"https://www.gutenberg.org/ebooks/67228.rdf","image/jpeg":"https://www.gutenberg.org/cache/epub/67228/pg67228.cover.medium.jpg","application/octet-stream":"https://www.gutenberg.org/files/67228/67228-0.zip"},"download_count":42},{"id":67298,"title":"Stormy, Misty's Foal","authors":[{"name":"Henry, Marguerite","birth_year":1902,"death_year":1997}],"translators":[],"subjects":["Chincoteague Island (Va.) -- Juvenile fiction","Chincoteague pony -- Juvenile fiction","Horses -- Juvenile fiction","Misty (Horse) -- Juvenile fiction","Ponies -- Juvenile fiction","Stormy (Horse) -- Juvenile fiction"],"bookshelves":[],"languages":["en"],"copyright":false,"media_type":"Text","formats":{"text/html":"https://www.gutenberg.org/ebooks/67298.html.images","application/epub+zip":"https://www.gutenberg.org/ebooks/67298.epub3.images","application/x-mobipocket-ebook":"https://www.gutenberg.org/ebooks/67298.kf8.images","text/plain; charset=us-ascii":"https://www.gutenberg.org/ebooks/67298.txt.utf-8","application/rdf+xml":"https://www.gutenberg.org/ebooks/67298.rdf","image/jpeg":"https://www.gutenberg.org/cache/epub/67298/pg67298.cover.medium.jpg","application/octet-stream":"https://www.gutenberg.org/files/67298/67298-0.zip"},"download_count":42},{"id":67494,"title":"Blackboard Sketching","authors":[{"name":"Whitney, Frederick","birth_year":1858,"death_year":1949}],"translators":[],"subjects":["Blackboard drawing"],"bookshelves":[],"languages":["en"],"copyright":false,"media_type":"Text","formats":{"text/html":"https://www.gutenberg.org/ebooks/67494.html.images","application/epub+zip":"https://www.gutenberg.org/ebooks/67494.epub3.images","application/x-mobipocket-ebook":"https://www.gutenberg.org/ebooks/67494.kf8.images","text/plain; charset=us-ascii":"https://www.gutenberg.org/ebooks/67494.txt.utf-8","application/rdf+xml":"https://www.gutenberg.org/ebooks/67494.rdf","image/jpeg":"https://www.gutenberg.org/cache/epub/67494/pg67494.cover.medium.jpg","application/octet-stream":"https://www.gutenberg.org/files/67494/67494-0.zip"},"download_count":42},{"id":67502,"title":"Africa and the American Flag","authors":[{"name":"Foote, Andrew H. (Andrew Hull)","birth_year":1806,"death_year":1863}],"translators":[],"subjects":["Africa, West -- Description and travel","Liberia -- History -- 1847-1944","Slave trade -- Africa, West"],"bookshelves":[],"languages":["en"],"copyright":false,"media_type":"Text","formats":{"text/html":"https://www.gutenberg.org/ebooks/67502.html.images","application/epub+zip":"https://www.gutenberg.org/ebooks/67502.epub3.images","application/x-mobipocket-ebook":"https://www.gutenberg.org/ebooks/67502.kf8.images","text/plain; charset=us-ascii":"https://www.gutenberg.org/ebooks/67502.txt.utf-8","application/rdf+xml":"https://www.gutenberg.org/ebooks/67502.rdf","image/jpeg":"https://www.gutenberg.org/cache/epub/67502/pg67502.cover.medium.jpg","application/octet-stream":"https://www.gutenberg.org/files/67502/67502-0.zip"},"download_count":42},{"id":67893,"title":"The Rover Boys Shipwrecked; or, A Thrilling Hunt for Pirates' Gold","authors":[{"name":"Stratemeyer, Edward","birth_year":1862,"death_year":1930}],"translators":[],"subjects":["Adventure and adventurers -- Juvenile fiction","Atlantic Ocean -- Juvenile fiction","Pirates -- Juvenile fiction","Robinsonades","Shipwrecks -- Juvenile fiction","Survival -- Juvenile fiction","Treasure troves -- Juvenile fiction"],"bookshelves":[],"languages":["en"],"copyright":false,"media_type":"Text","formats":{"text/html":"https://www.gutenberg.org/ebooks/67893.html.images","application/epub+zip":"https://www.gutenberg.org/ebooks/67893.epub3.images","application/x-mobipocket-ebook":"https://www.gutenberg.org/ebooks/67893.kf8.images","text/plain; charset=us-ascii":"https://www.gutenberg.org/ebooks/67893.txt.utf-8","application/rdf+xml":"https://www.gutenberg.org/ebooks/67893.rdf","image/jpeg":"https://www.gutenberg.org/cache/epub/67893/pg67893.cover.medium.jpg","application/octet-stream":"https://www.gutenberg.org/files/67893/67893-0.zip"},"download_count":42},{"id":68112,"title":"A guide to the Cathedral Church of Saint John the Divine in the city of New York: Fifth Edition","authors":[{"name":"Hall, Edward Hagaman","birth_year":1858,"death_year":1936}],"translators":[],"subjects":["Cathedral of St. John the Divine (New York, N.Y.)"],"bookshelves":[],"languages":["en"],"copyright":false,"media_type":"Text","formats":{"text/html":"https://www.gutenberg.org/ebooks/68112.html.images","application/epub+zip":"https://www.gutenberg.org/ebooks/68112.epub3.images","application/x-mobipocket-ebook":"https://www.gutenberg.org/ebooks/68112.kf8.images","text/plain; charset=us-ascii":"https://www.gutenberg.org/ebooks/68112.txt.utf-8","application/rdf+xml":"https://www.gutenberg.org/ebooks/68112.rdf","image/jpeg":"https://www.gutenberg.org/cache/epub/68112/pg68112.cover.medium.jpg","application/octet-stream":"https://www.gutenberg.org/files/68112/68112-0.zip"},"download_count":42},{"id":68189,"title":"Independence: Rectorial address delivered at St. Andrews October 10, 1923","authors":[{"name":"Kipling, Rudyard","birth_year":1865,"death_year":1936}],"translators":[],"subjects":["Self-reliance"],"bookshelves":[],"languages":["en"],"copyright":false,"media_type":"Text","formats":{"text/html":"https://www.gutenberg.org/ebooks/68189.html.images","application/epub+zip":"https://www.gutenberg.org/ebooks/68189.epub3.images","application/x-mobipocket-ebook":"https://www.gutenberg.org/ebooks/68189.kf8.images","text/plain; charset=us-ascii":"https://www.gutenberg.org/ebooks/68189.txt.utf-8","application/rdf+xml":"https://www.gutenberg.org/ebooks/68189.rdf","image/jpeg":"https://www.gutenberg.org/cache/epub/68189/pg68189.cover.medium.jpg","application/octet-stream":"https://www.gutenberg.org/files/68189/68189-0.zip"},"download_count":42},{"id":68239,"title":"Personality of plants","authors":[{"name":"Dixon, Royal","birth_year":1885,"death_year":1962},{"name":"Fitch, Franklyn Everett","birth_year":null,"death_year":null}],"translators":[],"subjects":["Plants"],"bookshelves":[],"languages":["en"],"copyright":false,"media_type":"Text","formats":{"text/html":"https://www.gutenberg.org/ebooks/68239.html.images","application/epub+zip":"https://www.gutenberg.org/ebooks/68239.epub3.images","application/x-mobipocket-ebook":"https://www.gutenberg.org/ebooks/68239.kf8.images","text/plain; charset=us-ascii":"https://www.gutenberg.org/ebooks/68239.txt.utf-8","application/rdf+xml":"https://www.gutenberg.org/ebooks/68239.rdf","image/jpeg":"https://www.gutenberg.org/cache/epub/68239/pg68239.cover.medium.jpg","application/octet-stream":"https://www.gutenberg.org/files/68239/68239-0.zip"},"download_count":42},{"id":68322,"title":"The cruise of the Canoe Club","authors":[{"name":"Alden, W. L. (William Livingston)","birth_year":1837,"death_year":1908}],"translators":[],"subjects":["Canoes and canoeing -- Juvenile fiction"],"bookshelves":[],"languages":["en"],"copyright":false,"media_type":"Text","formats":{"text/html":"https://www.gutenberg.org/ebooks/68322.html.images","application/epub+zip":"https://www.gutenberg.org/ebooks/68322.epub3.images","application/x-mobipocket-ebook":"https://www.gutenberg.org/ebooks/68322.kf8.images","text/plain; charset=us-ascii":"https://www.gutenberg.org/ebooks/68322.txt.utf-8","application/rdf+xml":"https://www.gutenberg.org/ebooks/68322.rdf","image/jpeg":"https://www.gutenberg.org/cache/epub/68322/pg68322.cover.medium.jpg","application/octet-stream":"https://www.gutenberg.org/files/68322/68322-0.zip"},"download_count":42},{"id":68394,"title":"The Trouvelot astronomical drawings manual","authors":[{"name":"Trouvelot, E. L. (Etienne Leopold)","birth_year":1827,"death_year":1895}],"translators":[],"subjects":["Astronomy -- Pictorial works"],"bookshelves":[],"languages":["en"],"copyright":false,"media_type":"Text","formats":{"text/html":"https://www.gutenberg.org/ebooks/68394.html.images","application/epub+zip":"https://www.gutenberg.org/ebooks/68394.epub3.images","application/x-mobipocket-ebook":"https://www.gutenberg.org/ebooks/68394.kf8.images","text/plain; charset=us-ascii":"https://www.gutenberg.org/ebooks/68394.txt.utf-8","application/rdf+xml":"https://www.gutenberg.org/ebooks/68394.rdf","image/jpeg":"https://www.gutenberg.org/cache/epub/68394/pg68394.cover.medium.jpg","application/octet-stream":"https://www.gutenberg.org/files/68394/68394-0.zip"},"download_count":42},{"id":68466,"title":"Building a championship football team","authors":[{"name":"Bryant, Paul W.","birth_year":1913,"death_year":1983}],"translators":[],"subjects":["Football"],"bookshelves":[],"languages":["en"],"copyright":false,"media_type":"Text","formats":{"text/html":"https://www.gutenberg.org/ebooks/68466.html.images","application/epub+zip":"https://www.gutenberg.org/ebooks/68466.epub3.images","application/x-mobipocket-ebook":"https://www.gutenberg.org/ebooks/68466.kf8.images","text/plain; charset=us-ascii":"https://www.gutenberg.org/ebooks/68466.txt.utf-8","application/rdf+xml":"https://www.gutenberg.org/ebooks/68466.rdf","image/jpeg":"https://www.gutenberg.org/cache/epub/68466/pg68466.cover.medium.jpg","application/octet-stream":"https://www.gutenberg.org/files/68466/68466-0.zip"},"download_count":42},{"id":68546,"title":"The house on Henry Street","authors":[{"name":"Wald, Lillian D.","birth_year":1867,"death_year":1940}],"translators":[],"subjects":["Henry Street Settlement (New York, N.Y.)","Poor -- New York (State) -- New York"],"bookshelves":[],"languages":["en"],"copyright":false,"media_type":"Text","formats":{"text/html":"https://www.gutenberg.org/ebooks/68546.html.images","application/epub+zip":"https://www.gutenberg.org/ebooks/68546.epub3.images","application/x-mobipocket-ebook":"https://www.gutenberg.org/ebooks/68546.kf8.images","text/plain; charset=us-ascii":"https://www.gutenberg.org/ebooks/68546.txt.utf-8","application/rdf+xml":"https://www.gutenberg.org/ebooks/68546.rdf","image/jpeg":"https://www.gutenberg.org/cache/epub/68546/pg68546.cover.medium.jpg","application/octet-stream":"https://www.gutenberg.org/files/68546/68546-0.zip"},"download_count":42},{"id":68555,"title":"The night wire","authors":[{"name":"Arnold, H. F. (Henry Ferris)","birth_year":1902,"death_year":1963}],"translators":[],"subjects":["Horror tales","News agencies -- Fiction","Short stories"],"bookshelves":[],"languages":["en"],"copyright":false,"media_type":"Text","formats":{"text/html":"https://www.gutenberg.org/ebooks/68555.html.images","application/epub+zip":"https://www.gutenberg.org/ebooks/68555.epub3.images","application/x-mobipocket-ebook":"https://www.gutenberg.org/ebooks/68555.kf8.images","text/plain; charset=us-ascii":"https://www.gutenberg.org/ebooks/68555.txt.utf-8","application/rdf+xml":"https://www.gutenberg.org/ebooks/68555.rdf","image/jpeg":"https://www.gutenberg.org/cache/epub/68555/pg68555.cover.medium.jpg","application/octet-stream":"https://www.gutenberg.org/files/68555/68555-0.zip"},"download_count":42},{"id":68718,"title":"Out of the sea","authors":[{"name":"Brackett, Leigh","birth_year":1915,"death_year":1978}],"translators":[],"subjects":["Man-woman relationships -- Fiction","Monsters -- Fiction","Santa Monica (Calif.) -- Fiction","Science fiction","World War, 1939-1945 -- Fiction"],"bookshelves":[],"languages":["en"],"copyright":false,"media_type":"Text","formats":{"text/html":"https://www.gutenberg.org/ebooks/68718.html.images","application/epub+zip":"https://www.gutenberg.org/ebooks/68718.epub3.images","application/x-mobipocket-ebook":"https://www.gutenberg.org/ebooks/68718.kf8.images","text/plain; charset=us-ascii":"https://www.gutenberg.org/ebooks/68718.txt.utf-8","application/rdf+xml":"https://www.gutenberg.org/ebooks/68718.rdf","image/jpeg":"https://www.gutenberg.org/cache/epub/68718/pg68718.cover.medium.jpg","application/octet-stream":"https://www.gutenberg.org/files/68718/68718-0.zip"},"download_count":42},{"id":69088,"title":"Fabian Essays in Socialism","authors":[],"translators":[],"subjects":["Socialism","Socialism -- Great Britain"],"bookshelves":[],"languages":["en"],"copyright":false,"media_type":"Text","formats":{"text/html":"https://www.gutenberg.org/ebooks/69088.html.images","application/epub+zip":"https://www.gutenberg.org/ebooks/69088.epub3.images","application/x-mobipocket-ebook":"https://www.gutenberg.org/ebooks/69088.kf8.images","text/plain; charset=us-ascii":"https://www.gutenberg.org/ebooks/69088.txt.utf-8","application/rdf+xml":"https://www.gutenberg.org/ebooks/69088.rdf","image/jpeg":"https://www.gutenberg.org/cache/epub/69088/pg69088.cover.medium.jpg","application/octet-stream":"https://www.gutenberg.org/files/69088/69088-0.zip"},"download_count":42},{"id":69102,"title":"The Moon","authors":[{"name":"Farrington, Oliver C. (Oliver Cummings)","birth_year":1864,"death_year":1933}],"translators":[],"subjects":["Lunar geology","Moon","Moon -- Surface"],"bookshelves":[],"languages":["en"],"copyright":false,"media_type":"Text","formats":{"text/html":"https://www.gutenberg.org/ebooks/69102.html.images","application/epub+zip":"https://www.gutenberg.org/ebooks/69102.epub3.images","application/x-mobipocket-ebook":"https://www.gutenberg.org/ebooks/69102.kf8.images","text/plain; charset=us-ascii":"https://www.gutenberg.org/ebooks/69102.txt.utf-8","application/rdf+xml":"https://www.gutenberg.org/ebooks/69102.rdf","image/jpeg":"https://www.gutenberg.org/cache/epub/69102/pg69102.cover.medium.jpg","application/octet-stream":"https://www.gutenberg.org/files/69102/69102-0.zip"},"download_count":42},{"id":69179,"title":"Travels in Western Africa in 1845 & 1846, Volume 2 (of 2): comprising a journey from Whydah through the Kingdom of Dahomey to Adofoodia in the interior","authors":[{"name":"Duncan, John","birth_year":1805,"death_year":1849}],"translators":[],"subjects":["Africa, West -- Description and travel","Benin -- Description and travel"],"bookshelves":[],"languages":["en"],"copyright":false,"media_type":"Text","formats":{"text/html":"https://www.gutenberg.org/ebooks/69179.html.images","application/epub+zip":"https://www.gutenberg.org/ebooks/69179.epub3.images","application/x-mobipocket-ebook":"https://www.gutenberg.org/ebooks/69179.kf8.images","text/plain; charset=us-ascii":"https://www.gutenberg.org/ebooks/69179.txt.utf-8","application/rdf+xml":"https://www.gutenberg.org/ebooks/69179.rdf","image/jpeg":"https://www.gutenberg.org/cache/epub/69179/pg69179.cover.medium.jpg","application/octet-stream":"https://www.gutenberg.org/files/69179/69179-0.zip"},"download_count":42},{"id":69234,"title":"The long road of woman's memory","authors":[{"name":"Addams, Jane","birth_year":1860,"death_year":1935}],"translators":[],"subjects":["Women -- History","Women -- Psychology","Women -- Social conditions"],"bookshelves":[],"languages":["en"],"copyright":false,"media_type":"Text","formats":{"text/html":"https://www.gutenberg.org/ebooks/69234.html.images","application/epub+zip":"https://www.gutenberg.org/ebooks/69234.epub3.images","application/x-mobipocket-ebook":"https://www.gutenberg.org/ebooks/69234.kf8.images","text/plain; charset=us-ascii":"https://www.gutenberg.org/ebooks/69234.txt.utf-8","application/rdf+xml":"https://www.gutenberg.org/ebooks/69234.rdf","image/jpeg":"https://www.gutenberg.org/cache/epub/69234/pg69234.cover.medium.jpg","application/octet-stream":"https://www.gutenberg.org/files/69234/69234-0.zip"},"download_count":42},{"id":69339,"title":"ODTAA: A novel","authors":[{"name":"Masefield, John","birth_year":1878,"death_year":1967}],"translators":[],"subjects":["Adventure stories","Central America -- Fiction","Imaginary places -- Fiction"],"bookshelves":[],"languages":["en"],"copyright":false,"media_type":"Text","formats":{"text/html":"https://www.gutenberg.org/ebooks/69339.html.images","application/epub+zip":"https://www.gutenberg.org/ebooks/69339.epub3.images","application/x-mobipocket-ebook":"https://www.gutenberg.org/ebooks/69339.kf8.images","text/plain; charset=us-ascii":"https://www.gutenberg.org/ebooks/69339.txt.utf-8","application/rdf+xml":"https://www.gutenberg.org/ebooks/69339.rdf","image/jpeg":"https://www.gutenberg.org/cache/epub/69339/pg69339.cover.medium.jpg","application/octet-stream":"https://www.gutenberg.org/files/69339/69339-0.zip"},"download_count":42}]}