{"count":58808,"next":"http://129.241.150.113:8000/books/?languages=en&page=1214","previous":"http://129.241.150.113:8000/books/?languages=en&page=1212","results":[{"id":8979,"title":"Five Weeks in a Balloon","authors":[{"name":"Verne, Jules","birth_year":1828,"death_year":1905}],"translators":[],"subjects":["Adventure stories","Africa -- Fiction","Balloons -- Fiction","Science fiction","Voyages and travels -- Fiction"],"bookshelves":[],"languages":["en"],"copyright":true,"media_type":"Sound","formats":{"text/plain; charset=us-ascii":"https://www.gutenberg.org/files/8979/8979-readme.txt","text/html; charset=iso-8859-1":"https://www.gutenberg.org/files/8979/8979-index.htm","audio/mpeg":"https://www.gutenberg.org/files/8979/mp3/8979-000.mp3","application/rdf+xml":"https://www.gutenberg.org/ebooks/8979.rdf","application/octet-stream":"https://www.gutenberg.org/files/8979/8979-mp3.zip"},"download_count":30},{"id":9037,"title":"Tom Sawyer, Detective","authors":[{"name":"Twain, Mark","birth_year":1835,"death_year":1910}],"translators":[],"subjects":["Detective and mystery stories","Sawyer, Tom (Fictitious character) -- Fiction"],"bookshelves":[],"languages":["en"],"copyright":true,"media_type":"Sound","formats":{"text/plain; charset=us-ascii":"https://www.gutenberg.org/files/9037/9037-readme.txt","text/html; charset=iso-8859-1":"https://www.gutenberg.org/files/9037/9037-index.htm","audio/mpeg":"https://www.gutenberg.org/files/9037/mp3/9037-000.mp3","application/rdf+xml":"https://www.gutenberg.org/ebooks/9037.rdf","application/octet-stream":"https://www.gutenberg.org/files/9037/9037-mp3.zip"},"download_count":30},{"id":9092,"title":"The Farmer's Boy: A Rural Poem","authors":[{"name":"Bloomfield, Robert","birth_year":1766,"death_year":1823}],"translators":[],"subjects":["Country life -- Poetry"],"bookshelves":[],"languages":["en"],"copyright":false,"media_type":"Text","formats":{"text/html":"https://www.gutenberg.org/ebooks/9092.html.images","application/epub+zip":"https://www.gutenberg.org/ebooks/9092.epub3.images","application/x-mobipocket-ebook":"https://www.gutenberg.org/ebooks/9092.kf8.images","text/plain; charset=us-ascii":"https://www.gutenberg.org/ebooks/9092.txt.utf-8","text/plain; charset=iso-8859-1":"https://www.gutenberg.org/files/9092/9092-8.txt","application/rdf+xml":"https://www.gutenberg.org/ebooks/9092.rdf","image/jpeg":"https://www.gutenberg.org/cache/epub/9092/pg9092.cover.medium.jpg","application/octet-stream":"https://www.gutenberg.org/cache/epub/9092/pg9092-h.zip"},"download_count":30},{"id":9217,"title":"The Lily's Quest (From \"Twice Told Tales\")","authors":[{"name":"Hawthorne, Nathaniel","birth_year":1804,"death_year":1864}],"translators":[],"subjects":["Historical fiction, American","New England -- Social life and customs -- Fiction","Short stories"],"bookshelves":["Children's Literature"],"languages":["en"],"copyright":false,"media_type":"Text","formats":{"text/html":"https://www.gutenberg.org/ebooks/9217.html.images","text/html; charset=utf-8":"https://www.gutenberg.org/files/9217/9217-h/9217-h.htm","application/epub+zip":"https://www.gutenberg.org/ebooks/9217.epub3.images","application/x-mobipocket-ebook":"https://www.gutenberg.org/ebooks/9217.kf8.images","text/plain; charset=us-ascii":"https://www.gutenberg.org/ebooks/9217.txt.utf-8","text/plain; charset=utf-8":"https://www.gutenberg.org/files/9217/9217-0.txt","application/rdf+xml":"https://www.gutenberg.org/ebooks/9217.rdf","image/jpeg":"https://www.gutenberg.org/cache/epub/9217/pg9217.cover.medium.jpg","application/octet-stream":"https://www.gutenberg.org/cache/epub/9217/pg9217-h.zip"},"download_count":30},{"id":9252,"title":"Time's Portraiture: (From: \"The Doliver Romance and Other Pieces: Tales and Sketches\")","authors":[{"name":"Hawthorne, Nathaniel","birth_year":1804,"death_year":1864}],"translators":[],"subjects":["Time"],"bookshelves":[],"languages":["en"],"copyright":false,"media_type":"Text","formats":{"text/html":"https://www.gutenberg.org/ebooks/9252.html.images","text/html; charset=iso-8859-1":"https://www.gutenberg.org/files/9252/9252-h/9252-h.htm","application/epub+zip":"https://www.gutenberg.org/ebooks/9252.epub3.images","application/x-mobipocket-ebook":"https://www.gutenberg.org/ebooks/9252.kf8.images","text/plain; charset=us-ascii":"https://www.gutenberg.org/ebooks/9252.txt.utf-8","application/rdf+xml":"https://www.gutenberg.org/ebooks/9252.rdf","image/jpeg":"https://www.gutenberg.org/cache/epub/9252/pg9252.cover.medium.jpg","application/octet-stream":"https://www.gutenberg.org/cache/epub/9252/pg9252-h.zip"},"download_count":30},{"id":9315,"title":"A Doctor of the Old School — Volume 1","authors":[{"name":"Maclaren, Ian","birth_year":1850,"death_year":1907}],"translators":[],"subjects":["Physicians -- Fiction"],"bookshelves":[],"languages":["en"],"copyright":false,"media_type":"Text","formats":{"text/html":"https://www.gutenberg.org/ebooks/9315.html.images","text/html; charset=iso-8859-1":"https://www.gutenberg.org/files/9315/9315-h/9315-h.htm","application/epub+zip":"https://www.gutenberg.org/ebooks/9315.epub3.images","application/x-mobipocket-ebook":"https://www.gutenberg.org/ebooks/9315.kf8.images","text/plain; charset=us-ascii":"https://www.gutenberg.org/ebooks/9315.txt.utf-8","application/rdf+xml":"https://www.gutenberg.org/ebooks/9315.rdf","image/jpeg":"https://www.gutenberg.org/cache/epub/9315/pg9315.cover.medium.jpg","application/octet-stream":"https://www.gutenberg.org/cache/epub/9315/pg9315-h.zip"},"download_count":30},{"id":9342,"title":"Falk","authors":[{"name":"Conrad, Joseph","birth_year":1857,"death_year":1924}],"translators":[],"subjects":["Seafaring life -- Fiction"],"bookshelves":[],"languages":["en"],"copyright":true,"media_type":"Sound","formats":{"text/plain; charset=us-ascii":"https://www.gutenberg.org/files/9342/9342-readme.txt","text/html; charset=iso-8859-1":"https://www.gutenberg.org/files/9342/9342-index.htm","audio/mpeg":"https://www.gutenberg.org/files/9342/mp3/9342-000.mp3","application/rdf+xml":"https://www.gutenberg.org/ebooks/9342.rdf","application/octet-stream":"https://www.gutenberg.org/files/9342/9342-mp3.zip"},"download_count":30},{"id":9427,"title":"The Return of the Native","authors":[{"name":"Hardy, Thomas","birth_year":1840,"death_year":1928}],"translators":[],"subjects":["Adultery -- Fiction","Didactic fiction","Heathlands -- Fiction","Love stories","Mate selection -- Fiction","Mothers and sons -- Fiction","People with visual disabilities -- Fiction","Wessex (England) -- Fiction"],"bookshelves":[],"languages":["en"],"copyright":true,"media_type":"Sound","formats":{"text/plain; charset=us-ascii":"https://www.gutenberg.org/files/9427/9427-readme.txt","text/html; charset=iso-8859-1":"https://www.gutenberg.org/files/9427/9427-index.htm","audio/mpeg":"https://www.gutenberg.org/files/9427/mp3/9427-000.mp3","application/rdf+xml":"https://www.gutenberg.org/ebooks/9427.rdf","application/octet-stream":"https://www.gutenberg.org/files/9427/9427-mp3.zip"},"download_count":30},{"id":9445,"title":"Samantha among the Brethren — Volume 3","authors":[{"name":"Holley, Marietta","birth_year":1836,"death_year":1926}],"translators":[],"subjects":["Methodism -- Humor","Women in church work -- Methodist church -- Humor","Women's rights -- Humor"],"bookshelves":["Humor"],"languages":["en"],"copyright":false,"media_type":"Text","formats":{"text/html":"https://www.gutenberg.org/ebooks/9445.html.images","text/html; charset=iso-8859-1":"https://www.gutenberg.org/files/9445/9445-h/9445-h.htm","application/epub+zip":"https://www.gutenberg.org/ebooks/9445.epub3.images","application/x-mobipocket-ebook":"https://www.gutenberg.org/ebooks/9445.kf8.images","text/plain; charset=us-ascii":"https://www.gutenberg.org/ebooks/9445.txt.utf-8","application/rdf+xml":"https://www.gutenberg.org/ebooks/9445.rdf","image/jpeg":"https://www.gutenberg.org/cache/epub/9445/pg9445.cover.medium.jpg","application/octet-stream":"https://www.gutenberg.org/cache/epub/9445/pg9445-h.zip"},"download_count":30},{"id":9446,"title":"Samantha among the Brethren — Volume 4","authors":[{"name":"Holley, Marietta","birth_year":1836,"death_year":1926}],"translators":[],"subjects":["Methodism -- Humor","Women in church work -- Methodist church -- Humor","Women's rights -- Humor"],"bookshelves":["Humor"],"languages":["en"],"copyright":false,"media_type":"Text","formats":{"text/html":"https://www.gutenberg.org/ebooks/9446.html.images","text/html; charset=iso-8859-1":"https://www.gutenberg.org/files/9446/9446-h/9446-h.htm","application/epub+zip":"https://www.gutenberg.org/ebooks/9446.epub3.images","application/x-mobipocket-ebook":"https://www.gutenberg.org/ebooks/9446.kf8.images","text/plain; charset=us-ascii":"https://www.gutenberg.org/ebooks/9446.txt.utf-8","application/rdf+xml":"https://www.gutenberg.org/ebooks/9446.rdf","image/jpeg":"https://www.gutenberg.org/cache/epub/9446/pg9446.cover.medium.jpg","application/octet-stream":"https://www.gutenberg.org/cache/epub/9446/pg9446-h.zip"},"download_count":30},{"id":9613,"title":"The Young Buglers","authors":[{"name":"Henty, G. A. (George Alfred)","birth_year":1832,"death_year":1902}],"translators":[],"subjects":["Peninsular War, 1807-1814 -- Juvenile fiction"],"bookshelves":["Children's Fiction"],"languages":["en"],"copyright":false,"media_type":"Text","formats":{"text/html":"https://www.gutenberg.org/ebooks/9613.html.images","application/epub+zip":"https://www.gutenberg.org/ebooks/9613.epub3.images","application/x-mobipocket-ebook":"https://www.gutenberg.org/ebooks/9613.kf8.images","text/plain; charset=us-ascii":"https://www.gutenberg.org/ebooks/9613.txt.utf-8","text/plain; charset=iso-8859-1":"https://www.gutenberg.org/files/9613/9613-8.txt","application/rdf+xml":"https://www.gutenberg.org/ebooks/9613.rdf","image/jpeg":"https://www.gutenberg.org/cache/epub/9613/pg9613.cover.medium.jpg","application/octet-stream":"https://www.gutenberg.org/files/9613/9613-h.zip"},"download_count":30},{"id":9688,"title":"Tour through the Eastern Counties of England","authors":[{"name":"Defoe, Daniel","birth_year":null,"death_year":1731}],"translators":[],"subjects":["England -- Description and travel -- Early works to 1800"],"bookshelves":["United Kingdom"],"languages":["en"],"copyright":true,"media_type":"Sound","formats":{"text/plain; charset=us-ascii":"https://www.gutenberg.org/files/9688/9688-readme.txt","text/html; charset=iso-8859-1":"https://www.gutenberg.org/files/9688/9688-index.htm","audio/mpeg":"https://www.gutenberg.org/files/9688/mp3/9688-000.mp3","application/rdf+xml":"https://www.gutenberg.org/ebooks/9688.rdf","application/octet-stream":"https://www.gutenberg.org/files/9688/9688-mp3.zip"},"download_count":30},{"id":9715,"title":"Little Dorrit","authors":[{"name":"Dickens, Charles","birth_year":1812,"death_year":1870}],"translators":[],"subjects":["Children of prisoners -- Fiction","Debt, Imprisonment for -- Fiction","Domestic fiction","Fathers and daughters -- Fiction","Inheritance and succession -- Fiction","London (England) -- Fiction","Love stories","Marshalsea Prison (Southwark, London, England) -- Fiction"],"bookshelves":[],"languages":["en"],"copyright":true,"media_type":"Sound","formats":{"text/plain; charset=us-ascii":"https://www.gutenberg.org/files/9715/9715-readme.txt","text/html; charset=iso-8859-1":"https://www.gutenberg.org/files/9715/9715-index.htm","audio/mpeg":"https://www.gutenberg.org/files/9715/mp3/9715-000.mp3","application/rdf+xml":"https://www.gutenberg.org/ebooks/9715.rdf","application/octet-stream":"https://www.gutenberg.org/files/9715/9715-mp3.zip"},"download_count":30},{"id":9858,"title":"Star-Dust: A Story of an American Girl","authors":[{"name":"Hurst, Fannie","birth_year":1889,"death_year":1968}],"translators":[],"subjects":["Entertainers -- United States -- Fiction"],"bookshelves":[],"languages":["en"],"copyright":false,"media_type":"Text","formats":{"text/html":"https://www.gutenberg.org/ebooks/9858.html.images","application/epub+zip":"https://www.gutenberg.org/ebooks/9858.epub3.images","application/x-mobipocket-ebook":"https://www.gutenberg.org/ebooks/9858.kf8.images","text/plain; charset=us-ascii":"https://www.gutenberg.org/ebooks/9858.txt.utf-8","text/plain; charset=iso-8859-1":"https://www.gutenberg.org/files/9858/9858-8.txt","application/rdf+xml":"https://www.gutenberg.org/ebooks/9858.rdf","image/jpeg":"https://www.gutenberg.org/cache/epub/9858/pg9858.cover.medium.jpg","application/octet-stream":"https://www.gutenberg.org/cache/epub/9858/pg9858-h.zip"},"download_count":30},{"id":9871,"title":"The Avenger","authors":[{"name":"Oppenheim, E. Phillips (Edward Phillips)","birth_year":1866,"death_year":1946}],"translators":[],"subjects":["Mystery fiction"],"bookshelves":[],"languages":["en"],"copyright":false,"media_type":"Text","formats":{"text/html":"https://www.gutenberg.org/ebooks/9871.html.images","text/html; charset=iso-8859-1":"https://www.gutenberg.org/files/9871/9871-h/9871-h.htm","application/epub+zip":"https://www.gutenberg.org/ebooks/9871.epub3.images","application/x-mobipocket-ebook":"https://www.gutenberg.org/ebooks/9871.kf8.images","text/plain; charset=us-ascii":"https://www.gutenberg.org/ebooks/9871.txt.utf-8","text/plain; charset=iso-8859-1":"https://www.gutenberg.org/files/9871/9871-8.txt","application/rdf+xml":"https://www.gutenberg.org/ebooks/9871.rdf","image/jpeg":"https://www.gutenberg.org/cache/epub/9871/pg9871.cover.medium.jpg","application/octet-stream":"https://www.gutenberg.org/cache/epub/9871/pg9871-h.zip"},"download_count":30},{"id":9916,"title":"Spalding's Baseball Guide and Official League Book for 1895","authors":[],"translators":[],"subjects":["Baseball -- Periodicals"],"bookshelves":[],"languages":["en"],"copyright":false,"media_type":"Text","formats":{"text/html":"https://www.gutenberg.org/ebooks/9916.html.images","application/epub+zip":"https://www.gutenberg.org/ebooks/9916.epub3.images","application/x-mobipocket-ebook":"https://www.gutenberg.org/ebooks/9916.kf8.images","text/plain; charset=us-ascii":"https://www.gutenberg.org/ebooks/9916.txt.utf-8","text/plain; charset=iso-8859-1":"https://www.gutenberg.org/files/9916/9916-8.txt","application/rdf+xml":"https://www.gutenberg.org/ebooks/9916.rdf","image/jpeg":"https://www.gutenberg.org/cache/epub/9916/pg9916.cover.medium.jpg","application/octet-stream":"https://www.gutenberg.org/cache/epub/9916/pg9916-h.zip"},"download_count":30},{"id":10063,"title":"Happiness and Marriage","authors":[{"name":"Towne, Elizabeth","birth_year":1865,"death_year":1960}],"translators":[],"subjects":["Marriage"],"bookshelves":[],"languages":["en"],"copyright":false,"media_type":"Text","formats":{"text/html":"https://www.gutenberg.org/ebooks/10063.html.images","text/html; charset=us-ascii":"https://www.gutenberg.org/files/10063/10063-h/10063-h.htm","application/epub+zip":"https://www.gutenberg.org/ebooks/10063.epub3.images","application/x-mobipocket-ebook":"https://www.gutenberg.org/ebooks/10063.kf8.images","text/plain; charset=us-ascii":"https://www.gutenberg.org/ebooks/10063.txt.utf-8","application/rdf+xml":"https://www.gutenberg.org/ebooks/10063.rdf","image/jpeg":"https://www.gutenberg.org/cache/epub/10063/pg10063.cover.medium.jpg","application/octet-stream":"https://www.gutenberg.org/cache/epub/10063/pg10063-h.zip"},"download_count":30},{"id":10080,"title":"Mobilizing Woman-Power","authors":[{"name":"Blatch, Harriot Stanton","birth_year":1856,"death_year":1940}],"translators":[],"subjects":["World War, 1914-1918 -- Women"],"bookshelves":["World War I"],"languages":["en"],"copyright":false,"media_type":"Text","formats":{"text/html":"https://www.gutenberg.org/ebooks/10080.html.images","application/epub+zip":"https://www.gutenberg.org/ebooks/10080.epub3.images","application/x-mobipocket-ebook":"https://www.gutenberg.org/ebooks/10080.kf8.images","text/plain; charset=us-ascii":"https://www.gutenberg.org/ebooks/10080.txt.utf-8","text/plain; charset=iso-8859-1":"https://www.gutenberg.org/files/10080/10080-8.txt","application/rdf+xml":"https://www.gutenberg.org/ebooks/10080.rdf","image/jpeg":"https://www.gutenberg.org/cache/epub/10080/pg10080.cover.medium.jpg","application/octet-stream":"https://www.gutenberg.org/cache/epub/10080/pg10080-h.zip"},"download_count":30},{"id":10083,"title":"The House of the Whispering Pines","authors":[{"name":"Green, Anna Katharine","birth_year":1846,"death_year":1935}],"translators":[],"subjects":["Detective and mystery stories"],"bookshelves":[],"languages":["en"],"copyright":false,"media_type":"Text","formats":{"text/html":"https://www.gutenberg.org/ebooks/10083.html.images","application/epub+zip":"https://www.gutenberg.org/ebooks/10083.epub3.images","application/x-mobipocket-ebook":"https://www.gutenberg.org/ebooks/10083.kf8.images","text/plain; charset=us-ascii":"https://www.gutenberg.org/ebooks/10083.txt.utf-8","application/rdf+xml":"https://www.gutenberg.org/ebooks/10083.rdf","image/jpeg":"https://www.gutenberg.org/cache/epub/10083/pg10083.cover.medium.jpg","application/octet-stream":"https://www.gutenberg.org/files/10083/10083-0.zip"},"download_count":30},{"id":10116,"title":"All Saints' Day and Other Sermons","authors":[{"name":"Kingsley, Charles","birth_year":1819,"death_year":1875}],"translators":[],"subjects":["Church of England -- Sermons","Sermons, English -- 19th century"],"bookshelves":["Christianity"],"languages":["en"],"copyright":false,"media_type":"Text","formats":{"text/html":"https://www.gutenberg.org/ebooks/10116.html.images","application/epub+zip":"https://www.gutenberg.org/ebooks/10116.epub3.images","application/x-mobipocket-ebook":"https://www.gutenberg.org/ebooks/10116.kf8.images","text/plain; charset=us-ascii":"https://www.gutenberg.org/ebooks/10116.txt.utf-8","application/rdf+xml":"https://www.gutenberg.org/ebooks/10116.rdf","image/jpeg":"https://www.gutenberg.org/cache/epub/10116/pg10116.cover.medium.jpg","application/octet-stream":"https://www.gutenberg.org/cache/epub/10116/pg10116-h.zip"},"download_count":30},{"id":10149,"title":"Home as Found: Sequel to \"Homeward Bound\"","authors":[{"name":"Cooper, James Fenimore","birth_year":1789,"death_year":1851}],"translators":[],"subjects":["United States -- Social life and customs -- Fiction"],"bookshelves":[],"languages":["en"],"copyright":false,"media_type":"Text","formats":{"text/html":"https://www.gutenberg.org/ebooks/10149.html.images","application/epub+zip":"https://www.gutenberg.org/ebooks/10149.epub3.images","application/x-mobipocket-ebook":"https://www.gutenberg.org/ebooks/10149.kf8.images","text/plain; charset=us-ascii":"https://www.gutenberg.org/ebooks/10149.txt.utf-8","text/plain; charset=iso-8859-1":"https://www.gutenberg.org/files/10149/10149-8.txt","application/rdf+xml":"https://www.gutenberg.org/ebooks/10149.rdf","image/jpeg":"https://www.gutenberg.org/cache/epub/10149/pg10149.cover.medium.jpg","application/octet-stream":"https://www.gutenberg.org/cache/epub/10149/pg10149-h.zip"},"download_count":30},{"id":10182,"title":"Trio No. 1 in B Flat, Pt. 1: 1st Movement, allegro moderato, Op. 99","authors":[{"name":"New York Trio","birth_year":null,"death_year":null}],"translators":[],"subjects":["Piano trios"],"bookshelves":[],"languages":["en"],"copyright":false,"media_type":"Sound","formats":{"text/plain; charset=us-ascii":"https://www.gutenberg.org/files/10182/10182-m/10182-m-readme.txt","audio/mpeg":"https://www.gutenberg.org/files/10182/10182-m/10182-m-001.mp3","application/rdf+xml":"https://www.gutenberg.org/ebooks/10182.rdf"},"download_count":30},{"id":10360,"title":"Kitty's Class Day and Other Stories","authors":[{"name":"Alcott, Louisa May","birth_year":1832,"death_year":1888}],"translators":[],"subjects":["Short stories, American"],"bookshelves":["Children's Literature"],"languages":["en"],"copyright":false,"media_type":"Text","formats":{"text/html":"https://www.gutenberg.org/ebooks/10360.html.images","application/epub+zip":"https://www.gutenberg.org/ebooks/10360.epub3.images","application/x-mobipocket-ebook":"https://www.gutenberg.org/ebooks/10360.kf8.images","text/plain; charset=us-ascii":"https://www.gutenberg.org/ebooks/10360.txt.utf-8","text/plain; charset=iso-8859-1":"https://www.gutenberg.org/files/10360/10360-8.txt","application/rdf+xml":"https://www.gutenberg.org/ebooks/10360.rdf","image/jpeg":"https://www.gutenberg.org/cache/epub/10360/pg10360.cover.medium.jpg","application/octet-stream":"https://www.gutenberg.org/cache/epub/10360/pg10360-h.zip"},"download_count":30},{"id":10374,"title":"The Ramblin' Kid","authors":[{"name":"Bowman, Earl Wayland","birth_year":1875,"death_year":1952}],"translators":[],"subjects":["Cowboys -- Fiction","Ranch life -- Fiction","Texas -- Fiction","Western stories"],"bookshelves":[],"languages":["en"],"copyright":false,"media_type":"Text","formats":{"text/html":"https://www.gutenberg.org/ebooks/10374.html.images","application/epub+zip":"https://www.gutenberg.org/ebooks/10374.epub3.images","application/x-mobipocket-ebook":"https://www.gutenberg.org/ebooks/10374.kf8.images","text/plain; charset=us-ascii":"https://www.gutenberg.org/ebooks/10374.txt.utf-8","text/plain; charset=iso-8859-1":"https://www.gutenberg.org/files/10374/10374-8.txt","application/rdf+xml":"https://www.gutenberg.org/ebooks/10374.rdf","image/jpeg":"https://www.gutenberg.org/cache/epub/10374/pg10374.cover.medium.jpg","application/octet-stream":"https://www.gutenberg.org/cache/epub/10374/pg10374-h.zip"},"download_count":30},{"id":10395,"title":"Joy and Power: Three Messages with One Meaning","authors":[{"name":"Van Dyke, Henry","birth_year":1852,"death_year":1933}],"translators":[],"subjects":["Spiritual life -- Christianity"],"bookshelves":[],"languages":["en"],"copyright":false,"media_type":"Text","formats":{"text/html":"https://www.gutenberg.org/ebooks/10395.html.images","text/html; charset=us-ascii":"https://www.gutenberg.org/files/10395/10395-h/10395-h.htm","application/epub+zip":"https://www.gutenberg.org/ebooks/10395.epub3.images","application/x-mobipocket-ebook":"https://www.gutenberg.org/ebooks/10395.kf8.images","text/plain; charset=us-ascii":"https://www.gutenberg.org/ebooks/10395.txt.utf-8","application/rdf+xml":"https://www.gutenberg.org/ebooks/10395.rdf","image/jpeg":"https://www.gutenberg.org/cache/epub/10395/pg10395.cover.medium.jpg","application/octet-stream":"https://www.gutenberg.org/cache/epub/10395/pg10395-h.zip"},"download_count":30},{"id":10407,"title":"A Perfect Day: Waltz","authors":[],"translators":[],"subjects":["Popular instrumental music -- 1911-1920","Waltzes"],"bookshelves":[],"languages":["en"],"copyright":false,"media_type":"Sound","formats":{"text/plain; charset=us-ascii":"https://www.gutenberg.org/files/10407/10407-m/10407-m-readme.txt","text/plain":"https://www.gutenberg.org/files/10407/10407-m.zip","audio/mpeg":"https://www.gutenberg.org/files/10407/10407-m/10407-m-001.mp3","application/rdf+xml":"https://www.gutenberg.org/ebooks/10407.rdf"},"download_count":30},{"id":10418,"title":"The Money Moon: A Romance","authors":[{"name":"Farnol, Jeffery","birth_year":1878,"death_year":1952}],"translators":[],"subjects":["Love stories"],"bookshelves":[],"languages":["en"],"copyright":false,"media_type":"Text","formats":{"text/html":"https://www.gutenberg.org/ebooks/10418.html.images","application/epub+zip":"https://www.gutenberg.org/ebooks/10418.epub3.images","application/x-mobipocket-ebook":"https://www.gutenberg.org/ebooks/10418.kf8.images","text/plain; charset=us-ascii":"https://www.gutenberg.org/ebooks/10418.txt.utf-8","text/plain; charset=iso-8859-1":"https://www.gutenberg.org/files/10418/10418-8.txt","application/rdf+xml":"https://www.gutenberg.org/ebooks/10418.rdf","image/jpeg":"https://www.gutenberg.org/cache/epub/10418/pg10418.cover.medium.jpg","application/octet-stream":"https://www.gutenberg.org/cache/epub/10418/pg10418-h.zip"},"download_count":30},{"id":10422,"title":"Caesar Dies","authors":[{"name":"Mundy, Talbot","birth_year":1879,"death_year":1940}],"translators":[],"subjects":["Commodus, Emperor of Rome, 161-192 -- Fiction","Rome -- Fiction"],"bookshelves":["Adventure"],"languages":["en"],"copyright":false,"media_type":"Text","formats":{"text/html":"https://www.gutenberg.org/ebooks/10422.html.images","application/epub+zip":"https://www.gutenberg.org/ebooks/10422.epub3.images","application/x-mobipocket-ebook":"https://www.gutenberg.org/ebooks/10422.kf8.images","text/plain; charset=us-ascii":"https://www.gutenberg.org/ebooks/10422.txt.utf-8","application/rdf+xml":"https://www.gutenberg.org/ebooks/10422.rdf","image/jpeg":"https://www.gutenberg.org/cache/epub/10422/pg10422.cover.medium.jpg","application/octet-stream":"https://www.gutenberg.org/cache/epub/10422/pg10422-h.zip"},"download_count":30},{"id":10440,"title":"Tutt and Mr. Tutt","authors":[{"name":"Train, Arthur Cheney","birth_year":1875,"death_year":1945}],"translators":[],"subjects":["Attorney and client -- Fiction","Law firms -- Fiction","Legal stories","New York (N.Y.) -- Fiction"],"bookshelves":[],"languages":["en"],"copyright":false,"media_type":"Text","formats":{"text/html":"https://www.gutenberg.org/ebooks/10440.html.images","text/html; charset=iso-8859-1":"https://www.gutenberg.org/files/10440/10440-h/10440-h.htm","application/epub+zip":"https://www.gutenberg.org/ebooks/10440.epub3.images","application/x-mobipocket-ebook":"https://www.gutenberg.org/ebooks/10440.kf8.images","text/plain; charset=us-ascii":"https://www.gutenberg.org/ebooks/10440.txt.utf-8","text/plain; charset=iso-8859-1":"https://www.gutenberg.org/files/10440/10440-8.txt","application/rdf+xml":"https://www.gutenberg.org/ebooks/10440.rdf","image/jpeg":"https://www.gutenberg.org/cache/epub/10440/pg10440.cover.medium.jpg","application/octet-stream":"https://www.gutenberg.org/cache/epub/10440/pg10440-h.zip"},"download_count":30},{"id":10495,"title":"Under King Constantine","authors":[{"name":"Trask, Katrina","birth_year":1853,"death_year":1922}],"translators":[],"subjects":["Knights and knighthood -- Poetry"],"bookshelves":[],"languages":["en"],"copyright":false,"media_type":"Text","formats":{"text/html":"https://www.gutenberg.org/ebooks/10495.html.images","application/epub+zip":"https://www.gutenberg.org/ebooks/10495.epub3.images","application/x-mobipocket-ebook":"https://www.gutenberg.org/ebooks/10495.kf8.images","text/plain; charset=us-ascii":"https://www.gutenberg.org/ebooks/10495.txt.utf-8","text/plain; charset=iso-8859-1":"https://www.gutenberg.org/files/10495/10495-8.txt","application/rdf+xml":"https://www.gutenberg.org/ebooks/10495.rdf","image/jpeg":"https://www.gutenberg.org/cache/epub/10495/pg10495.cover.medium.jpg","application/octet-stream":"https://www.gutenberg.org/cache/epub/10495/pg10495-h.zip"},"download_count":30},{"id":10628,"title":"Andrew Golding: A Tale of the Great Plague","authors":[{"name":"Keeling, Anne E.","birth_year":null,"death_year":null}],"translators":[],"subjects":["Plague -- England -- London -- Fiction"],"bookshelves":[],"languages":["en"],"copyright":false,"media_type":"Text","formats":{"text/html":"https://www.gutenberg.org/ebooks/10628.html.images","text/html; charset=iso-8859-1":"https://www.gutenberg.org/files/10628/10628-h/10628-h.htm","application/epub+zip":"https://www.gutenberg.org/ebooks/10628.epub3.images","application/x-mobipocket-ebook":"https://www.gutenberg.org/ebooks/10628.kf8.images","text/plain; charset=us-ascii":"https://www.gutenberg.org/ebooks/10628.txt.utf-8","application/rdf+xml":"https://www.gutenberg.org/ebooks/10628.rdf","image/jpeg":"https://www.gutenberg.org/cache/epub/10628/pg10628.cover.medium.jpg","application/octet-stream":"https://www.gutenberg.org/cache/epub/10628/pg10628-h.zip"},"download_count":30},{"id":10635,"title":"Stories from the Italian Poets: with Lives of the Writers, Volume 2","authors":[{"name":"Hunt, Leigh","birth_year":1784,"death_year":1859}],"translators":[],"subjects":["Italian poetry -- Translations into English","Poets, Italian -- Biography"],"bookshelves":["Italy"],"languages":["en"],"copyright":false,"media_type":"Text","formats":{"text/html":"https://www.gutenberg.org/ebooks/10635.html.images","application/epub+zip":"https://www.gutenberg.org/ebooks/10635.epub3.images","application/x-mobipocket-ebook":"https://www.gutenberg.org/ebooks/10635.kf8.images","text/plain; charset=us-ascii":"https://www.gutenberg.org/ebooks/10635.txt.utf-8","text/plain; charset=iso-8859-1":"https://www.gutenberg.org/files/10635/10635-8.txt","application/rdf+xml":"https://www.gutenberg.org/ebooks/10635.rdf","image/jpeg":"https://www.gutenberg.org/cache/epub/10635/pg10635.cover.medium.jpg","application/octet-stream":"https://www.gutenberg.org/cache/epub/10635/pg10635-h.zip"},"download_count":30}]}