{"count":58808,"next":"http://129.241.150.113:8000/books/?languages=en&page=1682","previous":"http://129.241.150.113:8000/books/?languages=en&page=1680","results":[{"id":8263,"title":"The World English Bible (WEB): Zephaniah","authors":[{"name":"Anonymous","birth_year":null,"death_year":null}],"translators":[],"subjects":["Bible. Zephaniah"],"bookshelves":[],"languages":["en"],"copyright":false,"media_type":"Text","formats":{"text/html":"https://www.gutenberg.org/ebooks/8263.html.images","application/epub+zip":"https://www.gutenberg.org/ebooks/8263.epub3.images","application/x-mobipocket-ebook":"https://www.gutenberg.org/ebooks/8263.kf8.images","text/plain; charset=us-ascii":"https://www.gutenberg.org/ebooks/8263.txt.utf-8","application/rdf+xml":"https://www.gutenberg.org/ebooks/8263.rdf","image/jpeg":"https://www.gutenberg.org/cache/epub/8263/pg8263.cover.medium.jpg","application/octet-stream":"https://www.gutenberg.org/cache/epub/8263/pg8263-h.zip"},"download_count":18},{"id":8268,"title":"The World English Bible (WEB): Mark","authors":[{"name":"Anonymous","birth_year":null,"death_year":null}],"translators":[],"subjects":["Bible. Mark"],"bookshelves":[],"languages":["en"],"copyright":false,"media_type":"Text","formats":{"text/html":"https://www.gutenberg.org/ebooks/8268.html.images","application/epub+zip":"https://www.gutenberg.org/ebooks/8268.epub3.images","application/x-mobipocket-ebook":"https://www.gutenberg.org/ebooks/8268.kf8.images","text/plain; charset=us-ascii":"https://www.gutenberg.org/ebooks/8268.txt.utf-8","application/rdf+xml":"https://www.gutenberg.org/ebooks/8268.rdf","image/jpeg":"https://www.gutenberg.org/cache/epub/8268/pg8268.cover.medium.jpg","application/octet-stream":"https://www.gutenberg.org/cache/epub/8268/pg8268-h.zip"},"download_count":18},{"id":8285,"title":"The World English Bible (WEB): Hebrews","authors":[{"name":"Anonymous","birth_year":null,"death_year":null}],"translators":[],"subjects":["Bible. Hebrews"],"bookshelves":[],"languages":["en"],"copyright":false,"media_type":"Text","formats":{"text/html":"https://www.gutenberg.org/ebooks/8285.html.images","application/epub+zip":"https://www.gutenberg.org/ebooks/8285.epub3.images","application/x-mobipocket-ebook":"https://www.gutenberg.org/ebooks/8285.kf8.images","text/plain; charset=us-ascii":"https://www.gutenberg.org/ebooks/8285.txt.utf-8","application/rdf+xml":"https://www.gutenberg.org/ebooks/8285.rdf","image/jpeg":"https://www.gutenberg.org/cache/epub/8285/pg8285.cover.medium.jpg","application/octet-stream":"https://www.gutenberg.org/cache/epub/8285/pg8285-h.zip"},"download_count":18},{"id":8309,"title":"The Bible, Douay-Rheims, Book 09: 1 Kings: The Challoner Revision","authors":[],"translators":[],"subjects":["Bible. Samuel, 1st"],"bookshelves":[],"languages":["en"],"copyright":false,"media_type":"Text","formats":{"text/html":"https://www.gutenberg.org/ebooks/8309.html.images","application/epub+zip":"https://www.gutenberg.org/ebooks/8309.epub3.images","application/x-mobipocket-ebook":"https://www.gutenberg.org/ebooks/8309.kf8.images","text/plain; charset=us-ascii":"https://www.gutenberg.org/ebooks/8309.txt.utf-8","application/rdf+xml":"https://www.gutenberg.org/ebooks/8309.rdf","image/jpeg":"https://www.gutenberg.org/cache/epub/8309/pg8309.cover.medium.jpg","application/octet-stream":"https://www.gutenberg.org/cache/epub/8309/pg8309-h.zip"},"download_count":18},{"id":8316,"title":"The Bible, Douay-Rheims, Book 16: 2 Esdras: The Challoner Revision","authors":[],"translators":[],"subjects":["Bible. Nehemiah"],"bookshelves":[],"languages":["en"],"copyright":false,"media_type":"Text","formats":{"text/html":"https://www.gutenberg.org/ebooks/8316.html.images","application/epub+zip":"https://www.gutenberg.org/ebooks/8316.epub3.images","application/x-mobipocket-ebook":"https://www.gutenberg.org/ebooks/8316.kf8.images","text/plain; charset=us-ascii":"https://www.gutenberg.org/ebooks/8316.txt.utf-8","application/rdf+xml":"https://www.gutenberg.org/ebooks/8316.rdf","image/jpeg":"https://www.gutenberg.org/cache/epub/8316/pg8316.cover.medium.jpg","application/octet-stream":"https://www.gutenberg.org/cache/epub/8316/pg8316-h.zip"},"download_count":18},{"id":8318,"title":"The Bible, Douay-Rheims, Book 18: Judith: The Challoner Revision","authors":[],"translators":[],"subjects":["Bible. Apocrypha. Judith"],"bookshelves":[],"languages":["en"],"copyright":false,"media_type":"Text","formats":{"text/html":"https://www.gutenberg.org/ebooks/8318.html.images","application/epub+zip":"https://www.gutenberg.org/ebooks/8318.epub3.images","application/x-mobipocket-ebook":"https://www.gutenberg.org/ebooks/8318.kf8.images","text/plain; charset=us-ascii":"https://www.gutenberg.org/ebooks/8318.txt.utf-8","application/rdf+xml":"https://www.gutenberg.org/ebooks/8318.rdf","image/jpeg":"https://www.gutenberg.org/cache/epub/8318/pg8318.cover.medium.jpg","application/octet-stream":"https://www.gutenberg.org/cache/epub/8318/pg8318-h.zip"},"download_count":18},{"id":8373,"title":"The Bible, Douay-Rheims, Book 73: Apocalypse: The Challoner Revision","authors":[],"translators":[],"subjects":["Bible. Revelation"],"bookshelves":[],"languages":["en"],"copyright":false,"media_type":"Text","formats":{"text/html":"https://www.gutenberg.org/ebooks/8373.html.images","application/epub+zip":"https://www.gutenberg.org/ebooks/8373.epub3.images","application/x-mobipocket-ebook":"https://www.gutenberg.org/ebooks/8373.kf8.images","text/plain; charset=us-ascii":"https://www.gutenberg.org/ebooks/8373.txt.utf-8","application/rdf+xml":"https://www.gutenberg.org/ebooks/8373.rdf","image/jpeg":"https://www.gutenberg.org/cache/epub/8373/pg8373.cover.medium.jpg","application/octet-stream":"https://www.gutenberg.org/cache/epub/8373/pg8373-h.zip"},"download_count":18},{"id":8510,"title":"Lucky Pehr","authors":[{"name":"Strindberg, August","birth_year":1849,"death_year":1912}],"translators":[{"name":"Howard, Velma Swanston","birth_year":1868,"death_year":1937}],"subjects":["Drama"],"bookshelves":[],"languages":["en"],"copyright":false,"media_type":"Text","formats":{"text/html":"https://www.gutenberg.org/ebooks/8510.html.images","text/html; charset=iso-8859-1":"https://www.gutenberg.org/files/8510/8510-h/8510-h.htm","application/epub+zip":"https://www.gutenberg.org/ebooks/8510.epub3.images","application/x-mobipocket-ebook":"https://www.gutenberg.org/ebooks/8510.kf8.images","text/plain; charset=us-ascii":"https://www.gutenberg.org/ebooks/8510.txt.utf-8","text/plain; charset=iso-8859-1":"https://www.gutenberg.org/files/8510/8510-8.txt","application/rdf+xml":"https://www.gutenberg.org/ebooks/8510.rdf","image/jpeg":"https://www.gutenberg.org/cache/epub/8510/pg8510.cover.medium.jpg","application/octet-stream":"https://www.gutenberg.org/cache/epub/8510/pg8510-h.zip"},"download_count":18},{"id":8610,"title":"Howard Pyle's Book of Pirates: Fiction, Fact & Fancy Concerning the Buccaneers & Marooners of the Spanish Main","authors":[{"name":"Pyle, Howard","birth_year":1853,"death_year":1911}],"translators":[],"subjects":["Buccaneers -- Fiction","Historical fiction, American","Pirates -- Fiction","Sea stories, American","Spanish Main -- Fiction"],"bookshelves":["Pirates, Buccaneers, Corsairs, etc."],"languages":["en"],"copyright":true,"media_type":"Sound","formats":{"text/plain; charset=us-ascii":"https://www.gutenberg.org/files/8610/8610-readme.txt","text/html; charset=iso-8859-1":"https://www.gutenberg.org/files/8610/8610-index.htm","audio/mpeg":"https://www.gutenberg.org/files/8610/mp3/8610-000.mp3","application/rdf+xml":"https://www.gutenberg.org/ebooks/8610.rdf","application/octet-stream":"https://www.gutenberg.org/files/8610/8610-mp3.zip"},"download_count":18},{"id":8682,"title":"The Naturalist on the Thames","authors":[{"name":"Cornish, C. J. (Charles John)","birth_year":1858,"death_year":1906}],"translators":[],"subjects":["Thames River (England)"],"bookshelves":[],"languages":["en"],"copyright":false,"media_type":"Text","formats":{"text/html":"https://www.gutenberg.org/ebooks/8682.html.images","text/html; charset=iso-8859-1":"https://www.gutenberg.org/files/8682/8682-h/8682-h.htm","application/epub+zip":"https://www.gutenberg.org/ebooks/8682.epub3.images","application/x-mobipocket-ebook":"https://www.gutenberg.org/ebooks/8682.kf8.images","text/plain; charset=us-ascii":"https://www.gutenberg.org/ebooks/8682.txt.utf-8","text/plain; charset=iso-8859-1":"https://www.gutenberg.org/files/8682/8682-8.txt","application/rdf+xml":"https://www.gutenberg.org/ebooks/8682.rdf","image/jpeg":"https://www.gutenberg.org/cache/epub/8682/pg8682.cover.medium.jpg","application/octet-stream":"https://www.gutenberg.org/cache/epub/8682/pg8682-h.zip"},"download_count":18},{"id":8707,"title":"The Doré Bible Gallery, Volume 7","authors":[],"translators":[],"subjects":["Bible -- Illustrations"],"bookshelves":[],"languages":["en"],"copyright":false,"media_type":"Text","formats":{"text/html":"https://www.gutenberg.org/ebooks/8707.html.images","text/html; charset=iso-8859-1":"https://www.gutenberg.org/files/8707/8707-h/8707-h.htm","application/epub+zip":"https://www.gutenberg.org/ebooks/8707.epub3.images","application/x-mobipocket-ebook":"https://www.gutenberg.org/ebooks/8707.kf8.images","text/plain; charset=us-ascii":"https://www.gutenberg.org/ebooks/8707.txt.utf-8","application/rdf+xml":"https://www.gutenberg.org/ebooks/8707.rdf","image/jpeg":"https://www.gutenberg.org/cache/epub/8707/pg8707.cover.medium.jpg","application/octet-stream":"https://www.gutenberg.org/cache/epub/8707/pg8707-h.zip"},"download_count":18},{"id":8725,"title":"The Three Cities Trilogy: Rome, Volume 5","authors":[{"name":"Zola, Émile","birth_year":1840,"death_year":1902}],"translators":[{"name":"Vizetelly, Ernest Alfred","birth_year":1853,"death_year":1922}],"subjects":["Catholics -- Fiction","Christian pilgrims and pilgrimages -- Fiction","Clergy -- Fiction","Rome (Italy) -- Fiction"],"bookshelves":[],"languages":["en"],"copyright":false,"media_type":"Text","formats":{"text/html":"https://www.gutenberg.org/ebooks/8725.html.images","application/epub+zip":"https://www.gutenberg.org/ebooks/8725.epub3.images","application/x-mobipocket-ebook":"https://www.gutenberg.org/ebooks/8725.kf8.images","text/plain; charset=us-ascii":"https://www.gutenberg.org/ebooks/8725.txt.utf-8","application/rdf+xml":"https://www.gutenberg.org/ebooks/8725.rdf","image/jpeg":"https://www.gutenberg.org/cache/epub/8725/pg8725.cover.medium.jpg","application/octet-stream":"https://www.gutenberg.org/cache/epub/8725/pg8725-h.zip"},"download_count":18},{"id":8802,"title":"Elizabeth: the Disinherited Daughter: By E. Ben Ez-er","authors":[{"name":"Arnold, Ebenezer","birth_year":1816,"death_year":1900}],"translators":[],"subjects":["Arnold, Elizabeth Ward, 1778-1865","Methodist women -- United States -- Biography"],"bookshelves":[],"languages":["en"],"copyright":false,"media_type":"Text","formats":{"text/html":"https://www.gutenberg.org/ebooks/8802.html.images","application/epub+zip":"https://www.gutenberg.org/ebooks/8802.epub3.images","application/x-mobipocket-ebook":"https://www.gutenberg.org/ebooks/8802.kf8.images","text/plain; charset=us-ascii":"https://www.gutenberg.org/ebooks/8802.txt.utf-8","application/rdf+xml":"https://www.gutenberg.org/ebooks/8802.rdf","image/jpeg":"https://www.gutenberg.org/cache/epub/8802/pg8802.cover.medium.jpg","application/octet-stream":"https://www.gutenberg.org/cache/epub/8802/pg8802-h.zip"},"download_count":18},{"id":8865,"title":"Miss Theodosia's Heartstrings","authors":[{"name":"Donnell, Annie Hamilton","birth_year":1862,"death_year":1943}],"translators":[],"subjects":["Fiction"],"bookshelves":[],"languages":["en"],"copyright":false,"media_type":"Text","formats":{"text/html":"https://www.gutenberg.org/ebooks/8865.html.images","application/epub+zip":"https://www.gutenberg.org/ebooks/8865.epub3.images","application/x-mobipocket-ebook":"https://www.gutenberg.org/ebooks/8865.kf8.images","text/plain; charset=us-ascii":"https://www.gutenberg.org/ebooks/8865.txt.utf-8","text/plain; charset=iso-8859-1":"https://www.gutenberg.org/files/8865/8865-8.txt","application/rdf+xml":"https://www.gutenberg.org/ebooks/8865.rdf","image/jpeg":"https://www.gutenberg.org/cache/epub/8865/pg8865.cover.medium.jpg","application/octet-stream":"https://www.gutenberg.org/cache/epub/8865/pg8865-h.zip"},"download_count":18},{"id":8959,"title":"Narratives of New Netherland, 1609-1664","authors":[],"translators":[],"subjects":["New York (State) -- History -- Colonial period, ca. 1600-1775 -- Sources"],"bookshelves":[],"languages":["en"],"copyright":true,"media_type":"Sound","formats":{"text/plain; charset=us-ascii":"https://www.gutenberg.org/files/8959/8959-readme.txt","text/html; charset=iso-8859-1":"https://www.gutenberg.org/files/8959/8959-index.htm","audio/mpeg":"https://www.gutenberg.org/files/8959/mp3/8959-000.mp3","application/rdf+xml":"https://www.gutenberg.org/ebooks/8959.rdf","application/octet-stream":"https://www.gutenberg.org/files/8959/8959-mp3.zip"},"download_count":18},{"id":9050,"title":"A Select Collection of Old English Plays, Volume 01","authors":[],"translators":[],"subjects":["English drama"],"bookshelves":[],"languages":["en"],"copyright":false,"media_type":"Text","formats":{"text/html":"https://www.gutenberg.org/ebooks/9050.html.images","application/epub+zip":"https://www.gutenberg.org/ebooks/9050.epub3.images","application/x-mobipocket-ebook":"https://www.gutenberg.org/ebooks/9050.kf8.images","text/plain; charset=us-ascii":"https://www.gutenberg.org/ebooks/9050.txt.utf-8","text/plain; charset=iso-8859-1":"https://www.gutenberg.org/files/9050/9050-8.txt","application/rdf+xml":"https://www.gutenberg.org/ebooks/9050.rdf","image/jpeg":"https://www.gutenberg.org/cache/epub/9050/pg9050.cover.medium.jpg","application/octet-stream":"https://www.gutenberg.org/cache/epub/9050/pg9050-h.zip"},"download_count":18},{"id":9113,"title":"Before Adam","authors":[{"name":"London, Jack","birth_year":1876,"death_year":1916}],"translators":[],"subjects":["Dreams -- Fiction","Fantasy fiction","Prehistoric peoples -- Fiction"],"bookshelves":[],"languages":["en"],"copyright":true,"media_type":"Sound","formats":{"text/plain; charset=us-ascii":"https://www.gutenberg.org/files/9113/9113-readme.txt","text/html; charset=iso-8859-1":"https://www.gutenberg.org/files/9113/9113-index.htm","audio/mpeg":"https://www.gutenberg.org/files/9113/mp3/9113-000.mp3","application/rdf+xml":"https://www.gutenberg.org/ebooks/9113.rdf","application/octet-stream":"https://www.gutenberg.org/files/9113/9113-mp3.zip"},"download_count":18},{"id":9211,"title":"The Sister Years (From \"Twice Told Tales\")","authors":[{"name":"Hawthorne, Nathaniel","birth_year":1804,"death_year":1864}],"translators":[],"subjects":["Historical fiction, American","New England -- Social life and customs -- Fiction","Short stories"],"bookshelves":["Children's Literature"],"languages":["en"],"copyright":false,"media_type":"Text","formats":{"text/html":"https://www.gutenberg.org/ebooks/9211.html.images","text/html; charset=utf-8":"https://www.gutenberg.org/files/9211/9211-h/9211-h.htm","application/epub+zip":"https://www.gutenberg.org/ebooks/9211.epub3.images","application/x-mobipocket-ebook":"https://www.gutenberg.org/ebooks/9211.kf8.images","text/plain; charset=us-ascii":"https://www.gutenberg.org/ebooks/9211.txt.utf-8","text/plain; charset=utf-8":"https://www.gutenberg.org/files/9211/9211-0.txt","application/rdf+xml":"https://www.gutenberg.org/ebooks/9211.rdf","image/jpeg":"https://www.gutenberg.org/cache/epub/9211/pg9211.cover.medium.jpg","application/octet-stream":"https://www.gutenberg.org/cache/epub/9211/pg9211-h.zip"},"download_count":18},{"id":9249,"title":"Dr. Bullivant: (From: \"The Doliver Romance and Other Pieces: Tales and Sketches\")","authors":[{"name":"Hawthorne, Nathaniel","birth_year":1804,"death_year":1864}],"translators":[],"subjects":["New England -- History -- Colonial period, ca. 1600-1775 -- Anecdotes"],"bookshelves":[],"languages":["en"],"copyright":false,"media_type":"Text","formats":{"text/html":"https://www.gutenberg.org/ebooks/9249.html.images","text/html; charset=iso-8859-1":"https://www.gutenberg.org/files/9249/9249-h/9249-h.htm","application/epub+zip":"https://www.gutenberg.org/ebooks/9249.epub3.images","application/x-mobipocket-ebook":"https://www.gutenberg.org/ebooks/9249.kf8.images","text/plain; charset=us-ascii":"https://www.gutenberg.org/ebooks/9249.txt.utf-8","application/rdf+xml":"https://www.gutenberg.org/ebooks/9249.rdf","image/jpeg":"https://www.gutenberg.org/cache/epub/9249/pg9249.cover.medium.jpg","application/octet-stream":"https://www.gutenberg.org/cache/epub/9249/pg9249-h.zip"},"download_count":18},{"id":9268,"title":"Omoo: Adventures in the South Seas","authors":[{"name":"Melville, Herman","birth_year":1819,"death_year":1891}],"translators":[],"subjects":["Adventure stories","Polynesia -- Description and travel -- Fiction"],"bookshelves":[],"languages":["en"],"copyright":true,"media_type":"Sound","formats":{"text/plain; charset=us-ascii":"https://www.gutenberg.org/files/9268/9268-readme.txt","text/html; charset=iso-8859-1":"https://www.gutenberg.org/files/9268/9268-index.htm","audio/mpeg":"https://www.gutenberg.org/files/9268/mp3/9268-000.mp3","application/rdf+xml":"https://www.gutenberg.org/ebooks/9268.rdf","application/octet-stream":"https://www.gutenberg.org/files/9268/9268-mp3.zip"},"download_count":18},{"id":9314,"title":"The Calling of Dan Matthews","authors":[{"name":"Wright, Harold Bell","birth_year":1872,"death_year":1944}],"translators":[],"subjects":["Christian fiction","City and town life -- Fiction","Clergy -- Fiction","Ozark Mountains -- Fiction"],"bookshelves":[],"languages":["en"],"copyright":false,"media_type":"Text","formats":{"text/html":"https://www.gutenberg.org/ebooks/9314.html.images","application/epub+zip":"https://www.gutenberg.org/ebooks/9314.epub3.images","application/x-mobipocket-ebook":"https://www.gutenberg.org/ebooks/9314.kf8.images","text/plain; charset=us-ascii":"https://www.gutenberg.org/ebooks/9314.txt.utf-8","application/rdf+xml":"https://www.gutenberg.org/ebooks/9314.rdf","image/jpeg":"https://www.gutenberg.org/cache/epub/9314/pg9314.cover.medium.jpg","application/octet-stream":"https://www.gutenberg.org/cache/epub/9314/pg9314-h.zip"},"download_count":18},{"id":9316,"title":"A Doctor of the Old School — Volume 2","authors":[{"name":"Maclaren, Ian","birth_year":1850,"death_year":1907}],"translators":[],"subjects":["Physicians -- Fiction"],"bookshelves":[],"languages":["en"],"copyright":false,"media_type":"Text","formats":{"text/html":"https://www.gutenberg.org/ebooks/9316.html.images","text/html; charset=iso-8859-1":"https://www.gutenberg.org/files/9316/9316-h/9316-h.htm","application/epub+zip":"https://www.gutenberg.org/ebooks/9316.epub3.images","application/x-mobipocket-ebook":"https://www.gutenberg.org/ebooks/9316.kf8.images","text/plain; charset=us-ascii":"https://www.gutenberg.org/ebooks/9316.txt.utf-8","application/rdf+xml":"https://www.gutenberg.org/ebooks/9316.rdf","image/jpeg":"https://www.gutenberg.org/cache/epub/9316/pg9316.cover.medium.jpg","application/octet-stream":"https://www.gutenberg.org/cache/epub/9316/pg9316-h.zip"},"download_count":18},{"id":9382,"title":"Grandma's Memories","authors":[{"name":"Brine, Mary D. (Mary Dow)","birth_year":null,"death_year":null}],"translators":[],"subjects":["Grandmothers -- Juvenile poetry"],"bookshelves":[],"languages":["en"],"copyright":false,"media_type":"Text","formats":{"text/html":"https://www.gutenberg.org/ebooks/9382.html.images","text/html; charset=iso-8859-1":"https://www.gutenberg.org/files/9382/9382-h/9382-h.htm","application/epub+zip":"https://www.gutenberg.org/ebooks/9382.epub3.images","application/x-mobipocket-ebook":"https://www.gutenberg.org/ebooks/9382.kf8.images","text/plain; charset=us-ascii":"https://www.gutenberg.org/ebooks/9382.txt.utf-8","application/rdf+xml":"https://www.gutenberg.org/ebooks/9382.rdf","image/jpeg":"https://www.gutenberg.org/cache/epub/9382/pg9382.cover.medium.jpg","application/octet-stream":"https://www.gutenberg.org/cache/epub/9382/pg9382-h.zip"},"download_count":18},{"id":9408,"title":"By Water to the Columbian Exposition","authors":[{"name":"Wisthaler, Johanna Sara","birth_year":1868,"death_year":null}],"translators":[],"subjects":["Great Lakes (North America) -- Description and travel","New York (State)","World's Columbian Exposition (1893 : Chicago, Ill.)"],"bookshelves":["Women's Travel Journals"],"languages":["en"],"copyright":false,"media_type":"Text","formats":{"text/html":"https://www.gutenberg.org/ebooks/9408.html.images","application/epub+zip":"https://www.gutenberg.org/ebooks/9408.epub3.images","application/x-mobipocket-ebook":"https://www.gutenberg.org/ebooks/9408.kf8.images","text/plain; charset=us-ascii":"https://www.gutenberg.org/ebooks/9408.txt.utf-8","text/plain; charset=iso-8859-1":"https://www.gutenberg.org/files/9408/9408-8.txt","application/rdf+xml":"https://www.gutenberg.org/ebooks/9408.rdf","image/jpeg":"https://www.gutenberg.org/cache/epub/9408/pg9408.cover.medium.jpg","application/octet-stream":"https://www.gutenberg.org/cache/epub/9408/pg9408-h.zip"},"download_count":18},{"id":9505,"title":"Four Girls and a Compact","authors":[{"name":"Donnell, Annie Hamilton","birth_year":1862,"death_year":1943}],"translators":[],"subjects":["Conduct of life -- Juvenile fiction","Friendship -- Juvenile fiction","Vacations -- Juvenile fiction","Young women -- Juvenile fiction"],"bookshelves":[],"languages":["en"],"copyright":false,"media_type":"Text","formats":{"text/html":"https://www.gutenberg.org/ebooks/9505.html.images","text/html; charset=us-ascii":"https://www.gutenberg.org/files/9505/9505-h/9505-h.htm","application/epub+zip":"https://www.gutenberg.org/ebooks/9505.epub3.images","application/x-mobipocket-ebook":"https://www.gutenberg.org/ebooks/9505.kf8.images","text/plain; charset=us-ascii":"https://www.gutenberg.org/ebooks/9505.txt.utf-8","application/rdf+xml":"https://www.gutenberg.org/ebooks/9505.rdf","image/jpeg":"https://www.gutenberg.org/cache/epub/9505/pg9505.cover.medium.jpg","application/octet-stream":"https://www.gutenberg.org/cache/epub/9505/pg9505-h.zip"},"download_count":18},{"id":9514,"title":"The Works of Edgar Allan Poe, Volume 3","authors":[{"name":"Poe, Edgar Allan","birth_year":1809,"death_year":1849}],"translators":[],"subjects":["American fiction -- 19th century","Fantasy fiction","Horror tales, American"],"bookshelves":[],"languages":["en"],"copyright":true,"media_type":"Sound","formats":{"text/plain; charset=us-ascii":"https://www.gutenberg.org/files/9514/9514-readme.txt","text/html; charset=iso-8859-1":"https://www.gutenberg.org/files/9514/9514-index.htm","audio/mpeg":"https://www.gutenberg.org/files/9514/mp3/9514-000.mp3","application/rdf+xml":"https://www.gutenberg.org/ebooks/9514.rdf","application/octet-stream":"https://www.gutenberg.org/files/9514/9514-mp3.zip"},"download_count":18},{"id":9522,"title":"Barry Lyndon","authors":[{"name":"Thackeray, William Makepeace","birth_year":1811,"death_year":1863}],"translators":[],"subjects":["Europe -- Fiction","Gamblers -- Fiction","Humorous stories","Ireland -- Fiction","Irish -- Foreign countries -- Fiction","Rogues and vagabonds -- Fiction","Satire"],"bookshelves":["Historical Fiction","Movie Books"],"languages":["en"],"copyright":true,"media_type":"Sound","formats":{"text/plain; charset=us-ascii":"https://www.gutenberg.org/files/9522/9522-readme.txt","text/html; charset=iso-8859-1":"https://www.gutenberg.org/files/9522/9522-index.htm","audio/mpeg":"https://www.gutenberg.org/files/9522/mp3/9522-000.mp3","application/rdf+xml":"https://www.gutenberg.org/ebooks/9522.rdf","application/octet-stream":"https://www.gutenberg.org/files/9522/9522-mp3.zip"},"download_count":18},{"id":9563,"title":"Mabel Martin, a Harvest Idyl; and other poems: Part 4 From Volume I of The Works of John Greenleaf Whittier","authors":[{"name":"Whittier, John Greenleaf","birth_year":1807,"death_year":1892}],"translators":[],"subjects":["American poetry -- 19th century"],"bookshelves":[],"languages":["en"],"copyright":false,"media_type":"Text","formats":{"text/html":"https://www.gutenberg.org/ebooks/9563.html.images","application/epub+zip":"https://www.gutenberg.org/ebooks/9563.epub3.images","application/x-mobipocket-ebook":"https://www.gutenberg.org/ebooks/9563.kf8.images","text/plain; charset=us-ascii":"https://www.gutenberg.org/ebooks/9563.txt.utf-8","application/rdf+xml":"https://www.gutenberg.org/ebooks/9563.rdf","image/jpeg":"https://www.gutenberg.org/cache/epub/9563/pg9563.cover.medium.jpg","application/octet-stream":"https://www.gutenberg.org/cache/epub/9563/pg9563-h.zip"},"download_count":18},{"id":9575,"title":"Anti-Slavery Poems 1.: Part 1 From Volume III of The Works of John Greenleaf Whittier","authors":[{"name":"Whittier, John Greenleaf","birth_year":1807,"death_year":1892}],"translators":[],"subjects":["Slavery -- United States -- Poetry"],"bookshelves":[],"languages":["en"],"copyright":false,"media_type":"Text","formats":{"text/html":"https://www.gutenberg.org/ebooks/9575.html.images","application/epub+zip":"https://www.gutenberg.org/ebooks/9575.epub3.images","application/x-mobipocket-ebook":"https://www.gutenberg.org/ebooks/9575.kf8.images","text/plain; charset=us-ascii":"https://www.gutenberg.org/ebooks/9575.txt.utf-8","application/rdf+xml":"https://www.gutenberg.org/ebooks/9575.rdf","image/jpeg":"https://www.gutenberg.org/cache/epub/9575/pg9575.cover.medium.jpg","application/octet-stream":"https://www.gutenberg.org/cache/epub/9575/pg9575-h.zip"},"download_count":18},{"id":9653,"title":"A Wreath of Virginia Bay Leaves: Poems of James Barron Hope","authors":[{"name":"J. B. H. (James Barron Hope)","birth_year":1829,"death_year":1887}],"translators":[],"subjects":["Poetry"],"bookshelves":[],"languages":["en"],"copyright":false,"media_type":"Text","formats":{"text/html":"https://www.gutenberg.org/ebooks/9653.html.images","application/epub+zip":"https://www.gutenberg.org/ebooks/9653.epub3.images","application/x-mobipocket-ebook":"https://www.gutenberg.org/ebooks/9653.kf8.images","text/plain; charset=us-ascii":"https://www.gutenberg.org/ebooks/9653.txt.utf-8","text/plain; charset=iso-8859-1":"https://www.gutenberg.org/files/9653/9653-8.txt","application/rdf+xml":"https://www.gutenberg.org/ebooks/9653.rdf","image/jpeg":"https://www.gutenberg.org/cache/epub/9653/pg9653.cover.medium.jpg","application/octet-stream":"https://www.gutenberg.org/cache/epub/9653/pg9653-h.zip"},"download_count":18},{"id":9690,"title":"A Child's History of England","authors":[{"name":"Dickens, Charles","birth_year":1812,"death_year":1870}],"translators":[],"subjects":["Great Britain -- History -- Juvenile literature"],"bookshelves":["United Kingdom"],"languages":["en"],"copyright":true,"media_type":"Sound","formats":{"text/plain; charset=us-ascii":"https://www.gutenberg.org/files/9690/9690-readme.txt","text/html; charset=iso-8859-1":"https://www.gutenberg.org/files/9690/9690-index.htm","audio/mpeg":"https://www.gutenberg.org/files/9690/mp3/9690-000.mp3","application/rdf+xml":"https://www.gutenberg.org/ebooks/9690.rdf","application/octet-stream":"https://www.gutenberg.org/files/9690/9690-mp3.zip"},"download_count":18},{"id":9724,"title":"Miscellaneous Papers","authors":[{"name":"Dickens, Charles","birth_year":1812,"death_year":1870}],"translators":[],"subjects":["Essays"],"bookshelves":[],"languages":["en"],"copyright":true,"media_type":"Sound","formats":{"text/plain; charset=us-ascii":"https://www.gutenberg.org/files/9724/9724-readme.txt","text/html; charset=iso-8859-1":"https://www.gutenberg.org/files/9724/9724-index.htm","audio/mpeg":"https://www.gutenberg.org/files/9724/mp3/9724-000.mp3","application/rdf+xml":"https://www.gutenberg.org/ebooks/9724.rdf","application/octet-stream":"https://www.gutenberg.org/files/9724/9724-mp3.zip"},"download_count":18}]}