{"count":58808,"next":"http://129.241.150.113:8000/books/?languages=en&page=1500","previous":"http://129.241.150.113:8000/books/?languages=en&page=1498","results":[{"id":68944,"title":"Lost on the Orinoco; or, American boys in Venezuela","authors":[{"name":"Stratemeyer, Edward","birth_year":1862,"death_year":1930}],"translators":[],"subjects":["Americans -- Venezuela -- Juvenile fiction","Orinoco River Delta (Venezuela) -- Description and travel -- Juvenile fiction","Venezuela -- Description and travel -- Juvenile fiction"],"bookshelves":[],"languages":["en"],"copyright":false,"media_type":"Text","formats":{"text/html":"https://www.gutenberg.org/ebooks/68944.html.images","application/epub+zip":"https://www.gutenberg.org/ebooks/68944.epub3.images","application/x-mobipocket-ebook":"https://www.gutenberg.org/ebooks/68944.kf8.images","text/plain; charset=us-ascii":"https://www.gutenberg.org/ebooks/68944.txt.utf-8","application/rdf+xml":"https://www.gutenberg.org/ebooks/68944.rdf","image/jpeg":"https://www.gutenberg.org/cache/epub/68944/pg68944.cover.medium.jpg","application/octet-stream":"https://www.gutenberg.org/files/68944/68944-0.zip"},"download_count":24},{"id":69008,"title":"The Chinese Exclusion Act: Report and Resolutions Adopted by the Chamber of Commerce of the State of New York","authors":[{"name":"New York Chamber of Commerce","birth_year":null,"death_year":null}],"translators":[],"subjects":["China -- Commerce -- United States","Chinese -- Legal status, laws, etc. -- United States","United States -- Commerce -- China","United States. Chinese Exclusion Act"],"bookshelves":[],"languages":["en"],"copyright":false,"media_type":"Text","formats":{"text/html":"https://www.gutenberg.org/ebooks/69008.html.images","application/epub+zip":"https://www.gutenberg.org/ebooks/69008.epub3.images","application/x-mobipocket-ebook":"https://www.gutenberg.org/ebooks/69008.kf8.images","text/plain; charset=us-ascii":"https://www.gutenberg.org/ebooks/69008.txt.utf-8","application/rdf+xml":"https://www.gutenberg.org/ebooks/69008.rdf","image/jpeg":"https://www.gutenberg.org/cache/epub/69008/pg69008.cover.medium.jpg","application/octet-stream":"https://www.gutenberg.org/files/69008/69008-0.zip"},"download_count":24},{"id":69061,"title":"Precision locating and dividing methods","authors":[{"name":"Anonymous","birth_year":null,"death_year":null}],"translators":[],"subjects":["Machine-shop practice"],"bookshelves":[],"languages":["en"],"copyright":false,"media_type":"Text","formats":{"text/html":"https://www.gutenberg.org/ebooks/69061.html.images","application/epub+zip":"https://www.gutenberg.org/ebooks/69061.epub3.images","application/x-mobipocket-ebook":"https://www.gutenberg.org/ebooks/69061.kf8.images","text/plain; charset=us-ascii":"https://www.gutenberg.org/ebooks/69061.txt.utf-8","application/rdf+xml":"https://www.gutenberg.org/ebooks/69061.rdf","image/jpeg":"https://www.gutenberg.org/cache/epub/69061/pg69061.cover.medium.jpg","application/octet-stream":"https://www.gutenberg.org/files/69061/69061-0.zip"},"download_count":24},{"id":69076,"title":"The Roly-Poly book","authors":[{"name":"Smith, Laura Rountree","birth_year":1876,"death_year":1924}],"translators":[],"subjects":["Children's stories"],"bookshelves":[],"languages":["en"],"copyright":false,"media_type":"Text","formats":{"text/html":"https://www.gutenberg.org/ebooks/69076.html.images","application/epub+zip":"https://www.gutenberg.org/ebooks/69076.epub3.images","application/x-mobipocket-ebook":"https://www.gutenberg.org/ebooks/69076.kf8.images","text/plain; charset=us-ascii":"https://www.gutenberg.org/ebooks/69076.txt.utf-8","application/rdf+xml":"https://www.gutenberg.org/ebooks/69076.rdf","image/jpeg":"https://www.gutenberg.org/cache/epub/69076/pg69076.cover.medium.jpg","application/octet-stream":"https://www.gutenberg.org/files/69076/69076-0.zip"},"download_count":24},{"id":69134,"title":"Coal and the coal mines","authors":[{"name":"Greene, Homer","birth_year":1853,"death_year":1940}],"translators":[],"subjects":["Coal","Coal mines and mining"],"bookshelves":[],"languages":["en"],"copyright":false,"media_type":"Text","formats":{"text/html":"https://www.gutenberg.org/ebooks/69134.html.images","application/epub+zip":"https://www.gutenberg.org/ebooks/69134.epub3.images","application/x-mobipocket-ebook":"https://www.gutenberg.org/ebooks/69134.kf8.images","text/plain; charset=us-ascii":"https://www.gutenberg.org/ebooks/69134.txt.utf-8","application/rdf+xml":"https://www.gutenberg.org/ebooks/69134.rdf","image/jpeg":"https://www.gutenberg.org/cache/epub/69134/pg69134.cover.medium.jpg","application/octet-stream":"https://www.gutenberg.org/files/69134/69134-0.zip"},"download_count":24},{"id":69203,"title":"Sketchbook of the Philadelphia & Boston Face Brick Co.","authors":[{"name":"Philadelphia & Boston Face Brick Co.","birth_year":null,"death_year":null}],"translators":[],"subjects":["Architecture, Domestic","Bricks -- Catalogs","Fireplaces"],"bookshelves":[],"languages":["en"],"copyright":false,"media_type":"Text","formats":{"text/html":"https://www.gutenberg.org/ebooks/69203.html.images","application/epub+zip":"https://www.gutenberg.org/ebooks/69203.epub3.images","application/x-mobipocket-ebook":"https://www.gutenberg.org/ebooks/69203.kf8.images","text/plain; charset=us-ascii":"https://www.gutenberg.org/ebooks/69203.txt.utf-8","application/rdf+xml":"https://www.gutenberg.org/ebooks/69203.rdf","image/jpeg":"https://www.gutenberg.org/cache/epub/69203/pg69203.cover.medium.jpg","application/octet-stream":"https://www.gutenberg.org/files/69203/69203-0.zip"},"download_count":24},{"id":69212,"title":"Grounded","authors":[{"name":"Sambrot, William","birth_year":1920,"death_year":2007}],"translators":[],"subjects":["Human-alien encounters -- Fiction","Science fiction","Short stories","Unidentified flying objects -- Fiction"],"bookshelves":[],"languages":["en"],"copyright":false,"media_type":"Text","formats":{"text/html":"https://www.gutenberg.org/ebooks/69212.html.images","application/epub+zip":"https://www.gutenberg.org/ebooks/69212.epub3.images","application/x-mobipocket-ebook":"https://www.gutenberg.org/ebooks/69212.kf8.images","text/plain; charset=us-ascii":"https://www.gutenberg.org/ebooks/69212.txt.utf-8","application/rdf+xml":"https://www.gutenberg.org/ebooks/69212.rdf","image/jpeg":"https://www.gutenberg.org/cache/epub/69212/pg69212.cover.medium.jpg","application/octet-stream":"https://www.gutenberg.org/files/69212/69212-0.zip"},"download_count":24},{"id":69214,"title":"List of Post Offices in Canada, with the names of the postmasters ... 1863","authors":[{"name":"Canada. Post Office Department","birth_year":null,"death_year":null}],"translators":[],"subjects":["Postal service -- Canada -- Guides"],"bookshelves":[],"languages":["en"],"copyright":false,"media_type":"Text","formats":{"text/html":"https://www.gutenberg.org/ebooks/69214.html.images","application/epub+zip":"https://www.gutenberg.org/ebooks/69214.epub3.images","application/x-mobipocket-ebook":"https://www.gutenberg.org/ebooks/69214.kf8.images","text/plain; charset=us-ascii":"https://www.gutenberg.org/ebooks/69214.txt.utf-8","application/rdf+xml":"https://www.gutenberg.org/ebooks/69214.rdf","image/jpeg":"https://www.gutenberg.org/cache/epub/69214/pg69214.cover.medium.jpg","application/octet-stream":"https://www.gutenberg.org/files/69214/69214-0.zip"},"download_count":24},{"id":69278,"title":"Clutch of Morpheus","authors":[{"name":"Sternig, Larry","birth_year":1908,"death_year":1999}],"translators":[],"subjects":["Chicago (Ill.) -- Fiction","Comets -- Fiction","Science fiction","Scientists -- Fiction","Short stories","Sleep -- Fiction"],"bookshelves":[],"languages":["en"],"copyright":false,"media_type":"Text","formats":{"text/html":"https://www.gutenberg.org/ebooks/69278.html.images","application/epub+zip":"https://www.gutenberg.org/ebooks/69278.epub3.images","application/x-mobipocket-ebook":"https://www.gutenberg.org/ebooks/69278.kf8.images","text/plain; charset=us-ascii":"https://www.gutenberg.org/ebooks/69278.txt.utf-8","application/rdf+xml":"https://www.gutenberg.org/ebooks/69278.rdf","image/jpeg":"https://www.gutenberg.org/cache/epub/69278/pg69278.cover.medium.jpg","application/octet-stream":"https://www.gutenberg.org/files/69278/69278-0.zip"},"download_count":24},{"id":69292,"title":"A matter of size","authors":[{"name":"Mines, Samuel","birth_year":1909,"death_year":1998}],"translators":[],"subjects":["College teachers -- Fiction","Experiments -- Fiction","Mate selection -- Fiction","Physicists -- Fiction","Science fiction","Short stories"],"bookshelves":[],"languages":["en"],"copyright":false,"media_type":"Text","formats":{"text/html":"https://www.gutenberg.org/ebooks/69292.html.images","application/epub+zip":"https://www.gutenberg.org/ebooks/69292.epub3.images","application/x-mobipocket-ebook":"https://www.gutenberg.org/ebooks/69292.kf8.images","text/plain; charset=us-ascii":"https://www.gutenberg.org/ebooks/69292.txt.utf-8","application/rdf+xml":"https://www.gutenberg.org/ebooks/69292.rdf","image/jpeg":"https://www.gutenberg.org/cache/epub/69292/pg69292.cover.medium.jpg","application/octet-stream":"https://www.gutenberg.org/files/69292/69292-0.zip"},"download_count":24},{"id":69319,"title":"Prehistoric villages, castles, and towers of southwestern Colorado","authors":[{"name":"Fewkes, Jesse Walter","birth_year":1850,"death_year":1930}],"translators":[],"subjects":["Colorado -- Antiquities","Mesa Verde National Park (Colo.) -- Antiquities","Pueblo Indians -- Antiquities"],"bookshelves":[],"languages":["en"],"copyright":false,"media_type":"Text","formats":{"text/html":"https://www.gutenberg.org/ebooks/69319.html.images","application/epub+zip":"https://www.gutenberg.org/ebooks/69319.epub3.images","application/x-mobipocket-ebook":"https://www.gutenberg.org/ebooks/69319.kf8.images","text/plain; charset=us-ascii":"https://www.gutenberg.org/ebooks/69319.txt.utf-8","application/rdf+xml":"https://www.gutenberg.org/ebooks/69319.rdf","image/jpeg":"https://www.gutenberg.org/cache/epub/69319/pg69319.cover.medium.jpg","application/octet-stream":"https://www.gutenberg.org/files/69319/69319-0.zip"},"download_count":24},{"id":69344,"title":"Poine: a study in ancient Greek blood-vengeance","authors":[{"name":"Treston, Hubert Joseph","birth_year":1888,"death_year":1959}],"translators":[],"subjects":["Criminal law (Greek law)","Greece -- Civilization","Greek drama (Tragedy) -- History and criticism","Homicide (Greek law)","Vendetta"],"bookshelves":[],"languages":["en"],"copyright":false,"media_type":"Text","formats":{"text/html":"https://www.gutenberg.org/ebooks/69344.html.images","application/epub+zip":"https://www.gutenberg.org/ebooks/69344.epub3.images","application/x-mobipocket-ebook":"https://www.gutenberg.org/ebooks/69344.kf8.images","text/plain; charset=us-ascii":"https://www.gutenberg.org/ebooks/69344.txt.utf-8","application/rdf+xml":"https://www.gutenberg.org/ebooks/69344.rdf","image/jpeg":"https://www.gutenberg.org/cache/epub/69344/pg69344.cover.medium.jpg","application/octet-stream":"https://www.gutenberg.org/files/69344/69344-0.zip"},"download_count":24},{"id":69349,"title":"A story of the sawdust: The pathetic history of \"Old Props'\" darling","authors":[{"name":"Anonymous","birth_year":null,"death_year":null}],"translators":[],"subjects":["Circus performers -- Fiction","Short stories"],"bookshelves":[],"languages":["en"],"copyright":false,"media_type":"Text","formats":{"text/html":"https://www.gutenberg.org/ebooks/69349.html.images","application/epub+zip":"https://www.gutenberg.org/ebooks/69349.epub3.images","application/x-mobipocket-ebook":"https://www.gutenberg.org/ebooks/69349.kf8.images","text/plain; charset=us-ascii":"https://www.gutenberg.org/ebooks/69349.txt.utf-8","application/rdf+xml":"https://www.gutenberg.org/ebooks/69349.rdf","image/jpeg":"https://www.gutenberg.org/cache/epub/69349/pg69349.cover.medium.jpg","application/octet-stream":"https://www.gutenberg.org/files/69349/69349-0.zip"},"download_count":24},{"id":69392,"title":"Eminent doctors: Their lives and their work; Vol. 2 of 2","authors":[{"name":"Bettany, G. T. (George Thomas)","birth_year":1850,"death_year":1891}],"translators":[],"subjects":["Medicine -- Great Britain -- History","Physicians -- Great Britain"],"bookshelves":[],"languages":["en"],"copyright":false,"media_type":"Text","formats":{"text/html":"https://www.gutenberg.org/ebooks/69392.html.images","application/epub+zip":"https://www.gutenberg.org/ebooks/69392.epub3.images","application/x-mobipocket-ebook":"https://www.gutenberg.org/ebooks/69392.kf8.images","text/plain; charset=us-ascii":"https://www.gutenberg.org/ebooks/69392.txt.utf-8","application/rdf+xml":"https://www.gutenberg.org/ebooks/69392.rdf","image/jpeg":"https://www.gutenberg.org/cache/epub/69392/pg69392.cover.medium.jpg","application/octet-stream":"https://www.gutenberg.org/files/69392/69392-0.zip"},"download_count":24},{"id":69452,"title":"Shells and pebbles: A story for children","authors":[{"name":"Anonymous","birth_year":null,"death_year":null}],"translators":[],"subjects":["Marine animals -- Juvenile literature","Marine plants -- Juvenile literature","Seashore -- Juvenile literature"],"bookshelves":[],"languages":["en"],"copyright":false,"media_type":"Text","formats":{"text/html":"https://www.gutenberg.org/ebooks/69452.html.images","application/epub+zip":"https://www.gutenberg.org/ebooks/69452.epub3.images","application/x-mobipocket-ebook":"https://www.gutenberg.org/ebooks/69452.kf8.images","text/plain; charset=us-ascii":"https://www.gutenberg.org/ebooks/69452.txt.utf-8","application/rdf+xml":"https://www.gutenberg.org/ebooks/69452.rdf","image/jpeg":"https://www.gutenberg.org/cache/epub/69452/pg69452.cover.medium.jpg","application/octet-stream":"https://www.gutenberg.org/files/69452/69452-0.zip"},"download_count":24},{"id":69517,"title":"The ocean wireless boys of the iceberg patrol","authors":[{"name":"Goldfrap, John Henry","birth_year":1879,"death_year":1917}],"translators":[],"subjects":["Adventure stories","Mystery fiction","Sea stories","Telegraph, Wireless -- Juvenile fiction"],"bookshelves":[],"languages":["en"],"copyright":false,"media_type":"Text","formats":{"text/html":"https://www.gutenberg.org/ebooks/69517.html.images","application/epub+zip":"https://www.gutenberg.org/ebooks/69517.epub3.images","application/x-mobipocket-ebook":"https://www.gutenberg.org/ebooks/69517.kf8.images","text/plain; charset=us-ascii":"https://www.gutenberg.org/ebooks/69517.txt.utf-8","application/rdf+xml":"https://www.gutenberg.org/ebooks/69517.rdf","image/jpeg":"https://www.gutenberg.org/cache/epub/69517/pg69517.cover.medium.jpg","application/octet-stream":"https://www.gutenberg.org/files/69517/69517-0.zip"},"download_count":24},{"id":69539,"title":"Alide: an episode of Goethe's life.","authors":[{"name":"Lazarus, Emma","birth_year":1849,"death_year":1887}],"translators":[],"subjects":["Brion, Friederike Elisabeth, 1752-1813 -- Fiction","Goethe, Johann Wolfgang von, 1749-1832 -- Fiction"],"bookshelves":[],"languages":["en"],"copyright":false,"media_type":"Text","formats":{"text/html":"https://www.gutenberg.org/ebooks/69539.html.images","application/epub+zip":"https://www.gutenberg.org/ebooks/69539.epub3.images","application/x-mobipocket-ebook":"https://www.gutenberg.org/ebooks/69539.kf8.images","text/plain; charset=us-ascii":"https://www.gutenberg.org/ebooks/69539.txt.utf-8","application/rdf+xml":"https://www.gutenberg.org/ebooks/69539.rdf","image/jpeg":"https://www.gutenberg.org/cache/epub/69539/pg69539.cover.medium.jpg","application/octet-stream":"https://www.gutenberg.org/files/69539/69539-0.zip"},"download_count":24},{"id":69611,"title":"The Tower Rooms","authors":[{"name":"Bruce, Mary Grant","birth_year":1878,"death_year":1958}],"translators":[],"subjects":["Australia -- Juvenile fiction","Burglary -- Juvenile fiction","Country homes -- Juvenile fiction","Families -- Juvenile fiction","Governesses -- Juvenile fiction","Young women -- Juvenile fiction"],"bookshelves":[],"languages":["en"],"copyright":false,"media_type":"Text","formats":{"text/html":"https://www.gutenberg.org/ebooks/69611.html.images","application/epub+zip":"https://www.gutenberg.org/ebooks/69611.epub3.images","application/x-mobipocket-ebook":"https://www.gutenberg.org/ebooks/69611.kf8.images","text/plain; charset=us-ascii":"https://www.gutenberg.org/ebooks/69611.txt.utf-8","application/rdf+xml":"https://www.gutenberg.org/ebooks/69611.rdf","image/jpeg":"https://www.gutenberg.org/cache/epub/69611/pg69611.cover.medium.jpg","application/octet-stream":"https://www.gutenberg.org/files/69611/69611-0.zip"},"download_count":24},{"id":69623,"title":"Feudal tyrants; or, The Counts of Carlsheim and Sargans, volume 2 (of 4)","authors":[{"name":"Naubert, Benedikte","birth_year":1756,"death_year":1819}],"translators":[{"name":"Lewis, M. G. (Matthew Gregory)","birth_year":1775,"death_year":1818}],"subjects":["German fiction -- Translations into English"],"bookshelves":[],"languages":["en"],"copyright":false,"media_type":"Text","formats":{"text/html":"https://www.gutenberg.org/ebooks/69623.html.images","application/epub+zip":"https://www.gutenberg.org/ebooks/69623.epub3.images","application/x-mobipocket-ebook":"https://www.gutenberg.org/ebooks/69623.kf8.images","text/plain; charset=us-ascii":"https://www.gutenberg.org/ebooks/69623.txt.utf-8","application/rdf+xml":"https://www.gutenberg.org/ebooks/69623.rdf","image/jpeg":"https://www.gutenberg.org/cache/epub/69623/pg69623.cover.medium.jpg","application/octet-stream":"https://www.gutenberg.org/files/69623/69623-0.zip"},"download_count":24},{"id":69628,"title":"The Princess Casamassima (Volume 1 of 2)","authors":[{"name":"James, Henry","birth_year":1843,"death_year":1916}],"translators":[],"subjects":["London (England) -- Social life and customs -- 19th century -- Fiction"],"bookshelves":[],"languages":["en"],"copyright":false,"media_type":"Text","formats":{"text/html":"https://www.gutenberg.org/ebooks/69628.html.images","application/epub+zip":"https://www.gutenberg.org/ebooks/69628.epub3.images","application/x-mobipocket-ebook":"https://www.gutenberg.org/ebooks/69628.kf8.images","text/plain; charset=us-ascii":"https://www.gutenberg.org/ebooks/69628.txt.utf-8","application/rdf+xml":"https://www.gutenberg.org/ebooks/69628.rdf","image/jpeg":"https://www.gutenberg.org/cache/epub/69628/pg69628.cover.medium.jpg","application/octet-stream":"https://www.gutenberg.org/files/69628/69628-0.zip"},"download_count":24},{"id":69662,"title":"Watching on the Rhine","authors":[{"name":"Markham, Violet R. (Violet Rosa)","birth_year":1872,"death_year":1959}],"translators":[],"subjects":["Cologne (Germany) -- Description and travel","Germany -- Description and travel","World War, 1914-1918 -- Germany"],"bookshelves":[],"languages":["en"],"copyright":false,"media_type":"Text","formats":{"text/html":"https://www.gutenberg.org/ebooks/69662.html.images","application/epub+zip":"https://www.gutenberg.org/ebooks/69662.epub3.images","application/x-mobipocket-ebook":"https://www.gutenberg.org/ebooks/69662.kf8.images","text/plain; charset=us-ascii":"https://www.gutenberg.org/ebooks/69662.txt.utf-8","application/rdf+xml":"https://www.gutenberg.org/ebooks/69662.rdf","image/jpeg":"https://www.gutenberg.org/cache/epub/69662/pg69662.cover.medium.jpg","application/octet-stream":"https://www.gutenberg.org/files/69662/69662-0.zip"},"download_count":24},{"id":69710,"title":"The neutral merchant: in relation to the law of contraband of war and blockade under the order in Council of 11th March, 1915","authors":[{"name":"Piggott, Francis Taylor","birth_year":1852,"death_year":1925}],"translators":[],"subjects":["Blockade","Contraband of war","Neutrality","World War, 1914-1918"],"bookshelves":[],"languages":["en"],"copyright":false,"media_type":"Text","formats":{"text/html":"https://www.gutenberg.org/ebooks/69710.html.images","application/epub+zip":"https://www.gutenberg.org/ebooks/69710.epub3.images","application/x-mobipocket-ebook":"https://www.gutenberg.org/ebooks/69710.kf8.images","text/plain; charset=us-ascii":"https://www.gutenberg.org/ebooks/69710.txt.utf-8","application/rdf+xml":"https://www.gutenberg.org/ebooks/69710.rdf","image/jpeg":"https://www.gutenberg.org/cache/epub/69710/pg69710.cover.medium.jpg","application/octet-stream":"https://www.gutenberg.org/files/69710/69710-0.zip"},"download_count":24},{"id":69736,"title":"Young Grandison, volume 2 (of 2): A series of letters from young persons to their friends","authors":[{"name":"Cambon, Madame de (Maria Geertruida van de Werken)","birth_year":null,"death_year":null}],"translators":[{"name":"Wollstonecraft, Mary","birth_year":1759,"death_year":1797}],"subjects":["Conduct of life -- Juvenile literature","Epistolary fiction"],"bookshelves":[],"languages":["en"],"copyright":false,"media_type":"Text","formats":{"text/html":"https://www.gutenberg.org/ebooks/69736.html.images","application/epub+zip":"https://www.gutenberg.org/ebooks/69736.epub3.images","application/x-mobipocket-ebook":"https://www.gutenberg.org/ebooks/69736.kf8.images","text/plain; charset=us-ascii":"https://www.gutenberg.org/ebooks/69736.txt.utf-8","application/rdf+xml":"https://www.gutenberg.org/ebooks/69736.rdf","image/jpeg":"https://www.gutenberg.org/cache/epub/69736/pg69736.cover.medium.jpg","application/octet-stream":"https://www.gutenberg.org/files/69736/69736-0.zip"},"download_count":24},{"id":69793,"title":"Caught napping","authors":[{"name":"Anonymous","birth_year":null,"death_year":null}],"translators":[],"subjects":["Church of England -- Humor"],"bookshelves":[],"languages":["en"],"copyright":false,"media_type":"Text","formats":{"text/html":"https://www.gutenberg.org/ebooks/69793.html.images","application/epub+zip":"https://www.gutenberg.org/ebooks/69793.epub3.images","application/x-mobipocket-ebook":"https://www.gutenberg.org/ebooks/69793.kf8.images","text/plain; charset=us-ascii":"https://www.gutenberg.org/ebooks/69793.txt.utf-8","application/rdf+xml":"https://www.gutenberg.org/ebooks/69793.rdf","image/jpeg":"https://www.gutenberg.org/cache/epub/69793/pg69793.cover.medium.jpg","application/octet-stream":"https://www.gutenberg.org/files/69793/69793-0.zip"},"download_count":24},{"id":69834,"title":"Seven years in Vienna (August, 1907-August, 1914), a record of intrigue","authors":[{"name":"Anonymous","birth_year":null,"death_year":null}],"translators":[],"subjects":["Austria -- Foreign relations","Austria -- Politics and government -- 1867-1918","Europe -- Politics and government -- 1871-1918","World War, 1914-1918 -- Causes"],"bookshelves":[],"languages":["en"],"copyright":false,"media_type":"Text","formats":{"text/html":"https://www.gutenberg.org/ebooks/69834.html.images","application/epub+zip":"https://www.gutenberg.org/ebooks/69834.epub3.images","application/x-mobipocket-ebook":"https://www.gutenberg.org/ebooks/69834.kf8.images","text/plain; charset=us-ascii":"https://www.gutenberg.org/ebooks/69834.txt.utf-8","application/rdf+xml":"https://www.gutenberg.org/ebooks/69834.rdf","image/jpeg":"https://www.gutenberg.org/cache/epub/69834/pg69834.cover.medium.jpg","application/octet-stream":"https://www.gutenberg.org/files/69834/69834-0.zip"},"download_count":24},{"id":69835,"title":"The Negro and the nation","authors":[{"name":"Harrison, Hubert H.","birth_year":1883,"death_year":1927}],"translators":[],"subjects":["African Americans","United States -- Race relations"],"bookshelves":[],"languages":["en"],"copyright":false,"media_type":"Text","formats":{"text/html":"https://www.gutenberg.org/ebooks/69835.html.images","application/epub+zip":"https://www.gutenberg.org/ebooks/69835.epub3.images","application/x-mobipocket-ebook":"https://www.gutenberg.org/ebooks/69835.kf8.images","text/plain; charset=us-ascii":"https://www.gutenberg.org/ebooks/69835.txt.utf-8","application/rdf+xml":"https://www.gutenberg.org/ebooks/69835.rdf","image/jpeg":"https://www.gutenberg.org/cache/epub/69835/pg69835.cover.medium.jpg","application/octet-stream":"https://www.gutenberg.org/files/69835/69835-0.zip"},"download_count":24},{"id":69882,"title":"Adventures in indigence, and other essays","authors":[{"name":"Portor, Laura Spencer","birth_year":1872,"death_year":1957}],"translators":[],"subjects":["American essays -- 20th century"],"bookshelves":[],"languages":["en"],"copyright":false,"media_type":"Text","formats":{"text/html":"https://www.gutenberg.org/ebooks/69882.html.images","application/epub+zip":"https://www.gutenberg.org/ebooks/69882.epub3.images","application/x-mobipocket-ebook":"https://www.gutenberg.org/ebooks/69882.kf8.images","text/plain; charset=us-ascii":"https://www.gutenberg.org/ebooks/69882.txt.utf-8","application/rdf+xml":"https://www.gutenberg.org/ebooks/69882.rdf","image/jpeg":"https://www.gutenberg.org/cache/epub/69882/pg69882.cover.medium.jpg","application/octet-stream":"https://www.gutenberg.org/files/69882/69882-0.zip"},"download_count":24},{"id":69904,"title":"Animal intelligence: Experimental studies","authors":[{"name":"Thorndike, Edward L. (Edward Lee)","birth_year":1874,"death_year":1949}],"translators":[],"subjects":["Animal intelligence","Psychology, Comparative"],"bookshelves":[],"languages":["en"],"copyright":false,"media_type":"Text","formats":{"text/html":"https://www.gutenberg.org/ebooks/69904.html.images","application/epub+zip":"https://www.gutenberg.org/ebooks/69904.epub3.images","application/x-mobipocket-ebook":"https://www.gutenberg.org/ebooks/69904.kf8.images","text/plain; charset=us-ascii":"https://www.gutenberg.org/ebooks/69904.txt.utf-8","application/rdf+xml":"https://www.gutenberg.org/ebooks/69904.rdf","image/jpeg":"https://www.gutenberg.org/cache/epub/69904/pg69904.cover.medium.jpg","application/octet-stream":"https://www.gutenberg.org/files/69904/69904-0.zip"},"download_count":24},{"id":69959,"title":"Your vote and how to use it","authors":[{"name":"Brown, Gertrude Foster","birth_year":1867,"death_year":1956}],"translators":[],"subjects":["New York (State) -- Politics and government","United States -- Politics and government"],"bookshelves":[],"languages":["en"],"copyright":false,"media_type":"Text","formats":{"text/html":"https://www.gutenberg.org/ebooks/69959.html.images","application/epub+zip":"https://www.gutenberg.org/ebooks/69959.epub3.images","application/x-mobipocket-ebook":"https://www.gutenberg.org/ebooks/69959.kf8.images","text/plain; charset=us-ascii":"https://www.gutenberg.org/ebooks/69959.txt.utf-8","application/rdf+xml":"https://www.gutenberg.org/ebooks/69959.rdf","image/jpeg":"https://www.gutenberg.org/cache/epub/69959/pg69959.cover.medium.jpg","application/octet-stream":"https://www.gutenberg.org/files/69959/69959-0.zip"},"download_count":24},{"id":70001,"title":"Metamorphosis","authors":[{"name":"Curry, Mike","birth_year":null,"death_year":null}],"translators":[],"subjects":["Life on other planets -- Fiction","Older men -- Fiction","Science fiction","Short stories","Space colonies -- Fiction"],"bookshelves":[],"languages":["en"],"copyright":false,"media_type":"Text","formats":{"text/html":"https://www.gutenberg.org/ebooks/70001.html.images","application/epub+zip":"https://www.gutenberg.org/ebooks/70001.epub3.images","application/x-mobipocket-ebook":"https://www.gutenberg.org/ebooks/70001.kf8.images","text/plain; charset=us-ascii":"https://www.gutenberg.org/ebooks/70001.txt.utf-8","application/rdf+xml":"https://www.gutenberg.org/ebooks/70001.rdf","image/jpeg":"https://www.gutenberg.org/cache/epub/70001/pg70001.cover.medium.jpg","application/octet-stream":"https://www.gutenberg.org/files/70001/70001-0.zip"},"download_count":24},{"id":70012,"title":"Moon dust","authors":[{"name":"Saari, Oliver","birth_year":1918,"death_year":2000}],"translators":[],"subjects":["Moon -- Fiction","Science fiction","Short stories","Space flight to the moon -- Fiction"],"bookshelves":[],"languages":["en"],"copyright":false,"media_type":"Text","formats":{"text/html":"https://www.gutenberg.org/ebooks/70012.html.images","application/epub+zip":"https://www.gutenberg.org/ebooks/70012.epub3.images","application/x-mobipocket-ebook":"https://www.gutenberg.org/ebooks/70012.kf8.images","text/plain; charset=us-ascii":"https://www.gutenberg.org/ebooks/70012.txt.utf-8","application/rdf+xml":"https://www.gutenberg.org/ebooks/70012.rdf","image/jpeg":"https://www.gutenberg.org/cache/epub/70012/pg70012.cover.medium.jpg","application/octet-stream":"https://www.gutenberg.org/files/70012/70012-0.zip"},"download_count":24},{"id":70015,"title":"The Trans-Galactic Twins","authors":[{"name":"Smith, George O. (George Oliver)","birth_year":1911,"death_year":1981}],"translators":[],"subjects":["Identity -- Fiction","Science fiction","Space ships -- Fiction"],"bookshelves":[],"languages":["en"],"copyright":false,"media_type":"Text","formats":{"text/html":"https://www.gutenberg.org/ebooks/70015.html.images","application/epub+zip":"https://www.gutenberg.org/ebooks/70015.epub3.images","application/x-mobipocket-ebook":"https://www.gutenberg.org/ebooks/70015.kf8.images","text/plain; charset=us-ascii":"https://www.gutenberg.org/ebooks/70015.txt.utf-8","application/rdf+xml":"https://www.gutenberg.org/ebooks/70015.rdf","image/jpeg":"https://www.gutenberg.org/cache/epub/70015/pg70015.cover.medium.jpg","application/octet-stream":"https://www.gutenberg.org/files/70015/70015-0.zip"},"download_count":24}]}