{"count":58808,"next":"http://129.241.150.113:8000/books/?languages=en&page=1576","previous":"http://129.241.150.113:8000/books/?languages=en&page=1574","results":[{"id":68242,"title":"A Commentary","authors":[{"name":"Galsworthy, John","birth_year":1867,"death_year":1933}],"translators":[],"subjects":["English essays -- 20th century","English fiction -- 20th century","Short stories, English"],"bookshelves":[],"languages":["en"],"copyright":false,"media_type":"Text","formats":{"text/html":"https://www.gutenberg.org/ebooks/68242.html.images","application/epub+zip":"https://www.gutenberg.org/ebooks/68242.epub3.images","application/x-mobipocket-ebook":"https://www.gutenberg.org/ebooks/68242.kf8.images","text/plain; charset=us-ascii":"https://www.gutenberg.org/ebooks/68242.txt.utf-8","application/rdf+xml":"https://www.gutenberg.org/ebooks/68242.rdf","image/jpeg":"https://www.gutenberg.org/cache/epub/68242/pg68242.cover.medium.jpg","application/octet-stream":"https://www.gutenberg.org/files/68242/68242-0.zip"},"download_count":22},{"id":68266,"title":"Address of President Roosevelt at the Lincoln dinner of the Republican club of the city of New York, Waldorf-Astoria Hotel, February 13, 1905","authors":[{"name":"Roosevelt, Theodore","birth_year":1858,"death_year":1919}],"translators":[],"subjects":["Lincoln Day addresses","Lincoln, Abraham, 1809-1865 -- Anniversaries, etc.","Speeches, addresses, etc."],"bookshelves":[],"languages":["en"],"copyright":false,"media_type":"Text","formats":{"text/html":"https://www.gutenberg.org/ebooks/68266.html.images","application/epub+zip":"https://www.gutenberg.org/ebooks/68266.epub3.images","application/x-mobipocket-ebook":"https://www.gutenberg.org/ebooks/68266.kf8.images","text/plain; charset=us-ascii":"https://www.gutenberg.org/ebooks/68266.txt.utf-8","application/rdf+xml":"https://www.gutenberg.org/ebooks/68266.rdf","image/jpeg":"https://www.gutenberg.org/cache/epub/68266/pg68266.cover.medium.jpg","application/octet-stream":"https://www.gutenberg.org/files/68266/68266-0.zip"},"download_count":22},{"id":68272,"title":"Trouble","authors":[{"name":"Smith, George O. (George Oliver)","birth_year":1911,"death_year":1981}],"translators":[],"subjects":["Engineers -- Fiction","Multiple personality -- Fiction","Physicists -- Fiction","Science fiction"],"bookshelves":[],"languages":["en"],"copyright":false,"media_type":"Text","formats":{"text/html":"https://www.gutenberg.org/ebooks/68272.html.images","application/epub+zip":"https://www.gutenberg.org/ebooks/68272.epub3.images","application/x-mobipocket-ebook":"https://www.gutenberg.org/ebooks/68272.kf8.images","text/plain; charset=us-ascii":"https://www.gutenberg.org/ebooks/68272.txt.utf-8","application/rdf+xml":"https://www.gutenberg.org/ebooks/68272.rdf","image/jpeg":"https://www.gutenberg.org/cache/epub/68272/pg68272.cover.medium.jpg","application/octet-stream":"https://www.gutenberg.org/files/68272/68272-0.zip"},"download_count":22},{"id":68274,"title":"Neva's three lovers: a novel","authors":[{"name":"Lewis, Harriet","birth_year":1841,"death_year":1878}],"translators":[],"subjects":["Conspiracies -- Fiction","Courtship -- Fiction","Dime novels","Popular literature","Stepmothers -- Fiction","Young women -- Fiction"],"bookshelves":[],"languages":["en"],"copyright":false,"media_type":"Text","formats":{"text/html":"https://www.gutenberg.org/ebooks/68274.html.images","application/epub+zip":"https://www.gutenberg.org/ebooks/68274.epub3.images","application/x-mobipocket-ebook":"https://www.gutenberg.org/ebooks/68274.kf8.images","text/plain; charset=us-ascii":"https://www.gutenberg.org/ebooks/68274.txt.utf-8","application/rdf+xml":"https://www.gutenberg.org/ebooks/68274.rdf","image/jpeg":"https://www.gutenberg.org/cache/epub/68274/pg68274.cover.medium.jpg","application/octet-stream":"https://www.gutenberg.org/files/68274/68274-0.zip"},"download_count":22},{"id":68275,"title":"The war of the Carolinas","authors":[{"name":"Nicholson, Meredith","birth_year":1866,"death_year":1947}],"translators":[],"subjects":["Courtship -- Fiction","Distilling, Illicit -- Fiction","Fathers and daughters -- Fiction","Governors -- Fiction","North Carolina -- Fiction","South Carolina -- Fiction","Young women -- Fiction"],"bookshelves":[],"languages":["en"],"copyright":false,"media_type":"Text","formats":{"text/html":"https://www.gutenberg.org/ebooks/68275.html.images","application/epub+zip":"https://www.gutenberg.org/ebooks/68275.epub3.images","application/x-mobipocket-ebook":"https://www.gutenberg.org/ebooks/68275.kf8.images","text/plain; charset=us-ascii":"https://www.gutenberg.org/ebooks/68275.txt.utf-8","application/rdf+xml":"https://www.gutenberg.org/ebooks/68275.rdf","image/jpeg":"https://www.gutenberg.org/cache/epub/68275/pg68275.cover.medium.jpg","application/octet-stream":"https://www.gutenberg.org/files/68275/68275-0.zip"},"download_count":22},{"id":68310,"title":"The American Red Cross Bulletin (Vol. IV, No. 1, January 1909)","authors":[{"name":"American National Red Cross","birth_year":null,"death_year":null}],"translators":[],"subjects":["American National Red Cross -- Periodicals","Red Cross and Red Crescent -- Periodicals"],"bookshelves":[],"languages":["en"],"copyright":false,"media_type":"Text","formats":{"text/html":"https://www.gutenberg.org/ebooks/68310.html.images","application/epub+zip":"https://www.gutenberg.org/ebooks/68310.epub3.images","application/x-mobipocket-ebook":"https://www.gutenberg.org/ebooks/68310.kf8.images","text/plain; charset=us-ascii":"https://www.gutenberg.org/ebooks/68310.txt.utf-8","application/rdf+xml":"https://www.gutenberg.org/ebooks/68310.rdf","image/jpeg":"https://www.gutenberg.org/cache/epub/68310/pg68310.cover.medium.jpg","application/octet-stream":"https://www.gutenberg.org/files/68310/68310-0.zip"},"download_count":22},{"id":68318,"title":"The provincial American and other papers","authors":[{"name":"Nicholson, Meredith","birth_year":1866,"death_year":1947}],"translators":[],"subjects":["American essays -- 20th century"],"bookshelves":[],"languages":["en"],"copyright":false,"media_type":"Text","formats":{"text/html":"https://www.gutenberg.org/ebooks/68318.html.images","application/epub+zip":"https://www.gutenberg.org/ebooks/68318.epub3.images","application/x-mobipocket-ebook":"https://www.gutenberg.org/ebooks/68318.kf8.images","text/plain; charset=us-ascii":"https://www.gutenberg.org/ebooks/68318.txt.utf-8","application/rdf+xml":"https://www.gutenberg.org/ebooks/68318.rdf","image/jpeg":"https://www.gutenberg.org/cache/epub/68318/pg68318.cover.medium.jpg","application/octet-stream":"https://www.gutenberg.org/files/68318/68318-0.zip"},"download_count":22},{"id":68343,"title":"Cato, the creeper; or, The demon of Dead-Man's Forest","authors":[{"name":"Dewey, Frederick H.","birth_year":null,"death_year":null}],"translators":[],"subjects":["Abduction -- Fiction","African Americans -- Fiction","Arkansas -- Fiction","Brigands and robbers -- Fiction","Detective and mystery stories","Dime novels","Frontier and pioneer life -- Fiction","Rescues -- Fiction","Unrequited love -- Fiction"],"bookshelves":[],"languages":["en"],"copyright":false,"media_type":"Text","formats":{"text/html":"https://www.gutenberg.org/ebooks/68343.html.images","application/epub+zip":"https://www.gutenberg.org/ebooks/68343.epub3.images","application/x-mobipocket-ebook":"https://www.gutenberg.org/ebooks/68343.kf8.images","text/plain; charset=us-ascii":"https://www.gutenberg.org/ebooks/68343.txt.utf-8","application/rdf+xml":"https://www.gutenberg.org/ebooks/68343.rdf","image/jpeg":"https://www.gutenberg.org/cache/epub/68343/pg68343.cover.medium.jpg","application/octet-stream":"https://www.gutenberg.org/files/68343/68343-0.zip"},"download_count":22},{"id":68346,"title":"England under the Angevin Kings, Volume I","authors":[{"name":"Norgate, Kate","birth_year":1853,"death_year":1935}],"translators":[],"subjects":["Anjou, House of","England -- Civilization -- 1066-1485","Great Britain -- History -- Angevin period, 1154-1216"],"bookshelves":[],"languages":["en"],"copyright":false,"media_type":"Text","formats":{"text/html":"https://www.gutenberg.org/ebooks/68346.html.images","application/epub+zip":"https://www.gutenberg.org/ebooks/68346.epub3.images","application/x-mobipocket-ebook":"https://www.gutenberg.org/ebooks/68346.kf8.images","text/plain; charset=us-ascii":"https://www.gutenberg.org/ebooks/68346.txt.utf-8","application/rdf+xml":"https://www.gutenberg.org/ebooks/68346.rdf","image/jpeg":"https://www.gutenberg.org/cache/epub/68346/pg68346.cover.medium.jpg","application/octet-stream":"https://www.gutenberg.org/files/68346/68346-0.zip"},"download_count":22},{"id":68360,"title":"Nick Carter Stories No. 158, September 18, 1915: The blue veil; or, Nick Carter's torn trail.","authors":[{"name":"Carter, Nicholas (House name)","birth_year":null,"death_year":null}],"translators":[],"subjects":["Detective and mystery stories, American -- Periodicals","Popular literature -- Periodicals"],"bookshelves":[],"languages":["en"],"copyright":false,"media_type":"Text","formats":{"text/html":"https://www.gutenberg.org/ebooks/68360.html.images","application/epub+zip":"https://www.gutenberg.org/ebooks/68360.epub3.images","application/x-mobipocket-ebook":"https://www.gutenberg.org/ebooks/68360.kf8.images","text/plain; charset=us-ascii":"https://www.gutenberg.org/ebooks/68360.txt.utf-8","application/rdf+xml":"https://www.gutenberg.org/ebooks/68360.rdf","image/jpeg":"https://www.gutenberg.org/cache/epub/68360/pg68360.cover.medium.jpg","application/octet-stream":"https://www.gutenberg.org/files/68360/68360-0.zip"},"download_count":22},{"id":68448,"title":"The sword of wealth","authors":[{"name":"Thomas, Henry Wilton","birth_year":1867,"death_year":null}],"translators":[],"subjects":["Italy -- History -- 20th century -- Fiction","Man-woman relationships -- Fiction","Rich people -- Fiction"],"bookshelves":[],"languages":["en"],"copyright":false,"media_type":"Text","formats":{"text/html":"https://www.gutenberg.org/ebooks/68448.html.images","application/epub+zip":"https://www.gutenberg.org/ebooks/68448.epub3.images","application/x-mobipocket-ebook":"https://www.gutenberg.org/ebooks/68448.kf8.images","text/plain; charset=us-ascii":"https://www.gutenberg.org/ebooks/68448.txt.utf-8","application/rdf+xml":"https://www.gutenberg.org/ebooks/68448.rdf","image/jpeg":"https://www.gutenberg.org/cache/epub/68448/pg68448.cover.medium.jpg","application/octet-stream":"https://www.gutenberg.org/files/68448/68448-0.zip"},"download_count":22},{"id":68453,"title":"The Summers readers: primer","authors":[{"name":"Summers, Maud","birth_year":null,"death_year":null}],"translators":[],"subjects":["Readers (Primary)"],"bookshelves":[],"languages":["en"],"copyright":false,"media_type":"Text","formats":{"text/html":"https://www.gutenberg.org/ebooks/68453.html.images","application/epub+zip":"https://www.gutenberg.org/ebooks/68453.epub3.images","application/x-mobipocket-ebook":"https://www.gutenberg.org/ebooks/68453.kf8.images","text/plain; charset=us-ascii":"https://www.gutenberg.org/ebooks/68453.txt.utf-8","application/rdf+xml":"https://www.gutenberg.org/ebooks/68453.rdf","image/jpeg":"https://www.gutenberg.org/cache/epub/68453/pg68453.cover.medium.jpg","application/octet-stream":"https://www.gutenberg.org/files/68453/68453-0.zip"},"download_count":22},{"id":68493,"title":"Promoting good citizenship","authors":[{"name":"Bryce, James Bryce, Viscount","birth_year":1838,"death_year":1922}],"translators":[],"subjects":["Citizenship"],"bookshelves":[],"languages":["en"],"copyright":false,"media_type":"Text","formats":{"text/html":"https://www.gutenberg.org/ebooks/68493.html.images","application/epub+zip":"https://www.gutenberg.org/ebooks/68493.epub3.images","application/x-mobipocket-ebook":"https://www.gutenberg.org/ebooks/68493.kf8.images","text/plain; charset=us-ascii":"https://www.gutenberg.org/ebooks/68493.txt.utf-8","application/rdf+xml":"https://www.gutenberg.org/ebooks/68493.rdf","image/jpeg":"https://www.gutenberg.org/cache/epub/68493/pg68493.cover.medium.jpg","application/octet-stream":"https://www.gutenberg.org/files/68493/68493-0.zip"},"download_count":22},{"id":68497,"title":"The Boy Scout pathfinders","authors":[{"name":"Durston, George","birth_year":null,"death_year":null}],"translators":[],"subjects":["Boy Scouts -- Juvenile fiction"],"bookshelves":[],"languages":["en"],"copyright":false,"media_type":"Text","formats":{"text/html":"https://www.gutenberg.org/ebooks/68497.html.images","application/epub+zip":"https://www.gutenberg.org/ebooks/68497.epub3.images","application/x-mobipocket-ebook":"https://www.gutenberg.org/ebooks/68497.kf8.images","text/plain; charset=us-ascii":"https://www.gutenberg.org/ebooks/68497.txt.utf-8","application/rdf+xml":"https://www.gutenberg.org/ebooks/68497.rdf","image/jpeg":"https://www.gutenberg.org/cache/epub/68497/pg68497.cover.medium.jpg","application/octet-stream":"https://www.gutenberg.org/files/68497/68497-0.zip"},"download_count":22},{"id":68533,"title":"Home is the Spaceman","authors":[{"name":"Smith, George O. (George Oliver)","birth_year":1911,"death_year":1981}],"translators":[],"subjects":["Human-alien encounters -- Fiction","Science fiction","Short stories","Space travelers -- Fiction"],"bookshelves":[],"languages":["en"],"copyright":false,"media_type":"Text","formats":{"text/html":"https://www.gutenberg.org/ebooks/68533.html.images","application/epub+zip":"https://www.gutenberg.org/ebooks/68533.epub3.images","application/x-mobipocket-ebook":"https://www.gutenberg.org/ebooks/68533.kf8.images","text/plain; charset=us-ascii":"https://www.gutenberg.org/ebooks/68533.txt.utf-8","application/rdf+xml":"https://www.gutenberg.org/ebooks/68533.rdf","image/jpeg":"https://www.gutenberg.org/cache/epub/68533/pg68533.cover.medium.jpg","application/octet-stream":"https://www.gutenberg.org/files/68533/68533-0.zip"},"download_count":22},{"id":68607,"title":"Don Sebastian : $b or, The house of the Braganza: An historical romance. vol. 1","authors":[{"name":"Porter, Anna Maria","birth_year":1778,"death_year":1832}],"translators":[],"subjects":["Sebastião, King of Portugal, 1554-1578 -- Fiction"],"bookshelves":[],"languages":["en"],"copyright":false,"media_type":"Text","formats":{"text/html":"https://www.gutenberg.org/ebooks/68607.html.images","application/epub+zip":"https://www.gutenberg.org/ebooks/68607.epub3.images","application/x-mobipocket-ebook":"https://www.gutenberg.org/ebooks/68607.kf8.images","text/plain; charset=us-ascii":"https://www.gutenberg.org/ebooks/68607.txt.utf-8","application/rdf+xml":"https://www.gutenberg.org/ebooks/68607.rdf","image/jpeg":"https://www.gutenberg.org/cache/epub/68607/pg68607.cover.medium.jpg","application/octet-stream":"https://www.gutenberg.org/files/68607/68607-0.zip"},"download_count":22},{"id":68630,"title":"The lively adventures of Gavin Hamilton","authors":[{"name":"Seawell, Molly Elliot","birth_year":1860,"death_year":1916}],"translators":[],"subjects":["Adventure stories","Friendship -- Juvenile fiction","Historical fiction","Husband and wife -- Juvenile fiction","Inheritance and succession -- Juvenile fiction","Kings and rulers -- Juvenile fiction","Loyalty -- Juvenile fiction","Parent and child -- Juvenile fiction","Seven Years' War, 1756-1763 -- Juvenile fiction","Smallpox -- Juvenile fiction","Soldiers -- Juvenile fiction"],"bookshelves":[],"languages":["en"],"copyright":false,"media_type":"Text","formats":{"text/html":"https://www.gutenberg.org/ebooks/68630.html.images","application/epub+zip":"https://www.gutenberg.org/ebooks/68630.epub3.images","application/x-mobipocket-ebook":"https://www.gutenberg.org/ebooks/68630.kf8.images","text/plain; charset=us-ascii":"https://www.gutenberg.org/ebooks/68630.txt.utf-8","application/rdf+xml":"https://www.gutenberg.org/ebooks/68630.rdf","image/jpeg":"https://www.gutenberg.org/cache/epub/68630/pg68630.cover.medium.jpg","application/octet-stream":"https://www.gutenberg.org/files/68630/68630-0.zip"},"download_count":22},{"id":68679,"title":"The unseen ear","authors":[{"name":"Lincoln, Natalie Sumner","birth_year":1881,"death_year":1935}],"translators":[],"subjects":["Deaf -- Fiction","Detective and mystery stories","Families -- Fiction","Husband and wife -- Fiction","Murder -- Investigation -- Fiction","Washington (D.C.) -- Fiction"],"bookshelves":[],"languages":["en"],"copyright":false,"media_type":"Text","formats":{"text/html":"https://www.gutenberg.org/ebooks/68679.html.images","application/epub+zip":"https://www.gutenberg.org/ebooks/68679.epub3.images","application/x-mobipocket-ebook":"https://www.gutenberg.org/ebooks/68679.kf8.images","text/plain; charset=us-ascii":"https://www.gutenberg.org/ebooks/68679.txt.utf-8","application/rdf+xml":"https://www.gutenberg.org/ebooks/68679.rdf","image/jpeg":"https://www.gutenberg.org/cache/epub/68679/pg68679.cover.medium.jpg","application/octet-stream":"https://www.gutenberg.org/files/68679/68679-0.zip"},"download_count":22},{"id":68721,"title":"Earth dams, a study","authors":[{"name":"Bassell, Burr","birth_year":null,"death_year":null}],"translators":[],"subjects":["Earth dams","Earthwork"],"bookshelves":[],"languages":["en"],"copyright":false,"media_type":"Text","formats":{"text/html":"https://www.gutenberg.org/ebooks/68721.html.images","application/epub+zip":"https://www.gutenberg.org/ebooks/68721.epub3.images","application/x-mobipocket-ebook":"https://www.gutenberg.org/ebooks/68721.kf8.images","text/plain; charset=us-ascii":"https://www.gutenberg.org/ebooks/68721.txt.utf-8","application/rdf+xml":"https://www.gutenberg.org/ebooks/68721.rdf","image/jpeg":"https://www.gutenberg.org/cache/epub/68721/pg68721.cover.medium.jpg","application/octet-stream":"https://www.gutenberg.org/files/68721/68721-0.zip"},"download_count":22},{"id":68858,"title":"Lady Barbarity: A Romance","authors":[{"name":"Snaith, J. C. (John Collis)","birth_year":1876,"death_year":1936}],"translators":[],"subjects":["Historical fiction","Man-woman relationships -- Fiction","Nobility -- England -- Fiction","Political prisoners -- Fiction","Young women -- Fiction"],"bookshelves":[],"languages":["en"],"copyright":false,"media_type":"Text","formats":{"text/html":"https://www.gutenberg.org/ebooks/68858.html.images","application/epub+zip":"https://www.gutenberg.org/ebooks/68858.epub3.images","application/x-mobipocket-ebook":"https://www.gutenberg.org/ebooks/68858.kf8.images","text/plain; charset=us-ascii":"https://www.gutenberg.org/ebooks/68858.txt.utf-8","application/rdf+xml":"https://www.gutenberg.org/ebooks/68858.rdf","image/jpeg":"https://www.gutenberg.org/cache/epub/68858/pg68858.cover.medium.jpg","application/octet-stream":"https://www.gutenberg.org/files/68858/68858-0.zip"},"download_count":22},{"id":68888,"title":"How Jack Mackenzie won his epaulettes","authors":[{"name":"Stables, Gordon","birth_year":1840,"death_year":1910}],"translators":[],"subjects":["Crimean War, 1853-1856 -- Fiction"],"bookshelves":[],"languages":["en"],"copyright":false,"media_type":"Text","formats":{"text/html":"https://www.gutenberg.org/ebooks/68888.html.images","application/epub+zip":"https://www.gutenberg.org/ebooks/68888.epub3.images","application/x-mobipocket-ebook":"https://www.gutenberg.org/ebooks/68888.kf8.images","text/plain; charset=us-ascii":"https://www.gutenberg.org/ebooks/68888.txt.utf-8","application/rdf+xml":"https://www.gutenberg.org/ebooks/68888.rdf","image/jpeg":"https://www.gutenberg.org/cache/epub/68888/pg68888.cover.medium.jpg","application/octet-stream":"https://www.gutenberg.org/files/68888/68888-0.zip"},"download_count":22},{"id":68896,"title":"Cat o' mountain","authors":[{"name":"Friel, Arthur O. (Arthur Olney)","birth_year":1885,"death_year":1959}],"translators":[],"subjects":["Adventure stories","Love stories","Shawangunk Mountains (N.Y.) -- Fiction"],"bookshelves":[],"languages":["en"],"copyright":false,"media_type":"Text","formats":{"text/html":"https://www.gutenberg.org/ebooks/68896.html.images","application/epub+zip":"https://www.gutenberg.org/ebooks/68896.epub3.images","application/x-mobipocket-ebook":"https://www.gutenberg.org/ebooks/68896.kf8.images","text/plain; charset=us-ascii":"https://www.gutenberg.org/ebooks/68896.txt.utf-8","application/rdf+xml":"https://www.gutenberg.org/ebooks/68896.rdf","image/jpeg":"https://www.gutenberg.org/cache/epub/68896/pg68896.cover.medium.jpg","application/octet-stream":"https://www.gutenberg.org/files/68896/68896-0.zip"},"download_count":22},{"id":68922,"title":"The adventure of the broad arrow: An Australian romance","authors":[{"name":"Roberts, Morley","birth_year":1857,"death_year":1942}],"translators":[],"subjects":["Adventure stories","Australia -- Fiction","Fantasy fiction"],"bookshelves":[],"languages":["en"],"copyright":false,"media_type":"Text","formats":{"text/html":"https://www.gutenberg.org/ebooks/68922.html.images","application/epub+zip":"https://www.gutenberg.org/ebooks/68922.epub3.images","application/x-mobipocket-ebook":"https://www.gutenberg.org/ebooks/68922.kf8.images","text/plain; charset=us-ascii":"https://www.gutenberg.org/ebooks/68922.txt.utf-8","application/rdf+xml":"https://www.gutenberg.org/ebooks/68922.rdf","image/jpeg":"https://www.gutenberg.org/cache/epub/68922/pg68922.cover.medium.jpg","application/octet-stream":"https://www.gutenberg.org/files/68922/68922-0.zip"},"download_count":22},{"id":68928,"title":"Unpopular government in the United States","authors":[{"name":"Kales, Albert Martin","birth_year":1875,"death_year":1922}],"translators":[],"subjects":["United States -- Politics and government"],"bookshelves":[],"languages":["en"],"copyright":false,"media_type":"Text","formats":{"text/html":"https://www.gutenberg.org/ebooks/68928.html.images","application/epub+zip":"https://www.gutenberg.org/ebooks/68928.epub3.images","application/x-mobipocket-ebook":"https://www.gutenberg.org/ebooks/68928.kf8.images","text/plain; charset=us-ascii":"https://www.gutenberg.org/ebooks/68928.txt.utf-8","application/rdf+xml":"https://www.gutenberg.org/ebooks/68928.rdf","image/jpeg":"https://www.gutenberg.org/cache/epub/68928/pg68928.cover.medium.jpg","application/octet-stream":"https://www.gutenberg.org/files/68928/68928-0.zip"},"download_count":22},{"id":68938,"title":"A campaign in Mexico","authors":[{"name":"Scribner, B. F. (Benjamin Franklin)","birth_year":1825,"death_year":1900}],"translators":[],"subjects":["Mexican War, 1846-1848 -- Personal narratives"],"bookshelves":[],"languages":["en"],"copyright":false,"media_type":"Text","formats":{"text/html":"https://www.gutenberg.org/ebooks/68938.html.images","application/epub+zip":"https://www.gutenberg.org/ebooks/68938.epub3.images","application/x-mobipocket-ebook":"https://www.gutenberg.org/ebooks/68938.kf8.images","text/plain; charset=us-ascii":"https://www.gutenberg.org/ebooks/68938.txt.utf-8","application/rdf+xml":"https://www.gutenberg.org/ebooks/68938.rdf","image/jpeg":"https://www.gutenberg.org/cache/epub/68938/pg68938.cover.medium.jpg","application/octet-stream":"https://www.gutenberg.org/files/68938/68938-0.zip"},"download_count":22},{"id":68950,"title":"Twenty-three and a half hours' leave","authors":[{"name":"Rinehart, Mary Roberts","birth_year":1876,"death_year":1958}],"translators":[],"subjects":["Man-woman relationships -- Fiction","Soldiers -- Fiction","World War, 1914-1918 -- Fiction"],"bookshelves":[],"languages":["en"],"copyright":false,"media_type":"Text","formats":{"text/html":"https://www.gutenberg.org/ebooks/68950.html.images","application/epub+zip":"https://www.gutenberg.org/ebooks/68950.epub3.images","application/x-mobipocket-ebook":"https://www.gutenberg.org/ebooks/68950.kf8.images","text/plain; charset=us-ascii":"https://www.gutenberg.org/ebooks/68950.txt.utf-8","application/rdf+xml":"https://www.gutenberg.org/ebooks/68950.rdf","image/jpeg":"https://www.gutenberg.org/cache/epub/68950/pg68950.cover.medium.jpg","application/octet-stream":"https://www.gutenberg.org/files/68950/68950-0.zip"},"download_count":22},{"id":68972,"title":"Sixteen months at the gold diggings","authors":[{"name":"Woods, Daniel B.","birth_year":null,"death_year":null}],"translators":[],"subjects":["California -- Description and travel","California -- Gold discoveries","Frontier and pioneer life -- California"],"bookshelves":[],"languages":["en"],"copyright":false,"media_type":"Text","formats":{"text/html":"https://www.gutenberg.org/ebooks/68972.html.images","application/epub+zip":"https://www.gutenberg.org/ebooks/68972.epub3.images","application/x-mobipocket-ebook":"https://www.gutenberg.org/ebooks/68972.kf8.images","text/plain; charset=us-ascii":"https://www.gutenberg.org/ebooks/68972.txt.utf-8","application/rdf+xml":"https://www.gutenberg.org/ebooks/68972.rdf","image/jpeg":"https://www.gutenberg.org/cache/epub/68972/pg68972.cover.medium.jpg","application/octet-stream":"https://www.gutenberg.org/files/68972/68972-0.zip"},"download_count":22},{"id":68995,"title":"The Rambler Club with the Northwest Mounted","authors":[{"name":"Sheppard, W. Crispin (William Crispin)","birth_year":1871,"death_year":null}],"translators":[],"subjects":["Boys -- Societies and clubs -- Juvenile fiction","Northwest Territories -- Juvenile fiction","Royal North West Mounted Police (Canada) -- Juvenile fiction"],"bookshelves":[],"languages":["en"],"copyright":false,"media_type":"Text","formats":{"text/html":"https://www.gutenberg.org/ebooks/68995.html.images","application/epub+zip":"https://www.gutenberg.org/ebooks/68995.epub3.images","application/x-mobipocket-ebook":"https://www.gutenberg.org/ebooks/68995.kf8.images","text/plain; charset=us-ascii":"https://www.gutenberg.org/ebooks/68995.txt.utf-8","application/rdf+xml":"https://www.gutenberg.org/ebooks/68995.rdf","image/jpeg":"https://www.gutenberg.org/cache/epub/68995/pg68995.cover.medium.jpg","application/octet-stream":"https://www.gutenberg.org/files/68995/68995-0.zip"},"download_count":22},{"id":69010,"title":"Lafitte, a play in prologue and four acts","authors":[{"name":"Ayres, Lucie Levéque","birth_year":null,"death_year":null},{"name":"Rutland, Lucile","birth_year":null,"death_year":null}],"translators":[],"subjects":["Laffite, Jean -- Drama"],"bookshelves":[],"languages":["en"],"copyright":false,"media_type":"Text","formats":{"text/html":"https://www.gutenberg.org/ebooks/69010.html.images","application/epub+zip":"https://www.gutenberg.org/ebooks/69010.epub3.images","application/x-mobipocket-ebook":"https://www.gutenberg.org/ebooks/69010.kf8.images","text/plain; charset=us-ascii":"https://www.gutenberg.org/ebooks/69010.txt.utf-8","application/rdf+xml":"https://www.gutenberg.org/ebooks/69010.rdf","image/jpeg":"https://www.gutenberg.org/cache/epub/69010/pg69010.cover.medium.jpg","application/octet-stream":"https://www.gutenberg.org/files/69010/69010-0.zip"},"download_count":22},{"id":69029,"title":"Genevra; or, the history of a portrait: by an American lady. A resident of Washington City.","authors":[{"name":"Fairfield, G. G. (Genevieve Genevra)","birth_year":1832,"death_year":null}],"translators":[],"subjects":["British -- Italy -- Fiction","Diary fiction","Frame-stories","Women -- Italy -- Fiction"],"bookshelves":[],"languages":["en"],"copyright":false,"media_type":"Text","formats":{"text/html":"https://www.gutenberg.org/ebooks/69029.html.images","application/epub+zip":"https://www.gutenberg.org/ebooks/69029.epub3.images","application/x-mobipocket-ebook":"https://www.gutenberg.org/ebooks/69029.kf8.images","text/plain; charset=us-ascii":"https://www.gutenberg.org/ebooks/69029.txt.utf-8","application/rdf+xml":"https://www.gutenberg.org/ebooks/69029.rdf","image/jpeg":"https://www.gutenberg.org/cache/epub/69029/pg69029.cover.medium.jpg","application/octet-stream":"https://www.gutenberg.org/files/69029/69029-0.zip"},"download_count":22},{"id":69070,"title":"The Isle of Retribution","authors":[{"name":"Marshall, Edison","birth_year":1894,"death_year":1967}],"translators":[],"subjects":["Adventure stories","Alaska -- Fiction","Children of the rich -- Fiction","Islands -- Fiction","Mate selection -- Fiction","Prisoners -- Fiction"],"bookshelves":[],"languages":["en"],"copyright":false,"media_type":"Text","formats":{"text/html":"https://www.gutenberg.org/ebooks/69070.html.images","application/epub+zip":"https://www.gutenberg.org/ebooks/69070.epub3.images","application/x-mobipocket-ebook":"https://www.gutenberg.org/ebooks/69070.kf8.images","text/plain; charset=us-ascii":"https://www.gutenberg.org/ebooks/69070.txt.utf-8","application/rdf+xml":"https://www.gutenberg.org/ebooks/69070.rdf","image/jpeg":"https://www.gutenberg.org/cache/epub/69070/pg69070.cover.medium.jpg","application/octet-stream":"https://www.gutenberg.org/files/69070/69070-0.zip"},"download_count":22},{"id":69132,"title":"Betty Wales on the campus","authors":[{"name":"Dunton, Edith K. (Edith Kellogg)","birth_year":1875,"death_year":1944}],"translators":[],"subjects":["College students -- Juvenile fiction","Friendship -- Juvenile fiction","Schools -- Juvenile fiction","Sisters -- Juvenile fiction","Students -- Social life and customs -- Juvenile fiction"],"bookshelves":[],"languages":["en"],"copyright":false,"media_type":"Text","formats":{"text/html":"https://www.gutenberg.org/ebooks/69132.html.images","application/epub+zip":"https://www.gutenberg.org/ebooks/69132.epub3.images","application/x-mobipocket-ebook":"https://www.gutenberg.org/ebooks/69132.kf8.images","text/plain; charset=us-ascii":"https://www.gutenberg.org/ebooks/69132.txt.utf-8","application/rdf+xml":"https://www.gutenberg.org/ebooks/69132.rdf","image/jpeg":"https://www.gutenberg.org/cache/epub/69132/pg69132.cover.medium.jpg","application/octet-stream":"https://www.gutenberg.org/files/69132/69132-0.zip"},"download_count":22}]}