{"count":58808,"next":"http://129.241.150.113:8000/books/?languages=en&page=1618","previous":"http://129.241.150.113:8000/books/?languages=en&page=1616","results":[{"id":8830,"title":"Weymouth New Testament in Modern Speech, Luke","authors":[{"name":"Weymouth, Richard Francis","birth_year":1822,"death_year":1902}],"translators":[],"subjects":["Bible. Luke"],"bookshelves":[],"languages":["en"],"copyright":false,"media_type":"Text","formats":{"text/html":"https://www.gutenberg.org/ebooks/8830.html.images","application/epub+zip":"https://www.gutenberg.org/ebooks/8830.epub3.images","application/x-mobipocket-ebook":"https://www.gutenberg.org/ebooks/8830.kf8.images","text/plain; charset=us-ascii":"https://www.gutenberg.org/ebooks/8830.txt.utf-8","application/rdf+xml":"https://www.gutenberg.org/ebooks/8830.rdf","image/jpeg":"https://www.gutenberg.org/cache/epub/8830/pg8830.cover.medium.jpg","application/octet-stream":"https://www.gutenberg.org/cache/epub/8830/pg8830-h.zip"},"download_count":20},{"id":8834,"title":"Weymouth New Testament in Modern Speech, 1 Corinthians","authors":[{"name":"Weymouth, Richard Francis","birth_year":1822,"death_year":1902}],"translators":[],"subjects":["Bible. Corinthians"],"bookshelves":[],"languages":["en"],"copyright":false,"media_type":"Text","formats":{"text/html":"https://www.gutenberg.org/ebooks/8834.html.images","application/epub+zip":"https://www.gutenberg.org/ebooks/8834.epub3.images","application/x-mobipocket-ebook":"https://www.gutenberg.org/ebooks/8834.kf8.images","text/plain; charset=us-ascii":"https://www.gutenberg.org/ebooks/8834.txt.utf-8","application/rdf+xml":"https://www.gutenberg.org/ebooks/8834.rdf","image/jpeg":"https://www.gutenberg.org/cache/epub/8834/pg8834.cover.medium.jpg","application/octet-stream":"https://www.gutenberg.org/cache/epub/8834/pg8834-h.zip"},"download_count":20},{"id":8840,"title":"Weymouth New Testament in Modern Speech, 1 Thessalonians","authors":[{"name":"Weymouth, Richard Francis","birth_year":1822,"death_year":1902}],"translators":[],"subjects":["Bible. Thessalonians"],"bookshelves":[],"languages":["en"],"copyright":false,"media_type":"Text","formats":{"text/html":"https://www.gutenberg.org/ebooks/8840.html.images","application/epub+zip":"https://www.gutenberg.org/ebooks/8840.epub3.images","application/x-mobipocket-ebook":"https://www.gutenberg.org/ebooks/8840.kf8.images","text/plain; charset=us-ascii":"https://www.gutenberg.org/ebooks/8840.txt.utf-8","application/rdf+xml":"https://www.gutenberg.org/ebooks/8840.rdf","image/jpeg":"https://www.gutenberg.org/cache/epub/8840/pg8840.cover.medium.jpg","application/octet-stream":"https://www.gutenberg.org/cache/epub/8840/pg8840-h.zip"},"download_count":20},{"id":8841,"title":"Weymouth New Testament in Modern Speech, 2 Thessalonians","authors":[{"name":"Weymouth, Richard Francis","birth_year":1822,"death_year":1902}],"translators":[],"subjects":["Bible. Thessalonians"],"bookshelves":[],"languages":["en"],"copyright":false,"media_type":"Text","formats":{"text/html":"https://www.gutenberg.org/ebooks/8841.html.images","application/epub+zip":"https://www.gutenberg.org/ebooks/8841.epub3.images","application/x-mobipocket-ebook":"https://www.gutenberg.org/ebooks/8841.kf8.images","text/plain; charset=us-ascii":"https://www.gutenberg.org/ebooks/8841.txt.utf-8","application/rdf+xml":"https://www.gutenberg.org/ebooks/8841.rdf","image/jpeg":"https://www.gutenberg.org/cache/epub/8841/pg8841.cover.medium.jpg","application/octet-stream":"https://www.gutenberg.org/cache/epub/8841/pg8841-h.zip"},"download_count":20},{"id":8849,"title":"Weymouth New Testament in Modern Speech, 2 Peter","authors":[{"name":"Weymouth, Richard Francis","birth_year":1822,"death_year":1902}],"translators":[],"subjects":["Bible. Peter"],"bookshelves":[],"languages":["en"],"copyright":false,"media_type":"Text","formats":{"text/html":"https://www.gutenberg.org/ebooks/8849.html.images","application/epub+zip":"https://www.gutenberg.org/ebooks/8849.epub3.images","application/x-mobipocket-ebook":"https://www.gutenberg.org/ebooks/8849.kf8.images","text/plain; charset=us-ascii":"https://www.gutenberg.org/ebooks/8849.txt.utf-8","application/rdf+xml":"https://www.gutenberg.org/ebooks/8849.rdf","image/jpeg":"https://www.gutenberg.org/cache/epub/8849/pg8849.cover.medium.jpg","application/octet-stream":"https://www.gutenberg.org/cache/epub/8849/pg8849-h.zip"},"download_count":20},{"id":8890,"title":"Mary Jane: Her Book","authors":[{"name":"Judson, Clara Ingram","birth_year":1879,"death_year":1960}],"translators":[],"subjects":["Girls -- Juvenile fiction"],"bookshelves":[],"languages":["en"],"copyright":false,"media_type":"Text","formats":{"text/html":"https://www.gutenberg.org/ebooks/8890.html.images","application/epub+zip":"https://www.gutenberg.org/ebooks/8890.epub3.images","application/x-mobipocket-ebook":"https://www.gutenberg.org/ebooks/8890.kf8.images","text/plain; charset=us-ascii":"https://www.gutenberg.org/ebooks/8890.txt.utf-8","application/rdf+xml":"https://www.gutenberg.org/ebooks/8890.rdf","image/jpeg":"https://www.gutenberg.org/cache/epub/8890/pg8890.cover.medium.jpg","application/octet-stream":"https://www.gutenberg.org/cache/epub/8890/pg8890-h.zip"},"download_count":20},{"id":8970,"title":"Twelve Stories and a Dream","authors":[{"name":"Wells, H. G. (Herbert George)","birth_year":1866,"death_year":1946}],"translators":[],"subjects":["Fiction","Short stories"],"bookshelves":[],"languages":["en"],"copyright":true,"media_type":"Sound","formats":{"text/plain; charset=us-ascii":"https://www.gutenberg.org/files/8970/8970-readme.txt","text/html; charset=iso-8859-1":"https://www.gutenberg.org/files/8970/8970-index.htm","audio/mpeg":"https://www.gutenberg.org/files/8970/mp3/8970-000.mp3","application/rdf+xml":"https://www.gutenberg.org/ebooks/8970.rdf"},"download_count":20},{"id":9001,"title":"Personal Recollections of Joan of Arc — Volume 01","authors":[{"name":"Twain, Mark","birth_year":1835,"death_year":1910}],"translators":[],"subjects":["Biographical fiction","Christian women saints -- Fiction","France -- History -- Charles VII, 1422-1461 -- Fiction","Joan, of Arc, Saint, 1412-1431 -- Fiction"],"bookshelves":[],"languages":["en"],"copyright":true,"media_type":"Sound","formats":{"text/plain; charset=us-ascii":"https://www.gutenberg.org/files/9001/9001-readme.txt","text/html; charset=iso-8859-1":"https://www.gutenberg.org/files/9001/9001-index.htm","audio/mpeg":"https://www.gutenberg.org/files/9001/mp3/9001-000.mp3","application/rdf+xml":"https://www.gutenberg.org/ebooks/9001.rdf","application/octet-stream":"https://www.gutenberg.org/files/9001/9001-mp3.zip"},"download_count":20},{"id":9016,"title":"Christian Science","authors":[{"name":"Twain, Mark","birth_year":1835,"death_year":1910}],"translators":[],"subjects":["Christian Science -- Controversial literature","Eddy, Mary Baker, 1821-1910"],"bookshelves":[],"languages":["en"],"copyright":true,"media_type":"Sound","formats":{"text/plain; charset=us-ascii":"https://www.gutenberg.org/files/9016/9016-readme.txt","text/html; charset=iso-8859-1":"https://www.gutenberg.org/files/9016/9016-index.htm","audio/mpeg":"https://www.gutenberg.org/files/9016/mp3/9016-000.mp3","application/rdf+xml":"https://www.gutenberg.org/ebooks/9016.rdf","application/octet-stream":"https://www.gutenberg.org/files/9016/9016-mp3.zip"},"download_count":20},{"id":9017,"title":"A Double Barrelled Detective Story","authors":[{"name":"Twain, Mark","birth_year":1835,"death_year":1910}],"translators":[],"subjects":["Detective and mystery stories"],"bookshelves":[],"languages":["en"],"copyright":true,"media_type":"Sound","formats":{"text/plain; charset=us-ascii":"https://www.gutenberg.org/files/9017/9017-readme.txt","text/html; charset=iso-8859-1":"https://www.gutenberg.org/files/9017/9017-index.htm","audio/mpeg":"https://www.gutenberg.org/files/9017/mp3/9017-000.mp3","application/rdf+xml":"https://www.gutenberg.org/ebooks/9017.rdf","application/octet-stream":"https://www.gutenberg.org/files/9017/9017-mp3.zip"},"download_count":20},{"id":9018,"title":"In Defense of Harriet Shelley","authors":[{"name":"Twain, Mark","birth_year":1835,"death_year":1910}],"translators":[],"subjects":["Shelley, Harriet Westbrook, -1816","Shelley, Percy Bysshe, 1792-1822"],"bookshelves":[],"languages":["en"],"copyright":true,"media_type":"Sound","formats":{"text/plain; charset=us-ascii":"https://www.gutenberg.org/files/9018/9018-readme.txt","text/html; charset=iso-8859-1":"https://www.gutenberg.org/files/9018/9018-index.htm","audio/mpeg":"https://www.gutenberg.org/files/9018/mp3/9018-000.mp3","application/rdf+xml":"https://www.gutenberg.org/ebooks/9018.rdf","application/octet-stream":"https://www.gutenberg.org/files/9018/9018-mp3.zip"},"download_count":20},{"id":9040,"title":"A Tramp Abroad","authors":[{"name":"Twain, Mark","birth_year":1835,"death_year":1910}],"translators":[],"subjects":["Americans -- Europe -- Fiction","Europe -- Fiction","Humorous stories","Walking -- Fiction"],"bookshelves":[],"languages":["en"],"copyright":true,"media_type":"Sound","formats":{"text/plain; charset=us-ascii":"https://www.gutenberg.org/files/9040/9040-readme.txt","text/html; charset=iso-8859-1":"https://www.gutenberg.org/files/9040/9040-index.htm","audio/mpeg":"https://www.gutenberg.org/files/9040/mp3/9040-000.mp3","application/rdf+xml":"https://www.gutenberg.org/ebooks/9040.rdf","application/octet-stream":"https://www.gutenberg.org/files/9040/9040-mp3.zip"},"download_count":20},{"id":9143,"title":"The Valley of the Moon","authors":[{"name":"London, Jack","birth_year":1876,"death_year":1916}],"translators":[],"subjects":["California -- Fiction","Domestic fiction","Farm life -- Fiction","Marriage -- Fiction","Strikes and lockouts -- Fiction","Working class -- Fiction"],"bookshelves":[],"languages":["en"],"copyright":true,"media_type":"Sound","formats":{"text/plain; charset=us-ascii":"https://www.gutenberg.org/files/9143/9143-readme.txt","text/html; charset=iso-8859-1":"https://www.gutenberg.org/files/9143/9143-index.htm","audio/mpeg":"https://www.gutenberg.org/files/9143/mp3/9143-01.mp3","application/rdf+xml":"https://www.gutenberg.org/ebooks/9143.rdf","application/octet-stream":"https://www.gutenberg.org/files/9143/9143-mp3.zip"},"download_count":20},{"id":9212,"title":"Snow Flakes (From \"Twice Told Tales\")","authors":[{"name":"Hawthorne, Nathaniel","birth_year":1804,"death_year":1864}],"translators":[],"subjects":["Historical fiction, American","New England -- Social life and customs -- Fiction","Short stories"],"bookshelves":["Children's Literature"],"languages":["en"],"copyright":false,"media_type":"Text","formats":{"text/html":"https://www.gutenberg.org/ebooks/9212.html.images","text/html; charset=iso-8859-1":"https://www.gutenberg.org/files/9212/9212-h/9212-h.htm","application/epub+zip":"https://www.gutenberg.org/ebooks/9212.epub3.images","application/x-mobipocket-ebook":"https://www.gutenberg.org/ebooks/9212.kf8.images","text/plain; charset=us-ascii":"https://www.gutenberg.org/ebooks/9212.txt.utf-8","application/rdf+xml":"https://www.gutenberg.org/ebooks/9212.rdf","image/jpeg":"https://www.gutenberg.org/cache/epub/9212/pg9212.cover.medium.jpg","application/octet-stream":"https://www.gutenberg.org/cache/epub/9212/pg9212-h.zip"},"download_count":20},{"id":9224,"title":"Buds and Bird Voices (From \"Mosses from an Old Manse\")","authors":[{"name":"Hawthorne, Nathaniel","birth_year":1804,"death_year":1864}],"translators":[],"subjects":["New England -- Social life and customs -- Fiction","Short stories"],"bookshelves":[],"languages":["en"],"copyright":false,"media_type":"Text","formats":{"text/html":"https://www.gutenberg.org/ebooks/9224.html.images","application/epub+zip":"https://www.gutenberg.org/ebooks/9224.epub3.images","application/x-mobipocket-ebook":"https://www.gutenberg.org/ebooks/9224.kf8.images","text/plain; charset=us-ascii":"https://www.gutenberg.org/ebooks/9224.txt.utf-8","application/rdf+xml":"https://www.gutenberg.org/ebooks/9224.rdf","image/jpeg":"https://www.gutenberg.org/cache/epub/9224/pg9224.cover.medium.jpg","application/octet-stream":"https://www.gutenberg.org/files/9224/9224-0.zip"},"download_count":20},{"id":9274,"title":"The Journal to Stella","authors":[{"name":"Swift, Jonathan","birth_year":1667,"death_year":1745}],"translators":[],"subjects":["Authors, Irish -- 18th century -- Correspondence","Johnson, Esther, 1681-1728 -- Correspondence","Swift, Jonathan, 1667-1745 -- Correspondence"],"bookshelves":[],"languages":["en"],"copyright":true,"media_type":"Sound","formats":{"text/plain; charset=us-ascii":"https://www.gutenberg.org/files/9274/9274-readme.txt","text/html; charset=iso-8859-1":"https://www.gutenberg.org/files/9274/9274-index.htm","audio/mpeg":"https://www.gutenberg.org/files/9274/mp3/9274-000.mp3","application/rdf+xml":"https://www.gutenberg.org/ebooks/9274.rdf","application/octet-stream":"https://www.gutenberg.org/files/9274/9274-mp3.zip"},"download_count":20},{"id":9283,"title":"Artemis to Actaeon and Other Verses","authors":[{"name":"Wharton, Edith","birth_year":1862,"death_year":1937}],"translators":[],"subjects":["American poetry -- 20th century"],"bookshelves":[],"languages":["en"],"copyright":true,"media_type":"Sound","formats":{"text/plain; charset=us-ascii":"https://www.gutenberg.org/files/9283/9283-readme.txt","text/html; charset=iso-8859-1":"https://www.gutenberg.org/files/9283/9283-index.htm","audio/mpeg":"https://www.gutenberg.org/files/9283/mp3/9283-000.mp3","application/rdf+xml":"https://www.gutenberg.org/ebooks/9283.rdf","application/octet-stream":"https://www.gutenberg.org/files/9283/9283-mp3.zip"},"download_count":20},{"id":9324,"title":"Roden's Corner","authors":[{"name":"Merriman, Henry Seton","birth_year":1862,"death_year":1903}],"translators":[],"subjects":["English fiction -- 19th century"],"bookshelves":[],"languages":["en"],"copyright":false,"media_type":"Text","formats":{"text/html":"https://www.gutenberg.org/ebooks/9324.html.images","text/html; charset=utf-8":"https://www.gutenberg.org/files/9324/9324-h/9324-h.htm","application/epub+zip":"https://www.gutenberg.org/ebooks/9324.epub3.images","application/x-mobipocket-ebook":"https://www.gutenberg.org/ebooks/9324.kf8.images","text/plain; charset=us-ascii":"https://www.gutenberg.org/ebooks/9324.txt.utf-8","text/plain; charset=utf-8":"https://www.gutenberg.org/files/9324/9324-0.txt","text/plain; charset=iso-8859-1":"https://www.gutenberg.org/files/9324/9324-8.txt","application/rdf+xml":"https://www.gutenberg.org/ebooks/9324.rdf","image/jpeg":"https://www.gutenberg.org/cache/epub/9324/pg9324.cover.medium.jpg","application/octet-stream":"https://www.gutenberg.org/cache/epub/9324/pg9324-h.zip"},"download_count":20},{"id":9353,"title":"The Mirror of the Sea","authors":[{"name":"Conrad, Joseph","birth_year":1857,"death_year":1924}],"translators":[],"subjects":["Conrad, Joseph, 1857-1924 -- Travel","Seafaring life"],"bookshelves":[],"languages":["en"],"copyright":true,"media_type":"Sound","formats":{"text/plain; charset=us-ascii":"https://www.gutenberg.org/files/9353/9353-readme.txt","text/html; charset=iso-8859-1":"https://www.gutenberg.org/files/9353/9353-index.htm","audio/mpeg":"https://www.gutenberg.org/files/9353/mp3/9353-000.mp3","application/rdf+xml":"https://www.gutenberg.org/ebooks/9353.rdf","application/octet-stream":"https://www.gutenberg.org/files/9353/9353-mp3.zip"},"download_count":20},{"id":9361,"title":"Youth","authors":[{"name":"Conrad, Joseph","birth_year":1857,"death_year":1924}],"translators":[],"subjects":["Sea stories"],"bookshelves":[],"languages":["en"],"copyright":true,"media_type":"Sound","formats":{"text/plain; charset=us-ascii":"https://www.gutenberg.org/files/9361/9361-readme.txt","text/html; charset=iso-8859-1":"https://www.gutenberg.org/files/9361/9361-index.htm","audio/mpeg":"https://www.gutenberg.org/files/9361/mp3/9361-000.mp3","application/rdf+xml":"https://www.gutenberg.org/ebooks/9361.rdf","application/octet-stream":"https://www.gutenberg.org/files/9361/9361-mp3.zip"},"download_count":20},{"id":9476,"title":"Ridgeway: An Historical Romance of the Fenian Invasion of Canada","authors":[{"name":"Dubh, Scian","birth_year":1815,"death_year":1896}],"translators":[],"subjects":["Canada -- History -- Fenian invasions, 1866-1870 -- Fiction","Fenians -- History -- Fiction","Ridgeway, Battle of, Ridgeway, Ont., 1866 -- Fiction"],"bookshelves":[],"languages":["en"],"copyright":false,"media_type":"Text","formats":{"text/html":"https://www.gutenberg.org/ebooks/9476.html.images","text/html; charset=utf-8":"https://www.gutenberg.org/files/9476/9476-h/9476-h.htm","application/epub+zip":"https://www.gutenberg.org/ebooks/9476.epub3.images","application/x-mobipocket-ebook":"https://www.gutenberg.org/ebooks/9476.kf8.images","text/plain; charset=us-ascii":"https://www.gutenberg.org/ebooks/9476.txt.utf-8","text/plain; charset=utf-8":"https://www.gutenberg.org/files/9476/9476-0.txt","application/rdf+xml":"https://www.gutenberg.org/ebooks/9476.rdf","image/jpeg":"https://www.gutenberg.org/cache/epub/9476/pg9476.cover.medium.jpg","application/octet-stream":"https://www.gutenberg.org/cache/epub/9476/pg9476-h.zip"},"download_count":20},{"id":9564,"title":"Among the Hills, and other poems: Part 5 From Volume I of The Works of John Greenleaf Whittier","authors":[{"name":"Whittier, John Greenleaf","birth_year":1807,"death_year":1892}],"translators":[],"subjects":["American poetry -- 19th century"],"bookshelves":[],"languages":["en"],"copyright":false,"media_type":"Text","formats":{"text/html":"https://www.gutenberg.org/ebooks/9564.html.images","application/epub+zip":"https://www.gutenberg.org/ebooks/9564.epub3.images","application/x-mobipocket-ebook":"https://www.gutenberg.org/ebooks/9564.kf8.images","text/plain; charset=us-ascii":"https://www.gutenberg.org/ebooks/9564.txt.utf-8","application/rdf+xml":"https://www.gutenberg.org/ebooks/9564.rdf","image/jpeg":"https://www.gutenberg.org/cache/epub/9564/pg9564.cover.medium.jpg","application/octet-stream":"https://www.gutenberg.org/cache/epub/9564/pg9564-h.zip"},"download_count":20},{"id":9565,"title":"Pennsylvania Pilgrim, and other poems: Part 6 From Volume I of The Works of John Greenleaf Whittier","authors":[{"name":"Whittier, John Greenleaf","birth_year":1807,"death_year":1892}],"translators":[],"subjects":["American poetry -- 19th century"],"bookshelves":[],"languages":["en"],"copyright":false,"media_type":"Text","formats":{"text/html":"https://www.gutenberg.org/ebooks/9565.html.images","application/epub+zip":"https://www.gutenberg.org/ebooks/9565.epub3.images","application/x-mobipocket-ebook":"https://www.gutenberg.org/ebooks/9565.kf8.images","text/plain; charset=us-ascii":"https://www.gutenberg.org/ebooks/9565.txt.utf-8","application/rdf+xml":"https://www.gutenberg.org/ebooks/9565.rdf","image/jpeg":"https://www.gutenberg.org/cache/epub/9565/pg9565.cover.medium.jpg","application/octet-stream":"https://www.gutenberg.org/cache/epub/9565/pg9565-h.zip"},"download_count":20},{"id":9597,"title":"The Inner Life: Part 3 from The Works of John Greenleaf Whittier, Volume VII","authors":[{"name":"Whittier, John Greenleaf","birth_year":1807,"death_year":1892}],"translators":[],"subjects":["American literature"],"bookshelves":[],"languages":["en"],"copyright":false,"media_type":"Text","formats":{"text/html":"https://www.gutenberg.org/ebooks/9597.html.images","application/epub+zip":"https://www.gutenberg.org/ebooks/9597.epub3.images","application/x-mobipocket-ebook":"https://www.gutenberg.org/ebooks/9597.kf8.images","text/plain; charset=us-ascii":"https://www.gutenberg.org/ebooks/9597.txt.utf-8","application/rdf+xml":"https://www.gutenberg.org/ebooks/9597.rdf","image/jpeg":"https://www.gutenberg.org/cache/epub/9597/pg9597.cover.medium.jpg","application/octet-stream":"https://www.gutenberg.org/cache/epub/9597/pg9597-h.zip"},"download_count":20},{"id":9630,"title":"Proportional Representation: A Study in Methods of Election","authors":[{"name":"Humphreys, John H.","birth_year":null,"death_year":null}],"translators":[],"subjects":["Elections","Proportional representation"],"bookshelves":[],"languages":["en"],"copyright":false,"media_type":"Text","formats":{"text/html":"https://www.gutenberg.org/ebooks/9630.html.images","application/epub+zip":"https://www.gutenberg.org/ebooks/9630.epub3.images","application/x-mobipocket-ebook":"https://www.gutenberg.org/ebooks/9630.kf8.images","text/plain; charset=us-ascii":"https://www.gutenberg.org/ebooks/9630.txt.utf-8","text/plain; charset=iso-8859-1":"https://www.gutenberg.org/files/9630/9630-8.txt","application/rdf+xml":"https://www.gutenberg.org/ebooks/9630.rdf","image/jpeg":"https://www.gutenberg.org/cache/epub/9630/pg9630.cover.medium.jpg","application/octet-stream":"https://www.gutenberg.org/cache/epub/9630/pg9630-h.zip"},"download_count":20},{"id":9634,"title":"Sir George Tressady — Volume II","authors":[{"name":"Ward, Humphry, Mrs.","birth_year":1851,"death_year":1920}],"translators":[],"subjects":["English fiction"],"bookshelves":[],"languages":["en"],"copyright":false,"media_type":"Text","formats":{"text/html":"https://www.gutenberg.org/ebooks/9634.html.images","application/epub+zip":"https://www.gutenberg.org/ebooks/9634.epub3.images","application/x-mobipocket-ebook":"https://www.gutenberg.org/ebooks/9634.kf8.images","text/plain; charset=us-ascii":"https://www.gutenberg.org/ebooks/9634.txt.utf-8","text/plain; charset=iso-8859-1":"https://www.gutenberg.org/files/9634/9634-8.txt","application/rdf+xml":"https://www.gutenberg.org/ebooks/9634.rdf","image/jpeg":"https://www.gutenberg.org/cache/epub/9634/pg9634.cover.medium.jpg","application/octet-stream":"https://www.gutenberg.org/cache/epub/9634/pg9634-h.zip"},"download_count":20},{"id":9665,"title":"Delia Blanchflower","authors":[{"name":"Ward, Humphry, Mrs.","birth_year":1851,"death_year":1920}],"translators":[],"subjects":["Guardian and ward -- Fiction","Women -- Suffrage -- Great Britain -- Fiction","Young women -- Fiction"],"bookshelves":[],"languages":["en"],"copyright":false,"media_type":"Text","formats":{"text/html":"https://www.gutenberg.org/ebooks/9665.html.images","application/epub+zip":"https://www.gutenberg.org/ebooks/9665.epub3.images","application/x-mobipocket-ebook":"https://www.gutenberg.org/ebooks/9665.kf8.images","text/plain; charset=us-ascii":"https://www.gutenberg.org/ebooks/9665.txt.utf-8","text/plain; charset=iso-8859-1":"https://www.gutenberg.org/files/9665/9665-8.txt","application/rdf+xml":"https://www.gutenberg.org/ebooks/9665.rdf","image/jpeg":"https://www.gutenberg.org/cache/epub/9665/pg9665.cover.medium.jpg","application/octet-stream":"https://www.gutenberg.org/cache/epub/9665/pg9665-h.zip"},"download_count":20},{"id":9682,"title":"An Essay Upon Projects","authors":[{"name":"Defoe, Daniel","birth_year":null,"death_year":1731}],"translators":[],"subjects":["Economics -- Early works to 1800","Finance -- Great Britain","Great Britain -- Economic conditions -- 18th century"],"bookshelves":[],"languages":["en"],"copyright":true,"media_type":"Sound","formats":{"text/plain; charset=us-ascii":"https://www.gutenberg.org/files/9682/9682-readme.txt","text/html; charset=iso-8859-1":"https://www.gutenberg.org/files/9682/9682-index.htm","audio/mpeg":"https://www.gutenberg.org/files/9682/mp3/9682-000.mp3","application/rdf+xml":"https://www.gutenberg.org/ebooks/9682.rdf","application/octet-stream":"https://www.gutenberg.org/files/9682/9682-mp3.zip"},"download_count":20},{"id":9686,"title":"The Further Adventures of Robinson Crusoe","authors":[{"name":"Defoe, Daniel","birth_year":null,"death_year":1731}],"translators":[],"subjects":["Adventure and adventurers -- Fiction","Crusoe, Robinson (Fictitious character) -- Fiction"],"bookshelves":[],"languages":["en"],"copyright":true,"media_type":"Sound","formats":{"text/plain; charset=us-ascii":"https://www.gutenberg.org/files/9686/9686-readme.txt","text/html; charset=iso-8859-1":"https://www.gutenberg.org/files/9686/9686-index.htm","audio/mpeg":"https://www.gutenberg.org/files/9686/mp3/9686-000.mp3","application/rdf+xml":"https://www.gutenberg.org/ebooks/9686.rdf","application/octet-stream":"https://www.gutenberg.org/files/9686/9686-mp3.zip"},"download_count":20},{"id":9743,"title":"Sketches of Young Couples","authors":[{"name":"Dickens, Charles","birth_year":1812,"death_year":1870}],"translators":[],"subjects":["Couples -- England","England -- Social life and customs -- 19th century"],"bookshelves":[],"languages":["en"],"copyright":true,"media_type":"Sound","formats":{"text/plain; charset=us-ascii":"https://www.gutenberg.org/files/9743/9743-readme.txt","text/html; charset=iso-8859-1":"https://www.gutenberg.org/files/9743/9743-index.htm","audio/mpeg":"https://www.gutenberg.org/files/9743/mp3/9743-000.mp3","application/rdf+xml":"https://www.gutenberg.org/ebooks/9743.rdf","application/octet-stream":"https://www.gutenberg.org/files/9743/9743-mp3.zip"},"download_count":20},{"id":9898,"title":"Punchinello, Volume 1, No. 04, April 23, 1870","authors":[{"name":"Various","birth_year":null,"death_year":null}],"translators":[],"subjects":["American wit and humor -- Periodicals"],"bookshelves":["Punchinello"],"languages":["en"],"copyright":false,"media_type":"Text","formats":{"text/html":"https://www.gutenberg.org/ebooks/9898.html.images","text/html; charset=iso-8859-1":"https://www.gutenberg.org/files/9898/9898-h/9898-h.htm","application/epub+zip":"https://www.gutenberg.org/ebooks/9898.epub3.images","application/x-mobipocket-ebook":"https://www.gutenberg.org/ebooks/9898.kf8.images","text/plain; charset=us-ascii":"https://www.gutenberg.org/ebooks/9898.txt.utf-8","text/plain; charset=iso-8859-1":"https://www.gutenberg.org/files/9898/9898-8.txt","application/rdf+xml":"https://www.gutenberg.org/ebooks/9898.rdf","image/jpeg":"https://www.gutenberg.org/cache/epub/9898/pg9898.cover.medium.jpg","application/octet-stream":"https://www.gutenberg.org/cache/epub/9898/pg9898-h.zip"},"download_count":20},{"id":9946,"title":"The Atlantic Monthly, Volume 10, No. 59, September, 1862: A Magazine of Literature, Art, and Politics","authors":[{"name":"Various","birth_year":null,"death_year":null}],"translators":[],"subjects":["American periodicals"],"bookshelves":["The Atlantic Monthly"],"languages":["en"],"copyright":false,"media_type":"Text","formats":{"text/html":"https://www.gutenberg.org/ebooks/9946.html.images","text/html; charset=iso-8859-1":"https://www.gutenberg.org/files/9946/9946-h/9946-h.htm","application/epub+zip":"https://www.gutenberg.org/ebooks/9946.epub3.images","application/x-mobipocket-ebook":"https://www.gutenberg.org/ebooks/9946.kf8.images","text/plain; charset=us-ascii":"https://www.gutenberg.org/ebooks/9946.txt.utf-8","text/plain; charset=iso-8859-1":"https://www.gutenberg.org/files/9946/9946-8.txt","application/rdf+xml":"https://www.gutenberg.org/ebooks/9946.rdf","image/jpeg":"https://www.gutenberg.org/cache/epub/9946/pg9946.cover.medium.jpg","application/octet-stream":"https://www.gutenberg.org/cache/epub/9946/pg9946-h.zip"},"download_count":20}]}