{"count":58808,"next":"http://129.241.150.113:8000/books/?languages=en&page=1796","previous":"http://129.241.150.113:8000/books/?languages=en&page=1794","results":[{"id":65964,"title":"The Girl's Own Paper, Vol. VIII, No. 370, January 29, 1887","authors":[{"name":"Various","birth_year":null,"death_year":null}],"translators":[],"subjects":["Children's literature -- Periodicals"],"bookshelves":[],"languages":["en"],"copyright":false,"media_type":"Text","formats":{"text/html":"https://www.gutenberg.org/ebooks/65964.html.images","text/html; charset=utf-8":"https://www.gutenberg.org/files/65964/65964-h/65964-h.htm","application/epub+zip":"https://www.gutenberg.org/ebooks/65964.epub3.images","application/x-mobipocket-ebook":"https://www.gutenberg.org/ebooks/65964.kf8.images","text/plain; charset=us-ascii":"https://www.gutenberg.org/ebooks/65964.txt.utf-8","text/plain; charset=utf-8":"https://www.gutenberg.org/files/65964/65964-0.txt","application/rdf+xml":"https://www.gutenberg.org/ebooks/65964.rdf","image/jpeg":"https://www.gutenberg.org/cache/epub/65964/pg65964.cover.medium.jpg","application/octet-stream":"https://www.gutenberg.org/cache/epub/65964/pg65964-h.zip"},"download_count":13},{"id":66115,"title":"His Excellency's English Governess","authors":[{"name":"Grier, Sydney C.","birth_year":1868,"death_year":1933}],"translators":[],"subjects":["Baghdad (Iraq) -- Fiction","British -- Iraq -- Fiction","Governesses -- Fiction"],"bookshelves":[],"languages":["en"],"copyright":false,"media_type":"Text","formats":{"text/html":"https://www.gutenberg.org/ebooks/66115.html.images","text/html; charset=utf-8":"https://www.gutenberg.org/files/66115/66115-h/66115-h.htm","application/epub+zip":"https://www.gutenberg.org/ebooks/66115.epub3.images","application/x-mobipocket-ebook":"https://www.gutenberg.org/ebooks/66115.kf8.images","text/plain; charset=us-ascii":"https://www.gutenberg.org/ebooks/66115.txt.utf-8","text/plain; charset=utf-8":"https://www.gutenberg.org/files/66115/66115-0.txt","application/rdf+xml":"https://www.gutenberg.org/ebooks/66115.rdf","image/jpeg":"https://www.gutenberg.org/cache/epub/66115/pg66115.cover.medium.jpg","application/octet-stream":"https://www.gutenberg.org/cache/epub/66115/pg66115-h.zip"},"download_count":13},{"id":66142,"title":"Preferred Position","authors":[{"name":"Dryfoos, Dave","birth_year":1915,"death_year":2003}],"translators":[],"subjects":["Leisure -- Fiction","Science fiction","Short stories","Spouses -- Fiction","Work -- Fiction"],"bookshelves":[],"languages":["en"],"copyright":false,"media_type":"Text","formats":{"text/html":"https://www.gutenberg.org/ebooks/66142.html.images","text/html; charset=utf-8":"https://www.gutenberg.org/files/66142/66142-h/66142-h.htm","application/epub+zip":"https://www.gutenberg.org/ebooks/66142.epub3.images","application/x-mobipocket-ebook":"https://www.gutenberg.org/ebooks/66142.kf8.images","text/plain; charset=us-ascii":"https://www.gutenberg.org/ebooks/66142.txt.utf-8","text/plain; charset=utf-8":"https://www.gutenberg.org/files/66142/66142-0.txt","application/rdf+xml":"https://www.gutenberg.org/ebooks/66142.rdf","image/jpeg":"https://www.gutenberg.org/cache/epub/66142/pg66142.cover.medium.jpg","application/octet-stream":"https://www.gutenberg.org/cache/epub/66142/pg66142-h.zip"},"download_count":13},{"id":66232,"title":"Chambers's Journal of Popular Literature, Science, and Art, Fifth Series, No. 38, Vol. I, September 20, 1884","authors":[{"name":"Various","birth_year":null,"death_year":null}],"translators":[],"subjects":["Periodicals"],"bookshelves":[],"languages":["en"],"copyright":false,"media_type":"Text","formats":{"text/html":"https://www.gutenberg.org/ebooks/66232.html.images","application/epub+zip":"https://www.gutenberg.org/ebooks/66232.epub3.images","application/x-mobipocket-ebook":"https://www.gutenberg.org/ebooks/66232.kf8.images","text/plain; charset=us-ascii":"https://www.gutenberg.org/ebooks/66232.txt.utf-8","application/rdf+xml":"https://www.gutenberg.org/ebooks/66232.rdf","image/jpeg":"https://www.gutenberg.org/cache/epub/66232/pg66232.cover.medium.jpg","application/octet-stream":"https://www.gutenberg.org/files/66232/66232-0.zip"},"download_count":13},{"id":66258,"title":"Raw Material","authors":[{"name":"Fisher, Dorothy Canfield","birth_year":1879,"death_year":1958}],"translators":[],"subjects":["American fiction -- 20th century","Short stories, American"],"bookshelves":[],"languages":["en"],"copyright":false,"media_type":"Text","formats":{"text/html":"https://www.gutenberg.org/ebooks/66258.html.images","application/epub+zip":"https://www.gutenberg.org/ebooks/66258.epub3.images","application/x-mobipocket-ebook":"https://www.gutenberg.org/ebooks/66258.kf8.images","text/plain; charset=us-ascii":"https://www.gutenberg.org/ebooks/66258.txt.utf-8","application/rdf+xml":"https://www.gutenberg.org/ebooks/66258.rdf","image/jpeg":"https://www.gutenberg.org/cache/epub/66258/pg66258.cover.medium.jpg","application/octet-stream":"https://www.gutenberg.org/files/66258/66258-0.zip"},"download_count":13},{"id":66268,"title":"The Atom and the Ocean","authors":[{"name":"Hull, E. W. Seabrook","birth_year":null,"death_year":null}],"translators":[],"subjects":["Radioisotopes in oceanography"],"bookshelves":[],"languages":["en"],"copyright":false,"media_type":"Text","formats":{"text/html":"https://www.gutenberg.org/ebooks/66268.html.images","application/epub+zip":"https://www.gutenberg.org/ebooks/66268.epub3.images","application/x-mobipocket-ebook":"https://www.gutenberg.org/ebooks/66268.kf8.images","text/plain; charset=us-ascii":"https://www.gutenberg.org/ebooks/66268.txt.utf-8","application/rdf+xml":"https://www.gutenberg.org/ebooks/66268.rdf","image/jpeg":"https://www.gutenberg.org/cache/epub/66268/pg66268.cover.medium.jpg","application/octet-stream":"https://www.gutenberg.org/files/66268/66268-0.zip"},"download_count":13},{"id":66365,"title":"Vicksburg","authors":[{"name":"Hanly, J. Frank (James Frank)","birth_year":1863,"death_year":1920}],"translators":[],"subjects":["Vicksburg (Miss.) -- History -- Siege, 1863"],"bookshelves":[],"languages":["en"],"copyright":false,"media_type":"Text","formats":{"text/html":"https://www.gutenberg.org/ebooks/66365.html.images","application/epub+zip":"https://www.gutenberg.org/ebooks/66365.epub3.images","application/x-mobipocket-ebook":"https://www.gutenberg.org/ebooks/66365.kf8.images","text/plain; charset=us-ascii":"https://www.gutenberg.org/ebooks/66365.txt.utf-8","application/rdf+xml":"https://www.gutenberg.org/ebooks/66365.rdf","image/jpeg":"https://www.gutenberg.org/cache/epub/66365/pg66365.cover.medium.jpg","application/octet-stream":"https://www.gutenberg.org/files/66365/66365-0.zip"},"download_count":13},{"id":66433,"title":"Personal Experiences During the Chicago Fire, 1871","authors":[{"name":"Loesch, Frank J. (Frank Joseph)","birth_year":1852,"death_year":1944}],"translators":[],"subjects":["Chicago (Ill.) -- History -- To 1875","Great Fire, Chicago, Ill., 1871"],"bookshelves":[],"languages":["en"],"copyright":false,"media_type":"Text","formats":{"text/html":"https://www.gutenberg.org/ebooks/66433.html.images","application/epub+zip":"https://www.gutenberg.org/ebooks/66433.epub3.images","application/x-mobipocket-ebook":"https://www.gutenberg.org/ebooks/66433.kf8.images","text/plain; charset=us-ascii":"https://www.gutenberg.org/ebooks/66433.txt.utf-8","application/rdf+xml":"https://www.gutenberg.org/ebooks/66433.rdf","image/jpeg":"https://www.gutenberg.org/cache/epub/66433/pg66433.cover.medium.jpg","application/octet-stream":"https://www.gutenberg.org/files/66433/66433-0.zip"},"download_count":13},{"id":66558,"title":"The Prince of the Captivity: The Epilogue to a Romance","authors":[{"name":"Grier, Sydney C.","birth_year":1868,"death_year":1933}],"translators":[],"subjects":["Kings and rulers -- Fiction","Political fiction"],"bookshelves":[],"languages":["en"],"copyright":false,"media_type":"Text","formats":{"text/html":"https://www.gutenberg.org/ebooks/66558.html.images","application/epub+zip":"https://www.gutenberg.org/ebooks/66558.epub3.images","application/x-mobipocket-ebook":"https://www.gutenberg.org/ebooks/66558.kf8.images","text/plain; charset=us-ascii":"https://www.gutenberg.org/ebooks/66558.txt.utf-8","application/rdf+xml":"https://www.gutenberg.org/ebooks/66558.rdf","image/jpeg":"https://www.gutenberg.org/cache/epub/66558/pg66558.cover.medium.jpg","application/octet-stream":"https://www.gutenberg.org/files/66558/66558-0.zip"},"download_count":13},{"id":66618,"title":"The Pioneer","authors":[{"name":"Cox, Irving E.","birth_year":1917,"death_year":2001}],"translators":[],"subjects":["Conflict of generations -- Fiction","Psychic ability -- Fiction","Science fiction","Short stories","Space travelers -- Fiction"],"bookshelves":[],"languages":["en"],"copyright":false,"media_type":"Text","formats":{"text/html":"https://www.gutenberg.org/ebooks/66618.html.images","application/epub+zip":"https://www.gutenberg.org/ebooks/66618.epub3.images","application/x-mobipocket-ebook":"https://www.gutenberg.org/ebooks/66618.kf8.images","text/plain; charset=us-ascii":"https://www.gutenberg.org/ebooks/66618.txt.utf-8","application/rdf+xml":"https://www.gutenberg.org/ebooks/66618.rdf","image/jpeg":"https://www.gutenberg.org/cache/epub/66618/pg66618.cover.medium.jpg","application/octet-stream":"https://www.gutenberg.org/files/66618/66618-0.zip"},"download_count":13},{"id":66680,"title":"The flowering plants of South Africa; vol. 3","authors":[{"name":"Pole Evans, I. B. (Illtyd Buller)","birth_year":1879,"death_year":1968}],"translators":[],"subjects":["Plants -- South Africa -- Periodicals","Plants -- South Africa -- Pictorial works -- Periodicals"],"bookshelves":[],"languages":["en"],"copyright":false,"media_type":"Text","formats":{"text/html":"https://www.gutenberg.org/ebooks/66680.html.images","application/epub+zip":"https://www.gutenberg.org/ebooks/66680.epub3.images","application/x-mobipocket-ebook":"https://www.gutenberg.org/ebooks/66680.kf8.images","text/plain; charset=us-ascii":"https://www.gutenberg.org/ebooks/66680.txt.utf-8","application/rdf+xml":"https://www.gutenberg.org/ebooks/66680.rdf","image/jpeg":"https://www.gutenberg.org/cache/epub/66680/pg66680.cover.medium.jpg","application/octet-stream":"https://www.gutenberg.org/files/66680/66680-0.zip"},"download_count":13},{"id":67055,"title":"The Young Continentals at Monmouth","authors":[{"name":"McIntyre, John T. (John Thomas)","birth_year":1871,"death_year":1951}],"translators":[],"subjects":["Monmouth, Battle of, Freehold, N.J., 1778 -- Juvenile fiction","United States -- History -- Revolution, 1775-1783 -- Juvenile fiction"],"bookshelves":[],"languages":["en"],"copyright":false,"media_type":"Text","formats":{"text/html":"https://www.gutenberg.org/ebooks/67055.html.images","application/epub+zip":"https://www.gutenberg.org/ebooks/67055.epub3.images","application/x-mobipocket-ebook":"https://www.gutenberg.org/ebooks/67055.kf8.images","text/plain; charset=us-ascii":"https://www.gutenberg.org/ebooks/67055.txt.utf-8","application/rdf+xml":"https://www.gutenberg.org/ebooks/67055.rdf","image/jpeg":"https://www.gutenberg.org/cache/epub/67055/pg67055.cover.medium.jpg","application/octet-stream":"https://www.gutenberg.org/files/67055/67055-0.zip"},"download_count":13},{"id":67115,"title":"Their Child","authors":[{"name":"Herrick, Robert","birth_year":1868,"death_year":1938}],"translators":[],"subjects":["Husband and wife -- Fiction","Parent and child -- Fiction"],"bookshelves":[],"languages":["en"],"copyright":false,"media_type":"Text","formats":{"text/html":"https://www.gutenberg.org/ebooks/67115.html.images","application/epub+zip":"https://www.gutenberg.org/ebooks/67115.epub3.images","application/x-mobipocket-ebook":"https://www.gutenberg.org/ebooks/67115.kf8.images","text/plain; charset=us-ascii":"https://www.gutenberg.org/ebooks/67115.txt.utf-8","application/rdf+xml":"https://www.gutenberg.org/ebooks/67115.rdf","image/jpeg":"https://www.gutenberg.org/cache/epub/67115/pg67115.cover.medium.jpg","application/octet-stream":"https://www.gutenberg.org/files/67115/67115-0.zip"},"download_count":13},{"id":67127,"title":"The Origin, Tendencies and Principles of Government: A review of the rise and fall of nations from early historic time to the present; with special considerations regarding the future of the United States as the representative government of the world and the form of administration which will secure this consummation. Also, papers on human equality, as represented by labor and its representative, money; and the meaning and significance of life from a scientific standpoint, with its prophecies for the great future.","authors":[{"name":"Woodhull, Victoria C. (Victoria Claflin)","birth_year":1838,"death_year":1927}],"translators":[],"subjects":["Social sciences","United States -- Politics and government"],"bookshelves":[],"languages":["en"],"copyright":false,"media_type":"Text","formats":{"text/html":"https://www.gutenberg.org/ebooks/67127.html.images","application/epub+zip":"https://www.gutenberg.org/ebooks/67127.epub3.images","application/x-mobipocket-ebook":"https://www.gutenberg.org/ebooks/67127.kf8.images","text/plain; charset=us-ascii":"https://www.gutenberg.org/ebooks/67127.txt.utf-8","application/rdf+xml":"https://www.gutenberg.org/ebooks/67127.rdf","image/jpeg":"https://www.gutenberg.org/cache/epub/67127/pg67127.cover.medium.jpg","application/octet-stream":"https://www.gutenberg.org/files/67127/67127-0.zip"},"download_count":13},{"id":67567,"title":"The Little Lady of the Horse","authors":[{"name":"Raymond, Evelyn","birth_year":1843,"death_year":1910}],"translators":[],"subjects":["Horses -- Juvenile fiction","Ranch life -- Juvenile fiction","West (U.S.) -- Juvenile fiction"],"bookshelves":[],"languages":["en"],"copyright":false,"media_type":"Text","formats":{"text/html":"https://www.gutenberg.org/ebooks/67567.html.images","application/epub+zip":"https://www.gutenberg.org/ebooks/67567.epub3.images","application/x-mobipocket-ebook":"https://www.gutenberg.org/ebooks/67567.kf8.images","text/plain; charset=us-ascii":"https://www.gutenberg.org/ebooks/67567.txt.utf-8","application/rdf+xml":"https://www.gutenberg.org/ebooks/67567.rdf","image/jpeg":"https://www.gutenberg.org/cache/epub/67567/pg67567.cover.medium.jpg","application/octet-stream":"https://www.gutenberg.org/files/67567/67567-0.zip"},"download_count":13},{"id":67658,"title":"White Cockades: An Incident of the \"Forty-Five\"","authors":[{"name":"Prime-Stevenson, Edward","birth_year":1858,"death_year":1942}],"translators":[],"subjects":["Jacobite Rebellion, 1745-1746 -- Fiction"],"bookshelves":[],"languages":["en"],"copyright":false,"media_type":"Text","formats":{"text/html":"https://www.gutenberg.org/ebooks/67658.html.images","application/epub+zip":"https://www.gutenberg.org/ebooks/67658.epub3.images","application/x-mobipocket-ebook":"https://www.gutenberg.org/ebooks/67658.kf8.images","text/plain; charset=us-ascii":"https://www.gutenberg.org/ebooks/67658.txt.utf-8","application/rdf+xml":"https://www.gutenberg.org/ebooks/67658.rdf","image/jpeg":"https://www.gutenberg.org/cache/epub/67658/pg67658.cover.medium.jpg","application/octet-stream":"https://www.gutenberg.org/files/67658/67658-0.zip"},"download_count":13},{"id":67659,"title":"A Strange, Sad Comedy","authors":[{"name":"Seawell, Molly Elliot","birth_year":1860,"death_year":1916}],"translators":[],"subjects":["Newport (R.I.) -- Fiction","United States -- History -- Civil War, 1861-1865 -- Fiction","United States -- Social life and customs -- 1865-1918 -- Fiction","Virginia -- Fiction"],"bookshelves":[],"languages":["en"],"copyright":false,"media_type":"Text","formats":{"text/html":"https://www.gutenberg.org/ebooks/67659.html.images","application/epub+zip":"https://www.gutenberg.org/ebooks/67659.epub3.images","application/x-mobipocket-ebook":"https://www.gutenberg.org/ebooks/67659.kf8.images","text/plain; charset=us-ascii":"https://www.gutenberg.org/ebooks/67659.txt.utf-8","application/rdf+xml":"https://www.gutenberg.org/ebooks/67659.rdf","image/jpeg":"https://www.gutenberg.org/cache/epub/67659/pg67659.cover.medium.jpg","application/octet-stream":"https://www.gutenberg.org/files/67659/67659-0.zip"},"download_count":13},{"id":67840,"title":"Essay on the Literature of the Mexican War","authors":[{"name":"Lawson, W. T. (William Thornton)","birth_year":null,"death_year":null}],"translators":[],"subjects":["Mexican War, 1846-1848 -- Bibliography"],"bookshelves":[],"languages":["en"],"copyright":false,"media_type":"Text","formats":{"text/html":"https://www.gutenberg.org/ebooks/67840.html.images","application/epub+zip":"https://www.gutenberg.org/ebooks/67840.epub3.images","application/x-mobipocket-ebook":"https://www.gutenberg.org/ebooks/67840.kf8.images","text/plain; charset=us-ascii":"https://www.gutenberg.org/ebooks/67840.txt.utf-8","application/rdf+xml":"https://www.gutenberg.org/ebooks/67840.rdf","image/jpeg":"https://www.gutenberg.org/cache/epub/67840/pg67840.cover.medium.jpg","application/octet-stream":"https://www.gutenberg.org/files/67840/67840-0.zip"},"download_count":13},{"id":68141,"title":"The Southern Literary Messenger, Vol. II., No. 3, February, 1836","authors":[{"name":"Various","birth_year":null,"death_year":null}],"translators":[],"subjects":["American literature -- 19th century -- Periodicals"],"bookshelves":[],"languages":["en"],"copyright":false,"media_type":"Text","formats":{"text/html":"https://www.gutenberg.org/ebooks/68141.html.images","application/epub+zip":"https://www.gutenberg.org/ebooks/68141.epub3.images","application/x-mobipocket-ebook":"https://www.gutenberg.org/ebooks/68141.kf8.images","text/plain; charset=us-ascii":"https://www.gutenberg.org/ebooks/68141.txt.utf-8","application/rdf+xml":"https://www.gutenberg.org/ebooks/68141.rdf","image/jpeg":"https://www.gutenberg.org/cache/epub/68141/pg68141.cover.medium.jpg","application/octet-stream":"https://www.gutenberg.org/files/68141/68141-0.zip"},"download_count":13},{"id":68290,"title":"The Berkeleys and their neighbors","authors":[{"name":"Seawell, Molly Elliot","birth_year":1860,"death_year":1916}],"translators":[],"subjects":["Virginia -- Fiction"],"bookshelves":[],"languages":["en"],"copyright":false,"media_type":"Text","formats":{"text/html":"https://www.gutenberg.org/ebooks/68290.html.images","application/epub+zip":"https://www.gutenberg.org/ebooks/68290.epub3.images","application/x-mobipocket-ebook":"https://www.gutenberg.org/ebooks/68290.kf8.images","text/plain; charset=us-ascii":"https://www.gutenberg.org/ebooks/68290.txt.utf-8","application/rdf+xml":"https://www.gutenberg.org/ebooks/68290.rdf","image/jpeg":"https://www.gutenberg.org/cache/epub/68290/pg68290.cover.medium.jpg","application/octet-stream":"https://www.gutenberg.org/files/68290/68290-0.zip"},"download_count":13},{"id":68422,"title":"Address of the President at the unveiling of the monument to General Sheridan, Wednesday, November 25, 1908","authors":[{"name":"Roosevelt, Theodore","birth_year":1858,"death_year":1919}],"translators":[],"subjects":["Sheridan, Philip Henry, 1831-1888","Speeches, addresses, etc."],"bookshelves":[],"languages":["en"],"copyright":false,"media_type":"Text","formats":{"text/html":"https://www.gutenberg.org/ebooks/68422.html.images","application/epub+zip":"https://www.gutenberg.org/ebooks/68422.epub3.images","application/x-mobipocket-ebook":"https://www.gutenberg.org/ebooks/68422.kf8.images","text/plain; charset=us-ascii":"https://www.gutenberg.org/ebooks/68422.txt.utf-8","application/rdf+xml":"https://www.gutenberg.org/ebooks/68422.rdf","image/jpeg":"https://www.gutenberg.org/cache/epub/68422/pg68422.cover.medium.jpg","application/octet-stream":"https://www.gutenberg.org/files/68422/68422-0.zip"},"download_count":13},{"id":68570,"title":"College prolongs infancy","authors":[{"name":"Kallen, Horace Meyer","birth_year":1882,"death_year":1974}],"translators":[],"subjects":["Education, Higher","Students -- United States","Universities and colleges -- United States"],"bookshelves":[],"languages":["en"],"copyright":false,"media_type":"Text","formats":{"text/html":"https://www.gutenberg.org/ebooks/68570.html.images","application/epub+zip":"https://www.gutenberg.org/ebooks/68570.epub3.images","application/x-mobipocket-ebook":"https://www.gutenberg.org/ebooks/68570.kf8.images","text/plain; charset=us-ascii":"https://www.gutenberg.org/ebooks/68570.txt.utf-8","application/rdf+xml":"https://www.gutenberg.org/ebooks/68570.rdf","image/jpeg":"https://www.gutenberg.org/cache/epub/68570/pg68570.cover.medium.jpg","application/octet-stream":"https://www.gutenberg.org/files/68570/68570-0.zip"},"download_count":13},{"id":68596,"title":"Eustace Marchmont: A friend of the people","authors":[{"name":"Everett-Green, Evelyn","birth_year":1856,"death_year":1932}],"translators":[],"subjects":["West Country (England) -- Fiction"],"bookshelves":[],"languages":["en"],"copyright":false,"media_type":"Text","formats":{"text/html":"https://www.gutenberg.org/ebooks/68596.html.images","application/epub+zip":"https://www.gutenberg.org/ebooks/68596.epub3.images","application/x-mobipocket-ebook":"https://www.gutenberg.org/ebooks/68596.kf8.images","text/plain; charset=us-ascii":"https://www.gutenberg.org/ebooks/68596.txt.utf-8","application/rdf+xml":"https://www.gutenberg.org/ebooks/68596.rdf","image/jpeg":"https://www.gutenberg.org/cache/epub/68596/pg68596.cover.medium.jpg","application/octet-stream":"https://www.gutenberg.org/files/68596/68596-0.zip"},"download_count":13},{"id":68608,"title":"Don Sebastian : $b or, The house of the Braganza: An historical romance. vol. 2","authors":[{"name":"Porter, Anna Maria","birth_year":1778,"death_year":1832}],"translators":[],"subjects":["Sebastião, King of Portugal, 1554-1578 -- Fiction"],"bookshelves":[],"languages":["en"],"copyright":false,"media_type":"Text","formats":{"text/html":"https://www.gutenberg.org/ebooks/68608.html.images","application/epub+zip":"https://www.gutenberg.org/ebooks/68608.epub3.images","application/x-mobipocket-ebook":"https://www.gutenberg.org/ebooks/68608.kf8.images","text/plain; charset=us-ascii":"https://www.gutenberg.org/ebooks/68608.txt.utf-8","application/rdf+xml":"https://www.gutenberg.org/ebooks/68608.rdf","image/jpeg":"https://www.gutenberg.org/cache/epub/68608/pg68608.cover.medium.jpg","application/octet-stream":"https://www.gutenberg.org/files/68608/68608-0.zip"},"download_count":13},{"id":68640,"title":"The chutney lyrics: A collection of comic pieces in verse on Indian subjects","authors":[{"name":"Caldwell, Robert C.","birth_year":null,"death_year":1878}],"translators":[],"subjects":["British -- India -- Social life and customs -- Poetry","Humorous poetry, English"],"bookshelves":[],"languages":["en"],"copyright":false,"media_type":"Text","formats":{"text/html":"https://www.gutenberg.org/ebooks/68640.html.images","application/epub+zip":"https://www.gutenberg.org/ebooks/68640.epub3.images","application/x-mobipocket-ebook":"https://www.gutenberg.org/ebooks/68640.kf8.images","text/plain; charset=us-ascii":"https://www.gutenberg.org/ebooks/68640.txt.utf-8","application/rdf+xml":"https://www.gutenberg.org/ebooks/68640.rdf","image/jpeg":"https://www.gutenberg.org/cache/epub/68640/pg68640.cover.medium.jpg","application/octet-stream":"https://www.gutenberg.org/files/68640/68640-0.zip"},"download_count":13},{"id":68887,"title":"Bishop Joseph Blount Cheshire: His Life and Work","authors":[{"name":"London, Lawrence Foushee","birth_year":1908,"death_year":2005}],"translators":[],"subjects":["Cheshire, Joseph Blount, 1850-1932"],"bookshelves":[],"languages":["en"],"copyright":false,"media_type":"Text","formats":{"text/html":"https://www.gutenberg.org/ebooks/68887.html.images","application/epub+zip":"https://www.gutenberg.org/ebooks/68887.epub3.images","application/x-mobipocket-ebook":"https://www.gutenberg.org/ebooks/68887.kf8.images","text/plain; charset=us-ascii":"https://www.gutenberg.org/ebooks/68887.txt.utf-8","application/rdf+xml":"https://www.gutenberg.org/ebooks/68887.rdf","image/jpeg":"https://www.gutenberg.org/cache/epub/68887/pg68887.cover.medium.jpg","application/octet-stream":"https://www.gutenberg.org/files/68887/68887-0.zip"},"download_count":13},{"id":68943,"title":"The voice in the fog","authors":[{"name":"Leverage, Henry","birth_year":1885,"death_year":1931}],"translators":[],"subjects":["Sea stories","Ships -- Fiction","Short stories"],"bookshelves":[],"languages":["en"],"copyright":false,"media_type":"Text","formats":{"text/html":"https://www.gutenberg.org/ebooks/68943.html.images","application/epub+zip":"https://www.gutenberg.org/ebooks/68943.epub3.images","application/x-mobipocket-ebook":"https://www.gutenberg.org/ebooks/68943.kf8.images","text/plain; charset=us-ascii":"https://www.gutenberg.org/ebooks/68943.txt.utf-8","application/rdf+xml":"https://www.gutenberg.org/ebooks/68943.rdf","image/jpeg":"https://www.gutenberg.org/cache/epub/68943/pg68943.cover.medium.jpg","application/octet-stream":"https://www.gutenberg.org/files/68943/68943-0.zip"},"download_count":13},{"id":68951,"title":"The gray brotherhood","authors":[{"name":"Leverage, Henry","birth_year":1885,"death_year":1931}],"translators":[],"subjects":["Fay, Chester (Fictitious character) -- Fiction","Murder -- Investigation -- Fiction","Mystery fiction"],"bookshelves":[],"languages":["en"],"copyright":false,"media_type":"Text","formats":{"text/html":"https://www.gutenberg.org/ebooks/68951.html.images","application/epub+zip":"https://www.gutenberg.org/ebooks/68951.epub3.images","application/x-mobipocket-ebook":"https://www.gutenberg.org/ebooks/68951.kf8.images","text/plain; charset=us-ascii":"https://www.gutenberg.org/ebooks/68951.txt.utf-8","application/rdf+xml":"https://www.gutenberg.org/ebooks/68951.rdf","image/jpeg":"https://www.gutenberg.org/cache/epub/68951/pg68951.cover.medium.jpg","application/octet-stream":"https://www.gutenberg.org/files/68951/68951-0.zip"},"download_count":13},{"id":69023,"title":"The passing of the great Queen: A tribute to the noble life of Victoria Regina","authors":[{"name":"Corelli, Marie","birth_year":1855,"death_year":1924}],"translators":[],"subjects":["Victoria, Queen of Great Britain, 1819-1901 -- Death and burial"],"bookshelves":[],"languages":["en"],"copyright":false,"media_type":"Text","formats":{"text/html":"https://www.gutenberg.org/ebooks/69023.html.images","application/epub+zip":"https://www.gutenberg.org/ebooks/69023.epub3.images","application/x-mobipocket-ebook":"https://www.gutenberg.org/ebooks/69023.kf8.images","text/plain; charset=us-ascii":"https://www.gutenberg.org/ebooks/69023.txt.utf-8","application/rdf+xml":"https://www.gutenberg.org/ebooks/69023.rdf","image/jpeg":"https://www.gutenberg.org/cache/epub/69023/pg69023.cover.medium.jpg","application/octet-stream":"https://www.gutenberg.org/files/69023/69023-0.zip"},"download_count":13},{"id":69054,"title":"The Rambler club in the mountains","authors":[{"name":"Sheppard, W. Crispin (William Crispin)","birth_year":1871,"death_year":null}],"translators":[],"subjects":["Boys -- Societies and clubs -- Juvenile fiction","Camping -- Juvenile fiction","Friendship -- Juvenile fiction","Mountaineering -- Juvenile fiction","Oregon -- Juvenile fiction"],"bookshelves":[],"languages":["en"],"copyright":false,"media_type":"Text","formats":{"text/html":"https://www.gutenberg.org/ebooks/69054.html.images","application/epub+zip":"https://www.gutenberg.org/ebooks/69054.epub3.images","application/x-mobipocket-ebook":"https://www.gutenberg.org/ebooks/69054.kf8.images","text/plain; charset=us-ascii":"https://www.gutenberg.org/ebooks/69054.txt.utf-8","application/rdf+xml":"https://www.gutenberg.org/ebooks/69054.rdf","image/jpeg":"https://www.gutenberg.org/cache/epub/69054/pg69054.cover.medium.jpg","application/octet-stream":"https://www.gutenberg.org/files/69054/69054-0.zip"},"download_count":13},{"id":69064,"title":"The little acrobat: a story of Italy","authors":[{"name":"Duggan, Janie Prichard","birth_year":null,"death_year":null}],"translators":[],"subjects":["Boys -- Juvenile fiction","Circus -- Juvenile fiction","Italy -- Juvenile fiction"],"bookshelves":[],"languages":["en"],"copyright":false,"media_type":"Text","formats":{"text/html":"https://www.gutenberg.org/ebooks/69064.html.images","application/epub+zip":"https://www.gutenberg.org/ebooks/69064.epub3.images","application/x-mobipocket-ebook":"https://www.gutenberg.org/ebooks/69064.kf8.images","text/plain; charset=us-ascii":"https://www.gutenberg.org/ebooks/69064.txt.utf-8","application/rdf+xml":"https://www.gutenberg.org/ebooks/69064.rdf","image/jpeg":"https://www.gutenberg.org/cache/epub/69064/pg69064.cover.medium.jpg","application/octet-stream":"https://www.gutenberg.org/files/69064/69064-0.zip"},"download_count":13},{"id":69166,"title":"A short sketch of the evidence for the abolition of the slave trade, delivered before a committee of the House of Commons","authors":[{"name":"Crafton, William Bell","birth_year":null,"death_year":null}],"translators":[],"subjects":["Slave trade -- Great Britain","Speeches, addresses, etc., English"],"bookshelves":[],"languages":["en"],"copyright":false,"media_type":"Text","formats":{"text/html":"https://www.gutenberg.org/ebooks/69166.html.images","application/epub+zip":"https://www.gutenberg.org/ebooks/69166.epub3.images","application/x-mobipocket-ebook":"https://www.gutenberg.org/ebooks/69166.kf8.images","text/plain; charset=us-ascii":"https://www.gutenberg.org/ebooks/69166.txt.utf-8","application/rdf+xml":"https://www.gutenberg.org/ebooks/69166.rdf","image/jpeg":"https://www.gutenberg.org/cache/epub/69166/pg69166.cover.medium.jpg","application/octet-stream":"https://www.gutenberg.org/files/69166/69166-0.zip"},"download_count":13}]}