{"count":58808,"next":"http://129.241.150.113:8000/books/?languages=en&page=954","previous":"http://129.241.150.113:8000/books/?languages=en&page=952","results":[{"id":70230,"title":"The ghost planet","authors":[{"name":"Leinster, Murray","birth_year":1896,"death_year":1975}],"translators":[],"subjects":["Human-alien encounters -- Fiction","Science fiction"],"bookshelves":[],"languages":["en"],"copyright":false,"media_type":"Text","formats":{"text/html":"https://www.gutenberg.org/ebooks/70230.html.images","application/epub+zip":"https://www.gutenberg.org/ebooks/70230.epub3.images","application/x-mobipocket-ebook":"https://www.gutenberg.org/ebooks/70230.kf8.images","text/plain; charset=us-ascii":"https://www.gutenberg.org/ebooks/70230.txt.utf-8","application/rdf+xml":"https://www.gutenberg.org/ebooks/70230.rdf","image/jpeg":"https://www.gutenberg.org/cache/epub/70230/pg70230.cover.medium.jpg","application/octet-stream":"https://www.gutenberg.org/files/70230/70230-0.zip"},"download_count":38},{"id":70320,"title":"The Navy of the American Revolution : $b Its administration, its policy, and its achievements","authors":[{"name":"Paullin, Charles Oscar","birth_year":1868,"death_year":1944}],"translators":[],"subjects":["United States -- History -- Revolution, 1775-1783 -- Naval operations","United States. Navy -- History -- Revolution, 1775-1783"],"bookshelves":[],"languages":["en"],"copyright":false,"media_type":"Text","formats":{"text/html":"https://www.gutenberg.org/ebooks/70320.html.images","application/epub+zip":"https://www.gutenberg.org/ebooks/70320.epub3.images","application/x-mobipocket-ebook":"https://www.gutenberg.org/ebooks/70320.kf8.images","text/plain; charset=us-ascii":"https://www.gutenberg.org/ebooks/70320.txt.utf-8","application/rdf+xml":"https://www.gutenberg.org/ebooks/70320.rdf","image/jpeg":"https://www.gutenberg.org/cache/epub/70320/pg70320.cover.medium.jpg","application/octet-stream":"https://www.gutenberg.org/files/70320/70320-0.zip"},"download_count":38},{"id":70329,"title":"Arctic exploration","authors":[{"name":"Hoare, J. Douglas","birth_year":null,"death_year":null}],"translators":[],"subjects":["Arctic regions","Discoveries in geography"],"bookshelves":[],"languages":["en"],"copyright":false,"media_type":"Text","formats":{"text/html":"https://www.gutenberg.org/ebooks/70329.html.images","application/epub+zip":"https://www.gutenberg.org/ebooks/70329.epub3.images","application/x-mobipocket-ebook":"https://www.gutenberg.org/ebooks/70329.kf8.images","text/plain; charset=us-ascii":"https://www.gutenberg.org/ebooks/70329.txt.utf-8","application/rdf+xml":"https://www.gutenberg.org/ebooks/70329.rdf","image/jpeg":"https://www.gutenberg.org/cache/epub/70329/pg70329.cover.medium.jpg","application/octet-stream":"https://www.gutenberg.org/files/70329/70329-0.zip"},"download_count":38},{"id":70498,"title":"The evergreen tree","authors":[{"name":"MacKaye, Percy","birth_year":1875,"death_year":1956}],"translators":[],"subjects":["Christmas plays","Masques"],"bookshelves":[],"languages":["en"],"copyright":false,"media_type":"Text","formats":{"text/html":"https://www.gutenberg.org/ebooks/70498.html.images","application/epub+zip":"https://www.gutenberg.org/ebooks/70498.epub3.images","application/x-mobipocket-ebook":"https://www.gutenberg.org/ebooks/70498.kf8.images","text/plain; charset=us-ascii":"https://www.gutenberg.org/ebooks/70498.txt.utf-8","application/rdf+xml":"https://www.gutenberg.org/ebooks/70498.rdf","image/jpeg":"https://www.gutenberg.org/cache/epub/70498/pg70498.cover.medium.jpg","application/octet-stream":"https://www.gutenberg.org/files/70498/70498-0.zip"},"download_count":38},{"id":70531,"title":"The seven books of Paulus Ægineta, volume 1 (of 3) : $b translated from the Greek: with a commentary embracing a complete view of the knowledge possessed by the Greeks, Romans, and Arabians on all subjects connected with medicine and  surgery","authors":[{"name":"Paulus, Aegineta","birth_year":null,"death_year":null}],"translators":[{"name":"Adams, Francis","birth_year":1796,"death_year":1861}],"subjects":["Medicine","Medicine, Arab","Medicine, Greek and Roman"],"bookshelves":[],"languages":["en"],"copyright":false,"media_type":"Text","formats":{"text/html":"https://www.gutenberg.org/ebooks/70531.html.images","application/epub+zip":"https://www.gutenberg.org/ebooks/70531.epub3.images","application/x-mobipocket-ebook":"https://www.gutenberg.org/ebooks/70531.kf8.images","text/plain; charset=us-ascii":"https://www.gutenberg.org/ebooks/70531.txt.utf-8","application/rdf+xml":"https://www.gutenberg.org/ebooks/70531.rdf","image/jpeg":"https://www.gutenberg.org/cache/epub/70531/pg70531.cover.medium.jpg","application/octet-stream":"https://www.gutenberg.org/files/70531/70531-0.zip"},"download_count":38},{"id":70535,"title":"The world's navies in the Boxer rebellion (China 1900)","authors":[{"name":"Dix, Charles Cabry","birth_year":null,"death_year":null}],"translators":[],"subjects":["China -- History -- Boxer Rebellion, 1899-1901"],"bookshelves":[],"languages":["en"],"copyright":false,"media_type":"Text","formats":{"text/html":"https://www.gutenberg.org/ebooks/70535.html.images","application/epub+zip":"https://www.gutenberg.org/ebooks/70535.epub3.images","application/x-mobipocket-ebook":"https://www.gutenberg.org/ebooks/70535.kf8.images","text/plain; charset=us-ascii":"https://www.gutenberg.org/ebooks/70535.txt.utf-8","application/rdf+xml":"https://www.gutenberg.org/ebooks/70535.rdf","image/jpeg":"https://www.gutenberg.org/cache/epub/70535/pg70535.cover.medium.jpg","application/octet-stream":"https://www.gutenberg.org/files/70535/70535-0.zip"},"download_count":38},{"id":70547,"title":"Parodies of the works of English & American authors, vol. V","authors":[],"translators":[],"subjects":["Parodies"],"bookshelves":[],"languages":["en"],"copyright":false,"media_type":"Text","formats":{"text/html":"https://www.gutenberg.org/ebooks/70547.html.images","application/epub+zip":"https://www.gutenberg.org/ebooks/70547.epub3.images","application/x-mobipocket-ebook":"https://www.gutenberg.org/ebooks/70547.kf8.images","text/plain; charset=us-ascii":"https://www.gutenberg.org/ebooks/70547.txt.utf-8","application/rdf+xml":"https://www.gutenberg.org/ebooks/70547.rdf","image/jpeg":"https://www.gutenberg.org/cache/epub/70547/pg70547.cover.medium.jpg","application/octet-stream":"https://www.gutenberg.org/cache/epub/70547/pg70547-h.zip"},"download_count":38},{"id":70550,"title":"The miracle of Saint Anthony","authors":[{"name":"Maeterlinck, Maurice","birth_year":1862,"death_year":1949}],"translators":[{"name":"Teixeira de Mattos, Alexander","birth_year":1865,"death_year":1921}],"subjects":["Anthony, of Padua, Saint, 1195-1231 -- Drama"],"bookshelves":[],"languages":["en"],"copyright":false,"media_type":"Text","formats":{"text/html":"https://www.gutenberg.org/ebooks/70550.html.images","application/epub+zip":"https://www.gutenberg.org/ebooks/70550.epub3.images","application/x-mobipocket-ebook":"https://www.gutenberg.org/ebooks/70550.kf8.images","text/plain; charset=us-ascii":"https://www.gutenberg.org/ebooks/70550.txt.utf-8","application/rdf+xml":"https://www.gutenberg.org/ebooks/70550.rdf","image/jpeg":"https://www.gutenberg.org/cache/epub/70550/pg70550.cover.medium.jpg","application/octet-stream":"https://www.gutenberg.org/files/70550/70550-0.zip"},"download_count":38},{"id":70649,"title":"Catalogue of valuable paintings and water colors mostly of the modern Dutch school, forming the private collection of A. Augustus Healy, Esq., Brooklyn : $b to be disposed of at unrestricted public sale ... February 15 [1907] at Mendelssohn Hall","authors":[{"name":"American Art Association","birth_year":null,"death_year":null}],"translators":[],"subjects":["Art -- Private collections","Auction catalogs","Healy, A. Augustus (Aaron Augustus), 1850-1921 -- Art collections -- Catalogs"],"bookshelves":[],"languages":["en"],"copyright":false,"media_type":"Text","formats":{"text/html":"https://www.gutenberg.org/ebooks/70649.html.images","application/epub+zip":"https://www.gutenberg.org/ebooks/70649.epub3.images","application/x-mobipocket-ebook":"https://www.gutenberg.org/ebooks/70649.kf8.images","text/plain; charset=us-ascii":"https://www.gutenberg.org/ebooks/70649.txt.utf-8","application/rdf+xml":"https://www.gutenberg.org/ebooks/70649.rdf","image/jpeg":"https://www.gutenberg.org/cache/epub/70649/pg70649.cover.medium.jpg","application/octet-stream":"https://www.gutenberg.org/files/70649/70649-0.zip"},"download_count":38},{"id":70824,"title":"The world-mover","authors":[{"name":"Smith, George O. (George Oliver)","birth_year":1911,"death_year":1981}],"translators":[],"subjects":["Man-woman relationships -- Fiction","Physicists -- Fiction","Science fiction","Time travel -- Fiction","Transuranium elements -- Fiction"],"bookshelves":[],"languages":["en"],"copyright":false,"media_type":"Text","formats":{"text/html":"https://www.gutenberg.org/ebooks/70824.html.images","application/epub+zip":"https://www.gutenberg.org/ebooks/70824.epub3.images","application/x-mobipocket-ebook":"https://www.gutenberg.org/ebooks/70824.kf8.images","text/plain; charset=us-ascii":"https://www.gutenberg.org/ebooks/70824.txt.utf-8","application/rdf+xml":"https://www.gutenberg.org/ebooks/70824.rdf","image/jpeg":"https://www.gutenberg.org/cache/epub/70824/pg70824.cover.medium.jpg","application/octet-stream":"https://www.gutenberg.org/files/70824/70824-0.zip"},"download_count":38},{"id":71132,"title":"A quiet valley","authors":[{"name":"Giberne, Agnes","birth_year":1845,"death_year":1939}],"translators":[],"subjects":["Accident victims -- Juvenile fiction","Adoptees -- Juvenile fiction","Christian life -- Juvenile fiction","Families -- Juvenile fiction","Railroad accidents -- Juvenile fiction"],"bookshelves":[],"languages":["en"],"copyright":false,"media_type":"Text","formats":{"text/html":"https://www.gutenberg.org/ebooks/71132.html.images","application/epub+zip":"https://www.gutenberg.org/ebooks/71132.epub3.images","application/x-mobipocket-ebook":"https://www.gutenberg.org/ebooks/71132.kf8.images","text/plain; charset=us-ascii":"https://www.gutenberg.org/ebooks/71132.txt.utf-8","application/rdf+xml":"https://www.gutenberg.org/ebooks/71132.rdf","image/jpeg":"https://www.gutenberg.org/cache/epub/71132/pg71132.cover.medium.jpg","application/octet-stream":"https://www.gutenberg.org/files/71132/71132-0.zip"},"download_count":38},{"id":71181,"title":"Hitting the line","authors":[{"name":"Barbour, Ralph Henry","birth_year":1870,"death_year":1944}],"translators":[],"subjects":["Boarding schools -- Juvenile fiction","Football stories","New England -- Juvenile fiction","Teenage boys -- Juvenile fiction"],"bookshelves":[],"languages":["en"],"copyright":false,"media_type":"Text","formats":{"text/html":"https://www.gutenberg.org/ebooks/71181.html.images","application/epub+zip":"https://www.gutenberg.org/ebooks/71181.epub3.images","application/x-mobipocket-ebook":"https://www.gutenberg.org/ebooks/71181.kf8.images","text/plain; charset=us-ascii":"https://www.gutenberg.org/ebooks/71181.txt.utf-8","application/rdf+xml":"https://www.gutenberg.org/ebooks/71181.rdf","image/jpeg":"https://www.gutenberg.org/cache/epub/71181/pg71181.cover.medium.jpg","application/octet-stream":"https://www.gutenberg.org/files/71181/71181-0.zip"},"download_count":38},{"id":71249,"title":"The Yoga-Vasishtha Maharamayana of Valmiki, Vol. 4 (of 4), Part 2 (of 2)","authors":[{"name":"Valmiki","birth_year":null,"death_year":null}],"translators":[{"name":"Mitra, Viharilala","birth_year":null,"death_year":null}],"subjects":["Hinduism -- Doctrines -- Early works to 1800","Religious life -- Hinduism -- Early works to 1800"],"bookshelves":[],"languages":["en"],"copyright":false,"media_type":"Text","formats":{"text/html":"https://www.gutenberg.org/ebooks/71249.html.images","application/epub+zip":"https://www.gutenberg.org/ebooks/71249.epub3.images","application/x-mobipocket-ebook":"https://www.gutenberg.org/ebooks/71249.kf8.images","text/plain; charset=us-ascii":"https://www.gutenberg.org/ebooks/71249.txt.utf-8","application/rdf+xml":"https://www.gutenberg.org/ebooks/71249.rdf","image/jpeg":"https://www.gutenberg.org/cache/epub/71249/pg71249.cover.medium.jpg","application/octet-stream":"https://www.gutenberg.org/files/71249/71249-0.zip"},"download_count":38},{"id":71345,"title":"The orchestra and orchestral music","authors":[{"name":"Henderson, W. J. (William James)","birth_year":1855,"death_year":1937}],"translators":[],"subjects":["Orchestra","Orchestral music -- Instruction and study"],"bookshelves":[],"languages":["en"],"copyright":false,"media_type":"Text","formats":{"text/html":"https://www.gutenberg.org/ebooks/71345.html.images","application/epub+zip":"https://www.gutenberg.org/ebooks/71345.epub3.images","application/x-mobipocket-ebook":"https://www.gutenberg.org/ebooks/71345.kf8.images","text/plain; charset=us-ascii":"https://www.gutenberg.org/ebooks/71345.txt.utf-8","application/rdf+xml":"https://www.gutenberg.org/ebooks/71345.rdf","image/jpeg":"https://www.gutenberg.org/cache/epub/71345/pg71345.cover.medium.jpg","application/octet-stream":"https://www.gutenberg.org/files/71345/71345-0.zip"},"download_count":38},{"id":71375,"title":"Niebuhr's lectures on Roman history, Vol. 1 (of 3)","authors":[{"name":"Niebuhr, Barthold Georg","birth_year":1776,"death_year":1831}],"translators":[{"name":"Chepmell, Havilland Le Mesurier‏","birth_year":null,"death_year":null},{"name":"Demmler, F.","birth_year":null,"death_year":null}],"subjects":["Rome -- History"],"bookshelves":[],"languages":["en"],"copyright":false,"media_type":"Text","formats":{"text/html":"https://www.gutenberg.org/ebooks/71375.html.images","application/epub+zip":"https://www.gutenberg.org/ebooks/71375.epub3.images","application/x-mobipocket-ebook":"https://www.gutenberg.org/ebooks/71375.kf8.images","text/plain; charset=us-ascii":"https://www.gutenberg.org/ebooks/71375.txt.utf-8","application/rdf+xml":"https://www.gutenberg.org/ebooks/71375.rdf","image/jpeg":"https://www.gutenberg.org/cache/epub/71375/pg71375.cover.medium.jpg","application/octet-stream":"https://www.gutenberg.org/files/71375/71375-h.zip"},"download_count":38},{"id":71426,"title":"The journal of Frederick Horneman's travels, from Cairo to Mourzouk, the capital of the kingdom of Fezzan, in Africa, in the years 1797-8","authors":[{"name":"Hornemann, Friedrich","birth_year":1772,"death_year":1800}],"translators":[],"subjects":["Berber languages","Fezzan (Libya) -- Description and travel","Libyan Desert -- Description and travel"],"bookshelves":[],"languages":["en"],"copyright":false,"media_type":"Text","formats":{"text/html":"https://www.gutenberg.org/ebooks/71426.html.images","application/epub+zip":"https://www.gutenberg.org/ebooks/71426.epub3.images","application/x-mobipocket-ebook":"https://www.gutenberg.org/ebooks/71426.kf8.images","text/plain; charset=us-ascii":"https://www.gutenberg.org/ebooks/71426.txt.utf-8","application/rdf+xml":"https://www.gutenberg.org/ebooks/71426.rdf","image/jpeg":"https://www.gutenberg.org/cache/epub/71426/pg71426.cover.medium.jpg","application/octet-stream":"https://www.gutenberg.org/files/71426/71426-h.zip"},"download_count":38},{"id":71645,"title":"Second census","authors":[{"name":"Peterson, John Victor","birth_year":null,"death_year":null}],"translators":[],"subjects":["Science fiction","Short stories"],"bookshelves":[],"languages":["en"],"copyright":false,"media_type":"Text","formats":{"text/html":"https://www.gutenberg.org/ebooks/71645.html.images","application/epub+zip":"https://www.gutenberg.org/ebooks/71645.epub3.images","application/x-mobipocket-ebook":"https://www.gutenberg.org/ebooks/71645.kf8.images","text/plain; charset=us-ascii":"https://www.gutenberg.org/ebooks/71645.txt.utf-8","application/rdf+xml":"https://www.gutenberg.org/ebooks/71645.rdf","image/jpeg":"https://www.gutenberg.org/cache/epub/71645/pg71645.cover.medium.jpg","application/octet-stream":"https://www.gutenberg.org/files/71645/71645-h.zip"},"download_count":38},{"id":71749,"title":"History of the United Co-operative Baking Society Ltd. : $b A fifty years' record 1869–1919","authors":[{"name":"Reid, William","birth_year":null,"death_year":null}],"translators":[],"subjects":["United Co-operative Baking Society, Ltd., Glasgow"],"bookshelves":[],"languages":["en"],"copyright":false,"media_type":"Text","formats":{"text/html":"https://www.gutenberg.org/ebooks/71749.html.images","application/epub+zip":"https://www.gutenberg.org/ebooks/71749.epub3.images","application/x-mobipocket-ebook":"https://www.gutenberg.org/ebooks/71749.kf8.images","text/plain; charset=us-ascii":"https://www.gutenberg.org/ebooks/71749.txt.utf-8","application/rdf+xml":"https://www.gutenberg.org/ebooks/71749.rdf","image/jpeg":"https://www.gutenberg.org/cache/epub/71749/pg71749.cover.medium.jpg","application/octet-stream":"https://www.gutenberg.org/cache/epub/71749/pg71749-h.zip"},"download_count":38},{"id":71774,"title":"Children's books and reading","authors":[{"name":"Moses, Montrose Jonas","birth_year":1878,"death_year":1934}],"translators":[],"subjects":["Children -- Books and reading","Children's literature -- Bibliography","Children's literature -- History and criticism"],"bookshelves":[],"languages":["en"],"copyright":false,"media_type":"Text","formats":{"text/html":"https://www.gutenberg.org/ebooks/71774.html.images","application/epub+zip":"https://www.gutenberg.org/ebooks/71774.epub3.images","application/x-mobipocket-ebook":"https://www.gutenberg.org/ebooks/71774.kf8.images","text/plain; charset=us-ascii":"https://www.gutenberg.org/ebooks/71774.txt.utf-8","application/rdf+xml":"https://www.gutenberg.org/ebooks/71774.rdf","image/jpeg":"https://www.gutenberg.org/cache/epub/71774/pg71774.cover.medium.jpg","application/octet-stream":"https://www.gutenberg.org/cache/epub/71774/pg71774-h.zip"},"download_count":38},{"id":71838,"title":"Essays","authors":[{"name":"Praed, Winthrop Mackworth","birth_year":1802,"death_year":1839}],"translators":[],"subjects":["English essays -- 19th century"],"bookshelves":[],"languages":["en"],"copyright":false,"media_type":"Text","formats":{"text/html":"https://www.gutenberg.org/ebooks/71838.html.images","application/epub+zip":"https://www.gutenberg.org/ebooks/71838.epub3.images","application/x-mobipocket-ebook":"https://www.gutenberg.org/ebooks/71838.kf8.images","text/plain; charset=us-ascii":"https://www.gutenberg.org/ebooks/71838.txt.utf-8","application/rdf+xml":"https://www.gutenberg.org/ebooks/71838.rdf","image/jpeg":"https://www.gutenberg.org/cache/epub/71838/pg71838.cover.medium.jpg","application/octet-stream":"https://www.gutenberg.org/cache/epub/71838/pg71838-h.zip"},"download_count":38},{"id":71955,"title":"Remarks on the management, or rather, the mis-management of woods, plantations, and hedge-row timber","authors":[{"name":"West, J.","birth_year":null,"death_year":null}],"translators":[],"subjects":["Forests and forestry"],"bookshelves":[],"languages":["en"],"copyright":false,"media_type":"Text","formats":{"text/html":"https://www.gutenberg.org/ebooks/71955.html.images","application/epub+zip":"https://www.gutenberg.org/ebooks/71955.epub3.images","application/x-mobipocket-ebook":"https://www.gutenberg.org/ebooks/71955.kf8.images","text/plain; charset=us-ascii":"https://www.gutenberg.org/ebooks/71955.txt.utf-8","application/rdf+xml":"https://www.gutenberg.org/ebooks/71955.rdf","image/jpeg":"https://www.gutenberg.org/cache/epub/71955/pg71955.cover.medium.jpg","application/octet-stream":"https://www.gutenberg.org/cache/epub/71955/pg71955-h.zip"},"download_count":38},{"id":71989,"title":"The Salabue Stradivari : $b A history and critical description of the famous violin, commonly called \"le Messie\"","authors":[{"name":"W.E. Hill & Sons","birth_year":null,"death_year":null}],"translators":[],"subjects":["Stradivari, Antonio, approximately 1644-1737","Stradivarius violin","Violin"],"bookshelves":[],"languages":["en"],"copyright":false,"media_type":"Text","formats":{"text/html":"https://www.gutenberg.org/ebooks/71989.html.images","application/epub+zip":"https://www.gutenberg.org/ebooks/71989.epub3.images","application/x-mobipocket-ebook":"https://www.gutenberg.org/ebooks/71989.kf8.images","text/plain; charset=us-ascii":"https://www.gutenberg.org/ebooks/71989.txt.utf-8","application/rdf+xml":"https://www.gutenberg.org/ebooks/71989.rdf","image/jpeg":"https://www.gutenberg.org/cache/epub/71989/pg71989.cover.medium.jpg","application/octet-stream":"https://www.gutenberg.org/cache/epub/71989/pg71989-h.zip"},"download_count":38},{"id":71995,"title":"The strange story of the Dunmow flitch","authors":[{"name":"Robertson Scott, J. W. (John William)","birth_year":1866,"death_year":1962}],"translators":[],"subjects":["Dunmow flitch","Great Dunmow (England)","Marriage customs and rites -- Great Britain"],"bookshelves":[],"languages":["en"],"copyright":false,"media_type":"Text","formats":{"text/html":"https://www.gutenberg.org/ebooks/71995.html.images","application/epub+zip":"https://www.gutenberg.org/ebooks/71995.epub3.images","application/x-mobipocket-ebook":"https://www.gutenberg.org/ebooks/71995.kf8.images","text/plain; charset=us-ascii":"https://www.gutenberg.org/ebooks/71995.txt.utf-8","application/rdf+xml":"https://www.gutenberg.org/ebooks/71995.rdf","image/jpeg":"https://www.gutenberg.org/cache/epub/71995/pg71995.cover.medium.jpg","application/octet-stream":"https://www.gutenberg.org/cache/epub/71995/pg71995-h.zip"},"download_count":38},{"id":72002,"title":"Christmas in Chicago","authors":[{"name":"Butcher, Fanny","birth_year":1888,"death_year":1987}],"translators":[],"subjects":["Chicago (Ill.) -- Social life and customs","Christmas -- Illinois -- Chicago"],"bookshelves":[],"languages":["en"],"copyright":false,"media_type":"Text","formats":{"text/html":"https://www.gutenberg.org/ebooks/72002.html.images","application/epub+zip":"https://www.gutenberg.org/ebooks/72002.epub3.images","application/x-mobipocket-ebook":"https://www.gutenberg.org/ebooks/72002.kf8.images","text/plain; charset=us-ascii":"https://www.gutenberg.org/ebooks/72002.txt.utf-8","application/rdf+xml":"https://www.gutenberg.org/ebooks/72002.rdf","image/jpeg":"https://www.gutenberg.org/cache/epub/72002/pg72002.cover.medium.jpg","application/octet-stream":"https://www.gutenberg.org/cache/epub/72002/pg72002-h.zip"},"download_count":38},{"id":72028,"title":"Mary Russell Mitford : $b The tragedy of a blue stocking","authors":[{"name":"Roberts, William James","birth_year":1873,"death_year":null}],"translators":[],"subjects":["Authors, English -- 19th century -- Biography","Mitford, Mary Russell, 1787-1855","Women intellectuals -- Great Britain -- Biography"],"bookshelves":[],"languages":["en"],"copyright":false,"media_type":"Text","formats":{"text/html":"https://www.gutenberg.org/ebooks/72028.html.images","application/epub+zip":"https://www.gutenberg.org/ebooks/72028.epub3.images","application/x-mobipocket-ebook":"https://www.gutenberg.org/ebooks/72028.kf8.images","text/plain; charset=us-ascii":"https://www.gutenberg.org/ebooks/72028.txt.utf-8","application/rdf+xml":"https://www.gutenberg.org/ebooks/72028.rdf","image/jpeg":"https://www.gutenberg.org/cache/epub/72028/pg72028.cover.medium.jpg","application/octet-stream":"https://www.gutenberg.org/cache/epub/72028/pg72028-h.zip"},"download_count":38},{"id":72037,"title":"Odyssey of a hero","authors":[{"name":"Fisher, Vardis","birth_year":1895,"death_year":1968}],"translators":[],"subjects":["Idaho -- Fiction","Short stories","World War, 1914-1918 -- Veterans -- Fiction"],"bookshelves":[],"languages":["en"],"copyright":false,"media_type":"Text","formats":{"text/html":"https://www.gutenberg.org/ebooks/72037.html.images","application/epub+zip":"https://www.gutenberg.org/ebooks/72037.epub3.images","application/x-mobipocket-ebook":"https://www.gutenberg.org/ebooks/72037.kf8.images","text/plain; charset=us-ascii":"https://www.gutenberg.org/ebooks/72037.txt.utf-8","application/rdf+xml":"https://www.gutenberg.org/ebooks/72037.rdf","image/jpeg":"https://www.gutenberg.org/cache/epub/72037/pg72037.cover.medium.jpg","application/octet-stream":"https://www.gutenberg.org/cache/epub/72037/pg72037-h.zip"},"download_count":38},{"id":72074,"title":"Pragmatism and idealism","authors":[{"name":"Caldwell, William","birth_year":1863,"death_year":1942}],"translators":[],"subjects":["Idealism","Pragmatism"],"bookshelves":[],"languages":["en"],"copyright":false,"media_type":"Text","formats":{"text/html":"https://www.gutenberg.org/ebooks/72074.html.images","application/epub+zip":"https://www.gutenberg.org/ebooks/72074.epub3.images","application/x-mobipocket-ebook":"https://www.gutenberg.org/ebooks/72074.kf8.images","text/plain; charset=us-ascii":"https://www.gutenberg.org/ebooks/72074.txt.utf-8","application/rdf+xml":"https://www.gutenberg.org/ebooks/72074.rdf","image/jpeg":"https://www.gutenberg.org/cache/epub/72074/pg72074.cover.medium.jpg","application/octet-stream":"https://www.gutenberg.org/cache/epub/72074/pg72074-h.zip"},"download_count":38},{"id":72110,"title":"The brother's return, and other stories","authors":[{"name":"A. L. O. E.","birth_year":1821,"death_year":1893}],"translators":[],"subjects":["Children's stories"],"bookshelves":[],"languages":["en"],"copyright":false,"media_type":"Text","formats":{"text/html":"https://www.gutenberg.org/ebooks/72110.html.images","application/epub+zip":"https://www.gutenberg.org/ebooks/72110.epub3.images","application/x-mobipocket-ebook":"https://www.gutenberg.org/ebooks/72110.kf8.images","text/plain; charset=us-ascii":"https://www.gutenberg.org/ebooks/72110.txt.utf-8","application/rdf+xml":"https://www.gutenberg.org/ebooks/72110.rdf","image/jpeg":"https://www.gutenberg.org/cache/epub/72110/pg72110.cover.medium.jpg","application/octet-stream":"https://www.gutenberg.org/cache/epub/72110/pg72110-h.zip"},"download_count":38},{"id":72118,"title":"The monastery of Petschenga : $b Sketches of Russian Lapland (from historical and legendary sources)","authors":[{"name":"Friis, J. A. (Jens Andreas)","birth_year":1821,"death_year":1896}],"translators":[{"name":"Repp, Hill","birth_year":null,"death_year":null}],"subjects":["Legends -- Lapland","Petschenga (Monastery)"],"bookshelves":[],"languages":["en"],"copyright":false,"media_type":"Text","formats":{"text/html":"https://www.gutenberg.org/ebooks/72118.html.images","application/epub+zip":"https://www.gutenberg.org/ebooks/72118.epub3.images","application/x-mobipocket-ebook":"https://www.gutenberg.org/ebooks/72118.kf8.images","text/plain; charset=us-ascii":"https://www.gutenberg.org/ebooks/72118.txt.utf-8","application/rdf+xml":"https://www.gutenberg.org/ebooks/72118.rdf","image/jpeg":"https://www.gutenberg.org/cache/epub/72118/pg72118.cover.medium.jpg","application/octet-stream":"https://www.gutenberg.org/cache/epub/72118/pg72118-h.zip"},"download_count":38},{"id":72224,"title":"The Cornhill Magazine (vol. XLII, no. 250 new series, April 1917)","authors":[{"name":"Various","birth_year":null,"death_year":null}],"translators":[],"subjects":["England -- Periodicals","English literature -- Periodicals","Short stories, English -- Periodicals"],"bookshelves":[],"languages":["en"],"copyright":false,"media_type":"Text","formats":{"text/html":"https://www.gutenberg.org/ebooks/72224.html.images","application/epub+zip":"https://www.gutenberg.org/ebooks/72224.epub3.images","application/x-mobipocket-ebook":"https://www.gutenberg.org/ebooks/72224.kf8.images","text/plain; charset=us-ascii":"https://www.gutenberg.org/ebooks/72224.txt.utf-8","application/rdf+xml":"https://www.gutenberg.org/ebooks/72224.rdf","image/jpeg":"https://www.gutenberg.org/cache/epub/72224/pg72224.cover.medium.jpg","application/octet-stream":"https://www.gutenberg.org/cache/epub/72224/pg72224-h.zip"},"download_count":38},{"id":255,"title":"QREAD, Etext Reader for Windows","authors":[{"name":"Scavezze, Dan","birth_year":null,"death_year":null}],"translators":[],"subjects":["Electronic book readers"],"bookshelves":[],"languages":["en"],"copyright":true,"media_type":"Text","formats":{"text/html":"https://www.gutenberg.org/ebooks/255.html.images","application/epub+zip":"https://www.gutenberg.org/ebooks/255.epub3.images","application/x-mobipocket-ebook":"https://www.gutenberg.org/ebooks/255.kf8.images","text/plain; charset=us-ascii":"https://www.gutenberg.org/ebooks/255.txt.utf-8","application/rdf+xml":"https://www.gutenberg.org/ebooks/255.rdf","image/jpeg":"https://www.gutenberg.org/cache/epub/255/pg255.cover.medium.jpg","application/octet-stream":"https://www.gutenberg.org/cache/epub/255/pg255-h.zip"},"download_count":37},{"id":427,"title":"The Great War Syndicate","authors":[{"name":"Stockton, Frank R.","birth_year":1834,"death_year":1902}],"translators":[],"subjects":["Science fiction"],"bookshelves":[],"languages":["en"],"copyright":false,"media_type":"Text","formats":{"text/html":"https://www.gutenberg.org/ebooks/427.html.images","text/html; charset=iso-8859-1":"https://www.gutenberg.org/files/427/427-h/427-h.htm","application/epub+zip":"https://www.gutenberg.org/ebooks/427.epub3.images","application/x-mobipocket-ebook":"https://www.gutenberg.org/ebooks/427.kf8.images","text/plain; charset=us-ascii":"https://www.gutenberg.org/ebooks/427.txt.utf-8","application/rdf+xml":"https://www.gutenberg.org/ebooks/427.rdf","image/jpeg":"https://www.gutenberg.org/cache/epub/427/pg427.cover.medium.jpg","application/octet-stream":"https://www.gutenberg.org/cache/epub/427/pg427-h.zip"},"download_count":37}]}