{"count":58808,"next":"http://129.241.150.113:8000/books/?languages=en&page=1703","previous":"http://129.241.150.113:8000/books/?languages=en&page=1701","results":[{"id":68028,"title":"The Yale Literary Magazine (Vol. LXXXVIII, No. 4, January 1923)","authors":[{"name":"Various","birth_year":null,"death_year":null}],"translators":[],"subjects":["College students' writings, American -- Connecticut -- New Haven -- Periodicals","Yale University -- Periodicals"],"bookshelves":[],"languages":["en"],"copyright":false,"media_type":"Text","formats":{"text/html":"https://www.gutenberg.org/ebooks/68028.html.images","application/epub+zip":"https://www.gutenberg.org/ebooks/68028.epub3.images","application/x-mobipocket-ebook":"https://www.gutenberg.org/ebooks/68028.kf8.images","text/plain; charset=us-ascii":"https://www.gutenberg.org/ebooks/68028.txt.utf-8","application/rdf+xml":"https://www.gutenberg.org/ebooks/68028.rdf","image/jpeg":"https://www.gutenberg.org/cache/epub/68028/pg68028.cover.medium.jpg","application/octet-stream":"https://www.gutenberg.org/files/68028/68028-0.zip"},"download_count":18},{"id":68055,"title":"The Gary Schools","authors":[{"name":"Bourne, Randolph Silliman","birth_year":1886,"death_year":1918}],"translators":[],"subjects":["Gary Public Schools"],"bookshelves":[],"languages":["en"],"copyright":false,"media_type":"Text","formats":{"text/html":"https://www.gutenberg.org/ebooks/68055.html.images","application/epub+zip":"https://www.gutenberg.org/ebooks/68055.epub3.images","application/x-mobipocket-ebook":"https://www.gutenberg.org/ebooks/68055.kf8.images","text/plain; charset=us-ascii":"https://www.gutenberg.org/ebooks/68055.txt.utf-8","application/rdf+xml":"https://www.gutenberg.org/ebooks/68055.rdf","image/jpeg":"https://www.gutenberg.org/cache/epub/68055/pg68055.cover.medium.jpg","application/octet-stream":"https://www.gutenberg.org/files/68055/68055-0.zip"},"download_count":18},{"id":68072,"title":"Masks, with Jim's beast, Tides, Among the lions, The reason, The house: one act plays of contemporary life","authors":[{"name":"Middleton, George","birth_year":1880,"death_year":1967}],"translators":[],"subjects":["American drama -- 20th century","One-act plays, American"],"bookshelves":[],"languages":["en"],"copyright":false,"media_type":"Text","formats":{"text/html":"https://www.gutenberg.org/ebooks/68072.html.images","application/epub+zip":"https://www.gutenberg.org/ebooks/68072.epub3.images","application/x-mobipocket-ebook":"https://www.gutenberg.org/ebooks/68072.kf8.images","text/plain; charset=us-ascii":"https://www.gutenberg.org/ebooks/68072.txt.utf-8","application/rdf+xml":"https://www.gutenberg.org/ebooks/68072.rdf","image/jpeg":"https://www.gutenberg.org/cache/epub/68072/pg68072.cover.medium.jpg","application/octet-stream":"https://www.gutenberg.org/files/68072/68072-0.zip"},"download_count":18},{"id":68078,"title":"Chambers's journal of popular literature, science, and art, fifth series, No. 116, Vol. III, March 20, 1886","authors":[{"name":"Various","birth_year":null,"death_year":null}],"translators":[],"subjects":["Periodicals"],"bookshelves":[],"languages":["en"],"copyright":false,"media_type":"Text","formats":{"text/html":"https://www.gutenberg.org/ebooks/68078.html.images","application/epub+zip":"https://www.gutenberg.org/ebooks/68078.epub3.images","application/x-mobipocket-ebook":"https://www.gutenberg.org/ebooks/68078.kf8.images","text/plain; charset=us-ascii":"https://www.gutenberg.org/ebooks/68078.txt.utf-8","application/rdf+xml":"https://www.gutenberg.org/ebooks/68078.rdf","image/jpeg":"https://www.gutenberg.org/cache/epub/68078/pg68078.cover.medium.jpg","application/octet-stream":"https://www.gutenberg.org/files/68078/68078-0.zip"},"download_count":18},{"id":68103,"title":"Twenty years at sea: Leaves from my old log-books","authors":[{"name":"Hill, Frederic Stanhope","birth_year":1829,"death_year":1913}],"translators":[],"subjects":["Hill, Frederic Stanhope, 1829-1913","Merchant marine -- United States","United States -- History -- Civil War, 1861-1865 -- Naval operations","Voyages and travels"],"bookshelves":[],"languages":["en"],"copyright":false,"media_type":"Text","formats":{"text/html":"https://www.gutenberg.org/ebooks/68103.html.images","application/epub+zip":"https://www.gutenberg.org/ebooks/68103.epub3.images","application/x-mobipocket-ebook":"https://www.gutenberg.org/ebooks/68103.kf8.images","text/plain; charset=us-ascii":"https://www.gutenberg.org/ebooks/68103.txt.utf-8","application/rdf+xml":"https://www.gutenberg.org/ebooks/68103.rdf","image/jpeg":"https://www.gutenberg.org/cache/epub/68103/pg68103.cover.medium.jpg","application/octet-stream":"https://www.gutenberg.org/files/68103/68103-0.zip"},"download_count":18},{"id":68125,"title":"Chambers's Journal of Popular Literature, Science, and Art, fifth series, no. 118, vol. III, April 3, 1886","authors":[{"name":"Various","birth_year":null,"death_year":null}],"translators":[],"subjects":["Periodicals"],"bookshelves":[],"languages":["en"],"copyright":false,"media_type":"Text","formats":{"text/html":"https://www.gutenberg.org/ebooks/68125.html.images","application/epub+zip":"https://www.gutenberg.org/ebooks/68125.epub3.images","application/x-mobipocket-ebook":"https://www.gutenberg.org/ebooks/68125.kf8.images","text/plain; charset=us-ascii":"https://www.gutenberg.org/ebooks/68125.txt.utf-8","application/rdf+xml":"https://www.gutenberg.org/ebooks/68125.rdf","image/jpeg":"https://www.gutenberg.org/cache/epub/68125/pg68125.cover.medium.jpg","application/octet-stream":"https://www.gutenberg.org/files/68125/68125-0.zip"},"download_count":18},{"id":68175,"title":"The Cornhill Magazine, February, 1860 (Vol. I, No. 2)","authors":[{"name":"Various","birth_year":null,"death_year":null}],"translators":[],"subjects":["England -- Periodicals","English literature -- Periodicals","Short stories, English -- Periodicals"],"bookshelves":[],"languages":["en"],"copyright":false,"media_type":"Text","formats":{"text/html":"https://www.gutenberg.org/ebooks/68175.html.images","application/epub+zip":"https://www.gutenberg.org/ebooks/68175.epub3.images","application/x-mobipocket-ebook":"https://www.gutenberg.org/ebooks/68175.kf8.images","text/plain; charset=us-ascii":"https://www.gutenberg.org/ebooks/68175.txt.utf-8","application/rdf+xml":"https://www.gutenberg.org/ebooks/68175.rdf","image/jpeg":"https://www.gutenberg.org/cache/epub/68175/pg68175.cover.medium.jpg","application/octet-stream":"https://www.gutenberg.org/files/68175/68175-0.zip"},"download_count":18},{"id":68201,"title":"Indian Legends from the land of Al-ay-ek-sa","authors":[{"name":"Rossiter, Harriet","birth_year":null,"death_year":null}],"translators":[],"subjects":["Indians of North America -- Alaska -- Folklore"],"bookshelves":[],"languages":["en"],"copyright":false,"media_type":"Text","formats":{"text/html":"https://www.gutenberg.org/ebooks/68201.html.images","application/epub+zip":"https://www.gutenberg.org/ebooks/68201.epub3.images","application/x-mobipocket-ebook":"https://www.gutenberg.org/ebooks/68201.kf8.images","text/plain; charset=us-ascii":"https://www.gutenberg.org/ebooks/68201.txt.utf-8","application/rdf+xml":"https://www.gutenberg.org/ebooks/68201.rdf","image/jpeg":"https://www.gutenberg.org/cache/epub/68201/pg68201.cover.medium.jpg","application/octet-stream":"https://www.gutenberg.org/files/68201/68201-0.zip"},"download_count":18},{"id":68205,"title":"John Jasper: The unmatched Negro philosopher and preacher","authors":[{"name":"Hatcher, William E. (William Eldridge)","birth_year":1834,"death_year":1912}],"translators":[],"subjects":["African American clergy -- Biography","African Americans -- Biography","Jasper, John, 1812-1901","Richmond (Va.) -- Biography"],"bookshelves":[],"languages":["en"],"copyright":false,"media_type":"Text","formats":{"text/html":"https://www.gutenberg.org/ebooks/68205.html.images","application/epub+zip":"https://www.gutenberg.org/ebooks/68205.epub3.images","application/x-mobipocket-ebook":"https://www.gutenberg.org/ebooks/68205.kf8.images","text/plain; charset=us-ascii":"https://www.gutenberg.org/ebooks/68205.txt.utf-8","application/rdf+xml":"https://www.gutenberg.org/ebooks/68205.rdf","image/jpeg":"https://www.gutenberg.org/cache/epub/68205/pg68205.cover.medium.jpg","application/octet-stream":"https://www.gutenberg.org/files/68205/68205-0.zip"},"download_count":18},{"id":68256,"title":"Rat Race","authors":[{"name":"Smith, George O. (George Oliver)","birth_year":1911,"death_year":1981}],"translators":[],"subjects":["Inventions -- Fiction","Mousetraps -- Fiction","Science fiction","Short stories"],"bookshelves":[],"languages":["en"],"copyright":false,"media_type":"Text","formats":{"text/html":"https://www.gutenberg.org/ebooks/68256.html.images","application/epub+zip":"https://www.gutenberg.org/ebooks/68256.epub3.images","application/x-mobipocket-ebook":"https://www.gutenberg.org/ebooks/68256.kf8.images","text/plain; charset=us-ascii":"https://www.gutenberg.org/ebooks/68256.txt.utf-8","application/rdf+xml":"https://www.gutenberg.org/ebooks/68256.rdf","image/jpeg":"https://www.gutenberg.org/cache/epub/68256/pg68256.cover.medium.jpg","application/octet-stream":"https://www.gutenberg.org/files/68256/68256-0.zip"},"download_count":18},{"id":68295,"title":"Dulcie Carlyon: A novel. Volume 3 (of 3)","authors":[{"name":"Grant, James","birth_year":1822,"death_year":1887}],"translators":[],"subjects":["Fiction"],"bookshelves":[],"languages":["en"],"copyright":false,"media_type":"Text","formats":{"text/html":"https://www.gutenberg.org/ebooks/68295.html.images","application/epub+zip":"https://www.gutenberg.org/ebooks/68295.epub3.images","application/x-mobipocket-ebook":"https://www.gutenberg.org/ebooks/68295.kf8.images","text/plain; charset=us-ascii":"https://www.gutenberg.org/ebooks/68295.txt.utf-8","application/rdf+xml":"https://www.gutenberg.org/ebooks/68295.rdf","image/jpeg":"https://www.gutenberg.org/cache/epub/68295/pg68295.cover.medium.jpg","application/octet-stream":"https://www.gutenberg.org/files/68295/68295-0.zip"},"download_count":18},{"id":68323,"title":"Celtic MSS. in relation to the Macpherson fraud: With a review of Professor Freeman's criticism of [P.B. Du Chaillu's] \"The Viking Age,\" by the author of \"Celticism a myth\"","authors":[{"name":"Roger, James Cruikshank","birth_year":1820,"death_year":1899}],"translators":[],"subjects":["Celtic literature -- History and criticism","Ossian, active 3rd century"],"bookshelves":[],"languages":["en"],"copyright":false,"media_type":"Text","formats":{"text/html":"https://www.gutenberg.org/ebooks/68323.html.images","application/epub+zip":"https://www.gutenberg.org/ebooks/68323.epub3.images","application/x-mobipocket-ebook":"https://www.gutenberg.org/ebooks/68323.kf8.images","text/plain; charset=us-ascii":"https://www.gutenberg.org/ebooks/68323.txt.utf-8","application/rdf+xml":"https://www.gutenberg.org/ebooks/68323.rdf","image/jpeg":"https://www.gutenberg.org/cache/epub/68323/pg68323.cover.medium.jpg","application/octet-stream":"https://www.gutenberg.org/files/68323/68323-0.zip"},"download_count":18},{"id":68389,"title":"In the grip of the Hawk: A story of the Maori wars","authors":[{"name":"Horsley, Reginald","birth_year":1863,"death_year":1926}],"translators":[],"subjects":["Maori (New Zealand people) -- Fiction","New Zealand -- Fiction","New Zealand -- History -- New Zealand Wars, 1860-1872 -- Fiction"],"bookshelves":[],"languages":["en"],"copyright":false,"media_type":"Text","formats":{"text/html":"https://www.gutenberg.org/ebooks/68389.html.images","application/epub+zip":"https://www.gutenberg.org/ebooks/68389.epub3.images","application/x-mobipocket-ebook":"https://www.gutenberg.org/ebooks/68389.kf8.images","text/plain; charset=us-ascii":"https://www.gutenberg.org/ebooks/68389.txt.utf-8","application/rdf+xml":"https://www.gutenberg.org/ebooks/68389.rdf","image/jpeg":"https://www.gutenberg.org/cache/epub/68389/pg68389.cover.medium.jpg","application/octet-stream":"https://www.gutenberg.org/files/68389/68389-0.zip"},"download_count":18},{"id":68398,"title":"The time spirit: A romantic tale","authors":[{"name":"Snaith, J. C. (John Collis)","birth_year":1876,"death_year":1936}],"translators":[],"subjects":["Adopted children -- Fiction","England -- Social life and customs -- 20th century -- Fiction","Families -- Fiction","Inheritance and succession -- Fiction","Man-woman relationships -- Fiction","Social classes -- Fiction"],"bookshelves":[],"languages":["en"],"copyright":false,"media_type":"Text","formats":{"text/html":"https://www.gutenberg.org/ebooks/68398.html.images","application/epub+zip":"https://www.gutenberg.org/ebooks/68398.epub3.images","application/x-mobipocket-ebook":"https://www.gutenberg.org/ebooks/68398.kf8.images","text/plain; charset=us-ascii":"https://www.gutenberg.org/ebooks/68398.txt.utf-8","application/rdf+xml":"https://www.gutenberg.org/ebooks/68398.rdf","image/jpeg":"https://www.gutenberg.org/cache/epub/68398/pg68398.cover.medium.jpg","application/octet-stream":"https://www.gutenberg.org/files/68398/68398-0.zip"},"download_count":18},{"id":68420,"title":"Poetic diction: A study of eighteenth century verse","authors":[{"name":"Quayle, Thomas","birth_year":1884,"death_year":null}],"translators":[],"subjects":["English language -- Diction","English poetry -- 18th century -- History and criticism"],"bookshelves":[],"languages":["en"],"copyright":false,"media_type":"Text","formats":{"text/html":"https://www.gutenberg.org/ebooks/68420.html.images","application/epub+zip":"https://www.gutenberg.org/ebooks/68420.epub3.images","application/x-mobipocket-ebook":"https://www.gutenberg.org/ebooks/68420.kf8.images","text/plain; charset=us-ascii":"https://www.gutenberg.org/ebooks/68420.txt.utf-8","application/rdf+xml":"https://www.gutenberg.org/ebooks/68420.rdf","image/jpeg":"https://www.gutenberg.org/cache/epub/68420/pg68420.cover.medium.jpg","application/octet-stream":"https://www.gutenberg.org/files/68420/68420-0.zip"},"download_count":18},{"id":68449,"title":"Address of President Roosevelt at the laying of the corner stone of the office building of the House of Representatives, Saturday, April 14, 1906","authors":[{"name":"Roosevelt, Theodore","birth_year":1858,"death_year":1919}],"translators":[],"subjects":["Speeches, addresses, etc.","United States -- Politics and government -- 1901-1909"],"bookshelves":[],"languages":["en"],"copyright":false,"media_type":"Text","formats":{"text/html":"https://www.gutenberg.org/ebooks/68449.html.images","application/epub+zip":"https://www.gutenberg.org/ebooks/68449.epub3.images","application/x-mobipocket-ebook":"https://www.gutenberg.org/ebooks/68449.kf8.images","text/plain; charset=us-ascii":"https://www.gutenberg.org/ebooks/68449.txt.utf-8","application/rdf+xml":"https://www.gutenberg.org/ebooks/68449.rdf","image/jpeg":"https://www.gutenberg.org/cache/epub/68449/pg68449.cover.medium.jpg","application/octet-stream":"https://www.gutenberg.org/files/68449/68449-0.zip"},"download_count":18},{"id":68488,"title":"The voice at Johnnywater","authors":[{"name":"Bower, B. M.","birth_year":1871,"death_year":1940}],"translators":[],"subjects":["Ranches -- Fiction","Western stories"],"bookshelves":[],"languages":["en"],"copyright":false,"media_type":"Text","formats":{"text/html":"https://www.gutenberg.org/ebooks/68488.html.images","application/epub+zip":"https://www.gutenberg.org/ebooks/68488.epub3.images","application/x-mobipocket-ebook":"https://www.gutenberg.org/ebooks/68488.kf8.images","text/plain; charset=us-ascii":"https://www.gutenberg.org/ebooks/68488.txt.utf-8","application/rdf+xml":"https://www.gutenberg.org/ebooks/68488.rdf","image/jpeg":"https://www.gutenberg.org/cache/epub/68488/pg68488.cover.medium.jpg","application/octet-stream":"https://www.gutenberg.org/files/68488/68488-0.zip"},"download_count":18},{"id":68508,"title":"The Boy Scouts' badge of courage","authors":[{"name":"Goldfrap, John Henry","birth_year":1879,"death_year":1917}],"translators":[],"subjects":["Boy Scouts -- Juvenile fiction","Fur farming -- Juvenile fiction"],"bookshelves":[],"languages":["en"],"copyright":false,"media_type":"Text","formats":{"text/html":"https://www.gutenberg.org/ebooks/68508.html.images","application/epub+zip":"https://www.gutenberg.org/ebooks/68508.epub3.images","application/x-mobipocket-ebook":"https://www.gutenberg.org/ebooks/68508.kf8.images","text/plain; charset=us-ascii":"https://www.gutenberg.org/ebooks/68508.txt.utf-8","application/rdf+xml":"https://www.gutenberg.org/ebooks/68508.rdf","image/jpeg":"https://www.gutenberg.org/cache/epub/68508/pg68508.cover.medium.jpg","application/octet-stream":"https://www.gutenberg.org/files/68508/68508-0.zip"},"download_count":18},{"id":68586,"title":"Smoking flax","authors":[{"name":"Rives, Hallie Erminie","birth_year":1876,"death_year":1956}],"translators":[],"subjects":["African Americans -- Fiction"],"bookshelves":[],"languages":["en"],"copyright":false,"media_type":"Text","formats":{"text/html":"https://www.gutenberg.org/ebooks/68586.html.images","application/epub+zip":"https://www.gutenberg.org/ebooks/68586.epub3.images","application/x-mobipocket-ebook":"https://www.gutenberg.org/ebooks/68586.kf8.images","text/plain; charset=us-ascii":"https://www.gutenberg.org/ebooks/68586.txt.utf-8","application/rdf+xml":"https://www.gutenberg.org/ebooks/68586.rdf","image/jpeg":"https://www.gutenberg.org/cache/epub/68586/pg68586.cover.medium.jpg","application/octet-stream":"https://www.gutenberg.org/files/68586/68586-0.zip"},"download_count":18},{"id":68610,"title":"Love's labor won","authors":[{"name":"Southworth, Emma Dorothy Eliza Nevitte","birth_year":1819,"death_year":1899}],"translators":[],"subjects":["Elopement -- Fiction","Washington (D.C.) -- Fiction"],"bookshelves":[],"languages":["en"],"copyright":false,"media_type":"Text","formats":{"text/html":"https://www.gutenberg.org/ebooks/68610.html.images","application/epub+zip":"https://www.gutenberg.org/ebooks/68610.epub3.images","application/x-mobipocket-ebook":"https://www.gutenberg.org/ebooks/68610.kf8.images","text/plain; charset=us-ascii":"https://www.gutenberg.org/ebooks/68610.txt.utf-8","application/rdf+xml":"https://www.gutenberg.org/ebooks/68610.rdf","image/jpeg":"https://www.gutenberg.org/cache/epub/68610/pg68610.cover.medium.jpg","application/octet-stream":"https://www.gutenberg.org/files/68610/68610-0.zip"},"download_count":18},{"id":68732,"title":"The moral pirates","authors":[{"name":"Alden, W. L. (William Livingston)","birth_year":1837,"death_year":1908}],"translators":[],"subjects":["Boats and boating -- Juvenile fiction"],"bookshelves":[],"languages":["en"],"copyright":false,"media_type":"Text","formats":{"text/html":"https://www.gutenberg.org/ebooks/68732.html.images","application/epub+zip":"https://www.gutenberg.org/ebooks/68732.epub3.images","application/x-mobipocket-ebook":"https://www.gutenberg.org/ebooks/68732.kf8.images","text/plain; charset=us-ascii":"https://www.gutenberg.org/ebooks/68732.txt.utf-8","application/rdf+xml":"https://www.gutenberg.org/ebooks/68732.rdf","image/jpeg":"https://www.gutenberg.org/cache/epub/68732/pg68732.cover.medium.jpg","application/octet-stream":"https://www.gutenberg.org/files/68732/68732-0.zip"},"download_count":18},{"id":68767,"title":"Rosaleen among the artists","authors":[{"name":"Holding, Elisabeth Sanxay","birth_year":1889,"death_year":1955}],"translators":[],"subjects":["Artists -- Fiction","Man-woman relationships -- Fiction","New York (N.Y.) -- Fiction","Social classes -- Fiction","Women -- Fiction"],"bookshelves":[],"languages":["en"],"copyright":false,"media_type":"Text","formats":{"text/html":"https://www.gutenberg.org/ebooks/68767.html.images","application/epub+zip":"https://www.gutenberg.org/ebooks/68767.epub3.images","application/x-mobipocket-ebook":"https://www.gutenberg.org/ebooks/68767.kf8.images","text/plain; charset=us-ascii":"https://www.gutenberg.org/ebooks/68767.txt.utf-8","application/rdf+xml":"https://www.gutenberg.org/ebooks/68767.rdf","image/jpeg":"https://www.gutenberg.org/cache/epub/68767/pg68767.cover.medium.jpg","application/octet-stream":"https://www.gutenberg.org/files/68767/68767-0.zip"},"download_count":18},{"id":68813,"title":"Josiah in New York; or, A coupon from the Fresh Air Fund","authors":[{"name":"Otis, James","birth_year":1848,"death_year":1912}],"translators":[],"subjects":["Boys -- Juvenile fiction","Fresh Air Fund -- Juvenile fiction"],"bookshelves":[],"languages":["en"],"copyright":false,"media_type":"Text","formats":{"text/html":"https://www.gutenberg.org/ebooks/68813.html.images","application/epub+zip":"https://www.gutenberg.org/ebooks/68813.epub3.images","application/x-mobipocket-ebook":"https://www.gutenberg.org/ebooks/68813.kf8.images","text/plain; charset=us-ascii":"https://www.gutenberg.org/ebooks/68813.txt.utf-8","application/rdf+xml":"https://www.gutenberg.org/ebooks/68813.rdf","image/jpeg":"https://www.gutenberg.org/cache/epub/68813/pg68813.cover.medium.jpg","application/octet-stream":"https://www.gutenberg.org/files/68813/68813-0.zip"},"download_count":18},{"id":68849,"title":"The pretender: A story of the Latin Quarter","authors":[{"name":"Service, Robert W. (Robert William)","birth_year":1874,"death_year":1958}],"translators":[],"subjects":["Americans -- France -- Fiction","Authors -- Fiction","Married men -- Fiction","Quartier latin (Paris, France) -- Fiction"],"bookshelves":[],"languages":["en"],"copyright":false,"media_type":"Text","formats":{"text/html":"https://www.gutenberg.org/ebooks/68849.html.images","application/epub+zip":"https://www.gutenberg.org/ebooks/68849.epub3.images","application/x-mobipocket-ebook":"https://www.gutenberg.org/ebooks/68849.kf8.images","text/plain; charset=us-ascii":"https://www.gutenberg.org/ebooks/68849.txt.utf-8","application/rdf+xml":"https://www.gutenberg.org/ebooks/68849.rdf","image/jpeg":"https://www.gutenberg.org/cache/epub/68849/pg68849.cover.medium.jpg","application/octet-stream":"https://www.gutenberg.org/files/68849/68849-0.zip"},"download_count":18},{"id":68942,"title":"Red stripes","authors":[{"name":"Pendexter, Hugh","birth_year":1875,"death_year":1940}],"translators":[],"subjects":["Frontier and pioneer life -- Middle West -- Fiction","Indians of North America -- Fiction","Short stories"],"bookshelves":[],"languages":["en"],"copyright":false,"media_type":"Text","formats":{"text/html":"https://www.gutenberg.org/ebooks/68942.html.images","application/epub+zip":"https://www.gutenberg.org/ebooks/68942.epub3.images","application/x-mobipocket-ebook":"https://www.gutenberg.org/ebooks/68942.kf8.images","text/plain; charset=us-ascii":"https://www.gutenberg.org/ebooks/68942.txt.utf-8","application/rdf+xml":"https://www.gutenberg.org/ebooks/68942.rdf","image/jpeg":"https://www.gutenberg.org/cache/epub/68942/pg68942.cover.medium.jpg","application/octet-stream":"https://www.gutenberg.org/files/68942/68942-0.zip"},"download_count":18},{"id":69006,"title":"Blindfold","authors":[{"name":"Johns, Orrick","birth_year":1887,"death_year":1946}],"translators":[],"subjects":["Illegitimate children -- Fiction","Man-woman relationships -- Fiction","Middle West -- Fiction"],"bookshelves":[],"languages":["en"],"copyright":false,"media_type":"Text","formats":{"text/html":"https://www.gutenberg.org/ebooks/69006.html.images","application/epub+zip":"https://www.gutenberg.org/ebooks/69006.epub3.images","application/x-mobipocket-ebook":"https://www.gutenberg.org/ebooks/69006.kf8.images","text/plain; charset=us-ascii":"https://www.gutenberg.org/ebooks/69006.txt.utf-8","application/rdf+xml":"https://www.gutenberg.org/ebooks/69006.rdf","image/jpeg":"https://www.gutenberg.org/cache/epub/69006/pg69006.cover.medium.jpg","application/octet-stream":"https://www.gutenberg.org/files/69006/69006-0.zip"},"download_count":18},{"id":69035,"title":"The Public Square","authors":[{"name":"Comfort, Will Levington","birth_year":1878,"death_year":1932}],"translators":[],"subjects":["American fiction -- 20th century"],"bookshelves":[],"languages":["en"],"copyright":false,"media_type":"Text","formats":{"text/html":"https://www.gutenberg.org/ebooks/69035.html.images","application/epub+zip":"https://www.gutenberg.org/ebooks/69035.epub3.images","application/x-mobipocket-ebook":"https://www.gutenberg.org/ebooks/69035.kf8.images","text/plain; charset=us-ascii":"https://www.gutenberg.org/ebooks/69035.txt.utf-8","application/rdf+xml":"https://www.gutenberg.org/ebooks/69035.rdf","image/jpeg":"https://www.gutenberg.org/cache/epub/69035/pg69035.cover.medium.jpg","application/octet-stream":"https://www.gutenberg.org/files/69035/69035-0.zip"},"download_count":18},{"id":69104,"title":"Cadets of Gascony: Two stories of old France","authors":[{"name":"Stevenson, Burton Egbert","birth_year":1872,"death_year":1962}],"translators":[],"subjects":["Gascony (France) -- Fiction"],"bookshelves":[],"languages":["en"],"copyright":false,"media_type":"Text","formats":{"text/html":"https://www.gutenberg.org/ebooks/69104.html.images","application/epub+zip":"https://www.gutenberg.org/ebooks/69104.epub3.images","application/x-mobipocket-ebook":"https://www.gutenberg.org/ebooks/69104.kf8.images","text/plain; charset=us-ascii":"https://www.gutenberg.org/ebooks/69104.txt.utf-8","application/rdf+xml":"https://www.gutenberg.org/ebooks/69104.rdf","image/jpeg":"https://www.gutenberg.org/cache/epub/69104/pg69104.cover.medium.jpg","application/octet-stream":"https://www.gutenberg.org/files/69104/69104-0.zip"},"download_count":18},{"id":69127,"title":"Bromoil printing and bromoil transfer","authors":[{"name":"Mayer, Emil","birth_year":1871,"death_year":1938}],"translators":[{"name":"Fraprie, Frank Roy","birth_year":1874,"death_year":1951}],"subjects":["Photography -- Printing processes"],"bookshelves":[],"languages":["en"],"copyright":false,"media_type":"Text","formats":{"text/html":"https://www.gutenberg.org/ebooks/69127.html.images","application/epub+zip":"https://www.gutenberg.org/ebooks/69127.epub3.images","application/x-mobipocket-ebook":"https://www.gutenberg.org/ebooks/69127.kf8.images","text/plain; charset=us-ascii":"https://www.gutenberg.org/ebooks/69127.txt.utf-8","application/rdf+xml":"https://www.gutenberg.org/ebooks/69127.rdf","image/jpeg":"https://www.gutenberg.org/cache/epub/69127/pg69127.cover.medium.jpg","application/octet-stream":"https://www.gutenberg.org/files/69127/69127-0.zip"},"download_count":18},{"id":69129,"title":"The story of a sawdust doll","authors":[{"name":"Hope, Laura Lee","birth_year":null,"death_year":null}],"translators":[],"subjects":["Dolls -- Juvenile fiction","Girls -- Juvenile fiction"],"bookshelves":[],"languages":["en"],"copyright":false,"media_type":"Text","formats":{"text/html":"https://www.gutenberg.org/ebooks/69129.html.images","application/epub+zip":"https://www.gutenberg.org/ebooks/69129.epub3.images","application/x-mobipocket-ebook":"https://www.gutenberg.org/ebooks/69129.kf8.images","text/plain; charset=us-ascii":"https://www.gutenberg.org/ebooks/69129.txt.utf-8","application/rdf+xml":"https://www.gutenberg.org/ebooks/69129.rdf","image/jpeg":"https://www.gutenberg.org/cache/epub/69129/pg69129.cover.medium.jpg","application/octet-stream":"https://www.gutenberg.org/files/69129/69129-0.zip"},"download_count":18},{"id":69142,"title":"Given in Marriage","authors":[{"name":"Croker, B. M. (Bithia Mary)","birth_year":1848,"death_year":1920}],"translators":[],"subjects":["British -- India -- Fiction","England -- Social life and customs -- 19th century -- Fiction","Married people -- Fiction"],"bookshelves":[],"languages":["en"],"copyright":false,"media_type":"Text","formats":{"text/html":"https://www.gutenberg.org/ebooks/69142.html.images","application/epub+zip":"https://www.gutenberg.org/ebooks/69142.epub3.images","application/x-mobipocket-ebook":"https://www.gutenberg.org/ebooks/69142.kf8.images","text/plain; charset=us-ascii":"https://www.gutenberg.org/ebooks/69142.txt.utf-8","application/rdf+xml":"https://www.gutenberg.org/ebooks/69142.rdf","image/jpeg":"https://www.gutenberg.org/cache/epub/69142/pg69142.cover.medium.jpg","application/octet-stream":"https://www.gutenberg.org/files/69142/69142-0.zip"},"download_count":18},{"id":69226,"title":"Greuze","authors":[{"name":"Armitage, Harold","birth_year":1867,"death_year":null}],"translators":[],"subjects":["Greuze, Jean-Baptiste, 1725-1805"],"bookshelves":[],"languages":["en"],"copyright":false,"media_type":"Text","formats":{"text/html":"https://www.gutenberg.org/ebooks/69226.html.images","application/epub+zip":"https://www.gutenberg.org/ebooks/69226.epub3.images","application/x-mobipocket-ebook":"https://www.gutenberg.org/ebooks/69226.kf8.images","text/plain; charset=us-ascii":"https://www.gutenberg.org/ebooks/69226.txt.utf-8","application/rdf+xml":"https://www.gutenberg.org/ebooks/69226.rdf","image/jpeg":"https://www.gutenberg.org/cache/epub/69226/pg69226.cover.medium.jpg","application/octet-stream":"https://www.gutenberg.org/files/69226/69226-0.zip"},"download_count":18}]}