{"count":58808,"next":"http://129.241.150.113:8000/books/?languages=en&page=1770","previous":"http://129.241.150.113:8000/books/?languages=en&page=1768","results":[{"id":4571,"title":"Master Sunshine","authors":[{"name":"Fraser, C. F., Mrs.","birth_year":null,"death_year":null}],"translators":[],"subjects":["Boys -- Juvenile fiction","Bullying -- Juvenile fiction","Conduct of life -- Juvenile fiction","Schools -- Juvenile fiction"],"bookshelves":[],"languages":["en"],"copyright":false,"media_type":"Text","formats":{"text/html":"https://www.gutenberg.org/ebooks/4571.html.images","text/html; charset=iso-8859-1":"https://www.gutenberg.org/files/4571/4571-h/4571-h.htm","application/epub+zip":"https://www.gutenberg.org/ebooks/4571.epub3.images","application/x-mobipocket-ebook":"https://www.gutenberg.org/ebooks/4571.kf8.images","text/plain; charset=us-ascii":"https://www.gutenberg.org/ebooks/4571.txt.utf-8","application/rdf+xml":"https://www.gutenberg.org/ebooks/4571.rdf","image/jpeg":"https://www.gutenberg.org/cache/epub/4571/pg4571.cover.medium.jpg","application/octet-stream":"https://www.gutenberg.org/cache/epub/4571/pg4571-h.zip"},"download_count":14},{"id":4626,"title":"Married Life; Its Shadows and Sunshine","authors":[{"name":"Arthur, T. S. (Timothy Shay)","birth_year":1809,"death_year":1885}],"translators":[],"subjects":["Married people -- Fiction"],"bookshelves":[],"languages":["en"],"copyright":false,"media_type":"Text","formats":{"text/html":"https://www.gutenberg.org/ebooks/4626.html.images","text/html; charset=iso-8859-1":"https://www.gutenberg.org/files/4626/4626-h/4626-h.htm","application/epub+zip":"https://www.gutenberg.org/ebooks/4626.epub3.images","application/x-mobipocket-ebook":"https://www.gutenberg.org/ebooks/4626.kf8.images","text/plain; charset=us-ascii":"https://www.gutenberg.org/ebooks/4626.txt.utf-8","application/rdf+xml":"https://www.gutenberg.org/ebooks/4626.rdf","image/jpeg":"https://www.gutenberg.org/cache/epub/4626/pg4626.cover.medium.jpg","application/octet-stream":"https://www.gutenberg.org/cache/epub/4626/pg4626-h.zip"},"download_count":14},{"id":4627,"title":"The Lights and Shadows of Real Life","authors":[{"name":"Arthur, T. S. (Timothy Shay)","birth_year":1809,"death_year":1885}],"translators":[],"subjects":["Conduct of life -- Fiction","Temperance -- Fiction"],"bookshelves":[],"languages":["en"],"copyright":false,"media_type":"Text","formats":{"text/html":"https://www.gutenberg.org/ebooks/4627.html.images","application/epub+zip":"https://www.gutenberg.org/ebooks/4627.epub3.images","application/x-mobipocket-ebook":"https://www.gutenberg.org/ebooks/4627.kf8.images","text/plain; charset=us-ascii":"https://www.gutenberg.org/ebooks/4627.txt.utf-8","application/rdf+xml":"https://www.gutenberg.org/ebooks/4627.rdf","image/jpeg":"https://www.gutenberg.org/cache/epub/4627/pg4627.cover.medium.jpg","application/octet-stream":"https://www.gutenberg.org/cache/epub/4627/pg4627-h.zip"},"download_count":14},{"id":4652,"title":"Escape, and Other Essays","authors":[{"name":"Benson, Arthur Christopher","birth_year":1862,"death_year":1925}],"translators":[],"subjects":["Essays"],"bookshelves":[],"languages":["en"],"copyright":false,"media_type":"Text","formats":{"text/html":"https://www.gutenberg.org/ebooks/4652.html.images","application/epub+zip":"https://www.gutenberg.org/ebooks/4652.epub3.images","application/x-mobipocket-ebook":"https://www.gutenberg.org/ebooks/4652.kf8.images","text/plain; charset=us-ascii":"https://www.gutenberg.org/ebooks/4652.txt.utf-8","application/rdf+xml":"https://www.gutenberg.org/ebooks/4652.rdf","image/jpeg":"https://www.gutenberg.org/cache/epub/4652/pg4652.cover.medium.jpg","application/octet-stream":"https://www.gutenberg.org/cache/epub/4652/pg4652-h.zip"},"download_count":14},{"id":4844,"title":"History of the United Netherlands from the Death of William the Silent to the Twelve Year's Truce, 1585e-86a","authors":[{"name":"Motley, John Lothrop","birth_year":1814,"death_year":1877}],"translators":[],"subjects":["Netherlands -- History -- Eighty Years' War, 1568-1648"],"bookshelves":[],"languages":["en"],"copyright":false,"media_type":"Text","formats":{"text/html":"https://www.gutenberg.org/ebooks/4844.html.images","application/epub+zip":"https://www.gutenberg.org/ebooks/4844.epub3.images","application/x-mobipocket-ebook":"https://www.gutenberg.org/ebooks/4844.kf8.images","text/plain; charset=us-ascii":"https://www.gutenberg.org/ebooks/4844.txt.utf-8","application/rdf+xml":"https://www.gutenberg.org/ebooks/4844.rdf","image/jpeg":"https://www.gutenberg.org/cache/epub/4844/pg4844.cover.medium.jpg","application/octet-stream":"https://www.gutenberg.org/cache/epub/4844/pg4844-h.zip"},"download_count":14},{"id":4858,"title":"History of the United Netherlands, 1588d","authors":[{"name":"Motley, John Lothrop","birth_year":1814,"death_year":1877}],"translators":[],"subjects":["Netherlands -- History -- Eighty Years' War, 1568-1648"],"bookshelves":[],"languages":["en"],"copyright":false,"media_type":"Text","formats":{"text/html":"https://www.gutenberg.org/ebooks/4858.html.images","application/epub+zip":"https://www.gutenberg.org/ebooks/4858.epub3.images","application/x-mobipocket-ebook":"https://www.gutenberg.org/ebooks/4858.kf8.images","text/plain; charset=us-ascii":"https://www.gutenberg.org/ebooks/4858.txt.utf-8","application/rdf+xml":"https://www.gutenberg.org/ebooks/4858.rdf","image/jpeg":"https://www.gutenberg.org/cache/epub/4858/pg4858.cover.medium.jpg","application/octet-stream":"https://www.gutenberg.org/cache/epub/4858/pg4858-h.zip"},"download_count":14},{"id":4885,"title":"History of the United Netherlands from the Death of William the Silent to the Twelve Year's Truce — Complete (1584-1609)","authors":[{"name":"Motley, John Lothrop","birth_year":1814,"death_year":1877}],"translators":[],"subjects":["Netherlands -- History -- Eighty Years' War, 1568-1648"],"bookshelves":[],"languages":["en"],"copyright":false,"media_type":"Text","formats":{"text/html":"https://www.gutenberg.org/ebooks/4885.html.images","application/epub+zip":"https://www.gutenberg.org/ebooks/4885.epub3.images","application/x-mobipocket-ebook":"https://www.gutenberg.org/ebooks/4885.kf8.images","text/plain; charset=us-ascii":"https://www.gutenberg.org/ebooks/4885.txt.utf-8","application/rdf+xml":"https://www.gutenberg.org/ebooks/4885.rdf","image/jpeg":"https://www.gutenberg.org/cache/epub/4885/pg4885.cover.medium.jpg","application/octet-stream":"https://www.gutenberg.org/cache/epub/4885/pg4885-h.zip"},"download_count":14},{"id":4958,"title":"Justice in the By-Ways, a Tale of Life","authors":[{"name":"Adams, F. Colburn (Francis Colburn)","birth_year":1850,"death_year":1891}],"translators":[],"subjects":["Charleston (S.C.) -- History -- 1775-1865 -- Fiction","Slavery -- Fiction"],"bookshelves":[],"languages":["en"],"copyright":false,"media_type":"Text","formats":{"text/html":"https://www.gutenberg.org/ebooks/4958.html.images","application/epub+zip":"https://www.gutenberg.org/ebooks/4958.epub3.images","application/x-mobipocket-ebook":"https://www.gutenberg.org/ebooks/4958.kf8.images","text/plain; charset=us-ascii":"https://www.gutenberg.org/ebooks/4958.txt.utf-8","application/rdf+xml":"https://www.gutenberg.org/ebooks/4958.rdf","image/jpeg":"https://www.gutenberg.org/cache/epub/4958/pg4958.cover.medium.jpg","application/octet-stream":"https://www.gutenberg.org/cache/epub/4958/pg4958-h.zip"},"download_count":14},{"id":5047,"title":"State of the Union Addresses","authors":[{"name":"Bush, George","birth_year":1924,"death_year":2018}],"translators":[],"subjects":["Presidents -- United States -- Messages","United States -- Politics and government -- Sources"],"bookshelves":[],"languages":["en"],"copyright":false,"media_type":"Text","formats":{"text/html":"https://www.gutenberg.org/ebooks/5047.html.images","text/html; charset=iso-8859-1":"https://www.gutenberg.org/files/5047/5047-h/5047-h.htm","application/epub+zip":"https://www.gutenberg.org/ebooks/5047.epub3.images","application/x-mobipocket-ebook":"https://www.gutenberg.org/ebooks/5047.kf8.images","text/plain; charset=us-ascii":"https://www.gutenberg.org/ebooks/5047.txt.utf-8","application/rdf+xml":"https://www.gutenberg.org/ebooks/5047.rdf","image/jpeg":"https://www.gutenberg.org/cache/epub/5047/pg5047.cover.medium.jpg","application/octet-stream":"https://www.gutenberg.org/cache/epub/5047/pg5047-h.zip"},"download_count":14},{"id":5094,"title":"The Romance of Elaine: Sequel to \"Exploits of Elaine\"","authors":[{"name":"Reeve, Arthur B. (Arthur Benjamin)","birth_year":1880,"death_year":1936}],"translators":[],"subjects":["Chemistry teachers -- Fiction","Detective and mystery stories","Kennedy, Craig (Fictitious character) -- Fiction","New York (N.Y.) -- Fiction"],"bookshelves":[],"languages":["en"],"copyright":false,"media_type":"Text","formats":{"text/html":"https://www.gutenberg.org/ebooks/5094.html.images","application/epub+zip":"https://www.gutenberg.org/ebooks/5094.epub3.images","application/x-mobipocket-ebook":"https://www.gutenberg.org/ebooks/5094.kf8.images","text/plain; charset=us-ascii":"https://www.gutenberg.org/ebooks/5094.txt.utf-8","application/rdf+xml":"https://www.gutenberg.org/ebooks/5094.rdf","image/jpeg":"https://www.gutenberg.org/cache/epub/5094/pg5094.cover.medium.jpg","application/octet-stream":"https://www.gutenberg.org/cache/epub/5094/pg5094-h.zip"},"download_count":14},{"id":5193,"title":"The Double Widowing","authors":[{"name":"Dufresny, Charles Rivière","birth_year":1657,"death_year":1724}],"translators":[{"name":"Morlock, Frank J.","birth_year":null,"death_year":null}],"subjects":["French drama (Comedy) -- 18th century","French drama -- 18th century -- Translations into English"],"bookshelves":[],"languages":["en"],"copyright":true,"media_type":"Text","formats":{"text/html":"https://www.gutenberg.org/ebooks/5193.html.images","application/epub+zip":"https://www.gutenberg.org/ebooks/5193.epub3.images","application/x-mobipocket-ebook":"https://www.gutenberg.org/ebooks/5193.kf8.images","text/plain; charset=us-ascii":"https://www.gutenberg.org/ebooks/5193.txt.utf-8","application/rdf+xml":"https://www.gutenberg.org/ebooks/5193.rdf","image/jpeg":"https://www.gutenberg.org/cache/epub/5193/pg5193.cover.medium.jpg","application/octet-stream":"https://www.gutenberg.org/cache/epub/5193/pg5193-h.zip"},"download_count":14},{"id":5198,"title":"The Library","authors":[{"name":"Crabbe, George","birth_year":1754,"death_year":1832}],"translators":[],"subjects":["Libraries -- Poetry"],"bookshelves":[],"languages":["en"],"copyright":false,"media_type":"Text","formats":{"text/html":"https://www.gutenberg.org/ebooks/5198.html.images","text/html; charset=us-ascii":"https://www.gutenberg.org/files/5198/5198-h/5198-h.htm","application/epub+zip":"https://www.gutenberg.org/ebooks/5198.epub3.images","application/x-mobipocket-ebook":"https://www.gutenberg.org/ebooks/5198.kf8.images","text/plain; charset=us-ascii":"https://www.gutenberg.org/ebooks/5198.txt.utf-8","application/rdf+xml":"https://www.gutenberg.org/ebooks/5198.rdf","image/jpeg":"https://www.gutenberg.org/cache/epub/5198/pg5198.cover.medium.jpg","application/octet-stream":"https://www.gutenberg.org/cache/epub/5198/pg5198-h.zip"},"download_count":14},{"id":5329,"title":"PoPHILO: Popular Philosophy","authors":[{"name":"Dom","birth_year":null,"death_year":null}],"translators":[],"subjects":["Aphorisms and apothegms"],"bookshelves":[],"languages":["en"],"copyright":true,"media_type":"Text","formats":{"text/html":"https://www.gutenberg.org/ebooks/5329.html.images","application/epub+zip":"https://www.gutenberg.org/ebooks/5329.epub3.images","text/rtf":"https://www.gutenberg.org/files/5329/5329-r.rtf","application/x-mobipocket-ebook":"https://www.gutenberg.org/ebooks/5329.kf8.images","text/plain; charset=us-ascii":"https://www.gutenberg.org/ebooks/5329.txt.utf-8","text/plain; charset=iso-8859-1":"https://www.gutenberg.org/files/5329/5329-8.txt","application/rdf+xml":"https://www.gutenberg.org/ebooks/5329.rdf","image/jpeg":"https://www.gutenberg.org/cache/epub/5329/pg5329.cover.medium.jpg","application/octet-stream":"https://www.gutenberg.org/files/5329/5329-r.zip"},"download_count":14},{"id":5377,"title":"A Modern Chronicle — Volume 04","authors":[{"name":"Churchill, Winston","birth_year":1871,"death_year":1947}],"translators":[],"subjects":["Marriage -- Fiction","United States -- Social life and customs -- 20th century -- Fiction","Women -- Social conditions -- 20th century -- Fiction"],"bookshelves":["Bestsellers, American, 1895-1923"],"languages":["en"],"copyright":false,"media_type":"Text","formats":{"text/html":"https://www.gutenberg.org/ebooks/5377.html.images","application/epub+zip":"https://www.gutenberg.org/ebooks/5377.epub3.images","application/x-mobipocket-ebook":"https://www.gutenberg.org/ebooks/5377.kf8.images","text/plain; charset=us-ascii":"https://www.gutenberg.org/ebooks/5377.txt.utf-8","application/rdf+xml":"https://www.gutenberg.org/ebooks/5377.rdf","image/jpeg":"https://www.gutenberg.org/cache/epub/5377/pg5377.cover.medium.jpg","application/octet-stream":"https://www.gutenberg.org/cache/epub/5377/pg5377-h.zip"},"download_count":14},{"id":5388,"title":"The Crisis — Volume 01","authors":[{"name":"Churchill, Winston","birth_year":1871,"death_year":1947}],"translators":[],"subjects":["United States -- History -- Civil War, 1861-1865 -- Fiction"],"bookshelves":["Bestsellers, American, 1895-1923","US Civil War"],"languages":["en"],"copyright":false,"media_type":"Text","formats":{"text/html":"https://www.gutenberg.org/ebooks/5388.html.images","application/epub+zip":"https://www.gutenberg.org/ebooks/5388.epub3.images","application/x-mobipocket-ebook":"https://www.gutenberg.org/ebooks/5388.kf8.images","text/plain; charset=us-ascii":"https://www.gutenberg.org/ebooks/5388.txt.utf-8","application/rdf+xml":"https://www.gutenberg.org/ebooks/5388.rdf","image/jpeg":"https://www.gutenberg.org/cache/epub/5388/pg5388.cover.medium.jpg","application/octet-stream":"https://www.gutenberg.org/cache/epub/5388/pg5388-h.zip"},"download_count":14},{"id":5390,"title":"The Crisis — Volume 03","authors":[{"name":"Churchill, Winston","birth_year":1871,"death_year":1947}],"translators":[],"subjects":["United States -- History -- Civil War, 1861-1865 -- Fiction"],"bookshelves":["Bestsellers, American, 1895-1923","US Civil War"],"languages":["en"],"copyright":false,"media_type":"Text","formats":{"text/html":"https://www.gutenberg.org/ebooks/5390.html.images","application/epub+zip":"https://www.gutenberg.org/ebooks/5390.epub3.images","application/x-mobipocket-ebook":"https://www.gutenberg.org/ebooks/5390.kf8.images","text/plain; charset=us-ascii":"https://www.gutenberg.org/ebooks/5390.txt.utf-8","application/rdf+xml":"https://www.gutenberg.org/ebooks/5390.rdf","image/jpeg":"https://www.gutenberg.org/cache/epub/5390/pg5390.cover.medium.jpg","application/octet-stream":"https://www.gutenberg.org/cache/epub/5390/pg5390-h.zip"},"download_count":14},{"id":5392,"title":"The Crisis — Volume 05","authors":[{"name":"Churchill, Winston","birth_year":1871,"death_year":1947}],"translators":[],"subjects":["United States -- History -- Civil War, 1861-1865 -- Fiction"],"bookshelves":["Bestsellers, American, 1895-1923","US Civil War"],"languages":["en"],"copyright":false,"media_type":"Text","formats":{"text/html":"https://www.gutenberg.org/ebooks/5392.html.images","application/epub+zip":"https://www.gutenberg.org/ebooks/5392.epub3.images","application/x-mobipocket-ebook":"https://www.gutenberg.org/ebooks/5392.kf8.images","text/plain; charset=us-ascii":"https://www.gutenberg.org/ebooks/5392.txt.utf-8","application/rdf+xml":"https://www.gutenberg.org/ebooks/5392.rdf","image/jpeg":"https://www.gutenberg.org/cache/epub/5392/pg5392.cover.medium.jpg","application/octet-stream":"https://www.gutenberg.org/cache/epub/5392/pg5392-h.zip"},"download_count":14},{"id":5413,"title":"The Memoirs of Count Grammont — Volume 05","authors":[{"name":"Hamilton, Anthony, Count","birth_year":null,"death_year":1720}],"translators":[],"subjects":["Gramont, Philibert, comte de, 1621-1707","Great Britain -- Court and courtiers -- Early works to 1800","Great Britain -- History -- Charles II, 1660-1685"],"bookshelves":[],"languages":["en"],"copyright":false,"media_type":"Text","formats":{"text/html":"https://www.gutenberg.org/ebooks/5413.html.images","application/epub+zip":"https://www.gutenberg.org/ebooks/5413.epub3.images","application/x-mobipocket-ebook":"https://www.gutenberg.org/ebooks/5413.kf8.images","text/plain; charset=us-ascii":"https://www.gutenberg.org/ebooks/5413.txt.utf-8","application/rdf+xml":"https://www.gutenberg.org/ebooks/5413.rdf","image/jpeg":"https://www.gutenberg.org/cache/epub/5413/pg5413.cover.medium.jpg","application/octet-stream":"https://www.gutenberg.org/cache/epub/5413/pg5413-h.zip"},"download_count":14},{"id":5425,"title":"The Five Books of Youth","authors":[{"name":"Hillyer, Robert","birth_year":1895,"death_year":1961}],"translators":[],"subjects":["Poetry"],"bookshelves":[],"languages":["en"],"copyright":false,"media_type":"Text","formats":{"text/html":"https://www.gutenberg.org/ebooks/5425.html.images","application/epub+zip":"https://www.gutenberg.org/ebooks/5425.epub3.images","application/x-mobipocket-ebook":"https://www.gutenberg.org/ebooks/5425.kf8.images","text/plain; charset=us-ascii":"https://www.gutenberg.org/ebooks/5425.txt.utf-8","application/rdf+xml":"https://www.gutenberg.org/ebooks/5425.rdf","image/jpeg":"https://www.gutenberg.org/cache/epub/5425/pg5425.cover.medium.jpg","application/octet-stream":"https://www.gutenberg.org/cache/epub/5425/pg5425-h.zip"},"download_count":14},{"id":5496,"title":"Homo Sum — Volume 03","authors":[{"name":"Ebers, Georg","birth_year":1837,"death_year":1898}],"translators":[{"name":"Bell, Clara","birth_year":1834,"death_year":1927}],"subjects":["Church history -- 4th century -- Fiction","German fiction -- Translations into English"],"bookshelves":["Historical Fiction"],"languages":["en"],"copyright":false,"media_type":"Text","formats":{"text/html":"https://www.gutenberg.org/ebooks/5496.html.images","application/epub+zip":"https://www.gutenberg.org/ebooks/5496.epub3.images","application/x-mobipocket-ebook":"https://www.gutenberg.org/ebooks/5496.kf8.images","text/plain; charset=us-ascii":"https://www.gutenberg.org/ebooks/5496.txt.utf-8","application/rdf+xml":"https://www.gutenberg.org/ebooks/5496.rdf","image/jpeg":"https://www.gutenberg.org/cache/epub/5496/pg5496.cover.medium.jpg","application/octet-stream":"https://www.gutenberg.org/cache/epub/5496/pg5496-h.zip"},"download_count":14},{"id":5553,"title":"Margery (Gred): A Tale Of Old Nuremberg — Volume 02","authors":[{"name":"Ebers, Georg","birth_year":1837,"death_year":1898}],"translators":[{"name":"Bell, Clara","birth_year":1834,"death_year":1927}],"subjects":["German fiction -- Translations into English","Nuremberg (Germany) -- Fiction"],"bookshelves":[],"languages":["en"],"copyright":false,"media_type":"Text","formats":{"text/html":"https://www.gutenberg.org/ebooks/5553.html.images","application/epub+zip":"https://www.gutenberg.org/ebooks/5553.epub3.images","application/x-mobipocket-ebook":"https://www.gutenberg.org/ebooks/5553.kf8.images","text/plain; charset=us-ascii":"https://www.gutenberg.org/ebooks/5553.txt.utf-8","application/rdf+xml":"https://www.gutenberg.org/ebooks/5553.rdf","image/jpeg":"https://www.gutenberg.org/cache/epub/5553/pg5553.cover.medium.jpg","application/octet-stream":"https://www.gutenberg.org/cache/epub/5553/pg5553-h.zip"},"download_count":14},{"id":5561,"title":"Barbara Blomberg — Volume 01","authors":[{"name":"Ebers, Georg","birth_year":1837,"death_year":1898}],"translators":[{"name":"Safford, Mary J.","birth_year":null,"death_year":null}],"subjects":["German fiction -- Translations into English","Holy Roman Empire -- History -- Charles V, 1519-1556 -- Fiction"],"bookshelves":["Historical Fiction"],"languages":["en"],"copyright":false,"media_type":"Text","formats":{"text/html":"https://www.gutenberg.org/ebooks/5561.html.images","application/epub+zip":"https://www.gutenberg.org/ebooks/5561.epub3.images","application/x-mobipocket-ebook":"https://www.gutenberg.org/ebooks/5561.kf8.images","text/plain; charset=us-ascii":"https://www.gutenberg.org/ebooks/5561.txt.utf-8","application/rdf+xml":"https://www.gutenberg.org/ebooks/5561.rdf","image/jpeg":"https://www.gutenberg.org/cache/epub/5561/pg5561.cover.medium.jpg","application/octet-stream":"https://www.gutenberg.org/cache/epub/5561/pg5561-h.zip"},"download_count":14},{"id":5580,"title":"The Burgomaster's Wife — Volume 03","authors":[{"name":"Ebers, Georg","birth_year":1837,"death_year":1898}],"translators":[{"name":"Safford, Mary J.","birth_year":null,"death_year":null}],"subjects":["German fiction -- Translations into English","Netherlands -- History -- Eighty Years' War, 1568-1648 -- Fiction"],"bookshelves":[],"languages":["en"],"copyright":false,"media_type":"Text","formats":{"text/html":"https://www.gutenberg.org/ebooks/5580.html.images","application/epub+zip":"https://www.gutenberg.org/ebooks/5580.epub3.images","application/x-mobipocket-ebook":"https://www.gutenberg.org/ebooks/5580.kf8.images","text/plain; charset=us-ascii":"https://www.gutenberg.org/ebooks/5580.txt.utf-8","application/rdf+xml":"https://www.gutenberg.org/ebooks/5580.rdf","image/jpeg":"https://www.gutenberg.org/cache/epub/5580/pg5580.cover.medium.jpg","application/octet-stream":"https://www.gutenberg.org/cache/epub/5580/pg5580-h.zip"},"download_count":14},{"id":5594,"title":"The Story of My Life — Volume 02","authors":[{"name":"Ebers, Georg","birth_year":1837,"death_year":1898}],"translators":[{"name":"Safford, Mary J.","birth_year":null,"death_year":null}],"subjects":["Ebers, Georg, 1837-1898"],"bookshelves":[],"languages":["en"],"copyright":false,"media_type":"Text","formats":{"text/html":"https://www.gutenberg.org/ebooks/5594.html.images","application/epub+zip":"https://www.gutenberg.org/ebooks/5594.epub3.images","application/x-mobipocket-ebook":"https://www.gutenberg.org/ebooks/5594.kf8.images","text/plain; charset=us-ascii":"https://www.gutenberg.org/ebooks/5594.txt.utf-8","application/rdf+xml":"https://www.gutenberg.org/ebooks/5594.rdf","image/jpeg":"https://www.gutenberg.org/cache/epub/5594/pg5594.cover.medium.jpg","application/octet-stream":"https://www.gutenberg.org/cache/epub/5594/pg5594-h.zip"},"download_count":14},{"id":5809,"title":"Following the Equator: A Journey Around the World. Part 2","authors":[{"name":"Twain, Mark","birth_year":1835,"death_year":1910}],"translators":[],"subjects":["Equator -- Description and travel","Twain, Mark, 1835-1910 -- Travel","Voyages around the world"],"bookshelves":[],"languages":["en"],"copyright":false,"media_type":"Text","formats":{"text/html":"https://www.gutenberg.org/ebooks/5809.html.images","text/html; charset=iso-8859-1":"https://www.gutenberg.org/files/5809/5809-h/5809-h.htm","application/epub+zip":"https://www.gutenberg.org/ebooks/5809.epub3.images","application/x-mobipocket-ebook":"https://www.gutenberg.org/ebooks/5809.kf8.images","text/plain; charset=us-ascii":"https://www.gutenberg.org/ebooks/5809.txt.utf-8","application/rdf+xml":"https://www.gutenberg.org/ebooks/5809.rdf","image/jpeg":"https://www.gutenberg.org/cache/epub/5809/pg5809.cover.medium.jpg","application/octet-stream":"https://www.gutenberg.org/cache/epub/5809/pg5809-h.zip"},"download_count":14},{"id":5825,"title":"The Courage of the Commonplace","authors":[{"name":"Andrews, Mary Raymond Shipman","birth_year":1860,"death_year":1936}],"translators":[],"subjects":["Yale University -- Fiction"],"bookshelves":[],"languages":["en"],"copyright":false,"media_type":"Text","formats":{"text/html":"https://www.gutenberg.org/ebooks/5825.html.images","text/html; charset=iso-8859-1":"https://www.gutenberg.org/files/5825/5825-h/5825-h.htm","application/epub+zip":"https://www.gutenberg.org/ebooks/5825.epub3.images","application/x-mobipocket-ebook":"https://www.gutenberg.org/ebooks/5825.kf8.images","text/plain; charset=us-ascii":"https://www.gutenberg.org/ebooks/5825.txt.utf-8","application/rdf+xml":"https://www.gutenberg.org/ebooks/5825.rdf","image/jpeg":"https://www.gutenberg.org/cache/epub/5825/pg5825.cover.medium.jpg","application/octet-stream":"https://www.gutenberg.org/cache/epub/5825/pg5825-h.zip"},"download_count":14},{"id":5848,"title":"The Flyers","authors":[{"name":"McCutcheon, George Barr","birth_year":1866,"death_year":1928}],"translators":[],"subjects":["Fiction"],"bookshelves":[],"languages":["en"],"copyright":false,"media_type":"Text","formats":{"text/html":"https://www.gutenberg.org/ebooks/5848.html.images","application/epub+zip":"https://www.gutenberg.org/ebooks/5848.epub3.images","application/x-mobipocket-ebook":"https://www.gutenberg.org/ebooks/5848.kf8.images","text/plain; charset=us-ascii":"https://www.gutenberg.org/ebooks/5848.txt.utf-8","application/rdf+xml":"https://www.gutenberg.org/ebooks/5848.rdf","image/jpeg":"https://www.gutenberg.org/cache/epub/5848/pg5848.cover.medium.jpg","application/octet-stream":"https://www.gutenberg.org/files/5848/5848-h.zip"},"download_count":14},{"id":6030,"title":"The Iron Star — And What It Saw on Its Journey Through the Ages: From Myth to History","authors":[{"name":"True, John Preston","birth_year":1859,"death_year":1933}],"translators":[],"subjects":["Iron -- History -- Juvenile fiction"],"bookshelves":[],"languages":["en"],"copyright":false,"media_type":"Text","formats":{"text/html":"https://www.gutenberg.org/ebooks/6030.html.images","application/epub+zip":"https://www.gutenberg.org/ebooks/6030.epub3.images","application/x-mobipocket-ebook":"https://www.gutenberg.org/ebooks/6030.kf8.images","text/plain; charset=us-ascii":"https://www.gutenberg.org/ebooks/6030.txt.utf-8","application/rdf+xml":"https://www.gutenberg.org/ebooks/6030.rdf","image/jpeg":"https://www.gutenberg.org/cache/epub/6030/pg6030.cover.medium.jpg","application/octet-stream":"https://www.gutenberg.org/cache/epub/6030/pg6030-h.zip"},"download_count":14},{"id":6126,"title":"Quotations from Georg Ebers","authors":[{"name":"Ebers, Georg","birth_year":1837,"death_year":1898}],"translators":[],"subjects":["Quotations"],"bookshelves":[],"languages":["en"],"copyright":false,"media_type":"Text","formats":{"text/html":"https://www.gutenberg.org/ebooks/6126.html.images","application/epub+zip":"https://www.gutenberg.org/ebooks/6126.epub3.images","application/x-mobipocket-ebook":"https://www.gutenberg.org/ebooks/6126.kf8.images","text/plain; charset=us-ascii":"https://www.gutenberg.org/ebooks/6126.txt.utf-8","application/rdf+xml":"https://www.gutenberg.org/ebooks/6126.rdf","image/jpeg":"https://www.gutenberg.org/cache/epub/6126/pg6126.cover.medium.jpg","application/octet-stream":"https://www.gutenberg.org/cache/epub/6126/pg6126-h.zip"},"download_count":14},{"id":6147,"title":"Narrative and Miscellaneous Papers — Volume 2","authors":[{"name":"De Quincey, Thomas","birth_year":1785,"death_year":1859}],"translators":[],"subjects":["English essays"],"bookshelves":[],"languages":["en"],"copyright":false,"media_type":"Text","formats":{"text/html":"https://www.gutenberg.org/ebooks/6147.html.images","application/epub+zip":"https://www.gutenberg.org/ebooks/6147.epub3.images","application/x-mobipocket-ebook":"https://www.gutenberg.org/ebooks/6147.kf8.images","text/plain; charset=us-ascii":"https://www.gutenberg.org/ebooks/6147.txt.utf-8","text/plain; charset=iso-8859-1":"https://www.gutenberg.org/files/6147/6147-8.txt","application/rdf+xml":"https://www.gutenberg.org/ebooks/6147.rdf","image/jpeg":"https://www.gutenberg.org/cache/epub/6147/pg6147.cover.medium.jpg","application/octet-stream":"https://www.gutenberg.org/cache/epub/6147/pg6147-h.zip"},"download_count":14},{"id":6166,"title":"Charles Lamb: A Memoir","authors":[{"name":"Cornwall, Barry","birth_year":1787,"death_year":1874}],"translators":[],"subjects":["Lamb, Charles, 1775-1834"],"bookshelves":[],"languages":["en"],"copyright":false,"media_type":"Text","formats":{"text/html":"https://www.gutenberg.org/ebooks/6166.html.images","application/epub+zip":"https://www.gutenberg.org/ebooks/6166.epub3.images","application/x-mobipocket-ebook":"https://www.gutenberg.org/ebooks/6166.kf8.images","text/plain; charset=us-ascii":"https://www.gutenberg.org/ebooks/6166.txt.utf-8","application/rdf+xml":"https://www.gutenberg.org/ebooks/6166.rdf","image/jpeg":"https://www.gutenberg.org/cache/epub/6166/pg6166.cover.medium.jpg","application/octet-stream":"https://www.gutenberg.org/cache/epub/6166/pg6166-h.zip"},"download_count":14},{"id":6181,"title":"A Romany of the Snows, vol. 2: Being a Continuation of the Personal Histories of \"Pierre and His People\" and the Last Existing Records of Pretty Pierre","authors":[{"name":"Parker, Gilbert","birth_year":1862,"death_year":1932}],"translators":[],"subjects":["Canada, Northern -- Fiction","Short stories, Canadian"],"bookshelves":[],"languages":["en"],"copyright":false,"media_type":"Text","formats":{"text/html":"https://www.gutenberg.org/ebooks/6181.html.images","application/epub+zip":"https://www.gutenberg.org/ebooks/6181.epub3.images","application/x-mobipocket-ebook":"https://www.gutenberg.org/ebooks/6181.kf8.images","text/plain; charset=us-ascii":"https://www.gutenberg.org/ebooks/6181.txt.utf-8","application/rdf+xml":"https://www.gutenberg.org/ebooks/6181.rdf","image/jpeg":"https://www.gutenberg.org/cache/epub/6181/pg6181.cover.medium.jpg","application/octet-stream":"https://www.gutenberg.org/cache/epub/6181/pg6181-h.zip"},"download_count":14}]}