{"count":58808,"next":"http://129.241.150.113:8000/books/?languages=en&page=920","previous":"http://129.241.150.113:8000/books/?languages=en&page=918","results":[{"id":67730,"title":"Farnham's Travels in the Great Western Prairies, etc., part 2, October 21-December 4, 1839: and De Smet's Oregon Missions and Travels over the Rocky Mountains, 1845-1846","authors":[{"name":"Smet, Pierre-Jean de","birth_year":1801,"death_year":1873},{"name":"Farnham, Thomas Jefferson","birth_year":1804,"death_year":1848}],"translators":[],"subjects":["Indians of North America -- West (U.S.)","Oregon -- Description and travel","Overland journeys to the Pacific","Rocky Mountains -- Description and travel","West (U.S.) -- Description and travel","West (U.S.) -- History -- To 1848"],"bookshelves":[],"languages":["en"],"copyright":false,"media_type":"Text","formats":{"text/html":"https://www.gutenberg.org/ebooks/67730.html.images","application/epub+zip":"https://www.gutenberg.org/ebooks/67730.epub3.images","application/x-mobipocket-ebook":"https://www.gutenberg.org/ebooks/67730.kf8.images","text/plain; charset=us-ascii":"https://www.gutenberg.org/ebooks/67730.txt.utf-8","application/rdf+xml":"https://www.gutenberg.org/ebooks/67730.rdf","image/jpeg":"https://www.gutenberg.org/cache/epub/67730/pg67730.cover.medium.jpg","application/octet-stream":"https://www.gutenberg.org/files/67730/67730-0.zip"},"download_count":39},{"id":67923,"title":"Lost Art","authors":[{"name":"Smith, George O. (George Oliver)","birth_year":1911,"death_year":1981}],"translators":[],"subjects":["Electrical engineers -- Fiction","Mars (Planet) -- Fiction","Martians -- Fiction","Science fiction"],"bookshelves":[],"languages":["en"],"copyright":false,"media_type":"Text","formats":{"text/html":"https://www.gutenberg.org/ebooks/67923.html.images","application/epub+zip":"https://www.gutenberg.org/ebooks/67923.epub3.images","application/x-mobipocket-ebook":"https://www.gutenberg.org/ebooks/67923.kf8.images","text/plain; charset=us-ascii":"https://www.gutenberg.org/ebooks/67923.txt.utf-8","application/rdf+xml":"https://www.gutenberg.org/ebooks/67923.rdf","image/jpeg":"https://www.gutenberg.org/cache/epub/67923/pg67923.cover.medium.jpg","application/octet-stream":"https://www.gutenberg.org/files/67923/67923-0.zip"},"download_count":39},{"id":67953,"title":"Questions at Issue in Our English Speech","authors":[{"name":"Bowen, Edwin W. (Edwin Winfield)","birth_year":1866,"death_year":1953}],"translators":[],"subjects":["English language -- Usage"],"bookshelves":[],"languages":["en"],"copyright":false,"media_type":"Text","formats":{"text/html":"https://www.gutenberg.org/ebooks/67953.html.images","application/epub+zip":"https://www.gutenberg.org/ebooks/67953.epub3.images","application/x-mobipocket-ebook":"https://www.gutenberg.org/ebooks/67953.kf8.images","text/plain; charset=us-ascii":"https://www.gutenberg.org/ebooks/67953.txt.utf-8","application/rdf+xml":"https://www.gutenberg.org/ebooks/67953.rdf","image/jpeg":"https://www.gutenberg.org/cache/epub/67953/pg67953.cover.medium.jpg","application/octet-stream":"https://www.gutenberg.org/files/67953/67953-0.zip"},"download_count":39},{"id":68068,"title":"Female affection","authors":[{"name":"Montagu, Basil","birth_year":1770,"death_year":1851}],"translators":[],"subjects":["Affect (Psychology)","Emotions"],"bookshelves":[],"languages":["en"],"copyright":false,"media_type":"Text","formats":{"text/html":"https://www.gutenberg.org/ebooks/68068.html.images","application/epub+zip":"https://www.gutenberg.org/ebooks/68068.epub3.images","application/x-mobipocket-ebook":"https://www.gutenberg.org/ebooks/68068.kf8.images","text/plain; charset=us-ascii":"https://www.gutenberg.org/ebooks/68068.txt.utf-8","application/rdf+xml":"https://www.gutenberg.org/ebooks/68068.rdf","image/jpeg":"https://www.gutenberg.org/cache/epub/68068/pg68068.cover.medium.jpg","application/octet-stream":"https://www.gutenberg.org/files/68068/68068-0.zip"},"download_count":39},{"id":68071,"title":"The Fir-Tree Fairy Book: Favorite Fairy Tales","authors":[],"translators":[],"subjects":["Fairy tales"],"bookshelves":[],"languages":["en"],"copyright":false,"media_type":"Text","formats":{"text/html":"https://www.gutenberg.org/ebooks/68071.html.images","application/epub+zip":"https://www.gutenberg.org/ebooks/68071.epub3.images","application/x-mobipocket-ebook":"https://www.gutenberg.org/ebooks/68071.kf8.images","text/plain; charset=us-ascii":"https://www.gutenberg.org/ebooks/68071.txt.utf-8","application/rdf+xml":"https://www.gutenberg.org/ebooks/68071.rdf","image/jpeg":"https://www.gutenberg.org/cache/epub/68071/pg68071.cover.medium.jpg","application/octet-stream":"https://www.gutenberg.org/files/68071/68071-0.zip"},"download_count":39},{"id":68093,"title":"Keeping one cow: Being the experience of a number of practical writers, in a clear and condensed form, upon the management of a single milch cow","authors":[{"name":"Various","birth_year":null,"death_year":null}],"translators":[],"subjects":["Cows","Dairying"],"bookshelves":[],"languages":["en"],"copyright":false,"media_type":"Text","formats":{"text/html":"https://www.gutenberg.org/ebooks/68093.html.images","application/epub+zip":"https://www.gutenberg.org/ebooks/68093.epub3.images","application/x-mobipocket-ebook":"https://www.gutenberg.org/ebooks/68093.kf8.images","text/plain; charset=us-ascii":"https://www.gutenberg.org/ebooks/68093.txt.utf-8","application/rdf+xml":"https://www.gutenberg.org/ebooks/68093.rdf","image/jpeg":"https://www.gutenberg.org/cache/epub/68093/pg68093.cover.medium.jpg","application/octet-stream":"https://www.gutenberg.org/files/68093/68093-0.zip"},"download_count":39},{"id":68148,"title":"Tea and the effects of tea drinking","authors":[{"name":"Tebb, W. Scott (William Scott)","birth_year":1862,"death_year":1917}],"translators":[],"subjects":["Tea","Tea -- Health aspects","Tea -- Physiological effect"],"bookshelves":[],"languages":["en"],"copyright":false,"media_type":"Text","formats":{"text/html":"https://www.gutenberg.org/ebooks/68148.html.images","application/epub+zip":"https://www.gutenberg.org/ebooks/68148.epub3.images","application/x-mobipocket-ebook":"https://www.gutenberg.org/ebooks/68148.kf8.images","text/plain; charset=us-ascii":"https://www.gutenberg.org/ebooks/68148.txt.utf-8","application/rdf+xml":"https://www.gutenberg.org/ebooks/68148.rdf","image/jpeg":"https://www.gutenberg.org/cache/epub/68148/pg68148.cover.medium.jpg","application/octet-stream":"https://www.gutenberg.org/files/68148/68148-0.zip"},"download_count":39},{"id":68196,"title":"Alien","authors":[{"name":"Smith, George O. (George Oliver)","birth_year":1911,"death_year":1981}],"translators":[],"subjects":["Police -- Fiction","Science fiction","Short stories"],"bookshelves":[],"languages":["en"],"copyright":false,"media_type":"Text","formats":{"text/html":"https://www.gutenberg.org/ebooks/68196.html.images","application/epub+zip":"https://www.gutenberg.org/ebooks/68196.epub3.images","application/x-mobipocket-ebook":"https://www.gutenberg.org/ebooks/68196.kf8.images","text/plain; charset=us-ascii":"https://www.gutenberg.org/ebooks/68196.txt.utf-8","application/rdf+xml":"https://www.gutenberg.org/ebooks/68196.rdf","image/jpeg":"https://www.gutenberg.org/cache/epub/68196/pg68196.cover.medium.jpg","application/octet-stream":"https://www.gutenberg.org/files/68196/68196-0.zip"},"download_count":39},{"id":68278,"title":"Off duty: A dozen yarns for soldiers and sailors","authors":[],"translators":[],"subjects":["Fiction","Short stories"],"bookshelves":[],"languages":["en"],"copyright":false,"media_type":"Text","formats":{"text/html":"https://www.gutenberg.org/ebooks/68278.html.images","application/epub+zip":"https://www.gutenberg.org/ebooks/68278.epub3.images","application/x-mobipocket-ebook":"https://www.gutenberg.org/ebooks/68278.kf8.images","text/plain; charset=us-ascii":"https://www.gutenberg.org/ebooks/68278.txt.utf-8","application/rdf+xml":"https://www.gutenberg.org/ebooks/68278.rdf","image/jpeg":"https://www.gutenberg.org/cache/epub/68278/pg68278.cover.medium.jpg","application/octet-stream":"https://www.gutenberg.org/files/68278/68278-0.zip"},"download_count":39},{"id":68333,"title":"The history of Company B, 311th Infantry in the World War","authors":[],"translators":[],"subjects":["United States. Army. Infantry. 311th regiment, 1917-1919. Co. B","World War, 1914-1918 -- Regimental histories -- United States"],"bookshelves":[],"languages":["en"],"copyright":false,"media_type":"Text","formats":{"text/html":"https://www.gutenberg.org/ebooks/68333.html.images","application/epub+zip":"https://www.gutenberg.org/ebooks/68333.epub3.images","application/x-mobipocket-ebook":"https://www.gutenberg.org/ebooks/68333.kf8.images","text/plain; charset=us-ascii":"https://www.gutenberg.org/ebooks/68333.txt.utf-8","application/rdf+xml":"https://www.gutenberg.org/ebooks/68333.rdf","image/jpeg":"https://www.gutenberg.org/cache/epub/68333/pg68333.cover.medium.jpg","application/octet-stream":"https://www.gutenberg.org/files/68333/68333-0.zip"},"download_count":39},{"id":68357,"title":"Short-story masterpieces - Vol. IV - Russian","authors":[],"translators":[{"name":"Cournos, John","birth_year":1881,"death_year":1966}],"subjects":["Russian fiction -- Translations into English","Short stories, Russian -- Translations into English"],"bookshelves":[],"languages":["en"],"copyright":false,"media_type":"Text","formats":{"text/html":"https://www.gutenberg.org/ebooks/68357.html.images","application/epub+zip":"https://www.gutenberg.org/ebooks/68357.epub3.images","application/x-mobipocket-ebook":"https://www.gutenberg.org/ebooks/68357.kf8.images","text/plain; charset=us-ascii":"https://www.gutenberg.org/ebooks/68357.txt.utf-8","application/rdf+xml":"https://www.gutenberg.org/ebooks/68357.rdf","image/jpeg":"https://www.gutenberg.org/cache/epub/68357/pg68357.cover.medium.jpg","application/octet-stream":"https://www.gutenberg.org/files/68357/68357-0.zip"},"download_count":39},{"id":68436,"title":"Only a farm boy; or, Dan Hardy's rise in life","authors":[{"name":"Webster, Frank V.","birth_year":null,"death_year":null}],"translators":[],"subjects":["Adventure stories","Boys -- Juvenile fiction","Burglary -- Juvenile fiction","Career development -- Juvenile fiction","Farm life -- Juvenile fiction","Trials -- Juvenile fiction"],"bookshelves":[],"languages":["en"],"copyright":false,"media_type":"Text","formats":{"text/html":"https://www.gutenberg.org/ebooks/68436.html.images","application/epub+zip":"https://www.gutenberg.org/ebooks/68436.epub3.images","application/x-mobipocket-ebook":"https://www.gutenberg.org/ebooks/68436.kf8.images","text/plain; charset=us-ascii":"https://www.gutenberg.org/ebooks/68436.txt.utf-8","application/rdf+xml":"https://www.gutenberg.org/ebooks/68436.rdf","image/jpeg":"https://www.gutenberg.org/cache/epub/68436/pg68436.cover.medium.jpg","application/octet-stream":"https://www.gutenberg.org/files/68436/68436-0.zip"},"download_count":39},{"id":68482,"title":"Mad Anthony's scouts; or, The rangers of Kentucky","authors":[{"name":"Ellis, Edward Sylvester","birth_year":1840,"death_year":1916}],"translators":[],"subjects":["Abduction -- Fiction","Dime novels","Flatboats -- Fiction","Frontier and pioneer life -- Fiction","Indian captivities -- Fiction","Indians of North America -- Fiction","Irish -- United States -- Fiction","Ohio River -- Fiction","Scouts (Reconnaissance) -- Fiction"],"bookshelves":[],"languages":["en"],"copyright":false,"media_type":"Text","formats":{"text/html":"https://www.gutenberg.org/ebooks/68482.html.images","application/epub+zip":"https://www.gutenberg.org/ebooks/68482.epub3.images","application/x-mobipocket-ebook":"https://www.gutenberg.org/ebooks/68482.kf8.images","text/plain; charset=us-ascii":"https://www.gutenberg.org/ebooks/68482.txt.utf-8","application/rdf+xml":"https://www.gutenberg.org/ebooks/68482.rdf","image/jpeg":"https://www.gutenberg.org/cache/epub/68482/pg68482.cover.medium.jpg","application/octet-stream":"https://www.gutenberg.org/files/68482/68482-0.zip"},"download_count":39},{"id":68674,"title":"Blood on my jets","authors":[{"name":"Budrys, Algis","birth_year":1931,"death_year":2008}],"translators":[],"subjects":["Adventure stories","Man-woman relationships -- Fiction","Science fiction"],"bookshelves":[],"languages":["en"],"copyright":false,"media_type":"Text","formats":{"text/html":"https://www.gutenberg.org/ebooks/68674.html.images","application/epub+zip":"https://www.gutenberg.org/ebooks/68674.epub3.images","application/x-mobipocket-ebook":"https://www.gutenberg.org/ebooks/68674.kf8.images","text/plain; charset=us-ascii":"https://www.gutenberg.org/ebooks/68674.txt.utf-8","application/rdf+xml":"https://www.gutenberg.org/ebooks/68674.rdf","image/jpeg":"https://www.gutenberg.org/cache/epub/68674/pg68674.cover.medium.jpg","application/octet-stream":"https://www.gutenberg.org/files/68674/68674-0.zip"},"download_count":39},{"id":68676,"title":"The passionate year","authors":[{"name":"Hilton, James","birth_year":1900,"death_year":1954}],"translators":[],"subjects":["England -- Fiction","Marriage -- Fiction","Teachers -- Fiction"],"bookshelves":[],"languages":["en"],"copyright":false,"media_type":"Text","formats":{"text/html":"https://www.gutenberg.org/ebooks/68676.html.images","application/epub+zip":"https://www.gutenberg.org/ebooks/68676.epub3.images","application/x-mobipocket-ebook":"https://www.gutenberg.org/ebooks/68676.kf8.images","text/plain; charset=us-ascii":"https://www.gutenberg.org/ebooks/68676.txt.utf-8","application/rdf+xml":"https://www.gutenberg.org/ebooks/68676.rdf","image/jpeg":"https://www.gutenberg.org/cache/epub/68676/pg68676.cover.medium.jpg","application/octet-stream":"https://www.gutenberg.org/files/68676/68676-0.zip"},"download_count":39},{"id":68781,"title":"Trichocosmos: Notes historical, æsthetical, ethnological, physiological, anecdotal and tonsorial, on the hair & beard","authors":[{"name":"Anonymous","birth_year":null,"death_year":null}],"translators":[],"subjects":["Barbering","Beards","Hair","Hairdressing","Wigs"],"bookshelves":[],"languages":["en"],"copyright":false,"media_type":"Text","formats":{"text/html":"https://www.gutenberg.org/ebooks/68781.html.images","application/epub+zip":"https://www.gutenberg.org/ebooks/68781.epub3.images","application/x-mobipocket-ebook":"https://www.gutenberg.org/ebooks/68781.kf8.images","text/plain; charset=us-ascii":"https://www.gutenberg.org/ebooks/68781.txt.utf-8","application/rdf+xml":"https://www.gutenberg.org/ebooks/68781.rdf","image/jpeg":"https://www.gutenberg.org/cache/epub/68781/pg68781.cover.medium.jpg","application/octet-stream":"https://www.gutenberg.org/files/68781/68781-0.zip"},"download_count":39},{"id":68846,"title":"Brook and river trouting: A manual of modern north country methods, with coloured illustrations of flies and fly-dressing materials","authors":[{"name":"Edmonds, Harfield H.","birth_year":null,"death_year":null},{"name":"Lee, Norman N.","birth_year":null,"death_year":null}],"translators":[],"subjects":["Trout fishing -- England"],"bookshelves":[],"languages":["en"],"copyright":false,"media_type":"Text","formats":{"text/html":"https://www.gutenberg.org/ebooks/68846.html.images","application/epub+zip":"https://www.gutenberg.org/ebooks/68846.epub3.images","application/x-mobipocket-ebook":"https://www.gutenberg.org/ebooks/68846.kf8.images","text/plain; charset=us-ascii":"https://www.gutenberg.org/ebooks/68846.txt.utf-8","application/rdf+xml":"https://www.gutenberg.org/ebooks/68846.rdf","image/jpeg":"https://www.gutenberg.org/cache/epub/68846/pg68846.cover.medium.jpg","application/octet-stream":"https://www.gutenberg.org/files/68846/68846-0.zip"},"download_count":39},{"id":68867,"title":"The unique story book","authors":[{"name":"Anonymous","birth_year":null,"death_year":null}],"translators":[],"subjects":["Short stories, American","United States -- History -- Civil War, 1861-1865 -- Fiction"],"bookshelves":[],"languages":["en"],"copyright":false,"media_type":"Text","formats":{"text/html":"https://www.gutenberg.org/ebooks/68867.html.images","application/epub+zip":"https://www.gutenberg.org/ebooks/68867.epub3.images","application/x-mobipocket-ebook":"https://www.gutenberg.org/ebooks/68867.kf8.images","text/plain; charset=us-ascii":"https://www.gutenberg.org/ebooks/68867.txt.utf-8","application/rdf+xml":"https://www.gutenberg.org/ebooks/68867.rdf","image/jpeg":"https://www.gutenberg.org/cache/epub/68867/pg68867.cover.medium.jpg","application/octet-stream":"https://www.gutenberg.org/files/68867/68867-0.zip"},"download_count":39},{"id":68960,"title":"Final blackout","authors":[{"name":"Hubbard, L. Ron (La Fayette Ron)","birth_year":1911,"death_year":1986}],"translators":[],"subjects":["Science fiction","War stories"],"bookshelves":[],"languages":["en"],"copyright":false,"media_type":"Text","formats":{"text/html":"https://www.gutenberg.org/ebooks/68960.html.images","application/epub+zip":"https://www.gutenberg.org/ebooks/68960.epub3.images","application/x-mobipocket-ebook":"https://www.gutenberg.org/ebooks/68960.kf8.images","text/plain; charset=us-ascii":"https://www.gutenberg.org/ebooks/68960.txt.utf-8","application/rdf+xml":"https://www.gutenberg.org/ebooks/68960.rdf","image/jpeg":"https://www.gutenberg.org/cache/epub/68960/pg68960.cover.medium.jpg","application/octet-stream":"https://www.gutenberg.org/files/68960/68960-0.zip"},"download_count":39},{"id":68961,"title":"Portraits of places","authors":[{"name":"James, Henry","birth_year":1843,"death_year":1916}],"translators":[],"subjects":["Europe -- Description and travel"],"bookshelves":[],"languages":["en"],"copyright":false,"media_type":"Text","formats":{"text/html":"https://www.gutenberg.org/ebooks/68961.html.images","application/epub+zip":"https://www.gutenberg.org/ebooks/68961.epub3.images","application/x-mobipocket-ebook":"https://www.gutenberg.org/ebooks/68961.kf8.images","text/plain; charset=us-ascii":"https://www.gutenberg.org/ebooks/68961.txt.utf-8","application/rdf+xml":"https://www.gutenberg.org/ebooks/68961.rdf","image/jpeg":"https://www.gutenberg.org/cache/epub/68961/pg68961.cover.medium.jpg","application/octet-stream":"https://www.gutenberg.org/files/68961/68961-0.zip"},"download_count":39},{"id":69048,"title":"The boomerang circuit","authors":[{"name":"Leinster, Murray","birth_year":1896,"death_year":1975}],"translators":[],"subjects":["Adventure stories","Science fiction","Space colonies -- Fiction","Space ships -- Fiction","Spouses -- Fiction"],"bookshelves":[],"languages":["en"],"copyright":false,"media_type":"Text","formats":{"text/html":"https://www.gutenberg.org/ebooks/69048.html.images","application/epub+zip":"https://www.gutenberg.org/ebooks/69048.epub3.images","application/x-mobipocket-ebook":"https://www.gutenberg.org/ebooks/69048.kf8.images","text/plain; charset=us-ascii":"https://www.gutenberg.org/ebooks/69048.txt.utf-8","application/rdf+xml":"https://www.gutenberg.org/ebooks/69048.rdf","image/jpeg":"https://www.gutenberg.org/cache/epub/69048/pg69048.cover.medium.jpg","application/octet-stream":"https://www.gutenberg.org/files/69048/69048-0.zip"},"download_count":39},{"id":69137,"title":"The unlit lamp","authors":[{"name":"Hall, Radclyffe","birth_year":1886,"death_year":1943}],"translators":[],"subjects":["England -- Fiction","Mothers and daughters -- Fiction"],"bookshelves":[],"languages":["en"],"copyright":false,"media_type":"Text","formats":{"text/html":"https://www.gutenberg.org/ebooks/69137.html.images","application/epub+zip":"https://www.gutenberg.org/ebooks/69137.epub3.images","application/x-mobipocket-ebook":"https://www.gutenberg.org/ebooks/69137.kf8.images","text/plain; charset=us-ascii":"https://www.gutenberg.org/ebooks/69137.txt.utf-8","application/rdf+xml":"https://www.gutenberg.org/ebooks/69137.rdf","image/jpeg":"https://www.gutenberg.org/cache/epub/69137/pg69137.cover.medium.jpg","application/octet-stream":"https://www.gutenberg.org/files/69137/69137-0.zip"},"download_count":39},{"id":69207,"title":"Tibetan Grammar","authors":[{"name":"Jäschke, H. A. (Heinrich August)","birth_year":1817,"death_year":1883}],"translators":[],"subjects":["Tibetan language -- Grammar"],"bookshelves":[],"languages":["en"],"copyright":false,"media_type":"Text","formats":{"text/html":"https://www.gutenberg.org/ebooks/69207.html.images","application/epub+zip":"https://www.gutenberg.org/ebooks/69207.epub3.images","application/x-mobipocket-ebook":"https://www.gutenberg.org/ebooks/69207.kf8.images","text/plain; charset=us-ascii":"https://www.gutenberg.org/ebooks/69207.txt.utf-8","application/rdf+xml":"https://www.gutenberg.org/ebooks/69207.rdf","image/jpeg":"https://www.gutenberg.org/cache/epub/69207/pg69207.cover.medium.jpg","application/octet-stream":"https://www.gutenberg.org/files/69207/69207-0.zip"},"download_count":39},{"id":69274,"title":"Chicago and the Old Northwest, 1673-1835: A study of the evolution of the northwestern frontier, together with a history of Fort Dearborn","authors":[{"name":"Quaife, Milo Milton","birth_year":1880,"death_year":1959}],"translators":[],"subjects":["Chicago (Ill.) -- History -- To 1875","Fort Dearborn Massacre, Chicago, Ill., 1812","Frontier and pioneer life -- Illinois -- Chicago","Frontier and pioneer life -- Northwest, Old","Northwest, Old -- History"],"bookshelves":[],"languages":["en"],"copyright":false,"media_type":"Text","formats":{"text/html":"https://www.gutenberg.org/ebooks/69274.html.images","application/epub+zip":"https://www.gutenberg.org/ebooks/69274.epub3.images","application/x-mobipocket-ebook":"https://www.gutenberg.org/ebooks/69274.kf8.images","text/plain; charset=us-ascii":"https://www.gutenberg.org/ebooks/69274.txt.utf-8","application/rdf+xml":"https://www.gutenberg.org/ebooks/69274.rdf","image/jpeg":"https://www.gutenberg.org/cache/epub/69274/pg69274.cover.medium.jpg","application/octet-stream":"https://www.gutenberg.org/files/69274/69274-0.zip"},"download_count":39},{"id":69295,"title":"The land of gold; reality versus fiction","authors":[{"name":"Helper, Hinton Rowan","birth_year":1829,"death_year":1909}],"translators":[],"subjects":["California -- Description and travel","California -- Gold discoveries","Ethnic groups -- California","Law -- Political aspects -- California","Real estate development -- California","Urbanization -- California","Voyages to the Pacific coast"],"bookshelves":[],"languages":["en"],"copyright":false,"media_type":"Text","formats":{"text/html":"https://www.gutenberg.org/ebooks/69295.html.images","application/epub+zip":"https://www.gutenberg.org/ebooks/69295.epub3.images","application/x-mobipocket-ebook":"https://www.gutenberg.org/ebooks/69295.kf8.images","text/plain; charset=us-ascii":"https://www.gutenberg.org/ebooks/69295.txt.utf-8","application/rdf+xml":"https://www.gutenberg.org/ebooks/69295.rdf","image/jpeg":"https://www.gutenberg.org/cache/epub/69295/pg69295.cover.medium.jpg","application/octet-stream":"https://www.gutenberg.org/files/69295/69295-0.zip"},"download_count":39},{"id":69351,"title":"Lectures on the constitution and laws of England: With a commentary on Magna Charta, and illustrations of many of the English statutes","authors":[{"name":"Sullivan, Francis Stoughton","birth_year":1719,"death_year":1776}],"translators":[],"subjects":["Constitutional history -- England -- Early works to 1800","Feudal law -- England -- Early works to 1800","Magna Carta -- Early works to 1800"],"bookshelves":[],"languages":["en"],"copyright":false,"media_type":"Text","formats":{"text/html":"https://www.gutenberg.org/ebooks/69351.html.images","application/epub+zip":"https://www.gutenberg.org/ebooks/69351.epub3.images","application/x-mobipocket-ebook":"https://www.gutenberg.org/ebooks/69351.kf8.images","text/plain; charset=us-ascii":"https://www.gutenberg.org/ebooks/69351.txt.utf-8","application/rdf+xml":"https://www.gutenberg.org/ebooks/69351.rdf","image/jpeg":"https://www.gutenberg.org/cache/epub/69351/pg69351.cover.medium.jpg","application/octet-stream":"https://www.gutenberg.org/files/69351/69351-0.zip"},"download_count":39},{"id":69416,"title":"Christmas stories","authors":[{"name":"Faulkner, Georgene","birth_year":1873,"death_year":1958}],"translators":[],"subjects":["Christmas stories"],"bookshelves":[],"languages":["en"],"copyright":false,"media_type":"Text","formats":{"text/html":"https://www.gutenberg.org/ebooks/69416.html.images","application/epub+zip":"https://www.gutenberg.org/ebooks/69416.epub3.images","application/x-mobipocket-ebook":"https://www.gutenberg.org/ebooks/69416.kf8.images","text/plain; charset=us-ascii":"https://www.gutenberg.org/ebooks/69416.txt.utf-8","application/rdf+xml":"https://www.gutenberg.org/ebooks/69416.rdf","image/jpeg":"https://www.gutenberg.org/cache/epub/69416/pg69416.cover.medium.jpg","application/octet-stream":"https://www.gutenberg.org/files/69416/69416-0.zip"},"download_count":39},{"id":69448,"title":"The disciplinary circuit","authors":[{"name":"Leinster, Murray","birth_year":1896,"death_year":1975}],"translators":[],"subjects":["Man-woman relationships -- Fiction","Outcasts -- Fiction","Punishment -- Fiction","Science fiction","Space colonies -- Fiction","Space ships -- Fiction"],"bookshelves":[],"languages":["en"],"copyright":false,"media_type":"Text","formats":{"text/html":"https://www.gutenberg.org/ebooks/69448.html.images","application/epub+zip":"https://www.gutenberg.org/ebooks/69448.epub3.images","application/x-mobipocket-ebook":"https://www.gutenberg.org/ebooks/69448.kf8.images","text/plain; charset=us-ascii":"https://www.gutenberg.org/ebooks/69448.txt.utf-8","application/rdf+xml":"https://www.gutenberg.org/ebooks/69448.rdf","image/jpeg":"https://www.gutenberg.org/cache/epub/69448/pg69448.cover.medium.jpg","application/octet-stream":"https://www.gutenberg.org/files/69448/69448-0.zip"},"download_count":39},{"id":69586,"title":"Om: The secret of Ahbor Valley","authors":[{"name":"Mundy, Talbot","birth_year":1879,"death_year":1940}],"translators":[],"subjects":["Adventure stories","India -- Fiction"],"bookshelves":[],"languages":["en"],"copyright":false,"media_type":"Text","formats":{"text/html":"https://www.gutenberg.org/ebooks/69586.html.images","application/epub+zip":"https://www.gutenberg.org/ebooks/69586.epub3.images","application/x-mobipocket-ebook":"https://www.gutenberg.org/ebooks/69586.kf8.images","text/plain; charset=us-ascii":"https://www.gutenberg.org/ebooks/69586.txt.utf-8","application/rdf+xml":"https://www.gutenberg.org/ebooks/69586.rdf","image/jpeg":"https://www.gutenberg.org/cache/epub/69586/pg69586.cover.medium.jpg","application/octet-stream":"https://www.gutenberg.org/files/69586/69586-0.zip"},"download_count":39},{"id":69709,"title":"Date line","authors":[{"name":"Loomis, Noel M.","birth_year":1905,"death_year":1969}],"translators":[],"subjects":["Journalists -- Fiction","Robots -- Fiction","Science fiction","Short stories","Time travel -- Fiction"],"bookshelves":[],"languages":["en"],"copyright":false,"media_type":"Text","formats":{"text/html":"https://www.gutenberg.org/ebooks/69709.html.images","application/epub+zip":"https://www.gutenberg.org/ebooks/69709.epub3.images","application/x-mobipocket-ebook":"https://www.gutenberg.org/ebooks/69709.kf8.images","text/plain; charset=us-ascii":"https://www.gutenberg.org/ebooks/69709.txt.utf-8","application/rdf+xml":"https://www.gutenberg.org/ebooks/69709.rdf","image/jpeg":"https://www.gutenberg.org/cache/epub/69709/pg69709.cover.medium.jpg","application/octet-stream":"https://www.gutenberg.org/files/69709/69709-0.zip"},"download_count":39},{"id":69734,"title":"Lysistrata; or, woman's future and future woman","authors":[{"name":"Ludovici, Anthony M. (Anthony Mario)","birth_year":1882,"death_year":1971}],"translators":[],"subjects":["Women","Women -- Social and moral questions"],"bookshelves":[],"languages":["en"],"copyright":false,"media_type":"Text","formats":{"text/html":"https://www.gutenberg.org/ebooks/69734.html.images","application/epub+zip":"https://www.gutenberg.org/ebooks/69734.epub3.images","application/x-mobipocket-ebook":"https://www.gutenberg.org/ebooks/69734.kf8.images","text/plain; charset=us-ascii":"https://www.gutenberg.org/ebooks/69734.txt.utf-8","application/rdf+xml":"https://www.gutenberg.org/ebooks/69734.rdf","image/jpeg":"https://www.gutenberg.org/cache/epub/69734/pg69734.cover.medium.jpg","application/octet-stream":"https://www.gutenberg.org/files/69734/69734-0.zip"},"download_count":39},{"id":70016,"title":"A new Robinson Crusoe","authors":[{"name":"Alden, W. L. (William Livingston)","birth_year":1837,"death_year":1908}],"translators":[],"subjects":["Robinsonades","Seafaring life -- Juvenile fiction","Shipwrecks -- Juvenile fiction"],"bookshelves":[],"languages":["en"],"copyright":false,"media_type":"Text","formats":{"text/html":"https://www.gutenberg.org/ebooks/70016.html.images","application/epub+zip":"https://www.gutenberg.org/ebooks/70016.epub3.images","application/x-mobipocket-ebook":"https://www.gutenberg.org/ebooks/70016.kf8.images","text/plain; charset=us-ascii":"https://www.gutenberg.org/ebooks/70016.txt.utf-8","application/rdf+xml":"https://www.gutenberg.org/ebooks/70016.rdf","image/jpeg":"https://www.gutenberg.org/cache/epub/70016/pg70016.cover.medium.jpg","application/octet-stream":"https://www.gutenberg.org/files/70016/70016-0.zip"},"download_count":39}]}