{"count":58808,"next":"http://129.241.150.113:8000/books/?languages=en&page=986","previous":"http://129.241.150.113:8000/books/?languages=en&page=984","results":[{"id":66227,"title":"Delaware Tom; or, The Traitor Guide","authors":[{"name":"Badger, Jos. E. (Joseph Edward)","birth_year":1848,"death_year":1909}],"translators":[],"subjects":["Abduction -- Fiction","Dime novels","Frontier and pioneer life -- Fiction","Indians of North America -- Fiction","Outlaws -- Fiction","Wagon trains -- Fiction","West (U.S.) -- Fiction","Western stories"],"bookshelves":[],"languages":["en"],"copyright":false,"media_type":"Text","formats":{"text/html":"https://www.gutenberg.org/ebooks/66227.html.images","application/epub+zip":"https://www.gutenberg.org/ebooks/66227.epub3.images","application/x-mobipocket-ebook":"https://www.gutenberg.org/ebooks/66227.kf8.images","text/plain; charset=us-ascii":"https://www.gutenberg.org/ebooks/66227.txt.utf-8","application/rdf+xml":"https://www.gutenberg.org/ebooks/66227.rdf","image/jpeg":"https://www.gutenberg.org/cache/epub/66227/pg66227.cover.medium.jpg","application/octet-stream":"https://www.gutenberg.org/files/66227/66227-0.zip"},"download_count":37},{"id":66288,"title":"The Fifty-Fourth of July","authors":[{"name":"Nourse, Alan Edward","birth_year":1928,"death_year":1992}],"translators":[],"subjects":["Apocalyptic fiction","Science fiction","Short stories","Sieges -- Fiction","Space ships -- Fiction"],"bookshelves":[],"languages":["en"],"copyright":false,"media_type":"Text","formats":{"text/html":"https://www.gutenberg.org/ebooks/66288.html.images","application/epub+zip":"https://www.gutenberg.org/ebooks/66288.epub3.images","application/x-mobipocket-ebook":"https://www.gutenberg.org/ebooks/66288.kf8.images","text/plain; charset=us-ascii":"https://www.gutenberg.org/ebooks/66288.txt.utf-8","application/rdf+xml":"https://www.gutenberg.org/ebooks/66288.rdf","image/jpeg":"https://www.gutenberg.org/cache/epub/66288/pg66288.cover.medium.jpg","application/octet-stream":"https://www.gutenberg.org/files/66288/66288-0.zip"},"download_count":37},{"id":66292,"title":"The Sling and the Stone","authors":[{"name":"Shaara, Michael","birth_year":1928,"death_year":1988}],"translators":[],"subjects":["Russians -- Fiction","Satellites -- Fiction","Science fiction","Short stories","Space stations -- Fiction","Weapons -- Fiction"],"bookshelves":[],"languages":["en"],"copyright":false,"media_type":"Text","formats":{"text/html":"https://www.gutenberg.org/ebooks/66292.html.images","application/epub+zip":"https://www.gutenberg.org/ebooks/66292.epub3.images","application/x-mobipocket-ebook":"https://www.gutenberg.org/ebooks/66292.kf8.images","text/plain; charset=us-ascii":"https://www.gutenberg.org/ebooks/66292.txt.utf-8","application/rdf+xml":"https://www.gutenberg.org/ebooks/66292.rdf","image/jpeg":"https://www.gutenberg.org/cache/epub/66292/pg66292.cover.medium.jpg","application/octet-stream":"https://www.gutenberg.org/files/66292/66292-0.zip"},"download_count":37},{"id":66382,"title":"A Girl of To-day","authors":[{"name":"Adams, Ellinor Davenport","birth_year":1858,"death_year":1915}],"translators":[],"subjects":["Charity -- Juvenile fiction","Children -- Societies and clubs -- Juvenile fiction","Families -- Juvenile fiction","Teenage girls -- Juvenile fiction"],"bookshelves":[],"languages":["en"],"copyright":false,"media_type":"Text","formats":{"text/html":"https://www.gutenberg.org/ebooks/66382.html.images","application/epub+zip":"https://www.gutenberg.org/ebooks/66382.epub3.images","application/x-mobipocket-ebook":"https://www.gutenberg.org/ebooks/66382.kf8.images","text/plain; charset=us-ascii":"https://www.gutenberg.org/ebooks/66382.txt.utf-8","application/rdf+xml":"https://www.gutenberg.org/ebooks/66382.rdf","image/jpeg":"https://www.gutenberg.org/cache/epub/66382/pg66382.cover.medium.jpg","application/octet-stream":"https://www.gutenberg.org/files/66382/66382-0.zip"},"download_count":37},{"id":66435,"title":"Eight Million Dollars From Mars!","authors":[{"name":"Marks, Winston K. (Winston Kinney)","birth_year":1915,"death_year":1979}],"translators":[],"subjects":["Criminals -- Fiction","Science fiction","Short stories","Space flight to Mars -- Fiction"],"bookshelves":[],"languages":["en"],"copyright":false,"media_type":"Text","formats":{"text/html":"https://www.gutenberg.org/ebooks/66435.html.images","application/epub+zip":"https://www.gutenberg.org/ebooks/66435.epub3.images","application/x-mobipocket-ebook":"https://www.gutenberg.org/ebooks/66435.kf8.images","text/plain; charset=us-ascii":"https://www.gutenberg.org/ebooks/66435.txt.utf-8","application/rdf+xml":"https://www.gutenberg.org/ebooks/66435.rdf","image/jpeg":"https://www.gutenberg.org/cache/epub/66435/pg66435.cover.medium.jpg","application/octet-stream":"https://www.gutenberg.org/files/66435/66435-0.zip"},"download_count":37},{"id":66722,"title":"Loco or Love","authors":[{"name":"Tuttle, W. C. (Wilbur C.)","birth_year":1883,"death_year":1969}],"translators":[],"subjects":["Harper, Ike (Fictitious character) -- Fiction","Robbery -- Fiction","Sheriffs -- Fiction","Short stories","Simpkins, Magpie (Fictitious character) -- Fiction","Western stories"],"bookshelves":[],"languages":["en"],"copyright":false,"media_type":"Text","formats":{"text/html":"https://www.gutenberg.org/ebooks/66722.html.images","application/epub+zip":"https://www.gutenberg.org/ebooks/66722.epub3.images","application/x-mobipocket-ebook":"https://www.gutenberg.org/ebooks/66722.kf8.images","text/plain; charset=us-ascii":"https://www.gutenberg.org/ebooks/66722.txt.utf-8","application/rdf+xml":"https://www.gutenberg.org/ebooks/66722.rdf","image/jpeg":"https://www.gutenberg.org/cache/epub/66722/pg66722.cover.medium.jpg","application/octet-stream":"https://www.gutenberg.org/files/66722/66722-0.zip"},"download_count":37},{"id":66819,"title":"The Sampo: A Wonder Tale of the Old North","authors":[{"name":"Baldwin, James","birth_year":1841,"death_year":1925}],"translators":[],"subjects":["Folklore -- Finland","Tales -- Finland"],"bookshelves":[],"languages":["en"],"copyright":false,"media_type":"Text","formats":{"text/html":"https://www.gutenberg.org/ebooks/66819.html.images","application/epub+zip":"https://www.gutenberg.org/ebooks/66819.epub3.images","application/x-mobipocket-ebook":"https://www.gutenberg.org/ebooks/66819.kf8.images","text/plain; charset=us-ascii":"https://www.gutenberg.org/ebooks/66819.txt.utf-8","application/rdf+xml":"https://www.gutenberg.org/ebooks/66819.rdf","image/jpeg":"https://www.gutenberg.org/cache/epub/66819/pg66819.cover.medium.jpg","application/octet-stream":"https://www.gutenberg.org/files/66819/66819-0.zip"},"download_count":37},{"id":66869,"title":"The origins of art; a psychological & sociological inquiry","authors":[{"name":"Hirn, Y. (Yrjö)","birth_year":1870,"death_year":1952}],"translators":[],"subjects":["Aesthetics","Art -- Philosophy","Art, Primitive"],"bookshelves":[],"languages":["en"],"copyright":false,"media_type":"Text","formats":{"text/html":"https://www.gutenberg.org/ebooks/66869.html.images","application/epub+zip":"https://www.gutenberg.org/ebooks/66869.epub3.images","application/x-mobipocket-ebook":"https://www.gutenberg.org/ebooks/66869.kf8.images","text/plain; charset=us-ascii":"https://www.gutenberg.org/ebooks/66869.txt.utf-8","application/rdf+xml":"https://www.gutenberg.org/ebooks/66869.rdf","image/jpeg":"https://www.gutenberg.org/cache/epub/66869/pg66869.cover.medium.jpg","application/octet-stream":"https://www.gutenberg.org/files/66869/66869-0.zip"},"download_count":37},{"id":66889,"title":"Poems by Isaac Rosenberg","authors":[{"name":"Rosenberg, Isaac","birth_year":1890,"death_year":1918}],"translators":[],"subjects":["English poetry -- 20th century","Rosenberg, Isaac, 1890-1918"],"bookshelves":[],"languages":["en"],"copyright":false,"media_type":"Text","formats":{"text/html":"https://www.gutenberg.org/ebooks/66889.html.images","application/epub+zip":"https://www.gutenberg.org/ebooks/66889.epub3.images","application/x-mobipocket-ebook":"https://www.gutenberg.org/ebooks/66889.kf8.images","text/plain; charset=us-ascii":"https://www.gutenberg.org/ebooks/66889.txt.utf-8","application/rdf+xml":"https://www.gutenberg.org/ebooks/66889.rdf","image/jpeg":"https://www.gutenberg.org/cache/epub/66889/pg66889.cover.medium.jpg","application/octet-stream":"https://www.gutenberg.org/files/66889/66889-0.zip"},"download_count":37},{"id":66900,"title":"Life and Confession of Ann Walters, the Female Murderess!!: Also the Execution of Enos G. Dudley, at Haverhill, N. H., May 23, 1849. To Which Is Added the Confession of Mary Runkle, Who Was Executed for Murder.","authors":[{"name":"Anonymous","birth_year":null,"death_year":null}],"translators":[],"subjects":["Dudley, Enos G., -1849","Runkle, Mary","Walters, Ann Smith, 1812-1844"],"bookshelves":[],"languages":["en"],"copyright":false,"media_type":"Text","formats":{"text/html":"https://www.gutenberg.org/ebooks/66900.html.images","application/epub+zip":"https://www.gutenberg.org/ebooks/66900.epub3.images","application/x-mobipocket-ebook":"https://www.gutenberg.org/ebooks/66900.kf8.images","text/plain; charset=us-ascii":"https://www.gutenberg.org/ebooks/66900.txt.utf-8","application/rdf+xml":"https://www.gutenberg.org/ebooks/66900.rdf","image/jpeg":"https://www.gutenberg.org/cache/epub/66900/pg66900.cover.medium.jpg","application/octet-stream":"https://www.gutenberg.org/files/66900/66900-0.zip"},"download_count":37},{"id":66911,"title":"Eline Vere","authors":[{"name":"Couperus, Louis","birth_year":1863,"death_year":1923}],"translators":[{"name":"Grein, Jack Thomas","birth_year":1862,"death_year":1935}],"subjects":["Hague (Netherlands) -- Fiction"],"bookshelves":[],"languages":["en"],"copyright":false,"media_type":"Text","formats":{"text/html":"https://www.gutenberg.org/ebooks/66911.html.images","application/epub+zip":"https://www.gutenberg.org/ebooks/66911.epub3.images","application/x-mobipocket-ebook":"https://www.gutenberg.org/ebooks/66911.kf8.images","text/plain; charset=us-ascii":"https://www.gutenberg.org/ebooks/66911.txt.utf-8","application/rdf+xml":"https://www.gutenberg.org/ebooks/66911.rdf","image/jpeg":"https://www.gutenberg.org/cache/epub/66911/pg66911.cover.medium.jpg","application/octet-stream":"https://www.gutenberg.org/files/66911/66911-0.zip"},"download_count":37},{"id":66973,"title":"International Thought","authors":[{"name":"Galsworthy, John","birth_year":1867,"death_year":1933}],"translators":[],"subjects":["International cooperation"],"bookshelves":[],"languages":["en"],"copyright":false,"media_type":"Text","formats":{"text/html":"https://www.gutenberg.org/ebooks/66973.html.images","application/epub+zip":"https://www.gutenberg.org/ebooks/66973.epub3.images","application/x-mobipocket-ebook":"https://www.gutenberg.org/ebooks/66973.kf8.images","text/plain; charset=us-ascii":"https://www.gutenberg.org/ebooks/66973.txt.utf-8","application/rdf+xml":"https://www.gutenberg.org/ebooks/66973.rdf","image/jpeg":"https://www.gutenberg.org/cache/epub/66973/pg66973.cover.medium.jpg","application/octet-stream":"https://www.gutenberg.org/files/66973/66973-0.zip"},"download_count":37},{"id":67077,"title":"Barbara Hale: A Doctor's Daughter","authors":[{"name":"Garis, Lilian","birth_year":1873,"death_year":1954}],"translators":[],"subjects":["Friendship -- Juvenile fiction","Girls -- Social life and customs -- Juvenile fiction","Hale, Barbara (Fictitious character) -- Juvenile fiction","Social classes -- Juvenile fiction"],"bookshelves":[],"languages":["en"],"copyright":false,"media_type":"Text","formats":{"text/html":"https://www.gutenberg.org/ebooks/67077.html.images","application/epub+zip":"https://www.gutenberg.org/ebooks/67077.epub3.images","application/x-mobipocket-ebook":"https://www.gutenberg.org/ebooks/67077.kf8.images","text/plain; charset=us-ascii":"https://www.gutenberg.org/ebooks/67077.txt.utf-8","application/rdf+xml":"https://www.gutenberg.org/ebooks/67077.rdf","image/jpeg":"https://www.gutenberg.org/cache/epub/67077/pg67077.cover.medium.jpg","application/octet-stream":"https://www.gutenberg.org/files/67077/67077-0.zip"},"download_count":37},{"id":67203,"title":"The Story of the House: Being Some Suggestions in Brickwork from the Catalogue of O. W. Ketcham","authors":[{"name":"Ketcham, Orman Wesley","birth_year":null,"death_year":null}],"translators":[],"subjects":["Architecture, Domestic","Bricks -- Catalogs"],"bookshelves":[],"languages":["en"],"copyright":false,"media_type":"Text","formats":{"text/html":"https://www.gutenberg.org/ebooks/67203.html.images","application/epub+zip":"https://www.gutenberg.org/ebooks/67203.epub3.images","application/x-mobipocket-ebook":"https://www.gutenberg.org/ebooks/67203.kf8.images","text/plain; charset=us-ascii":"https://www.gutenberg.org/ebooks/67203.txt.utf-8","application/rdf+xml":"https://www.gutenberg.org/ebooks/67203.rdf","image/jpeg":"https://www.gutenberg.org/cache/epub/67203/pg67203.cover.medium.jpg","application/octet-stream":"https://www.gutenberg.org/files/67203/67203-0.zip"},"download_count":37},{"id":67269,"title":"Against the Tide","authors":[{"name":"Bedford-Jones, H. (Henry)","birth_year":1887,"death_year":1949}],"translators":[],"subjects":["Businessmen -- Fiction","Married people -- Fiction","New York (N.Y.) -- Fiction"],"bookshelves":[],"languages":["en"],"copyright":false,"media_type":"Text","formats":{"text/html":"https://www.gutenberg.org/ebooks/67269.html.images","application/epub+zip":"https://www.gutenberg.org/ebooks/67269.epub3.images","application/x-mobipocket-ebook":"https://www.gutenberg.org/ebooks/67269.kf8.images","text/plain; charset=us-ascii":"https://www.gutenberg.org/ebooks/67269.txt.utf-8","application/rdf+xml":"https://www.gutenberg.org/ebooks/67269.rdf","image/jpeg":"https://www.gutenberg.org/cache/epub/67269/pg67269.cover.medium.jpg","application/octet-stream":"https://www.gutenberg.org/files/67269/67269-0.zip"},"download_count":37},{"id":67314,"title":"Water Reptiles of the Past and Present","authors":[{"name":"Williston, Samuel Wendell","birth_year":1851,"death_year":1918}],"translators":[],"subjects":["Aquatic reptiles","Aquatic reptiles, Fossil"],"bookshelves":[],"languages":["en"],"copyright":false,"media_type":"Text","formats":{"text/html":"https://www.gutenberg.org/ebooks/67314.html.images","application/epub+zip":"https://www.gutenberg.org/ebooks/67314.epub3.images","application/x-mobipocket-ebook":"https://www.gutenberg.org/ebooks/67314.kf8.images","text/plain; charset=us-ascii":"https://www.gutenberg.org/ebooks/67314.txt.utf-8","application/rdf+xml":"https://www.gutenberg.org/ebooks/67314.rdf","image/jpeg":"https://www.gutenberg.org/cache/epub/67314/pg67314.cover.medium.jpg","application/octet-stream":"https://www.gutenberg.org/files/67314/67314-0.zip"},"download_count":37},{"id":67341,"title":"Traumerei","authors":[{"name":"Beaumont, Charles","birth_year":1929,"death_year":1967}],"translators":[],"subjects":["Dreams -- Fiction","Executions and executioners -- Fiction","Science fiction","Short stories"],"bookshelves":[],"languages":["en"],"copyright":false,"media_type":"Text","formats":{"text/html":"https://www.gutenberg.org/ebooks/67341.html.images","application/epub+zip":"https://www.gutenberg.org/ebooks/67341.epub3.images","application/x-mobipocket-ebook":"https://www.gutenberg.org/ebooks/67341.kf8.images","text/plain; charset=us-ascii":"https://www.gutenberg.org/ebooks/67341.txt.utf-8","application/rdf+xml":"https://www.gutenberg.org/ebooks/67341.rdf","image/jpeg":"https://www.gutenberg.org/cache/epub/67341/pg67341.cover.medium.jpg","application/octet-stream":"https://www.gutenberg.org/files/67341/67341-0.zip"},"download_count":37},{"id":67514,"title":"The House of the Arrow","authors":[{"name":"Mason, A. E. W. (Alfred Edward Woodley)","birth_year":1865,"death_year":1948}],"translators":[],"subjects":["British -- France -- Fiction","Detective and mystery stories","Inheritance and succession -- Fiction","Lawyers -- Fiction","Murder -- Investigation -- Fiction"],"bookshelves":[],"languages":["en"],"copyright":false,"media_type":"Text","formats":{"text/html":"https://www.gutenberg.org/ebooks/67514.html.images","application/epub+zip":"https://www.gutenberg.org/ebooks/67514.epub3.images","application/x-mobipocket-ebook":"https://www.gutenberg.org/ebooks/67514.kf8.images","text/plain; charset=us-ascii":"https://www.gutenberg.org/ebooks/67514.txt.utf-8","application/rdf+xml":"https://www.gutenberg.org/ebooks/67514.rdf","image/jpeg":"https://www.gutenberg.org/cache/epub/67514/pg67514.cover.medium.jpg","application/octet-stream":"https://www.gutenberg.org/files/67514/67514-0.zip"},"download_count":37},{"id":67571,"title":"The Black Tiger","authors":[{"name":"O'Connor, Patrick","birth_year":1915,"death_year":1983}],"translators":[],"subjects":["Automobile racing -- Juvenile fiction"],"bookshelves":[],"languages":["en"],"copyright":false,"media_type":"Text","formats":{"text/html":"https://www.gutenberg.org/ebooks/67571.html.images","application/epub+zip":"https://www.gutenberg.org/ebooks/67571.epub3.images","application/x-mobipocket-ebook":"https://www.gutenberg.org/ebooks/67571.kf8.images","text/plain; charset=us-ascii":"https://www.gutenberg.org/ebooks/67571.txt.utf-8","application/rdf+xml":"https://www.gutenberg.org/ebooks/67571.rdf","image/jpeg":"https://www.gutenberg.org/cache/epub/67571/pg67571.cover.medium.jpg","application/octet-stream":"https://www.gutenberg.org/files/67571/67571-0.zip"},"download_count":37},{"id":67707,"title":"The History of the Manners and Customs of Ancient Greece, Volume 3 (of 3)","authors":[{"name":"St. John, James Augustus","birth_year":1795,"death_year":1875}],"translators":[],"subjects":["Greece -- Social life and customs"],"bookshelves":[],"languages":["en"],"copyright":false,"media_type":"Text","formats":{"text/html":"https://www.gutenberg.org/ebooks/67707.html.images","application/epub+zip":"https://www.gutenberg.org/ebooks/67707.epub3.images","application/x-mobipocket-ebook":"https://www.gutenberg.org/ebooks/67707.kf8.images","text/plain; charset=us-ascii":"https://www.gutenberg.org/ebooks/67707.txt.utf-8","application/rdf+xml":"https://www.gutenberg.org/ebooks/67707.rdf","image/jpeg":"https://www.gutenberg.org/cache/epub/67707/pg67707.cover.medium.jpg","application/octet-stream":"https://www.gutenberg.org/files/67707/67707-0.zip"},"download_count":37},{"id":67796,"title":"Watson's Magazine, Vol. IV, No. 1, March, 1906","authors":[{"name":"Various","birth_year":null,"death_year":null}],"translators":[],"subjects":["United States -- Politics and government -- Periodicals"],"bookshelves":[],"languages":["en"],"copyright":false,"media_type":"Text","formats":{"text/html":"https://www.gutenberg.org/ebooks/67796.html.images","application/epub+zip":"https://www.gutenberg.org/ebooks/67796.epub3.images","application/x-mobipocket-ebook":"https://www.gutenberg.org/ebooks/67796.kf8.images","text/plain; charset=us-ascii":"https://www.gutenberg.org/ebooks/67796.txt.utf-8","application/rdf+xml":"https://www.gutenberg.org/ebooks/67796.rdf","image/jpeg":"https://www.gutenberg.org/cache/epub/67796/pg67796.cover.medium.jpg","application/octet-stream":"https://www.gutenberg.org/files/67796/67796-0.zip"},"download_count":37},{"id":67825,"title":"Views and Opinions","authors":[{"name":"Ouida","birth_year":1839,"death_year":1908}],"translators":[],"subjects":["English essays -- 19th century"],"bookshelves":[],"languages":["en"],"copyright":false,"media_type":"Text","formats":{"text/html":"https://www.gutenberg.org/ebooks/67825.html.images","application/epub+zip":"https://www.gutenberg.org/ebooks/67825.epub3.images","application/x-mobipocket-ebook":"https://www.gutenberg.org/ebooks/67825.kf8.images","text/plain; charset=us-ascii":"https://www.gutenberg.org/ebooks/67825.txt.utf-8","application/rdf+xml":"https://www.gutenberg.org/ebooks/67825.rdf","image/jpeg":"https://www.gutenberg.org/cache/epub/67825/pg67825.cover.medium.jpg","application/octet-stream":"https://www.gutenberg.org/files/67825/67825-0.zip"},"download_count":37},{"id":67864,"title":"The Story of Sir Francis Drake","authors":[{"name":"Elton, Letitia MacColl","birth_year":null,"death_year":null}],"translators":[],"subjects":["Admirals -- Great Britain -- Biography -- Juvenile literature","Drake, Francis, approximately 1540-1596 -- Juvenile literature","Explorers -- Great Britain -- Biography -- Juvenile literature","Great Britain -- History -- Elizabeth, 1558-1603 -- Biography -- Juvenile literature","Great Britain -- History, Naval -- Tudors, 1485-1603 -- Biography -- Juvenile literature"],"bookshelves":[],"languages":["en"],"copyright":false,"media_type":"Text","formats":{"text/html":"https://www.gutenberg.org/ebooks/67864.html.images","application/epub+zip":"https://www.gutenberg.org/ebooks/67864.epub3.images","application/x-mobipocket-ebook":"https://www.gutenberg.org/ebooks/67864.kf8.images","text/plain; charset=us-ascii":"https://www.gutenberg.org/ebooks/67864.txt.utf-8","application/rdf+xml":"https://www.gutenberg.org/ebooks/67864.rdf","image/jpeg":"https://www.gutenberg.org/cache/epub/67864/pg67864.cover.medium.jpg","application/octet-stream":"https://www.gutenberg.org/files/67864/67864-0.zip"},"download_count":37},{"id":67984,"title":"Greek Lands and Letters","authors":[{"name":"Allinson, Anne C. E. (Anne Crosby Emery)","birth_year":1871,"death_year":1932},{"name":"Allinson, Francis Greenleaf","birth_year":1856,"death_year":1931}],"translators":[],"subjects":["Greece -- Description and travel","Greek literature -- History and criticism"],"bookshelves":[],"languages":["en"],"copyright":false,"media_type":"Text","formats":{"text/html":"https://www.gutenberg.org/ebooks/67984.html.images","application/epub+zip":"https://www.gutenberg.org/ebooks/67984.epub3.images","application/x-mobipocket-ebook":"https://www.gutenberg.org/ebooks/67984.kf8.images","text/plain; charset=us-ascii":"https://www.gutenberg.org/ebooks/67984.txt.utf-8","application/rdf+xml":"https://www.gutenberg.org/ebooks/67984.rdf","image/jpeg":"https://www.gutenberg.org/cache/epub/67984/pg67984.cover.medium.jpg","application/octet-stream":"https://www.gutenberg.org/files/67984/67984-0.zip"},"download_count":37},{"id":68027,"title":"Graham's Magazine, Vol. XXI, No. 6, December 1842","authors":[{"name":"Various","birth_year":null,"death_year":null}],"translators":[],"subjects":["Literature -- Periodicals","Literature, Modern -- 19th century -- Periodicals"],"bookshelves":[],"languages":["en"],"copyright":false,"media_type":"Text","formats":{"text/html":"https://www.gutenberg.org/ebooks/68027.html.images","application/epub+zip":"https://www.gutenberg.org/ebooks/68027.epub3.images","application/x-mobipocket-ebook":"https://www.gutenberg.org/ebooks/68027.kf8.images","text/plain; charset=us-ascii":"https://www.gutenberg.org/ebooks/68027.txt.utf-8","application/rdf+xml":"https://www.gutenberg.org/ebooks/68027.rdf","image/jpeg":"https://www.gutenberg.org/cache/epub/68027/pg68027.cover.medium.jpg","application/octet-stream":"https://www.gutenberg.org/files/68027/68027-0.zip"},"download_count":37},{"id":68038,"title":"With our army in Flanders","authors":[{"name":"Williams, Valentine","birth_year":1883,"death_year":1946}],"translators":[],"subjects":["World War, 1914-1918 -- Campaigns -- Belgium"],"bookshelves":[],"languages":["en"],"copyright":false,"media_type":"Text","formats":{"text/html":"https://www.gutenberg.org/ebooks/68038.html.images","application/epub+zip":"https://www.gutenberg.org/ebooks/68038.epub3.images","application/x-mobipocket-ebook":"https://www.gutenberg.org/ebooks/68038.kf8.images","text/plain; charset=us-ascii":"https://www.gutenberg.org/ebooks/68038.txt.utf-8","application/rdf+xml":"https://www.gutenberg.org/ebooks/68038.rdf","image/jpeg":"https://www.gutenberg.org/cache/epub/68038/pg68038.cover.medium.jpg","application/octet-stream":"https://www.gutenberg.org/files/68038/68038-0.zip"},"download_count":37},{"id":68176,"title":"Angola and the River Congo, vol. 2","authors":[{"name":"Monteiro, Joachim John","birth_year":1833,"death_year":1878}],"translators":[],"subjects":["Angola -- Description and travel","Angola -- Social life and customs -- 19th century","Congo River -- Description and travel","Monteiro, Joachim John -- Travel -- Angola"],"bookshelves":[],"languages":["en"],"copyright":false,"media_type":"Text","formats":{"text/html":"https://www.gutenberg.org/ebooks/68176.html.images","application/epub+zip":"https://www.gutenberg.org/ebooks/68176.epub3.images","application/x-mobipocket-ebook":"https://www.gutenberg.org/ebooks/68176.kf8.images","text/plain; charset=us-ascii":"https://www.gutenberg.org/ebooks/68176.txt.utf-8","application/rdf+xml":"https://www.gutenberg.org/ebooks/68176.rdf","image/jpeg":"https://www.gutenberg.org/cache/epub/68176/pg68176.cover.medium.jpg","application/octet-stream":"https://www.gutenberg.org/files/68176/68176-0.zip"},"download_count":37},{"id":68224,"title":"Synthetic resins and their raw materials: A survey of the types and uses of synthetic resins, the organization of the industry, and the trade in resins and raw materials, with particular references to factors essential to tariff consideration. Under the general provisions of section 332, title III, part II, Tariff act of 1930.","authors":[{"name":"United States Tariff Commission","birth_year":null,"death_year":null}],"translators":[],"subjects":["Gums and resins industry","Plastics"],"bookshelves":[],"languages":["en"],"copyright":false,"media_type":"Text","formats":{"text/html":"https://www.gutenberg.org/ebooks/68224.html.images","application/epub+zip":"https://www.gutenberg.org/ebooks/68224.epub3.images","application/x-mobipocket-ebook":"https://www.gutenberg.org/ebooks/68224.kf8.images","text/plain; charset=us-ascii":"https://www.gutenberg.org/ebooks/68224.txt.utf-8","application/rdf+xml":"https://www.gutenberg.org/ebooks/68224.rdf","image/jpeg":"https://www.gutenberg.org/cache/epub/68224/pg68224.cover.medium.jpg","application/octet-stream":"https://www.gutenberg.org/files/68224/68224-0.zip"},"download_count":37},{"id":68276,"title":"Slavery and the slave trade in Africa","authors":[{"name":"Stanley, Henry M. (Henry Morton)","birth_year":1841,"death_year":1904}],"translators":[],"subjects":["Slave trade -- Africa","Slavery -- Africa"],"bookshelves":[],"languages":["en"],"copyright":false,"media_type":"Text","formats":{"text/html":"https://www.gutenberg.org/ebooks/68276.html.images","application/epub+zip":"https://www.gutenberg.org/ebooks/68276.epub3.images","application/x-mobipocket-ebook":"https://www.gutenberg.org/ebooks/68276.kf8.images","text/plain; charset=us-ascii":"https://www.gutenberg.org/ebooks/68276.txt.utf-8","application/rdf+xml":"https://www.gutenberg.org/ebooks/68276.rdf","image/jpeg":"https://www.gutenberg.org/cache/epub/68276/pg68276.cover.medium.jpg","application/octet-stream":"https://www.gutenberg.org/files/68276/68276-0.zip"},"download_count":37},{"id":68378,"title":"Way of the gods","authors":[{"name":"Kuttner, Henry","birth_year":1915,"death_year":1958}],"translators":[],"subjects":["Human evolution -- Fiction","Life on other planets -- Fiction","Mutation (Biology) -- Fiction","Science fiction"],"bookshelves":[],"languages":["en"],"copyright":false,"media_type":"Text","formats":{"text/html":"https://www.gutenberg.org/ebooks/68378.html.images","application/epub+zip":"https://www.gutenberg.org/ebooks/68378.epub3.images","application/x-mobipocket-ebook":"https://www.gutenberg.org/ebooks/68378.kf8.images","text/plain; charset=us-ascii":"https://www.gutenberg.org/ebooks/68378.txt.utf-8","application/rdf+xml":"https://www.gutenberg.org/ebooks/68378.rdf","image/jpeg":"https://www.gutenberg.org/cache/epub/68378/pg68378.cover.medium.jpg","application/octet-stream":"https://www.gutenberg.org/files/68378/68378-0.zip"},"download_count":37},{"id":68391,"title":"Round the year with the stars: The chief beauties of the starry heavens as seen with the naked eye","authors":[{"name":"Serviss, Garrett Putman","birth_year":1851,"death_year":1929}],"translators":[],"subjects":["Astronomy -- Popular works"],"bookshelves":[],"languages":["en"],"copyright":false,"media_type":"Text","formats":{"text/html":"https://www.gutenberg.org/ebooks/68391.html.images","application/epub+zip":"https://www.gutenberg.org/ebooks/68391.epub3.images","application/x-mobipocket-ebook":"https://www.gutenberg.org/ebooks/68391.kf8.images","text/plain; charset=us-ascii":"https://www.gutenberg.org/ebooks/68391.txt.utf-8","application/rdf+xml":"https://www.gutenberg.org/ebooks/68391.rdf","image/jpeg":"https://www.gutenberg.org/cache/epub/68391/pg68391.cover.medium.jpg","application/octet-stream":"https://www.gutenberg.org/files/68391/68391-0.zip"},"download_count":37},{"id":68410,"title":"Deny the Slake","authors":[{"name":"Wilson, Richard","birth_year":1920,"death_year":1987}],"translators":[],"subjects":["Androids -- Fiction","Outer space -- Exploration -- Fiction","Science fiction","Short stories"],"bookshelves":[],"languages":["en"],"copyright":false,"media_type":"Text","formats":{"text/html":"https://www.gutenberg.org/ebooks/68410.html.images","application/epub+zip":"https://www.gutenberg.org/ebooks/68410.epub3.images","application/x-mobipocket-ebook":"https://www.gutenberg.org/ebooks/68410.kf8.images","text/plain; charset=us-ascii":"https://www.gutenberg.org/ebooks/68410.txt.utf-8","application/rdf+xml":"https://www.gutenberg.org/ebooks/68410.rdf","image/jpeg":"https://www.gutenberg.org/cache/epub/68410/pg68410.cover.medium.jpg","application/octet-stream":"https://www.gutenberg.org/files/68410/68410-0.zip"},"download_count":37}]}