{"count":58808,"next":"http://129.241.150.113:8000/books/?languages=en&page=1729","previous":"http://129.241.150.113:8000/books/?languages=en&page=1727","results":[{"id":71133,"title":"Won at last : $b or, Mrs. Briscoe's nephews","authors":[{"name":"Giberne, Agnes","birth_year":1845,"death_year":1939}],"translators":[],"subjects":["Christian life -- Juvenile fiction","Conduct of life -- Juvenile fiction","Cousins -- Juvenile fiction","Domestic fiction","England -- Juvenile fiction","Poor families -- Juvenile fiction","Wills -- Juvenile fiction"],"bookshelves":[],"languages":["en"],"copyright":false,"media_type":"Text","formats":{"text/html":"https://www.gutenberg.org/ebooks/71133.html.images","application/epub+zip":"https://www.gutenberg.org/ebooks/71133.epub3.images","application/x-mobipocket-ebook":"https://www.gutenberg.org/ebooks/71133.kf8.images","text/plain; charset=us-ascii":"https://www.gutenberg.org/ebooks/71133.txt.utf-8","application/rdf+xml":"https://www.gutenberg.org/ebooks/71133.rdf","image/jpeg":"https://www.gutenberg.org/cache/epub/71133/pg71133.cover.medium.jpg","application/octet-stream":"https://www.gutenberg.org/files/71133/71133-0.zip"},"download_count":17},{"id":71144,"title":"Robert Merry's Museum, Vol. VIII, July to December, 1844","authors":[{"name":"Various","birth_year":null,"death_year":null}],"translators":[],"subjects":["Children's literature -- Periodicals"],"bookshelves":[],"languages":["en"],"copyright":false,"media_type":"Text","formats":{"text/html":"https://www.gutenberg.org/ebooks/71144.html.images","application/epub+zip":"https://www.gutenberg.org/ebooks/71144.epub3.images","application/x-mobipocket-ebook":"https://www.gutenberg.org/ebooks/71144.kf8.images","text/plain; charset=us-ascii":"https://www.gutenberg.org/ebooks/71144.txt.utf-8","application/rdf+xml":"https://www.gutenberg.org/ebooks/71144.rdf","image/jpeg":"https://www.gutenberg.org/cache/epub/71144/pg71144.cover.medium.jpg","application/octet-stream":"https://www.gutenberg.org/files/71144/71144-0.zip"},"download_count":17},{"id":71165,"title":"Lady Maclairn, the victim of villany : $b A novel, volume 2 (of 4)","authors":[{"name":"Hunter, Mrs. (Rachel)","birth_year":1754,"death_year":1813}],"translators":[],"subjects":["English fiction"],"bookshelves":[],"languages":["en"],"copyright":false,"media_type":"Text","formats":{"text/html":"https://www.gutenberg.org/ebooks/71165.html.images","application/epub+zip":"https://www.gutenberg.org/ebooks/71165.epub3.images","application/x-mobipocket-ebook":"https://www.gutenberg.org/ebooks/71165.kf8.images","text/plain; charset=us-ascii":"https://www.gutenberg.org/ebooks/71165.txt.utf-8","application/rdf+xml":"https://www.gutenberg.org/ebooks/71165.rdf","image/jpeg":"https://www.gutenberg.org/cache/epub/71165/pg71165.cover.medium.jpg","application/octet-stream":"https://www.gutenberg.org/files/71165/71165-0.zip"},"download_count":17},{"id":71190,"title":"Brought out of peril","authors":[{"name":"Leslie, Emma","birth_year":1838,"death_year":1909}],"translators":[],"subjects":["Conduct of life -- Juvenile fiction","England -- Juvenile fiction","Families -- Juvenile fiction","Household employees -- Juvenile fiction","Teenage girls -- Juvenile fiction"],"bookshelves":[],"languages":["en"],"copyright":false,"media_type":"Text","formats":{"text/html":"https://www.gutenberg.org/ebooks/71190.html.images","application/epub+zip":"https://www.gutenberg.org/ebooks/71190.epub3.images","application/x-mobipocket-ebook":"https://www.gutenberg.org/ebooks/71190.kf8.images","text/plain; charset=us-ascii":"https://www.gutenberg.org/ebooks/71190.txt.utf-8","application/rdf+xml":"https://www.gutenberg.org/ebooks/71190.rdf","image/jpeg":"https://www.gutenberg.org/cache/epub/71190/pg71190.cover.medium.jpg","application/octet-stream":"https://www.gutenberg.org/files/71190/71190-0.zip"},"download_count":17},{"id":71377,"title":"Maurice and the bay mare","authors":[{"name":"Knibbs, Henry Herbert","birth_year":1874,"death_year":1945}],"translators":[],"subjects":["Horsemen and horsewomen -- Fiction","Horses -- Fiction","Short stories"],"bookshelves":[],"languages":["en"],"copyright":false,"media_type":"Text","formats":{"text/html":"https://www.gutenberg.org/ebooks/71377.html.images","application/epub+zip":"https://www.gutenberg.org/ebooks/71377.epub3.images","application/x-mobipocket-ebook":"https://www.gutenberg.org/ebooks/71377.kf8.images","text/plain; charset=us-ascii":"https://www.gutenberg.org/ebooks/71377.txt.utf-8","application/rdf+xml":"https://www.gutenberg.org/ebooks/71377.rdf","image/jpeg":"https://www.gutenberg.org/cache/epub/71377/pg71377.cover.medium.jpg","application/octet-stream":"https://www.gutenberg.org/files/71377/71377-h.zip"},"download_count":17},{"id":71477,"title":"Brave Bessie Westland : $b A story of Quaker persecution","authors":[{"name":"Leslie, Emma","birth_year":1838,"death_year":1909}],"translators":[],"subjects":["Great Britain -- History -- Charles II, 1660-1685 -- Fiction","Historical fiction","Quakers -- Fiction"],"bookshelves":[],"languages":["en"],"copyright":false,"media_type":"Text","formats":{"text/html":"https://www.gutenberg.org/ebooks/71477.html.images","application/epub+zip":"https://www.gutenberg.org/ebooks/71477.epub3.images","application/x-mobipocket-ebook":"https://www.gutenberg.org/ebooks/71477.kf8.images","text/plain; charset=us-ascii":"https://www.gutenberg.org/ebooks/71477.txt.utf-8","application/rdf+xml":"https://www.gutenberg.org/ebooks/71477.rdf","image/jpeg":"https://www.gutenberg.org/cache/epub/71477/pg71477.cover.medium.jpg","application/octet-stream":"https://www.gutenberg.org/files/71477/71477-h.zip"},"download_count":17},{"id":71495,"title":"The Ohio Naturalist, Vol. I, No. 7, May, 1901","authors":[{"name":"Ohio State University. Biological Club","birth_year":null,"death_year":null}],"translators":[],"subjects":["Natural history -- Ohio -- Periodicals","Natural history -- Periodicals","Science -- Periodicals"],"bookshelves":[],"languages":["en"],"copyright":false,"media_type":"Text","formats":{"text/html":"https://www.gutenberg.org/ebooks/71495.html.images","application/epub+zip":"https://www.gutenberg.org/ebooks/71495.epub3.images","application/x-mobipocket-ebook":"https://www.gutenberg.org/ebooks/71495.kf8.images","text/plain; charset=us-ascii":"https://www.gutenberg.org/ebooks/71495.txt.utf-8","application/rdf+xml":"https://www.gutenberg.org/ebooks/71495.rdf","image/jpeg":"https://www.gutenberg.org/cache/epub/71495/pg71495.cover.medium.jpg","application/octet-stream":"https://www.gutenberg.org/files/71495/71495-h.zip"},"download_count":17},{"id":1102,"title":"The Third Part of King Henry the Sixth","authors":[{"name":"Shakespeare, William","birth_year":1564,"death_year":1616}],"translators":[],"subjects":["Great Britain -- History -- Henry VI, 1422-1461 -- Drama","Great Britain -- Kings and rulers -- Drama","Henry VI, King of England, 1421-1471 -- Drama","Historical drama"],"bookshelves":[],"languages":["en"],"copyright":false,"media_type":"Text","formats":{"text/html":"https://www.gutenberg.org/ebooks/1102.html.images","application/epub+zip":"https://www.gutenberg.org/ebooks/1102.epub3.images","application/x-mobipocket-ebook":"https://www.gutenberg.org/ebooks/1102.kf8.images","text/plain; charset=us-ascii":"https://www.gutenberg.org/ebooks/1102.txt.utf-8","application/rdf+xml":"https://www.gutenberg.org/ebooks/1102.rdf","image/jpeg":"https://www.gutenberg.org/cache/epub/1102/pg1102.cover.medium.jpg","application/octet-stream":"https://www.gutenberg.org/cache/epub/1102/pg1102-h.zip"},"download_count":16},{"id":1166,"title":"The Second Book of Modern Verse: A Selection from the Work of Contemporaneous American Poets","authors":[],"translators":[],"subjects":["American poetry -- 20th century"],"bookshelves":[],"languages":["en"],"copyright":false,"media_type":"Text","formats":{"text/html":"https://www.gutenberg.org/ebooks/1166.html.images","application/epub+zip":"https://www.gutenberg.org/ebooks/1166.epub3.images","application/x-mobipocket-ebook":"https://www.gutenberg.org/ebooks/1166.kf8.images","text/plain; charset=us-ascii":"https://www.gutenberg.org/ebooks/1166.txt.utf-8","application/rdf+xml":"https://www.gutenberg.org/ebooks/1166.rdf","image/jpeg":"https://www.gutenberg.org/cache/epub/1166/pg1166.cover.medium.jpg","application/octet-stream":"https://www.gutenberg.org/cache/epub/1166/pg1166-h.zip"},"download_count":16},{"id":1499,"title":"Beacon Lights of History, Volume 3 part 2: Renaissance and Reformation","authors":[{"name":"Lord, John","birth_year":1810,"death_year":1894}],"translators":[],"subjects":["History"],"bookshelves":[],"languages":["en"],"copyright":false,"media_type":"Text","formats":{"text/html":"https://www.gutenberg.org/ebooks/1499.html.images","application/epub+zip":"https://www.gutenberg.org/ebooks/1499.epub3.images","application/x-mobipocket-ebook":"https://www.gutenberg.org/ebooks/1499.kf8.images","text/plain; charset=us-ascii":"https://www.gutenberg.org/ebooks/1499.txt.utf-8","application/rdf+xml":"https://www.gutenberg.org/ebooks/1499.rdf","image/jpeg":"https://www.gutenberg.org/cache/epub/1499/pg1499.cover.medium.jpg","application/octet-stream":"https://www.gutenberg.org/cache/epub/1499/pg1499-h.zip"},"download_count":16},{"id":2008,"title":"Mazelli, and Other Poems","authors":[{"name":"Sands, George W.","birth_year":null,"death_year":1874}],"translators":[],"subjects":["Catoctin Mountain Region (Md.) -- Poetry","Indians of North America -- Maryland -- Poetry"],"bookshelves":[],"languages":["en"],"copyright":false,"media_type":"Text","formats":{"text/html":"https://www.gutenberg.org/ebooks/2008.html.images","text/html; charset=us-ascii":"https://www.gutenberg.org/files/2008/2008-h/2008-h.htm","application/epub+zip":"https://www.gutenberg.org/ebooks/2008.epub3.images","application/x-mobipocket-ebook":"https://www.gutenberg.org/ebooks/2008.kf8.images","text/plain; charset=us-ascii":"https://www.gutenberg.org/ebooks/2008.txt.utf-8","application/rdf+xml":"https://www.gutenberg.org/ebooks/2008.rdf","image/jpeg":"https://www.gutenberg.org/cache/epub/2008/pg2008.cover.medium.jpg","application/octet-stream":"https://www.gutenberg.org/cache/epub/2008/pg2008-h.zip"},"download_count":16},{"id":2128,"title":"Narratives of New Netherland, 1609-1664","authors":[],"translators":[],"subjects":["New York (State) -- History -- Colonial period, ca. 1600-1775 -- Sources"],"bookshelves":["United States"],"languages":["en"],"copyright":false,"media_type":"Text","formats":{"text/html":"https://www.gutenberg.org/ebooks/2128.html.images","text/html; charset=iso-8859-1":"https://www.gutenberg.org/files/2128/2128-h/2128-h.htm","application/epub+zip":"https://www.gutenberg.org/ebooks/2128.epub3.images","application/x-mobipocket-ebook":"https://www.gutenberg.org/ebooks/2128.kf8.images","text/plain; charset=us-ascii":"https://www.gutenberg.org/ebooks/2128.txt.utf-8","application/rdf+xml":"https://www.gutenberg.org/ebooks/2128.rdf","image/jpeg":"https://www.gutenberg.org/cache/epub/2128/pg2128.cover.medium.jpg","application/octet-stream":"https://www.gutenberg.org/cache/epub/2128/pg2128-h.zip"},"download_count":16},{"id":2278,"title":"Condensed Novels: New Burlesques","authors":[{"name":"Harte, Bret","birth_year":1836,"death_year":1902}],"translators":[],"subjects":["Burlesques","Parodies","Short stories, American"],"bookshelves":[],"languages":["en"],"copyright":false,"media_type":"Text","formats":{"text/html":"https://www.gutenberg.org/ebooks/2278.html.images","text/html; charset=iso-8859-1":"https://www.gutenberg.org/files/2278/2278-h/2278-h.htm","application/epub+zip":"https://www.gutenberg.org/ebooks/2278.epub3.images","application/x-mobipocket-ebook":"https://www.gutenberg.org/ebooks/2278.kf8.images","text/plain; charset=us-ascii":"https://www.gutenberg.org/ebooks/2278.txt.utf-8","application/rdf+xml":"https://www.gutenberg.org/ebooks/2278.rdf","image/jpeg":"https://www.gutenberg.org/cache/epub/2278/pg2278.cover.medium.jpg","application/octet-stream":"https://www.gutenberg.org/cache/epub/2278/pg2278-h.zip"},"download_count":16},{"id":2282,"title":"Tales for Fifteen; Or, Imagination and Heart","authors":[{"name":"Cooper, James Fenimore","birth_year":1789,"death_year":1851}],"translators":[],"subjects":["Girls -- Conduct of life -- Juvenile fiction","New York (N.Y.) -- Juvenile fiction"],"bookshelves":[],"languages":["en"],"copyright":false,"media_type":"Text","formats":{"text/html":"https://www.gutenberg.org/ebooks/2282.html.images","application/epub+zip":"https://www.gutenberg.org/ebooks/2282.epub3.images","application/x-mobipocket-ebook":"https://www.gutenberg.org/ebooks/2282.kf8.images","text/plain; charset=us-ascii":"https://www.gutenberg.org/ebooks/2282.txt.utf-8","application/rdf+xml":"https://www.gutenberg.org/ebooks/2282.rdf","image/jpeg":"https://www.gutenberg.org/cache/epub/2282/pg2282.cover.medium.jpg","application/octet-stream":"https://www.gutenberg.org/cache/epub/2282/pg2282-h.zip"},"download_count":16},{"id":2357,"title":"Great Jehoshaphat and Gully Dirt!","authors":[{"name":"Smith, Jewell Ellen","birth_year":1915,"death_year":1998}],"translators":[],"subjects":["American fiction -- 20th century"],"bookshelves":[],"languages":["en"],"copyright":true,"media_type":"Text","formats":{"text/html":"https://www.gutenberg.org/ebooks/2357.html.images","text/html; charset=utf-8":"https://www.gutenberg.org/files/2357/2357-h/2357-h.htm","application/epub+zip":"https://www.gutenberg.org/ebooks/2357.epub3.images","application/x-mobipocket-ebook":"https://www.gutenberg.org/ebooks/2357.kf8.images","text/plain; charset=us-ascii":"https://www.gutenberg.org/ebooks/2357.txt.utf-8","text/plain; charset=utf-8":"https://www.gutenberg.org/files/2357/2357-0.txt","application/rdf+xml":"https://www.gutenberg.org/ebooks/2357.rdf","image/jpeg":"https://www.gutenberg.org/cache/epub/2357/pg2357.cover.medium.jpg","application/octet-stream":"https://www.gutenberg.org/files/2357/2357.zip"},"download_count":16},{"id":2379,"title":"Chastelard, a Tragedy","authors":[{"name":"Swinburne, Algernon Charles","birth_year":1837,"death_year":1909}],"translators":[],"subjects":["Chastelard, Pierre de Bocosel de, 1540-1562 -- Drama","Mary, Queen of Scots, 1542-1587 -- Drama","Tragedies"],"bookshelves":[],"languages":["en"],"copyright":false,"media_type":"Text","formats":{"text/html":"https://www.gutenberg.org/ebooks/2379.html.images","application/epub+zip":"https://www.gutenberg.org/ebooks/2379.epub3.images","application/x-mobipocket-ebook":"https://www.gutenberg.org/ebooks/2379.kf8.images","text/plain; charset=us-ascii":"https://www.gutenberg.org/ebooks/2379.txt.utf-8","application/rdf+xml":"https://www.gutenberg.org/ebooks/2379.rdf","image/jpeg":"https://www.gutenberg.org/cache/epub/2379/pg2379.cover.medium.jpg","application/octet-stream":"https://www.gutenberg.org/cache/epub/2379/pg2379-h.zip"},"download_count":16},{"id":2494,"title":"For Greater Things: The Story of Saint Stanislaus Kostka","authors":[{"name":"Kane, William T. (William Terence)","birth_year":1880,"death_year":1946}],"translators":[],"subjects":["Kostka, Stanislas, Saint, 1550-1568"],"bookshelves":[],"languages":["en"],"copyright":false,"media_type":"Text","formats":{"text/html":"https://www.gutenberg.org/ebooks/2494.html.images","application/epub+zip":"https://www.gutenberg.org/ebooks/2494.epub3.images","application/x-mobipocket-ebook":"https://www.gutenberg.org/ebooks/2494.kf8.images","text/plain; charset=us-ascii":"https://www.gutenberg.org/ebooks/2494.txt.utf-8","application/rdf+xml":"https://www.gutenberg.org/ebooks/2494.rdf","image/jpeg":"https://www.gutenberg.org/cache/epub/2494/pg2494.cover.medium.jpg","application/octet-stream":"https://www.gutenberg.org/cache/epub/2494/pg2494-h.zip"},"download_count":16},{"id":2544,"title":"From Sand Hill to Pine","authors":[{"name":"Harte, Bret","birth_year":1836,"death_year":1902}],"translators":[],"subjects":["American fiction -- 19th century","Short stories"],"bookshelves":[],"languages":["en"],"copyright":false,"media_type":"Text","formats":{"text/html":"https://www.gutenberg.org/ebooks/2544.html.images","text/html; charset=utf-8":"https://www.gutenberg.org/files/2544/2544-h/2544-h.htm","application/epub+zip":"https://www.gutenberg.org/ebooks/2544.epub3.images","application/x-mobipocket-ebook":"https://www.gutenberg.org/ebooks/2544.kf8.images","text/plain; charset=us-ascii":"https://www.gutenberg.org/ebooks/2544.txt.utf-8","text/plain; charset=utf-8":"https://www.gutenberg.org/files/2544/2544-0.txt","application/rdf+xml":"https://www.gutenberg.org/ebooks/2544.rdf","image/jpeg":"https://www.gutenberg.org/cache/epub/2544/pg2544.cover.medium.jpg","application/octet-stream":"https://www.gutenberg.org/cache/epub/2544/pg2544-h.zip"},"download_count":16},{"id":2672,"title":"The Complete Writings of Charles Dudley Warner — Volume 2","authors":[{"name":"Warner, Charles Dudley","birth_year":1829,"death_year":1900}],"translators":[],"subjects":["Europe -- Description and travel"],"bookshelves":[],"languages":["en"],"copyright":false,"media_type":"Text","formats":{"text/html":"https://www.gutenberg.org/ebooks/2672.html.images","application/epub+zip":"https://www.gutenberg.org/ebooks/2672.epub3.images","application/x-mobipocket-ebook":"https://www.gutenberg.org/ebooks/2672.kf8.images","text/plain; charset=us-ascii":"https://www.gutenberg.org/ebooks/2672.txt.utf-8","application/rdf+xml":"https://www.gutenberg.org/ebooks/2672.rdf","image/jpeg":"https://www.gutenberg.org/cache/epub/2672/pg2672.cover.medium.jpg","application/octet-stream":"https://www.gutenberg.org/cache/epub/2672/pg2672-h.zip"},"download_count":16},{"id":3273,"title":"The Complete Works of Artemus Ward — Part 3: Stories and Romances","authors":[{"name":"Ward, Artemus","birth_year":1834,"death_year":1867}],"translators":[],"subjects":["American wit and humor"],"bookshelves":[],"languages":["en"],"copyright":false,"media_type":"Text","formats":{"text/html":"https://www.gutenberg.org/ebooks/3273.html.images","application/epub+zip":"https://www.gutenberg.org/ebooks/3273.epub3.images","application/x-mobipocket-ebook":"https://www.gutenberg.org/ebooks/3273.kf8.images","text/plain; charset=us-ascii":"https://www.gutenberg.org/ebooks/3273.txt.utf-8","application/rdf+xml":"https://www.gutenberg.org/ebooks/3273.rdf","image/jpeg":"https://www.gutenberg.org/cache/epub/3273/pg3273.cover.medium.jpg","application/octet-stream":"https://www.gutenberg.org/cache/epub/3273/pg3273-h.zip"},"download_count":16},{"id":3275,"title":"The Complete Works of Artemus Ward — Part 5: The London Punch Letters","authors":[{"name":"Ward, Artemus","birth_year":1834,"death_year":1867}],"translators":[],"subjects":["American wit and humor"],"bookshelves":[],"languages":["en"],"copyright":false,"media_type":"Text","formats":{"text/html":"https://www.gutenberg.org/ebooks/3275.html.images","application/epub+zip":"https://www.gutenberg.org/ebooks/3275.epub3.images","application/x-mobipocket-ebook":"https://www.gutenberg.org/ebooks/3275.kf8.images","text/plain; charset=us-ascii":"https://www.gutenberg.org/ebooks/3275.txt.utf-8","application/rdf+xml":"https://www.gutenberg.org/ebooks/3275.rdf","image/jpeg":"https://www.gutenberg.org/cache/epub/3275/pg3275.cover.medium.jpg","application/octet-stream":"https://www.gutenberg.org/cache/epub/3275/pg3275-h.zip"},"download_count":16},{"id":3277,"title":"The Complete Works of Artemus Ward — Part 7: Miscellaneous","authors":[{"name":"Ward, Artemus","birth_year":1834,"death_year":1867}],"translators":[],"subjects":["American wit and humor"],"bookshelves":[],"languages":["en"],"copyright":false,"media_type":"Text","formats":{"text/html":"https://www.gutenberg.org/ebooks/3277.html.images","application/epub+zip":"https://www.gutenberg.org/ebooks/3277.epub3.images","application/x-mobipocket-ebook":"https://www.gutenberg.org/ebooks/3277.kf8.images","text/plain; charset=us-ascii":"https://www.gutenberg.org/ebooks/3277.txt.utf-8","application/rdf+xml":"https://www.gutenberg.org/ebooks/3277.rdf","image/jpeg":"https://www.gutenberg.org/cache/epub/3277/pg3277.cover.medium.jpg","application/octet-stream":"https://www.gutenberg.org/cache/epub/3277/pg3277-h.zip"},"download_count":16},{"id":3343,"title":"The Wandering Jew — Volume 05","authors":[{"name":"Sue, Eugène","birth_year":1804,"death_year":1857}],"translators":[],"subjects":["France -- History -- Louis Philippe, 1830-1848 -- Fiction","Historical fiction","Inheritance and succession -- Fiction","Jesuits -- Fiction","Wandering Jew -- Fiction"],"bookshelves":[],"languages":["en"],"copyright":false,"media_type":"Text","formats":{"text/html":"https://www.gutenberg.org/ebooks/3343.html.images","application/epub+zip":"https://www.gutenberg.org/ebooks/3343.epub3.images","application/x-mobipocket-ebook":"https://www.gutenberg.org/ebooks/3343.kf8.images","text/plain; charset=us-ascii":"https://www.gutenberg.org/ebooks/3343.txt.utf-8","application/rdf+xml":"https://www.gutenberg.org/ebooks/3343.rdf","image/jpeg":"https://www.gutenberg.org/cache/epub/3343/pg3343.cover.medium.jpg","application/octet-stream":"https://www.gutenberg.org/cache/epub/3343/pg3343-h.zip"},"download_count":16},{"id":3357,"title":"Letters to His Son, 1753-54: On the Fine Art of Becoming a Man of the World and a Gentleman","authors":[{"name":"Chesterfield, Philip Dormer Stanhope, Earl of","birth_year":1694,"death_year":1773}],"translators":[],"subjects":["Conduct of life"],"bookshelves":[],"languages":["en"],"copyright":false,"media_type":"Text","formats":{"text/html":"https://www.gutenberg.org/ebooks/3357.html.images","application/epub+zip":"https://www.gutenberg.org/ebooks/3357.epub3.images","application/x-mobipocket-ebook":"https://www.gutenberg.org/ebooks/3357.kf8.images","text/plain; charset=us-ascii":"https://www.gutenberg.org/ebooks/3357.txt.utf-8","application/rdf+xml":"https://www.gutenberg.org/ebooks/3357.rdf","image/jpeg":"https://www.gutenberg.org/cache/epub/3357/pg3357.cover.medium.jpg","application/octet-stream":"https://www.gutenberg.org/cache/epub/3357/pg3357-h.zip"},"download_count":16},{"id":3372,"title":"Their Silver Wedding Journey — Volume 2","authors":[{"name":"Howells, William Dean","birth_year":1837,"death_year":1920}],"translators":[],"subjects":["Americans -- Europe -- Fiction","Transatlantic voyages -- Fiction"],"bookshelves":[],"languages":["en"],"copyright":false,"media_type":"Text","formats":{"text/html":"https://www.gutenberg.org/ebooks/3372.html.images","application/epub+zip":"https://www.gutenberg.org/ebooks/3372.epub3.images","application/x-mobipocket-ebook":"https://www.gutenberg.org/ebooks/3372.kf8.images","text/plain; charset=us-ascii":"https://www.gutenberg.org/ebooks/3372.txt.utf-8","application/rdf+xml":"https://www.gutenberg.org/ebooks/3372.rdf","image/jpeg":"https://www.gutenberg.org/cache/epub/3372/pg3372.cover.medium.jpg","application/octet-stream":"https://www.gutenberg.org/cache/epub/3372/pg3372-h.zip"},"download_count":16},{"id":3381,"title":"The Standard Household-Effect Company (from Literature and Life)","authors":[{"name":"Howells, William Dean","birth_year":1837,"death_year":1920}],"translators":[],"subjects":["Fiction","Short stories"],"bookshelves":[],"languages":["en"],"copyright":false,"media_type":"Text","formats":{"text/html":"https://www.gutenberg.org/ebooks/3381.html.images","application/epub+zip":"https://www.gutenberg.org/ebooks/3381.epub3.images","application/x-mobipocket-ebook":"https://www.gutenberg.org/ebooks/3381.kf8.images","text/plain; charset=us-ascii":"https://www.gutenberg.org/ebooks/3381.txt.utf-8","application/rdf+xml":"https://www.gutenberg.org/ebooks/3381.rdf","image/jpeg":"https://www.gutenberg.org/cache/epub/3381/pg3381.cover.medium.jpg","application/octet-stream":"https://www.gutenberg.org/cache/epub/3381/pg3381-h.zip"},"download_count":16},{"id":3523,"title":"Human Genome Project, X Chromosome","authors":[{"name":"Human Genome Project","birth_year":null,"death_year":null}],"translators":[],"subjects":["Human Genome Project","Human gene mapping","Human genetics","Nucleotide sequence"],"bookshelves":[],"languages":["en"],"copyright":false,"media_type":"Dataset","formats":{"text/plain; charset=us-ascii":"https://www.gutenberg.org/files/3523/3523.zip","application/rdf+xml":"https://www.gutenberg.org/ebooks/3523.rdf"},"download_count":16},{"id":3557,"title":"Memoirs of Napoleon Bonaparte — Volume 07","authors":[{"name":"Bourrienne, Louis Antoine Fauvelet de","birth_year":1769,"death_year":1834}],"translators":[],"subjects":["Bourrienne, Louis Antoine Fauvelet de, 1769-1834","Napoleon I, Emperor of the French, 1769-1821","Napoleon I, Emperor of the French, 1769-1821 -- Contemporaries","Napoleon I, Emperor of the French, 1769-1821 -- Relations with private secretaries","Private secretaries -- France -- Biography"],"bookshelves":[],"languages":["en"],"copyright":false,"media_type":"Text","formats":{"text/html":"https://www.gutenberg.org/ebooks/3557.html.images","application/epub+zip":"https://www.gutenberg.org/ebooks/3557.epub3.images","application/x-mobipocket-ebook":"https://www.gutenberg.org/ebooks/3557.kf8.images","text/plain; charset=us-ascii":"https://www.gutenberg.org/ebooks/3557.txt.utf-8","application/rdf+xml":"https://www.gutenberg.org/ebooks/3557.rdf","image/jpeg":"https://www.gutenberg.org/cache/epub/3557/pg3557.cover.medium.jpg","application/octet-stream":"https://www.gutenberg.org/cache/epub/3557/pg3557-h.zip"},"download_count":16},{"id":3559,"title":"Memoirs of Napoleon Bonaparte — Volume 09","authors":[{"name":"Bourrienne, Louis Antoine Fauvelet de","birth_year":1769,"death_year":1834}],"translators":[],"subjects":["Bourrienne, Louis Antoine Fauvelet de, 1769-1834","Napoleon I, Emperor of the French, 1769-1821","Napoleon I, Emperor of the French, 1769-1821 -- Contemporaries","Napoleon I, Emperor of the French, 1769-1821 -- Relations with private secretaries","Private secretaries -- France -- Biography"],"bookshelves":[],"languages":["en"],"copyright":false,"media_type":"Text","formats":{"text/html":"https://www.gutenberg.org/ebooks/3559.html.images","application/epub+zip":"https://www.gutenberg.org/ebooks/3559.epub3.images","application/x-mobipocket-ebook":"https://www.gutenberg.org/ebooks/3559.kf8.images","text/plain; charset=us-ascii":"https://www.gutenberg.org/ebooks/3559.txt.utf-8","application/rdf+xml":"https://www.gutenberg.org/ebooks/3559.rdf","image/jpeg":"https://www.gutenberg.org/cache/epub/3559/pg3559.cover.medium.jpg","application/octet-stream":"https://www.gutenberg.org/cache/epub/3559/pg3559-h.zip"},"download_count":16},{"id":3686,"title":"The Army of the Cumberland","authors":[{"name":"Cist, Henry Martyn","birth_year":1839,"death_year":1902}],"translators":[],"subjects":["United States -- History -- Civil War, 1861-1865 -- Campaigns","United States -- History -- Civil War, 1861-1865 -- Regimental histories -- Army of the Cumberland"],"bookshelves":["US Civil War"],"languages":["en"],"copyright":false,"media_type":"Text","formats":{"text/html":"https://www.gutenberg.org/ebooks/3686.html.images","application/epub+zip":"https://www.gutenberg.org/ebooks/3686.epub3.images","application/x-mobipocket-ebook":"https://www.gutenberg.org/ebooks/3686.kf8.images","text/plain; charset=us-ascii":"https://www.gutenberg.org/ebooks/3686.txt.utf-8","application/rdf+xml":"https://www.gutenberg.org/ebooks/3686.rdf","image/jpeg":"https://www.gutenberg.org/cache/epub/3686/pg3686.cover.medium.jpg","application/octet-stream":"https://www.gutenberg.org/cache/epub/3686/pg3686-h.zip"},"download_count":16},{"id":3745,"title":"The Road to Providence","authors":[{"name":"Daviess, Maria Thompson","birth_year":1872,"death_year":1924}],"translators":[],"subjects":["Farm life -- Fiction","Tennessee -- Fiction"],"bookshelves":[],"languages":["en"],"copyright":false,"media_type":"Text","formats":{"text/html":"https://www.gutenberg.org/ebooks/3745.html.images","text/html; charset=iso-8859-1":"https://www.gutenberg.org/files/3745/3745-h/3745-h.htm","application/epub+zip":"https://www.gutenberg.org/ebooks/3745.epub3.images","application/x-mobipocket-ebook":"https://www.gutenberg.org/ebooks/3745.kf8.images","text/plain; charset=us-ascii":"https://www.gutenberg.org/ebooks/3745.txt.utf-8","application/rdf+xml":"https://www.gutenberg.org/ebooks/3745.rdf","image/jpeg":"https://www.gutenberg.org/cache/epub/3745/pg3745.cover.medium.jpg","application/octet-stream":"https://www.gutenberg.org/cache/epub/3745/pg3745-h.zip"},"download_count":16},{"id":3764,"title":"Coniston — Volume 03","authors":[{"name":"Churchill, Winston","birth_year":1871,"death_year":1947}],"translators":[],"subjects":["New England -- Fiction","New England -- Politics and government -- Fiction"],"bookshelves":["Bestsellers, American, 1895-1923"],"languages":["en"],"copyright":false,"media_type":"Text","formats":{"text/html":"https://www.gutenberg.org/ebooks/3764.html.images","application/epub+zip":"https://www.gutenberg.org/ebooks/3764.epub3.images","application/x-mobipocket-ebook":"https://www.gutenberg.org/ebooks/3764.kf8.images","text/plain; charset=us-ascii":"https://www.gutenberg.org/ebooks/3764.txt.utf-8","application/rdf+xml":"https://www.gutenberg.org/ebooks/3764.rdf","image/jpeg":"https://www.gutenberg.org/cache/epub/3764/pg3764.cover.medium.jpg","application/octet-stream":"https://www.gutenberg.org/cache/epub/3764/pg3764-h.zip"},"download_count":16}]}