{"count":58808,"next":"http://129.241.150.113:8000/books/?languages=en&page=1536","previous":"http://129.241.150.113:8000/books/?languages=en&page=1534","results":[{"id":66471,"title":"Like Another Helen","authors":[{"name":"Grier, Sydney C.","birth_year":1868,"death_year":1933}],"translators":[],"subjects":["British -- India -- Fiction","Epistolary fiction","Kolkata (India) -- History -- Fiction","Young women -- Fiction"],"bookshelves":[],"languages":["en"],"copyright":false,"media_type":"Text","formats":{"text/html":"https://www.gutenberg.org/ebooks/66471.html.images","application/epub+zip":"https://www.gutenberg.org/ebooks/66471.epub3.images","application/x-mobipocket-ebook":"https://www.gutenberg.org/ebooks/66471.kf8.images","text/plain; charset=us-ascii":"https://www.gutenberg.org/ebooks/66471.txt.utf-8","application/rdf+xml":"https://www.gutenberg.org/ebooks/66471.rdf","image/jpeg":"https://www.gutenberg.org/cache/epub/66471/pg66471.cover.medium.jpg","application/octet-stream":"https://www.gutenberg.org/files/66471/66471-0.zip"},"download_count":23},{"id":66487,"title":"The year of jubilee; but not to Africans: a discourse, delivered July 4th, 1825, being the 49th anniversary of American independence","authors":[{"name":"Prime, Nathaniel S. (Nathaniel Scudder)","birth_year":1785,"death_year":1856}],"translators":[],"subjects":["Fourth of July orations","Slavery -- United States"],"bookshelves":[],"languages":["en"],"copyright":false,"media_type":"Text","formats":{"text/html":"https://www.gutenberg.org/ebooks/66487.html.images","application/epub+zip":"https://www.gutenberg.org/ebooks/66487.epub3.images","application/x-mobipocket-ebook":"https://www.gutenberg.org/ebooks/66487.kf8.images","text/plain; charset=us-ascii":"https://www.gutenberg.org/ebooks/66487.txt.utf-8","application/rdf+xml":"https://www.gutenberg.org/ebooks/66487.rdf","image/jpeg":"https://www.gutenberg.org/cache/epub/66487/pg66487.cover.medium.jpg","application/octet-stream":"https://www.gutenberg.org/files/66487/66487-0.zip"},"download_count":23},{"id":66530,"title":"Trial of the Major War Criminals Before the International Military Tribunal, Nuremburg, 14 November 1945-1 October 1946, Volume 13","authors":[{"name":"Various","birth_year":null,"death_year":null}],"translators":[],"subjects":["Göring, Hermann, 1893-1946 -- Trials, litigation, etc.","Nuremberg Trial of Major German War Criminals, Nuremberg, Germany, 1945-1946","War crime trials -- Germany -- Nuremberg"],"bookshelves":[],"languages":["en"],"copyright":false,"media_type":"Text","formats":{"text/html":"https://www.gutenberg.org/ebooks/66530.html.images","application/epub+zip":"https://www.gutenberg.org/ebooks/66530.epub3.images","application/x-mobipocket-ebook":"https://www.gutenberg.org/ebooks/66530.kf8.images","text/plain; charset=us-ascii":"https://www.gutenberg.org/ebooks/66530.txt.utf-8","application/rdf+xml":"https://www.gutenberg.org/ebooks/66530.rdf","image/jpeg":"https://www.gutenberg.org/cache/epub/66530/pg66530.cover.medium.jpg","application/octet-stream":"https://www.gutenberg.org/files/66530/66530-0.zip"},"download_count":23},{"id":66598,"title":"Historical Record of the Thirty-sixth, or the Herefordshire Regiment of Foot: containing an account of the formation of the regiment in 1701, and of its subsequent services to 1852","authors":[{"name":"Cannon, Richard","birth_year":1779,"death_year":1865}],"translators":[],"subjects":["Great Britain. Army. Herefordshire Light Infantry -- History","Great Britain. Army. Regiment of Foot, 36th -- History"],"bookshelves":[],"languages":["en"],"copyright":false,"media_type":"Text","formats":{"text/html":"https://www.gutenberg.org/ebooks/66598.html.images","application/epub+zip":"https://www.gutenberg.org/ebooks/66598.epub3.images","application/x-mobipocket-ebook":"https://www.gutenberg.org/ebooks/66598.kf8.images","text/plain; charset=us-ascii":"https://www.gutenberg.org/ebooks/66598.txt.utf-8","application/rdf+xml":"https://www.gutenberg.org/ebooks/66598.rdf","image/jpeg":"https://www.gutenberg.org/cache/epub/66598/pg66598.cover.medium.jpg","application/octet-stream":"https://www.gutenberg.org/files/66598/66598-0.zip"},"download_count":23},{"id":66599,"title":"Chambers's Journal of Popular Literature, Science, and Art, Fifth Series, No. 47, Vol. I, November 22, 1884","authors":[{"name":"Various","birth_year":null,"death_year":null}],"translators":[],"subjects":["Periodicals"],"bookshelves":[],"languages":["en"],"copyright":false,"media_type":"Text","formats":{"text/html":"https://www.gutenberg.org/ebooks/66599.html.images","application/epub+zip":"https://www.gutenberg.org/ebooks/66599.epub3.images","application/x-mobipocket-ebook":"https://www.gutenberg.org/ebooks/66599.kf8.images","text/plain; charset=us-ascii":"https://www.gutenberg.org/ebooks/66599.txt.utf-8","application/rdf+xml":"https://www.gutenberg.org/ebooks/66599.rdf","image/jpeg":"https://www.gutenberg.org/cache/epub/66599/pg66599.cover.medium.jpg","application/octet-stream":"https://www.gutenberg.org/files/66599/66599-0.zip"},"download_count":23},{"id":66850,"title":"A Lecture on Stained Glass","authors":[{"name":"Bell, Robert Anning","birth_year":1863,"death_year":1933}],"translators":[],"subjects":["Glass painting and staining"],"bookshelves":[],"languages":["en"],"copyright":false,"media_type":"Text","formats":{"text/html":"https://www.gutenberg.org/ebooks/66850.html.images","application/epub+zip":"https://www.gutenberg.org/ebooks/66850.epub3.images","application/x-mobipocket-ebook":"https://www.gutenberg.org/ebooks/66850.kf8.images","text/plain; charset=us-ascii":"https://www.gutenberg.org/ebooks/66850.txt.utf-8","application/rdf+xml":"https://www.gutenberg.org/ebooks/66850.rdf","image/jpeg":"https://www.gutenberg.org/cache/epub/66850/pg66850.cover.medium.jpg","application/octet-stream":"https://www.gutenberg.org/files/66850/66850-0.zip"},"download_count":23},{"id":66857,"title":"A Prevaricated Parade","authors":[{"name":"Tuttle, W. C. (Wilbur C.)","birth_year":1883,"death_year":1969}],"translators":[],"subjects":["Fourth of July -- Fiction","Western stories"],"bookshelves":[],"languages":["en"],"copyright":false,"media_type":"Text","formats":{"text/html":"https://www.gutenberg.org/ebooks/66857.html.images","application/epub+zip":"https://www.gutenberg.org/ebooks/66857.epub3.images","application/x-mobipocket-ebook":"https://www.gutenberg.org/ebooks/66857.kf8.images","text/plain; charset=us-ascii":"https://www.gutenberg.org/ebooks/66857.txt.utf-8","application/rdf+xml":"https://www.gutenberg.org/ebooks/66857.rdf","image/jpeg":"https://www.gutenberg.org/cache/epub/66857/pg66857.cover.medium.jpg","application/octet-stream":"https://www.gutenberg.org/files/66857/66857-0.zip"},"download_count":23},{"id":66937,"title":"Ealing and Its Vicinity","authors":[{"name":"Sykes, D. F. E.","birth_year":1856,"death_year":1920}],"translators":[],"subjects":["Ealing (London, England)"],"bookshelves":[],"languages":["en"],"copyright":false,"media_type":"Text","formats":{"text/html":"https://www.gutenberg.org/ebooks/66937.html.images","application/epub+zip":"https://www.gutenberg.org/ebooks/66937.epub3.images","application/x-mobipocket-ebook":"https://www.gutenberg.org/ebooks/66937.kf8.images","text/plain; charset=us-ascii":"https://www.gutenberg.org/ebooks/66937.txt.utf-8","application/rdf+xml":"https://www.gutenberg.org/ebooks/66937.rdf","image/jpeg":"https://www.gutenberg.org/cache/epub/66937/pg66937.cover.medium.jpg","application/octet-stream":"https://www.gutenberg.org/files/66937/66937-0.zip"},"download_count":23},{"id":66950,"title":"The Goblin Groom: a Tale of Dunse","authors":[{"name":"Fenwick, R. O. (Robert Orde)","birth_year":null,"death_year":null}],"translators":[],"subjects":["Fox hunting -- Poetry","Scott, Walter, 1771-1832 -- Parodies, imitations, etc."],"bookshelves":[],"languages":["en"],"copyright":false,"media_type":"Text","formats":{"text/html":"https://www.gutenberg.org/ebooks/66950.html.images","application/epub+zip":"https://www.gutenberg.org/ebooks/66950.epub3.images","application/x-mobipocket-ebook":"https://www.gutenberg.org/ebooks/66950.kf8.images","text/plain; charset=us-ascii":"https://www.gutenberg.org/ebooks/66950.txt.utf-8","application/rdf+xml":"https://www.gutenberg.org/ebooks/66950.rdf","image/jpeg":"https://www.gutenberg.org/cache/epub/66950/pg66950.cover.medium.jpg","application/octet-stream":"https://www.gutenberg.org/files/66950/66950-0.zip"},"download_count":23},{"id":66988,"title":"Motor Camping","authors":[{"name":"Long, J. C. (John Cuthbert)","birth_year":1892,"death_year":null},{"name":"Long, John D. (John Dietrich)","birth_year":1860,"death_year":null}],"translators":[],"subjects":["Automobile travel","Camping"],"bookshelves":[],"languages":["en"],"copyright":false,"media_type":"Text","formats":{"text/html":"https://www.gutenberg.org/ebooks/66988.html.images","application/epub+zip":"https://www.gutenberg.org/ebooks/66988.epub3.images","application/x-mobipocket-ebook":"https://www.gutenberg.org/ebooks/66988.kf8.images","text/plain; charset=us-ascii":"https://www.gutenberg.org/ebooks/66988.txt.utf-8","application/rdf+xml":"https://www.gutenberg.org/ebooks/66988.rdf","image/jpeg":"https://www.gutenberg.org/cache/epub/66988/pg66988.cover.medium.jpg","application/octet-stream":"https://www.gutenberg.org/files/66988/66988-0.zip"},"download_count":23},{"id":67121,"title":"Polaris and the Goddess Glorian","authors":[{"name":"Stilson, Charles B. (Charles Billings)","birth_year":1880,"death_year":1932}],"translators":[],"subjects":["Adventure stories","Imaginary places -- Fiction","Science fiction"],"bookshelves":[],"languages":["en"],"copyright":false,"media_type":"Text","formats":{"text/html":"https://www.gutenberg.org/ebooks/67121.html.images","application/epub+zip":"https://www.gutenberg.org/ebooks/67121.epub3.images","application/x-mobipocket-ebook":"https://www.gutenberg.org/ebooks/67121.kf8.images","text/plain; charset=us-ascii":"https://www.gutenberg.org/ebooks/67121.txt.utf-8","application/rdf+xml":"https://www.gutenberg.org/ebooks/67121.rdf","image/jpeg":"https://www.gutenberg.org/cache/epub/67121/pg67121.cover.medium.jpg","application/octet-stream":"https://www.gutenberg.org/files/67121/67121-0.zip"},"download_count":23},{"id":67145,"title":"Old Ninety-Nine's Cave","authors":[{"name":"Gray, Elizabeth H.","birth_year":null,"death_year":null}],"translators":[],"subjects":["Delaware Indians -- Fiction","Historical fiction","Rondout Valley (N.Y.) -- Fiction"],"bookshelves":[],"languages":["en"],"copyright":false,"media_type":"Text","formats":{"text/html":"https://www.gutenberg.org/ebooks/67145.html.images","application/epub+zip":"https://www.gutenberg.org/ebooks/67145.epub3.images","application/x-mobipocket-ebook":"https://www.gutenberg.org/ebooks/67145.kf8.images","text/plain; charset=us-ascii":"https://www.gutenberg.org/ebooks/67145.txt.utf-8","application/rdf+xml":"https://www.gutenberg.org/ebooks/67145.rdf","image/jpeg":"https://www.gutenberg.org/cache/epub/67145/pg67145.cover.medium.jpg","application/octet-stream":"https://www.gutenberg.org/files/67145/67145-0.zip"},"download_count":23},{"id":67147,"title":"The King Who Went on Strike","authors":[{"name":"Choate, Pearson","birth_year":null,"death_year":1960}],"translators":[],"subjects":["Great Britain -- Kings and rulers -- Fiction"],"bookshelves":[],"languages":["en"],"copyright":false,"media_type":"Text","formats":{"text/html":"https://www.gutenberg.org/ebooks/67147.html.images","application/epub+zip":"https://www.gutenberg.org/ebooks/67147.epub3.images","application/x-mobipocket-ebook":"https://www.gutenberg.org/ebooks/67147.kf8.images","text/plain; charset=us-ascii":"https://www.gutenberg.org/ebooks/67147.txt.utf-8","application/rdf+xml":"https://www.gutenberg.org/ebooks/67147.rdf","image/jpeg":"https://www.gutenberg.org/cache/epub/67147/pg67147.cover.medium.jpg","application/octet-stream":"https://www.gutenberg.org/files/67147/67147-0.zip"},"download_count":23},{"id":67184,"title":"Elsie and the Raymonds","authors":[{"name":"Finley, Martha","birth_year":1828,"death_year":1909}],"translators":[],"subjects":["Christian life -- Juvenile fiction","Conduct of life -- Juvenile fiction","Dinsmore, Elsie (Fictitious character) -- Juvenile fiction","Family -- Juvenile fiction","Siblings -- Juvenile fiction","Southern States -- History -- 1865-1877 -- Juvenile fiction","Young women -- Conduct of life -- Juvenile fiction"],"bookshelves":[],"languages":["en"],"copyright":false,"media_type":"Text","formats":{"text/html":"https://www.gutenberg.org/ebooks/67184.html.images","application/epub+zip":"https://www.gutenberg.org/ebooks/67184.epub3.images","application/x-mobipocket-ebook":"https://www.gutenberg.org/ebooks/67184.kf8.images","text/plain; charset=us-ascii":"https://www.gutenberg.org/ebooks/67184.txt.utf-8","application/rdf+xml":"https://www.gutenberg.org/ebooks/67184.rdf","image/jpeg":"https://www.gutenberg.org/cache/epub/67184/pg67184.cover.medium.jpg","application/octet-stream":"https://www.gutenberg.org/files/67184/67184-0.zip"},"download_count":23},{"id":67186,"title":"The Rider of the Mohave: A Western Story","authors":[{"name":"Fellom, James","birth_year":null,"death_year":null}],"translators":[],"subjects":["Adventure stories","California -- Fiction","Outlaws -- Fiction","Western stories"],"bookshelves":[],"languages":["en"],"copyright":false,"media_type":"Text","formats":{"text/html":"https://www.gutenberg.org/ebooks/67186.html.images","application/epub+zip":"https://www.gutenberg.org/ebooks/67186.epub3.images","application/x-mobipocket-ebook":"https://www.gutenberg.org/ebooks/67186.kf8.images","text/plain; charset=us-ascii":"https://www.gutenberg.org/ebooks/67186.txt.utf-8","application/rdf+xml":"https://www.gutenberg.org/ebooks/67186.rdf","image/jpeg":"https://www.gutenberg.org/cache/epub/67186/pg67186.cover.medium.jpg","application/octet-stream":"https://www.gutenberg.org/files/67186/67186-0.zip"},"download_count":23},{"id":67190,"title":"The Asbestos Society of Sinners: detailing the diversions of Dives and others on the playground of Pluto, with some broken threads of drop-stitch history, picked up by a newspaper man in Hades and woven into a Stygian nights' entertainment","authors":[{"name":"Fogg, Lawrence Daniel","birth_year":null,"death_year":null}],"translators":[],"subjects":["Hell -- Fiction","Humorous stories"],"bookshelves":[],"languages":["en"],"copyright":false,"media_type":"Text","formats":{"text/html":"https://www.gutenberg.org/ebooks/67190.html.images","application/epub+zip":"https://www.gutenberg.org/ebooks/67190.epub3.images","application/x-mobipocket-ebook":"https://www.gutenberg.org/ebooks/67190.kf8.images","text/plain; charset=us-ascii":"https://www.gutenberg.org/ebooks/67190.txt.utf-8","application/rdf+xml":"https://www.gutenberg.org/ebooks/67190.rdf","image/jpeg":"https://www.gutenberg.org/cache/epub/67190/pg67190.cover.medium.jpg","application/octet-stream":"https://www.gutenberg.org/files/67190/67190-0.zip"},"download_count":23},{"id":67208,"title":"The Light Machine","authors":[{"name":"Cummings, Ray","birth_year":1887,"death_year":1957}],"translators":[],"subjects":["Light -- Fiction","Maguire, Tubby (Fictitious character) -- Fiction","Science fiction","Short stories"],"bookshelves":[],"languages":["en"],"copyright":false,"media_type":"Text","formats":{"text/html":"https://www.gutenberg.org/ebooks/67208.html.images","application/epub+zip":"https://www.gutenberg.org/ebooks/67208.epub3.images","application/x-mobipocket-ebook":"https://www.gutenberg.org/ebooks/67208.kf8.images","text/plain; charset=us-ascii":"https://www.gutenberg.org/ebooks/67208.txt.utf-8","application/rdf+xml":"https://www.gutenberg.org/ebooks/67208.rdf","image/jpeg":"https://www.gutenberg.org/cache/epub/67208/pg67208.cover.medium.jpg","application/octet-stream":"https://www.gutenberg.org/files/67208/67208-0.zip"},"download_count":23},{"id":67265,"title":"Researches on the Visual Organs of the Trilobites","authors":[{"name":"Lindström, Gustaf","birth_year":1829,"death_year":1901}],"translators":[],"subjects":["Trilobites"],"bookshelves":[],"languages":["en"],"copyright":false,"media_type":"Text","formats":{"text/html":"https://www.gutenberg.org/ebooks/67265.html.images","application/epub+zip":"https://www.gutenberg.org/ebooks/67265.epub3.images","application/x-mobipocket-ebook":"https://www.gutenberg.org/ebooks/67265.kf8.images","text/plain; charset=us-ascii":"https://www.gutenberg.org/ebooks/67265.txt.utf-8","application/rdf+xml":"https://www.gutenberg.org/ebooks/67265.rdf","image/jpeg":"https://www.gutenberg.org/cache/epub/67265/pg67265.cover.medium.jpg","application/octet-stream":"https://www.gutenberg.org/files/67265/67265-0.zip"},"download_count":23},{"id":67287,"title":"Relics of Primeval Life: Beginning of Life in the Dawn of Geological Time","authors":[{"name":"Dawson, John William, Sir","birth_year":1820,"death_year":1899}],"translators":[],"subjects":["Eozoon canadense","Geology, Stratigraphic -- Precambrian","Life -- Origin","Paleontology -- Canada","Paleontology -- Precambrian"],"bookshelves":[],"languages":["en"],"copyright":false,"media_type":"Text","formats":{"text/html":"https://www.gutenberg.org/ebooks/67287.html.images","application/epub+zip":"https://www.gutenberg.org/ebooks/67287.epub3.images","application/x-mobipocket-ebook":"https://www.gutenberg.org/ebooks/67287.kf8.images","text/plain; charset=us-ascii":"https://www.gutenberg.org/ebooks/67287.txt.utf-8","application/rdf+xml":"https://www.gutenberg.org/ebooks/67287.rdf","image/jpeg":"https://www.gutenberg.org/cache/epub/67287/pg67287.cover.medium.jpg","application/octet-stream":"https://www.gutenberg.org/files/67287/67287-0.zip"},"download_count":23},{"id":67308,"title":"The River of London","authors":[{"name":"Belloc, Hilaire","birth_year":1870,"death_year":1953}],"translators":[],"subjects":["London (England) -- Description and travel","Thames River (England)"],"bookshelves":[],"languages":["en"],"copyright":false,"media_type":"Text","formats":{"text/html":"https://www.gutenberg.org/ebooks/67308.html.images","application/epub+zip":"https://www.gutenberg.org/ebooks/67308.epub3.images","application/x-mobipocket-ebook":"https://www.gutenberg.org/ebooks/67308.kf8.images","text/plain; charset=us-ascii":"https://www.gutenberg.org/ebooks/67308.txt.utf-8","application/rdf+xml":"https://www.gutenberg.org/ebooks/67308.rdf","image/jpeg":"https://www.gutenberg.org/cache/epub/67308/pg67308.cover.medium.jpg","application/octet-stream":"https://www.gutenberg.org/files/67308/67308-0.zip"},"download_count":23},{"id":67357,"title":"The Missionary Sheriff: Being incidents in the life of a plain man who tried to do his duty","authors":[{"name":"Thanet, Octave","birth_year":1850,"death_year":1934}],"translators":[],"subjects":["Short stories, American","United States -- Social life and customs -- 19th century -- Fiction"],"bookshelves":[],"languages":["en"],"copyright":false,"media_type":"Text","formats":{"text/html":"https://www.gutenberg.org/ebooks/67357.html.images","application/epub+zip":"https://www.gutenberg.org/ebooks/67357.epub3.images","application/x-mobipocket-ebook":"https://www.gutenberg.org/ebooks/67357.kf8.images","text/plain; charset=us-ascii":"https://www.gutenberg.org/ebooks/67357.txt.utf-8","application/rdf+xml":"https://www.gutenberg.org/ebooks/67357.rdf","image/jpeg":"https://www.gutenberg.org/cache/epub/67357/pg67357.cover.medium.jpg","application/octet-stream":"https://www.gutenberg.org/files/67357/67357-0.zip"},"download_count":23},{"id":67390,"title":"Lives of the Founders of the British Museum, Part 2 of 2: With Notices of Its Chief Augmentors and Other Benefactors, 1570-1870.","authors":[{"name":"Edwards, Edward","birth_year":1812,"death_year":1886}],"translators":[],"subjects":["Book collectors -- Great Britain","British Museum"],"bookshelves":[],"languages":["en"],"copyright":false,"media_type":"Text","formats":{"text/html":"https://www.gutenberg.org/ebooks/67390.html.images","application/epub+zip":"https://www.gutenberg.org/ebooks/67390.epub3.images","application/x-mobipocket-ebook":"https://www.gutenberg.org/ebooks/67390.kf8.images","text/plain; charset=us-ascii":"https://www.gutenberg.org/ebooks/67390.txt.utf-8","application/rdf+xml":"https://www.gutenberg.org/ebooks/67390.rdf","image/jpeg":"https://www.gutenberg.org/cache/epub/67390/pg67390.cover.medium.jpg","application/octet-stream":"https://www.gutenberg.org/files/67390/67390-0.zip"},"download_count":23},{"id":67404,"title":"Cavalry Curt; Or, The Wizard Scout of the Army","authors":[{"name":"Browne, George Waldo","birth_year":1851,"death_year":1930}],"translators":[],"subjects":["Dime novels","United States -- History -- Civil War, 1861-1865 -- Fiction"],"bookshelves":[],"languages":["en"],"copyright":false,"media_type":"Text","formats":{"text/html":"https://www.gutenberg.org/ebooks/67404.html.images","application/epub+zip":"https://www.gutenberg.org/ebooks/67404.epub3.images","application/x-mobipocket-ebook":"https://www.gutenberg.org/ebooks/67404.kf8.images","text/plain; charset=us-ascii":"https://www.gutenberg.org/ebooks/67404.txt.utf-8","application/rdf+xml":"https://www.gutenberg.org/ebooks/67404.rdf","image/jpeg":"https://www.gutenberg.org/cache/epub/67404/pg67404.cover.medium.jpg","application/octet-stream":"https://www.gutenberg.org/files/67404/67404-0.zip"},"download_count":23},{"id":67435,"title":"The honey-bee: its nature, homes and products","authors":[{"name":"Harris, William Hetherington","birth_year":1835,"death_year":null}],"translators":[],"subjects":["Bee culture","Bees"],"bookshelves":[],"languages":["en"],"copyright":false,"media_type":"Text","formats":{"text/html":"https://www.gutenberg.org/ebooks/67435.html.images","application/epub+zip":"https://www.gutenberg.org/ebooks/67435.epub3.images","application/x-mobipocket-ebook":"https://www.gutenberg.org/ebooks/67435.kf8.images","text/plain; charset=us-ascii":"https://www.gutenberg.org/ebooks/67435.txt.utf-8","application/rdf+xml":"https://www.gutenberg.org/ebooks/67435.rdf","image/jpeg":"https://www.gutenberg.org/cache/epub/67435/pg67435.cover.medium.jpg","application/octet-stream":"https://www.gutenberg.org/files/67435/67435-0.zip"},"download_count":23},{"id":67443,"title":"Graham's Magazine, Vol. XX, No. 2, February 1842","authors":[{"name":"Various","birth_year":null,"death_year":null}],"translators":[],"subjects":["Literature -- Periodicals","Literature, Modern -- 19th century -- Periodicals"],"bookshelves":[],"languages":["en"],"copyright":false,"media_type":"Text","formats":{"text/html":"https://www.gutenberg.org/ebooks/67443.html.images","application/epub+zip":"https://www.gutenberg.org/ebooks/67443.epub3.images","application/x-mobipocket-ebook":"https://www.gutenberg.org/ebooks/67443.kf8.images","text/plain; charset=us-ascii":"https://www.gutenberg.org/ebooks/67443.txt.utf-8","application/rdf+xml":"https://www.gutenberg.org/ebooks/67443.rdf","image/jpeg":"https://www.gutenberg.org/cache/epub/67443/pg67443.cover.medium.jpg","application/octet-stream":"https://www.gutenberg.org/files/67443/67443-0.zip"},"download_count":23},{"id":67464,"title":"Kadjaman","authors":[{"name":"Stacpoole, H. De Vere (Henry De Vere)","birth_year":1863,"death_year":1951}],"translators":[],"subjects":["Bornean orangutan -- Fiction","Borneo -- Fiction","Fathers and sons -- Fiction","Human-animal relationships -- Fiction","Short stories"],"bookshelves":[],"languages":["en"],"copyright":false,"media_type":"Text","formats":{"text/html":"https://www.gutenberg.org/ebooks/67464.html.images","application/epub+zip":"https://www.gutenberg.org/ebooks/67464.epub3.images","application/x-mobipocket-ebook":"https://www.gutenberg.org/ebooks/67464.kf8.images","text/plain; charset=us-ascii":"https://www.gutenberg.org/ebooks/67464.txt.utf-8","application/rdf+xml":"https://www.gutenberg.org/ebooks/67464.rdf","image/jpeg":"https://www.gutenberg.org/cache/epub/67464/pg67464.cover.medium.jpg","application/octet-stream":"https://www.gutenberg.org/files/67464/67464-0.zip"},"download_count":23},{"id":67487,"title":"The Stilled Patter","authors":[{"name":"Gunn, James E.","birth_year":1923,"death_year":2020}],"translators":[],"subjects":["Apocalyptic fiction","Child rearing -- Fiction","Contraception -- Fiction","Science fiction","Sex role -- Fiction","Short stories"],"bookshelves":[],"languages":["en"],"copyright":false,"media_type":"Text","formats":{"text/html":"https://www.gutenberg.org/ebooks/67487.html.images","application/epub+zip":"https://www.gutenberg.org/ebooks/67487.epub3.images","application/x-mobipocket-ebook":"https://www.gutenberg.org/ebooks/67487.kf8.images","text/plain; charset=us-ascii":"https://www.gutenberg.org/ebooks/67487.txt.utf-8","application/rdf+xml":"https://www.gutenberg.org/ebooks/67487.rdf","image/jpeg":"https://www.gutenberg.org/cache/epub/67487/pg67487.cover.medium.jpg","application/octet-stream":"https://www.gutenberg.org/files/67487/67487-0.zip"},"download_count":23},{"id":67573,"title":"Antimachus of Colophon and the Position of Women in Greek Poetry: A fragment printed for the use of scholars","authors":[{"name":"Benecke, E. F. M. (Edward Felix Mendelssohn)","birth_year":1870,"death_year":1895}],"translators":[],"subjects":["Antimachus, of Colophon -- Characters","Greek poetry -- History and criticism","Women and literature -- Greece","Women in literature"],"bookshelves":[],"languages":["en"],"copyright":false,"media_type":"Text","formats":{"text/html":"https://www.gutenberg.org/ebooks/67573.html.images","application/epub+zip":"https://www.gutenberg.org/ebooks/67573.epub3.images","application/x-mobipocket-ebook":"https://www.gutenberg.org/ebooks/67573.kf8.images","text/plain; charset=us-ascii":"https://www.gutenberg.org/ebooks/67573.txt.utf-8","application/rdf+xml":"https://www.gutenberg.org/ebooks/67573.rdf","image/jpeg":"https://www.gutenberg.org/cache/epub/67573/pg67573.cover.medium.jpg","application/octet-stream":"https://www.gutenberg.org/files/67573/67573-0.zip"},"download_count":23},{"id":67596,"title":"The Gold Brick","authors":[{"name":"Whitlock, Brand","birth_year":1869,"death_year":1934}],"translators":[],"subjects":["Political fiction","Short stories, American","United States -- Politics and government -- Fiction"],"bookshelves":[],"languages":["en"],"copyright":false,"media_type":"Text","formats":{"text/html":"https://www.gutenberg.org/ebooks/67596.html.images","application/epub+zip":"https://www.gutenberg.org/ebooks/67596.epub3.images","application/x-mobipocket-ebook":"https://www.gutenberg.org/ebooks/67596.kf8.images","text/plain; charset=us-ascii":"https://www.gutenberg.org/ebooks/67596.txt.utf-8","application/rdf+xml":"https://www.gutenberg.org/ebooks/67596.rdf","image/jpeg":"https://www.gutenberg.org/cache/epub/67596/pg67596.cover.medium.jpg","application/octet-stream":"https://www.gutenberg.org/files/67596/67596-0.zip"},"download_count":23},{"id":67747,"title":"You Ask Anybody","authors":[{"name":"Bower, B. M.","birth_year":1871,"death_year":1940}],"translators":[],"subjects":["Automobiles -- Fiction","Man-woman relationships -- Fiction","Nevada -- Fiction","Ryan, Casey (Fictitious character) -- Fiction","Western stories"],"bookshelves":[],"languages":["en"],"copyright":false,"media_type":"Text","formats":{"text/html":"https://www.gutenberg.org/ebooks/67747.html.images","application/epub+zip":"https://www.gutenberg.org/ebooks/67747.epub3.images","application/x-mobipocket-ebook":"https://www.gutenberg.org/ebooks/67747.kf8.images","text/plain; charset=us-ascii":"https://www.gutenberg.org/ebooks/67747.txt.utf-8","application/rdf+xml":"https://www.gutenberg.org/ebooks/67747.rdf","image/jpeg":"https://www.gutenberg.org/cache/epub/67747/pg67747.cover.medium.jpg","application/octet-stream":"https://www.gutenberg.org/files/67747/67747-0.zip"},"download_count":23},{"id":67789,"title":"The Queen's Advocate","authors":[{"name":"Marchmont, Arthur W.","birth_year":1852,"death_year":1923}],"translators":[],"subjects":["Adventure stories","Americans -- Serbia -- Fiction","Princesses -- Fiction"],"bookshelves":[],"languages":["en"],"copyright":false,"media_type":"Text","formats":{"text/html":"https://www.gutenberg.org/ebooks/67789.html.images","application/epub+zip":"https://www.gutenberg.org/ebooks/67789.epub3.images","application/x-mobipocket-ebook":"https://www.gutenberg.org/ebooks/67789.kf8.images","text/plain; charset=us-ascii":"https://www.gutenberg.org/ebooks/67789.txt.utf-8","application/rdf+xml":"https://www.gutenberg.org/ebooks/67789.rdf","image/jpeg":"https://www.gutenberg.org/cache/epub/67789/pg67789.cover.medium.jpg","application/octet-stream":"https://www.gutenberg.org/files/67789/67789-0.zip"},"download_count":23},{"id":67834,"title":"The Adam Chaser","authors":[{"name":"Bower, B. M.","birth_year":1871,"death_year":1940}],"translators":[],"subjects":["Archaeologists -- Fiction","Arizona -- Fiction","Western stories"],"bookshelves":[],"languages":["en"],"copyright":false,"media_type":"Text","formats":{"text/html":"https://www.gutenberg.org/ebooks/67834.html.images","application/epub+zip":"https://www.gutenberg.org/ebooks/67834.epub3.images","application/x-mobipocket-ebook":"https://www.gutenberg.org/ebooks/67834.kf8.images","text/plain; charset=us-ascii":"https://www.gutenberg.org/ebooks/67834.txt.utf-8","application/rdf+xml":"https://www.gutenberg.org/ebooks/67834.rdf","image/jpeg":"https://www.gutenberg.org/cache/epub/67834/pg67834.cover.medium.jpg","application/octet-stream":"https://www.gutenberg.org/files/67834/67834-0.zip"},"download_count":23}]}