{"count":58808,"next":"http://129.241.150.113:8000/books/?languages=en&page=1418","previous":"http://129.241.150.113:8000/books/?languages=en&page=1416","results":[{"id":67682,"title":"Stories for Boys","authors":[{"name":"Davis, Richard Harding","birth_year":1864,"death_year":1916}],"translators":[],"subjects":["Boys -- Juvenile fiction","Short stories"],"bookshelves":[],"languages":["en"],"copyright":false,"media_type":"Text","formats":{"text/html":"https://www.gutenberg.org/ebooks/67682.html.images","application/epub+zip":"https://www.gutenberg.org/ebooks/67682.epub3.images","application/x-mobipocket-ebook":"https://www.gutenberg.org/ebooks/67682.kf8.images","text/plain; charset=us-ascii":"https://www.gutenberg.org/ebooks/67682.txt.utf-8","application/rdf+xml":"https://www.gutenberg.org/ebooks/67682.rdf","image/jpeg":"https://www.gutenberg.org/cache/epub/67682/pg67682.cover.medium.jpg","application/octet-stream":"https://www.gutenberg.org/files/67682/67682-0.zip"},"download_count":26},{"id":67694,"title":"The Crater","authors":[{"name":"Gore Browne, Robert","birth_year":null,"death_year":null}],"translators":[],"subjects":["British -- Africa -- Fiction","Storytelling -- Fiction","Tanganyika, Lake -- Fiction","Triangles (Interpersonal relations) -- Fiction"],"bookshelves":[],"languages":["en"],"copyright":false,"media_type":"Text","formats":{"text/html":"https://www.gutenberg.org/ebooks/67694.html.images","application/epub+zip":"https://www.gutenberg.org/ebooks/67694.epub3.images","application/x-mobipocket-ebook":"https://www.gutenberg.org/ebooks/67694.kf8.images","text/plain; charset=us-ascii":"https://www.gutenberg.org/ebooks/67694.txt.utf-8","application/rdf+xml":"https://www.gutenberg.org/ebooks/67694.rdf","image/jpeg":"https://www.gutenberg.org/cache/epub/67694/pg67694.cover.medium.jpg","application/octet-stream":"https://www.gutenberg.org/files/67694/67694-0.zip"},"download_count":26},{"id":67716,"title":"First Theater in America: When was the drama first introduced in America? An inquiry, including a consideration of the objections that have been made to the stage.","authors":[{"name":"Daly, Charles P. (Charles Patrick)","birth_year":1816,"death_year":1899}],"translators":[],"subjects":["Theater -- United States -- History"],"bookshelves":[],"languages":["en"],"copyright":false,"media_type":"Text","formats":{"text/html":"https://www.gutenberg.org/ebooks/67716.html.images","application/epub+zip":"https://www.gutenberg.org/ebooks/67716.epub3.images","application/x-mobipocket-ebook":"https://www.gutenberg.org/ebooks/67716.kf8.images","text/plain; charset=us-ascii":"https://www.gutenberg.org/ebooks/67716.txt.utf-8","application/rdf+xml":"https://www.gutenberg.org/ebooks/67716.rdf","image/jpeg":"https://www.gutenberg.org/cache/epub/67716/pg67716.cover.medium.jpg","application/octet-stream":"https://www.gutenberg.org/files/67716/67716-0.zip"},"download_count":26},{"id":67723,"title":"Whistler; or, The Manly Boy","authors":[{"name":"Aimwell, Walter","birth_year":1822,"death_year":1859}],"translators":[],"subjects":["Accidents -- Juvenile fiction","Country life -- Juvenile fiction","Courage -- Juvenile fiction","Cousins -- Juvenile fiction","Farms -- Juvenile fiction","Nature stories"],"bookshelves":[],"languages":["en"],"copyright":false,"media_type":"Text","formats":{"text/html":"https://www.gutenberg.org/ebooks/67723.html.images","application/epub+zip":"https://www.gutenberg.org/ebooks/67723.epub3.images","application/x-mobipocket-ebook":"https://www.gutenberg.org/ebooks/67723.kf8.images","text/plain; charset=us-ascii":"https://www.gutenberg.org/ebooks/67723.txt.utf-8","application/rdf+xml":"https://www.gutenberg.org/ebooks/67723.rdf","image/jpeg":"https://www.gutenberg.org/cache/epub/67723/pg67723.cover.medium.jpg","application/octet-stream":"https://www.gutenberg.org/files/67723/67723-0.zip"},"download_count":26},{"id":67752,"title":"On building a theatre: Stage construction and equipment for small theatres, schools and community","authors":[{"name":"Pichel, Irving","birth_year":1891,"death_year":1954}],"translators":[],"subjects":["Theater architecture"],"bookshelves":[],"languages":["en"],"copyright":false,"media_type":"Text","formats":{"text/html":"https://www.gutenberg.org/ebooks/67752.html.images","application/epub+zip":"https://www.gutenberg.org/ebooks/67752.epub3.images","application/x-mobipocket-ebook":"https://www.gutenberg.org/ebooks/67752.kf8.images","text/plain; charset=us-ascii":"https://www.gutenberg.org/ebooks/67752.txt.utf-8","application/rdf+xml":"https://www.gutenberg.org/ebooks/67752.rdf","image/jpeg":"https://www.gutenberg.org/cache/epub/67752/pg67752.cover.medium.jpg","application/octet-stream":"https://www.gutenberg.org/files/67752/67752-0.zip"},"download_count":26},{"id":67778,"title":"History of the transmission of ancient books to modern times: together with the process of historical proof; or, a concise account of the means by which genuineness of ancient literature generally, and the authenticity of historical works especially are ascertained including incidental remarks upon the relative strength of the evidence usually adduced in behalf of the Holy Scriptures","authors":[{"name":"Taylor, Isaac","birth_year":1787,"death_year":1865}],"translators":[],"subjects":["Bible -- Evidences, authority, etc.","Historiography","Transmission of texts"],"bookshelves":[],"languages":["en"],"copyright":false,"media_type":"Text","formats":{"text/html":"https://www.gutenberg.org/ebooks/67778.html.images","application/epub+zip":"https://www.gutenberg.org/ebooks/67778.epub3.images","application/x-mobipocket-ebook":"https://www.gutenberg.org/ebooks/67778.kf8.images","text/plain; charset=us-ascii":"https://www.gutenberg.org/ebooks/67778.txt.utf-8","application/rdf+xml":"https://www.gutenberg.org/ebooks/67778.rdf","image/jpeg":"https://www.gutenberg.org/cache/epub/67778/pg67778.cover.medium.jpg","application/octet-stream":"https://www.gutenberg.org/files/67778/67778-0.zip"},"download_count":26},{"id":67883,"title":"The End of Elfintown","authors":[{"name":"Barlow, Jane","birth_year":1856,"death_year":1917}],"translators":[],"subjects":["Fairy poetry"],"bookshelves":[],"languages":["en"],"copyright":false,"media_type":"Text","formats":{"text/html":"https://www.gutenberg.org/ebooks/67883.html.images","application/epub+zip":"https://www.gutenberg.org/ebooks/67883.epub3.images","application/x-mobipocket-ebook":"https://www.gutenberg.org/ebooks/67883.kf8.images","text/plain; charset=us-ascii":"https://www.gutenberg.org/ebooks/67883.txt.utf-8","application/rdf+xml":"https://www.gutenberg.org/ebooks/67883.rdf","image/jpeg":"https://www.gutenberg.org/cache/epub/67883/pg67883.cover.medium.jpg","application/octet-stream":"https://www.gutenberg.org/files/67883/67883-0.zip"},"download_count":26},{"id":67934,"title":"The Black Cat (Vol. I, No. 2, November 1895)","authors":[{"name":"Various","birth_year":null,"death_year":null}],"translators":[],"subjects":["Short stories, American -- Periodicals"],"bookshelves":[],"languages":["en"],"copyright":false,"media_type":"Text","formats":{"text/html":"https://www.gutenberg.org/ebooks/67934.html.images","application/epub+zip":"https://www.gutenberg.org/ebooks/67934.epub3.images","application/x-mobipocket-ebook":"https://www.gutenberg.org/ebooks/67934.kf8.images","text/plain; charset=us-ascii":"https://www.gutenberg.org/ebooks/67934.txt.utf-8","application/rdf+xml":"https://www.gutenberg.org/ebooks/67934.rdf","image/jpeg":"https://www.gutenberg.org/cache/epub/67934/pg67934.cover.medium.jpg","application/octet-stream":"https://www.gutenberg.org/files/67934/67934-0.zip"},"download_count":26},{"id":68007,"title":"Special Delivery","authors":[{"name":"Smith, George O. (George Oliver)","birth_year":1911,"death_year":1981}],"translators":[],"subjects":["Inventions -- Fiction","Legal stories","Science fiction"],"bookshelves":[],"languages":["en"],"copyright":false,"media_type":"Text","formats":{"text/html":"https://www.gutenberg.org/ebooks/68007.html.images","application/epub+zip":"https://www.gutenberg.org/ebooks/68007.epub3.images","application/x-mobipocket-ebook":"https://www.gutenberg.org/ebooks/68007.kf8.images","text/plain; charset=us-ascii":"https://www.gutenberg.org/ebooks/68007.txt.utf-8","application/rdf+xml":"https://www.gutenberg.org/ebooks/68007.rdf","image/jpeg":"https://www.gutenberg.org/cache/epub/68007/pg68007.cover.medium.jpg","application/octet-stream":"https://www.gutenberg.org/files/68007/68007-0.zip"},"download_count":26},{"id":68053,"title":"The Frugal Life: A Paradox","authors":[{"name":"Landi, Ortensio","birth_year":null,"death_year":null}],"translators":[],"subjects":["Diet"],"bookshelves":[],"languages":["en"],"copyright":false,"media_type":"Text","formats":{"text/html":"https://www.gutenberg.org/ebooks/68053.html.images","application/epub+zip":"https://www.gutenberg.org/ebooks/68053.epub3.images","application/x-mobipocket-ebook":"https://www.gutenberg.org/ebooks/68053.kf8.images","text/plain; charset=us-ascii":"https://www.gutenberg.org/ebooks/68053.txt.utf-8","application/rdf+xml":"https://www.gutenberg.org/ebooks/68053.rdf","image/jpeg":"https://www.gutenberg.org/cache/epub/68053/pg68053.cover.medium.jpg","application/octet-stream":"https://www.gutenberg.org/files/68053/68053-0.zip"},"download_count":26},{"id":68058,"title":"Dixie: A monthly magazine, Vol. I, No. 1, January 1899","authors":[{"name":"Various","birth_year":null,"death_year":null}],"translators":[],"subjects":["Southern States -- Periodicals"],"bookshelves":[],"languages":["en"],"copyright":false,"media_type":"Text","formats":{"text/html":"https://www.gutenberg.org/ebooks/68058.html.images","application/epub+zip":"https://www.gutenberg.org/ebooks/68058.epub3.images","application/x-mobipocket-ebook":"https://www.gutenberg.org/ebooks/68058.kf8.images","text/plain; charset=us-ascii":"https://www.gutenberg.org/ebooks/68058.txt.utf-8","application/rdf+xml":"https://www.gutenberg.org/ebooks/68058.rdf","image/jpeg":"https://www.gutenberg.org/cache/epub/68058/pg68058.cover.medium.jpg","application/octet-stream":"https://www.gutenberg.org/files/68058/68058-0.zip"},"download_count":26},{"id":68077,"title":"Observations on the Operation and Use of Mercury in the Venereal Disease","authors":[{"name":"Duncan, Andrew","birth_year":1744,"death_year":1828}],"translators":[],"subjects":["Mercury -- Therapeutic use -- Early works to 1800","Sexually transmitted diseases -- Early works to 1800"],"bookshelves":[],"languages":["en"],"copyright":false,"media_type":"Text","formats":{"text/html":"https://www.gutenberg.org/ebooks/68077.html.images","application/epub+zip":"https://www.gutenberg.org/ebooks/68077.epub3.images","application/x-mobipocket-ebook":"https://www.gutenberg.org/ebooks/68077.kf8.images","text/plain; charset=us-ascii":"https://www.gutenberg.org/ebooks/68077.txt.utf-8","application/rdf+xml":"https://www.gutenberg.org/ebooks/68077.rdf","image/jpeg":"https://www.gutenberg.org/cache/epub/68077/pg68077.cover.medium.jpg","application/octet-stream":"https://www.gutenberg.org/files/68077/68077-0.zip"},"download_count":26},{"id":68143,"title":"The life record of H. W. Graber: A Terry Texas Ranger, 1861-1865; sixty-two years in Texas","authors":[{"name":"Graber, H. W. (Henry W.)","birth_year":1841,"death_year":1917}],"translators":[],"subjects":["Graber, H. W. (Henry W.), 1841-1917","Texas -- Biography","Texas -- History -- 1846-1950","Texas -- History -- Civil War, 1861-1865 -- Personal narratives, Confederate","Texas Rangers -- Biography","United States -- History -- Civil War, 1861-1865 -- Personal narratives, Confederate"],"bookshelves":[],"languages":["en"],"copyright":false,"media_type":"Text","formats":{"text/html":"https://www.gutenberg.org/ebooks/68143.html.images","application/epub+zip":"https://www.gutenberg.org/ebooks/68143.epub3.images","application/x-mobipocket-ebook":"https://www.gutenberg.org/ebooks/68143.kf8.images","text/plain; charset=us-ascii":"https://www.gutenberg.org/ebooks/68143.txt.utf-8","application/rdf+xml":"https://www.gutenberg.org/ebooks/68143.rdf","image/jpeg":"https://www.gutenberg.org/cache/epub/68143/pg68143.cover.medium.jpg","application/octet-stream":"https://www.gutenberg.org/files/68143/68143-0.zip"},"download_count":26},{"id":68157,"title":"Manual of the apiary","authors":[{"name":"Cook, Albert John","birth_year":1842,"death_year":1916}],"translators":[],"subjects":["Bee culture","Bees"],"bookshelves":[],"languages":["en"],"copyright":false,"media_type":"Text","formats":{"text/html":"https://www.gutenberg.org/ebooks/68157.html.images","application/epub+zip":"https://www.gutenberg.org/ebooks/68157.epub3.images","application/x-mobipocket-ebook":"https://www.gutenberg.org/ebooks/68157.kf8.images","text/plain; charset=us-ascii":"https://www.gutenberg.org/ebooks/68157.txt.utf-8","application/rdf+xml":"https://www.gutenberg.org/ebooks/68157.rdf","image/jpeg":"https://www.gutenberg.org/cache/epub/68157/pg68157.cover.medium.jpg","application/octet-stream":"https://www.gutenberg.org/files/68157/68157-0.zip"},"download_count":26},{"id":68233,"title":"The incredible invasion","authors":[{"name":"Smith, George O. (George Oliver)","birth_year":1911,"death_year":1981}],"translators":[],"subjects":["Dictators -- Fiction","Diseases -- Fiction","Epidemics -- Fiction","Science fiction","Short stories","United Nations -- Fiction"],"bookshelves":[],"languages":["en"],"copyright":false,"media_type":"Text","formats":{"text/html":"https://www.gutenberg.org/ebooks/68233.html.images","application/epub+zip":"https://www.gutenberg.org/ebooks/68233.epub3.images","application/x-mobipocket-ebook":"https://www.gutenberg.org/ebooks/68233.kf8.images","text/plain; charset=us-ascii":"https://www.gutenberg.org/ebooks/68233.txt.utf-8","application/rdf+xml":"https://www.gutenberg.org/ebooks/68233.rdf","image/jpeg":"https://www.gutenberg.org/cache/epub/68233/pg68233.cover.medium.jpg","application/octet-stream":"https://www.gutenberg.org/files/68233/68233-0.zip"},"download_count":26},{"id":68268,"title":"The loves of Pelleas and Etarre","authors":[{"name":"Gale, Zona","birth_year":1874,"death_year":1938}],"translators":[],"subjects":["American fiction -- 20th century","Love -- Fiction","New York (N.Y.) -- Social life and customs -- 20th century -- Fiction","Older couples -- Fiction","Short stories, American"],"bookshelves":[],"languages":["en"],"copyright":false,"media_type":"Text","formats":{"text/html":"https://www.gutenberg.org/ebooks/68268.html.images","application/epub+zip":"https://www.gutenberg.org/ebooks/68268.epub3.images","application/x-mobipocket-ebook":"https://www.gutenberg.org/ebooks/68268.kf8.images","text/plain; charset=us-ascii":"https://www.gutenberg.org/ebooks/68268.txt.utf-8","application/rdf+xml":"https://www.gutenberg.org/ebooks/68268.rdf","image/jpeg":"https://www.gutenberg.org/cache/epub/68268/pg68268.cover.medium.jpg","application/octet-stream":"https://www.gutenberg.org/files/68268/68268-0.zip"},"download_count":26},{"id":68372,"title":"Trial of the Major War Criminals Before the International Military Tribunal, Nuremburg, 14 November 1945-1 October 1946, Volume 15","authors":[{"name":"Various","birth_year":null,"death_year":null}],"translators":[],"subjects":["Göring, Hermann, 1893-1946 -- Trials, litigation, etc.","Nuremberg Trial of Major German War Criminals, Nuremberg, Germany, 1945-1946","War crime trials -- Germany -- Nuremberg"],"bookshelves":[],"languages":["en"],"copyright":false,"media_type":"Text","formats":{"text/html":"https://www.gutenberg.org/ebooks/68372.html.images","application/epub+zip":"https://www.gutenberg.org/ebooks/68372.epub3.images","application/x-mobipocket-ebook":"https://www.gutenberg.org/ebooks/68372.kf8.images","text/plain; charset=us-ascii":"https://www.gutenberg.org/ebooks/68372.txt.utf-8","application/rdf+xml":"https://www.gutenberg.org/ebooks/68372.rdf","image/jpeg":"https://www.gutenberg.org/cache/epub/68372/pg68372.cover.medium.jpg","application/octet-stream":"https://www.gutenberg.org/files/68372/68372-0.zip"},"download_count":26},{"id":68376,"title":"Nick Carter Stories No. 120, December 26, 1914: An uncanny revenge; or, Nick Carter and the mind murderer.","authors":[{"name":"Carter, Nicholas (House name)","birth_year":null,"death_year":null}],"translators":[],"subjects":["Detective and mystery stories, American -- Periodicals","Popular literature -- Periodicals"],"bookshelves":[],"languages":["en"],"copyright":false,"media_type":"Text","formats":{"text/html":"https://www.gutenberg.org/ebooks/68376.html.images","application/epub+zip":"https://www.gutenberg.org/ebooks/68376.epub3.images","application/x-mobipocket-ebook":"https://www.gutenberg.org/ebooks/68376.kf8.images","text/plain; charset=us-ascii":"https://www.gutenberg.org/ebooks/68376.txt.utf-8","application/rdf+xml":"https://www.gutenberg.org/ebooks/68376.rdf","image/jpeg":"https://www.gutenberg.org/cache/epub/68376/pg68376.cover.medium.jpg","application/octet-stream":"https://www.gutenberg.org/files/68376/68376-0.zip"},"download_count":26},{"id":68405,"title":"The Philistine : $b a periodical of protest (Vol. I, No. 5, October 1895)","authors":[{"name":"Various","birth_year":null,"death_year":null}],"translators":[],"subjects":["American literature -- Periodicals","American periodicals","Society of the Philistines (East Aurora, N.Y.) -- Periodicals"],"bookshelves":[],"languages":["en"],"copyright":false,"media_type":"Text","formats":{"text/html":"https://www.gutenberg.org/ebooks/68405.html.images","application/epub+zip":"https://www.gutenberg.org/ebooks/68405.epub3.images","application/x-mobipocket-ebook":"https://www.gutenberg.org/ebooks/68405.kf8.images","text/plain; charset=us-ascii":"https://www.gutenberg.org/ebooks/68405.txt.utf-8","application/rdf+xml":"https://www.gutenberg.org/ebooks/68405.rdf","image/jpeg":"https://www.gutenberg.org/cache/epub/68405/pg68405.cover.medium.jpg","application/octet-stream":"https://www.gutenberg.org/files/68405/68405-0.zip"},"download_count":26},{"id":68414,"title":"The tryal of Mr. Daniel Sutton, for the high crime of preserving the lives of His Majesty's liege subjects, by means of inoculation","authors":[{"name":"Sutton, Daniel","birth_year":1735,"death_year":1819}],"translators":[],"subjects":["Smallpox -- Vaccination -- Great Britain -- Early works to 1800","Sutton, Daniel, 1735-1819"],"bookshelves":[],"languages":["en"],"copyright":false,"media_type":"Text","formats":{"text/html":"https://www.gutenberg.org/ebooks/68414.html.images","application/epub+zip":"https://www.gutenberg.org/ebooks/68414.epub3.images","application/x-mobipocket-ebook":"https://www.gutenberg.org/ebooks/68414.kf8.images","text/plain; charset=us-ascii":"https://www.gutenberg.org/ebooks/68414.txt.utf-8","application/rdf+xml":"https://www.gutenberg.org/ebooks/68414.rdf","image/jpeg":"https://www.gutenberg.org/cache/epub/68414/pg68414.cover.medium.jpg","application/octet-stream":"https://www.gutenberg.org/files/68414/68414-0.zip"},"download_count":26},{"id":68451,"title":"Mirrors of Moscow","authors":[{"name":"Bryant, Louise Stevens","birth_year":1885,"death_year":1959}],"translators":[],"subjects":["Soviet Union -- Biography","Soviet Union -- History -- Revolution, 1917-1921"],"bookshelves":[],"languages":["en"],"copyright":false,"media_type":"Text","formats":{"text/html":"https://www.gutenberg.org/ebooks/68451.html.images","application/epub+zip":"https://www.gutenberg.org/ebooks/68451.epub3.images","application/x-mobipocket-ebook":"https://www.gutenberg.org/ebooks/68451.kf8.images","text/plain; charset=us-ascii":"https://www.gutenberg.org/ebooks/68451.txt.utf-8","application/rdf+xml":"https://www.gutenberg.org/ebooks/68451.rdf","image/jpeg":"https://www.gutenberg.org/cache/epub/68451/pg68451.cover.medium.jpg","application/octet-stream":"https://www.gutenberg.org/files/68451/68451-0.zip"},"download_count":26},{"id":68455,"title":"The deadly dust","authors":[{"name":"Leinster, Murray","birth_year":1896,"death_year":1975}],"translators":[],"subjects":["Inventions -- Fiction","Inventors -- Fiction","Science fiction","Weapons -- Fiction"],"bookshelves":[],"languages":["en"],"copyright":false,"media_type":"Text","formats":{"text/html":"https://www.gutenberg.org/ebooks/68455.html.images","application/epub+zip":"https://www.gutenberg.org/ebooks/68455.epub3.images","application/x-mobipocket-ebook":"https://www.gutenberg.org/ebooks/68455.kf8.images","text/plain; charset=us-ascii":"https://www.gutenberg.org/ebooks/68455.txt.utf-8","application/rdf+xml":"https://www.gutenberg.org/ebooks/68455.rdf","image/jpeg":"https://www.gutenberg.org/cache/epub/68455/pg68455.cover.medium.jpg","application/octet-stream":"https://www.gutenberg.org/files/68455/68455-0.zip"},"download_count":26},{"id":68474,"title":"Nick Carter Stories No. 157, September 11, 1915: A human counterfeit; or, Nick Carter and the crook's double.","authors":[{"name":"Carter, Nicholas (House name)","birth_year":null,"death_year":null},{"name":"Lebhar, Bertram","birth_year":null,"death_year":null}],"translators":[],"subjects":["Detective and mystery stories, American -- Periodicals","Popular literature -- Periodicals"],"bookshelves":[],"languages":["en"],"copyright":false,"media_type":"Text","formats":{"text/html":"https://www.gutenberg.org/ebooks/68474.html.images","application/epub+zip":"https://www.gutenberg.org/ebooks/68474.epub3.images","application/x-mobipocket-ebook":"https://www.gutenberg.org/ebooks/68474.kf8.images","text/plain; charset=us-ascii":"https://www.gutenberg.org/ebooks/68474.txt.utf-8","application/rdf+xml":"https://www.gutenberg.org/ebooks/68474.rdf","image/jpeg":"https://www.gutenberg.org/cache/epub/68474/pg68474.cover.medium.jpg","application/octet-stream":"https://www.gutenberg.org/files/68474/68474-0.zip"},"download_count":26},{"id":68513,"title":"Old Bear-Paw, the trapper king; or, The love of a Blackfoot queen","authors":[{"name":"Avery, Henry M.","birth_year":null,"death_year":null}],"translators":[],"subjects":["Adventure stories","Black Hills (S.D. and Wyo.) -- Fiction","Dakota Indians -- Fiction","Dime novels","Indian scouts -- Fiction","Siksika Indians -- Fiction"],"bookshelves":[],"languages":["en"],"copyright":false,"media_type":"Text","formats":{"text/html":"https://www.gutenberg.org/ebooks/68513.html.images","application/epub+zip":"https://www.gutenberg.org/ebooks/68513.epub3.images","application/x-mobipocket-ebook":"https://www.gutenberg.org/ebooks/68513.kf8.images","text/plain; charset=us-ascii":"https://www.gutenberg.org/ebooks/68513.txt.utf-8","application/rdf+xml":"https://www.gutenberg.org/ebooks/68513.rdf","image/jpeg":"https://www.gutenberg.org/cache/epub/68513/pg68513.cover.medium.jpg","application/octet-stream":"https://www.gutenberg.org/files/68513/68513-0.zip"},"download_count":26},{"id":68578,"title":"John Sobieski: Lothian prize essay for 1881","authors":[{"name":"Tatham, Edward H. R. (Edward Henry Ralph)","birth_year":1857,"death_year":1938}],"translators":[],"subjects":["John III Sobieski, King of Poland, 1629-1696"],"bookshelves":[],"languages":["en"],"copyright":false,"media_type":"Text","formats":{"text/html":"https://www.gutenberg.org/ebooks/68578.html.images","application/epub+zip":"https://www.gutenberg.org/ebooks/68578.epub3.images","application/x-mobipocket-ebook":"https://www.gutenberg.org/ebooks/68578.kf8.images","text/plain; charset=us-ascii":"https://www.gutenberg.org/ebooks/68578.txt.utf-8","application/rdf+xml":"https://www.gutenberg.org/ebooks/68578.rdf","image/jpeg":"https://www.gutenberg.org/cache/epub/68578/pg68578.cover.medium.jpg","application/octet-stream":"https://www.gutenberg.org/files/68578/68578-0.zip"},"download_count":26},{"id":68585,"title":"Puppies and kittens, and other stories","authors":[{"name":"Cadby, Carine","birth_year":1866,"death_year":1957}],"translators":[],"subjects":["Animals -- Juvenile fiction"],"bookshelves":[],"languages":["en"],"copyright":false,"media_type":"Text","formats":{"text/html":"https://www.gutenberg.org/ebooks/68585.html.images","application/epub+zip":"https://www.gutenberg.org/ebooks/68585.epub3.images","application/x-mobipocket-ebook":"https://www.gutenberg.org/ebooks/68585.kf8.images","text/plain; charset=us-ascii":"https://www.gutenberg.org/ebooks/68585.txt.utf-8","application/rdf+xml":"https://www.gutenberg.org/ebooks/68585.rdf","image/jpeg":"https://www.gutenberg.org/cache/epub/68585/pg68585.cover.medium.jpg","application/octet-stream":"https://www.gutenberg.org/files/68585/68585-0.zip"},"download_count":26},{"id":68642,"title":"The little white gate","authors":[{"name":"Hoatson, Florence","birth_year":null,"death_year":null}],"translators":[],"subjects":["Children's poetry"],"bookshelves":[],"languages":["en"],"copyright":false,"media_type":"Text","formats":{"text/html":"https://www.gutenberg.org/ebooks/68642.html.images","application/epub+zip":"https://www.gutenberg.org/ebooks/68642.epub3.images","application/x-mobipocket-ebook":"https://www.gutenberg.org/ebooks/68642.kf8.images","text/plain; charset=us-ascii":"https://www.gutenberg.org/ebooks/68642.txt.utf-8","application/rdf+xml":"https://www.gutenberg.org/ebooks/68642.rdf","image/jpeg":"https://www.gutenberg.org/cache/epub/68642/pg68642.cover.medium.jpg","application/octet-stream":"https://www.gutenberg.org/files/68642/68642-0.zip"},"download_count":26},{"id":68643,"title":"Sasha the serf, and other stories of Russian life","authors":[{"name":"Anonymous","birth_year":null,"death_year":null}],"translators":[],"subjects":["Children -- Conduct of life -- Juvenile fiction","Children's stories","Conduct of life -- Juvenile fiction","Russia -- Social life and customs -- Juvenile fiction"],"bookshelves":[],"languages":["en"],"copyright":false,"media_type":"Text","formats":{"text/html":"https://www.gutenberg.org/ebooks/68643.html.images","application/epub+zip":"https://www.gutenberg.org/ebooks/68643.epub3.images","application/x-mobipocket-ebook":"https://www.gutenberg.org/ebooks/68643.kf8.images","text/plain; charset=us-ascii":"https://www.gutenberg.org/ebooks/68643.txt.utf-8","application/rdf+xml":"https://www.gutenberg.org/ebooks/68643.rdf","image/jpeg":"https://www.gutenberg.org/cache/epub/68643/pg68643.cover.medium.jpg","application/octet-stream":"https://www.gutenberg.org/files/68643/68643-0.zip"},"download_count":26},{"id":68726,"title":"The Crystal Circe","authors":[{"name":"Kuttner, Henry","birth_year":1915,"death_year":1958}],"translators":[],"subjects":["Asteroids -- Fiction","Human-alien encounters -- Fiction","Male friendship -- Fiction","Meteorites -- Fiction","Science fiction","Storytelling -- Fiction"],"bookshelves":[],"languages":["en"],"copyright":false,"media_type":"Text","formats":{"text/html":"https://www.gutenberg.org/ebooks/68726.html.images","application/epub+zip":"https://www.gutenberg.org/ebooks/68726.epub3.images","application/x-mobipocket-ebook":"https://www.gutenberg.org/ebooks/68726.kf8.images","text/plain; charset=us-ascii":"https://www.gutenberg.org/ebooks/68726.txt.utf-8","application/rdf+xml":"https://www.gutenberg.org/ebooks/68726.rdf","image/jpeg":"https://www.gutenberg.org/cache/epub/68726/pg68726.cover.medium.jpg","application/octet-stream":"https://www.gutenberg.org/files/68726/68726-0.zip"},"download_count":26},{"id":68731,"title":"Slavery in Maryland briefly considered","authors":[{"name":"Carey, John L.","birth_year":null,"death_year":1852}],"translators":[],"subjects":["Slavery -- Maryland"],"bookshelves":[],"languages":["en"],"copyright":false,"media_type":"Text","formats":{"text/html":"https://www.gutenberg.org/ebooks/68731.html.images","application/epub+zip":"https://www.gutenberg.org/ebooks/68731.epub3.images","application/x-mobipocket-ebook":"https://www.gutenberg.org/ebooks/68731.kf8.images","text/plain; charset=us-ascii":"https://www.gutenberg.org/ebooks/68731.txt.utf-8","application/rdf+xml":"https://www.gutenberg.org/ebooks/68731.rdf","image/jpeg":"https://www.gutenberg.org/cache/epub/68731/pg68731.cover.medium.jpg","application/octet-stream":"https://www.gutenberg.org/files/68731/68731-0.zip"},"download_count":26},{"id":68783,"title":"The swamp was upside down","authors":[{"name":"Leinster, Murray","birth_year":1896,"death_year":1975}],"translators":[],"subjects":["Geology -- Fiction","Science fiction","Space colonies -- Fiction"],"bookshelves":[],"languages":["en"],"copyright":false,"media_type":"Text","formats":{"text/html":"https://www.gutenberg.org/ebooks/68783.html.images","application/epub+zip":"https://www.gutenberg.org/ebooks/68783.epub3.images","application/x-mobipocket-ebook":"https://www.gutenberg.org/ebooks/68783.kf8.images","text/plain; charset=us-ascii":"https://www.gutenberg.org/ebooks/68783.txt.utf-8","application/rdf+xml":"https://www.gutenberg.org/ebooks/68783.rdf","image/jpeg":"https://www.gutenberg.org/cache/epub/68783/pg68783.cover.medium.jpg","application/octet-stream":"https://www.gutenberg.org/files/68783/68783-0.zip"},"download_count":26},{"id":68801,"title":"Cassell's book of birds; vol. 4","authors":[{"name":"Brehm, Alfred Edmund","birth_year":1829,"death_year":1884}],"translators":[{"name":"Jones, Thomas Rymer","birth_year":1810,"death_year":1880}],"subjects":["Birds"],"bookshelves":[],"languages":["en"],"copyright":false,"media_type":"Text","formats":{"text/html":"https://www.gutenberg.org/ebooks/68801.html.images","application/epub+zip":"https://www.gutenberg.org/ebooks/68801.epub3.images","application/x-mobipocket-ebook":"https://www.gutenberg.org/ebooks/68801.kf8.images","text/plain; charset=us-ascii":"https://www.gutenberg.org/ebooks/68801.txt.utf-8","application/rdf+xml":"https://www.gutenberg.org/ebooks/68801.rdf","image/jpeg":"https://www.gutenberg.org/cache/epub/68801/pg68801.cover.medium.jpg","application/octet-stream":"https://www.gutenberg.org/files/68801/68801-0.zip"},"download_count":26}]}