{"count":58808,"next":"http://129.241.150.113:8000/books/?languages=en&page=1505","previous":"http://129.241.150.113:8000/books/?languages=en&page=1503","results":[{"id":6028,"title":"Opening a Chestnut Burr","authors":[{"name":"Roe, Edward Payson","birth_year":1838,"death_year":1888}],"translators":[],"subjects":["Fiction"],"bookshelves":[],"languages":["en"],"copyright":false,"media_type":"Text","formats":{"text/html":"https://www.gutenberg.org/ebooks/6028.html.images","application/epub+zip":"https://www.gutenberg.org/ebooks/6028.epub3.images","application/x-mobipocket-ebook":"https://www.gutenberg.org/ebooks/6028.kf8.images","text/plain; charset=us-ascii":"https://www.gutenberg.org/ebooks/6028.txt.utf-8","application/rdf+xml":"https://www.gutenberg.org/ebooks/6028.rdf","image/jpeg":"https://www.gutenberg.org/cache/epub/6028/pg6028.cover.medium.jpg","application/octet-stream":"https://www.gutenberg.org/cache/epub/6028/pg6028-h.zip"},"download_count":23},{"id":6063,"title":"The Bobbsey Twins at School","authors":[{"name":"Hope, Laura Lee","birth_year":null,"death_year":null}],"translators":[],"subjects":["Bobbsey Twins (Fictitious characters) -- Juvenile fiction","Schools -- Juvenile fiction","Siblings -- Juvenile fiction","Twins -- Juvenile fiction"],"bookshelves":["Children's Book Series"],"languages":["en"],"copyright":false,"media_type":"Text","formats":{"text/html":"https://www.gutenberg.org/ebooks/6063.html.images","application/epub+zip":"https://www.gutenberg.org/ebooks/6063.epub3.images","application/x-mobipocket-ebook":"https://www.gutenberg.org/ebooks/6063.kf8.images","text/plain; charset=us-ascii":"https://www.gutenberg.org/ebooks/6063.txt.utf-8","application/rdf+xml":"https://www.gutenberg.org/ebooks/6063.rdf","image/jpeg":"https://www.gutenberg.org/cache/epub/6063/pg6063.cover.medium.jpg","application/octet-stream":"https://www.gutenberg.org/cache/epub/6063/pg6063-h.zip"},"download_count":23},{"id":6068,"title":"The Pony Rider Boys in Montana; Or, The Mystery of the Old Custer Trail","authors":[{"name":"Patchin, Frank Gee","birth_year":1861,"death_year":1925}],"translators":[],"subjects":["Horsemanship -- Juvenile fiction","Montana -- Juvenile fiction"],"bookshelves":[],"languages":["en"],"copyright":false,"media_type":"Text","formats":{"text/html":"https://www.gutenberg.org/ebooks/6068.html.images","application/epub+zip":"https://www.gutenberg.org/ebooks/6068.epub3.images","application/x-mobipocket-ebook":"https://www.gutenberg.org/ebooks/6068.kf8.images","text/plain; charset=us-ascii":"https://www.gutenberg.org/ebooks/6068.txt.utf-8","application/rdf+xml":"https://www.gutenberg.org/ebooks/6068.rdf","image/jpeg":"https://www.gutenberg.org/cache/epub/6068/pg6068.cover.medium.jpg","application/octet-stream":"https://www.gutenberg.org/cache/epub/6068/pg6068-h.zip"},"download_count":23},{"id":6096,"title":"Amelia — Volume 2","authors":[{"name":"Fielding, Henry","birth_year":1707,"death_year":1754}],"translators":[],"subjects":["Didactic fiction","Domestic fiction","England -- Fiction","Married women -- Fiction"],"bookshelves":[],"languages":["en"],"copyright":false,"media_type":"Text","formats":{"text/html":"https://www.gutenberg.org/ebooks/6096.html.images","application/epub+zip":"https://www.gutenberg.org/ebooks/6096.epub3.images","application/x-mobipocket-ebook":"https://www.gutenberg.org/ebooks/6096.kf8.images","text/plain; charset=us-ascii":"https://www.gutenberg.org/ebooks/6096.txt.utf-8","application/rdf+xml":"https://www.gutenberg.org/ebooks/6096.rdf","image/jpeg":"https://www.gutenberg.org/cache/epub/6096/pg6096.cover.medium.jpg","application/octet-stream":"https://www.gutenberg.org/cache/epub/6096/pg6096-h.zip"},"download_count":23},{"id":6129,"title":"Healthful Sports for Boys","authors":[{"name":"Calhoun, A. R. (Alfred Rochefort)","birth_year":1844,"death_year":null}],"translators":[],"subjects":["Amusements","Games"],"bookshelves":[],"languages":["en"],"copyright":false,"media_type":"Text","formats":{"text/html":"https://www.gutenberg.org/ebooks/6129.html.images","application/epub+zip":"https://www.gutenberg.org/ebooks/6129.epub3.images","application/x-mobipocket-ebook":"https://www.gutenberg.org/ebooks/6129.kf8.images","text/plain; charset=us-ascii":"https://www.gutenberg.org/ebooks/6129.txt.utf-8","application/rdf+xml":"https://www.gutenberg.org/ebooks/6129.rdf","image/jpeg":"https://www.gutenberg.org/cache/epub/6129/pg6129.cover.medium.jpg","application/octet-stream":"https://www.gutenberg.org/cache/epub/6129/pg6129-h.zip"},"download_count":23},{"id":6220,"title":"The Trespasser, Volume 2","authors":[{"name":"Parker, Gilbert","birth_year":1862,"death_year":1932}],"translators":[],"subjects":["Canadian fiction"],"bookshelves":[],"languages":["en"],"copyright":false,"media_type":"Text","formats":{"text/html":"https://www.gutenberg.org/ebooks/6220.html.images","application/epub+zip":"https://www.gutenberg.org/ebooks/6220.epub3.images","application/x-mobipocket-ebook":"https://www.gutenberg.org/ebooks/6220.kf8.images","text/plain; charset=us-ascii":"https://www.gutenberg.org/ebooks/6220.txt.utf-8","application/rdf+xml":"https://www.gutenberg.org/ebooks/6220.rdf","image/jpeg":"https://www.gutenberg.org/cache/epub/6220/pg6220.cover.medium.jpg","application/octet-stream":"https://www.gutenberg.org/cache/epub/6220/pg6220-h.zip"},"download_count":23},{"id":6233,"title":"The Battle of the Strong: A Romance of Two Kingdoms — Volume 4","authors":[{"name":"Parker, Gilbert","birth_year":1862,"death_year":1932}],"translators":[],"subjects":["Anglo-French War, 1793-1802 -- Fiction","Channel Islands -- Fiction"],"bookshelves":["Bestsellers, American, 1895-1923"],"languages":["en"],"copyright":false,"media_type":"Text","formats":{"text/html":"https://www.gutenberg.org/ebooks/6233.html.images","application/epub+zip":"https://www.gutenberg.org/ebooks/6233.epub3.images","application/x-mobipocket-ebook":"https://www.gutenberg.org/ebooks/6233.kf8.images","text/plain; charset=us-ascii":"https://www.gutenberg.org/ebooks/6233.txt.utf-8","application/rdf+xml":"https://www.gutenberg.org/ebooks/6233.rdf","image/jpeg":"https://www.gutenberg.org/cache/epub/6233/pg6233.cover.medium.jpg","application/octet-stream":"https://www.gutenberg.org/cache/epub/6233/pg6233-h.zip"},"download_count":23},{"id":6237,"title":"The Lane That Had No Turning, Volume 1","authors":[{"name":"Parker, Gilbert","birth_year":1862,"death_year":1932}],"translators":[],"subjects":["Canadian fiction"],"bookshelves":[],"languages":["en"],"copyright":false,"media_type":"Text","formats":{"text/html":"https://www.gutenberg.org/ebooks/6237.html.images","application/epub+zip":"https://www.gutenberg.org/ebooks/6237.epub3.images","application/x-mobipocket-ebook":"https://www.gutenberg.org/ebooks/6237.kf8.images","text/plain; charset=us-ascii":"https://www.gutenberg.org/ebooks/6237.txt.utf-8","application/rdf+xml":"https://www.gutenberg.org/ebooks/6237.rdf","image/jpeg":"https://www.gutenberg.org/cache/epub/6237/pg6237.cover.medium.jpg","application/octet-stream":"https://www.gutenberg.org/cache/epub/6237/pg6237-h.zip"},"download_count":23},{"id":6257,"title":"Donovan Pasha, and Some People of Egypt — Volume 2","authors":[{"name":"Parker, Gilbert","birth_year":1862,"death_year":1932}],"translators":[],"subjects":["Egypt -- Fiction","Short stories"],"bookshelves":[],"languages":["en"],"copyright":false,"media_type":"Text","formats":{"text/html":"https://www.gutenberg.org/ebooks/6257.html.images","application/epub+zip":"https://www.gutenberg.org/ebooks/6257.epub3.images","application/x-mobipocket-ebook":"https://www.gutenberg.org/ebooks/6257.kf8.images","text/plain; charset=us-ascii":"https://www.gutenberg.org/ebooks/6257.txt.utf-8","application/rdf+xml":"https://www.gutenberg.org/ebooks/6257.rdf","image/jpeg":"https://www.gutenberg.org/cache/epub/6257/pg6257.cover.medium.jpg","application/octet-stream":"https://www.gutenberg.org/cache/epub/6257/pg6257-h.zip"},"download_count":23},{"id":6334,"title":"Sara, a Princess: The Story of a Noble Girl","authors":[{"name":"Newberry, Fannie E. (Fannie Ellsworth)","birth_year":1848,"death_year":1942}],"translators":[],"subjects":["Child caregivers -- Fiction","Fishers -- Fiction","Parents -- Death -- Fiction","Poor families -- Fiction","Young women -- Education -- Fiction"],"bookshelves":[],"languages":["en"],"copyright":false,"media_type":"Text","formats":{"text/html":"https://www.gutenberg.org/ebooks/6334.html.images","application/epub+zip":"https://www.gutenberg.org/ebooks/6334.epub3.images","application/x-mobipocket-ebook":"https://www.gutenberg.org/ebooks/6334.kf8.images","text/plain; charset=us-ascii":"https://www.gutenberg.org/ebooks/6334.txt.utf-8","application/rdf+xml":"https://www.gutenberg.org/ebooks/6334.rdf","image/jpeg":"https://www.gutenberg.org/cache/epub/6334/pg6334.cover.medium.jpg","application/octet-stream":"https://www.gutenberg.org/cache/epub/6334/pg6334-h.zip"},"download_count":23},{"id":6365,"title":"Richard Dare's Venture; Or, Striking Out for Himself","authors":[{"name":"Stratemeyer, Edward","birth_year":1862,"death_year":1930}],"translators":[],"subjects":["Booksellers and bookselling -- Juvenile fiction","Christian life -- Juvenile fiction","New York (N.Y.) -- Juvenile fiction","Success -- Juvenile fiction","Young men -- Juvenile fiction"],"bookshelves":[],"languages":["en"],"copyright":false,"media_type":"Text","formats":{"text/html":"https://www.gutenberg.org/ebooks/6365.html.images","application/epub+zip":"https://www.gutenberg.org/ebooks/6365.epub3.images","application/x-mobipocket-ebook":"https://www.gutenberg.org/ebooks/6365.kf8.images","text/plain; charset=us-ascii":"https://www.gutenberg.org/ebooks/6365.txt.utf-8","application/rdf+xml":"https://www.gutenberg.org/ebooks/6365.rdf","image/jpeg":"https://www.gutenberg.org/cache/epub/6365/pg6365.cover.medium.jpg","application/octet-stream":"https://www.gutenberg.org/cache/epub/6365/pg6365-h.zip"},"download_count":23},{"id":6374,"title":"Princess Maritza","authors":[{"name":"Brebner, Percy James","birth_year":1864,"death_year":1922}],"translators":[],"subjects":["Adventure stories","British -- Foreign countries -- Fiction"],"bookshelves":[],"languages":["en"],"copyright":false,"media_type":"Text","formats":{"text/html":"https://www.gutenberg.org/ebooks/6374.html.images","application/epub+zip":"https://www.gutenberg.org/ebooks/6374.epub3.images","application/x-mobipocket-ebook":"https://www.gutenberg.org/ebooks/6374.kf8.images","text/plain; charset=us-ascii":"https://www.gutenberg.org/ebooks/6374.txt.utf-8","application/rdf+xml":"https://www.gutenberg.org/ebooks/6374.rdf","image/jpeg":"https://www.gutenberg.org/cache/epub/6374/pg6374.cover.medium.jpg","application/octet-stream":"https://www.gutenberg.org/cache/epub/6374/pg6374-h.zip"},"download_count":23},{"id":6415,"title":"This Freedom","authors":[{"name":"Hutchinson, A. S. M. (Arthur Stuart-Menteth)","birth_year":1880,"death_year":1971}],"translators":[],"subjects":["Marriage -- Fiction","Women -- Social and moral questions -- Fiction"],"bookshelves":["Bestsellers, American, 1895-1923"],"languages":["en"],"copyright":false,"media_type":"Text","formats":{"text/html":"https://www.gutenberg.org/ebooks/6415.html.images","text/html; charset=utf-8":"https://www.gutenberg.org/files/6415/6415-h/6415-h.htm","application/epub+zip":"https://www.gutenberg.org/ebooks/6415.epub3.images","application/x-mobipocket-ebook":"https://www.gutenberg.org/ebooks/6415.kf8.images","text/plain; charset=us-ascii":"https://www.gutenberg.org/ebooks/6415.txt.utf-8","text/plain; charset=utf-8":"https://www.gutenberg.org/files/6415/6415-0.txt","application/rdf+xml":"https://www.gutenberg.org/ebooks/6415.rdf","image/jpeg":"https://www.gutenberg.org/cache/epub/6415/pg6415.cover.medium.jpg","application/octet-stream":"https://www.gutenberg.org/cache/epub/6415/pg6415-h.zip"},"download_count":23},{"id":6460,"title":"Problems in American Democracy","authors":[{"name":"Williamson, Thames","birth_year":1894,"death_year":1961}],"translators":[],"subjects":["Social problems","United States -- Economic conditions -- 1918-1945","United States -- Politics and government","United States -- Social conditions"],"bookshelves":[],"languages":["en"],"copyright":false,"media_type":"Text","formats":{"text/html":"https://www.gutenberg.org/ebooks/6460.html.images","application/epub+zip":"https://www.gutenberg.org/ebooks/6460.epub3.images","application/x-mobipocket-ebook":"https://www.gutenberg.org/ebooks/6460.kf8.images","text/plain; charset=us-ascii":"https://www.gutenberg.org/ebooks/6460.txt.utf-8","application/rdf+xml":"https://www.gutenberg.org/ebooks/6460.rdf","image/jpeg":"https://www.gutenberg.org/cache/epub/6460/pg6460.cover.medium.jpg","application/octet-stream":"https://www.gutenberg.org/cache/epub/6460/pg6460-h.zip"},"download_count":23},{"id":6469,"title":"Queen Victoria, her girlhood and womanhood","authors":[{"name":"Greenwood, Grace","birth_year":1823,"death_year":1904}],"translators":[],"subjects":["Victoria, Queen of Great Britain, 1819-1901"],"bookshelves":["United Kingdom"],"languages":["en"],"copyright":false,"media_type":"Text","formats":{"text/html":"https://www.gutenberg.org/ebooks/6469.html.images","application/epub+zip":"https://www.gutenberg.org/ebooks/6469.epub3.images","application/x-mobipocket-ebook":"https://www.gutenberg.org/ebooks/6469.kf8.images","text/plain; charset=us-ascii":"https://www.gutenberg.org/ebooks/6469.txt.utf-8","text/plain; charset=iso-8859-1":"https://www.gutenberg.org/files/6469/6469-8.txt","application/rdf+xml":"https://www.gutenberg.org/ebooks/6469.rdf","image/jpeg":"https://www.gutenberg.org/cache/epub/6469/pg6469.cover.medium.jpg","application/octet-stream":"https://www.gutenberg.org/cache/epub/6469/pg6469-h.zip"},"download_count":23},{"id":6486,"title":"The Life of the Venerable Mother Mary of the Incarnation","authors":[{"name":"Anonymous","birth_year":null,"death_year":null}],"translators":[],"subjects":["Canada -- History -- To 1763 (New France)","Indians of North America","Marie de l'Incarnation, mère, 1599-1672"],"bookshelves":[],"languages":["en"],"copyright":false,"media_type":"Text","formats":{"text/html":"https://www.gutenberg.org/ebooks/6486.html.images","application/epub+zip":"https://www.gutenberg.org/ebooks/6486.epub3.images","application/x-mobipocket-ebook":"https://www.gutenberg.org/ebooks/6486.kf8.images","text/plain; charset=us-ascii":"https://www.gutenberg.org/ebooks/6486.txt.utf-8","text/plain; charset=iso-8859-1":"https://www.gutenberg.org/files/6486/6486-8.txt","application/rdf+xml":"https://www.gutenberg.org/ebooks/6486.rdf","image/jpeg":"https://www.gutenberg.org/cache/epub/6486/pg6486.cover.medium.jpg","application/octet-stream":"https://www.gutenberg.org/cache/epub/6486/pg6486-h.zip"},"download_count":23},{"id":6548,"title":"Captain Blood","authors":[{"name":"Sabatini, Rafael","birth_year":1875,"death_year":1950}],"translators":[],"subjects":["Adventure stories","British -- Caribbean Area -- Fiction","Caribbean Area -- Fiction","Historical fiction","Physicians -- Fiction","Pirates -- Fiction","Sea stories"],"bookshelves":["Movie Books","Pirates, Buccaneers, Corsairs, etc."],"languages":["en"],"copyright":true,"media_type":"Sound","formats":{"text/plain; charset=us-ascii":"https://www.gutenberg.org/files/6548/6548-readme.txt","text/html; charset=iso-8859-1":"https://www.gutenberg.org/files/6548/6548-index.htm","audio/mpeg":"https://www.gutenberg.org/files/6548/mp3/6548-3.mp3","application/rdf+xml":"https://www.gutenberg.org/ebooks/6548.rdf"},"download_count":23},{"id":6567,"title":"The Adventure of Living : a Subjective Autobiography","authors":[{"name":"Strachey, John St. Loe","birth_year":1860,"death_year":1927}],"translators":[],"subjects":["Journalists -- Great Britain -- Biography","Strachey, John St. Loe, 1860-1927"],"bookshelves":[],"languages":["en"],"copyright":false,"media_type":"Text","formats":{"text/html":"https://www.gutenberg.org/ebooks/6567.html.images","application/epub+zip":"https://www.gutenberg.org/ebooks/6567.epub3.images","application/x-mobipocket-ebook":"https://www.gutenberg.org/ebooks/6567.kf8.images","text/plain; charset=us-ascii":"https://www.gutenberg.org/ebooks/6567.txt.utf-8","text/plain; charset=iso-8859-1":"https://www.gutenberg.org/files/6567/6567.txt","application/rdf+xml":"https://www.gutenberg.org/ebooks/6567.rdf","image/jpeg":"https://www.gutenberg.org/cache/epub/6567/pg6567.cover.medium.jpg","application/octet-stream":"https://www.gutenberg.org/cache/epub/6567/pg6567-h.zip"},"download_count":23},{"id":6570,"title":"Lectures and Essays","authors":[{"name":"Smith, Goldwin","birth_year":1823,"death_year":1910}],"translators":[],"subjects":["Canadian essays -- 19th century"],"bookshelves":[],"languages":["en"],"copyright":false,"media_type":"Text","formats":{"application/rdf+xml":"https://www.gutenberg.org/ebooks/6570.rdf","text/html":"https://www.gutenberg.org/ebooks/6570.html.images","application/epub+zip":"https://www.gutenberg.org/ebooks/6570.epub3.images","application/x-mobipocket-ebook":"https://www.gutenberg.org/ebooks/6570.kf8.images","text/plain; charset=us-ascii":"https://www.gutenberg.org/ebooks/6570.txt.utf-8","image/jpeg":"https://www.gutenberg.org/cache/epub/6570/pg6570.cover.medium.jpg","application/octet-stream":"https://www.gutenberg.org/cache/epub/6570/pg6570-h.zip"},"download_count":23},{"id":6668,"title":"Annette, the Metis Spy: A Heroine of the N.W. Rebellion","authors":[{"name":"Collins, J. E. (Joseph Edmund)","birth_year":1855,"death_year":1892}],"translators":[],"subjects":["Canada -- Fiction","Historical fiction","Riel Rebellion, 1885 -- Fiction"],"bookshelves":[],"languages":["en"],"copyright":false,"media_type":"Text","formats":{"text/html":"https://www.gutenberg.org/ebooks/6668.html.images","application/epub+zip":"https://www.gutenberg.org/ebooks/6668.epub3.images","application/x-mobipocket-ebook":"https://www.gutenberg.org/ebooks/6668.kf8.images","text/plain; charset=us-ascii":"https://www.gutenberg.org/ebooks/6668.txt.utf-8","application/rdf+xml":"https://www.gutenberg.org/ebooks/6668.rdf","image/jpeg":"https://www.gutenberg.org/cache/epub/6668/pg6668.cover.medium.jpg","application/octet-stream":"https://www.gutenberg.org/cache/epub/6668/pg6668-h.zip"},"download_count":23},{"id":6710,"title":"The Evolution of Man — Volume 2","authors":[{"name":"Haeckel, Ernst","birth_year":1834,"death_year":1919}],"translators":[{"name":"McCabe, Joseph","birth_year":1867,"death_year":1955}],"subjects":["Anatomy, Comparative","Embryology, Human","Evolution","Human beings -- Origin"],"bookshelves":[],"languages":["en"],"copyright":false,"media_type":"Text","formats":{"text/html":"https://www.gutenberg.org/ebooks/6710.html.images","application/epub+zip":"https://www.gutenberg.org/ebooks/6710.epub3.images","application/x-mobipocket-ebook":"https://www.gutenberg.org/ebooks/6710.kf8.images","text/plain; charset=us-ascii":"https://www.gutenberg.org/ebooks/6710.txt.utf-8","application/rdf+xml":"https://www.gutenberg.org/ebooks/6710.rdf","image/jpeg":"https://www.gutenberg.org/cache/epub/6710/pg6710.cover.medium.jpg","application/octet-stream":"https://www.gutenberg.org/cache/epub/6710/pg6710-h.zip"},"download_count":23},{"id":6805,"title":"The Mill Mystery","authors":[{"name":"Green, Anna Katharine","birth_year":1846,"death_year":1935}],"translators":[],"subjects":["Detective and mystery stories"],"bookshelves":[],"languages":["en"],"copyright":false,"media_type":"Text","formats":{"text/html":"https://www.gutenberg.org/ebooks/6805.html.images","application/epub+zip":"https://www.gutenberg.org/ebooks/6805.epub3.images","application/x-mobipocket-ebook":"https://www.gutenberg.org/ebooks/6805.kf8.images","text/plain; charset=us-ascii":"https://www.gutenberg.org/ebooks/6805.txt.utf-8","application/rdf+xml":"https://www.gutenberg.org/ebooks/6805.rdf","image/jpeg":"https://www.gutenberg.org/cache/epub/6805/pg6805.cover.medium.jpg","application/octet-stream":"https://www.gutenberg.org/cache/epub/6805/pg6805-h.zip"},"download_count":23},{"id":6881,"title":"Note Book of an English Opium-Eater","authors":[{"name":"De Quincey, Thomas","birth_year":1785,"death_year":1859}],"translators":[],"subjects":["Opium abuse -- England"],"bookshelves":[],"languages":["en"],"copyright":false,"media_type":"Text","formats":{"text/html":"https://www.gutenberg.org/ebooks/6881.html.images","application/epub+zip":"https://www.gutenberg.org/ebooks/6881.epub3.images","application/x-mobipocket-ebook":"https://www.gutenberg.org/ebooks/6881.kf8.images","text/plain; charset=us-ascii":"https://www.gutenberg.org/ebooks/6881.txt.utf-8","application/rdf+xml":"https://www.gutenberg.org/ebooks/6881.rdf","image/jpeg":"https://www.gutenberg.org/cache/epub/6881/pg6881.cover.medium.jpg","application/octet-stream":"https://www.gutenberg.org/cache/epub/6881/pg6881-h.zip"},"download_count":23},{"id":6894,"title":"Chimes of Mission Bells; an historical sketch of California and her missions","authors":[{"name":"Field, Maria Antonia","birth_year":1885,"death_year":null}],"translators":[],"subjects":["Missions -- California","Spanish mission buildings -- California"],"bookshelves":["Christianity"],"languages":["en"],"copyright":false,"media_type":"Text","formats":{"text/html":"https://www.gutenberg.org/ebooks/6894.html.images","text/html; charset=iso-8859-1":"https://www.gutenberg.org/files/6894/6894-h/6894-h.htm","application/epub+zip":"https://www.gutenberg.org/ebooks/6894.epub3.images","application/x-mobipocket-ebook":"https://www.gutenberg.org/ebooks/6894.kf8.images","text/plain; charset=us-ascii":"https://www.gutenberg.org/ebooks/6894.txt.utf-8","text/plain; charset=iso-8859-1":"https://www.gutenberg.org/files/6894/6894-8.txt","application/rdf+xml":"https://www.gutenberg.org/ebooks/6894.rdf","image/jpeg":"https://www.gutenberg.org/cache/epub/6894/pg6894.cover.medium.jpg","application/octet-stream":"https://www.gutenberg.org/cache/epub/6894/pg6894-h.zip"},"download_count":23},{"id":7039,"title":"The Angel Adjutant of \"Twice Born Men\"","authors":[{"name":"Carpenter, Minnie Lindsay Rowell","birth_year":1874,"death_year":1960}],"translators":[],"subjects":["Lee, Kate","Salvation Army"],"bookshelves":[],"languages":["en"],"copyright":false,"media_type":"Text","formats":{"text/html":"https://www.gutenberg.org/ebooks/7039.html.images","text/html; charset=utf-8":"https://www.gutenberg.org/files/7039/7039-h/7039-h.htm","application/epub+zip":"https://www.gutenberg.org/ebooks/7039.epub3.images","application/x-mobipocket-ebook":"https://www.gutenberg.org/ebooks/7039.kf8.images","text/plain; charset=us-ascii":"https://www.gutenberg.org/ebooks/7039.txt.utf-8","application/rdf+xml":"https://www.gutenberg.org/ebooks/7039.rdf","image/jpeg":"https://www.gutenberg.org/cache/epub/7039/pg7039.cover.medium.jpg","application/octet-stream":"https://www.gutenberg.org/cache/epub/7039/pg7039-h.zip"},"download_count":23},{"id":7059,"title":"Peregrine's Progress","authors":[{"name":"Farnol, Jeffery","birth_year":1878,"death_year":1952}],"translators":[],"subjects":["Adventure stories","England -- Social life and customs -- Fiction","Love stories","Young men -- Fiction"],"bookshelves":[],"languages":["en"],"copyright":false,"media_type":"Text","formats":{"text/html":"https://www.gutenberg.org/ebooks/7059.html.images","application/epub+zip":"https://www.gutenberg.org/ebooks/7059.epub3.images","application/x-mobipocket-ebook":"https://www.gutenberg.org/ebooks/7059.kf8.images","text/plain; charset=us-ascii":"https://www.gutenberg.org/ebooks/7059.txt.utf-8","application/rdf+xml":"https://www.gutenberg.org/ebooks/7059.rdf","image/jpeg":"https://www.gutenberg.org/cache/epub/7059/pg7059.cover.medium.jpg","application/octet-stream":"https://www.gutenberg.org/cache/epub/7059/pg7059-h.zip"},"download_count":23},{"id":7099,"title":"A Trip to Manitoba","authors":[{"name":"FitzGibbon, Mary Agnes","birth_year":1851,"death_year":1915}],"translators":[],"subjects":["Manitoba -- Description and travel"],"bookshelves":["Women's Travel Journals"],"languages":["en"],"copyright":false,"media_type":"Text","formats":{"text/html":"https://www.gutenberg.org/ebooks/7099.html.images","application/epub+zip":"https://www.gutenberg.org/ebooks/7099.epub3.images","application/x-mobipocket-ebook":"https://www.gutenberg.org/ebooks/7099.kf8.images","text/plain; charset=us-ascii":"https://www.gutenberg.org/ebooks/7099.txt.utf-8","text/plain; charset=iso-8859-1":"https://www.gutenberg.org/files/7099/7099-8.txt","application/rdf+xml":"https://www.gutenberg.org/ebooks/7099.rdf","image/jpeg":"https://www.gutenberg.org/cache/epub/7099/pg7099.cover.medium.jpg","application/octet-stream":"https://www.gutenberg.org/cache/epub/7099/pg7099-h.zip"},"download_count":23},{"id":7153,"title":"Elder Conklin and Other Stories","authors":[{"name":"Harris, Frank","birth_year":1856,"death_year":1931}],"translators":[],"subjects":["Fiction","Short stories"],"bookshelves":[],"languages":["en"],"copyright":false,"media_type":"Text","formats":{"text/html":"https://www.gutenberg.org/ebooks/7153.html.images","text/html; charset=utf-8":"https://www.gutenberg.org/files/7153/7153-h/7153-h.htm","application/epub+zip":"https://www.gutenberg.org/ebooks/7153.epub3.images","application/x-mobipocket-ebook":"https://www.gutenberg.org/ebooks/7153.kf8.images","text/plain; charset=us-ascii":"https://www.gutenberg.org/ebooks/7153.txt.utf-8","text/plain; charset=utf-8":"https://www.gutenberg.org/files/7153/7153-0.txt","text/plain; charset=iso-8859-1":"https://www.gutenberg.org/files/7153/7153-8.txt","application/rdf+xml":"https://www.gutenberg.org/ebooks/7153.rdf","image/jpeg":"https://www.gutenberg.org/cache/epub/7153/pg7153.cover.medium.jpg","application/octet-stream":"https://www.gutenberg.org/cache/epub/7153/pg7153-h.zip"},"download_count":23},{"id":7165,"title":"The Legends of Saint Patrick","authors":[{"name":"De Vere, Aubrey","birth_year":1814,"death_year":1902}],"translators":[],"subjects":["Patrick, Saint, 373?-463?"],"bookshelves":[],"languages":["en"],"copyright":false,"media_type":"Text","formats":{"text/html":"https://www.gutenberg.org/ebooks/7165.html.images","application/epub+zip":"https://www.gutenberg.org/ebooks/7165.epub3.images","application/x-mobipocket-ebook":"https://www.gutenberg.org/ebooks/7165.kf8.images","text/plain; charset=us-ascii":"https://www.gutenberg.org/ebooks/7165.txt.utf-8","text/plain; charset=utf-8":"https://www.gutenberg.org/files/7165/7165-0.txt","application/rdf+xml":"https://www.gutenberg.org/ebooks/7165.rdf","image/jpeg":"https://www.gutenberg.org/cache/epub/7165/pg7165.cover.medium.jpg","application/octet-stream":"https://www.gutenberg.org/cache/epub/7165/pg7165-h.zip"},"download_count":23},{"id":7208,"title":"Kathleen","authors":[{"name":"Morley, Christopher","birth_year":1890,"death_year":1957}],"translators":[],"subjects":["Authorship -- Fiction","College students -- Fiction","London (England) -- Fiction","Young women -- Fiction"],"bookshelves":[],"languages":["en"],"copyright":false,"media_type":"Text","formats":{"text/html":"https://www.gutenberg.org/ebooks/7208.html.images","text/html; charset=utf-8":"https://www.gutenberg.org/files/7208/7208-h/7208-h.htm","application/epub+zip":"https://www.gutenberg.org/ebooks/7208.epub3.images","application/x-mobipocket-ebook":"https://www.gutenberg.org/ebooks/7208.kf8.images","text/plain; charset=us-ascii":"https://www.gutenberg.org/ebooks/7208.txt.utf-8","text/plain; charset=utf-8":"https://www.gutenberg.org/files/7208/7208-0.txt","application/rdf+xml":"https://www.gutenberg.org/ebooks/7208.rdf","image/jpeg":"https://www.gutenberg.org/cache/epub/7208/pg7208.cover.medium.jpg","application/octet-stream":"https://www.gutenberg.org/cache/epub/7208/pg7208-h.zip"},"download_count":23},{"id":7339,"title":"An Account of Sa-Go-Ye-Wat-Ha, or Red Jacket, and His People, 1750-1830","authors":[{"name":"Hubbard, John Niles","birth_year":1815,"death_year":1897}],"translators":[],"subjects":["Iroquois Indians -- Government relations","Red Jacket, Seneca chief, approximately 1756-1830","Seneca Indians -- Kings and rulers -- Biography"],"bookshelves":[],"languages":["en"],"copyright":false,"media_type":"Text","formats":{"text/html":"https://www.gutenberg.org/ebooks/7339.html.images","application/epub+zip":"https://www.gutenberg.org/ebooks/7339.epub3.images","application/x-mobipocket-ebook":"https://www.gutenberg.org/ebooks/7339.kf8.images","text/plain; charset=us-ascii":"https://www.gutenberg.org/ebooks/7339.txt.utf-8","application/rdf+xml":"https://www.gutenberg.org/ebooks/7339.rdf","image/jpeg":"https://www.gutenberg.org/cache/epub/7339/pg7339.cover.medium.jpg","application/octet-stream":"https://www.gutenberg.org/cache/epub/7339/pg7339-h.zip"},"download_count":23},{"id":7392,"title":"The Poetical Works of Oliver Wendell Holmes — Volume 05: Poems of the Class of '29 (1851-1889)","authors":[{"name":"Holmes, Oliver Wendell","birth_year":1809,"death_year":1894}],"translators":[],"subjects":["American poetry"],"bookshelves":[],"languages":["en"],"copyright":false,"media_type":"Text","formats":{"text/html":"https://www.gutenberg.org/ebooks/7392.html.images","application/epub+zip":"https://www.gutenberg.org/ebooks/7392.epub3.images","application/x-mobipocket-ebook":"https://www.gutenberg.org/ebooks/7392.kf8.images","text/plain; charset=us-ascii":"https://www.gutenberg.org/ebooks/7392.txt.utf-8","application/rdf+xml":"https://www.gutenberg.org/ebooks/7392.rdf","image/jpeg":"https://www.gutenberg.org/cache/epub/7392/pg7392.cover.medium.jpg","application/octet-stream":"https://www.gutenberg.org/files/7392/7392-0.zip"},"download_count":23}]}