{"count":58808,"next":"http://129.241.150.113:8000/books/?languages=en&page=1816","previous":"http://129.241.150.113:8000/books/?languages=en&page=1814","results":[{"id":2224,"title":"Human Genome Project, rough draft, Chromosome Y Number 24","authors":[{"name":"Human Genome Project","birth_year":null,"death_year":null}],"translators":[],"subjects":["Human Genome Project","Human gene mapping","Human genetics","Nucleotide sequence"],"bookshelves":[],"languages":["en"],"copyright":false,"media_type":"Dataset","formats":{"text/plain; charset=us-ascii":"https://www.gutenberg.org/files/2224/2224.zip","application/rdf+xml":"https://www.gutenberg.org/ebooks/2224.rdf"},"download_count":10},{"id":2671,"title":"The Complete Writings of Charles Dudley Warner — Volume 1","authors":[{"name":"Warner, Charles Dudley","birth_year":1829,"death_year":1900}],"translators":[],"subjects":["Baddeck (N.S.) -- Description and travel","Essays","Gardening","Nova Scotia -- Description and travel"],"bookshelves":[],"languages":["en"],"copyright":false,"media_type":"Text","formats":{"text/html":"https://www.gutenberg.org/ebooks/2671.html.images","application/epub+zip":"https://www.gutenberg.org/ebooks/2671.epub3.images","application/x-mobipocket-ebook":"https://www.gutenberg.org/ebooks/2671.kf8.images","text/plain; charset=us-ascii":"https://www.gutenberg.org/ebooks/2671.txt.utf-8","application/rdf+xml":"https://www.gutenberg.org/ebooks/2671.rdf","image/jpeg":"https://www.gutenberg.org/cache/epub/2671/pg2671.cover.medium.jpg","application/octet-stream":"https://www.gutenberg.org/cache/epub/2671/pg2671-h.zip"},"download_count":10},{"id":3368,"title":"A Hazard of New Fortunes — Volume 3","authors":[{"name":"Howells, William Dean","birth_year":1837,"death_year":1920}],"translators":[],"subjects":["City and town life -- Fiction","Domestic fiction","Married people -- Fiction","Middle-aged persons -- Fiction","Moving, Household -- Fiction","New York (N.Y.) -- Fiction","Social classes -- Fiction"],"bookshelves":[],"languages":["en"],"copyright":false,"media_type":"Text","formats":{"text/html":"https://www.gutenberg.org/ebooks/3368.html.images","application/epub+zip":"https://www.gutenberg.org/ebooks/3368.epub3.images","application/x-mobipocket-ebook":"https://www.gutenberg.org/ebooks/3368.kf8.images","text/plain; charset=us-ascii":"https://www.gutenberg.org/ebooks/3368.txt.utf-8","application/rdf+xml":"https://www.gutenberg.org/ebooks/3368.rdf","image/jpeg":"https://www.gutenberg.org/cache/epub/3368/pg3368.cover.medium.jpg","application/octet-stream":"https://www.gutenberg.org/cache/epub/3368/pg3368-h.zip"},"download_count":10},{"id":3416,"title":"William Ewart Gladstone","authors":[{"name":"Bryce, James Bryce, Viscount","birth_year":1838,"death_year":1922}],"translators":[],"subjects":["Gladstone, W. E. (William Ewart), 1809-1898"],"bookshelves":[],"languages":["en"],"copyright":false,"media_type":"Text","formats":{"text/html":"https://www.gutenberg.org/ebooks/3416.html.images","application/epub+zip":"https://www.gutenberg.org/ebooks/3416.epub3.images","application/x-mobipocket-ebook":"https://www.gutenberg.org/ebooks/3416.kf8.images","text/plain; charset=us-ascii":"https://www.gutenberg.org/ebooks/3416.txt.utf-8","text/plain; charset=utf-8":"https://www.gutenberg.org/files/3416/3416-0.txt","application/rdf+xml":"https://www.gutenberg.org/ebooks/3416.rdf","image/jpeg":"https://www.gutenberg.org/cache/epub/3416/pg3416.cover.medium.jpg","application/octet-stream":"https://www.gutenberg.org/cache/epub/3416/pg3416-h.zip"},"download_count":10},{"id":3579,"title":"Recollections of the Private Life of Napoleon — Volume 12","authors":[{"name":"Wairy, Louis Constant","birth_year":1778,"death_year":1845}],"translators":[{"name":"Clark, Walter","birth_year":1846,"death_year":1924}],"subjects":["Napoleon I, Emperor of the French, 1769-1821","Napoleon I, Emperor of the French, 1769-1821 -- Contemporaries","Napoleon I, Emperor of the French, 1769-1821 -- Relations with valets","Valets -- France -- Biography","Wairy, Louis Constant, 1778-1845"],"bookshelves":[],"languages":["en"],"copyright":false,"media_type":"Text","formats":{"text/html":"https://www.gutenberg.org/ebooks/3579.html.images","application/epub+zip":"https://www.gutenberg.org/ebooks/3579.epub3.images","application/x-mobipocket-ebook":"https://www.gutenberg.org/ebooks/3579.kf8.images","text/plain; charset=us-ascii":"https://www.gutenberg.org/ebooks/3579.txt.utf-8","application/rdf+xml":"https://www.gutenberg.org/ebooks/3579.rdf","image/jpeg":"https://www.gutenberg.org/cache/epub/3579/pg3579.cover.medium.jpg","application/octet-stream":"https://www.gutenberg.org/cache/epub/3579/pg3579-h.zip"},"download_count":10},{"id":4479,"title":"Lord Ormont and His Aminta — Volume 3","authors":[{"name":"Meredith, George","birth_year":1828,"death_year":1909}],"translators":[],"subjects":["English fiction -- 19th century"],"bookshelves":[],"languages":["en"],"copyright":false,"media_type":"Text","formats":{"text/html":"https://www.gutenberg.org/ebooks/4479.html.images","application/epub+zip":"https://www.gutenberg.org/ebooks/4479.epub3.images","application/x-mobipocket-ebook":"https://www.gutenberg.org/ebooks/4479.kf8.images","text/plain; charset=us-ascii":"https://www.gutenberg.org/ebooks/4479.txt.utf-8","application/rdf+xml":"https://www.gutenberg.org/ebooks/4479.rdf","image/jpeg":"https://www.gutenberg.org/cache/epub/4479/pg4479.cover.medium.jpg","application/octet-stream":"https://www.gutenberg.org/cache/epub/4479/pg4479-h.zip"},"download_count":10},{"id":4485,"title":"The Amazing Marriage — Volume 3","authors":[{"name":"Meredith, George","birth_year":1828,"death_year":1909}],"translators":[],"subjects":["English fiction -- 19th century","Marriage -- Fiction"],"bookshelves":[],"languages":["en"],"copyright":false,"media_type":"Text","formats":{"text/html":"https://www.gutenberg.org/ebooks/4485.html.images","application/epub+zip":"https://www.gutenberg.org/ebooks/4485.epub3.images","application/x-mobipocket-ebook":"https://www.gutenberg.org/ebooks/4485.kf8.images","text/plain; charset=us-ascii":"https://www.gutenberg.org/ebooks/4485.txt.utf-8","application/rdf+xml":"https://www.gutenberg.org/ebooks/4485.rdf","image/jpeg":"https://www.gutenberg.org/cache/epub/4485/pg4485.cover.medium.jpg","application/octet-stream":"https://www.gutenberg.org/cache/epub/4485/pg4485-h.zip"},"download_count":10},{"id":4545,"title":"American Papyrus: 25 Poems","authors":[{"name":"Sills, Steven David Justin","birth_year":null,"death_year":null}],"translators":[],"subjects":["Poetry"],"bookshelves":[],"languages":["en"],"copyright":true,"media_type":"Text","formats":{"text/html":"https://www.gutenberg.org/ebooks/4545.html.images","text/html; charset=us-ascii":"https://www.gutenberg.org/files/4545/4545-h/4545-h.htm","application/epub+zip":"https://www.gutenberg.org/ebooks/4545.epub3.images","text/rtf":"https://www.gutenberg.org/files/4545/4545-r.rtf","application/x-mobipocket-ebook":"https://www.gutenberg.org/ebooks/4545.kf8.images","text/plain; charset=us-ascii":"https://www.gutenberg.org/ebooks/4545.txt.utf-8","application/rdf+xml":"https://www.gutenberg.org/ebooks/4545.rdf","image/jpeg":"https://www.gutenberg.org/cache/epub/4545/pg4545.cover.medium.jpg","application/octet-stream":"https://www.gutenberg.org/files/4545/4545-r.zip"},"download_count":10},{"id":4840,"title":"History of the United Netherlands from the Death of William the Silent to the Twelve Year's Truce, 1585c","authors":[{"name":"Motley, John Lothrop","birth_year":1814,"death_year":1877}],"translators":[],"subjects":["Netherlands -- History -- Eighty Years' War, 1568-1648"],"bookshelves":[],"languages":["en"],"copyright":false,"media_type":"Text","formats":{"text/html":"https://www.gutenberg.org/ebooks/4840.html.images","application/epub+zip":"https://www.gutenberg.org/ebooks/4840.epub3.images","application/x-mobipocket-ebook":"https://www.gutenberg.org/ebooks/4840.kf8.images","text/plain; charset=us-ascii":"https://www.gutenberg.org/ebooks/4840.txt.utf-8","application/rdf+xml":"https://www.gutenberg.org/ebooks/4840.rdf","image/jpeg":"https://www.gutenberg.org/cache/epub/4840/pg4840.cover.medium.jpg","application/octet-stream":"https://www.gutenberg.org/cache/epub/4840/pg4840-h.zip"},"download_count":10},{"id":4852,"title":"History of the United Netherlands, 1587b","authors":[{"name":"Motley, John Lothrop","birth_year":1814,"death_year":1877}],"translators":[],"subjects":["Netherlands -- History -- Eighty Years' War, 1568-1648"],"bookshelves":[],"languages":["en"],"copyright":false,"media_type":"Text","formats":{"text/html":"https://www.gutenberg.org/ebooks/4852.html.images","application/epub+zip":"https://www.gutenberg.org/ebooks/4852.epub3.images","application/x-mobipocket-ebook":"https://www.gutenberg.org/ebooks/4852.kf8.images","text/plain; charset=us-ascii":"https://www.gutenberg.org/ebooks/4852.txt.utf-8","application/rdf+xml":"https://www.gutenberg.org/ebooks/4852.rdf","image/jpeg":"https://www.gutenberg.org/cache/epub/4852/pg4852.cover.medium.jpg","application/octet-stream":"https://www.gutenberg.org/cache/epub/4852/pg4852-h.zip"},"download_count":10},{"id":4856,"title":"History of the United Netherlands, 1588b","authors":[{"name":"Motley, John Lothrop","birth_year":1814,"death_year":1877}],"translators":[],"subjects":["Netherlands -- History -- Eighty Years' War, 1568-1648"],"bookshelves":[],"languages":["en"],"copyright":false,"media_type":"Text","formats":{"text/html":"https://www.gutenberg.org/ebooks/4856.html.images","application/epub+zip":"https://www.gutenberg.org/ebooks/4856.epub3.images","application/x-mobipocket-ebook":"https://www.gutenberg.org/ebooks/4856.kf8.images","text/plain; charset=us-ascii":"https://www.gutenberg.org/ebooks/4856.txt.utf-8","application/rdf+xml":"https://www.gutenberg.org/ebooks/4856.rdf","image/jpeg":"https://www.gutenberg.org/cache/epub/4856/pg4856.cover.medium.jpg","application/octet-stream":"https://www.gutenberg.org/cache/epub/4856/pg4856-h.zip"},"download_count":10},{"id":4862,"title":"History of the United Netherlands, 1590b","authors":[{"name":"Motley, John Lothrop","birth_year":1814,"death_year":1877}],"translators":[],"subjects":["Netherlands -- History -- Eighty Years' War, 1568-1648"],"bookshelves":[],"languages":["en"],"copyright":false,"media_type":"Text","formats":{"text/html":"https://www.gutenberg.org/ebooks/4862.html.images","application/epub+zip":"https://www.gutenberg.org/ebooks/4862.epub3.images","application/x-mobipocket-ebook":"https://www.gutenberg.org/ebooks/4862.kf8.images","text/plain; charset=us-ascii":"https://www.gutenberg.org/ebooks/4862.txt.utf-8","application/rdf+xml":"https://www.gutenberg.org/ebooks/4862.rdf","image/jpeg":"https://www.gutenberg.org/cache/epub/4862/pg4862.cover.medium.jpg","application/octet-stream":"https://www.gutenberg.org/cache/epub/4862/pg4862-h.zip"},"download_count":10},{"id":4867,"title":"History of the United Netherlands, 1595","authors":[{"name":"Motley, John Lothrop","birth_year":1814,"death_year":1877}],"translators":[],"subjects":["Netherlands -- History -- Eighty Years' War, 1568-1648"],"bookshelves":[],"languages":["en"],"copyright":false,"media_type":"Text","formats":{"text/html":"https://www.gutenberg.org/ebooks/4867.html.images","application/epub+zip":"https://www.gutenberg.org/ebooks/4867.epub3.images","application/x-mobipocket-ebook":"https://www.gutenberg.org/ebooks/4867.kf8.images","text/plain; charset=us-ascii":"https://www.gutenberg.org/ebooks/4867.txt.utf-8","application/rdf+xml":"https://www.gutenberg.org/ebooks/4867.rdf","image/jpeg":"https://www.gutenberg.org/cache/epub/4867/pg4867.cover.medium.jpg","application/octet-stream":"https://www.gutenberg.org/cache/epub/4867/pg4867-h.zip"},"download_count":10},{"id":4918,"title":"The Lilac Sunbonnet: A Love Story","authors":[{"name":"Crockett, S. R. (Samuel Rutherford)","birth_year":1860,"death_year":1914}],"translators":[],"subjects":["Fiction","Love stories"],"bookshelves":[],"languages":["en"],"copyright":false,"media_type":"Text","formats":{"text/html":"https://www.gutenberg.org/ebooks/4918.html.images","application/epub+zip":"https://www.gutenberg.org/ebooks/4918.epub3.images","application/x-mobipocket-ebook":"https://www.gutenberg.org/ebooks/4918.kf8.images","text/plain; charset=us-ascii":"https://www.gutenberg.org/ebooks/4918.txt.utf-8","application/rdf+xml":"https://www.gutenberg.org/ebooks/4918.rdf","image/jpeg":"https://www.gutenberg.org/cache/epub/4918/pg4918.cover.medium.jpg","application/octet-stream":"https://www.gutenberg.org/cache/epub/4918/pg4918-h.zip"},"download_count":10},{"id":4948,"title":"Love, the Fiddler","authors":[{"name":"Osbourne, Lloyd","birth_year":1868,"death_year":1947}],"translators":[],"subjects":["Manners and customs -- Fiction","Short stories, American"],"bookshelves":[],"languages":["en"],"copyright":false,"media_type":"Text","formats":{"text/html":"https://www.gutenberg.org/ebooks/4948.html.images","application/epub+zip":"https://www.gutenberg.org/ebooks/4948.epub3.images","application/x-mobipocket-ebook":"https://www.gutenberg.org/ebooks/4948.kf8.images","text/plain; charset=us-ascii":"https://www.gutenberg.org/ebooks/4948.txt.utf-8","application/rdf+xml":"https://www.gutenberg.org/ebooks/4948.rdf","image/jpeg":"https://www.gutenberg.org/cache/epub/4948/pg4948.cover.medium.jpg","application/octet-stream":"https://www.gutenberg.org/cache/epub/4948/pg4948-h.zip"},"download_count":10},{"id":5236,"title":"The Confessions of Harry Lorrequer — Volume 3","authors":[{"name":"Lever, Charles James","birth_year":1806,"death_year":1872}],"translators":[],"subjects":["Fiction"],"bookshelves":[],"languages":["en"],"copyright":false,"media_type":"Text","formats":{"text/html":"https://www.gutenberg.org/ebooks/5236.html.images","text/html; charset=iso-8859-1":"https://www.gutenberg.org/files/5236/5236-h/5236-h.htm","application/epub+zip":"https://www.gutenberg.org/ebooks/5236.epub3.images","application/x-mobipocket-ebook":"https://www.gutenberg.org/ebooks/5236.kf8.images","text/plain; charset=us-ascii":"https://www.gutenberg.org/ebooks/5236.txt.utf-8","application/rdf+xml":"https://www.gutenberg.org/ebooks/5236.rdf","image/jpeg":"https://www.gutenberg.org/cache/epub/5236/pg5236.cover.medium.jpg","application/octet-stream":"https://www.gutenberg.org/cache/epub/5236/pg5236-h.zip"},"download_count":10},{"id":5367,"title":"Richard Carvel — Volume 03","authors":[{"name":"Churchill, Winston","birth_year":1871,"death_year":1947}],"translators":[],"subjects":["Maryland -- History -- Fiction","United States -- History -- Revolution, 1775-1783 -- Fiction"],"bookshelves":["Bestsellers, American, 1895-1923"],"languages":["en"],"copyright":false,"media_type":"Text","formats":{"text/html":"https://www.gutenberg.org/ebooks/5367.html.images","application/epub+zip":"https://www.gutenberg.org/ebooks/5367.epub3.images","application/x-mobipocket-ebook":"https://www.gutenberg.org/ebooks/5367.kf8.images","text/plain; charset=us-ascii":"https://www.gutenberg.org/ebooks/5367.txt.utf-8","application/rdf+xml":"https://www.gutenberg.org/ebooks/5367.rdf","image/jpeg":"https://www.gutenberg.org/cache/epub/5367/pg5367.cover.medium.jpg","application/octet-stream":"https://www.gutenberg.org/cache/epub/5367/pg5367-h.zip"},"download_count":10},{"id":5381,"title":"A Modern Chronicle — Volume 08","authors":[{"name":"Churchill, Winston","birth_year":1871,"death_year":1947}],"translators":[],"subjects":["Marriage -- Fiction","United States -- Social life and customs -- 20th century -- Fiction","Women -- Social conditions -- 20th century -- Fiction"],"bookshelves":["Bestsellers, American, 1895-1923"],"languages":["en"],"copyright":false,"media_type":"Text","formats":{"text/html":"https://www.gutenberg.org/ebooks/5381.html.images","application/epub+zip":"https://www.gutenberg.org/ebooks/5381.epub3.images","application/x-mobipocket-ebook":"https://www.gutenberg.org/ebooks/5381.kf8.images","text/plain; charset=us-ascii":"https://www.gutenberg.org/ebooks/5381.txt.utf-8","application/rdf+xml":"https://www.gutenberg.org/ebooks/5381.rdf","image/jpeg":"https://www.gutenberg.org/cache/epub/5381/pg5381.cover.medium.jpg","application/octet-stream":"https://www.gutenberg.org/cache/epub/5381/pg5381-h.zip"},"download_count":10},{"id":5385,"title":"The Celebrity, Volume 03","authors":[{"name":"Churchill, Winston","birth_year":1871,"death_year":1947}],"translators":[],"subjects":["Authors -- Fiction","Authorship -- Fiction","Celebrities -- Fiction"],"bookshelves":[],"languages":["en"],"copyright":false,"media_type":"Text","formats":{"text/html":"https://www.gutenberg.org/ebooks/5385.html.images","application/epub+zip":"https://www.gutenberg.org/ebooks/5385.epub3.images","application/x-mobipocket-ebook":"https://www.gutenberg.org/ebooks/5385.kf8.images","text/plain; charset=us-ascii":"https://www.gutenberg.org/ebooks/5385.txt.utf-8","application/rdf+xml":"https://www.gutenberg.org/ebooks/5385.rdf","image/jpeg":"https://www.gutenberg.org/cache/epub/5385/pg5385.cover.medium.jpg","application/octet-stream":"https://www.gutenberg.org/cache/epub/5385/pg5385-h.zip"},"download_count":10},{"id":5393,"title":"The Crisis — Volume 06","authors":[{"name":"Churchill, Winston","birth_year":1871,"death_year":1947}],"translators":[],"subjects":["United States -- History -- Civil War, 1861-1865 -- Fiction"],"bookshelves":["Bestsellers, American, 1895-1923","US Civil War"],"languages":["en"],"copyright":false,"media_type":"Text","formats":{"text/html":"https://www.gutenberg.org/ebooks/5393.html.images","application/epub+zip":"https://www.gutenberg.org/ebooks/5393.epub3.images","application/x-mobipocket-ebook":"https://www.gutenberg.org/ebooks/5393.kf8.images","text/plain; charset=us-ascii":"https://www.gutenberg.org/ebooks/5393.txt.utf-8","application/rdf+xml":"https://www.gutenberg.org/ebooks/5393.rdf","image/jpeg":"https://www.gutenberg.org/cache/epub/5393/pg5393.cover.medium.jpg","application/octet-stream":"https://www.gutenberg.org/cache/epub/5393/pg5393-h.zip"},"download_count":10},{"id":5456,"title":"An Egyptian Princess — Volume 07","authors":[{"name":"Ebers, Georg","birth_year":1837,"death_year":1898}],"translators":[{"name":"Grove, Eleanor","birth_year":null,"death_year":null}],"subjects":["Egypt -- History -- To 332 B.C. -- Fiction","German fiction -- Translations into English"],"bookshelves":["Historical Fiction"],"languages":["en"],"copyright":false,"media_type":"Text","formats":{"text/html":"https://www.gutenberg.org/ebooks/5456.html.images","application/epub+zip":"https://www.gutenberg.org/ebooks/5456.epub3.images","application/x-mobipocket-ebook":"https://www.gutenberg.org/ebooks/5456.kf8.images","text/plain; charset=us-ascii":"https://www.gutenberg.org/ebooks/5456.txt.utf-8","application/rdf+xml":"https://www.gutenberg.org/ebooks/5456.rdf","image/jpeg":"https://www.gutenberg.org/cache/epub/5456/pg5456.cover.medium.jpg","application/octet-stream":"https://www.gutenberg.org/cache/epub/5456/pg5456-h.zip"},"download_count":10},{"id":5489,"title":"The Emperor — Volume 07","authors":[{"name":"Ebers, Georg","birth_year":1837,"death_year":1898}],"translators":[{"name":"Bell, Clara","birth_year":1834,"death_year":1927}],"subjects":["Egypt -- History -- 30 B.C.-640 A.D. -- Fiction","German fiction -- Translations into English","Hadrian, Emperor of Rome, 76-138 -- Fiction"],"bookshelves":[],"languages":["en"],"copyright":false,"media_type":"Text","formats":{"text/html":"https://www.gutenberg.org/ebooks/5489.html.images","application/epub+zip":"https://www.gutenberg.org/ebooks/5489.epub3.images","application/x-mobipocket-ebook":"https://www.gutenberg.org/ebooks/5489.kf8.images","text/plain; charset=us-ascii":"https://www.gutenberg.org/ebooks/5489.txt.utf-8","application/rdf+xml":"https://www.gutenberg.org/ebooks/5489.rdf","image/jpeg":"https://www.gutenberg.org/cache/epub/5489/pg5489.cover.medium.jpg","application/octet-stream":"https://www.gutenberg.org/cache/epub/5489/pg5489-h.zip"},"download_count":10},{"id":5502,"title":"Serapis — Volume 02","authors":[{"name":"Ebers, Georg","birth_year":1837,"death_year":1898}],"translators":[{"name":"Bell, Clara","birth_year":1834,"death_year":1927}],"subjects":["Egypt -- History -- 30 B.C.-640 A.D. -- Fiction","German fiction -- Translations into English"],"bookshelves":["Historical Fiction"],"languages":["en"],"copyright":false,"media_type":"Text","formats":{"text/html":"https://www.gutenberg.org/ebooks/5502.html.images","application/epub+zip":"https://www.gutenberg.org/ebooks/5502.epub3.images","application/x-mobipocket-ebook":"https://www.gutenberg.org/ebooks/5502.kf8.images","text/plain; charset=us-ascii":"https://www.gutenberg.org/ebooks/5502.txt.utf-8","application/rdf+xml":"https://www.gutenberg.org/ebooks/5502.rdf","image/jpeg":"https://www.gutenberg.org/cache/epub/5502/pg5502.cover.medium.jpg","application/octet-stream":"https://www.gutenberg.org/cache/epub/5502/pg5502-h.zip"},"download_count":10},{"id":5967,"title":"What's Mine's Mine — Volume 2","authors":[{"name":"MacDonald, George","birth_year":1824,"death_year":1905}],"translators":[],"subjects":["Christian fiction","Highlands (Scotland) -- Fiction"],"bookshelves":[],"languages":["en"],"copyright":false,"media_type":"Text","formats":{"text/html":"https://www.gutenberg.org/ebooks/5967.html.images","application/epub+zip":"https://www.gutenberg.org/ebooks/5967.epub3.images","application/x-mobipocket-ebook":"https://www.gutenberg.org/ebooks/5967.kf8.images","text/plain; charset=us-ascii":"https://www.gutenberg.org/ebooks/5967.txt.utf-8","application/rdf+xml":"https://www.gutenberg.org/ebooks/5967.rdf","image/jpeg":"https://www.gutenberg.org/cache/epub/5967/pg5967.cover.medium.jpg","application/octet-stream":"https://www.gutenberg.org/cache/epub/5967/pg5967-h.zip"},"download_count":10},{"id":6224,"title":"The Seats of the Mighty, Volume 1","authors":[{"name":"Parker, Gilbert","birth_year":1862,"death_year":1932}],"translators":[],"subjects":["Canada -- History -- To 1763 (New France) -- Fiction","United States -- History -- French and Indian War, 1754-1763 -- Fiction"],"bookshelves":["Bestsellers, American, 1895-1923"],"languages":["en"],"copyright":false,"media_type":"Text","formats":{"text/html":"https://www.gutenberg.org/ebooks/6224.html.images","application/epub+zip":"https://www.gutenberg.org/ebooks/6224.epub3.images","application/x-mobipocket-ebook":"https://www.gutenberg.org/ebooks/6224.kf8.images","text/plain; charset=us-ascii":"https://www.gutenberg.org/ebooks/6224.txt.utf-8","application/rdf+xml":"https://www.gutenberg.org/ebooks/6224.rdf","image/jpeg":"https://www.gutenberg.org/cache/epub/6224/pg6224.cover.medium.jpg","application/octet-stream":"https://www.gutenberg.org/cache/epub/6224/pg6224-h.zip"},"download_count":10},{"id":6495,"title":"Great Fortunes from Railroads","authors":[{"name":"Myers, Gustavus","birth_year":1872,"death_year":1942}],"translators":[],"subjects":["Businessmen -- United States -- History -- 19th century","Railroads -- United States -- History -- 19th century","United States -- Economic conditions -- 19th century","Wealth -- United States -- History -- 19th century"],"bookshelves":[],"languages":["en"],"copyright":false,"media_type":"Text","formats":{"text/html":"https://www.gutenberg.org/ebooks/6495.html.images","application/epub+zip":"https://www.gutenberg.org/ebooks/6495.epub3.images","application/x-mobipocket-ebook":"https://www.gutenberg.org/ebooks/6495.kf8.images","text/plain; charset=us-ascii":"https://www.gutenberg.org/ebooks/6495.txt.utf-8","application/rdf+xml":"https://www.gutenberg.org/ebooks/6495.rdf","image/jpeg":"https://www.gutenberg.org/cache/epub/6495/pg6495.cover.medium.jpg","application/octet-stream":"https://www.gutenberg.org/cache/epub/6495/pg6495-h.zip"},"download_count":10},{"id":6590,"title":"Quotations from the PG Collected Works of Gilbert Parker","authors":[{"name":"Parker, Gilbert","birth_year":1862,"death_year":1932}],"translators":[],"subjects":["Canadian literature"],"bookshelves":["Project Gutenberg"],"languages":["en"],"copyright":false,"media_type":"Text","formats":{"text/html":"https://www.gutenberg.org/ebooks/6590.html.images","application/epub+zip":"https://www.gutenberg.org/ebooks/6590.epub3.images","application/x-mobipocket-ebook":"https://www.gutenberg.org/ebooks/6590.kf8.images","text/plain; charset=us-ascii":"https://www.gutenberg.org/ebooks/6590.txt.utf-8","application/rdf+xml":"https://www.gutenberg.org/ebooks/6590.rdf","image/jpeg":"https://www.gutenberg.org/cache/epub/6590/pg6590.cover.medium.jpg","application/octet-stream":"https://www.gutenberg.org/cache/epub/6590/pg6590-h.zip"},"download_count":10},{"id":6591,"title":"Highland Ballad","authors":[{"name":"Leadem, Christopher","birth_year":null,"death_year":null}],"translators":[],"subjects":["Highlands (Scotland) -- Fiction","Historical fiction","Scotland -- History -- 18th century -- Fiction"],"bookshelves":[],"languages":["en"],"copyright":true,"media_type":"Text","formats":{"text/html":"https://www.gutenberg.org/ebooks/6591.html.images","application/epub+zip":"https://www.gutenberg.org/ebooks/6591.epub3.images","application/x-mobipocket-ebook":"https://www.gutenberg.org/ebooks/6591.kf8.images","text/plain; charset=us-ascii":"https://www.gutenberg.org/ebooks/6591.txt.utf-8","application/rdf+xml":"https://www.gutenberg.org/ebooks/6591.rdf","image/jpeg":"https://www.gutenberg.org/cache/epub/6591/pg6591.cover.medium.jpg","application/octet-stream":"https://www.gutenberg.org/files/6591/6591-0.zip"},"download_count":10},{"id":6868,"title":"Why and How : a hand-book for the use of the W.C.T. unions in Canada","authors":[{"name":"Chisholm, Addie","birth_year":null,"death_year":null}],"translators":[],"subjects":["Temperance -- Societies, etc.","Woman's Christian Temperance Union -- History"],"bookshelves":["Sociology"],"languages":["en"],"copyright":false,"media_type":"Text","formats":{"text/html":"https://www.gutenberg.org/ebooks/6868.html.images","application/epub+zip":"https://www.gutenberg.org/ebooks/6868.epub3.images","application/x-mobipocket-ebook":"https://www.gutenberg.org/ebooks/6868.kf8.images","text/plain; charset=us-ascii":"https://www.gutenberg.org/ebooks/6868.txt.utf-8","application/rdf+xml":"https://www.gutenberg.org/ebooks/6868.rdf","image/jpeg":"https://www.gutenberg.org/cache/epub/6868/pg6868.cover.medium.jpg","application/octet-stream":"https://www.gutenberg.org/cache/epub/6868/pg6868-h.zip"},"download_count":10},{"id":6898,"title":"The boys of Columbia High on the gridiron; or, The struggle for the silver cup","authors":[{"name":"Forbes, Graham B.","birth_year":null,"death_year":null}],"translators":[],"subjects":["Football -- Juvenile fiction","High school students -- Juvenile fiction"],"bookshelves":["Children's Book Series"],"languages":["en"],"copyright":false,"media_type":"Text","formats":{"text/html":"https://www.gutenberg.org/ebooks/6898.html.images","text/html; charset=iso-8859-1":"https://www.gutenberg.org/files/6898/6898-h/6898-h.htm","application/epub+zip":"https://www.gutenberg.org/ebooks/6898.epub3.images","application/x-mobipocket-ebook":"https://www.gutenberg.org/ebooks/6898.kf8.images","text/plain; charset=us-ascii":"https://www.gutenberg.org/ebooks/6898.txt.utf-8","application/rdf+xml":"https://www.gutenberg.org/ebooks/6898.rdf","image/jpeg":"https://www.gutenberg.org/cache/epub/6898/pg6898.cover.medium.jpg","application/octet-stream":"https://www.gutenberg.org/cache/epub/6898/pg6898-h.zip"},"download_count":10},{"id":7115,"title":"Giant Hours with Poet Preachers","authors":[{"name":"Stidger, William L. (William Le Roy)","birth_year":1885,"death_year":1949}],"translators":[],"subjects":["American poetry -- 20th century -- History and criticism","English poetry -- 20th century -- History and criticism"],"bookshelves":[],"languages":["en"],"copyright":false,"media_type":"Text","formats":{"text/html":"https://www.gutenberg.org/ebooks/7115.html.images","application/epub+zip":"https://www.gutenberg.org/ebooks/7115.epub3.images","application/x-mobipocket-ebook":"https://www.gutenberg.org/ebooks/7115.kf8.images","text/plain; charset=us-ascii":"https://www.gutenberg.org/ebooks/7115.txt.utf-8","text/plain; charset=iso-8859-1":"https://www.gutenberg.org/files/7115/7115-8.txt","application/rdf+xml":"https://www.gutenberg.org/ebooks/7115.rdf","image/jpeg":"https://www.gutenberg.org/cache/epub/7115/pg7115.cover.medium.jpg","application/octet-stream":"https://www.gutenberg.org/cache/epub/7115/pg7115-h.zip"},"download_count":10},{"id":7160,"title":"The Prince and the Pauper, Part 7.","authors":[{"name":"Twain, Mark","birth_year":1835,"death_year":1910}],"translators":[],"subjects":["Boys -- Fiction","Edward VI, King of England, 1537-1553 -- Fiction","Historical fiction","Impostors and imposture -- Fiction","London (England) -- Fiction","Lookalikes -- Fiction","Poor children -- Fiction","Princes -- Fiction","Social classes -- Fiction"],"bookshelves":["Historical Fiction"],"languages":["en"],"copyright":false,"media_type":"Text","formats":{"text/html":"https://www.gutenberg.org/ebooks/7160.html.images","text/html; charset=iso-8859-1":"https://www.gutenberg.org/files/7160/7160-h/7160-h.htm","application/epub+zip":"https://www.gutenberg.org/ebooks/7160.epub3.images","application/x-mobipocket-ebook":"https://www.gutenberg.org/ebooks/7160.kf8.images","text/plain; charset=us-ascii":"https://www.gutenberg.org/ebooks/7160.txt.utf-8","application/rdf+xml":"https://www.gutenberg.org/ebooks/7160.rdf","image/jpeg":"https://www.gutenberg.org/cache/epub/7160/pg7160.cover.medium.jpg","application/octet-stream":"https://www.gutenberg.org/cache/epub/7160/pg7160-h.zip"},"download_count":10}]}