{"count":58808,"next":"http://129.241.150.113:8000/books/?languages=en&page=1651","previous":"http://129.241.150.113:8000/books/?languages=en&page=1649","results":[{"id":8310,"title":"The Bible, Douay-Rheims, Book 10: 2 Kings: The Challoner Revision","authors":[],"translators":[],"subjects":["Bible. Samuel, 2nd"],"bookshelves":[],"languages":["en"],"copyright":false,"media_type":"Text","formats":{"text/html":"https://www.gutenberg.org/ebooks/8310.html.images","application/epub+zip":"https://www.gutenberg.org/ebooks/8310.epub3.images","application/x-mobipocket-ebook":"https://www.gutenberg.org/ebooks/8310.kf8.images","text/plain; charset=us-ascii":"https://www.gutenberg.org/ebooks/8310.txt.utf-8","application/rdf+xml":"https://www.gutenberg.org/ebooks/8310.rdf","image/jpeg":"https://www.gutenberg.org/cache/epub/8310/pg8310.cover.medium.jpg","application/octet-stream":"https://www.gutenberg.org/cache/epub/8310/pg8310-h.zip"},"download_count":19},{"id":8463,"title":"Memoirs of Henry Hunt, Esq. — Volume 3","authors":[{"name":"Hunt, Henry","birth_year":1773,"death_year":1835}],"translators":[],"subjects":["Hunt, Henry, 1773-1835","Social reformers -- Great Britain -- Biography"],"bookshelves":[],"languages":["en"],"copyright":false,"media_type":"Text","formats":{"text/html":"https://www.gutenberg.org/ebooks/8463.html.images","application/epub+zip":"https://www.gutenberg.org/ebooks/8463.epub3.images","application/x-mobipocket-ebook":"https://www.gutenberg.org/ebooks/8463.kf8.images","text/plain; charset=us-ascii":"https://www.gutenberg.org/ebooks/8463.txt.utf-8","text/plain; charset=iso-8859-1":"https://www.gutenberg.org/files/8463/8463-8.txt","application/rdf+xml":"https://www.gutenberg.org/ebooks/8463.rdf","image/jpeg":"https://www.gutenberg.org/cache/epub/8463/pg8463.cover.medium.jpg","application/octet-stream":"https://www.gutenberg.org/cache/epub/8463/pg8463-h.zip"},"download_count":19},{"id":8517,"title":"Hormones and Heredity: A Discussion of the Evolution of Adaptations and the Evolution of Species","authors":[{"name":"Cunningham, J. T. (Joseph Thomas)","birth_year":1859,"death_year":1935}],"translators":[],"subjects":["Endocrinology","Heredity","Hormones","Mendel's law"],"bookshelves":[],"languages":["en"],"copyright":false,"media_type":"Text","formats":{"text/html":"https://www.gutenberg.org/ebooks/8517.html.images","application/epub+zip":"https://www.gutenberg.org/ebooks/8517.epub3.images","application/x-mobipocket-ebook":"https://www.gutenberg.org/ebooks/8517.kf8.images","text/plain; charset=us-ascii":"https://www.gutenberg.org/ebooks/8517.txt.utf-8","text/plain; charset=iso-8859-1":"https://www.gutenberg.org/files/8517/8517-8.txt","application/rdf+xml":"https://www.gutenberg.org/ebooks/8517.rdf","image/jpeg":"https://www.gutenberg.org/cache/epub/8517/pg8517.cover.medium.jpg","application/octet-stream":"https://www.gutenberg.org/cache/epub/8517/pg8517-h.zip"},"download_count":19},{"id":8573,"title":"Pausanias, the Spartan; The Haunted and the Haunters: An Unfinished Historical Romance","authors":[{"name":"Lytton, Edward Bulwer Lytton, Baron","birth_year":1803,"death_year":1873}],"translators":[],"subjects":["Horror tales","Pausanias, of Sparta, active 479 B.C.-470 B.C. -- Fiction"],"bookshelves":[],"languages":["en"],"copyright":false,"media_type":"Text","formats":{"text/html":"https://www.gutenberg.org/ebooks/8573.html.images","application/epub+zip":"https://www.gutenberg.org/ebooks/8573.epub3.images","application/x-mobipocket-ebook":"https://www.gutenberg.org/ebooks/8573.kf8.images","text/plain; charset=us-ascii":"https://www.gutenberg.org/ebooks/8573.txt.utf-8","text/plain; charset=iso-8859-1":"https://www.gutenberg.org/files/8573/8573-8.txt","application/rdf+xml":"https://www.gutenberg.org/ebooks/8573.rdf","image/jpeg":"https://www.gutenberg.org/cache/epub/8573/pg8573.cover.medium.jpg","application/octet-stream":"https://www.gutenberg.org/cache/epub/8573/pg8573-h.zip"},"download_count":19},{"id":8593,"title":"Normandy: The Scenery & Romance of Its Ancient Towns, Part 1","authors":[{"name":"Home, Gordon","birth_year":1878,"death_year":1969}],"translators":[],"subjects":["Normandy (France) -- Description and travel"],"bookshelves":[],"languages":["en"],"copyright":false,"media_type":"Text","formats":{"text/html":"https://www.gutenberg.org/ebooks/8593.html.images","text/html; charset=iso-8859-1":"https://www.gutenberg.org/files/8593/8593-h/8593-h.htm","application/epub+zip":"https://www.gutenberg.org/ebooks/8593.epub3.images","application/x-mobipocket-ebook":"https://www.gutenberg.org/ebooks/8593.kf8.images","text/plain; charset=us-ascii":"https://www.gutenberg.org/ebooks/8593.txt.utf-8","text/plain; charset=iso-8859-1":"https://www.gutenberg.org/files/8593/8593-8.txt","application/rdf+xml":"https://www.gutenberg.org/ebooks/8593.rdf","image/jpeg":"https://www.gutenberg.org/cache/epub/8593/pg8593.cover.medium.jpg","application/octet-stream":"https://www.gutenberg.org/cache/epub/8593/pg8593-h.zip"},"download_count":19},{"id":8598,"title":"Introduction to the Dramas of Balzac","authors":[{"name":"McSpadden, J. Walker (Joseph Walker)","birth_year":1874,"death_year":1960},{"name":"Wilson, Epiphanius","birth_year":1845,"death_year":1916}],"translators":[],"subjects":["Balzac, Honoré de, 1799-1850","French drama -- 19th century -- History and criticism"],"bookshelves":[],"languages":["en"],"copyright":false,"media_type":"Text","formats":{"text/html":"https://www.gutenberg.org/ebooks/8598.html.images","application/epub+zip":"https://www.gutenberg.org/ebooks/8598.epub3.images","application/x-mobipocket-ebook":"https://www.gutenberg.org/ebooks/8598.kf8.images","text/plain; charset=us-ascii":"https://www.gutenberg.org/ebooks/8598.txt.utf-8","application/rdf+xml":"https://www.gutenberg.org/ebooks/8598.rdf","image/jpeg":"https://www.gutenberg.org/cache/epub/8598/pg8598.cover.medium.jpg","application/octet-stream":"https://www.gutenberg.org/cache/epub/8598/pg8598-h.zip"},"download_count":19},{"id":8620,"title":"The Vital Message","authors":[{"name":"Doyle, Arthur Conan","birth_year":1859,"death_year":1930}],"translators":[],"subjects":["Spiritualism"],"bookshelves":[],"languages":["en"],"copyright":true,"media_type":"Sound","formats":{"text/plain; charset=us-ascii":"https://www.gutenberg.org/files/8620/8620-readme.txt","text/html; charset=iso-8859-1":"https://www.gutenberg.org/files/8620/8620-index.htm","audio/mpeg":"https://www.gutenberg.org/files/8620/mp3/8620-000.mp3","application/rdf+xml":"https://www.gutenberg.org/ebooks/8620.rdf","application/octet-stream":"https://www.gutenberg.org/files/8620/8620-mp3.zip"},"download_count":19},{"id":8629,"title":"Sir Nigel","authors":[{"name":"Doyle, Arthur Conan","birth_year":1859,"death_year":1930}],"translators":[],"subjects":["Great Britain -- History -- Edward III, 1327-1377 -- Fiction","Historical fiction","Hundred Years' War, 1339-1453 -- Fiction","Knights and knighthood -- Fiction"],"bookshelves":[],"languages":["en"],"copyright":true,"media_type":"Sound","formats":{"text/plain; charset=us-ascii":"https://www.gutenberg.org/files/8629/8629-readme.txt","text/html; charset=iso-8859-1":"https://www.gutenberg.org/files/8629/8629-index.htm","audio/mpeg":"https://www.gutenberg.org/files/8629/mp3/8629-000.mp3","application/rdf+xml":"https://www.gutenberg.org/ebooks/8629.rdf","application/octet-stream":"https://www.gutenberg.org/files/8629/8629-mp3.zip"},"download_count":19},{"id":8632,"title":"The Disappearance of Lady Frances Carfax","authors":[{"name":"Doyle, Arthur Conan","birth_year":1859,"death_year":1930}],"translators":[],"subjects":["Detective and mystery stories","Holmes, Sherlock (Fictitious character) -- Fiction","Private investigators -- England -- Fiction"],"bookshelves":[],"languages":["en"],"copyright":true,"media_type":"Sound","formats":{"text/plain; charset=us-ascii":"https://www.gutenberg.org/files/8632/8632-readme.txt","text/html; charset=iso-8859-1":"https://www.gutenberg.org/files/8632/8632-index.htm","audio/mpeg":"https://www.gutenberg.org/files/8632/mp3/8632-000.mp3","application/rdf+xml":"https://www.gutenberg.org/ebooks/8632.rdf"},"download_count":19},{"id":8637,"title":"Through the Magic Door","authors":[{"name":"Doyle, Arthur Conan","birth_year":1859,"death_year":1930}],"translators":[],"subjects":["Books and reading -- Great Britain"],"bookshelves":[],"languages":["en"],"copyright":true,"media_type":"Sound","formats":{"text/plain; charset=us-ascii":"https://www.gutenberg.org/files/8637/8637-readme.txt","text/html; charset=iso-8859-1":"https://www.gutenberg.org/files/8637/8637-index.htm","audio/mpeg":"https://www.gutenberg.org/files/8637/mp3/8637-000.mp3","application/rdf+xml":"https://www.gutenberg.org/ebooks/8637.rdf","application/octet-stream":"https://www.gutenberg.org/files/8637/8637-mp3.zip"},"download_count":19},{"id":8643,"title":"Punch, or the London Charivari, Volume 153, July 4, 1917","authors":[{"name":"Various","birth_year":null,"death_year":null}],"translators":[],"subjects":["English wit and humor -- Periodicals"],"bookshelves":["Punch"],"languages":["en"],"copyright":false,"media_type":"Text","formats":{"text/html":"https://www.gutenberg.org/ebooks/8643.html.images","text/html; charset=iso-8859-1":"https://www.gutenberg.org/files/8643/8643-h/8643-h.htm","application/epub+zip":"https://www.gutenberg.org/ebooks/8643.epub3.images","application/x-mobipocket-ebook":"https://www.gutenberg.org/ebooks/8643.kf8.images","text/plain; charset=us-ascii":"https://www.gutenberg.org/ebooks/8643.txt.utf-8","text/plain; charset=iso-8859-1":"https://www.gutenberg.org/files/8643/8643-8.txt","application/rdf+xml":"https://www.gutenberg.org/ebooks/8643.rdf","image/jpeg":"https://www.gutenberg.org/cache/epub/8643/pg8643.cover.medium.jpg","application/octet-stream":"https://www.gutenberg.org/cache/epub/8643/pg8643-h.zip"},"download_count":19},{"id":8697,"title":"Guns and Snowshoes; Or, the Winter Outing of the Young Hunters","authors":[{"name":"Stratemeyer, Edward","birth_year":1862,"death_year":1930}],"translators":[],"subjects":["Boys -- Juvenile fiction","Hunting -- Juvenile fiction","Winter -- Juvenile fiction"],"bookshelves":[],"languages":["en"],"copyright":false,"media_type":"Text","formats":{"text/html":"https://www.gutenberg.org/ebooks/8697.html.images","application/epub+zip":"https://www.gutenberg.org/ebooks/8697.epub3.images","application/x-mobipocket-ebook":"https://www.gutenberg.org/ebooks/8697.kf8.images","text/plain; charset=us-ascii":"https://www.gutenberg.org/ebooks/8697.txt.utf-8","application/rdf+xml":"https://www.gutenberg.org/ebooks/8697.rdf","image/jpeg":"https://www.gutenberg.org/cache/epub/8697/pg8697.cover.medium.jpg","application/octet-stream":"https://www.gutenberg.org/cache/epub/8697/pg8697-h.zip"},"download_count":19},{"id":8724,"title":"The Three Cities Trilogy: Rome, Volume 4","authors":[{"name":"Zola, Émile","birth_year":1840,"death_year":1902}],"translators":[{"name":"Vizetelly, Ernest Alfred","birth_year":1853,"death_year":1922}],"subjects":["Catholics -- Fiction","Christian pilgrims and pilgrimages -- Fiction","Clergy -- Fiction","Rome (Italy) -- Fiction"],"bookshelves":[],"languages":["en"],"copyright":false,"media_type":"Text","formats":{"text/html":"https://www.gutenberg.org/ebooks/8724.html.images","application/epub+zip":"https://www.gutenberg.org/ebooks/8724.epub3.images","application/x-mobipocket-ebook":"https://www.gutenberg.org/ebooks/8724.kf8.images","text/plain; charset=us-ascii":"https://www.gutenberg.org/ebooks/8724.txt.utf-8","application/rdf+xml":"https://www.gutenberg.org/ebooks/8724.rdf","image/jpeg":"https://www.gutenberg.org/cache/epub/8724/pg8724.cover.medium.jpg","application/octet-stream":"https://www.gutenberg.org/cache/epub/8724/pg8724-h.zip"},"download_count":19},{"id":8835,"title":"Weymouth New Testament in Modern Speech, 2 Corinthians","authors":[{"name":"Weymouth, Richard Francis","birth_year":1822,"death_year":1902}],"translators":[],"subjects":["Bible. Corinthians"],"bookshelves":[],"languages":["en"],"copyright":false,"media_type":"Text","formats":{"text/html":"https://www.gutenberg.org/ebooks/8835.html.images","application/epub+zip":"https://www.gutenberg.org/ebooks/8835.epub3.images","application/x-mobipocket-ebook":"https://www.gutenberg.org/ebooks/8835.kf8.images","text/plain; charset=us-ascii":"https://www.gutenberg.org/ebooks/8835.txt.utf-8","application/rdf+xml":"https://www.gutenberg.org/ebooks/8835.rdf","image/jpeg":"https://www.gutenberg.org/cache/epub/8835/pg8835.cover.medium.jpg","application/octet-stream":"https://www.gutenberg.org/cache/epub/8835/pg8835-h.zip"},"download_count":19},{"id":8848,"title":"Weymouth New Testament in Modern Speech, 1 Peter","authors":[{"name":"Weymouth, Richard Francis","birth_year":1822,"death_year":1902}],"translators":[],"subjects":["Bible. Peter"],"bookshelves":[],"languages":["en"],"copyright":false,"media_type":"Text","formats":{"text/html":"https://www.gutenberg.org/ebooks/8848.html.images","application/epub+zip":"https://www.gutenberg.org/ebooks/8848.epub3.images","application/x-mobipocket-ebook":"https://www.gutenberg.org/ebooks/8848.kf8.images","text/plain; charset=us-ascii":"https://www.gutenberg.org/ebooks/8848.txt.utf-8","application/rdf+xml":"https://www.gutenberg.org/ebooks/8848.rdf","image/jpeg":"https://www.gutenberg.org/cache/epub/8848/pg8848.cover.medium.jpg","application/octet-stream":"https://www.gutenberg.org/cache/epub/8848/pg8848-h.zip"},"download_count":19},{"id":8858,"title":"Earthwork out of Tuscany: Being Impressions and Translations of Maurice Hewlett","authors":[{"name":"Hewlett, Maurice","birth_year":1861,"death_year":1923}],"translators":[],"subjects":["Art -- Italy -- Tuscany","Tuscany (Italy) -- Description and travel"],"bookshelves":[],"languages":["en"],"copyright":false,"media_type":"Text","formats":{"text/html":"https://www.gutenberg.org/ebooks/8858.html.images","application/epub+zip":"https://www.gutenberg.org/ebooks/8858.epub3.images","application/x-mobipocket-ebook":"https://www.gutenberg.org/ebooks/8858.kf8.images","text/plain; charset=us-ascii":"https://www.gutenberg.org/ebooks/8858.txt.utf-8","text/plain; charset=iso-8859-1":"https://www.gutenberg.org/files/8858/8858-8.txt","application/rdf+xml":"https://www.gutenberg.org/ebooks/8858.rdf","image/jpeg":"https://www.gutenberg.org/cache/epub/8858/pg8858.cover.medium.jpg","application/octet-stream":"https://www.gutenberg.org/cache/epub/8858/pg8858-h.zip"},"download_count":19},{"id":9005,"title":"Following the Equator","authors":[{"name":"Twain, Mark","birth_year":1835,"death_year":1910}],"translators":[],"subjects":["Equator -- Description and travel","Twain, Mark, 1835-1910 -- Travel","Voyages around the world"],"bookshelves":[],"languages":["en"],"copyright":true,"media_type":"Sound","formats":{"text/plain; charset=us-ascii":"https://www.gutenberg.org/files/9005/9005-readme.txt","text/html; charset=iso-8859-1":"https://www.gutenberg.org/files/9005/9005-index.htm","audio/mpeg":"https://www.gutenberg.org/files/9005/mp3/9005-000.mp3","application/rdf+xml":"https://www.gutenberg.org/ebooks/9005.rdf","application/octet-stream":"https://www.gutenberg.org/files/9005/9005-mp3.zip"},"download_count":19},{"id":9013,"title":"The Facts Concerning the Recent Carnival of Crime in Connecticut","authors":[{"name":"Twain, Mark","birth_year":1835,"death_year":1910}],"translators":[],"subjects":["Humorous stories, American","United States -- Social life and customs -- Fiction"],"bookshelves":[],"languages":["en"],"copyright":true,"media_type":"Sound","formats":{"text/plain; charset=us-ascii":"https://www.gutenberg.org/files/9013/9013-readme.txt","text/html; charset=iso-8859-1":"https://www.gutenberg.org/files/9013/9013-index.htm","audio/mpeg":"https://www.gutenberg.org/files/9013/mp3/9013-000.mp3","application/rdf+xml":"https://www.gutenberg.org/ebooks/9013.rdf","application/octet-stream":"https://www.gutenberg.org/files/9013/9013-mp3.zip"},"download_count":19},{"id":9032,"title":"Roughing It","authors":[{"name":"Twain, Mark","birth_year":1835,"death_year":1910}],"translators":[],"subjects":["Authors, American -- Homes and haunts -- West (U.S.)","Hawaii -- Description and travel","Twain, Mark, 1835-1910 -- Travel -- West (U.S.)","West (U.S.) -- Description and travel","West (U.S.) -- Intellectual life -- 19th century"],"bookshelves":[],"languages":["en"],"copyright":true,"media_type":"Sound","formats":{"text/plain; charset=us-ascii":"https://www.gutenberg.org/files/9032/9032-readme.txt","text/html; charset=iso-8859-1":"https://www.gutenberg.org/files/9032/9032-index.htm","audio/mpeg":"https://www.gutenberg.org/files/9032/mp3/9032-000.mp3","application/rdf+xml":"https://www.gutenberg.org/ebooks/9032.rdf","application/octet-stream":"https://www.gutenberg.org/files/9032/9032-mp3.zip"},"download_count":19},{"id":9067,"title":"Robert Browning: How to Know Him","authors":[{"name":"Phelps, William Lyon","birth_year":1865,"death_year":1943}],"translators":[],"subjects":["Browning, Robert, 1812-1889"],"bookshelves":[],"languages":["en"],"copyright":false,"media_type":"Text","formats":{"text/html":"https://www.gutenberg.org/ebooks/9067.html.images","application/epub+zip":"https://www.gutenberg.org/ebooks/9067.epub3.images","application/x-mobipocket-ebook":"https://www.gutenberg.org/ebooks/9067.kf8.images","text/plain; charset=us-ascii":"https://www.gutenberg.org/ebooks/9067.txt.utf-8","text/plain; charset=iso-8859-1":"https://www.gutenberg.org/files/9067/9067-8.txt","application/rdf+xml":"https://www.gutenberg.org/ebooks/9067.rdf","image/jpeg":"https://www.gutenberg.org/cache/epub/9067/pg9067.cover.medium.jpg","application/octet-stream":"https://www.gutenberg.org/cache/epub/9067/pg9067-h.zip"},"download_count":19},{"id":9094,"title":"Wild Flowers; or, Pastoral and Local Poetry","authors":[{"name":"Bloomfield, Robert","birth_year":1766,"death_year":1823}],"translators":[],"subjects":["Pastoral poetry, English"],"bookshelves":[],"languages":["en"],"copyright":false,"media_type":"Text","formats":{"text/html":"https://www.gutenberg.org/ebooks/9094.html.images","application/epub+zip":"https://www.gutenberg.org/ebooks/9094.epub3.images","application/x-mobipocket-ebook":"https://www.gutenberg.org/ebooks/9094.kf8.images","text/plain; charset=us-ascii":"https://www.gutenberg.org/ebooks/9094.txt.utf-8","text/plain; charset=iso-8859-1":"https://www.gutenberg.org/files/9094/9094-8.txt","application/rdf+xml":"https://www.gutenberg.org/ebooks/9094.rdf","image/jpeg":"https://www.gutenberg.org/cache/epub/9094/pg9094.cover.medium.jpg","application/octet-stream":"https://www.gutenberg.org/cache/epub/9094/pg9094-h.zip"},"download_count":19},{"id":9208,"title":"Fancy's Show-Box (From \"Twice Told Tales\")","authors":[{"name":"Hawthorne, Nathaniel","birth_year":1804,"death_year":1864}],"translators":[],"subjects":["Historical fiction, American","New England -- Social life and customs -- Fiction","Short stories"],"bookshelves":["Children's Literature"],"languages":["en"],"copyright":false,"media_type":"Text","formats":{"text/html":"https://www.gutenberg.org/ebooks/9208.html.images","text/html; charset=iso-8859-1":"https://www.gutenberg.org/files/9208/9208-h/9208-h.htm","application/epub+zip":"https://www.gutenberg.org/ebooks/9208.epub3.images","application/x-mobipocket-ebook":"https://www.gutenberg.org/ebooks/9208.kf8.images","text/plain; charset=us-ascii":"https://www.gutenberg.org/ebooks/9208.txt.utf-8","application/rdf+xml":"https://www.gutenberg.org/ebooks/9208.rdf","image/jpeg":"https://www.gutenberg.org/cache/epub/9208/pg9208.cover.medium.jpg","application/octet-stream":"https://www.gutenberg.org/cache/epub/9208/pg9208-h.zip"},"download_count":19},{"id":9210,"title":"The Village Uncle (From \"Twice Told Tales\")","authors":[{"name":"Hawthorne, Nathaniel","birth_year":1804,"death_year":1864}],"translators":[],"subjects":["Historical fiction, American","New England -- Social life and customs -- Fiction","Short stories"],"bookshelves":["Children's Literature"],"languages":["en"],"copyright":false,"media_type":"Text","formats":{"text/html":"https://www.gutenberg.org/ebooks/9210.html.images","text/html; charset=iso-8859-1":"https://www.gutenberg.org/files/9210/9210-h/9210-h.htm","application/epub+zip":"https://www.gutenberg.org/ebooks/9210.epub3.images","application/x-mobipocket-ebook":"https://www.gutenberg.org/ebooks/9210.kf8.images","text/plain; charset=us-ascii":"https://www.gutenberg.org/ebooks/9210.txt.utf-8","application/rdf+xml":"https://www.gutenberg.org/ebooks/9210.rdf","image/jpeg":"https://www.gutenberg.org/cache/epub/9210/pg9210.cover.medium.jpg","application/octet-stream":"https://www.gutenberg.org/cache/epub/9210/pg9210-h.zip"},"download_count":19},{"id":9216,"title":"Beneath an Umbrella (From \"Twice Told Tales\")","authors":[{"name":"Hawthorne, Nathaniel","birth_year":1804,"death_year":1864}],"translators":[],"subjects":["Historical fiction, American","New England -- Social life and customs -- Fiction","Short stories"],"bookshelves":["Children's Literature"],"languages":["en"],"copyright":false,"media_type":"Text","formats":{"text/html":"https://www.gutenberg.org/ebooks/9216.html.images","text/html; charset=iso-8859-1":"https://www.gutenberg.org/files/9216/9216-h/9216-h.htm","application/epub+zip":"https://www.gutenberg.org/ebooks/9216.epub3.images","application/x-mobipocket-ebook":"https://www.gutenberg.org/ebooks/9216.kf8.images","text/plain; charset=us-ascii":"https://www.gutenberg.org/ebooks/9216.txt.utf-8","application/rdf+xml":"https://www.gutenberg.org/ebooks/9216.rdf","image/jpeg":"https://www.gutenberg.org/cache/epub/9216/pg9216.cover.medium.jpg","application/octet-stream":"https://www.gutenberg.org/cache/epub/9216/pg9216-h.zip"},"download_count":19},{"id":9340,"title":"The Arrow of Gold","authors":[{"name":"Conrad, Joseph","birth_year":1857,"death_year":1924}],"translators":[],"subjects":["Adventure stories","Illegal arms transfers -- Fiction","Marseille (France) -- Fiction","Sea stories","Young men -- Fiction"],"bookshelves":["Bestsellers, American, 1895-1923"],"languages":["en"],"copyright":true,"media_type":"Sound","formats":{"text/plain; charset=us-ascii":"https://www.gutenberg.org/files/9340/9340-readme.txt","text/html; charset=iso-8859-1":"https://www.gutenberg.org/files/9340/9340-index.htm","audio/mpeg":"https://www.gutenberg.org/files/9340/mp3/9340-000.mp3","application/rdf+xml":"https://www.gutenberg.org/ebooks/9340.rdf","application/octet-stream":"https://www.gutenberg.org/files/9340/9340-mp3.zip"},"download_count":19},{"id":9359,"title":"Under Western Eyes","authors":[{"name":"Conrad, Joseph","birth_year":1857,"death_year":1924}],"translators":[],"subjects":["Bombings -- Fiction","College students -- Fiction","Geneva (Switzerland) -- Fiction","Political fiction","Russia -- History -- 1904-1914 -- Fiction","Saint Petersburg (Russia) -- Fiction","Terrorism -- Fiction"],"bookshelves":[],"languages":["en"],"copyright":true,"media_type":"Sound","formats":{"text/plain; charset=us-ascii":"https://www.gutenberg.org/files/9359/9359-readme.txt","text/html; charset=iso-8859-1":"https://www.gutenberg.org/files/9359/9359-index.htm","audio/mpeg":"https://www.gutenberg.org/files/9359/mp3/9359-000.mp3","application/rdf+xml":"https://www.gutenberg.org/ebooks/9359.rdf","application/octet-stream":"https://www.gutenberg.org/files/9359/9359-mp3.zip"},"download_count":19},{"id":9386,"title":"Girls: Faults and Ideals: A Familiar Talk, with Quotations from Letters","authors":[{"name":"Miller, J. R. (James Russell)","birth_year":1840,"death_year":1912}],"translators":[],"subjects":["Young women"],"bookshelves":[],"languages":["en"],"copyright":false,"media_type":"Text","formats":{"text/html":"https://www.gutenberg.org/ebooks/9386.html.images","text/html; charset=iso-8859-1":"https://www.gutenberg.org/files/9386/9386-h/9386-h.htm","application/epub+zip":"https://www.gutenberg.org/ebooks/9386.epub3.images","application/x-mobipocket-ebook":"https://www.gutenberg.org/ebooks/9386.kf8.images","text/plain; charset=us-ascii":"https://www.gutenberg.org/ebooks/9386.txt.utf-8","application/rdf+xml":"https://www.gutenberg.org/ebooks/9386.rdf","image/jpeg":"https://www.gutenberg.org/cache/epub/9386/pg9386.cover.medium.jpg","application/octet-stream":"https://www.gutenberg.org/cache/epub/9386/pg9386-h.zip"},"download_count":19},{"id":9409,"title":"Five Thousand Dollars Reward","authors":[{"name":"Pinkerton, A. Frank","birth_year":null,"death_year":null}],"translators":[],"subjects":["American fiction -- 19th century","Mystery fiction"],"bookshelves":[],"languages":["en"],"copyright":false,"media_type":"Text","formats":{"text/html":"https://www.gutenberg.org/ebooks/9409.html.images","application/epub+zip":"https://www.gutenberg.org/ebooks/9409.epub3.images","application/x-mobipocket-ebook":"https://www.gutenberg.org/ebooks/9409.kf8.images","text/plain; charset=us-ascii":"https://www.gutenberg.org/ebooks/9409.txt.utf-8","application/rdf+xml":"https://www.gutenberg.org/ebooks/9409.rdf","image/jpeg":"https://www.gutenberg.org/cache/epub/9409/pg9409.cover.medium.jpg","application/octet-stream":"https://www.gutenberg.org/cache/epub/9409/pg9409-h.zip"},"download_count":19},{"id":9435,"title":"The Trumpet-Major","authors":[{"name":"Hardy, Thomas","birth_year":1840,"death_year":1928}],"translators":[],"subjects":["Brothers -- Fiction","England -- Social life and customs -- 19th century -- Fiction","Great Britain -- History -- Regency, 1800-1837 -- Fiction","Historical fiction","Love stories","Merchant mariners -- Fiction","Napoleonic Wars, 1800-1815 -- Fiction","Soldiers -- Fiction","Wessex (England) -- Fiction"],"bookshelves":[],"languages":["en"],"copyright":true,"media_type":"Sound","formats":{"text/plain; charset=us-ascii":"https://www.gutenberg.org/files/9435/9435-readme.txt","text/html; charset=iso-8859-1":"https://www.gutenberg.org/files/9435/9435-index.htm","audio/mpeg":"https://www.gutenberg.org/files/9435/mp3/9435-000.mp3","application/rdf+xml":"https://www.gutenberg.org/ebooks/9435.rdf","application/octet-stream":"https://www.gutenberg.org/files/9435/9435-mp3.zip"},"download_count":19},{"id":9486,"title":"The Atlantic Monthly, Volume 05, No. 32, June, 1860: A Magazine of Literature, Art, and Politics","authors":[{"name":"Various","birth_year":null,"death_year":null}],"translators":[],"subjects":["American periodicals"],"bookshelves":["The Atlantic Monthly"],"languages":["en"],"copyright":false,"media_type":"Text","formats":{"text/html":"https://www.gutenberg.org/ebooks/9486.html.images","application/epub+zip":"https://www.gutenberg.org/ebooks/9486.epub3.images","application/x-mobipocket-ebook":"https://www.gutenberg.org/ebooks/9486.kf8.images","text/plain; charset=us-ascii":"https://www.gutenberg.org/ebooks/9486.txt.utf-8","text/plain; charset=iso-8859-1":"https://www.gutenberg.org/files/9486/9486-8.txt","application/rdf+xml":"https://www.gutenberg.org/ebooks/9486.rdf","image/jpeg":"https://www.gutenberg.org/cache/epub/9486/pg9486.cover.medium.jpg","application/octet-stream":"https://www.gutenberg.org/cache/epub/9486/pg9486-h.zip"},"download_count":19},{"id":9519,"title":"A Little Dinner at Timmins's","authors":[{"name":"Thackeray, William Makepeace","birth_year":1811,"death_year":1863}],"translators":[],"subjects":["London (England) -- Fiction"],"bookshelves":[],"languages":["en"],"copyright":true,"media_type":"Sound","formats":{"text/plain; charset=us-ascii":"https://www.gutenberg.org/files/9519/9519-readme.txt","text/html; charset=iso-8859-1":"https://www.gutenberg.org/files/9519/9519-index.htm","audio/mpeg":"https://www.gutenberg.org/files/9519/mp3/9519-000.mp3","application/rdf+xml":"https://www.gutenberg.org/ebooks/9519.rdf","application/octet-stream":"https://www.gutenberg.org/files/9519/9519-mp3.zip"},"download_count":19},{"id":9559,"title":"The ride to the lady, and other poems","authors":[{"name":"Cone, Helen Gray","birth_year":1859,"death_year":1934}],"translators":[],"subjects":["American poetry"],"bookshelves":[],"languages":["en"],"copyright":false,"media_type":"Text","formats":{"text/html":"https://www.gutenberg.org/ebooks/9559.html.images","application/epub+zip":"https://www.gutenberg.org/ebooks/9559.epub3.images","application/x-mobipocket-ebook":"https://www.gutenberg.org/ebooks/9559.kf8.images","text/plain; charset=us-ascii":"https://www.gutenberg.org/ebooks/9559.txt.utf-8","text/plain; charset=iso-8859-1":"https://www.gutenberg.org/files/9559/9559-8.txt","application/rdf+xml":"https://www.gutenberg.org/ebooks/9559.rdf","image/jpeg":"https://www.gutenberg.org/cache/epub/9559/pg9559.cover.medium.jpg","application/octet-stream":"https://www.gutenberg.org/cache/epub/9559/pg9559-h.zip"},"download_count":19}]}