{"count":58808,"next":"http://129.241.150.113:8000/books/?languages=en&page=1750","previous":"http://129.241.150.113:8000/books/?languages=en&page=1748","results":[{"id":70069,"title":"A little child","authors":[{"name":"Cummins, Mary Hornibrook","birth_year":null,"death_year":null}],"translators":[],"subjects":["Children -- Fiction","Redemption -- Fiction","Short stories"],"bookshelves":[],"languages":["en"],"copyright":false,"media_type":"Text","formats":{"text/html":"https://www.gutenberg.org/ebooks/70069.html.images","application/epub+zip":"https://www.gutenberg.org/ebooks/70069.epub3.images","application/x-mobipocket-ebook":"https://www.gutenberg.org/ebooks/70069.kf8.images","text/plain; charset=us-ascii":"https://www.gutenberg.org/ebooks/70069.txt.utf-8","application/rdf+xml":"https://www.gutenberg.org/ebooks/70069.rdf","image/jpeg":"https://www.gutenberg.org/cache/epub/70069/pg70069.cover.medium.jpg","application/octet-stream":"https://www.gutenberg.org/files/70069/70069-0.zip"},"download_count":16},{"id":70138,"title":"Wanderings of a beauty : $b A tale of the real and the ideal","authors":[{"name":"James, Edwin, Mrs.","birth_year":null,"death_year":null}],"translators":[],"subjects":["English fiction -- 19th century"],"bookshelves":[],"languages":["en"],"copyright":false,"media_type":"Text","formats":{"text/html":"https://www.gutenberg.org/ebooks/70138.html.images","application/epub+zip":"https://www.gutenberg.org/ebooks/70138.epub3.images","application/x-mobipocket-ebook":"https://www.gutenberg.org/ebooks/70138.kf8.images","text/plain; charset=us-ascii":"https://www.gutenberg.org/ebooks/70138.txt.utf-8","application/rdf+xml":"https://www.gutenberg.org/ebooks/70138.rdf","image/jpeg":"https://www.gutenberg.org/cache/epub/70138/pg70138.cover.medium.jpg","application/octet-stream":"https://www.gutenberg.org/files/70138/70138-0.zip"},"download_count":16},{"id":70145,"title":"The marrying monster","authors":[{"name":"Stamm, Claus","birth_year":null,"death_year":null}],"translators":[],"subjects":["Horror tales","Science fiction","Short stories","Spouses -- Fiction"],"bookshelves":[],"languages":["en"],"copyright":false,"media_type":"Text","formats":{"text/html":"https://www.gutenberg.org/ebooks/70145.html.images","application/epub+zip":"https://www.gutenberg.org/ebooks/70145.epub3.images","application/x-mobipocket-ebook":"https://www.gutenberg.org/ebooks/70145.kf8.images","text/plain; charset=us-ascii":"https://www.gutenberg.org/ebooks/70145.txt.utf-8","application/rdf+xml":"https://www.gutenberg.org/ebooks/70145.rdf","image/jpeg":"https://www.gutenberg.org/cache/epub/70145/pg70145.cover.medium.jpg","application/octet-stream":"https://www.gutenberg.org/files/70145/70145-0.zip"},"download_count":16},{"id":70164,"title":"The best vegetarian dishes I know","authors":[{"name":"Jardine, Jeanne","birth_year":null,"death_year":null}],"translators":[],"subjects":["Cooking (Vegetables)","Vegetarian cooking"],"bookshelves":[],"languages":["en"],"copyright":false,"media_type":"Text","formats":{"text/html":"https://www.gutenberg.org/ebooks/70164.html.images","application/epub+zip":"https://www.gutenberg.org/ebooks/70164.epub3.images","application/x-mobipocket-ebook":"https://www.gutenberg.org/ebooks/70164.kf8.images","text/plain; charset=us-ascii":"https://www.gutenberg.org/ebooks/70164.txt.utf-8","application/rdf+xml":"https://www.gutenberg.org/ebooks/70164.rdf","image/jpeg":"https://www.gutenberg.org/cache/epub/70164/pg70164.cover.medium.jpg","application/octet-stream":"https://www.gutenberg.org/files/70164/70164-0.zip"},"download_count":16},{"id":70212,"title":"The agile Algolian","authors":[{"name":"Crossen, Kendell Foster","birth_year":1910,"death_year":1981}],"translators":[],"subjects":["Humorous stories","Insurance investigators -- Fiction","Science fiction"],"bookshelves":[],"languages":["en"],"copyright":false,"media_type":"Text","formats":{"text/html":"https://www.gutenberg.org/ebooks/70212.html.images","application/epub+zip":"https://www.gutenberg.org/ebooks/70212.epub3.images","application/x-mobipocket-ebook":"https://www.gutenberg.org/ebooks/70212.kf8.images","text/plain; charset=us-ascii":"https://www.gutenberg.org/ebooks/70212.txt.utf-8","application/rdf+xml":"https://www.gutenberg.org/ebooks/70212.rdf","image/jpeg":"https://www.gutenberg.org/cache/epub/70212/pg70212.cover.medium.jpg","application/octet-stream":"https://www.gutenberg.org/files/70212/70212-0.zip"},"download_count":16},{"id":70243,"title":"Labour policy—false and true : $b A study in economic history and industrial economics","authors":[{"name":"Macassey, Lynden Livingston","birth_year":1876,"death_year":1963}],"translators":[],"subjects":["Industrial policy -- Great Britain","Labor economics -- Great Britain","Labour Party (Great Britain)"],"bookshelves":[],"languages":["en"],"copyright":false,"media_type":"Text","formats":{"text/html":"https://www.gutenberg.org/ebooks/70243.html.images","application/epub+zip":"https://www.gutenberg.org/ebooks/70243.epub3.images","application/x-mobipocket-ebook":"https://www.gutenberg.org/ebooks/70243.kf8.images","text/plain; charset=us-ascii":"https://www.gutenberg.org/ebooks/70243.txt.utf-8","application/rdf+xml":"https://www.gutenberg.org/ebooks/70243.rdf","image/jpeg":"https://www.gutenberg.org/cache/epub/70243/pg70243.cover.medium.jpg","application/octet-stream":"https://www.gutenberg.org/files/70243/70243-0.zip"},"download_count":16},{"id":70314,"title":"English monasteries : $b From Saxon days to their dissolution","authors":[{"name":"Cox, J. Charles (John Charles)","birth_year":1843,"death_year":1919}],"translators":[],"subjects":["Monasteries -- Great Britain"],"bookshelves":[],"languages":["en"],"copyright":false,"media_type":"Text","formats":{"text/html":"https://www.gutenberg.org/ebooks/70314.html.images","application/epub+zip":"https://www.gutenberg.org/ebooks/70314.epub3.images","application/x-mobipocket-ebook":"https://www.gutenberg.org/ebooks/70314.kf8.images","text/plain; charset=us-ascii":"https://www.gutenberg.org/ebooks/70314.txt.utf-8","application/rdf+xml":"https://www.gutenberg.org/ebooks/70314.rdf","image/jpeg":"https://www.gutenberg.org/cache/epub/70314/pg70314.cover.medium.jpg","application/octet-stream":"https://www.gutenberg.org/files/70314/70314-0.zip"},"download_count":16},{"id":70324,"title":"The lonely plough","authors":[{"name":"Holme, Constance","birth_year":1880,"death_year":1955}],"translators":[],"subjects":["Westmorland (England) -- Fiction"],"bookshelves":[],"languages":["en"],"copyright":false,"media_type":"Text","formats":{"text/html":"https://www.gutenberg.org/ebooks/70324.html.images","application/epub+zip":"https://www.gutenberg.org/ebooks/70324.epub3.images","application/x-mobipocket-ebook":"https://www.gutenberg.org/ebooks/70324.kf8.images","text/plain; charset=us-ascii":"https://www.gutenberg.org/ebooks/70324.txt.utf-8","application/rdf+xml":"https://www.gutenberg.org/ebooks/70324.rdf","image/jpeg":"https://www.gutenberg.org/cache/epub/70324/pg70324.cover.medium.jpg","application/octet-stream":"https://www.gutenberg.org/files/70324/70324-0.zip"},"download_count":16},{"id":70360,"title":"\"A Cathcart or a Riggs?\"","authors":[{"name":"Norton, Roy","birth_year":1869,"death_year":1942}],"translators":[],"subjects":["Mining camps -- Fiction","Reformers -- Fiction","Short stories","Western stories","Women -- Fiction"],"bookshelves":[],"languages":["en"],"copyright":false,"media_type":"Text","formats":{"text/html":"https://www.gutenberg.org/ebooks/70360.html.images","application/epub+zip":"https://www.gutenberg.org/ebooks/70360.epub3.images","application/x-mobipocket-ebook":"https://www.gutenberg.org/ebooks/70360.kf8.images","text/plain; charset=us-ascii":"https://www.gutenberg.org/ebooks/70360.txt.utf-8","application/rdf+xml":"https://www.gutenberg.org/ebooks/70360.rdf","image/jpeg":"https://www.gutenberg.org/cache/epub/70360/pg70360.cover.medium.jpg","application/octet-stream":"https://www.gutenberg.org/files/70360/70360-0.zip"},"download_count":16},{"id":70378,"title":"Twelve months in Madagascar","authors":[{"name":"Mullens, Joseph","birth_year":1820,"death_year":1879}],"translators":[],"subjects":["Madagascar -- Description and travel"],"bookshelves":[],"languages":["en"],"copyright":false,"media_type":"Text","formats":{"text/html":"https://www.gutenberg.org/ebooks/70378.html.images","application/epub+zip":"https://www.gutenberg.org/ebooks/70378.epub3.images","application/x-mobipocket-ebook":"https://www.gutenberg.org/ebooks/70378.kf8.images","text/plain; charset=us-ascii":"https://www.gutenberg.org/ebooks/70378.txt.utf-8","application/rdf+xml":"https://www.gutenberg.org/ebooks/70378.rdf","image/jpeg":"https://www.gutenberg.org/cache/epub/70378/pg70378.cover.medium.jpg","application/octet-stream":"https://www.gutenberg.org/files/70378/70378-0.zip"},"download_count":16},{"id":70409,"title":"Vacuum cleaning systems : $b A treatise on the principles and practice of mechanical cleaning","authors":[{"name":"Cooley, M. S. (Maxwell Stephens)","birth_year":1874,"death_year":null}],"translators":[],"subjects":["Vacuum cleaning"],"bookshelves":[],"languages":["en"],"copyright":false,"media_type":"Text","formats":{"text/html":"https://www.gutenberg.org/ebooks/70409.html.images","application/epub+zip":"https://www.gutenberg.org/ebooks/70409.epub3.images","application/x-mobipocket-ebook":"https://www.gutenberg.org/ebooks/70409.kf8.images","text/plain; charset=us-ascii":"https://www.gutenberg.org/ebooks/70409.txt.utf-8","application/rdf+xml":"https://www.gutenberg.org/ebooks/70409.rdf","image/jpeg":"https://www.gutenberg.org/cache/epub/70409/pg70409.cover.medium.jpg","application/octet-stream":"https://www.gutenberg.org/files/70409/70409-0.zip"},"download_count":16},{"id":70434,"title":"Americans by adoption : $b Brief biographies of great citizens born in foreign lands","authors":[{"name":"Husband, Joseph","birth_year":1885,"death_year":1938}],"translators":[],"subjects":["United States -- Biography"],"bookshelves":[],"languages":["en"],"copyright":false,"media_type":"Text","formats":{"text/html":"https://www.gutenberg.org/ebooks/70434.html.images","application/epub+zip":"https://www.gutenberg.org/ebooks/70434.epub3.images","application/x-mobipocket-ebook":"https://www.gutenberg.org/ebooks/70434.kf8.images","text/plain; charset=us-ascii":"https://www.gutenberg.org/ebooks/70434.txt.utf-8","application/rdf+xml":"https://www.gutenberg.org/ebooks/70434.rdf","image/jpeg":"https://www.gutenberg.org/cache/epub/70434/pg70434.cover.medium.jpg","application/octet-stream":"https://www.gutenberg.org/files/70434/70434-0.zip"},"download_count":16},{"id":70474,"title":"Queenie Hetherton","authors":[{"name":"Holmes, Mary Jane","birth_year":1825,"death_year":1907}],"translators":[],"subjects":["American fiction -- 19th century","Dime novels","Man-woman relationships -- Fiction","Upper class -- Fiction"],"bookshelves":[],"languages":["en"],"copyright":false,"media_type":"Text","formats":{"text/html":"https://www.gutenberg.org/ebooks/70474.html.images","application/epub+zip":"https://www.gutenberg.org/ebooks/70474.epub3.images","application/x-mobipocket-ebook":"https://www.gutenberg.org/ebooks/70474.kf8.images","text/plain; charset=us-ascii":"https://www.gutenberg.org/ebooks/70474.txt.utf-8","application/rdf+xml":"https://www.gutenberg.org/ebooks/70474.rdf","image/jpeg":"https://www.gutenberg.org/cache/epub/70474/pg70474.cover.medium.jpg","application/octet-stream":"https://www.gutenberg.org/files/70474/70474-0.zip"},"download_count":16},{"id":70479,"title":"Geoffrey's victory; $b or, the double deception","authors":[{"name":"Sheldon, Georgie, Mrs.","birth_year":1843,"death_year":1926}],"translators":[],"subjects":["Boston (Mass.) -- Social life and customs -- 19th century -- Fiction","Dime novels","Romance fiction"],"bookshelves":[],"languages":["en"],"copyright":false,"media_type":"Text","formats":{"text/html":"https://www.gutenberg.org/ebooks/70479.html.images","application/epub+zip":"https://www.gutenberg.org/ebooks/70479.epub3.images","application/x-mobipocket-ebook":"https://www.gutenberg.org/ebooks/70479.kf8.images","text/plain; charset=us-ascii":"https://www.gutenberg.org/ebooks/70479.txt.utf-8","application/rdf+xml":"https://www.gutenberg.org/ebooks/70479.rdf","image/jpeg":"https://www.gutenberg.org/cache/epub/70479/pg70479.cover.medium.jpg","application/octet-stream":"https://www.gutenberg.org/files/70479/70479-0.zip"},"download_count":16},{"id":70568,"title":"Debating for boys","authors":[{"name":"Foster, William Horton","birth_year":null,"death_year":null}],"translators":[],"subjects":["Debates and debating"],"bookshelves":[],"languages":["en"],"copyright":false,"media_type":"Text","formats":{"text/html":"https://www.gutenberg.org/ebooks/70568.html.images","application/epub+zip":"https://www.gutenberg.org/ebooks/70568.epub3.images","application/x-mobipocket-ebook":"https://www.gutenberg.org/ebooks/70568.kf8.images","text/plain; charset=us-ascii":"https://www.gutenberg.org/ebooks/70568.txt.utf-8","application/rdf+xml":"https://www.gutenberg.org/ebooks/70568.rdf","image/jpeg":"https://www.gutenberg.org/cache/epub/70568/pg70568.cover.medium.jpg","application/octet-stream":"https://www.gutenberg.org/files/70568/70568-0.zip"},"download_count":16},{"id":70615,"title":"The ritual and significance of the Winnebago medicine dance","authors":[{"name":"Radin, Paul","birth_year":1883,"death_year":1959}],"translators":[],"subjects":["Thesis (Ph. D.)","Winnebago Indians -- Rites and ceremonies"],"bookshelves":[],"languages":["en"],"copyright":false,"media_type":"Text","formats":{"text/html":"https://www.gutenberg.org/ebooks/70615.html.images","application/epub+zip":"https://www.gutenberg.org/ebooks/70615.epub3.images","application/x-mobipocket-ebook":"https://www.gutenberg.org/ebooks/70615.kf8.images","text/plain; charset=us-ascii":"https://www.gutenberg.org/ebooks/70615.txt.utf-8","application/rdf+xml":"https://www.gutenberg.org/ebooks/70615.rdf","image/jpeg":"https://www.gutenberg.org/cache/epub/70615/pg70615.cover.medium.jpg","application/octet-stream":"https://www.gutenberg.org/files/70615/70615-0.zip"},"download_count":16},{"id":70633,"title":"The Territorial Divisions, 1914-1918","authors":[{"name":"Stirling, John","birth_year":null,"death_year":null}],"translators":[],"subjects":["World War, 1914-1918 -- Regimental histories -- Great Britain"],"bookshelves":[],"languages":["en"],"copyright":false,"media_type":"Text","formats":{"text/html":"https://www.gutenberg.org/ebooks/70633.html.images","application/epub+zip":"https://www.gutenberg.org/ebooks/70633.epub3.images","application/x-mobipocket-ebook":"https://www.gutenberg.org/ebooks/70633.kf8.images","text/plain; charset=us-ascii":"https://www.gutenberg.org/ebooks/70633.txt.utf-8","application/rdf+xml":"https://www.gutenberg.org/ebooks/70633.rdf","image/jpeg":"https://www.gutenberg.org/cache/epub/70633/pg70633.cover.medium.jpg","application/octet-stream":"https://www.gutenberg.org/files/70633/70633-0.zip"},"download_count":16},{"id":70706,"title":"The Philistine : $b a periodical of protest (Vol. II, No. 3, February 1896)","authors":[{"name":"Various","birth_year":null,"death_year":null}],"translators":[],"subjects":["American literature -- Periodicals","American periodicals","Society of the Philistines (East Aurora, N.Y.) -- Periodicals"],"bookshelves":[],"languages":["en"],"copyright":false,"media_type":"Text","formats":{"text/html":"https://www.gutenberg.org/ebooks/70706.html.images","application/epub+zip":"https://www.gutenberg.org/ebooks/70706.epub3.images","application/x-mobipocket-ebook":"https://www.gutenberg.org/ebooks/70706.kf8.images","text/plain; charset=us-ascii":"https://www.gutenberg.org/ebooks/70706.txt.utf-8","application/rdf+xml":"https://www.gutenberg.org/ebooks/70706.rdf","image/jpeg":"https://www.gutenberg.org/cache/epub/70706/pg70706.cover.medium.jpg","application/octet-stream":"https://www.gutenberg.org/files/70706/70706-0.zip"},"download_count":16},{"id":70756,"title":"The Earl's promise : $b A novel. Vol. 2 (of 3)","authors":[{"name":"Riddell, J. H., Mrs.","birth_year":1832,"death_year":1906}],"translators":[],"subjects":["City and town life -- Fiction","Landlord and tenant -- Fiction","Mate selection -- Fiction","Ulster (Northern Ireland and Ireland) -- Fiction"],"bookshelves":[],"languages":["en"],"copyright":false,"media_type":"Text","formats":{"text/html":"https://www.gutenberg.org/ebooks/70756.html.images","application/epub+zip":"https://www.gutenberg.org/ebooks/70756.epub3.images","application/x-mobipocket-ebook":"https://www.gutenberg.org/ebooks/70756.kf8.images","text/plain; charset=us-ascii":"https://www.gutenberg.org/ebooks/70756.txt.utf-8","application/rdf+xml":"https://www.gutenberg.org/ebooks/70756.rdf","image/jpeg":"https://www.gutenberg.org/cache/epub/70756/pg70756.cover.medium.jpg","application/octet-stream":"https://www.gutenberg.org/files/70756/70756-0.zip"},"download_count":16},{"id":70780,"title":"Big lake : $b A tragedy in two parts","authors":[{"name":"Riggs, Lynn","birth_year":1899,"death_year":1954}],"translators":[],"subjects":["American drama -- 20th century","Tragedies"],"bookshelves":[],"languages":["en"],"copyright":false,"media_type":"Text","formats":{"text/html":"https://www.gutenberg.org/ebooks/70780.html.images","application/epub+zip":"https://www.gutenberg.org/ebooks/70780.epub3.images","application/x-mobipocket-ebook":"https://www.gutenberg.org/ebooks/70780.kf8.images","text/plain; charset=us-ascii":"https://www.gutenberg.org/ebooks/70780.txt.utf-8","application/rdf+xml":"https://www.gutenberg.org/ebooks/70780.rdf","image/jpeg":"https://www.gutenberg.org/cache/epub/70780/pg70780.cover.medium.jpg","application/octet-stream":"https://www.gutenberg.org/files/70780/70780-0.zip"},"download_count":16},{"id":70867,"title":"Somewhere south in Sonora : $b A novel","authors":[{"name":"Comfort, Will Levington","birth_year":1878,"death_year":1932}],"translators":[],"subjects":["Action and adventure fiction","Southwest, New -- Fiction"],"bookshelves":[],"languages":["en"],"copyright":false,"media_type":"Text","formats":{"text/html":"https://www.gutenberg.org/ebooks/70867.html.images","application/epub+zip":"https://www.gutenberg.org/ebooks/70867.epub3.images","application/x-mobipocket-ebook":"https://www.gutenberg.org/ebooks/70867.kf8.images","text/plain; charset=us-ascii":"https://www.gutenberg.org/ebooks/70867.txt.utf-8","application/rdf+xml":"https://www.gutenberg.org/ebooks/70867.rdf","image/jpeg":"https://www.gutenberg.org/cache/epub/70867/pg70867.cover.medium.jpg","application/octet-stream":"https://www.gutenberg.org/files/70867/70867-0.zip"},"download_count":16},{"id":71099,"title":"Maggie Lee! : $b Bad spelling, Diamonds, The answered prayer","authors":[{"name":"Holmes, Mary Jane","birth_year":1825,"death_year":1907}],"translators":[],"subjects":["American fiction -- 19th century","Short stories, American"],"bookshelves":[],"languages":["en"],"copyright":false,"media_type":"Text","formats":{"text/html":"https://www.gutenberg.org/ebooks/71099.html.images","application/epub+zip":"https://www.gutenberg.org/ebooks/71099.epub3.images","application/x-mobipocket-ebook":"https://www.gutenberg.org/ebooks/71099.kf8.images","text/plain; charset=us-ascii":"https://www.gutenberg.org/ebooks/71099.txt.utf-8","application/rdf+xml":"https://www.gutenberg.org/ebooks/71099.rdf","image/jpeg":"https://www.gutenberg.org/cache/epub/71099/pg71099.cover.medium.jpg","application/octet-stream":"https://www.gutenberg.org/files/71099/71099-0.zip"},"download_count":16},{"id":71315,"title":"How to get an air job","authors":[{"name":"Byrne, Jack","birth_year":1902,"death_year":1972}],"translators":[],"subjects":["Aeronautics"],"bookshelves":[],"languages":["en"],"copyright":false,"media_type":"Text","formats":{"text/html":"https://www.gutenberg.org/ebooks/71315.html.images","application/epub+zip":"https://www.gutenberg.org/ebooks/71315.epub3.images","application/x-mobipocket-ebook":"https://www.gutenberg.org/ebooks/71315.kf8.images","text/plain; charset=us-ascii":"https://www.gutenberg.org/ebooks/71315.txt.utf-8","application/rdf+xml":"https://www.gutenberg.org/ebooks/71315.rdf","image/jpeg":"https://www.gutenberg.org/cache/epub/71315/pg71315.cover.medium.jpg","application/octet-stream":"https://www.gutenberg.org/files/71315/71315-0.zip"},"download_count":16},{"id":71319,"title":"Clarissa Dormer : $b or, The advantages of good instruction","authors":[{"name":"Anonymous","birth_year":null,"death_year":null}],"translators":[],"subjects":["Black people -- Juvenile fiction","Children's stories","Conduct of life -- Juvenile fiction","Girls -- Juvenile fiction","Governesses -- Juvenile fiction","Race relations -- Juvenile fiction","Racially mixed children -- Juvenile fiction","Slave rebellions -- Juvenile fiction","Slavery -- West Indies -- Juvenile fiction","West Indies -- Juvenile fiction"],"bookshelves":[],"languages":["en"],"copyright":false,"media_type":"Text","formats":{"text/html":"https://www.gutenberg.org/ebooks/71319.html.images","application/epub+zip":"https://www.gutenberg.org/ebooks/71319.epub3.images","application/x-mobipocket-ebook":"https://www.gutenberg.org/ebooks/71319.kf8.images","text/plain; charset=us-ascii":"https://www.gutenberg.org/ebooks/71319.txt.utf-8","application/rdf+xml":"https://www.gutenberg.org/ebooks/71319.rdf","image/jpeg":"https://www.gutenberg.org/cache/epub/71319/pg71319.cover.medium.jpg","application/octet-stream":"https://www.gutenberg.org/files/71319/71319-0.zip"},"download_count":16},{"id":71328,"title":"Out of Russia","authors":[{"name":"Marriott, Crittenden","birth_year":1867,"death_year":1932}],"translators":[],"subjects":["Adventure stories","Intrigue -- Fiction","Treasure troves -- Fiction"],"bookshelves":[],"languages":["en"],"copyright":false,"media_type":"Text","formats":{"text/html":"https://www.gutenberg.org/ebooks/71328.html.images","application/epub+zip":"https://www.gutenberg.org/ebooks/71328.epub3.images","application/x-mobipocket-ebook":"https://www.gutenberg.org/ebooks/71328.kf8.images","text/plain; charset=us-ascii":"https://www.gutenberg.org/ebooks/71328.txt.utf-8","application/rdf+xml":"https://www.gutenberg.org/ebooks/71328.rdf","image/jpeg":"https://www.gutenberg.org/cache/epub/71328/pg71328.cover.medium.jpg","application/octet-stream":"https://www.gutenberg.org/files/71328/71328-0.zip"},"download_count":16},{"id":71380,"title":"Soldiers of the light","authors":[{"name":"Cone, Helen Gray","birth_year":1859,"death_year":1934}],"translators":[],"subjects":["American poetry"],"bookshelves":[],"languages":["en"],"copyright":false,"media_type":"Text","formats":{"text/html":"https://www.gutenberg.org/ebooks/71380.html.images","application/epub+zip":"https://www.gutenberg.org/ebooks/71380.epub3.images","application/x-mobipocket-ebook":"https://www.gutenberg.org/ebooks/71380.kf8.images","text/plain; charset=us-ascii":"https://www.gutenberg.org/ebooks/71380.txt.utf-8","application/rdf+xml":"https://www.gutenberg.org/ebooks/71380.rdf","image/jpeg":"https://www.gutenberg.org/cache/epub/71380/pg71380.cover.medium.jpg","application/octet-stream":"https://www.gutenberg.org/files/71380/71380-h.zip"},"download_count":16},{"id":71414,"title":"British freewomen : $b Their historical privilege","authors":[{"name":"Stopes, C. C. (Charlotte Carmichael)","birth_year":1840,"death_year":1929}],"translators":[],"subjects":["Women -- Great Britain","Women -- History"],"bookshelves":[],"languages":["en"],"copyright":false,"media_type":"Text","formats":{"text/html":"https://www.gutenberg.org/ebooks/71414.html.images","application/epub+zip":"https://www.gutenberg.org/ebooks/71414.epub3.images","application/x-mobipocket-ebook":"https://www.gutenberg.org/ebooks/71414.kf8.images","text/plain; charset=us-ascii":"https://www.gutenberg.org/ebooks/71414.txt.utf-8","application/rdf+xml":"https://www.gutenberg.org/ebooks/71414.rdf","image/jpeg":"https://www.gutenberg.org/cache/epub/71414/pg71414.cover.medium.jpg","application/octet-stream":"https://www.gutenberg.org/files/71414/71414-h.zip"},"download_count":16},{"id":71461,"title":"The story of Fifine","authors":[{"name":"Capes, Bernard","birth_year":1854,"death_year":1918}],"translators":[],"subjects":["English fiction -- 20th century","France -- Fiction"],"bookshelves":[],"languages":["en"],"copyright":false,"media_type":"Text","formats":{"text/html":"https://www.gutenberg.org/ebooks/71461.html.images","application/epub+zip":"https://www.gutenberg.org/ebooks/71461.epub3.images","application/x-mobipocket-ebook":"https://www.gutenberg.org/ebooks/71461.kf8.images","text/plain; charset=us-ascii":"https://www.gutenberg.org/ebooks/71461.txt.utf-8","application/rdf+xml":"https://www.gutenberg.org/ebooks/71461.rdf","image/jpeg":"https://www.gutenberg.org/cache/epub/71461/pg71461.cover.medium.jpg","application/octet-stream":"https://www.gutenberg.org/files/71461/71461-h.zip"},"download_count":16},{"id":71559,"title":"Plain tales, chiefly intended for the use of charity schools","authors":[{"name":"Anonymous","birth_year":null,"death_year":null}],"translators":[],"subjects":["Children's stories","Conduct of life -- Juvenile fiction"],"bookshelves":[],"languages":["en"],"copyright":false,"media_type":"Text","formats":{"text/html":"https://www.gutenberg.org/ebooks/71559.html.images","application/epub+zip":"https://www.gutenberg.org/ebooks/71559.epub3.images","application/x-mobipocket-ebook":"https://www.gutenberg.org/ebooks/71559.kf8.images","text/plain; charset=us-ascii":"https://www.gutenberg.org/ebooks/71559.txt.utf-8","application/rdf+xml":"https://www.gutenberg.org/ebooks/71559.rdf","image/jpeg":"https://www.gutenberg.org/cache/epub/71559/pg71559.cover.medium.jpg","application/octet-stream":"https://www.gutenberg.org/files/71559/71559-h.zip"},"download_count":16},{"id":630,"title":"The Square Root of 6","authors":[{"name":"Bonnell, Jerry T.","birth_year":null,"death_year":null},{"name":"Nemiroff, Robert J.","birth_year":null,"death_year":null}],"translators":[],"subjects":["Mathematics","Square root"],"bookshelves":["Mathematics"],"languages":["en"],"copyright":false,"media_type":"Dataset","formats":{"text/plain; charset=us-ascii":"https://www.gutenberg.org/files/630/630.txt","application/rdf+xml":"https://www.gutenberg.org/ebooks/630.rdf"},"download_count":15},{"id":933,"title":"More Bab Ballads","authors":[{"name":"Gilbert, W. S. (William Schwenck)","birth_year":1836,"death_year":1911}],"translators":[],"subjects":["English wit and humor","Humorous poetry, English"],"bookshelves":[],"languages":["en"],"copyright":false,"media_type":"Text","formats":{"text/html":"https://www.gutenberg.org/ebooks/933.html.images","application/epub+zip":"https://www.gutenberg.org/ebooks/933.epub3.images","application/x-mobipocket-ebook":"https://www.gutenberg.org/ebooks/933.kf8.images","text/plain; charset=us-ascii":"https://www.gutenberg.org/ebooks/933.txt.utf-8","text/plain; charset=utf-8":"https://www.gutenberg.org/files/933/933-0.txt","application/rdf+xml":"https://www.gutenberg.org/ebooks/933.rdf","image/jpeg":"https://www.gutenberg.org/cache/epub/933/pg933.cover.medium.jpg","application/octet-stream":"https://www.gutenberg.org/cache/epub/933/pg933-h.zip"},"download_count":15},{"id":937,"title":"Poems: Patriotic, Religious, Miscellaneous","authors":[{"name":"Ryan, Abram Joseph","birth_year":1839,"death_year":1886}],"translators":[],"subjects":["American poetry -- 19th century","Patriotism -- Poetry","Religion -- Poetry","United States -- History -- Civil War, 1861-1865 -- Poetry"],"bookshelves":[],"languages":["en"],"copyright":false,"media_type":"Text","formats":{"text/html":"https://www.gutenberg.org/ebooks/937.html.images","application/epub+zip":"https://www.gutenberg.org/ebooks/937.epub3.images","application/x-mobipocket-ebook":"https://www.gutenberg.org/ebooks/937.kf8.images","text/plain; charset=us-ascii":"https://www.gutenberg.org/ebooks/937.txt.utf-8","application/rdf+xml":"https://www.gutenberg.org/ebooks/937.rdf","image/jpeg":"https://www.gutenberg.org/cache/epub/937/pg937.cover.medium.jpg","application/octet-stream":"https://www.gutenberg.org/cache/epub/937/pg937-h.zip"},"download_count":15}]}