{"count":58808,"next":"http://129.241.150.113:8000/books/?languages=en&page=1829","previous":"http://129.241.150.113:8000/books/?languages=en&page=1827","results":[{"id":52421,"title":"A Sermon Preached in York Minister, on St. Bartholomew's Day, Friday, August 24, 1877: on the Occasion of the Consecration of the Right Rev. Rowley Hill, Lord Bishop of Sodor and Man","authors":[{"name":"Hoare, Edward","birth_year":1812,"death_year":1894}],"translators":[],"subjects":["Bible. Acts I, 8 -- Sermons","Church of England -- Sermons","Sermons, English -- 19th century"],"bookshelves":[],"languages":["en"],"copyright":false,"media_type":"Text","formats":{"text/html":"https://www.gutenberg.org/ebooks/52421.html.images","application/epub+zip":"https://www.gutenberg.org/ebooks/52421.epub3.images","application/x-mobipocket-ebook":"https://www.gutenberg.org/ebooks/52421.kf8.images","text/plain; charset=us-ascii":"https://www.gutenberg.org/ebooks/52421.txt.utf-8","text/plain; charset=utf-8":"https://www.gutenberg.org/files/52421/52421-0.txt","application/rdf+xml":"https://www.gutenberg.org/ebooks/52421.rdf","image/jpeg":"https://www.gutenberg.org/cache/epub/52421/pg52421.cover.medium.jpg","application/octet-stream":"https://www.gutenberg.org/cache/epub/52421/pg52421-h.zip"},"download_count":8},{"id":53880,"title":"Consumption Curable: Observations on the Treatment of Pulmonary Diseases","authors":[{"name":"Congreve, Henry","birth_year":null,"death_year":null}],"translators":[],"subjects":["Influenza -- Treatment","Respiratory organs -- Diseases -- Treatment","Tuberculosis -- Treatment"],"bookshelves":[],"languages":["en"],"copyright":false,"media_type":"Text","formats":{"text/html":"https://www.gutenberg.org/ebooks/53880.html.images","application/epub+zip":"https://www.gutenberg.org/ebooks/53880.epub3.images","application/x-mobipocket-ebook":"https://www.gutenberg.org/ebooks/53880.kf8.images","text/plain; charset=us-ascii":"https://www.gutenberg.org/ebooks/53880.txt.utf-8","text/plain; charset=utf-8":"https://www.gutenberg.org/files/53880/53880-0.txt","application/rdf+xml":"https://www.gutenberg.org/ebooks/53880.rdf","image/jpeg":"https://www.gutenberg.org/cache/epub/53880/pg53880.cover.medium.jpg","application/octet-stream":"https://www.gutenberg.org/cache/epub/53880/pg53880-h.zip"},"download_count":8},{"id":54461,"title":"Commercial Politics (1837-1856)","authors":[],"translators":[],"subjects":["Great Britain -- History -- 19th century -- Sources"],"bookshelves":[],"languages":["en"],"copyright":false,"media_type":"Text","formats":{"text/html":"https://www.gutenberg.org/ebooks/54461.html.images","text/html; charset=utf-8":"https://www.gutenberg.org/files/54461/54461-h/54461-h.htm","application/epub+zip":"https://www.gutenberg.org/ebooks/54461.epub3.images","application/x-mobipocket-ebook":"https://www.gutenberg.org/ebooks/54461.kf8.images","text/plain; charset=us-ascii":"https://www.gutenberg.org/ebooks/54461.txt.utf-8","text/plain; charset=utf-8":"https://www.gutenberg.org/files/54461/54461-0.txt","application/rdf+xml":"https://www.gutenberg.org/ebooks/54461.rdf","image/jpeg":"https://www.gutenberg.org/cache/epub/54461/pg54461.cover.medium.jpg","application/octet-stream":"https://www.gutenberg.org/cache/epub/54461/pg54461-h.zip"},"download_count":8},{"id":54781,"title":"The Irish Penny Journal, Vol. 1 No. 33, February 13, 1841","authors":[{"name":"Various","birth_year":null,"death_year":null}],"translators":[],"subjects":["Ireland -- Periodicals"],"bookshelves":[],"languages":["en"],"copyright":false,"media_type":"Text","formats":{"text/html":"https://www.gutenberg.org/ebooks/54781.html.images","text/html; charset=utf-8":"https://www.gutenberg.org/files/54781/54781-h/54781-h.htm","application/epub+zip":"https://www.gutenberg.org/ebooks/54781.epub3.images","application/x-mobipocket-ebook":"https://www.gutenberg.org/ebooks/54781.kf8.images","text/plain; charset=us-ascii":"https://www.gutenberg.org/ebooks/54781.txt.utf-8","text/plain; charset=utf-8":"https://www.gutenberg.org/files/54781/54781-0.txt","application/rdf+xml":"https://www.gutenberg.org/ebooks/54781.rdf","image/jpeg":"https://www.gutenberg.org/cache/epub/54781/pg54781.cover.medium.jpg","application/octet-stream":"https://www.gutenberg.org/cache/epub/54781/pg54781-h.zip"},"download_count":8},{"id":55007,"title":"Stephen H. Branch's Alligator, Vol. 1 no. 21, September 11, 1858","authors":[],"translators":[],"subjects":["New York (N.Y.) -- Politics and government"],"bookshelves":[],"languages":["en"],"copyright":false,"media_type":"Text","formats":{"text/html":"https://www.gutenberg.org/ebooks/55007.html.images","text/html; charset=utf-8":"https://www.gutenberg.org/files/55007/55007-h/55007-h.htm","application/epub+zip":"https://www.gutenberg.org/ebooks/55007.epub3.images","application/x-mobipocket-ebook":"https://www.gutenberg.org/ebooks/55007.kf8.images","text/plain; charset=us-ascii":"https://www.gutenberg.org/ebooks/55007.txt.utf-8","text/plain; charset=utf-8":"https://www.gutenberg.org/files/55007/55007-0.txt","application/rdf+xml":"https://www.gutenberg.org/ebooks/55007.rdf","image/jpeg":"https://www.gutenberg.org/cache/epub/55007/pg55007.cover.medium.jpg","application/octet-stream":"https://www.gutenberg.org/cache/epub/55007/pg55007-h.zip"},"download_count":8},{"id":59578,"title":"Dissertations on Inflammation, Vol. 2","authors":[{"name":"Burns, John","birth_year":1774,"death_year":1850}],"translators":[],"subjects":["Inflammation"],"bookshelves":[],"languages":["en"],"copyright":false,"media_type":"Text","formats":{"text/html":"https://www.gutenberg.org/ebooks/59578.html.images","text/html; charset=utf-8":"https://www.gutenberg.org/files/59578/59578-h/59578-h.htm","application/epub+zip":"https://www.gutenberg.org/ebooks/59578.epub3.images","application/x-mobipocket-ebook":"https://www.gutenberg.org/ebooks/59578.kf8.images","text/plain; charset=us-ascii":"https://www.gutenberg.org/ebooks/59578.txt.utf-8","text/plain; charset=utf-8":"https://www.gutenberg.org/files/59578/59578-0.txt","application/rdf+xml":"https://www.gutenberg.org/ebooks/59578.rdf","image/jpeg":"https://www.gutenberg.org/cache/epub/59578/pg59578.cover.medium.jpg","application/octet-stream":"https://www.gutenberg.org/cache/epub/59578/pg59578-h.zip"},"download_count":8},{"id":62221,"title":"Our Sabbaths in Danger: A Sermon, deprecating the contemplated opening of the Crystal Palace on the Lord's-Day","authors":[{"name":"Moore, Daniel","birth_year":1809,"death_year":1899}],"translators":[],"subjects":["Church of England -- Sermons -- 19th century","Crystal Palace (Sydenham, London, England)","Sunday","Sunday legislation -- Great Britain"],"bookshelves":[],"languages":["en"],"copyright":false,"media_type":"Text","formats":{"text/html":"https://www.gutenberg.org/ebooks/62221.html.images","application/epub+zip":"https://www.gutenberg.org/ebooks/62221.epub3.images","application/x-mobipocket-ebook":"https://www.gutenberg.org/ebooks/62221.kf8.images","text/plain; charset=us-ascii":"https://www.gutenberg.org/ebooks/62221.txt.utf-8","text/plain; charset=utf-8":"https://www.gutenberg.org/files/62221/62221-0.txt","application/rdf+xml":"https://www.gutenberg.org/ebooks/62221.rdf","image/jpeg":"https://www.gutenberg.org/cache/epub/62221/pg62221.cover.medium.jpg","application/octet-stream":"https://www.gutenberg.org/cache/epub/62221/pg62221-h.zip"},"download_count":8},{"id":64717,"title":"A Sermon preached at Christ Church, Kensington, on May 1, 1859: being the day appointed for a general thanksgiving to Almighty God, for the success granted to our arms in suppressing the rebellion and restoring tranquillity in Her Majesty's Indian Dominions.","authors":[{"name":"Wright, William","birth_year":1829,"death_year":1900}],"translators":[],"subjects":["Bible. Samuel, 2nd, VIII, 14-15 -- Sermons","Church of England -- Sermons","Sermons, English -- 19th century"],"bookshelves":[],"languages":["en"],"copyright":false,"media_type":"Text","formats":{"text/html":"https://www.gutenberg.org/ebooks/64717.html.images","application/epub+zip":"https://www.gutenberg.org/ebooks/64717.epub3.images","application/x-mobipocket-ebook":"https://www.gutenberg.org/ebooks/64717.kf8.images","text/plain; charset=us-ascii":"https://www.gutenberg.org/ebooks/64717.txt.utf-8","text/plain; charset=utf-8":"https://www.gutenberg.org/files/64717/64717-0.txt","application/rdf+xml":"https://www.gutenberg.org/ebooks/64717.rdf","image/jpeg":"https://www.gutenberg.org/cache/epub/64717/pg64717.cover.medium.jpg","application/octet-stream":"https://www.gutenberg.org/cache/epub/64717/pg64717-h.zip"},"download_count":8},{"id":65834,"title":"The Riders of Ramapo Pass","authors":[{"name":"Heffernan, Dean L.","birth_year":null,"death_year":null}],"translators":[],"subjects":["Adventure stories","Gold miners -- Fiction","Man-woman relationships -- Fiction","Western stories"],"bookshelves":[],"languages":["en"],"copyright":false,"media_type":"Text","formats":{"text/html":"https://www.gutenberg.org/ebooks/65834.html.images","application/epub+zip":"https://www.gutenberg.org/ebooks/65834.epub3.images","application/x-mobipocket-ebook":"https://www.gutenberg.org/ebooks/65834.kf8.images","text/plain; charset=us-ascii":"https://www.gutenberg.org/ebooks/65834.txt.utf-8","text/plain; charset=utf-8":"https://www.gutenberg.org/files/65834/65834-0.txt","application/rdf+xml":"https://www.gutenberg.org/ebooks/65834.rdf","image/jpeg":"https://www.gutenberg.org/cache/epub/65834/pg65834.cover.medium.jpg","application/octet-stream":"https://www.gutenberg.org/cache/epub/65834/pg65834-h.zip"},"download_count":8},{"id":67022,"title":"Lyrics & Legends of Christmas-Tide","authors":[{"name":"Scollard, Clinton","birth_year":1860,"death_year":1932}],"translators":[],"subjects":["Christmas poetry"],"bookshelves":[],"languages":["en"],"copyright":false,"media_type":"Text","formats":{"text/html":"https://www.gutenberg.org/ebooks/67022.html.images","application/epub+zip":"https://www.gutenberg.org/ebooks/67022.epub3.images","application/x-mobipocket-ebook":"https://www.gutenberg.org/ebooks/67022.kf8.images","text/plain; charset=us-ascii":"https://www.gutenberg.org/ebooks/67022.txt.utf-8","application/rdf+xml":"https://www.gutenberg.org/ebooks/67022.rdf","image/jpeg":"https://www.gutenberg.org/cache/epub/67022/pg67022.cover.medium.jpg","application/octet-stream":"https://www.gutenberg.org/files/67022/67022-0.zip"},"download_count":8},{"id":67255,"title":"The Story of Zephyr: A Christmas Story","authors":[{"name":"Smith, Jeanie Oliver Davidson","birth_year":1836,"death_year":1925}],"translators":[],"subjects":["Boys -- Juvenile fiction","Cats -- Juvenile fiction","Christmas stories","Short stories"],"bookshelves":[],"languages":["en"],"copyright":false,"media_type":"Text","formats":{"text/html":"https://www.gutenberg.org/ebooks/67255.html.images","application/epub+zip":"https://www.gutenberg.org/ebooks/67255.epub3.images","application/x-mobipocket-ebook":"https://www.gutenberg.org/ebooks/67255.kf8.images","text/plain; charset=us-ascii":"https://www.gutenberg.org/ebooks/67255.txt.utf-8","application/rdf+xml":"https://www.gutenberg.org/ebooks/67255.rdf","image/jpeg":"https://www.gutenberg.org/cache/epub/67255/pg67255.cover.medium.jpg","application/octet-stream":"https://www.gutenberg.org/files/67255/67255-0.zip"},"download_count":8},{"id":67543,"title":"The God of Civilization: A Romance","authors":[{"name":"Pittock, M. A., Mrs.","birth_year":null,"death_year":null}],"translators":[],"subjects":["Dime novels","Love stories","Oceania -- Description and travel -- Fiction"],"bookshelves":[],"languages":["en"],"copyright":false,"media_type":"Text","formats":{"text/html":"https://www.gutenberg.org/ebooks/67543.html.images","application/epub+zip":"https://www.gutenberg.org/ebooks/67543.epub3.images","application/x-mobipocket-ebook":"https://www.gutenberg.org/ebooks/67543.kf8.images","text/plain; charset=us-ascii":"https://www.gutenberg.org/ebooks/67543.txt.utf-8","application/rdf+xml":"https://www.gutenberg.org/ebooks/67543.rdf","image/jpeg":"https://www.gutenberg.org/cache/epub/67543/pg67543.cover.medium.jpg","application/octet-stream":"https://www.gutenberg.org/files/67543/67543-0.zip"},"download_count":8},{"id":70125,"title":"Mexican letters written during the progress of the late war between the United States and Mexico, no. 1.","authors":[{"name":"Brackenridge, H. M. (Henry Marie)","birth_year":1786,"death_year":1871}],"translators":[],"subjects":["Mexican War, 1846-1848","United States -- Politics and government -- 1845-1849"],"bookshelves":[],"languages":["en"],"copyright":false,"media_type":"Text","formats":{"text/html":"https://www.gutenberg.org/ebooks/70125.html.images","application/epub+zip":"https://www.gutenberg.org/ebooks/70125.epub3.images","application/x-mobipocket-ebook":"https://www.gutenberg.org/ebooks/70125.kf8.images","text/plain; charset=us-ascii":"https://www.gutenberg.org/ebooks/70125.txt.utf-8","application/rdf+xml":"https://www.gutenberg.org/ebooks/70125.rdf","image/jpeg":"https://www.gutenberg.org/cache/epub/70125/pg70125.cover.medium.jpg","application/octet-stream":"https://www.gutenberg.org/files/70125/70125-0.zip"},"download_count":8},{"id":70191,"title":"Glen's Creek","authors":[{"name":"Holmes, Mary Jane","birth_year":1825,"death_year":1907}],"translators":[],"subjects":["Frontier and pioneer life -- Kentucky -- Fiction","Kentucky -- History -- 19th century -- Fiction"],"bookshelves":[],"languages":["en"],"copyright":false,"media_type":"Text","formats":{"text/html":"https://www.gutenberg.org/ebooks/70191.html.images","application/epub+zip":"https://www.gutenberg.org/ebooks/70191.epub3.images","application/x-mobipocket-ebook":"https://www.gutenberg.org/ebooks/70191.kf8.images","text/plain; charset=us-ascii":"https://www.gutenberg.org/ebooks/70191.txt.utf-8","application/rdf+xml":"https://www.gutenberg.org/ebooks/70191.rdf","image/jpeg":"https://www.gutenberg.org/cache/epub/70191/pg70191.cover.medium.jpg","application/octet-stream":"https://www.gutenberg.org/files/70191/70191-0.zip"},"download_count":8},{"id":70252,"title":"Threads gathered up : $b A sequel to \"Virgie's Inheritance\"","authors":[{"name":"Sheldon, Georgie, Mrs.","birth_year":1843,"death_year":1926}],"translators":[],"subjects":["American fiction -- 19th century"],"bookshelves":[],"languages":["en"],"copyright":false,"media_type":"Text","formats":{"text/html":"https://www.gutenberg.org/ebooks/70252.html.images","application/epub+zip":"https://www.gutenberg.org/ebooks/70252.epub3.images","application/x-mobipocket-ebook":"https://www.gutenberg.org/ebooks/70252.kf8.images","text/plain; charset=us-ascii":"https://www.gutenberg.org/ebooks/70252.txt.utf-8","application/rdf+xml":"https://www.gutenberg.org/ebooks/70252.rdf","image/jpeg":"https://www.gutenberg.org/cache/epub/70252/pg70252.cover.medium.jpg","application/octet-stream":"https://www.gutenberg.org/files/70252/70252-0.zip"},"download_count":8},{"id":70582,"title":"Her fairy prince","authors":[{"name":"Warden, Gertrude","birth_year":1859,"death_year":1925}],"translators":[],"subjects":["Man-woman relationships -- Fiction"],"bookshelves":[],"languages":["en"],"copyright":false,"media_type":"Text","formats":{"text/html":"https://www.gutenberg.org/ebooks/70582.html.images","application/epub+zip":"https://www.gutenberg.org/ebooks/70582.epub3.images","application/x-mobipocket-ebook":"https://www.gutenberg.org/ebooks/70582.kf8.images","text/plain; charset=us-ascii":"https://www.gutenberg.org/ebooks/70582.txt.utf-8","application/rdf+xml":"https://www.gutenberg.org/ebooks/70582.rdf","image/jpeg":"https://www.gutenberg.org/cache/epub/70582/pg70582.cover.medium.jpg","application/octet-stream":"https://www.gutenberg.org/files/70582/70582-0.zip"},"download_count":8},{"id":70903,"title":"The history of the 1st Batt. Wilts Volunteers, from 1861 to 1885","authors":[{"name":"Gibney, R. D. (Robert Dwarris)","birth_year":1826,"death_year":1906}],"translators":[],"subjects":["Great Britain. Army. Wiltshire Regiment. Battalion, 1st -- History"],"bookshelves":[],"languages":["en"],"copyright":false,"media_type":"Text","formats":{"text/html":"https://www.gutenberg.org/ebooks/70903.html.images","application/epub+zip":"https://www.gutenberg.org/ebooks/70903.epub3.images","application/x-mobipocket-ebook":"https://www.gutenberg.org/ebooks/70903.kf8.images","text/plain; charset=us-ascii":"https://www.gutenberg.org/ebooks/70903.txt.utf-8","application/rdf+xml":"https://www.gutenberg.org/ebooks/70903.rdf","image/jpeg":"https://www.gutenberg.org/cache/epub/70903/pg70903.cover.medium.jpg","application/octet-stream":"https://www.gutenberg.org/files/70903/70903-0.zip"},"download_count":8},{"id":1546,"title":"Sonnets on Sundry Notes of Music","authors":[{"name":"Shakespeare, William","birth_year":1564,"death_year":1616}],"translators":[],"subjects":["English poetry -- Early modern, 1500-1700"],"bookshelves":[],"languages":["en"],"copyright":true,"media_type":"Text","formats":{"text/html":"https://www.gutenberg.org/ebooks/1546.html.images","application/epub+zip":"https://www.gutenberg.org/ebooks/1546.epub3.images","application/x-mobipocket-ebook":"https://www.gutenberg.org/ebooks/1546.kf8.images","text/plain; charset=us-ascii":"https://www.gutenberg.org/ebooks/1546.txt.utf-8","application/rdf+xml":"https://www.gutenberg.org/ebooks/1546.rdf","image/jpeg":"https://www.gutenberg.org/cache/epub/1546/pg1546.cover.medium.jpg","application/octet-stream":"https://www.gutenberg.org/cache/epub/1546/pg1546-h.zip"},"download_count":7},{"id":2212,"title":"Human Genome Project, rough draft, Chromosome Number 12","authors":[{"name":"Human Genome Project","birth_year":null,"death_year":null}],"translators":[],"subjects":["Human Genome Project","Human gene mapping","Human genetics","Nucleotide sequence"],"bookshelves":[],"languages":["en"],"copyright":false,"media_type":"Dataset","formats":{"text/plain; charset=us-ascii":"https://www.gutenberg.org/files/2212/2212.zip","application/rdf+xml":"https://www.gutenberg.org/ebooks/2212.rdf"},"download_count":7},{"id":2218,"title":"Human Genome Project, rough draft, Chromosome Number 18","authors":[{"name":"Human Genome Project","birth_year":null,"death_year":null}],"translators":[],"subjects":["Human Genome Project","Human gene mapping","Human genetics","Nucleotide sequence"],"bookshelves":[],"languages":["en"],"copyright":false,"media_type":"Dataset","formats":{"text/plain; charset=us-ascii":"https://www.gutenberg.org/files/2218/2218.zip","application/rdf+xml":"https://www.gutenberg.org/ebooks/2218.rdf"},"download_count":7},{"id":2220,"title":"Human Genome Project, rough draft, Chromosome Number 20","authors":[{"name":"Human Genome Project","birth_year":null,"death_year":null}],"translators":[],"subjects":["Human Genome Project","Human gene mapping","Human genetics","Nucleotide sequence"],"bookshelves":[],"languages":["en"],"copyright":false,"media_type":"Dataset","formats":{"text/plain; charset=us-ascii":"https://www.gutenberg.org/files/2220/2220.zip","application/rdf+xml":"https://www.gutenberg.org/ebooks/2220.rdf"},"download_count":7},{"id":3503,"title":"Human Genome Project, Chromosome Number 03","authors":[{"name":"Human Genome Project","birth_year":null,"death_year":null}],"translators":[],"subjects":["Human Genome Project","Human gene mapping","Human genetics","Nucleotide sequence"],"bookshelves":[],"languages":["en"],"copyright":false,"media_type":"Dataset","formats":{"text/plain; charset=us-ascii":"https://www.gutenberg.org/files/3503/3503.zip","application/rdf+xml":"https://www.gutenberg.org/ebooks/3503.rdf"},"download_count":7},{"id":3505,"title":"Human Genome Project, Chromosome Number 05","authors":[{"name":"Human Genome Project","birth_year":null,"death_year":null}],"translators":[],"subjects":["Human Genome Project","Human gene mapping","Human genetics","Nucleotide sequence"],"bookshelves":[],"languages":["en"],"copyright":false,"media_type":"Dataset","formats":{"text/plain; charset=us-ascii":"https://www.gutenberg.org/files/3505/3505.zip","application/rdf+xml":"https://www.gutenberg.org/ebooks/3505.rdf"},"download_count":7},{"id":3506,"title":"Human Genome Project, Chromosome Number 06","authors":[{"name":"Human Genome Project","birth_year":null,"death_year":null}],"translators":[],"subjects":["Human Genome Project","Human gene mapping","Human genetics","Nucleotide sequence"],"bookshelves":[],"languages":["en"],"copyright":false,"media_type":"Dataset","formats":{"text/plain; charset=us-ascii":"https://www.gutenberg.org/files/3506/3506.zip","application/rdf+xml":"https://www.gutenberg.org/ebooks/3506.rdf"},"download_count":7},{"id":3510,"title":"Human Genome Project, Chromosome Number 10","authors":[{"name":"Human Genome Project","birth_year":null,"death_year":null}],"translators":[],"subjects":["Human Genome Project","Human gene mapping","Human genetics","Nucleotide sequence"],"bookshelves":[],"languages":["en"],"copyright":false,"media_type":"Dataset","formats":{"text/plain; charset=us-ascii":"https://www.gutenberg.org/files/3510/3510.zip","application/rdf+xml":"https://www.gutenberg.org/ebooks/3510.rdf"},"download_count":7},{"id":3518,"title":"Human Genome Project, Chromosome Number 18","authors":[{"name":"Human Genome Project","birth_year":null,"death_year":null}],"translators":[],"subjects":["Human Genome Project","Human gene mapping","Human genetics","Nucleotide sequence"],"bookshelves":[],"languages":["en"],"copyright":false,"media_type":"Dataset","formats":{"text/plain; charset=us-ascii":"https://www.gutenberg.org/files/3518/3518.zip","application/rdf+xml":"https://www.gutenberg.org/ebooks/3518.rdf"},"download_count":7},{"id":4142,"title":"Diary of Samuel Pepys — Volume 23: July/August 1663","authors":[{"name":"Pepys, Samuel","birth_year":1633,"death_year":1703}],"translators":[{"name":"Bright, Mynors","birth_year":1818,"death_year":1883}],"subjects":["Cabinet officers -- Great Britain -- Diaries","Diarists -- Great Britain -- Diaries","Great Britain -- History -- Charles II, 1660-1685 -- Sources","Great Britain -- Social life and customs -- 17th century -- Sources","Pepys, Samuel, 1633-1703 -- Diaries"],"bookshelves":[],"languages":["en"],"copyright":false,"media_type":"Text","formats":{"text/html":"https://www.gutenberg.org/ebooks/4142.html.images","application/epub+zip":"https://www.gutenberg.org/ebooks/4142.epub3.images","application/x-mobipocket-ebook":"https://www.gutenberg.org/ebooks/4142.kf8.images","text/plain; charset=us-ascii":"https://www.gutenberg.org/ebooks/4142.txt.utf-8","application/rdf+xml":"https://www.gutenberg.org/ebooks/4142.rdf","image/jpeg":"https://www.gutenberg.org/cache/epub/4142/pg4142.cover.medium.jpg","application/octet-stream":"https://www.gutenberg.org/cache/epub/4142/pg4142-h.zip"},"download_count":7},{"id":4433,"title":"Evan Harrington — Volume 7","authors":[{"name":"Meredith, George","birth_year":1828,"death_year":1909}],"translators":[],"subjects":["English fiction -- 19th century","Tailors -- Fiction"],"bookshelves":[],"languages":["en"],"copyright":false,"media_type":"Text","formats":{"text/html":"https://www.gutenberg.org/ebooks/4433.html.images","application/epub+zip":"https://www.gutenberg.org/ebooks/4433.epub3.images","application/x-mobipocket-ebook":"https://www.gutenberg.org/ebooks/4433.kf8.images","text/plain; charset=us-ascii":"https://www.gutenberg.org/ebooks/4433.txt.utf-8","application/rdf+xml":"https://www.gutenberg.org/ebooks/4433.rdf","image/jpeg":"https://www.gutenberg.org/cache/epub/4433/pg4433.cover.medium.jpg","application/octet-stream":"https://www.gutenberg.org/cache/epub/4433/pg4433-h.zip"},"download_count":7},{"id":4486,"title":"The Amazing Marriage — Volume 4","authors":[{"name":"Meredith, George","birth_year":1828,"death_year":1909}],"translators":[],"subjects":["English fiction -- 19th century","Marriage -- Fiction"],"bookshelves":[],"languages":["en"],"copyright":false,"media_type":"Text","formats":{"text/html":"https://www.gutenberg.org/ebooks/4486.html.images","application/epub+zip":"https://www.gutenberg.org/ebooks/4486.epub3.images","application/x-mobipocket-ebook":"https://www.gutenberg.org/ebooks/4486.kf8.images","text/plain; charset=us-ascii":"https://www.gutenberg.org/ebooks/4486.txt.utf-8","application/rdf+xml":"https://www.gutenberg.org/ebooks/4486.rdf","image/jpeg":"https://www.gutenberg.org/cache/epub/4486/pg4486.cover.medium.jpg","application/octet-stream":"https://www.gutenberg.org/cache/epub/4486/pg4486-h.zip"},"download_count":7},{"id":4842,"title":"History of the United Netherlands from the Death of William the Silent to the Twelve Year's Truce, 1585e","authors":[{"name":"Motley, John Lothrop","birth_year":1814,"death_year":1877}],"translators":[],"subjects":["Netherlands -- History -- Eighty Years' War, 1568-1648"],"bookshelves":[],"languages":["en"],"copyright":false,"media_type":"Text","formats":{"text/html":"https://www.gutenberg.org/ebooks/4842.html.images","application/epub+zip":"https://www.gutenberg.org/ebooks/4842.epub3.images","application/x-mobipocket-ebook":"https://www.gutenberg.org/ebooks/4842.kf8.images","text/plain; charset=us-ascii":"https://www.gutenberg.org/ebooks/4842.txt.utf-8","application/rdf+xml":"https://www.gutenberg.org/ebooks/4842.rdf","image/jpeg":"https://www.gutenberg.org/cache/epub/4842/pg4842.cover.medium.jpg","application/octet-stream":"https://www.gutenberg.org/cache/epub/4842/pg4842-h.zip"},"download_count":7},{"id":4848,"title":"History of the United Netherlands, 1586c","authors":[{"name":"Motley, John Lothrop","birth_year":1814,"death_year":1877}],"translators":[],"subjects":["Netherlands -- History -- Eighty Years' War, 1568-1648"],"bookshelves":[],"languages":["en"],"copyright":false,"media_type":"Text","formats":{"text/html":"https://www.gutenberg.org/ebooks/4848.html.images","application/epub+zip":"https://www.gutenberg.org/ebooks/4848.epub3.images","application/x-mobipocket-ebook":"https://www.gutenberg.org/ebooks/4848.kf8.images","text/plain; charset=us-ascii":"https://www.gutenberg.org/ebooks/4848.txt.utf-8","application/rdf+xml":"https://www.gutenberg.org/ebooks/4848.rdf","image/jpeg":"https://www.gutenberg.org/cache/epub/4848/pg4848.cover.medium.jpg","application/octet-stream":"https://www.gutenberg.org/cache/epub/4848/pg4848-h.zip"},"download_count":7},{"id":4878,"title":"History of the United Netherlands from the Death of William the Silent to the Twelve Year's Truce, 1605-07","authors":[{"name":"Motley, John Lothrop","birth_year":1814,"death_year":1877}],"translators":[],"subjects":["Netherlands -- History -- Eighty Years' War, 1568-1648"],"bookshelves":[],"languages":["en"],"copyright":false,"media_type":"Text","formats":{"text/html":"https://www.gutenberg.org/ebooks/4878.html.images","application/epub+zip":"https://www.gutenberg.org/ebooks/4878.epub3.images","application/x-mobipocket-ebook":"https://www.gutenberg.org/ebooks/4878.kf8.images","text/plain; charset=us-ascii":"https://www.gutenberg.org/ebooks/4878.txt.utf-8","application/rdf+xml":"https://www.gutenberg.org/ebooks/4878.rdf","image/jpeg":"https://www.gutenberg.org/cache/epub/4878/pg4878.cover.medium.jpg","application/octet-stream":"https://www.gutenberg.org/cache/epub/4878/pg4878-h.zip"},"download_count":7}]}