{"count":58808,"next":"http://129.241.150.113:8000/books/?languages=en&page=1019","previous":"http://129.241.150.113:8000/books/?languages=en&page=1017","results":[{"id":67696,"title":"Newark College of Engineering Bulletin, v. 11, No. 4, December 15, 1938","authors":[{"name":"Newark College of Engineering","birth_year":null,"death_year":null}],"translators":[],"subjects":["Newark College of Engineering -- Curricula -- Catalogs"],"bookshelves":[],"languages":["en"],"copyright":false,"media_type":"Text","formats":{"text/html":"https://www.gutenberg.org/ebooks/67696.html.images","application/epub+zip":"https://www.gutenberg.org/ebooks/67696.epub3.images","application/x-mobipocket-ebook":"https://www.gutenberg.org/ebooks/67696.kf8.images","text/plain; charset=us-ascii":"https://www.gutenberg.org/ebooks/67696.txt.utf-8","application/rdf+xml":"https://www.gutenberg.org/ebooks/67696.rdf","image/jpeg":"https://www.gutenberg.org/cache/epub/67696/pg67696.cover.medium.jpg","application/octet-stream":"https://www.gutenberg.org/files/67696/67696-0.zip"},"download_count":36},{"id":67749,"title":"The Story of a Siberian Exile; Followed by a Narrative of Recent Events in Poland","authors":[{"name":"Piotrowski, Rufin","birth_year":1806,"death_year":1872}],"translators":[],"subjects":["Exiles -- Russia (Federation) -- Siberia","Polish question","Prisons -- Russia (Federation) -- Siberia"],"bookshelves":[],"languages":["en"],"copyright":false,"media_type":"Text","formats":{"text/html":"https://www.gutenberg.org/ebooks/67749.html.images","application/epub+zip":"https://www.gutenberg.org/ebooks/67749.epub3.images","application/x-mobipocket-ebook":"https://www.gutenberg.org/ebooks/67749.kf8.images","text/plain; charset=us-ascii":"https://www.gutenberg.org/ebooks/67749.txt.utf-8","application/rdf+xml":"https://www.gutenberg.org/ebooks/67749.rdf","image/jpeg":"https://www.gutenberg.org/cache/epub/67749/pg67749.cover.medium.jpg","application/octet-stream":"https://www.gutenberg.org/files/67749/67749-0.zip"},"download_count":36},{"id":67751,"title":"In the Cause of Freedom","authors":[{"name":"Marchmont, Arthur W.","birth_year":1852,"death_year":1923}],"translators":[],"subjects":["Adventure stories","British -- Poland -- Fiction","Love stories"],"bookshelves":[],"languages":["en"],"copyright":false,"media_type":"Text","formats":{"text/html":"https://www.gutenberg.org/ebooks/67751.html.images","application/epub+zip":"https://www.gutenberg.org/ebooks/67751.epub3.images","application/x-mobipocket-ebook":"https://www.gutenberg.org/ebooks/67751.kf8.images","text/plain; charset=us-ascii":"https://www.gutenberg.org/ebooks/67751.txt.utf-8","application/rdf+xml":"https://www.gutenberg.org/ebooks/67751.rdf","image/jpeg":"https://www.gutenberg.org/cache/epub/67751/pg67751.cover.medium.jpg","application/octet-stream":"https://www.gutenberg.org/files/67751/67751-0.zip"},"download_count":36},{"id":67808,"title":"Winchester, Painted by Wilfrid Ball","authors":[{"name":"Varley, Telford","birth_year":null,"death_year":null}],"translators":[],"subjects":["Winchester (England) -- Description and travel","Winchester (England) -- History","Winchester (England) -- Pictorial works"],"bookshelves":[],"languages":["en"],"copyright":false,"media_type":"Text","formats":{"text/html":"https://www.gutenberg.org/ebooks/67808.html.images","application/epub+zip":"https://www.gutenberg.org/ebooks/67808.epub3.images","application/x-mobipocket-ebook":"https://www.gutenberg.org/ebooks/67808.kf8.images","text/plain; charset=us-ascii":"https://www.gutenberg.org/ebooks/67808.txt.utf-8","application/rdf+xml":"https://www.gutenberg.org/ebooks/67808.rdf","image/jpeg":"https://www.gutenberg.org/cache/epub/67808/pg67808.cover.medium.jpg","application/octet-stream":"https://www.gutenberg.org/files/67808/67808-0.zip"},"download_count":36},{"id":67890,"title":"The Thirteenth Letter","authors":[{"name":"Lincoln, Natalie Sumner","birth_year":1881,"death_year":1935}],"translators":[],"subjects":["Detective and mystery stories","Murder -- Investigation -- Fiction","Nurses -- Fiction","Washington (D.C.) Region -- Fiction"],"bookshelves":[],"languages":["en"],"copyright":false,"media_type":"Text","formats":{"text/html":"https://www.gutenberg.org/ebooks/67890.html.images","application/epub+zip":"https://www.gutenberg.org/ebooks/67890.epub3.images","application/x-mobipocket-ebook":"https://www.gutenberg.org/ebooks/67890.kf8.images","text/plain; charset=us-ascii":"https://www.gutenberg.org/ebooks/67890.txt.utf-8","application/rdf+xml":"https://www.gutenberg.org/ebooks/67890.rdf","image/jpeg":"https://www.gutenberg.org/cache/epub/67890/pg67890.cover.medium.jpg","application/octet-stream":"https://www.gutenberg.org/files/67890/67890-0.zip"},"download_count":36},{"id":68106,"title":"Nick Carter Stories No. 152, August 7, 1915: The Forced Crime; or, Nick Carter's Brazen Clew.","authors":[{"name":"Carter, Nicholas (House name)","birth_year":null,"death_year":null},{"name":"Boston, Ralph","birth_year":null,"death_year":null}],"translators":[],"subjects":["Detective and mystery stories, American -- Periodicals","Popular literature -- Periodicals"],"bookshelves":[],"languages":["en"],"copyright":false,"media_type":"Text","formats":{"text/html":"https://www.gutenberg.org/ebooks/68106.html.images","application/epub+zip":"https://www.gutenberg.org/ebooks/68106.epub3.images","application/x-mobipocket-ebook":"https://www.gutenberg.org/ebooks/68106.kf8.images","text/plain; charset=us-ascii":"https://www.gutenberg.org/ebooks/68106.txt.utf-8","application/rdf+xml":"https://www.gutenberg.org/ebooks/68106.rdf","image/jpeg":"https://www.gutenberg.org/cache/epub/68106/pg68106.cover.medium.jpg","application/octet-stream":"https://www.gutenberg.org/files/68106/68106-0.zip"},"download_count":36},{"id":68282,"title":"Butchering and curing meats in China","authors":[{"name":"Levine, Carl Oscar","birth_year":null,"death_year":null}],"translators":[],"subjects":["Meat -- Preservation","Slaughtering and slaughter-houses -- China"],"bookshelves":[],"languages":["en"],"copyright":false,"media_type":"Text","formats":{"text/html":"https://www.gutenberg.org/ebooks/68282.html.images","application/epub+zip":"https://www.gutenberg.org/ebooks/68282.epub3.images","application/x-mobipocket-ebook":"https://www.gutenberg.org/ebooks/68282.kf8.images","text/plain; charset=us-ascii":"https://www.gutenberg.org/ebooks/68282.txt.utf-8","application/rdf+xml":"https://www.gutenberg.org/ebooks/68282.rdf","image/jpeg":"https://www.gutenberg.org/cache/epub/68282/pg68282.cover.medium.jpg","application/octet-stream":"https://www.gutenberg.org/files/68282/68282-0.zip"},"download_count":36},{"id":68296,"title":"Ruth of the U. S. A.","authors":[{"name":"Balmer, Edwin","birth_year":1883,"death_year":1959}],"translators":[],"subjects":["Spy stories","World War, 1914-1918 -- Fiction"],"bookshelves":[],"languages":["en"],"copyright":false,"media_type":"Text","formats":{"text/html":"https://www.gutenberg.org/ebooks/68296.html.images","application/epub+zip":"https://www.gutenberg.org/ebooks/68296.epub3.images","application/x-mobipocket-ebook":"https://www.gutenberg.org/ebooks/68296.kf8.images","text/plain; charset=us-ascii":"https://www.gutenberg.org/ebooks/68296.txt.utf-8","application/rdf+xml":"https://www.gutenberg.org/ebooks/68296.rdf","image/jpeg":"https://www.gutenberg.org/cache/epub/68296/pg68296.cover.medium.jpg","application/octet-stream":"https://www.gutenberg.org/files/68296/68296-0.zip"},"download_count":36},{"id":68374,"title":"Friends and Enemies","authors":[{"name":"Leiber, Fritz","birth_year":1910,"death_year":1992}],"translators":[],"subjects":["Apocalyptic fiction","Art and science -- Fiction","California -- Fiction","College teachers -- Fiction","Science fiction","Short stories"],"bookshelves":[],"languages":["en"],"copyright":false,"media_type":"Text","formats":{"text/html":"https://www.gutenberg.org/ebooks/68374.html.images","application/epub+zip":"https://www.gutenberg.org/ebooks/68374.epub3.images","application/x-mobipocket-ebook":"https://www.gutenberg.org/ebooks/68374.kf8.images","text/plain; charset=us-ascii":"https://www.gutenberg.org/ebooks/68374.txt.utf-8","application/rdf+xml":"https://www.gutenberg.org/ebooks/68374.rdf","image/jpeg":"https://www.gutenberg.org/cache/epub/68374/pg68374.cover.medium.jpg","application/octet-stream":"https://www.gutenberg.org/files/68374/68374-0.zip"},"download_count":36},{"id":68393,"title":"My sweetheart's the Man in the Moon","authors":[{"name":"Marlowe, Stephen","birth_year":1928,"death_year":2008}],"translators":[],"subjects":["Fiancées -- Fiction","Science fiction","Short stories","Space flight to the moon -- Fiction","Young women -- Fiction"],"bookshelves":[],"languages":["en"],"copyright":false,"media_type":"Text","formats":{"text/html":"https://www.gutenberg.org/ebooks/68393.html.images","application/epub+zip":"https://www.gutenberg.org/ebooks/68393.epub3.images","application/x-mobipocket-ebook":"https://www.gutenberg.org/ebooks/68393.kf8.images","text/plain; charset=us-ascii":"https://www.gutenberg.org/ebooks/68393.txt.utf-8","application/rdf+xml":"https://www.gutenberg.org/ebooks/68393.rdf","image/jpeg":"https://www.gutenberg.org/cache/epub/68393/pg68393.cover.medium.jpg","application/octet-stream":"https://www.gutenberg.org/files/68393/68393-0.zip"},"download_count":36},{"id":68428,"title":"Extra-galactic nebulae","authors":[{"name":"Hubble, Edwin","birth_year":1889,"death_year":1953}],"translators":[],"subjects":["Milky Way","Nebulae"],"bookshelves":[],"languages":["en"],"copyright":false,"media_type":"Text","formats":{"text/html":"https://www.gutenberg.org/ebooks/68428.html.images","application/epub+zip":"https://www.gutenberg.org/ebooks/68428.epub3.images","application/x-mobipocket-ebook":"https://www.gutenberg.org/ebooks/68428.kf8.images","text/plain; charset=us-ascii":"https://www.gutenberg.org/ebooks/68428.txt.utf-8","application/rdf+xml":"https://www.gutenberg.org/ebooks/68428.rdf","image/jpeg":"https://www.gutenberg.org/cache/epub/68428/pg68428.cover.medium.jpg","application/octet-stream":"https://www.gutenberg.org/files/68428/68428-0.zip"},"download_count":36},{"id":68500,"title":"The apiary; or, bees, bee-hives, and bee culture [1866]: Being a familiar account of the habits of bees, and the most improved methods of management, with full directions, adapted for the cottager, farmer, or scientific apiarian","authors":[{"name":"Neighbor, Alfred","birth_year":null,"death_year":null}],"translators":[],"subjects":["Bee culture","Bee culture -- Economic aspects","Beehives","Bees"],"bookshelves":[],"languages":["en"],"copyright":false,"media_type":"Text","formats":{"text/html":"https://www.gutenberg.org/ebooks/68500.html.images","application/epub+zip":"https://www.gutenberg.org/ebooks/68500.epub3.images","application/x-mobipocket-ebook":"https://www.gutenberg.org/ebooks/68500.kf8.images","text/plain; charset=us-ascii":"https://www.gutenberg.org/ebooks/68500.txt.utf-8","application/rdf+xml":"https://www.gutenberg.org/ebooks/68500.rdf","image/jpeg":"https://www.gutenberg.org/cache/epub/68500/pg68500.cover.medium.jpg","application/octet-stream":"https://www.gutenberg.org/files/68500/68500-0.zip"},"download_count":36},{"id":68690,"title":"The Vailan or annular theory: A synopsis of Prof. I. N. Vail's argument in support of the claim that this Earth once possessed a Saturn-like system of rings","authors":[{"name":"Bowers, Stephen","birth_year":1832,"death_year":1907}],"translators":[],"subjects":["Bible and geology","Earth (Planet) -- Crust"],"bookshelves":[],"languages":["en"],"copyright":false,"media_type":"Text","formats":{"text/html":"https://www.gutenberg.org/ebooks/68690.html.images","application/epub+zip":"https://www.gutenberg.org/ebooks/68690.epub3.images","application/x-mobipocket-ebook":"https://www.gutenberg.org/ebooks/68690.kf8.images","text/plain; charset=us-ascii":"https://www.gutenberg.org/ebooks/68690.txt.utf-8","application/rdf+xml":"https://www.gutenberg.org/ebooks/68690.rdf","image/jpeg":"https://www.gutenberg.org/cache/epub/68690/pg68690.cover.medium.jpg","application/octet-stream":"https://www.gutenberg.org/files/68690/68690-0.zip"},"download_count":36},{"id":68724,"title":"An historical and moral view of the origin and progress of the French Revolution; and the effect it has produced in Europe","authors":[{"name":"Wollstonecraft, Mary","birth_year":1759,"death_year":1797}],"translators":[],"subjects":["France -- History -- Revolution, 1789-1799 -- Causes"],"bookshelves":[],"languages":["en"],"copyright":false,"media_type":"Text","formats":{"text/html":"https://www.gutenberg.org/ebooks/68724.html.images","application/epub+zip":"https://www.gutenberg.org/ebooks/68724.epub3.images","application/x-mobipocket-ebook":"https://www.gutenberg.org/ebooks/68724.kf8.images","text/plain; charset=us-ascii":"https://www.gutenberg.org/ebooks/68724.txt.utf-8","application/rdf+xml":"https://www.gutenberg.org/ebooks/68724.rdf","image/jpeg":"https://www.gutenberg.org/cache/epub/68724/pg68724.cover.medium.jpg","application/octet-stream":"https://www.gutenberg.org/files/68724/68724-0.zip"},"download_count":36},{"id":68739,"title":"Come into my parlor","authors":[{"name":"Fritch, Charles E.","birth_year":1927,"death_year":2012}],"translators":[],"subjects":["Human-alien encounters -- Fiction","Science fiction","Short stories"],"bookshelves":[],"languages":["en"],"copyright":false,"media_type":"Text","formats":{"text/html":"https://www.gutenberg.org/ebooks/68739.html.images","application/epub+zip":"https://www.gutenberg.org/ebooks/68739.epub3.images","application/x-mobipocket-ebook":"https://www.gutenberg.org/ebooks/68739.kf8.images","text/plain; charset=us-ascii":"https://www.gutenberg.org/ebooks/68739.txt.utf-8","application/rdf+xml":"https://www.gutenberg.org/ebooks/68739.rdf","image/jpeg":"https://www.gutenberg.org/cache/epub/68739/pg68739.cover.medium.jpg","application/octet-stream":"https://www.gutenberg.org/files/68739/68739-0.zip"},"download_count":36},{"id":68742,"title":"The works of the Rev. John Wesley, Vol. 05 (of 32)","authors":[{"name":"Wesley, John","birth_year":1703,"death_year":1791}],"translators":[],"subjects":["Methodist Church","Theology -- Early works to 1800","Theology -- History -- 18th century"],"bookshelves":[],"languages":["en"],"copyright":false,"media_type":"Text","formats":{"text/html":"https://www.gutenberg.org/ebooks/68742.html.images","application/epub+zip":"https://www.gutenberg.org/ebooks/68742.epub3.images","application/x-mobipocket-ebook":"https://www.gutenberg.org/ebooks/68742.kf8.images","text/plain; charset=us-ascii":"https://www.gutenberg.org/ebooks/68742.txt.utf-8","application/rdf+xml":"https://www.gutenberg.org/ebooks/68742.rdf","image/jpeg":"https://www.gutenberg.org/cache/epub/68742/pg68742.cover.medium.jpg","application/octet-stream":"https://www.gutenberg.org/files/68742/68742-0.zip"},"download_count":36},{"id":68755,"title":"Your pay envelope","authors":[{"name":"Meader, John Richard","birth_year":1870,"death_year":null}],"translators":[],"subjects":["Socialism"],"bookshelves":[],"languages":["en"],"copyright":false,"media_type":"Text","formats":{"text/html":"https://www.gutenberg.org/ebooks/68755.html.images","application/epub+zip":"https://www.gutenberg.org/ebooks/68755.epub3.images","application/x-mobipocket-ebook":"https://www.gutenberg.org/ebooks/68755.kf8.images","text/plain; charset=us-ascii":"https://www.gutenberg.org/ebooks/68755.txt.utf-8","application/rdf+xml":"https://www.gutenberg.org/ebooks/68755.rdf","image/jpeg":"https://www.gutenberg.org/cache/epub/68755/pg68755.cover.medium.jpg","application/octet-stream":"https://www.gutenberg.org/files/68755/68755-0.zip"},"download_count":36},{"id":68790,"title":"A haunted life","authors":[{"name":"Grant, James","birth_year":1822,"death_year":1887}],"translators":[],"subjects":["Ghost stories","Man-woman relationships -- Fiction"],"bookshelves":[],"languages":["en"],"copyright":false,"media_type":"Text","formats":{"text/html":"https://www.gutenberg.org/ebooks/68790.html.images","application/epub+zip":"https://www.gutenberg.org/ebooks/68790.epub3.images","application/x-mobipocket-ebook":"https://www.gutenberg.org/ebooks/68790.kf8.images","text/plain; charset=us-ascii":"https://www.gutenberg.org/ebooks/68790.txt.utf-8","application/rdf+xml":"https://www.gutenberg.org/ebooks/68790.rdf","image/jpeg":"https://www.gutenberg.org/cache/epub/68790/pg68790.cover.medium.jpg","application/octet-stream":"https://www.gutenberg.org/files/68790/68790-0.zip"},"download_count":36},{"id":68870,"title":"The history of England, from the earliest times to the Norman Conquest","authors":[{"name":"Hodgkin, Thomas","birth_year":1831,"death_year":1913}],"translators":[],"subjects":["Great Britain -- History -- To 1066"],"bookshelves":[],"languages":["en"],"copyright":false,"media_type":"Text","formats":{"text/html":"https://www.gutenberg.org/ebooks/68870.html.images","application/epub+zip":"https://www.gutenberg.org/ebooks/68870.epub3.images","application/x-mobipocket-ebook":"https://www.gutenberg.org/ebooks/68870.kf8.images","text/plain; charset=us-ascii":"https://www.gutenberg.org/ebooks/68870.txt.utf-8","application/rdf+xml":"https://www.gutenberg.org/ebooks/68870.rdf","image/jpeg":"https://www.gutenberg.org/cache/epub/68870/pg68870.cover.medium.jpg","application/octet-stream":"https://www.gutenberg.org/files/68870/68870-0.zip"},"download_count":36},{"id":69025,"title":"The filtration of public water-supplies: Third edition, revised and enlarged.","authors":[{"name":"Hazen, Allen","birth_year":1869,"death_year":1930}],"translators":[],"subjects":["Filters and filtration","Water-supply"],"bookshelves":[],"languages":["en"],"copyright":false,"media_type":"Text","formats":{"text/html":"https://www.gutenberg.org/ebooks/69025.html.images","application/epub+zip":"https://www.gutenberg.org/ebooks/69025.epub3.images","application/x-mobipocket-ebook":"https://www.gutenberg.org/ebooks/69025.kf8.images","text/plain; charset=us-ascii":"https://www.gutenberg.org/ebooks/69025.txt.utf-8","application/rdf+xml":"https://www.gutenberg.org/ebooks/69025.rdf","image/jpeg":"https://www.gutenberg.org/cache/epub/69025/pg69025.cover.medium.jpg","application/octet-stream":"https://www.gutenberg.org/files/69025/69025-0.zip"},"download_count":36},{"id":69078,"title":"Post mortem: Essays, historical and medical","authors":[{"name":"MacLaurin, C. (Charles)","birth_year":1872,"death_year":1925}],"translators":[],"subjects":["Biography","Pathology"],"bookshelves":[],"languages":["en"],"copyright":false,"media_type":"Text","formats":{"text/html":"https://www.gutenberg.org/ebooks/69078.html.images","application/epub+zip":"https://www.gutenberg.org/ebooks/69078.epub3.images","application/x-mobipocket-ebook":"https://www.gutenberg.org/ebooks/69078.kf8.images","text/plain; charset=us-ascii":"https://www.gutenberg.org/ebooks/69078.txt.utf-8","application/rdf+xml":"https://www.gutenberg.org/ebooks/69078.rdf","image/jpeg":"https://www.gutenberg.org/cache/epub/69078/pg69078.cover.medium.jpg","application/octet-stream":"https://www.gutenberg.org/files/69078/69078-0.zip"},"download_count":36},{"id":69242,"title":"Book of cats and dogs, and other friends, for little folks","authors":[{"name":"Johonnot, James","birth_year":1823,"death_year":1888}],"translators":[],"subjects":["Animals -- Juvenile literature"],"bookshelves":[],"languages":["en"],"copyright":false,"media_type":"Text","formats":{"text/html":"https://www.gutenberg.org/ebooks/69242.html.images","application/epub+zip":"https://www.gutenberg.org/ebooks/69242.epub3.images","application/x-mobipocket-ebook":"https://www.gutenberg.org/ebooks/69242.kf8.images","text/plain; charset=us-ascii":"https://www.gutenberg.org/ebooks/69242.txt.utf-8","application/rdf+xml":"https://www.gutenberg.org/ebooks/69242.rdf","image/jpeg":"https://www.gutenberg.org/cache/epub/69242/pg69242.cover.medium.jpg","application/octet-stream":"https://www.gutenberg.org/files/69242/69242-0.zip"},"download_count":36},{"id":69479,"title":"The garden as a picture","authors":[{"name":"Farrand, Beatrix","birth_year":1872,"death_year":1959}],"translators":[],"subjects":["Landscape gardening"],"bookshelves":[],"languages":["en"],"copyright":false,"media_type":"Text","formats":{"text/html":"https://www.gutenberg.org/ebooks/69479.html.images","application/epub+zip":"https://www.gutenberg.org/ebooks/69479.epub3.images","application/x-mobipocket-ebook":"https://www.gutenberg.org/ebooks/69479.kf8.images","text/plain; charset=us-ascii":"https://www.gutenberg.org/ebooks/69479.txt.utf-8","application/rdf+xml":"https://www.gutenberg.org/ebooks/69479.rdf","image/jpeg":"https://www.gutenberg.org/cache/epub/69479/pg69479.cover.medium.jpg","application/octet-stream":"https://www.gutenberg.org/files/69479/69479-0.zip"},"download_count":36},{"id":69481,"title":"Austria-Hungary","authors":[{"name":"Mitton, G. E. (Geraldine Edith)","birth_year":1868,"death_year":1955}],"translators":[],"subjects":["Austria -- Description and travel","Hungary -- Description and travel"],"bookshelves":[],"languages":["en"],"copyright":false,"media_type":"Text","formats":{"text/html":"https://www.gutenberg.org/ebooks/69481.html.images","application/epub+zip":"https://www.gutenberg.org/ebooks/69481.epub3.images","application/x-mobipocket-ebook":"https://www.gutenberg.org/ebooks/69481.kf8.images","text/plain; charset=us-ascii":"https://www.gutenberg.org/ebooks/69481.txt.utf-8","application/rdf+xml":"https://www.gutenberg.org/ebooks/69481.rdf","image/jpeg":"https://www.gutenberg.org/cache/epub/69481/pg69481.cover.medium.jpg","application/octet-stream":"https://www.gutenberg.org/files/69481/69481-0.zip"},"download_count":36},{"id":69508,"title":"Sculptured tombs of Hellas","authors":[{"name":"Gardner, Percy","birth_year":1846,"death_year":1937}],"translators":[],"subjects":["Funeral rites and ceremonies -- Greece","Sculpture, Greek","Sepulchral monuments -- Greece"],"bookshelves":[],"languages":["en"],"copyright":false,"media_type":"Text","formats":{"text/html":"https://www.gutenberg.org/ebooks/69508.html.images","application/epub+zip":"https://www.gutenberg.org/ebooks/69508.epub3.images","application/x-mobipocket-ebook":"https://www.gutenberg.org/ebooks/69508.kf8.images","text/plain; charset=us-ascii":"https://www.gutenberg.org/ebooks/69508.txt.utf-8","application/rdf+xml":"https://www.gutenberg.org/ebooks/69508.rdf","image/jpeg":"https://www.gutenberg.org/cache/epub/69508/pg69508.cover.medium.jpg","application/octet-stream":"https://www.gutenberg.org/files/69508/69508-0.zip"},"download_count":36},{"id":69544,"title":"The exploits of Captain O'Hagan","authors":[{"name":"Rohmer, Sax","birth_year":1883,"death_year":1959}],"translators":[],"subjects":["English fiction -- 20th century","Short stories, English"],"bookshelves":[],"languages":["en"],"copyright":false,"media_type":"Text","formats":{"text/html":"https://www.gutenberg.org/ebooks/69544.html.images","application/epub+zip":"https://www.gutenberg.org/ebooks/69544.epub3.images","application/x-mobipocket-ebook":"https://www.gutenberg.org/ebooks/69544.kf8.images","text/plain; charset=us-ascii":"https://www.gutenberg.org/ebooks/69544.txt.utf-8","application/rdf+xml":"https://www.gutenberg.org/ebooks/69544.rdf","image/jpeg":"https://www.gutenberg.org/cache/epub/69544/pg69544.cover.medium.jpg","application/octet-stream":"https://www.gutenberg.org/files/69544/69544-0.zip"},"download_count":36},{"id":69718,"title":"Tall tales of Cape Cod","authors":[{"name":"Bittinger, Marillis","birth_year":null,"death_year":null}],"translators":[],"subjects":["Folklore -- Massachusetts","Massachusetts -- Social life and customs"],"bookshelves":[],"languages":["en"],"copyright":false,"media_type":"Text","formats":{"text/html":"https://www.gutenberg.org/ebooks/69718.html.images","application/epub+zip":"https://www.gutenberg.org/ebooks/69718.epub3.images","application/x-mobipocket-ebook":"https://www.gutenberg.org/ebooks/69718.kf8.images","text/plain; charset=us-ascii":"https://www.gutenberg.org/ebooks/69718.txt.utf-8","application/rdf+xml":"https://www.gutenberg.org/ebooks/69718.rdf","image/jpeg":"https://www.gutenberg.org/cache/epub/69718/pg69718.cover.medium.jpg","application/octet-stream":"https://www.gutenberg.org/files/69718/69718-0.zip"},"download_count":36},{"id":69855,"title":"Letters, sentences and maxims","authors":[{"name":"Chesterfield, Philip Dormer Stanhope, Earl of","birth_year":1694,"death_year":1773}],"translators":[],"subjects":["Conduct of life","Maxims"],"bookshelves":[],"languages":["en"],"copyright":false,"media_type":"Text","formats":{"text/html":"https://www.gutenberg.org/ebooks/69855.html.images","application/epub+zip":"https://www.gutenberg.org/ebooks/69855.epub3.images","application/x-mobipocket-ebook":"https://www.gutenberg.org/ebooks/69855.kf8.images","text/plain; charset=us-ascii":"https://www.gutenberg.org/ebooks/69855.txt.utf-8","application/rdf+xml":"https://www.gutenberg.org/ebooks/69855.rdf","image/jpeg":"https://www.gutenberg.org/cache/epub/69855/pg69855.cover.medium.jpg","application/octet-stream":"https://www.gutenberg.org/files/69855/69855-0.zip"},"download_count":36},{"id":69858,"title":"Motherly talks with young housekeepers: embracing eighty-seven brief articles on topics of home interest, and about five hundred choice receipts for cooking, etc.","authors":[{"name":"Beecher, H. W., Mrs.","birth_year":1813,"death_year":1897}],"translators":[],"subjects":["Cooking","Home economics"],"bookshelves":[],"languages":["en"],"copyright":false,"media_type":"Text","formats":{"text/html":"https://www.gutenberg.org/ebooks/69858.html.images","application/epub+zip":"https://www.gutenberg.org/ebooks/69858.epub3.images","application/x-mobipocket-ebook":"https://www.gutenberg.org/ebooks/69858.kf8.images","text/plain; charset=us-ascii":"https://www.gutenberg.org/ebooks/69858.txt.utf-8","application/rdf+xml":"https://www.gutenberg.org/ebooks/69858.rdf","image/jpeg":"https://www.gutenberg.org/cache/epub/69858/pg69858.cover.medium.jpg","application/octet-stream":"https://www.gutenberg.org/files/69858/69858-0.zip"},"download_count":36},{"id":69958,"title":"The factory","authors":[{"name":"Lincoln, Jonathan Thayer","birth_year":1869,"death_year":1942}],"translators":[],"subjects":["Factory system"],"bookshelves":[],"languages":["en"],"copyright":false,"media_type":"Text","formats":{"text/html":"https://www.gutenberg.org/ebooks/69958.html.images","application/epub+zip":"https://www.gutenberg.org/ebooks/69958.epub3.images","application/x-mobipocket-ebook":"https://www.gutenberg.org/ebooks/69958.kf8.images","text/plain; charset=us-ascii":"https://www.gutenberg.org/ebooks/69958.txt.utf-8","application/rdf+xml":"https://www.gutenberg.org/ebooks/69958.rdf","image/jpeg":"https://www.gutenberg.org/cache/epub/69958/pg69958.cover.medium.jpg","application/octet-stream":"https://www.gutenberg.org/files/69958/69958-0.zip"},"download_count":36},{"id":69971,"title":"The Swiss Republic","authors":[{"name":"Winchester, Boyd","birth_year":1836,"death_year":1923}],"translators":[],"subjects":["Switzerland","Switzerland -- Politics and government -- 1815-"],"bookshelves":[],"languages":["en"],"copyright":false,"media_type":"Text","formats":{"text/html":"https://www.gutenberg.org/ebooks/69971.html.images","application/epub+zip":"https://www.gutenberg.org/ebooks/69971.epub3.images","application/x-mobipocket-ebook":"https://www.gutenberg.org/ebooks/69971.kf8.images","text/plain; charset=us-ascii":"https://www.gutenberg.org/ebooks/69971.txt.utf-8","application/rdf+xml":"https://www.gutenberg.org/ebooks/69971.rdf","image/jpeg":"https://www.gutenberg.org/cache/epub/69971/pg69971.cover.medium.jpg","application/octet-stream":"https://www.gutenberg.org/files/69971/69971-0.zip"},"download_count":36},{"id":69998,"title":"Essays in medical sociology, Volume 2 (of 2)","authors":[{"name":"Blackwell, Elizabeth","birth_year":1821,"death_year":1910}],"translators":[],"subjects":["Prostitution","Sexual ethics","Social medicine"],"bookshelves":[],"languages":["en"],"copyright":false,"media_type":"Text","formats":{"text/html":"https://www.gutenberg.org/ebooks/69998.html.images","application/epub+zip":"https://www.gutenberg.org/ebooks/69998.epub3.images","application/x-mobipocket-ebook":"https://www.gutenberg.org/ebooks/69998.kf8.images","text/plain; charset=us-ascii":"https://www.gutenberg.org/ebooks/69998.txt.utf-8","application/rdf+xml":"https://www.gutenberg.org/ebooks/69998.rdf","image/jpeg":"https://www.gutenberg.org/cache/epub/69998/pg69998.cover.medium.jpg","application/octet-stream":"https://www.gutenberg.org/files/69998/69998-0.zip"},"download_count":36}]}