{"count":58808,"next":"http://129.241.150.113:8000/books/?languages=en&page=1755","previous":"http://129.241.150.113:8000/books/?languages=en&page=1753","results":[{"id":8049,"title":"The Bible, King James version, Book 49: Ephesians","authors":[{"name":"Anonymous","birth_year":null,"death_year":null}],"translators":[],"subjects":["Bible. Ephesians"],"bookshelves":[],"languages":["en"],"copyright":false,"media_type":"Text","formats":{"text/html":"https://www.gutenberg.org/ebooks/8049.html.images","application/epub+zip":"https://www.gutenberg.org/ebooks/8049.epub3.images","application/x-mobipocket-ebook":"https://www.gutenberg.org/ebooks/8049.kf8.images","text/plain; charset=us-ascii":"https://www.gutenberg.org/ebooks/8049.txt.utf-8","application/rdf+xml":"https://www.gutenberg.org/ebooks/8049.rdf","image/jpeg":"https://www.gutenberg.org/cache/epub/8049/pg8049.cover.medium.jpg","application/octet-stream":"https://www.gutenberg.org/cache/epub/8049/pg8049-h.zip"},"download_count":15},{"id":8052,"title":"The Bible, King James version, Book 52: 1 Thessalonians","authors":[{"name":"Anonymous","birth_year":null,"death_year":null}],"translators":[],"subjects":["Bible. Thessalonians, 1st"],"bookshelves":[],"languages":["en"],"copyright":false,"media_type":"Text","formats":{"text/html":"https://www.gutenberg.org/ebooks/8052.html.images","application/epub+zip":"https://www.gutenberg.org/ebooks/8052.epub3.images","application/x-mobipocket-ebook":"https://www.gutenberg.org/ebooks/8052.kf8.images","text/plain; charset=us-ascii":"https://www.gutenberg.org/ebooks/8052.txt.utf-8","application/rdf+xml":"https://www.gutenberg.org/ebooks/8052.rdf","image/jpeg":"https://www.gutenberg.org/cache/epub/8052/pg8052.cover.medium.jpg","application/octet-stream":"https://www.gutenberg.org/cache/epub/8052/pg8052-h.zip"},"download_count":15},{"id":8225,"title":"A Series of Letters, in Defence of Divine Revelation: In Reply to Rev. Abner Kneeland's Serious Inquiry into the Authenticity of the Same. To Which is Added, a Religious Correspondence, Between the Rev. Hosea Ballou, and the Rev. Dr. Joseph Buckminster and Rev. Joseph Walton, Pastors of Congregational Churches in Portsmouth, N. H.","authors":[{"name":"Ballou, Hosea","birth_year":1771,"death_year":1852}],"translators":[],"subjects":["Revelation","Universalism -- Doctrines"],"bookshelves":[],"languages":["en"],"copyright":false,"media_type":"Text","formats":{"text/html":"https://www.gutenberg.org/ebooks/8225.html.images","application/epub+zip":"https://www.gutenberg.org/ebooks/8225.epub3.images","application/x-mobipocket-ebook":"https://www.gutenberg.org/ebooks/8225.kf8.images","text/plain; charset=us-ascii":"https://www.gutenberg.org/ebooks/8225.txt.utf-8","text/plain; charset=iso-8859-1":"https://www.gutenberg.org/files/8225/8225-8.txt","application/rdf+xml":"https://www.gutenberg.org/ebooks/8225.rdf","image/jpeg":"https://www.gutenberg.org/cache/epub/8225/pg8225.cover.medium.jpg","application/octet-stream":"https://www.gutenberg.org/cache/epub/8225/pg8225-h.zip"},"download_count":15},{"id":8239,"title":"The World English Bible (WEB): 2 Kings","authors":[{"name":"Anonymous","birth_year":null,"death_year":null}],"translators":[],"subjects":["Bible. Kings, 2nd"],"bookshelves":[],"languages":["en"],"copyright":false,"media_type":"Text","formats":{"text/html":"https://www.gutenberg.org/ebooks/8239.html.images","application/epub+zip":"https://www.gutenberg.org/ebooks/8239.epub3.images","application/x-mobipocket-ebook":"https://www.gutenberg.org/ebooks/8239.kf8.images","text/plain; charset=us-ascii":"https://www.gutenberg.org/ebooks/8239.txt.utf-8","application/rdf+xml":"https://www.gutenberg.org/ebooks/8239.rdf","image/jpeg":"https://www.gutenberg.org/cache/epub/8239/pg8239.cover.medium.jpg","application/octet-stream":"https://www.gutenberg.org/cache/epub/8239/pg8239-h.zip"},"download_count":15},{"id":8244,"title":"The World English Bible (WEB): Esther","authors":[{"name":"Anonymous","birth_year":null,"death_year":null}],"translators":[],"subjects":["Bible. Esther"],"bookshelves":[],"languages":["en"],"copyright":false,"media_type":"Text","formats":{"text/html":"https://www.gutenberg.org/ebooks/8244.html.images","application/epub+zip":"https://www.gutenberg.org/ebooks/8244.epub3.images","application/x-mobipocket-ebook":"https://www.gutenberg.org/ebooks/8244.kf8.images","text/plain; charset=us-ascii":"https://www.gutenberg.org/ebooks/8244.txt.utf-8","application/rdf+xml":"https://www.gutenberg.org/ebooks/8244.rdf","image/jpeg":"https://www.gutenberg.org/cache/epub/8244/pg8244.cover.medium.jpg","application/octet-stream":"https://www.gutenberg.org/cache/epub/8244/pg8244-h.zip"},"download_count":15},{"id":8252,"title":"The World English Bible (WEB): Lamentations","authors":[{"name":"Anonymous","birth_year":null,"death_year":null}],"translators":[],"subjects":["Bible. Lamentations"],"bookshelves":[],"languages":["en"],"copyright":false,"media_type":"Text","formats":{"text/html":"https://www.gutenberg.org/ebooks/8252.html.images","application/epub+zip":"https://www.gutenberg.org/ebooks/8252.epub3.images","application/x-mobipocket-ebook":"https://www.gutenberg.org/ebooks/8252.kf8.images","text/plain; charset=us-ascii":"https://www.gutenberg.org/ebooks/8252.txt.utf-8","application/rdf+xml":"https://www.gutenberg.org/ebooks/8252.rdf","image/jpeg":"https://www.gutenberg.org/cache/epub/8252/pg8252.cover.medium.jpg","application/octet-stream":"https://www.gutenberg.org/cache/epub/8252/pg8252-h.zip"},"download_count":15},{"id":8262,"title":"The World English Bible (WEB): Habakkuk","authors":[{"name":"Anonymous","birth_year":null,"death_year":null}],"translators":[],"subjects":["Bible. Habakkuk"],"bookshelves":[],"languages":["en"],"copyright":false,"media_type":"Text","formats":{"text/html":"https://www.gutenberg.org/ebooks/8262.html.images","application/epub+zip":"https://www.gutenberg.org/ebooks/8262.epub3.images","application/x-mobipocket-ebook":"https://www.gutenberg.org/ebooks/8262.kf8.images","text/plain; charset=us-ascii":"https://www.gutenberg.org/ebooks/8262.txt.utf-8","application/rdf+xml":"https://www.gutenberg.org/ebooks/8262.rdf","image/jpeg":"https://www.gutenberg.org/cache/epub/8262/pg8262.cover.medium.jpg","application/octet-stream":"https://www.gutenberg.org/cache/epub/8262/pg8262-h.zip"},"download_count":15},{"id":8331,"title":"The Bible, Douay-Rheims, Book 31: Ezechiel: The Challoner Revision","authors":[],"translators":[],"subjects":["Bible. Ezekiel"],"bookshelves":[],"languages":["en"],"copyright":false,"media_type":"Text","formats":{"text/html":"https://www.gutenberg.org/ebooks/8331.html.images","application/epub+zip":"https://www.gutenberg.org/ebooks/8331.epub3.images","application/x-mobipocket-ebook":"https://www.gutenberg.org/ebooks/8331.kf8.images","text/plain; charset=us-ascii":"https://www.gutenberg.org/ebooks/8331.txt.utf-8","application/rdf+xml":"https://www.gutenberg.org/ebooks/8331.rdf","image/jpeg":"https://www.gutenberg.org/cache/epub/8331/pg8331.cover.medium.jpg","application/octet-stream":"https://www.gutenberg.org/cache/epub/8331/pg8331-h.zip"},"download_count":15},{"id":8338,"title":"The Bible, Douay-Rheims, Book 38: Micheas: The Challoner Revision","authors":[],"translators":[],"subjects":["Bible. Micah"],"bookshelves":[],"languages":["en"],"copyright":false,"media_type":"Text","formats":{"text/html":"https://www.gutenberg.org/ebooks/8338.html.images","application/epub+zip":"https://www.gutenberg.org/ebooks/8338.epub3.images","application/x-mobipocket-ebook":"https://www.gutenberg.org/ebooks/8338.kf8.images","text/plain; charset=us-ascii":"https://www.gutenberg.org/ebooks/8338.txt.utf-8","application/rdf+xml":"https://www.gutenberg.org/ebooks/8338.rdf","image/jpeg":"https://www.gutenberg.org/cache/epub/8338/pg8338.cover.medium.jpg","application/octet-stream":"https://www.gutenberg.org/cache/epub/8338/pg8338-h.zip"},"download_count":15},{"id":8341,"title":"The Bible, Douay-Rheims, Book 41: Sophonias: The Challoner Revision","authors":[],"translators":[],"subjects":["Bible. Zephaniah"],"bookshelves":[],"languages":["en"],"copyright":false,"media_type":"Text","formats":{"text/html":"https://www.gutenberg.org/ebooks/8341.html.images","application/epub+zip":"https://www.gutenberg.org/ebooks/8341.epub3.images","application/x-mobipocket-ebook":"https://www.gutenberg.org/ebooks/8341.kf8.images","text/plain; charset=us-ascii":"https://www.gutenberg.org/ebooks/8341.txt.utf-8","application/rdf+xml":"https://www.gutenberg.org/ebooks/8341.rdf","image/jpeg":"https://www.gutenberg.org/cache/epub/8341/pg8341.cover.medium.jpg","application/octet-stream":"https://www.gutenberg.org/cache/epub/8341/pg8341-h.zip"},"download_count":15},{"id":8352,"title":"The Bible, Douay-Rheims, Book 52: Romans: The Challoner Revision","authors":[],"translators":[],"subjects":["Bible. Romans"],"bookshelves":[],"languages":["en"],"copyright":false,"media_type":"Text","formats":{"text/html":"https://www.gutenberg.org/ebooks/8352.html.images","application/epub+zip":"https://www.gutenberg.org/ebooks/8352.epub3.images","application/x-mobipocket-ebook":"https://www.gutenberg.org/ebooks/8352.kf8.images","text/plain; charset=us-ascii":"https://www.gutenberg.org/ebooks/8352.txt.utf-8","application/rdf+xml":"https://www.gutenberg.org/ebooks/8352.rdf","image/jpeg":"https://www.gutenberg.org/cache/epub/8352/pg8352.cover.medium.jpg","application/octet-stream":"https://www.gutenberg.org/cache/epub/8352/pg8352-h.zip"},"download_count":15},{"id":8515,"title":"The Three Cities Trilogy: Lourdes, Volume 5","authors":[{"name":"Zola, Émile","birth_year":1840,"death_year":1902}],"translators":[{"name":"Vizetelly, Ernest Alfred","birth_year":1853,"death_year":1922}],"subjects":["Catholics -- Fiction","Christian pilgrims and pilgrimages -- Fiction","Clergy -- Fiction","Lourdes (France) -- Fiction"],"bookshelves":[],"languages":["en"],"copyright":false,"media_type":"Text","formats":{"text/html":"https://www.gutenberg.org/ebooks/8515.html.images","application/epub+zip":"https://www.gutenberg.org/ebooks/8515.epub3.images","application/x-mobipocket-ebook":"https://www.gutenberg.org/ebooks/8515.kf8.images","text/plain; charset=us-ascii":"https://www.gutenberg.org/ebooks/8515.txt.utf-8","application/rdf+xml":"https://www.gutenberg.org/ebooks/8515.rdf","image/jpeg":"https://www.gutenberg.org/cache/epub/8515/pg8515.cover.medium.jpg","application/octet-stream":"https://www.gutenberg.org/cache/epub/8515/pg8515-h.zip"},"download_count":15},{"id":8551,"title":"The Seaboard Parish Volume 1","authors":[{"name":"MacDonald, George","birth_year":1824,"death_year":1905}],"translators":[],"subjects":["Christian fiction","Neighborhoods -- Scotland -- Fiction"],"bookshelves":[],"languages":["en"],"copyright":false,"media_type":"Text","formats":{"text/html":"https://www.gutenberg.org/ebooks/8551.html.images","text/html; charset=iso-8859-1":"https://www.gutenberg.org/files/8551/8551-h/8551-h.htm","application/epub+zip":"https://www.gutenberg.org/ebooks/8551.epub3.images","application/x-mobipocket-ebook":"https://www.gutenberg.org/ebooks/8551.kf8.images","text/plain; charset=us-ascii":"https://www.gutenberg.org/ebooks/8551.txt.utf-8","application/rdf+xml":"https://www.gutenberg.org/ebooks/8551.rdf","image/jpeg":"https://www.gutenberg.org/cache/epub/8551/pg8551.cover.medium.jpg","application/octet-stream":"https://www.gutenberg.org/cache/epub/8551/pg8551-h.zip"},"download_count":15},{"id":8587,"title":"Roughing It, Part 6.","authors":[{"name":"Twain, Mark","birth_year":1835,"death_year":1910}],"translators":[],"subjects":["Authors, American -- Homes and haunts -- West (U.S.)","Hawaii -- Description and travel","Twain, Mark, 1835-1910 -- Travel -- West (U.S.)","West (U.S.) -- Description and travel","West (U.S.) -- Intellectual life -- 19th century"],"bookshelves":[],"languages":["en"],"copyright":false,"media_type":"Text","formats":{"text/html":"https://www.gutenberg.org/ebooks/8587.html.images","text/html; charset=iso-8859-1":"https://www.gutenberg.org/files/8587/8587-h/8587-h.htm","application/epub+zip":"https://www.gutenberg.org/ebooks/8587.epub3.images","application/x-mobipocket-ebook":"https://www.gutenberg.org/ebooks/8587.kf8.images","text/plain; charset=us-ascii":"https://www.gutenberg.org/ebooks/8587.txt.utf-8","application/rdf+xml":"https://www.gutenberg.org/ebooks/8587.rdf","image/jpeg":"https://www.gutenberg.org/cache/epub/8587/pg8587.cover.medium.jpg","application/octet-stream":"https://www.gutenberg.org/cache/epub/8587/pg8587-h.zip"},"download_count":15},{"id":8592,"title":"Poetical Works","authors":[{"name":"Churchill, Charles","birth_year":1731,"death_year":1764}],"translators":[],"subjects":["English poetry -- 18th century"],"bookshelves":[],"languages":["en"],"copyright":false,"media_type":"Text","formats":{"text/html":"https://www.gutenberg.org/ebooks/8592.html.images","application/epub+zip":"https://www.gutenberg.org/ebooks/8592.epub3.images","application/x-mobipocket-ebook":"https://www.gutenberg.org/ebooks/8592.kf8.images","text/plain; charset=us-ascii":"https://www.gutenberg.org/ebooks/8592.txt.utf-8","text/plain; charset=iso-8859-1":"https://www.gutenberg.org/files/8592/8592-8.txt","application/rdf+xml":"https://www.gutenberg.org/ebooks/8592.rdf","image/jpeg":"https://www.gutenberg.org/cache/epub/8592/pg8592.cover.medium.jpg","application/octet-stream":"https://www.gutenberg.org/cache/epub/8592/pg8592-h.zip"},"download_count":15},{"id":8595,"title":"Normandy: The Scenery & Romance of Its Ancient Towns, Part 3","authors":[{"name":"Home, Gordon","birth_year":1878,"death_year":1969}],"translators":[],"subjects":["Normandy (France) -- Description and travel"],"bookshelves":[],"languages":["en"],"copyright":false,"media_type":"Text","formats":{"text/html":"https://www.gutenberg.org/ebooks/8595.html.images","text/html; charset=iso-8859-1":"https://www.gutenberg.org/files/8595/8595-h/8595-h.htm","application/epub+zip":"https://www.gutenberg.org/ebooks/8595.epub3.images","application/x-mobipocket-ebook":"https://www.gutenberg.org/ebooks/8595.kf8.images","text/plain; charset=us-ascii":"https://www.gutenberg.org/ebooks/8595.txt.utf-8","application/rdf+xml":"https://www.gutenberg.org/ebooks/8595.rdf","image/jpeg":"https://www.gutenberg.org/cache/epub/8595/pg8595.cover.medium.jpg","application/octet-stream":"https://www.gutenberg.org/cache/epub/8595/pg8595-h.zip"},"download_count":15},{"id":8616,"title":"The Stark Munro Letters: Being series of twelve letters written by J. Stark Munro, M.B., to his friend and former fellow-student, Herbert Swanborough, of Lowell, Massachusetts, during the years 1881-1884","authors":[{"name":"Doyle, Arthur Conan","birth_year":1859,"death_year":1930}],"translators":[],"subjects":["Epistolary fiction"],"bookshelves":[],"languages":["en"],"copyright":true,"media_type":"Sound","formats":{"text/plain; charset=us-ascii":"https://www.gutenberg.org/files/8616/8616-readme.txt","text/html; charset=iso-8859-1":"https://www.gutenberg.org/files/8616/8616-index.htm","audio/mpeg":"https://www.gutenberg.org/files/8616/mp3/8616-000.mp3","application/rdf+xml":"https://www.gutenberg.org/ebooks/8616.rdf"},"download_count":15},{"id":8703,"title":"The Doré Bible Gallery, Volume 3","authors":[],"translators":[],"subjects":["Bible -- Illustrations"],"bookshelves":[],"languages":["en"],"copyright":false,"media_type":"Text","formats":{"text/html":"https://www.gutenberg.org/ebooks/8703.html.images","text/html; charset=iso-8859-1":"https://www.gutenberg.org/files/8703/8703-h/8703-h.htm","application/epub+zip":"https://www.gutenberg.org/ebooks/8703.epub3.images","application/x-mobipocket-ebook":"https://www.gutenberg.org/ebooks/8703.kf8.images","text/plain; charset=us-ascii":"https://www.gutenberg.org/ebooks/8703.txt.utf-8","application/rdf+xml":"https://www.gutenberg.org/ebooks/8703.rdf","image/jpeg":"https://www.gutenberg.org/cache/epub/8703/pg8703.cover.medium.jpg","application/octet-stream":"https://www.gutenberg.org/cache/epub/8703/pg8703-h.zip"},"download_count":15},{"id":8711,"title":"The Living Link: A Novel","authors":[{"name":"De Mille, James","birth_year":1833,"death_year":1880}],"translators":[],"subjects":["Fiction"],"bookshelves":[],"languages":["en"],"copyright":false,"media_type":"Text","formats":{"text/html":"https://www.gutenberg.org/ebooks/8711.html.images","text/html; charset=utf-8":"https://www.gutenberg.org/files/8711/8711-h/8711-h.htm","application/epub+zip":"https://www.gutenberg.org/ebooks/8711.epub3.images","application/x-mobipocket-ebook":"https://www.gutenberg.org/ebooks/8711.kf8.images","text/plain; charset=us-ascii":"https://www.gutenberg.org/ebooks/8711.txt.utf-8","text/plain; charset=utf-8":"https://www.gutenberg.org/files/8711/8711-0.txt","text/plain; charset=iso-8859-1":"https://www.gutenberg.org/files/8711/8711-8.txt","application/rdf+xml":"https://www.gutenberg.org/ebooks/8711.rdf","image/jpeg":"https://www.gutenberg.org/cache/epub/8711/pg8711.cover.medium.jpg","application/octet-stream":"https://www.gutenberg.org/cache/epub/8711/pg8711-h.zip"},"download_count":15},{"id":8808,"title":"Narrative of the Voyages Round the World, Performed by Captain James Cook: With an Account of His Life During the Previous and Intervening Periods","authors":[{"name":"Kippis, Andrew","birth_year":1725,"death_year":1795}],"translators":[],"subjects":["Cook, James, 1728-1779 -- Travel","Explorers -- Great Britain -- Biography -- Early works to 1800","Voyages around the world -- Early works to 1800"],"bookshelves":[],"languages":["en"],"copyright":true,"media_type":"Sound","formats":{"text/plain; charset=us-ascii":"https://www.gutenberg.org/files/8808/8808-readme.txt","text/html; charset=iso-8859-1":"https://www.gutenberg.org/files/8808/8808-index.htm","audio/mpeg":"https://www.gutenberg.org/files/8808/mp3/8808-000.mp3","application/rdf+xml":"https://www.gutenberg.org/ebooks/8808.rdf","application/octet-stream":"https://www.gutenberg.org/files/8808/8808-mp3.zip"},"download_count":15},{"id":8844,"title":"Weymouth New Testament in Modern Speech, Titus","authors":[{"name":"Weymouth, Richard Francis","birth_year":1822,"death_year":1902}],"translators":[],"subjects":["Bible. Titus"],"bookshelves":[],"languages":["en"],"copyright":false,"media_type":"Text","formats":{"text/html":"https://www.gutenberg.org/ebooks/8844.html.images","application/epub+zip":"https://www.gutenberg.org/ebooks/8844.epub3.images","application/x-mobipocket-ebook":"https://www.gutenberg.org/ebooks/8844.kf8.images","text/plain; charset=us-ascii":"https://www.gutenberg.org/ebooks/8844.txt.utf-8","application/rdf+xml":"https://www.gutenberg.org/ebooks/8844.rdf","image/jpeg":"https://www.gutenberg.org/cache/epub/8844/pg8844.cover.medium.jpg","application/octet-stream":"https://www.gutenberg.org/cache/epub/8844/pg8844-h.zip"},"download_count":15},{"id":9011,"title":"The American Claimant","authors":[{"name":"Twain, Mark","birth_year":1835,"death_year":1910}],"translators":[],"subjects":["Mistaken identity -- Fiction","United States -- Social life and customs -- 19th century -- Fiction"],"bookshelves":[],"languages":["en"],"copyright":true,"media_type":"Sound","formats":{"text/plain; charset=us-ascii":"https://www.gutenberg.org/files/9011/9011-readme.txt","text/html; charset=iso-8859-1":"https://www.gutenberg.org/files/9011/9011-index.htm","audio/mpeg":"https://www.gutenberg.org/files/9011/mp3/9011-000.mp3","application/rdf+xml":"https://www.gutenberg.org/ebooks/9011.rdf","application/octet-stream":"https://www.gutenberg.org/files/9011/9011-mp3.zip"},"download_count":15},{"id":9012,"title":"A Burlesque Autobiography","authors":[{"name":"Twain, Mark","birth_year":1835,"death_year":1910}],"translators":[],"subjects":["American wit and humor"],"bookshelves":[],"languages":["en"],"copyright":true,"media_type":"Sound","formats":{"text/plain; charset=us-ascii":"https://www.gutenberg.org/files/9012/9012-readme.txt","text/html; charset=iso-8859-1":"https://www.gutenberg.org/files/9012/9012-index.htm","audio/mpeg":"https://www.gutenberg.org/files/9012/mp3/9012-000.mp3","application/rdf+xml":"https://www.gutenberg.org/ebooks/9012.rdf","application/octet-stream":"https://www.gutenberg.org/files/9012/9012-mp3.zip"},"download_count":15},{"id":9043,"title":"May Day with the Muses","authors":[{"name":"Bloomfield, Robert","birth_year":1766,"death_year":1823}],"translators":[],"subjects":["English poetry"],"bookshelves":[],"languages":["en"],"copyright":false,"media_type":"Text","formats":{"text/html":"https://www.gutenberg.org/ebooks/9043.html.images","application/epub+zip":"https://www.gutenberg.org/ebooks/9043.epub3.images","application/x-mobipocket-ebook":"https://www.gutenberg.org/ebooks/9043.kf8.images","text/plain; charset=us-ascii":"https://www.gutenberg.org/ebooks/9043.txt.utf-8","application/rdf+xml":"https://www.gutenberg.org/ebooks/9043.rdf","image/jpeg":"https://www.gutenberg.org/cache/epub/9043/pg9043.cover.medium.jpg","application/octet-stream":"https://www.gutenberg.org/cache/epub/9043/pg9043-h.zip"},"download_count":15},{"id":9193,"title":"The Angel of Lonesome Hill; A Story of a President","authors":[{"name":"Landis, Frederick","birth_year":1872,"death_year":1934}],"translators":[],"subjects":["Farmers -- Fiction","Roosevelt, Theodore, 1858-1919 -- Fiction"],"bookshelves":[],"languages":["en"],"copyright":false,"media_type":"Text","formats":{"text/html":"https://www.gutenberg.org/ebooks/9193.html.images","application/epub+zip":"https://www.gutenberg.org/ebooks/9193.epub3.images","application/x-mobipocket-ebook":"https://www.gutenberg.org/ebooks/9193.kf8.images","text/plain; charset=us-ascii":"https://www.gutenberg.org/ebooks/9193.txt.utf-8","application/rdf+xml":"https://www.gutenberg.org/ebooks/9193.rdf","image/jpeg":"https://www.gutenberg.org/cache/epub/9193/pg9193.cover.medium.jpg","application/octet-stream":"https://www.gutenberg.org/cache/epub/9193/pg9193-h.zip"},"download_count":15},{"id":9278,"title":"Bunner Sisters","authors":[{"name":"Wharton, Edith","birth_year":1862,"death_year":1937}],"translators":[],"subjects":["New York (N.Y.) -- Social life and customs -- 19th century -- Fiction"],"bookshelves":[],"languages":["en"],"copyright":true,"media_type":"Sound","formats":{"text/plain; charset=us-ascii":"https://www.gutenberg.org/files/9278/9278-readme.txt","text/html; charset=iso-8859-1":"https://www.gutenberg.org/files/9278/9278-index.htm","audio/mpeg":"https://www.gutenberg.org/files/9278/mp3/9278-000.mp3","application/rdf+xml":"https://www.gutenberg.org/ebooks/9278.rdf","application/octet-stream":"https://www.gutenberg.org/files/9278/9278-mp3.zip"},"download_count":15},{"id":9344,"title":"Almayer's Folly","authors":[{"name":"Conrad, Joseph","birth_year":1857,"death_year":1924}],"translators":[],"subjects":["Borneo -- Fiction","Didactic fiction","Dutch -- Borneo -- Fiction","Imperialism -- Fiction","Lingard, Tom (Fictitious character) -- Fiction","Psychological fiction","Trading companies -- Fiction"],"bookshelves":[],"languages":["en"],"copyright":true,"media_type":"Sound","formats":{"text/plain; charset=us-ascii":"https://www.gutenberg.org/files/9344/9344-readme.txt","text/html; charset=iso-8859-1":"https://www.gutenberg.org/files/9344/9344-index.htm","audio/mpeg":"https://www.gutenberg.org/files/9344/mp3/9344-000.mp3","application/rdf+xml":"https://www.gutenberg.org/ebooks/9344.rdf","application/octet-stream":"https://www.gutenberg.org/files/9344/9344-mp3.zip"},"download_count":15},{"id":9358,"title":"Victory: An Island Tale","authors":[{"name":"Conrad, Joseph","birth_year":1857,"death_year":1924}],"translators":[],"subjects":["Abused women -- Fiction","Europeans -- Indonesia -- Fiction","Indonesia -- Fiction","Psychological fiction","Revenge -- Fiction","Women musicians -- Fiction"],"bookshelves":[],"languages":["en"],"copyright":true,"media_type":"Sound","formats":{"text/plain; charset=us-ascii":"https://www.gutenberg.org/files/9358/9358-readme.txt","text/html; charset=iso-8859-1":"https://www.gutenberg.org/files/9358/9358-index.htm","audio/mpeg":"https://www.gutenberg.org/files/9358/mp3/9358-000.mp3","application/rdf+xml":"https://www.gutenberg.org/ebooks/9358.rdf","application/octet-stream":"https://www.gutenberg.org/files/9358/9358-mp3.zip"},"download_count":15},{"id":9423,"title":"Life's Little Ironies: A set of tales with some colloquial sketches entitled A Few Crusted Characters","authors":[{"name":"Hardy, Thomas","birth_year":1840,"death_year":1928}],"translators":[],"subjects":["Short stories, English","Wessex (England) -- Fiction"],"bookshelves":[],"languages":["en"],"copyright":true,"media_type":"Sound","formats":{"text/plain; charset=us-ascii":"https://www.gutenberg.org/files/9423/9423-readme.txt","text/html; charset=iso-8859-1":"https://www.gutenberg.org/files/9423/9423-index.htm","audio/mpeg":"https://www.gutenberg.org/files/9423/mp3/9423-000.mp3","application/rdf+xml":"https://www.gutenberg.org/ebooks/9423.rdf","application/octet-stream":"https://www.gutenberg.org/files/9423/9423-mp3.zip"},"download_count":15},{"id":9525,"title":"George Cruikshank","authors":[{"name":"Thackeray, William Makepeace","birth_year":1811,"death_year":1863}],"translators":[],"subjects":["Caricatures and cartoons -- Great Britain","Cruikshank, George, 1792-1878"],"bookshelves":[],"languages":["en"],"copyright":true,"media_type":"Sound","formats":{"text/plain; charset=us-ascii":"https://www.gutenberg.org/files/9525/9525-readme.txt","text/html; charset=iso-8859-1":"https://www.gutenberg.org/files/9525/9525-index.htm","audio/mpeg":"https://www.gutenberg.org/files/9525/mp3/9525-000.mp3","application/rdf+xml":"https://www.gutenberg.org/ebooks/9525.rdf","application/octet-stream":"https://www.gutenberg.org/files/9525/9525-mp3.zip"},"download_count":15},{"id":9530,"title":"The History of Henry Esmond, Esq.: A Colonel in the Service of Her Majesty Queen Anne","authors":[{"name":"Thackeray, William Makepeace","birth_year":1811,"death_year":1863}],"translators":[],"subjects":["Great Britain -- History -- Anne, 1702-1714 -- Fiction"],"bookshelves":["Historical Fiction"],"languages":["en"],"copyright":true,"media_type":"Sound","formats":{"text/plain; charset=us-ascii":"https://www.gutenberg.org/files/9530/9530-readme.txt","text/html; charset=iso-8859-1":"https://www.gutenberg.org/files/9530/9530-index.htm","audio/mpeg":"https://www.gutenberg.org/files/9530/mp3/9530-000.mp3","application/rdf+xml":"https://www.gutenberg.org/ebooks/9530.rdf","application/octet-stream":"https://www.gutenberg.org/files/9530/9530-mp3.zip"},"download_count":15},{"id":9549,"title":"Punchinello, Volume 1, No. 03, April 16, 1870","authors":[{"name":"Various","birth_year":null,"death_year":null}],"translators":[],"subjects":["American wit and humor -- Periodicals"],"bookshelves":["Punchinello"],"languages":["en"],"copyright":false,"media_type":"Text","formats":{"text/html":"https://www.gutenberg.org/ebooks/9549.html.images","text/html; charset=iso-8859-1":"https://www.gutenberg.org/files/9549/9549-h/9549-h.htm","application/epub+zip":"https://www.gutenberg.org/ebooks/9549.epub3.images","application/x-mobipocket-ebook":"https://www.gutenberg.org/ebooks/9549.kf8.images","text/plain; charset=us-ascii":"https://www.gutenberg.org/ebooks/9549.txt.utf-8","text/plain; charset=iso-8859-1":"https://www.gutenberg.org/files/9549/9549-8.txt","application/rdf+xml":"https://www.gutenberg.org/ebooks/9549.rdf","image/jpeg":"https://www.gutenberg.org/cache/epub/9549/pg9549.cover.medium.jpg","application/octet-stream":"https://www.gutenberg.org/cache/epub/9549/pg9549-h.zip"},"download_count":15}]}