{"count":58808,"next":"http://129.241.150.113:8000/books/?languages=en&page=1055","previous":"http://129.241.150.113:8000/books/?languages=en&page=1053","results":[{"id":70530,"title":"Physician and patient : $b or, a practical view of the mutual duties, relations and interests of the medical profession and the community","authors":[{"name":"Hooker, Worthington","birth_year":1806,"death_year":1867}],"translators":[],"subjects":["Medical ethics","Physician and patient","Physicians","Quacks and quackery"],"bookshelves":[],"languages":["en"],"copyright":false,"media_type":"Text","formats":{"text/html":"https://www.gutenberg.org/ebooks/70530.html.images","application/epub+zip":"https://www.gutenberg.org/ebooks/70530.epub3.images","application/x-mobipocket-ebook":"https://www.gutenberg.org/ebooks/70530.kf8.images","text/plain; charset=us-ascii":"https://www.gutenberg.org/ebooks/70530.txt.utf-8","application/rdf+xml":"https://www.gutenberg.org/ebooks/70530.rdf","image/jpeg":"https://www.gutenberg.org/cache/epub/70530/pg70530.cover.medium.jpg","application/octet-stream":"https://www.gutenberg.org/files/70530/70530-0.zip"},"download_count":35},{"id":70688,"title":"Rajah Brooke : $b the Englishman as ruler of an eastern state","authors":[{"name":"St. John, Spenser, Sir","birth_year":1826,"death_year":1910}],"translators":[],"subjects":["James, Rajah of Sarawak, 1803-1868","Sarawak (Malaysia) -- History","Sarawak (Malaysia) -- Kings and rulers -- Biography"],"bookshelves":[],"languages":["en"],"copyright":false,"media_type":"Text","formats":{"text/html":"https://www.gutenberg.org/ebooks/70688.html.images","application/epub+zip":"https://www.gutenberg.org/ebooks/70688.epub3.images","application/x-mobipocket-ebook":"https://www.gutenberg.org/ebooks/70688.kf8.images","text/plain; charset=us-ascii":"https://www.gutenberg.org/ebooks/70688.txt.utf-8","application/rdf+xml":"https://www.gutenberg.org/ebooks/70688.rdf","image/jpeg":"https://www.gutenberg.org/cache/epub/70688/pg70688.cover.medium.jpg","application/octet-stream":"https://www.gutenberg.org/files/70688/70688-0.zip"},"download_count":35},{"id":70848,"title":"A godly medytacyon of the christen sowle, concerninge a loue towardes God and hys Christe","authors":[{"name":"Marguerite, Queen, consort of Henry II, King of Navarre","birth_year":1492,"death_year":1549}],"translators":[{"name":"Elizabeth I, Queen of England","birth_year":1533,"death_year":1603}],"subjects":["Devotional literature","Meditations -- Early works to 1800"],"bookshelves":[],"languages":["en"],"copyright":false,"media_type":"Text","formats":{"text/html":"https://www.gutenberg.org/ebooks/70848.html.images","application/epub+zip":"https://www.gutenberg.org/ebooks/70848.epub3.images","application/x-mobipocket-ebook":"https://www.gutenberg.org/ebooks/70848.kf8.images","text/plain; charset=us-ascii":"https://www.gutenberg.org/ebooks/70848.txt.utf-8","application/rdf+xml":"https://www.gutenberg.org/ebooks/70848.rdf","image/jpeg":"https://www.gutenberg.org/cache/epub/70848/pg70848.cover.medium.jpg","application/octet-stream":"https://www.gutenberg.org/files/70848/70848-0.zip"},"download_count":35},{"id":70861,"title":"The doings of Doris","authors":[{"name":"Giberne, Agnes","birth_year":1845,"death_year":1939}],"translators":[],"subjects":["Children of clergy -- Fiction","Man-woman relationships -- Fiction","Mountaineering -- Fiction","Mystery fiction"],"bookshelves":[],"languages":["en"],"copyright":false,"media_type":"Text","formats":{"text/html":"https://www.gutenberg.org/ebooks/70861.html.images","application/epub+zip":"https://www.gutenberg.org/ebooks/70861.epub3.images","application/x-mobipocket-ebook":"https://www.gutenberg.org/ebooks/70861.kf8.images","text/plain; charset=us-ascii":"https://www.gutenberg.org/ebooks/70861.txt.utf-8","application/rdf+xml":"https://www.gutenberg.org/ebooks/70861.rdf","image/jpeg":"https://www.gutenberg.org/cache/epub/70861/pg70861.cover.medium.jpg","application/octet-stream":"https://www.gutenberg.org/files/70861/70861-0.zip"},"download_count":35},{"id":70914,"title":"Caroline the Illustrious, vol. 2 (of 2) : $b Queen-Consort of George II. and sometime Queen-Regent; a study of her life and time","authors":[{"name":"Wilkins, W. H. (William Henry)","birth_year":1860,"death_year":1905}],"translators":[],"subjects":["Caroline, Queen, consort of George II, King of Great Britain, 1683-1737"],"bookshelves":[],"languages":["en"],"copyright":false,"media_type":"Text","formats":{"text/html":"https://www.gutenberg.org/ebooks/70914.html.images","application/epub+zip":"https://www.gutenberg.org/ebooks/70914.epub3.images","application/x-mobipocket-ebook":"https://www.gutenberg.org/ebooks/70914.kf8.images","text/plain; charset=us-ascii":"https://www.gutenberg.org/ebooks/70914.txt.utf-8","application/rdf+xml":"https://www.gutenberg.org/ebooks/70914.rdf","image/jpeg":"https://www.gutenberg.org/cache/epub/70914/pg70914.cover.medium.jpg","application/octet-stream":"https://www.gutenberg.org/files/70914/70914-0.zip"},"download_count":35},{"id":70992,"title":"Escape from East Tennessee to the federal lines : $b The history, given as nearly as possible, by Captain R. A. Ragan of his individual experiences during the war of the rebellion from 1861 to 1864","authors":[{"name":"Ragan, Robert A.","birth_year":null,"death_year":null}],"translators":[],"subjects":["United States -- History -- Civil War, 1861-1865 -- Personal narratives"],"bookshelves":[],"languages":["en"],"copyright":false,"media_type":"Text","formats":{"text/html":"https://www.gutenberg.org/ebooks/70992.html.images","application/epub+zip":"https://www.gutenberg.org/ebooks/70992.epub3.images","application/x-mobipocket-ebook":"https://www.gutenberg.org/ebooks/70992.kf8.images","text/plain; charset=us-ascii":"https://www.gutenberg.org/ebooks/70992.txt.utf-8","application/rdf+xml":"https://www.gutenberg.org/ebooks/70992.rdf","image/jpeg":"https://www.gutenberg.org/cache/epub/70992/pg70992.cover.medium.jpg","application/octet-stream":"https://www.gutenberg.org/files/70992/70992-0.zip"},"download_count":35},{"id":71034,"title":"Tom Taylor at West Point : $b or, The old army officer's secret","authors":[{"name":"Webster, Frank V.","birth_year":null,"death_year":null}],"translators":[],"subjects":["Military cadets -- Juvenile fiction","Military education -- Juvenile fiction","United States Military Academy -- Juvenile fiction"],"bookshelves":[],"languages":["en"],"copyright":false,"media_type":"Text","formats":{"text/html":"https://www.gutenberg.org/ebooks/71034.html.images","application/epub+zip":"https://www.gutenberg.org/ebooks/71034.epub3.images","application/x-mobipocket-ebook":"https://www.gutenberg.org/ebooks/71034.kf8.images","text/plain; charset=us-ascii":"https://www.gutenberg.org/ebooks/71034.txt.utf-8","application/rdf+xml":"https://www.gutenberg.org/ebooks/71034.rdf","image/jpeg":"https://www.gutenberg.org/cache/epub/71034/pg71034.cover.medium.jpg","application/octet-stream":"https://www.gutenberg.org/files/71034/71034-0.zip"},"download_count":35},{"id":71061,"title":"A wilful ward","authors":[{"name":"Lamb, Ruth","birth_year":1829,"death_year":1916}],"translators":[],"subjects":["Conduct of life -- Juvenile fiction","England -- Juvenile fiction","Guardian and ward -- Juvenile fiction","Mate selection -- Juvenile fiction","Spouses -- Juvenile fiction"],"bookshelves":[],"languages":["en"],"copyright":false,"media_type":"Text","formats":{"text/html":"https://www.gutenberg.org/ebooks/71061.html.images","application/epub+zip":"https://www.gutenberg.org/ebooks/71061.epub3.images","application/x-mobipocket-ebook":"https://www.gutenberg.org/ebooks/71061.kf8.images","text/plain; charset=us-ascii":"https://www.gutenberg.org/ebooks/71061.txt.utf-8","application/rdf+xml":"https://www.gutenberg.org/ebooks/71061.rdf","image/jpeg":"https://www.gutenberg.org/cache/epub/71061/pg71061.cover.medium.jpg","application/octet-stream":"https://www.gutenberg.org/files/71061/71061-0.zip"},"download_count":35},{"id":71079,"title":"Little maid Marigold","authors":[{"name":"Stooke, Eleanora H.","birth_year":null,"death_year":null}],"translators":[],"subjects":["Aunts -- Juvenile fiction","Christian life -- Juvenile fiction","Conduct of life -- Juvenile fiction","England -- Juvenile fiction","Girls -- Juvenile fiction"],"bookshelves":[],"languages":["en"],"copyright":false,"media_type":"Text","formats":{"text/html":"https://www.gutenberg.org/ebooks/71079.html.images","application/epub+zip":"https://www.gutenberg.org/ebooks/71079.epub3.images","application/x-mobipocket-ebook":"https://www.gutenberg.org/ebooks/71079.kf8.images","text/plain; charset=us-ascii":"https://www.gutenberg.org/ebooks/71079.txt.utf-8","application/rdf+xml":"https://www.gutenberg.org/ebooks/71079.rdf","image/jpeg":"https://www.gutenberg.org/cache/epub/71079/pg71079.cover.medium.jpg","application/octet-stream":"https://www.gutenberg.org/files/71079/71079-0.zip"},"download_count":35},{"id":71097,"title":"The unwelcome child : $b Or, The crime of an undesigned and undesired maternity","authors":[{"name":"Wright, Henry Clarke","birth_year":1797,"death_year":1870}],"translators":[],"subjects":["Abortion","Sexual ethics"],"bookshelves":[],"languages":["en"],"copyright":false,"media_type":"Text","formats":{"text/html":"https://www.gutenberg.org/ebooks/71097.html.images","application/epub+zip":"https://www.gutenberg.org/ebooks/71097.epub3.images","application/x-mobipocket-ebook":"https://www.gutenberg.org/ebooks/71097.kf8.images","text/plain; charset=us-ascii":"https://www.gutenberg.org/ebooks/71097.txt.utf-8","application/rdf+xml":"https://www.gutenberg.org/ebooks/71097.rdf","image/jpeg":"https://www.gutenberg.org/cache/epub/71097/pg71097.cover.medium.jpg","application/octet-stream":"https://www.gutenberg.org/files/71097/71097-0.zip"},"download_count":35},{"id":71107,"title":"The legend of Perseus, Volume 2 (of 3) : $b The life-token","authors":[{"name":"Hartland, Edwin Sidney","birth_year":1848,"death_year":1927}],"translators":[],"subjects":["Andromeda, Princess, daughter of Cepheus, King of Ethiopia (Mythological character)","Folklore -- Classification","Medusa (Gorgon)","Perseus (Greek mythological character)","Rites and ceremonies"],"bookshelves":[],"languages":["en"],"copyright":false,"media_type":"Text","formats":{"text/html":"https://www.gutenberg.org/ebooks/71107.html.images","application/epub+zip":"https://www.gutenberg.org/ebooks/71107.epub3.images","application/x-mobipocket-ebook":"https://www.gutenberg.org/ebooks/71107.kf8.images","text/plain; charset=us-ascii":"https://www.gutenberg.org/ebooks/71107.txt.utf-8","application/rdf+xml":"https://www.gutenberg.org/ebooks/71107.rdf","image/jpeg":"https://www.gutenberg.org/cache/epub/71107/pg71107.cover.medium.jpg","application/octet-stream":"https://www.gutenberg.org/files/71107/71107-0.zip"},"download_count":35},{"id":71166,"title":"Wisdom while you wait : $b Being a foretaste of the glories of the 'Insidecompletuar Britanniaware' ...","authors":[{"name":"Lucas, E. V. (Edward Verrall)","birth_year":1868,"death_year":1938},{"name":"Graves, Charles L. (Charles Larcom)","birth_year":1856,"death_year":1944}],"translators":[],"subjects":["Encyclopaedia Britannica -- Humor","English wit and humor"],"bookshelves":[],"languages":["en"],"copyright":false,"media_type":"Text","formats":{"text/html":"https://www.gutenberg.org/ebooks/71166.html.images","application/epub+zip":"https://www.gutenberg.org/ebooks/71166.epub3.images","application/x-mobipocket-ebook":"https://www.gutenberg.org/ebooks/71166.kf8.images","text/plain; charset=us-ascii":"https://www.gutenberg.org/ebooks/71166.txt.utf-8","application/rdf+xml":"https://www.gutenberg.org/ebooks/71166.rdf","image/jpeg":"https://www.gutenberg.org/cache/epub/71166/pg71166.cover.medium.jpg","application/octet-stream":"https://www.gutenberg.org/files/71166/71166-0.zip"},"download_count":35},{"id":71350,"title":"Hadrian's Wall","authors":[{"name":"Mothersole, Jessie","birth_year":1873,"death_year":1958}],"translators":[],"subjects":["England -- Antiquities, Roman","Hadrian's Wall (England)","Walls, Roman -- England"],"bookshelves":[],"languages":["en"],"copyright":false,"media_type":"Text","formats":{"text/html":"https://www.gutenberg.org/ebooks/71350.html.images","application/epub+zip":"https://www.gutenberg.org/ebooks/71350.epub3.images","application/x-mobipocket-ebook":"https://www.gutenberg.org/ebooks/71350.kf8.images","text/plain; charset=us-ascii":"https://www.gutenberg.org/ebooks/71350.txt.utf-8","application/rdf+xml":"https://www.gutenberg.org/ebooks/71350.rdf","image/jpeg":"https://www.gutenberg.org/cache/epub/71350/pg71350.cover.medium.jpg","application/octet-stream":"https://www.gutenberg.org/files/71350/71350-h.zip"},"download_count":35},{"id":71376,"title":"The strength of love : $b or, Love is lord of all","authors":[{"name":"Miller, Alex. McVeigh, Mrs.","birth_year":1850,"death_year":1937}],"translators":[],"subjects":["Dime novels","Romance fiction"],"bookshelves":[],"languages":["en"],"copyright":false,"media_type":"Text","formats":{"text/html":"https://www.gutenberg.org/ebooks/71376.html.images","application/epub+zip":"https://www.gutenberg.org/ebooks/71376.epub3.images","application/x-mobipocket-ebook":"https://www.gutenberg.org/ebooks/71376.kf8.images","text/plain; charset=us-ascii":"https://www.gutenberg.org/ebooks/71376.txt.utf-8","application/rdf+xml":"https://www.gutenberg.org/ebooks/71376.rdf","image/jpeg":"https://www.gutenberg.org/cache/epub/71376/pg71376.cover.medium.jpg","application/octet-stream":"https://www.gutenberg.org/files/71376/71376-h.zip"},"download_count":35},{"id":71468,"title":"Chambers's Journal of Popular Literature, Science, and Art, fifth series, no. 129, vol. III, June 19, 1886","authors":[{"name":"Various","birth_year":null,"death_year":null}],"translators":[],"subjects":["Periodicals"],"bookshelves":[],"languages":["en"],"copyright":false,"media_type":"Text","formats":{"text/html":"https://www.gutenberg.org/ebooks/71468.html.images","application/epub+zip":"https://www.gutenberg.org/ebooks/71468.epub3.images","application/x-mobipocket-ebook":"https://www.gutenberg.org/ebooks/71468.kf8.images","text/plain; charset=us-ascii":"https://www.gutenberg.org/ebooks/71468.txt.utf-8","application/rdf+xml":"https://www.gutenberg.org/ebooks/71468.rdf","image/jpeg":"https://www.gutenberg.org/cache/epub/71468/pg71468.cover.medium.jpg","application/octet-stream":"https://www.gutenberg.org/files/71468/71468-h.zip"},"download_count":35},{"id":71535,"title":"Notes taken during travels in Africa","authors":[{"name":"Davidson, John","birth_year":1797,"death_year":1836}],"translators":[],"subjects":["Morocco -- Description and travel"],"bookshelves":[],"languages":["en"],"copyright":false,"media_type":"Text","formats":{"text/html":"https://www.gutenberg.org/ebooks/71535.html.images","application/epub+zip":"https://www.gutenberg.org/ebooks/71535.epub3.images","application/x-mobipocket-ebook":"https://www.gutenberg.org/ebooks/71535.kf8.images","text/plain; charset=us-ascii":"https://www.gutenberg.org/ebooks/71535.txt.utf-8","application/rdf+xml":"https://www.gutenberg.org/ebooks/71535.rdf","image/jpeg":"https://www.gutenberg.org/cache/epub/71535/pg71535.cover.medium.jpg","application/octet-stream":"https://www.gutenberg.org/files/71535/71535-h.zip"},"download_count":35},{"id":71539,"title":"The Builder, No. 1, December 31, 1842 : $b Precursor number","authors":[{"name":"Various","birth_year":null,"death_year":null}],"translators":[],"subjects":["Architecture -- Periodicals","Building -- Periodicals"],"bookshelves":[],"languages":["en"],"copyright":false,"media_type":"Text","formats":{"text/html":"https://www.gutenberg.org/ebooks/71539.html.images","application/epub+zip":"https://www.gutenberg.org/ebooks/71539.epub3.images","application/x-mobipocket-ebook":"https://www.gutenberg.org/ebooks/71539.kf8.images","text/plain; charset=us-ascii":"https://www.gutenberg.org/ebooks/71539.txt.utf-8","application/rdf+xml":"https://www.gutenberg.org/ebooks/71539.rdf","image/jpeg":"https://www.gutenberg.org/cache/epub/71539/pg71539.cover.medium.jpg","application/octet-stream":"https://www.gutenberg.org/files/71539/71539-h.zip"},"download_count":35},{"id":71557,"title":"The secret history of the court of Spain during the last century","authors":[{"name":"Challice, Rachel","birth_year":null,"death_year":null}],"translators":[],"subjects":["Spain -- Court and courtiers","Spain -- History -- Bourbons, 1700-"],"bookshelves":[],"languages":["en"],"copyright":false,"media_type":"Text","formats":{"text/html":"https://www.gutenberg.org/ebooks/71557.html.images","application/epub+zip":"https://www.gutenberg.org/ebooks/71557.epub3.images","application/x-mobipocket-ebook":"https://www.gutenberg.org/ebooks/71557.kf8.images","text/plain; charset=us-ascii":"https://www.gutenberg.org/ebooks/71557.txt.utf-8","application/rdf+xml":"https://www.gutenberg.org/ebooks/71557.rdf","image/jpeg":"https://www.gutenberg.org/cache/epub/71557/pg71557.cover.medium.jpg","application/octet-stream":"https://www.gutenberg.org/files/71557/71557-h.zip"},"download_count":35},{"id":71574,"title":"Six months in the gold mines : $b from a journal of three years' residence in Upper and Lower California. 1847-8-9","authors":[{"name":"Buffum, E. Gould (Edward Gould)","birth_year":1820,"death_year":1867}],"translators":[],"subjects":["Baja California (Mexico : Peninsula) -- Description and travel","California -- Gold discoveries","Law -- Political aspects -- California"],"bookshelves":[],"languages":["en"],"copyright":false,"media_type":"Text","formats":{"text/html":"https://www.gutenberg.org/ebooks/71574.html.images","application/epub+zip":"https://www.gutenberg.org/ebooks/71574.epub3.images","application/x-mobipocket-ebook":"https://www.gutenberg.org/ebooks/71574.kf8.images","text/plain; charset=us-ascii":"https://www.gutenberg.org/ebooks/71574.txt.utf-8","application/rdf+xml":"https://www.gutenberg.org/ebooks/71574.rdf","image/jpeg":"https://www.gutenberg.org/cache/epub/71574/pg71574.cover.medium.jpg","application/octet-stream":"https://www.gutenberg.org/files/71574/71574-h.zip"},"download_count":35},{"id":71641,"title":"The letter H, past, present, and future : $b A treatise, with rules for the silent H, based on modern usage; and notes on WH","authors":[{"name":"Leach, Alfred","birth_year":null,"death_year":1892}],"translators":[],"subjects":["English language -- Phonology"],"bookshelves":[],"languages":["en"],"copyright":false,"media_type":"Text","formats":{"text/html":"https://www.gutenberg.org/ebooks/71641.html.images","application/epub+zip":"https://www.gutenberg.org/ebooks/71641.epub3.images","application/x-mobipocket-ebook":"https://www.gutenberg.org/ebooks/71641.kf8.images","text/plain; charset=us-ascii":"https://www.gutenberg.org/ebooks/71641.txt.utf-8","application/rdf+xml":"https://www.gutenberg.org/ebooks/71641.rdf","image/jpeg":"https://www.gutenberg.org/cache/epub/71641/pg71641.cover.medium.jpg","application/octet-stream":"https://www.gutenberg.org/files/71641/71641-h.zip"},"download_count":35},{"id":71644,"title":"The chase : $b a poem","authors":[{"name":"Somerville, William","birth_year":1675,"death_year":1742}],"translators":[],"subjects":["Hunt riding -- Poetry"],"bookshelves":[],"languages":["en"],"copyright":false,"media_type":"Text","formats":{"text/html":"https://www.gutenberg.org/ebooks/71644.html.images","application/epub+zip":"https://www.gutenberg.org/ebooks/71644.epub3.images","application/x-mobipocket-ebook":"https://www.gutenberg.org/ebooks/71644.kf8.images","text/plain; charset=us-ascii":"https://www.gutenberg.org/ebooks/71644.txt.utf-8","application/rdf+xml":"https://www.gutenberg.org/ebooks/71644.rdf","image/jpeg":"https://www.gutenberg.org/cache/epub/71644/pg71644.cover.medium.jpg","application/octet-stream":"https://www.gutenberg.org/files/71644/71644-0.zip"},"download_count":35},{"id":71746,"title":"Practical school discipline : $b Applied methods, part 2","authors":[{"name":"Beery, Ray Coppock","birth_year":1892,"death_year":null}],"translators":[],"subjects":["School discipline","Teachers"],"bookshelves":[],"languages":["en"],"copyright":false,"media_type":"Text","formats":{"text/html":"https://www.gutenberg.org/ebooks/71746.html.images","application/epub+zip":"https://www.gutenberg.org/ebooks/71746.epub3.images","application/x-mobipocket-ebook":"https://www.gutenberg.org/ebooks/71746.kf8.images","text/plain; charset=us-ascii":"https://www.gutenberg.org/ebooks/71746.txt.utf-8","application/rdf+xml":"https://www.gutenberg.org/ebooks/71746.rdf","image/jpeg":"https://www.gutenberg.org/cache/epub/71746/pg71746.cover.medium.jpg","application/octet-stream":"https://www.gutenberg.org/files/71746/71746-h.zip"},"download_count":35},{"id":71750,"title":"Leaves from a middy's log","authors":[{"name":"Knight, Arthur Lee","birth_year":1852,"death_year":1944}],"translators":[],"subjects":["Adventure stories","Conduct of life -- Juvenile fiction","Cuba -- Juvenile fiction","Escapes -- Juvenile fiction","Midshipmen -- Juvenile fiction","Mutiny -- Juvenile fiction","Pirates -- Juvenile fiction","Prisoners -- Juvenile fiction","Sailors -- Juvenile fiction","Seafaring life -- Juvenile fiction","Voyages and travels -- Juvenile fiction","Youth -- Conduct of life -- Juvenile fiction"],"bookshelves":[],"languages":["en"],"copyright":false,"media_type":"Text","formats":{"text/html":"https://www.gutenberg.org/ebooks/71750.html.images","application/epub+zip":"https://www.gutenberg.org/ebooks/71750.epub3.images","application/x-mobipocket-ebook":"https://www.gutenberg.org/ebooks/71750.kf8.images","text/plain; charset=us-ascii":"https://www.gutenberg.org/ebooks/71750.txt.utf-8","application/rdf+xml":"https://www.gutenberg.org/ebooks/71750.rdf","image/jpeg":"https://www.gutenberg.org/cache/epub/71750/pg71750.cover.medium.jpg","application/octet-stream":"https://www.gutenberg.org/files/71750/71750-h.zip"},"download_count":35},{"id":71922,"title":"Essays in American history","authors":[{"name":"Ferguson, Henry","birth_year":1848,"death_year":1917}],"translators":[],"subjects":["American loyalists","Andros, Edmund, Sir, 1637-1714","Society of Friends -- New England","Witchcraft -- New England"],"bookshelves":[],"languages":["en"],"copyright":false,"media_type":"Text","formats":{"text/html":"https://www.gutenberg.org/ebooks/71922.html.images","application/epub+zip":"https://www.gutenberg.org/ebooks/71922.epub3.images","application/x-mobipocket-ebook":"https://www.gutenberg.org/ebooks/71922.kf8.images","text/plain; charset=us-ascii":"https://www.gutenberg.org/ebooks/71922.txt.utf-8","application/rdf+xml":"https://www.gutenberg.org/ebooks/71922.rdf","image/jpeg":"https://www.gutenberg.org/cache/epub/71922/pg71922.cover.medium.jpg","application/octet-stream":"https://www.gutenberg.org/cache/epub/71922/pg71922-h.zip"},"download_count":35},{"id":72000,"title":"Neither Jew nor Greek : $b a story of Jewish social life","authors":[{"name":"Guttenberg, Violet","birth_year":null,"death_year":null}],"translators":[],"subjects":["Jews -- England -- Fiction"],"bookshelves":[],"languages":["en"],"copyright":false,"media_type":"Text","formats":{"text/html":"https://www.gutenberg.org/ebooks/72000.html.images","application/epub+zip":"https://www.gutenberg.org/ebooks/72000.epub3.images","application/x-mobipocket-ebook":"https://www.gutenberg.org/ebooks/72000.kf8.images","text/plain; charset=us-ascii":"https://www.gutenberg.org/ebooks/72000.txt.utf-8","application/rdf+xml":"https://www.gutenberg.org/ebooks/72000.rdf","image/jpeg":"https://www.gutenberg.org/cache/epub/72000/pg72000.cover.medium.jpg","application/octet-stream":"https://www.gutenberg.org/cache/epub/72000/pg72000-h.zip"},"download_count":35},{"id":72073,"title":"The American Red Cross Bulletin (Vol. IV, No. 3, July 1909)","authors":[{"name":"American National Red Cross","birth_year":null,"death_year":null}],"translators":[],"subjects":["American National Red Cross -- Periodicals","Red Cross and Red Crescent -- Periodicals"],"bookshelves":[],"languages":["en"],"copyright":false,"media_type":"Text","formats":{"text/html":"https://www.gutenberg.org/ebooks/72073.html.images","application/epub+zip":"https://www.gutenberg.org/ebooks/72073.epub3.images","application/x-mobipocket-ebook":"https://www.gutenberg.org/ebooks/72073.kf8.images","text/plain; charset=us-ascii":"https://www.gutenberg.org/ebooks/72073.txt.utf-8","application/rdf+xml":"https://www.gutenberg.org/ebooks/72073.rdf","image/jpeg":"https://www.gutenberg.org/cache/epub/72073/pg72073.cover.medium.jpg","application/octet-stream":"https://www.gutenberg.org/cache/epub/72073/pg72073-h.zip"},"download_count":35},{"id":72096,"title":"Recent discussions on the abolition of patents for inventions in the United Kingdom, France, Germany, and the Netherlands : $b Evidence, speeches, and papers in its favour","authors":[],"translators":[],"subjects":["Patents"],"bookshelves":[],"languages":["en"],"copyright":false,"media_type":"Text","formats":{"text/html":"https://www.gutenberg.org/ebooks/72096.html.images","application/epub+zip":"https://www.gutenberg.org/ebooks/72096.epub3.images","application/x-mobipocket-ebook":"https://www.gutenberg.org/ebooks/72096.kf8.images","text/plain; charset=us-ascii":"https://www.gutenberg.org/ebooks/72096.txt.utf-8","application/rdf+xml":"https://www.gutenberg.org/ebooks/72096.rdf","image/jpeg":"https://www.gutenberg.org/cache/epub/72096/pg72096.cover.medium.jpg","application/octet-stream":"https://www.gutenberg.org/cache/epub/72096/pg72096-h.zip"},"download_count":35},{"id":40,"title":"NorthWestNet User Services Internet Resource Guide (NUSIRG)","authors":[{"name":"Kochmer, Jonathan","birth_year":null,"death_year":null}],"translators":[],"subjects":["Internet"],"bookshelves":[],"languages":["en"],"copyright":true,"media_type":"Text","formats":{"text/plain; charset=us-ascii":"https://www.gutenberg.org/files/40/40-readme.txt","application/pdf":"https://www.gutenberg.org/files/40/40-pdf.pdf","application/postscript":"https://www.gutenberg.org/files/40/40-ps.ps","application/rdf+xml":"https://www.gutenberg.org/ebooks/40.rdf"},"download_count":34},{"id":504,"title":"The Fifth String","authors":[{"name":"Sousa, John Philip","birth_year":1854,"death_year":1932}],"translators":[],"subjects":["Love stories","Violinists -- Fiction"],"bookshelves":[],"languages":["en"],"copyright":false,"media_type":"Text","formats":{"text/html":"https://www.gutenberg.org/ebooks/504.html.images","text/html; charset=iso-8859-1":"https://www.gutenberg.org/files/504/504-h/504-h.htm","application/epub+zip":"https://www.gutenberg.org/ebooks/504.epub3.images","application/x-mobipocket-ebook":"https://www.gutenberg.org/ebooks/504.kf8.images","text/plain; charset=us-ascii":"https://www.gutenberg.org/ebooks/504.txt.utf-8","application/rdf+xml":"https://www.gutenberg.org/ebooks/504.rdf","image/jpeg":"https://www.gutenberg.org/cache/epub/504/pg504.cover.medium.jpg","application/octet-stream":"https://www.gutenberg.org/cache/epub/504/pg504-h.zip"},"download_count":34},{"id":523,"title":"Court Life in China: The Capital, Its Officials and People","authors":[{"name":"Headland, Isaac Taylor","birth_year":1859,"death_year":1942}],"translators":[],"subjects":["China -- Court and courtiers","Cixi, Empress dowager of China, 1835-1908","Empresses -- China -- Biography","Women -- China"],"bookshelves":[],"languages":["en"],"copyright":false,"media_type":"Text","formats":{"text/html":"https://www.gutenberg.org/ebooks/523.html.images","text/html; charset=iso-8859-1":"https://www.gutenberg.org/files/523/523-h/523-h.htm","application/epub+zip":"https://www.gutenberg.org/ebooks/523.epub3.images","application/x-mobipocket-ebook":"https://www.gutenberg.org/ebooks/523.kf8.images","text/plain; charset=us-ascii":"https://www.gutenberg.org/ebooks/523.txt.utf-8","application/rdf+xml":"https://www.gutenberg.org/ebooks/523.rdf","image/jpeg":"https://www.gutenberg.org/cache/epub/523/pg523.cover.medium.jpg","application/octet-stream":"https://www.gutenberg.org/cache/epub/523/pg523-h.zip"},"download_count":34},{"id":578,"title":"Down with the Cities!","authors":[{"name":"Nakashima, Tadashi","birth_year":1920,"death_year":null}],"translators":[],"subjects":["Urban ecology (Sociology) -- Japan","Urban renewal -- Japan"],"bookshelves":[],"languages":["en"],"copyright":true,"media_type":"Text","formats":{"text/html":"https://www.gutenberg.org/ebooks/578.html.images","application/epub+zip":"https://www.gutenberg.org/ebooks/578.epub3.images","application/x-mobipocket-ebook":"https://www.gutenberg.org/ebooks/578.kf8.images","text/plain; charset=us-ascii":"https://www.gutenberg.org/ebooks/578.txt.utf-8","application/rdf+xml":"https://www.gutenberg.org/ebooks/578.rdf","image/jpeg":"https://www.gutenberg.org/cache/epub/578/pg578.cover.medium.jpg","application/octet-stream":"https://www.gutenberg.org/cache/epub/578/pg578-h.zip"},"download_count":34},{"id":579,"title":"The Poems of Sidney Lanier","authors":[{"name":"Lanier, Sidney","birth_year":1842,"death_year":1881}],"translators":[],"subjects":["American poetry","Pastoral poetry"],"bookshelves":["Poetry"],"languages":["en"],"copyright":false,"media_type":"Text","formats":{"text/html":"https://www.gutenberg.org/ebooks/579.html.images","application/epub+zip":"https://www.gutenberg.org/ebooks/579.epub3.images","application/x-mobipocket-ebook":"https://www.gutenberg.org/ebooks/579.kf8.images","text/plain; charset=us-ascii":"https://www.gutenberg.org/ebooks/579.txt.utf-8","application/rdf+xml":"https://www.gutenberg.org/ebooks/579.rdf","image/jpeg":"https://www.gutenberg.org/cache/epub/579/pg579.cover.medium.jpg","application/octet-stream":"https://www.gutenberg.org/cache/epub/579/pg579-h.zip"},"download_count":34}]}