{"count":58808,"next":"http://129.241.150.113:8000/books/?languages=en&page=1704","previous":"http://129.241.150.113:8000/books/?languages=en&page=1702","results":[{"id":69245,"title":"Stories of Christmas and the Bowie knife","authors":[{"name":"Dobie, J. Frank (James Frank)","birth_year":1888,"death_year":1964}],"translators":[],"subjects":["Bowie knife","Christmas","Texas -- History"],"bookshelves":[],"languages":["en"],"copyright":false,"media_type":"Text","formats":{"text/html":"https://www.gutenberg.org/ebooks/69245.html.images","application/epub+zip":"https://www.gutenberg.org/ebooks/69245.epub3.images","application/x-mobipocket-ebook":"https://www.gutenberg.org/ebooks/69245.kf8.images","text/plain; charset=us-ascii":"https://www.gutenberg.org/ebooks/69245.txt.utf-8","application/rdf+xml":"https://www.gutenberg.org/ebooks/69245.rdf","image/jpeg":"https://www.gutenberg.org/cache/epub/69245/pg69245.cover.medium.jpg","application/octet-stream":"https://www.gutenberg.org/files/69245/69245-0.zip"},"download_count":18},{"id":69315,"title":"In search of fortune: A tale of the old land and the new","authors":[{"name":"Stables, Gordon","birth_year":1840,"death_year":1910}],"translators":[],"subjects":["Adventure stories","Australia -- Juvenile fiction","Courtship -- Juvenile fiction","Farm life -- Juvenile fiction","Friendship -- Juvenile fiction","Gentry -- Juvenile fiction","Parent and child -- Juvenile fiction","Sailors -- Juvenile fiction","Siblings -- Juvenile fiction","Sick children -- Juvenile fiction","Twins -- Juvenile fiction","Voyages and travels -- Juvenile fiction"],"bookshelves":[],"languages":["en"],"copyright":false,"media_type":"Text","formats":{"text/html":"https://www.gutenberg.org/ebooks/69315.html.images","application/epub+zip":"https://www.gutenberg.org/ebooks/69315.epub3.images","application/x-mobipocket-ebook":"https://www.gutenberg.org/ebooks/69315.kf8.images","text/plain; charset=us-ascii":"https://www.gutenberg.org/ebooks/69315.txt.utf-8","application/rdf+xml":"https://www.gutenberg.org/ebooks/69315.rdf","image/jpeg":"https://www.gutenberg.org/cache/epub/69315/pg69315.cover.medium.jpg","application/octet-stream":"https://www.gutenberg.org/files/69315/69315-0.zip"},"download_count":18},{"id":69369,"title":"Deep channel","authors":[{"name":"Montague, Margaret Prescott","birth_year":1878,"death_year":1955}],"translators":[],"subjects":["Man-woman relationships -- Fiction","Villages -- Fiction","Virginia -- Fiction"],"bookshelves":[],"languages":["en"],"copyright":false,"media_type":"Text","formats":{"text/html":"https://www.gutenberg.org/ebooks/69369.html.images","application/epub+zip":"https://www.gutenberg.org/ebooks/69369.epub3.images","application/x-mobipocket-ebook":"https://www.gutenberg.org/ebooks/69369.kf8.images","text/plain; charset=us-ascii":"https://www.gutenberg.org/ebooks/69369.txt.utf-8","application/rdf+xml":"https://www.gutenberg.org/ebooks/69369.rdf","image/jpeg":"https://www.gutenberg.org/cache/epub/69369/pg69369.cover.medium.jpg","application/octet-stream":"https://www.gutenberg.org/files/69369/69369-0.zip"},"download_count":18},{"id":69399,"title":"The old town","authors":[{"name":"Riis, Jacob A. (Jacob August)","birth_year":1849,"death_year":1914}],"translators":[],"subjects":["Denmark -- Social life and customs","Ribe (Denmark)"],"bookshelves":[],"languages":["en"],"copyright":false,"media_type":"Text","formats":{"text/html":"https://www.gutenberg.org/ebooks/69399.html.images","application/epub+zip":"https://www.gutenberg.org/ebooks/69399.epub3.images","application/x-mobipocket-ebook":"https://www.gutenberg.org/ebooks/69399.kf8.images","text/plain; charset=us-ascii":"https://www.gutenberg.org/ebooks/69399.txt.utf-8","application/rdf+xml":"https://www.gutenberg.org/ebooks/69399.rdf","image/jpeg":"https://www.gutenberg.org/cache/epub/69399/pg69399.cover.medium.jpg","application/octet-stream":"https://www.gutenberg.org/files/69399/69399-0.zip"},"download_count":18},{"id":69405,"title":"Bolo the cave boy","authors":[{"name":"Grimes, Katharine Atherton","birth_year":1877,"death_year":1967}],"translators":[],"subjects":["Prehistoric peoples -- Juvenile fiction"],"bookshelves":[],"languages":["en"],"copyright":false,"media_type":"Text","formats":{"text/html":"https://www.gutenberg.org/ebooks/69405.html.images","application/epub+zip":"https://www.gutenberg.org/ebooks/69405.epub3.images","application/x-mobipocket-ebook":"https://www.gutenberg.org/ebooks/69405.kf8.images","text/plain; charset=us-ascii":"https://www.gutenberg.org/ebooks/69405.txt.utf-8","application/rdf+xml":"https://www.gutenberg.org/ebooks/69405.rdf","image/jpeg":"https://www.gutenberg.org/cache/epub/69405/pg69405.cover.medium.jpg","application/octet-stream":"https://www.gutenberg.org/files/69405/69405-0.zip"},"download_count":18},{"id":69480,"title":"The truth about socialism","authors":[{"name":"Benson, Allan L. (Allan Louis)","birth_year":1871,"death_year":1940}],"translators":[],"subjects":["Socialism"],"bookshelves":[],"languages":["en"],"copyright":false,"media_type":"Text","formats":{"text/html":"https://www.gutenberg.org/ebooks/69480.html.images","application/epub+zip":"https://www.gutenberg.org/ebooks/69480.epub3.images","application/x-mobipocket-ebook":"https://www.gutenberg.org/ebooks/69480.kf8.images","text/plain; charset=us-ascii":"https://www.gutenberg.org/ebooks/69480.txt.utf-8","application/rdf+xml":"https://www.gutenberg.org/ebooks/69480.rdf","image/jpeg":"https://www.gutenberg.org/cache/epub/69480/pg69480.cover.medium.jpg","application/octet-stream":"https://www.gutenberg.org/files/69480/69480-0.zip"},"download_count":18},{"id":69483,"title":"The amulet: A novel","authors":[{"name":"Craddock, Charles Egbert","birth_year":1850,"death_year":1922}],"translators":[],"subjects":["Cherokee Indians -- Fiction","Fort Prince George (S.C.) -- Fiction","South Carolina -- History -- Colonial period, ca. 1600-1775 -- Fiction"],"bookshelves":[],"languages":["en"],"copyright":false,"media_type":"Text","formats":{"text/html":"https://www.gutenberg.org/ebooks/69483.html.images","application/epub+zip":"https://www.gutenberg.org/ebooks/69483.epub3.images","application/x-mobipocket-ebook":"https://www.gutenberg.org/ebooks/69483.kf8.images","text/plain; charset=us-ascii":"https://www.gutenberg.org/ebooks/69483.txt.utf-8","application/rdf+xml":"https://www.gutenberg.org/ebooks/69483.rdf","image/jpeg":"https://www.gutenberg.org/cache/epub/69483/pg69483.cover.medium.jpg","application/octet-stream":"https://www.gutenberg.org/files/69483/69483-0.zip"},"download_count":18},{"id":69494,"title":"The professor's experiment: A novel, Vol. 1 (of 3)","authors":[{"name":"Duchess","birth_year":null,"death_year":1897}],"translators":[],"subjects":["Science fiction"],"bookshelves":[],"languages":["en"],"copyright":false,"media_type":"Text","formats":{"text/html":"https://www.gutenberg.org/ebooks/69494.html.images","application/epub+zip":"https://www.gutenberg.org/ebooks/69494.epub3.images","application/x-mobipocket-ebook":"https://www.gutenberg.org/ebooks/69494.kf8.images","text/plain; charset=us-ascii":"https://www.gutenberg.org/ebooks/69494.txt.utf-8","application/rdf+xml":"https://www.gutenberg.org/ebooks/69494.rdf","image/jpeg":"https://www.gutenberg.org/cache/epub/69494/pg69494.cover.medium.jpg","application/octet-stream":"https://www.gutenberg.org/files/69494/69494-0.zip"},"download_count":18},{"id":69587,"title":"The quenchless light","authors":[{"name":"Laut, Agnes C.","birth_year":1871,"death_year":1936}],"translators":[],"subjects":["Church history -- Primitive and early church, ca. 30-600 -- Fiction"],"bookshelves":[],"languages":["en"],"copyright":false,"media_type":"Text","formats":{"text/html":"https://www.gutenberg.org/ebooks/69587.html.images","application/epub+zip":"https://www.gutenberg.org/ebooks/69587.epub3.images","application/x-mobipocket-ebook":"https://www.gutenberg.org/ebooks/69587.kf8.images","text/plain; charset=us-ascii":"https://www.gutenberg.org/ebooks/69587.txt.utf-8","application/rdf+xml":"https://www.gutenberg.org/ebooks/69587.rdf","image/jpeg":"https://www.gutenberg.org/cache/epub/69587/pg69587.cover.medium.jpg","application/octet-stream":"https://www.gutenberg.org/files/69587/69587-0.zip"},"download_count":18},{"id":69619,"title":"Character of Renaissance Architecture","authors":[{"name":"Moore, Charles Herbert","birth_year":1840,"death_year":1930}],"translators":[],"subjects":["Architecture, Renaissance"],"bookshelves":[],"languages":["en"],"copyright":false,"media_type":"Text","formats":{"text/html":"https://www.gutenberg.org/ebooks/69619.html.images","application/epub+zip":"https://www.gutenberg.org/ebooks/69619.epub3.images","application/x-mobipocket-ebook":"https://www.gutenberg.org/ebooks/69619.kf8.images","text/plain; charset=us-ascii":"https://www.gutenberg.org/ebooks/69619.txt.utf-8","application/rdf+xml":"https://www.gutenberg.org/ebooks/69619.rdf","image/jpeg":"https://www.gutenberg.org/cache/epub/69619/pg69619.cover.medium.jpg","application/octet-stream":"https://www.gutenberg.org/files/69619/69619-0.zip"},"download_count":18},{"id":69636,"title":"Salome Shepard, reformer","authors":[{"name":"Winslow, Helen M. (Helen Maria)","birth_year":1851,"death_year":1938}],"translators":[],"subjects":["Industrial relations -- Fiction","Mills and mill-work -- Fiction","New England -- Fiction","Reformers -- Fiction","Utopias -- Fiction","Young women -- Fiction"],"bookshelves":[],"languages":["en"],"copyright":false,"media_type":"Text","formats":{"text/html":"https://www.gutenberg.org/ebooks/69636.html.images","application/epub+zip":"https://www.gutenberg.org/ebooks/69636.epub3.images","application/x-mobipocket-ebook":"https://www.gutenberg.org/ebooks/69636.kf8.images","text/plain; charset=us-ascii":"https://www.gutenberg.org/ebooks/69636.txt.utf-8","application/rdf+xml":"https://www.gutenberg.org/ebooks/69636.rdf","image/jpeg":"https://www.gutenberg.org/cache/epub/69636/pg69636.cover.medium.jpg","application/octet-stream":"https://www.gutenberg.org/files/69636/69636-0.zip"},"download_count":18},{"id":69671,"title":"Greener than spruce","authors":[{"name":"Farris, Herbert","birth_year":null,"death_year":null}],"translators":[],"subjects":["Gold mines and mining -- Alaska -- Fiction","Short stories"],"bookshelves":[],"languages":["en"],"copyright":false,"media_type":"Text","formats":{"text/html":"https://www.gutenberg.org/ebooks/69671.html.images","application/epub+zip":"https://www.gutenberg.org/ebooks/69671.epub3.images","application/x-mobipocket-ebook":"https://www.gutenberg.org/ebooks/69671.kf8.images","text/plain; charset=us-ascii":"https://www.gutenberg.org/ebooks/69671.txt.utf-8","application/rdf+xml":"https://www.gutenberg.org/ebooks/69671.rdf","image/jpeg":"https://www.gutenberg.org/cache/epub/69671/pg69671.cover.medium.jpg","application/octet-stream":"https://www.gutenberg.org/files/69671/69671-0.zip"},"download_count":18},{"id":69791,"title":"The testing of Janice Day","authors":[{"name":"Long, Helen Beecher","birth_year":null,"death_year":null}],"translators":[],"subjects":["Automobiles -- Juvenile fiction","Bildungsromans","Families -- Juvenile fiction","Fathers and daughters -- Juvenile fiction","Young women -- Social life and customs -- Juvenile fiction"],"bookshelves":[],"languages":["en"],"copyright":false,"media_type":"Text","formats":{"text/html":"https://www.gutenberg.org/ebooks/69791.html.images","application/epub+zip":"https://www.gutenberg.org/ebooks/69791.epub3.images","application/x-mobipocket-ebook":"https://www.gutenberg.org/ebooks/69791.kf8.images","text/plain; charset=us-ascii":"https://www.gutenberg.org/ebooks/69791.txt.utf-8","application/rdf+xml":"https://www.gutenberg.org/ebooks/69791.rdf","image/jpeg":"https://www.gutenberg.org/cache/epub/69791/pg69791.cover.medium.jpg","application/octet-stream":"https://www.gutenberg.org/files/69791/69791-0.zip"},"download_count":18},{"id":69805,"title":"The Little Review, April 1916 (Vol. 3, No. 2)","authors":[{"name":"Various","birth_year":null,"death_year":null}],"translators":[],"subjects":["Literature, Modern -- 20th century -- Periodicals"],"bookshelves":[],"languages":["en"],"copyright":false,"media_type":"Text","formats":{"text/html":"https://www.gutenberg.org/ebooks/69805.html.images","application/epub+zip":"https://www.gutenberg.org/ebooks/69805.epub3.images","application/x-mobipocket-ebook":"https://www.gutenberg.org/ebooks/69805.kf8.images","text/plain; charset=us-ascii":"https://www.gutenberg.org/ebooks/69805.txt.utf-8","application/rdf+xml":"https://www.gutenberg.org/ebooks/69805.rdf","image/jpeg":"https://www.gutenberg.org/cache/epub/69805/pg69805.cover.medium.jpg","application/octet-stream":"https://www.gutenberg.org/files/69805/69805-0.zip"},"download_count":18},{"id":69823,"title":"Public health and insurance: American addresses","authors":[{"name":"Newsholme, Arthur, Sir","birth_year":1857,"death_year":1943}],"translators":[],"subjects":["Health insurance -- Great Britain","Public health","Public health -- Great Britain"],"bookshelves":[],"languages":["en"],"copyright":false,"media_type":"Text","formats":{"text/html":"https://www.gutenberg.org/ebooks/69823.html.images","application/epub+zip":"https://www.gutenberg.org/ebooks/69823.epub3.images","application/x-mobipocket-ebook":"https://www.gutenberg.org/ebooks/69823.kf8.images","text/plain; charset=us-ascii":"https://www.gutenberg.org/ebooks/69823.txt.utf-8","application/rdf+xml":"https://www.gutenberg.org/ebooks/69823.rdf","image/jpeg":"https://www.gutenberg.org/cache/epub/69823/pg69823.cover.medium.jpg","application/octet-stream":"https://www.gutenberg.org/files/69823/69823-0.zip"},"download_count":18},{"id":69836,"title":"Down the Mackenzie and up the Yukon in 1906","authors":[{"name":"Stewart, Elihu","birth_year":1844,"death_year":1935}],"translators":[],"subjects":["Mackenzie (N.W.T.) -- Description and travel","Northwest, Canadian -- Description and travel","Yukon River Valley (Yukon and Alaska) -- Description and travel"],"bookshelves":[],"languages":["en"],"copyright":false,"media_type":"Text","formats":{"text/html":"https://www.gutenberg.org/ebooks/69836.html.images","application/epub+zip":"https://www.gutenberg.org/ebooks/69836.epub3.images","application/x-mobipocket-ebook":"https://www.gutenberg.org/ebooks/69836.kf8.images","text/plain; charset=us-ascii":"https://www.gutenberg.org/ebooks/69836.txt.utf-8","application/rdf+xml":"https://www.gutenberg.org/ebooks/69836.rdf","image/jpeg":"https://www.gutenberg.org/cache/epub/69836/pg69836.cover.medium.jpg","application/octet-stream":"https://www.gutenberg.org/files/69836/69836-0.zip"},"download_count":18},{"id":69856,"title":"Orpheus; or, The music of the future","authors":[{"name":"Turner, W. J. (Walter James)","birth_year":1884,"death_year":1946}],"translators":[],"subjects":["Music -- Philosophy and aesthetics"],"bookshelves":[],"languages":["en"],"copyright":false,"media_type":"Text","formats":{"text/html":"https://www.gutenberg.org/ebooks/69856.html.images","application/epub+zip":"https://www.gutenberg.org/ebooks/69856.epub3.images","application/x-mobipocket-ebook":"https://www.gutenberg.org/ebooks/69856.kf8.images","text/plain; charset=us-ascii":"https://www.gutenberg.org/ebooks/69856.txt.utf-8","application/rdf+xml":"https://www.gutenberg.org/ebooks/69856.rdf","image/jpeg":"https://www.gutenberg.org/cache/epub/69856/pg69856.cover.medium.jpg","application/octet-stream":"https://www.gutenberg.org/files/69856/69856-0.zip"},"download_count":18},{"id":69870,"title":"Rose Mather: A tale","authors":[{"name":"Holmes, Mary Jane","birth_year":1825,"death_year":1907}],"translators":[],"subjects":["United States -- History -- Civil War, 1861-1865 -- Fiction"],"bookshelves":[],"languages":["en"],"copyright":false,"media_type":"Text","formats":{"text/html":"https://www.gutenberg.org/ebooks/69870.html.images","application/epub+zip":"https://www.gutenberg.org/ebooks/69870.epub3.images","application/x-mobipocket-ebook":"https://www.gutenberg.org/ebooks/69870.kf8.images","text/plain; charset=us-ascii":"https://www.gutenberg.org/ebooks/69870.txt.utf-8","application/rdf+xml":"https://www.gutenberg.org/ebooks/69870.rdf","image/jpeg":"https://www.gutenberg.org/cache/epub/69870/pg69870.cover.medium.jpg","application/octet-stream":"https://www.gutenberg.org/files/69870/69870-0.zip"},"download_count":18},{"id":69881,"title":"Preservation of forests as a measure of public safety: Address before the 17th National Irrigation Congress, Spokane, Wash., August, 1909","authors":[{"name":"Baeta Neves, Lourenço","birth_year":1876,"death_year":1948}],"translators":[],"subjects":["Forests and forestry","Forests and forestry -- Brazil"],"bookshelves":[],"languages":["en"],"copyright":false,"media_type":"Text","formats":{"text/html":"https://www.gutenberg.org/ebooks/69881.html.images","application/epub+zip":"https://www.gutenberg.org/ebooks/69881.epub3.images","application/x-mobipocket-ebook":"https://www.gutenberg.org/ebooks/69881.kf8.images","text/plain; charset=us-ascii":"https://www.gutenberg.org/ebooks/69881.txt.utf-8","application/rdf+xml":"https://www.gutenberg.org/ebooks/69881.rdf","image/jpeg":"https://www.gutenberg.org/cache/epub/69881/pg69881.cover.medium.jpg","application/octet-stream":"https://www.gutenberg.org/files/69881/69881-0.zip"},"download_count":18},{"id":69980,"title":"Yanks : $b A.E.F. verse: originally published in \"The Stars and Stripes,\" the official newspaper of the American expeditionary forces","authors":[{"name":"Various","birth_year":null,"death_year":null}],"translators":[],"subjects":["American poetry -- 20th century","World War, 1914-1918 -- Poetry"],"bookshelves":[],"languages":["en"],"copyright":false,"media_type":"Text","formats":{"text/html":"https://www.gutenberg.org/ebooks/69980.html.images","application/epub+zip":"https://www.gutenberg.org/ebooks/69980.epub3.images","application/x-mobipocket-ebook":"https://www.gutenberg.org/ebooks/69980.kf8.images","text/plain; charset=us-ascii":"https://www.gutenberg.org/ebooks/69980.txt.utf-8","application/rdf+xml":"https://www.gutenberg.org/ebooks/69980.rdf","image/jpeg":"https://www.gutenberg.org/cache/epub/69980/pg69980.cover.medium.jpg","application/octet-stream":"https://www.gutenberg.org/files/69980/69980-0.zip"},"download_count":18},{"id":69994,"title":"The triumphs of perseverance and enterprise, recorded as examples for the young","authors":[{"name":"Cooper, Thomas","birth_year":1805,"death_year":1892}],"translators":[],"subjects":["Biography"],"bookshelves":[],"languages":["en"],"copyright":false,"media_type":"Text","formats":{"text/html":"https://www.gutenberg.org/ebooks/69994.html.images","application/epub+zip":"https://www.gutenberg.org/ebooks/69994.epub3.images","application/x-mobipocket-ebook":"https://www.gutenberg.org/ebooks/69994.kf8.images","text/plain; charset=us-ascii":"https://www.gutenberg.org/ebooks/69994.txt.utf-8","application/rdf+xml":"https://www.gutenberg.org/ebooks/69994.rdf","image/jpeg":"https://www.gutenberg.org/cache/epub/69994/pg69994.cover.medium.jpg","application/octet-stream":"https://www.gutenberg.org/files/69994/69994-0.zip"},"download_count":18},{"id":70005,"title":"If at first","authors":[{"name":"Venable, Bill","birth_year":null,"death_year":null}],"translators":[],"subjects":["Science fiction","Short stories"],"bookshelves":[],"languages":["en"],"copyright":false,"media_type":"Text","formats":{"text/html":"https://www.gutenberg.org/ebooks/70005.html.images","application/epub+zip":"https://www.gutenberg.org/ebooks/70005.epub3.images","application/x-mobipocket-ebook":"https://www.gutenberg.org/ebooks/70005.kf8.images","text/plain; charset=us-ascii":"https://www.gutenberg.org/ebooks/70005.txt.utf-8","application/rdf+xml":"https://www.gutenberg.org/ebooks/70005.rdf","image/jpeg":"https://www.gutenberg.org/cache/epub/70005/pg70005.cover.medium.jpg","application/octet-stream":"https://www.gutenberg.org/files/70005/70005-0.zip"},"download_count":18},{"id":70030,"title":"Off the Bluebush : $b Verses for Australians West and East","authors":[{"name":"Bourke, J. P. (John Philip)","birth_year":1860,"death_year":1914}],"translators":[],"subjects":["Australian poetry"],"bookshelves":[],"languages":["en"],"copyright":false,"media_type":"Text","formats":{"text/html":"https://www.gutenberg.org/ebooks/70030.html.images","application/epub+zip":"https://www.gutenberg.org/ebooks/70030.epub3.images","application/x-mobipocket-ebook":"https://www.gutenberg.org/ebooks/70030.kf8.images","text/plain; charset=us-ascii":"https://www.gutenberg.org/ebooks/70030.txt.utf-8","application/rdf+xml":"https://www.gutenberg.org/ebooks/70030.rdf","image/jpeg":"https://www.gutenberg.org/cache/epub/70030/pg70030.cover.medium.jpg","application/octet-stream":"https://www.gutenberg.org/files/70030/70030-0.zip"},"download_count":18},{"id":70093,"title":"The heathery; or, A monograph of the genus Erica. vol. 5","authors":[{"name":"Andrews, Henry Cranke, active 1799-1828","birth_year":null,"death_year":null}],"translators":[],"subjects":["Ericas","Ericas -- Pictorial works"],"bookshelves":[],"languages":["en"],"copyright":false,"media_type":"Text","formats":{"text/html":"https://www.gutenberg.org/ebooks/70093.html.images","application/epub+zip":"https://www.gutenberg.org/ebooks/70093.epub3.images","application/x-mobipocket-ebook":"https://www.gutenberg.org/ebooks/70093.kf8.images","text/plain; charset=us-ascii":"https://www.gutenberg.org/ebooks/70093.txt.utf-8","application/rdf+xml":"https://www.gutenberg.org/ebooks/70093.rdf","image/jpeg":"https://www.gutenberg.org/cache/epub/70093/pg70093.cover.medium.jpg","application/octet-stream":"https://www.gutenberg.org/files/70093/70093-0.zip"},"download_count":18},{"id":70146,"title":"The perverse Erse","authors":[{"name":"Coblentz, Adrien","birth_year":null,"death_year":null}],"translators":[],"subjects":["Fantasy fiction","Ireland -- Fiction","Irish Americans -- Fiction","Short stories"],"bookshelves":[],"languages":["en"],"copyright":false,"media_type":"Text","formats":{"text/html":"https://www.gutenberg.org/ebooks/70146.html.images","application/epub+zip":"https://www.gutenberg.org/ebooks/70146.epub3.images","application/x-mobipocket-ebook":"https://www.gutenberg.org/ebooks/70146.kf8.images","text/plain; charset=us-ascii":"https://www.gutenberg.org/ebooks/70146.txt.utf-8","application/rdf+xml":"https://www.gutenberg.org/ebooks/70146.rdf","image/jpeg":"https://www.gutenberg.org/cache/epub/70146/pg70146.cover.medium.jpg","application/octet-stream":"https://www.gutenberg.org/files/70146/70146-0.zip"},"download_count":18},{"id":70159,"title":"The little Barefoot : $b A tale","authors":[{"name":"Auerbach, Berthold","birth_year":1812,"death_year":1882}],"translators":[{"name":"Lee, Eliza Buckminster","birth_year":1794,"death_year":1864}],"subjects":["Children -- Conduct of life -- Juvenile fiction","Children and death -- Juvenile fiction","Conduct of life -- Juvenile fiction","Germany -- Juvenile fiction","Orphans -- Juvenile fiction","Siblings -- Juvenile fiction","Villages -- Juvenile fiction"],"bookshelves":[],"languages":["en"],"copyright":false,"media_type":"Text","formats":{"text/html":"https://www.gutenberg.org/ebooks/70159.html.images","application/epub+zip":"https://www.gutenberg.org/ebooks/70159.epub3.images","application/x-mobipocket-ebook":"https://www.gutenberg.org/ebooks/70159.kf8.images","text/plain; charset=us-ascii":"https://www.gutenberg.org/ebooks/70159.txt.utf-8","application/rdf+xml":"https://www.gutenberg.org/ebooks/70159.rdf","image/jpeg":"https://www.gutenberg.org/cache/epub/70159/pg70159.cover.medium.jpg","application/octet-stream":"https://www.gutenberg.org/files/70159/70159-0.zip"},"download_count":18},{"id":70200,"title":"Pen-portraits of literary women : $b by themselves and others, Volume 2 (of 2)","authors":[],"translators":[],"subjects":["Authors, English -- Biography","Women authors, English -- Biography"],"bookshelves":[],"languages":["en"],"copyright":false,"media_type":"Text","formats":{"text/html":"https://www.gutenberg.org/ebooks/70200.html.images","application/epub+zip":"https://www.gutenberg.org/ebooks/70200.epub3.images","application/x-mobipocket-ebook":"https://www.gutenberg.org/ebooks/70200.kf8.images","text/plain; charset=us-ascii":"https://www.gutenberg.org/ebooks/70200.txt.utf-8","application/rdf+xml":"https://www.gutenberg.org/ebooks/70200.rdf","image/jpeg":"https://www.gutenberg.org/cache/epub/70200/pg70200.cover.medium.jpg","application/octet-stream":"https://www.gutenberg.org/files/70200/70200-0.zip"},"download_count":18},{"id":70284,"title":"Dream tapestries","authors":[{"name":"Bowman, Louise Morey","birth_year":1882,"death_year":1944}],"translators":[],"subjects":["Canadian poetry -- 20th century"],"bookshelves":[],"languages":["en"],"copyright":false,"media_type":"Text","formats":{"text/html":"https://www.gutenberg.org/ebooks/70284.html.images","application/epub+zip":"https://www.gutenberg.org/ebooks/70284.epub3.images","application/x-mobipocket-ebook":"https://www.gutenberg.org/ebooks/70284.kf8.images","text/plain; charset=us-ascii":"https://www.gutenberg.org/ebooks/70284.txt.utf-8","application/rdf+xml":"https://www.gutenberg.org/ebooks/70284.rdf","image/jpeg":"https://www.gutenberg.org/cache/epub/70284/pg70284.cover.medium.jpg","application/octet-stream":"https://www.gutenberg.org/files/70284/70284-0.zip"},"download_count":18},{"id":70399,"title":"The clammer","authors":[{"name":"Hopkins, William John","birth_year":1863,"death_year":1926}],"translators":[],"subjects":["New England -- Social life and customs -- 20th century -- Fiction"],"bookshelves":[],"languages":["en"],"copyright":false,"media_type":"Text","formats":{"text/html":"https://www.gutenberg.org/ebooks/70399.html.images","application/epub+zip":"https://www.gutenberg.org/ebooks/70399.epub3.images","application/x-mobipocket-ebook":"https://www.gutenberg.org/ebooks/70399.kf8.images","text/plain; charset=us-ascii":"https://www.gutenberg.org/ebooks/70399.txt.utf-8","application/rdf+xml":"https://www.gutenberg.org/ebooks/70399.rdf","image/jpeg":"https://www.gutenberg.org/cache/epub/70399/pg70399.cover.medium.jpg","application/octet-stream":"https://www.gutenberg.org/files/70399/70399-0.zip"},"download_count":18},{"id":70472,"title":"Randvar the songsmith : $b A romance of Norumbega","authors":[{"name":"Liljencrantz, Ottilie A. (Ottilia Adelina)","birth_year":1876,"death_year":1910}],"translators":[],"subjects":["America -- Discovery and exploration -- Fiction","Discoveries in geography -- Fiction","Historical fiction","Northmen -- Fiction","Norumbega (Legendary place) -- Fiction"],"bookshelves":[],"languages":["en"],"copyright":false,"media_type":"Text","formats":{"text/html":"https://www.gutenberg.org/ebooks/70472.html.images","application/epub+zip":"https://www.gutenberg.org/ebooks/70472.epub3.images","application/x-mobipocket-ebook":"https://www.gutenberg.org/ebooks/70472.kf8.images","text/plain; charset=us-ascii":"https://www.gutenberg.org/ebooks/70472.txt.utf-8","application/rdf+xml":"https://www.gutenberg.org/ebooks/70472.rdf","image/jpeg":"https://www.gutenberg.org/cache/epub/70472/pg70472.cover.medium.jpg","application/octet-stream":"https://www.gutenberg.org/files/70472/70472-0.zip"},"download_count":18},{"id":70485,"title":"The things which belong—","authors":[{"name":"Holme, Constance","birth_year":1880,"death_year":1955}],"translators":[],"subjects":["Canada -- Emigration and immigration -- Fiction","England -- Fiction","Older couples -- Fiction","Spouses -- Fiction"],"bookshelves":[],"languages":["en"],"copyright":false,"media_type":"Text","formats":{"text/html":"https://www.gutenberg.org/ebooks/70485.html.images","application/epub+zip":"https://www.gutenberg.org/ebooks/70485.epub3.images","application/x-mobipocket-ebook":"https://www.gutenberg.org/ebooks/70485.kf8.images","text/plain; charset=us-ascii":"https://www.gutenberg.org/ebooks/70485.txt.utf-8","application/rdf+xml":"https://www.gutenberg.org/ebooks/70485.rdf","image/jpeg":"https://www.gutenberg.org/cache/epub/70485/pg70485.cover.medium.jpg","application/octet-stream":"https://www.gutenberg.org/files/70485/70485-0.zip"},"download_count":18},{"id":70490,"title":"Polite bunny","authors":[{"name":"Smith, Laura Rountree","birth_year":1876,"death_year":1924}],"translators":[],"subjects":["Etiquette -- Juvenile fiction","Rabbits -- Juvenile fiction"],"bookshelves":[],"languages":["en"],"copyright":false,"media_type":"Text","formats":{"text/html":"https://www.gutenberg.org/ebooks/70490.html.images","application/epub+zip":"https://www.gutenberg.org/ebooks/70490.epub3.images","application/x-mobipocket-ebook":"https://www.gutenberg.org/ebooks/70490.kf8.images","text/plain; charset=us-ascii":"https://www.gutenberg.org/ebooks/70490.txt.utf-8","application/rdf+xml":"https://www.gutenberg.org/ebooks/70490.rdf","image/jpeg":"https://www.gutenberg.org/cache/epub/70490/pg70490.cover.medium.jpg","application/octet-stream":"https://www.gutenberg.org/files/70490/70490-0.zip"},"download_count":18}]}