{"count":58808,"next":"http://129.241.150.113:8000/books/?languages=en&page=1502","previous":"http://129.241.150.113:8000/books/?languages=en&page=1500","results":[{"id":71140,"title":"The works of the Reverend George Whitefield, Vol. 2 (of 6)","authors":[{"name":"Whitefield, George","birth_year":1714,"death_year":1770}],"translators":[],"subjects":["Presbyterian Church -- Clergy -- Early works to 1800","Presbyterian Church -- Sermons -- Early works to 1800","Sermons, English -- 18th century","Whitefield, George, 1714-1770 -- Early works to 1800"],"bookshelves":[],"languages":["en"],"copyright":false,"media_type":"Text","formats":{"text/html":"https://www.gutenberg.org/ebooks/71140.html.images","application/epub+zip":"https://www.gutenberg.org/ebooks/71140.epub3.images","application/x-mobipocket-ebook":"https://www.gutenberg.org/ebooks/71140.kf8.images","text/plain; charset=us-ascii":"https://www.gutenberg.org/ebooks/71140.txt.utf-8","application/rdf+xml":"https://www.gutenberg.org/ebooks/71140.rdf","image/jpeg":"https://www.gutenberg.org/cache/epub/71140/pg71140.cover.medium.jpg","application/octet-stream":"https://www.gutenberg.org/files/71140/71140-0.zip"},"download_count":24},{"id":71323,"title":"Roy : $b A tale in the days of Sir John Moore","authors":[{"name":"Giberne, Agnes","birth_year":1845,"death_year":1939}],"translators":[],"subjects":["Historical fiction","Moore, John, Sir 1761-1809 -- Fiction","Napoleonic Wars, 1800-1815 -- Prisoners and prisons, French -- Fiction","Peninsular War, 1807-1814 -- Fiction"],"bookshelves":[],"languages":["en"],"copyright":false,"media_type":"Text","formats":{"text/html":"https://www.gutenberg.org/ebooks/71323.html.images","application/epub+zip":"https://www.gutenberg.org/ebooks/71323.epub3.images","application/x-mobipocket-ebook":"https://www.gutenberg.org/ebooks/71323.kf8.images","text/plain; charset=us-ascii":"https://www.gutenberg.org/ebooks/71323.txt.utf-8","application/rdf+xml":"https://www.gutenberg.org/ebooks/71323.rdf","image/jpeg":"https://www.gutenberg.org/cache/epub/71323/pg71323.cover.medium.jpg","application/octet-stream":"https://www.gutenberg.org/files/71323/71323-0.zip"},"download_count":24},{"id":71371,"title":"The wonder stick","authors":[{"name":"Coblentz, Stanton A. (Stanton Arthur)","birth_year":1896,"death_year":1982}],"translators":[],"subjects":["Cave dwellers -- Fiction","Prehistoric peoples -- Fiction"],"bookshelves":[],"languages":["en"],"copyright":false,"media_type":"Text","formats":{"text/html":"https://www.gutenberg.org/ebooks/71371.html.images","application/epub+zip":"https://www.gutenberg.org/ebooks/71371.epub3.images","application/x-mobipocket-ebook":"https://www.gutenberg.org/ebooks/71371.kf8.images","text/plain; charset=us-ascii":"https://www.gutenberg.org/ebooks/71371.txt.utf-8","application/rdf+xml":"https://www.gutenberg.org/ebooks/71371.rdf","image/jpeg":"https://www.gutenberg.org/cache/epub/71371/pg71371.cover.medium.jpg","application/octet-stream":"https://www.gutenberg.org/files/71371/71371-h.zip"},"download_count":24},{"id":71498,"title":"Chambers's Journal of Popular Literature, Science, and Art, fifth series, no. 130, vol. III, June 26, 1886","authors":[{"name":"Various","birth_year":null,"death_year":null}],"translators":[],"subjects":["Periodicals"],"bookshelves":[],"languages":["en"],"copyright":false,"media_type":"Text","formats":{"text/html":"https://www.gutenberg.org/ebooks/71498.html.images","application/epub+zip":"https://www.gutenberg.org/ebooks/71498.epub3.images","application/x-mobipocket-ebook":"https://www.gutenberg.org/ebooks/71498.kf8.images","text/plain; charset=us-ascii":"https://www.gutenberg.org/ebooks/71498.txt.utf-8","application/rdf+xml":"https://www.gutenberg.org/ebooks/71498.rdf","image/jpeg":"https://www.gutenberg.org/cache/epub/71498/pg71498.cover.medium.jpg","application/octet-stream":"https://www.gutenberg.org/files/71498/71498-h.zip"},"download_count":24},{"id":71544,"title":"Illustrations of political economy, Volume 4 (of 9)","authors":[{"name":"Martineau, Harriet","birth_year":1802,"death_year":1876}],"translators":[],"subjects":["Didactic fiction, English","Political fiction, English","Social problems -- Fiction"],"bookshelves":[],"languages":["en"],"copyright":false,"media_type":"Text","formats":{"text/html":"https://www.gutenberg.org/ebooks/71544.html.images","application/epub+zip":"https://www.gutenberg.org/ebooks/71544.epub3.images","application/x-mobipocket-ebook":"https://www.gutenberg.org/ebooks/71544.kf8.images","text/plain; charset=us-ascii":"https://www.gutenberg.org/ebooks/71544.txt.utf-8","application/rdf+xml":"https://www.gutenberg.org/ebooks/71544.rdf","image/jpeg":"https://www.gutenberg.org/cache/epub/71544/pg71544.cover.medium.jpg","application/octet-stream":"https://www.gutenberg.org/files/71544/71544-h.zip"},"download_count":24},{"id":71547,"title":"A journey in search of Christmas","authors":[{"name":"Wister, Owen","birth_year":1860,"death_year":1938}],"translators":[],"subjects":["Christmas stories","Western stories"],"bookshelves":[],"languages":["en"],"copyright":false,"media_type":"Text","formats":{"text/html":"https://www.gutenberg.org/ebooks/71547.html.images","application/epub+zip":"https://www.gutenberg.org/ebooks/71547.epub3.images","application/x-mobipocket-ebook":"https://www.gutenberg.org/ebooks/71547.kf8.images","text/plain; charset=us-ascii":"https://www.gutenberg.org/ebooks/71547.txt.utf-8","application/rdf+xml":"https://www.gutenberg.org/ebooks/71547.rdf","image/jpeg":"https://www.gutenberg.org/cache/epub/71547/pg71547.cover.medium.jpg","application/octet-stream":"https://www.gutenberg.org/files/71547/71547-h.zip"},"download_count":24},{"id":71668,"title":"Julia Cary and her kitten","authors":[{"name":"Miller, M. E. (Mary Esther)","birth_year":1826,"death_year":1896}],"translators":[],"subjects":["Girls -- Juvenile fiction","Kittens -- Juvenile fiction","Motherless families -- Juvenile fiction"],"bookshelves":[],"languages":["en"],"copyright":false,"media_type":"Text","formats":{"text/html":"https://www.gutenberg.org/ebooks/71668.html.images","application/epub+zip":"https://www.gutenberg.org/ebooks/71668.epub3.images","application/x-mobipocket-ebook":"https://www.gutenberg.org/ebooks/71668.kf8.images","text/plain; charset=us-ascii":"https://www.gutenberg.org/ebooks/71668.txt.utf-8","application/rdf+xml":"https://www.gutenberg.org/ebooks/71668.rdf","image/jpeg":"https://www.gutenberg.org/cache/epub/71668/pg71668.cover.medium.jpg","application/octet-stream":"https://www.gutenberg.org/files/71668/71668-h.zip"},"download_count":24},{"id":433,"title":"The Conflict","authors":[{"name":"Phillips, David Graham","birth_year":1867,"death_year":1911}],"translators":[],"subjects":["Man-woman relationships -- Fiction","Political fiction","Social classes -- United States -- Fiction","Women -- Social conditions -- Fiction"],"bookshelves":[],"languages":["en"],"copyright":false,"media_type":"Text","formats":{"text/html":"https://www.gutenberg.org/ebooks/433.html.images","text/html; charset=iso-8859-1":"https://www.gutenberg.org/files/433/433-h/433-h.htm","application/epub+zip":"https://www.gutenberg.org/ebooks/433.epub3.images","application/x-mobipocket-ebook":"https://www.gutenberg.org/ebooks/433.kf8.images","text/plain; charset=us-ascii":"https://www.gutenberg.org/ebooks/433.txt.utf-8","application/rdf+xml":"https://www.gutenberg.org/ebooks/433.rdf","image/jpeg":"https://www.gutenberg.org/cache/epub/433/pg433.cover.medium.jpg","application/octet-stream":"https://www.gutenberg.org/cache/epub/433/pg433-h.zip"},"download_count":23},{"id":458,"title":"Dreams and Dust","authors":[{"name":"Marquis, Don","birth_year":1878,"death_year":1937}],"translators":[],"subjects":["American poetry"],"bookshelves":[],"languages":["en"],"copyright":false,"media_type":"Text","formats":{"text/html":"https://www.gutenberg.org/ebooks/458.html.images","application/epub+zip":"https://www.gutenberg.org/ebooks/458.epub3.images","application/x-mobipocket-ebook":"https://www.gutenberg.org/ebooks/458.kf8.images","text/plain; charset=us-ascii":"https://www.gutenberg.org/ebooks/458.txt.utf-8","application/rdf+xml":"https://www.gutenberg.org/ebooks/458.rdf","image/jpeg":"https://www.gutenberg.org/cache/epub/458/pg458.cover.medium.jpg","application/octet-stream":"https://www.gutenberg.org/cache/epub/458/pg458-h.zip"},"download_count":23},{"id":635,"title":"The Square Root of 10","authors":[{"name":"Bonnell, Jerry T.","birth_year":null,"death_year":null},{"name":"Nemiroff, Robert J.","birth_year":null,"death_year":null}],"translators":[],"subjects":["Mathematics","Square root"],"bookshelves":["Mathematics"],"languages":["en"],"copyright":false,"media_type":"Dataset","formats":{"text/plain; charset=us-ascii":"https://www.gutenberg.org/files/635/635.txt","application/rdf+xml":"https://www.gutenberg.org/ebooks/635.rdf"},"download_count":23},{"id":776,"title":"Hermione and Her Little Group of Serious Thinkers","authors":[{"name":"Marquis, Don","birth_year":1878,"death_year":1937}],"translators":[],"subjects":["Satire","Superficiality -- Fiction","Young women -- Fiction"],"bookshelves":[],"languages":["en"],"copyright":false,"media_type":"Text","formats":{"text/html":"https://www.gutenberg.org/ebooks/776.html.images","application/epub+zip":"https://www.gutenberg.org/ebooks/776.epub3.images","application/x-mobipocket-ebook":"https://www.gutenberg.org/ebooks/776.kf8.images","text/plain; charset=us-ascii":"https://www.gutenberg.org/ebooks/776.txt.utf-8","application/rdf+xml":"https://www.gutenberg.org/ebooks/776.rdf","image/jpeg":"https://www.gutenberg.org/cache/epub/776/pg776.cover.medium.jpg","application/octet-stream":"https://www.gutenberg.org/cache/epub/776/pg776-h.zip"},"download_count":23},{"id":1108,"title":"The Two Gentlemen of Verona","authors":[{"name":"Shakespeare, William","birth_year":1564,"death_year":1616}],"translators":[],"subjects":["Comedies","Exiles -- Drama","Triangles (Interpersonal relations) -- Drama","Verona (Italy) -- Drama"],"bookshelves":[],"languages":["en"],"copyright":false,"media_type":"Text","formats":{"text/html":"https://www.gutenberg.org/ebooks/1108.html.images","application/epub+zip":"https://www.gutenberg.org/ebooks/1108.epub3.images","application/x-mobipocket-ebook":"https://www.gutenberg.org/ebooks/1108.kf8.images","text/plain; charset=us-ascii":"https://www.gutenberg.org/ebooks/1108.txt.utf-8","application/rdf+xml":"https://www.gutenberg.org/ebooks/1108.rdf","image/jpeg":"https://www.gutenberg.org/cache/epub/1108/pg1108.cover.medium.jpg","application/octet-stream":"https://www.gutenberg.org/cache/epub/1108/pg1108-h.zip"},"download_count":23},{"id":1224,"title":"Sidney Lanier","authors":[{"name":"Mims, Edwin","birth_year":1872,"death_year":1959}],"translators":[],"subjects":["Lanier, Sidney, 1842-1881","Poets, American -- 19th century -- Biography"],"bookshelves":[],"languages":["en"],"copyright":false,"media_type":"Text","formats":{"text/html":"https://www.gutenberg.org/ebooks/1224.html.images","application/epub+zip":"https://www.gutenberg.org/ebooks/1224.epub3.images","application/x-mobipocket-ebook":"https://www.gutenberg.org/ebooks/1224.kf8.images","text/plain; charset=us-ascii":"https://www.gutenberg.org/ebooks/1224.txt.utf-8","application/rdf+xml":"https://www.gutenberg.org/ebooks/1224.rdf","image/jpeg":"https://www.gutenberg.org/cache/epub/1224/pg1224.cover.medium.jpg","application/octet-stream":"https://www.gutenberg.org/cache/epub/1224/pg1224-h.zip"},"download_count":23},{"id":1447,"title":"The Illustrious Prince","authors":[{"name":"Oppenheim, E. Phillips (Edward Phillips)","birth_year":1866,"death_year":1946}],"translators":[],"subjects":["Detective and mystery stories","Princes -- Fiction"],"bookshelves":[],"languages":["en"],"copyright":false,"media_type":"Text","formats":{"text/html":"https://www.gutenberg.org/ebooks/1447.html.images","text/html; charset=utf-8":"https://www.gutenberg.org/files/1447/1447-h/1447-h.htm","application/epub+zip":"https://www.gutenberg.org/ebooks/1447.epub3.images","application/x-mobipocket-ebook":"https://www.gutenberg.org/ebooks/1447.kf8.images","text/plain; charset=us-ascii":"https://www.gutenberg.org/ebooks/1447.txt.utf-8","text/plain; charset=utf-8":"https://www.gutenberg.org/files/1447/1447-0.txt","application/rdf+xml":"https://www.gutenberg.org/ebooks/1447.rdf","image/jpeg":"https://www.gutenberg.org/cache/epub/1447/pg1447.cover.medium.jpg","application/octet-stream":"https://www.gutenberg.org/cache/epub/1447/pg1447-h.zip"},"download_count":23},{"id":1592,"title":"The Greatest English Classic: A Study of the King James Version of the Bible and Its Influence on Life and Literature","authors":[{"name":"McAfee, Cleland Boyd","birth_year":1866,"death_year":1944}],"translators":[],"subjects":["Bible -- History","Bible -- Influence","Bible and literature","Bible. English -- Versions -- Authorized"],"bookshelves":[],"languages":["en"],"copyright":false,"media_type":"Text","formats":{"text/html":"https://www.gutenberg.org/ebooks/1592.html.images","application/epub+zip":"https://www.gutenberg.org/ebooks/1592.epub3.images","application/x-mobipocket-ebook":"https://www.gutenberg.org/ebooks/1592.kf8.images","text/plain; charset=us-ascii":"https://www.gutenberg.org/ebooks/1592.txt.utf-8","application/rdf+xml":"https://www.gutenberg.org/ebooks/1592.rdf","image/jpeg":"https://www.gutenberg.org/cache/epub/1592/pg1592.cover.medium.jpg","application/octet-stream":"https://www.gutenberg.org/cache/epub/1592/pg1592-h.zip"},"download_count":23},{"id":1679,"title":"Hiram the Young Farmer","authors":[{"name":"Todd, Burbank L.","birth_year":null,"death_year":null}],"translators":[],"subjects":["Agriculture -- Juvenile fiction"],"bookshelves":[],"languages":["en"],"copyright":false,"media_type":"Text","formats":{"text/html":"https://www.gutenberg.org/ebooks/1679.html.images","text/html; charset=utf-8":"https://www.gutenberg.org/files/1679/1679-h/1679-h.htm","application/epub+zip":"https://www.gutenberg.org/ebooks/1679.epub3.images","application/x-mobipocket-ebook":"https://www.gutenberg.org/ebooks/1679.kf8.images","text/plain; charset=us-ascii":"https://www.gutenberg.org/ebooks/1679.txt.utf-8","text/plain; charset=utf-8":"https://www.gutenberg.org/files/1679/1679-0.txt","application/rdf+xml":"https://www.gutenberg.org/ebooks/1679.rdf","image/jpeg":"https://www.gutenberg.org/cache/epub/1679/pg1679.cover.medium.jpg","application/octet-stream":"https://www.gutenberg.org/cache/epub/1679/pg1679-h.zip"},"download_count":23},{"id":1762,"title":"The Consul","authors":[{"name":"Davis, Richard Harding","birth_year":1864,"death_year":1916}],"translators":[],"subjects":["Fiction","Short stories"],"bookshelves":[],"languages":["en"],"copyright":false,"media_type":"Text","formats":{"text/html":"https://www.gutenberg.org/ebooks/1762.html.images","application/epub+zip":"https://www.gutenberg.org/ebooks/1762.epub3.images","application/x-mobipocket-ebook":"https://www.gutenberg.org/ebooks/1762.kf8.images","text/plain; charset=us-ascii":"https://www.gutenberg.org/ebooks/1762.txt.utf-8","application/rdf+xml":"https://www.gutenberg.org/ebooks/1762.rdf","image/jpeg":"https://www.gutenberg.org/cache/epub/1762/pg1762.cover.medium.jpg","application/octet-stream":"https://www.gutenberg.org/files/1762/1762-0.zip"},"download_count":23},{"id":1891,"title":"A Plea for Old Cap Collier","authors":[{"name":"Cobb, Irvin S. (Irvin Shrewsbury)","birth_year":1876,"death_year":1944}],"translators":[],"subjects":["American wit and humor","Children's literature -- History and criticism","Dime novels -- History and criticism"],"bookshelves":[],"languages":["en"],"copyright":false,"media_type":"Text","formats":{"text/html":"https://www.gutenberg.org/ebooks/1891.html.images","text/html; charset=us-ascii":"https://www.gutenberg.org/files/1891/1891-h/1891-h.htm","application/epub+zip":"https://www.gutenberg.org/ebooks/1891.epub3.images","application/x-mobipocket-ebook":"https://www.gutenberg.org/ebooks/1891.kf8.images","text/plain; charset=us-ascii":"https://www.gutenberg.org/ebooks/1891.txt.utf-8","application/rdf+xml":"https://www.gutenberg.org/ebooks/1891.rdf","image/jpeg":"https://www.gutenberg.org/cache/epub/1891/pg1891.cover.medium.jpg","application/octet-stream":"https://www.gutenberg.org/cache/epub/1891/pg1891-h.zip"},"download_count":23},{"id":1927,"title":"Elinor Wyllys; Or, The Young Folk of Longbridge: A Tale. Volume 1","authors":[{"name":"Cooper, Susan Fenimore","birth_year":1813,"death_year":1894}],"translators":[],"subjects":["Frontier and pioneer life -- United States -- Fiction","Historical fiction"],"bookshelves":[],"languages":["en"],"copyright":false,"media_type":"Text","formats":{"text/html":"https://www.gutenberg.org/ebooks/1927.html.images","application/epub+zip":"https://www.gutenberg.org/ebooks/1927.epub3.images","application/x-mobipocket-ebook":"https://www.gutenberg.org/ebooks/1927.kf8.images","text/plain; charset=us-ascii":"https://www.gutenberg.org/ebooks/1927.txt.utf-8","application/rdf+xml":"https://www.gutenberg.org/ebooks/1927.rdf","image/jpeg":"https://www.gutenberg.org/cache/epub/1927/pg1927.cover.medium.jpg","application/octet-stream":"https://www.gutenberg.org/cache/epub/1927/pg1927-h.zip"},"download_count":23},{"id":1935,"title":"The Tremendous Adventures of Major Gahagan","authors":[{"name":"Thackeray, William Makepeace","birth_year":1811,"death_year":1863}],"translators":[],"subjects":["India -- History -- British occupation, 1765-1947 -- Fiction"],"bookshelves":[],"languages":["en"],"copyright":false,"media_type":"Text","formats":{"text/html":"https://www.gutenberg.org/ebooks/1935.html.images","application/epub+zip":"https://www.gutenberg.org/ebooks/1935.epub3.images","application/x-mobipocket-ebook":"https://www.gutenberg.org/ebooks/1935.kf8.images","text/plain; charset=us-ascii":"https://www.gutenberg.org/ebooks/1935.txt.utf-8","application/rdf+xml":"https://www.gutenberg.org/ebooks/1935.rdf","image/jpeg":"https://www.gutenberg.org/cache/epub/1935/pg1935.cover.medium.jpg","application/octet-stream":"https://www.gutenberg.org/files/1935/1935-h.zip"},"download_count":23},{"id":2026,"title":"The Coming Conquest of England","authors":[{"name":"Niemann, August","birth_year":1839,"death_year":1919}],"translators":[{"name":"Freese, John Henry","birth_year":null,"death_year":null}],"subjects":["Imaginary wars and battles -- Fiction","Science fiction","War stories"],"bookshelves":[],"languages":["en"],"copyright":false,"media_type":"Text","formats":{"text/html":"https://www.gutenberg.org/ebooks/2026.html.images","text/html; charset=utf-8":"https://www.gutenberg.org/files/2026/2026-h/2026-h.htm","application/epub+zip":"https://www.gutenberg.org/ebooks/2026.epub3.images","application/x-mobipocket-ebook":"https://www.gutenberg.org/ebooks/2026.kf8.images","text/plain; charset=us-ascii":"https://www.gutenberg.org/ebooks/2026.txt.utf-8","text/plain; charset=utf-8":"https://www.gutenberg.org/files/2026/2026-0.txt","application/rdf+xml":"https://www.gutenberg.org/ebooks/2026.rdf","image/jpeg":"https://www.gutenberg.org/cache/epub/2026/pg2026.cover.medium.jpg","application/octet-stream":"https://www.gutenberg.org/cache/epub/2026/pg2026-h.zip"},"download_count":23},{"id":2217,"title":"Human Genome Project, rough draft, Chromosome Number 17","authors":[{"name":"Human Genome Project","birth_year":null,"death_year":null}],"translators":[],"subjects":["Human Genome Project","Human gene mapping","Human genetics","Nucleotide sequence"],"bookshelves":[],"languages":["en"],"copyright":false,"media_type":"Dataset","formats":{"text/plain; charset=us-ascii":"https://www.gutenberg.org/files/2217/2217.zip","application/rdf+xml":"https://www.gutenberg.org/ebooks/2217.rdf"},"download_count":23},{"id":2268,"title":"Antony and Cleopatra","authors":[{"name":"Shakespeare, William","birth_year":1564,"death_year":1616}],"translators":[],"subjects":["Antonius, Marcus, 83 B.C.?-30 B.C. -- Drama","Cleopatra, Queen of Egypt, -30 B.C. -- Drama","Egypt -- History -- 332-30 B.C. -- Drama","Generals -- Rome -- Drama","Queens -- Egypt -- Drama","Romans -- Egypt -- Drama","Rome -- History -- Civil War, 43-31 B.C. -- Drama","Tragedies"],"bookshelves":[],"languages":["en"],"copyright":false,"media_type":"Text","formats":{"text/html":"https://www.gutenberg.org/ebooks/2268.html.images","application/epub+zip":"https://www.gutenberg.org/ebooks/2268.epub3.images","application/x-mobipocket-ebook":"https://www.gutenberg.org/ebooks/2268.kf8.images","text/plain; charset=us-ascii":"https://www.gutenberg.org/ebooks/2268.txt.utf-8","application/rdf+xml":"https://www.gutenberg.org/ebooks/2268.rdf","image/jpeg":"https://www.gutenberg.org/cache/epub/2268/pg2268.cover.medium.jpg","application/octet-stream":"https://www.gutenberg.org/cache/epub/2268/pg2268-h.zip"},"download_count":23},{"id":2294,"title":"Anthology of Massachusetts Poets","authors":[],"translators":[],"subjects":["American literature -- Massachusetts","American poetry -- 20th century"],"bookshelves":[],"languages":["en"],"copyright":false,"media_type":"Text","formats":{"text/html":"https://www.gutenberg.org/ebooks/2294.html.images","application/epub+zip":"https://www.gutenberg.org/ebooks/2294.epub3.images","application/x-mobipocket-ebook":"https://www.gutenberg.org/ebooks/2294.kf8.images","text/plain; charset=us-ascii":"https://www.gutenberg.org/ebooks/2294.txt.utf-8","text/plain; charset=utf-8":"https://www.gutenberg.org/files/2294/2294-0.txt","application/rdf+xml":"https://www.gutenberg.org/ebooks/2294.rdf","image/jpeg":"https://www.gutenberg.org/cache/epub/2294/pg2294.cover.medium.jpg","application/octet-stream":"https://www.gutenberg.org/cache/epub/2294/pg2294-h.zip"},"download_count":23},{"id":2617,"title":"Memoirs of General William T. Sherman — Volume 2","authors":[{"name":"Sherman, William T. (William Tecumseh)","birth_year":1820,"death_year":1891}],"translators":[],"subjects":["Generals -- United States -- Biography","Sherman, William T. (William Tecumseh), 1820-1891","United States -- History -- Civil War, 1861-1865 -- Campaigns","United States -- History -- Civil War, 1861-1865 -- Personal narratives","United States. Army -- Biography"],"bookshelves":["US Civil War"],"languages":["en"],"copyright":false,"media_type":"Text","formats":{"text/html":"https://www.gutenberg.org/ebooks/2617.html.images","application/epub+zip":"https://www.gutenberg.org/ebooks/2617.epub3.images","application/x-mobipocket-ebook":"https://www.gutenberg.org/ebooks/2617.kf8.images","text/plain; charset=us-ascii":"https://www.gutenberg.org/ebooks/2617.txt.utf-8","application/rdf+xml":"https://www.gutenberg.org/ebooks/2617.rdf","image/jpeg":"https://www.gutenberg.org/cache/epub/2617/pg2617.cover.medium.jpg","application/octet-stream":"https://www.gutenberg.org/cache/epub/2617/pg2617-h.zip"},"download_count":23},{"id":2660,"title":"Early Australian Voyages: Pelsart, Tasman, Dampier","authors":[{"name":"Pinkerton, John","birth_year":1758,"death_year":1826}],"translators":[],"subjects":["Australia -- Discovery and exploration","Dampier, William, 1652-1715","Pelsaert, Francisco, -1630","Tasman, Abel Janszoon, 1603?-1659","Voyages and travels"],"bookshelves":["Australia"],"languages":["en"],"copyright":false,"media_type":"Text","formats":{"text/html":"https://www.gutenberg.org/ebooks/2660.html.images","application/epub+zip":"https://www.gutenberg.org/ebooks/2660.epub3.images","application/x-mobipocket-ebook":"https://www.gutenberg.org/ebooks/2660.kf8.images","text/plain; charset=us-ascii":"https://www.gutenberg.org/ebooks/2660.txt.utf-8","application/rdf+xml":"https://www.gutenberg.org/ebooks/2660.rdf","image/jpeg":"https://www.gutenberg.org/cache/epub/2660/pg2660.cover.medium.jpg","application/octet-stream":"https://www.gutenberg.org/cache/epub/2660/pg2660-h.zip"},"download_count":23},{"id":2724,"title":"Theodore Roosevelt and His Times: A Chronicle of the Progressive Movement","authors":[{"name":"Howland, Harold","birth_year":1877,"death_year":null}],"translators":[],"subjects":["Progressive Party (1912)","Roosevelt, Theodore, 1858-1919"],"bookshelves":[],"languages":["en"],"copyright":false,"media_type":"Text","formats":{"text/html":"https://www.gutenberg.org/ebooks/2724.html.images","text/html; charset=us-ascii":"https://www.gutenberg.org/files/2724/2724-h/2724-h.htm","application/epub+zip":"https://www.gutenberg.org/ebooks/2724.epub3.images","application/x-mobipocket-ebook":"https://www.gutenberg.org/ebooks/2724.kf8.images","text/plain; charset=us-ascii":"https://www.gutenberg.org/ebooks/2724.txt.utf-8","application/rdf+xml":"https://www.gutenberg.org/ebooks/2724.rdf","image/jpeg":"https://www.gutenberg.org/cache/epub/2724/pg2724.cover.medium.jpg","application/octet-stream":"https://www.gutenberg.org/cache/epub/2724/pg2724-h.zip"},"download_count":23},{"id":2878,"title":"The Disguising at Hertford","authors":[{"name":"Lydgate, John","birth_year":null,"death_year":null}],"translators":[],"subjects":["Comedy","England -- Drama","Marriage -- Drama"],"bookshelves":[],"languages":["en"],"copyright":false,"media_type":"Text","formats":{"text/html":"https://www.gutenberg.org/ebooks/2878.html.images","text/html; charset=us-ascii":"https://www.gutenberg.org/files/2878/2878-h/2878-h.htm","application/epub+zip":"https://www.gutenberg.org/ebooks/2878.epub3.images","application/x-mobipocket-ebook":"https://www.gutenberg.org/ebooks/2878.kf8.images","text/plain; charset=us-ascii":"https://www.gutenberg.org/ebooks/2878.txt.utf-8","application/rdf+xml":"https://www.gutenberg.org/ebooks/2878.rdf","image/jpeg":"https://www.gutenberg.org/cache/epub/2878/pg2878.cover.medium.jpg","application/octet-stream":"https://www.gutenberg.org/cache/epub/2878/pg2878-h.zip"},"download_count":23},{"id":2921,"title":"The Present Condition of Organic Nature: Lecture I. (of VI.), \"Lectures to Working Men\", at the Museum of Practical Geology, 1863, on Darwin's Work: \"Origin of Species\"","authors":[{"name":"Huxley, Thomas Henry","birth_year":1825,"death_year":1895}],"translators":[],"subjects":["Darwin, Charles, 1809-1882. On the origin of species","Evolution (Biology)"],"bookshelves":[],"languages":["en"],"copyright":false,"media_type":"Text","formats":{"text/html":"https://www.gutenberg.org/ebooks/2921.html.images","text/html; charset=us-ascii":"https://www.gutenberg.org/files/2921/2921-h/2921-h.htm","application/epub+zip":"https://www.gutenberg.org/ebooks/2921.epub3.images","application/x-mobipocket-ebook":"https://www.gutenberg.org/ebooks/2921.kf8.images","text/plain; charset=us-ascii":"https://www.gutenberg.org/ebooks/2921.txt.utf-8","application/rdf+xml":"https://www.gutenberg.org/ebooks/2921.rdf","image/jpeg":"https://www.gutenberg.org/cache/epub/2921/pg2921.cover.medium.jpg","application/octet-stream":"https://www.gutenberg.org/cache/epub/2921/pg2921-h.zip"},"download_count":23},{"id":2949,"title":"Stories of a Western Town","authors":[{"name":"Thanet, Octave","birth_year":1850,"death_year":1934}],"translators":[],"subjects":["Frontier and pioneer life -- West (U.S.) -- Fiction","Western stories"],"bookshelves":[],"languages":["en"],"copyright":false,"media_type":"Text","formats":{"text/html":"https://www.gutenberg.org/ebooks/2949.html.images","text/html; charset=utf-8":"https://www.gutenberg.org/files/2949/2949-h/2949-h.htm","application/epub+zip":"https://www.gutenberg.org/ebooks/2949.epub3.images","application/x-mobipocket-ebook":"https://www.gutenberg.org/ebooks/2949.kf8.images","text/plain; charset=us-ascii":"https://www.gutenberg.org/ebooks/2949.txt.utf-8","text/plain; charset=utf-8":"https://www.gutenberg.org/files/2949/2949-0.txt","application/rdf+xml":"https://www.gutenberg.org/ebooks/2949.rdf","image/jpeg":"https://www.gutenberg.org/cache/epub/2949/pg2949.cover.medium.jpg","application/octet-stream":"https://www.gutenberg.org/cache/epub/2949/pg2949-h.zip"},"download_count":23},{"id":2962,"title":"The Memoirs of Jacques Casanova de Seingalt, 1725-1798. Volume 12: Return to Paris","authors":[{"name":"Casanova, Giacomo","birth_year":1725,"death_year":1798}],"translators":[{"name":"Machen, Arthur","birth_year":1863,"death_year":1947}],"subjects":["Casanova, Giacomo, 1725-1798","Europe -- History -- 18th century -- Biography"],"bookshelves":[],"languages":["en"],"copyright":false,"media_type":"Text","formats":{"text/html":"https://www.gutenberg.org/ebooks/2962.html.images","application/epub+zip":"https://www.gutenberg.org/ebooks/2962.epub3.images","application/x-mobipocket-ebook":"https://www.gutenberg.org/ebooks/2962.kf8.images","text/plain; charset=us-ascii":"https://www.gutenberg.org/ebooks/2962.txt.utf-8","application/rdf+xml":"https://www.gutenberg.org/ebooks/2962.rdf","image/jpeg":"https://www.gutenberg.org/cache/epub/2962/pg2962.cover.medium.jpg","application/octet-stream":"https://www.gutenberg.org/cache/epub/2962/pg2962-h.zip"},"download_count":23},{"id":2964,"title":"The Memoirs of Jacques Casanova de Seingalt, 1725-1798. Volume 14: Switzerland","authors":[{"name":"Casanova, Giacomo","birth_year":1725,"death_year":1798}],"translators":[{"name":"Machen, Arthur","birth_year":1863,"death_year":1947}],"subjects":["Casanova, Giacomo, 1725-1798","Europe -- History -- 18th century -- Biography"],"bookshelves":[],"languages":["en"],"copyright":false,"media_type":"Text","formats":{"text/html":"https://www.gutenberg.org/ebooks/2964.html.images","application/epub+zip":"https://www.gutenberg.org/ebooks/2964.epub3.images","application/x-mobipocket-ebook":"https://www.gutenberg.org/ebooks/2964.kf8.images","text/plain; charset=us-ascii":"https://www.gutenberg.org/ebooks/2964.txt.utf-8","application/rdf+xml":"https://www.gutenberg.org/ebooks/2964.rdf","image/jpeg":"https://www.gutenberg.org/cache/epub/2964/pg2964.cover.medium.jpg","application/octet-stream":"https://www.gutenberg.org/cache/epub/2964/pg2964-h.zip"},"download_count":23}]}