{"count":58808,"next":"http://129.241.150.113:8000/books/?languages=en&page=1675","previous":"http://129.241.150.113:8000/books/?languages=en&page=1673","results":[{"id":67985,"title":"Little Guzzy, and other stories","authors":[{"name":"Habberton, John","birth_year":1842,"death_year":1921}],"translators":[],"subjects":["American fiction -- 19th century","Short stories, American"],"bookshelves":[],"languages":["en"],"copyright":false,"media_type":"Text","formats":{"text/html":"https://www.gutenberg.org/ebooks/67985.html.images","application/epub+zip":"https://www.gutenberg.org/ebooks/67985.epub3.images","application/x-mobipocket-ebook":"https://www.gutenberg.org/ebooks/67985.kf8.images","text/plain; charset=us-ascii":"https://www.gutenberg.org/ebooks/67985.txt.utf-8","application/rdf+xml":"https://www.gutenberg.org/ebooks/67985.rdf","image/jpeg":"https://www.gutenberg.org/cache/epub/67985/pg67985.cover.medium.jpg","application/octet-stream":"https://www.gutenberg.org/files/67985/67985-0.zip"},"download_count":19},{"id":67994,"title":"Chambers's Journal of Popular Literature, Science, and Art, Fifth Series, No. 113, Vol. III, February 27, 1886","authors":[{"name":"Various","birth_year":null,"death_year":null}],"translators":[],"subjects":["Periodicals"],"bookshelves":[],"languages":["en"],"copyright":false,"media_type":"Text","formats":{"text/html":"https://www.gutenberg.org/ebooks/67994.html.images","application/epub+zip":"https://www.gutenberg.org/ebooks/67994.epub3.images","application/x-mobipocket-ebook":"https://www.gutenberg.org/ebooks/67994.kf8.images","text/plain; charset=us-ascii":"https://www.gutenberg.org/ebooks/67994.txt.utf-8","application/rdf+xml":"https://www.gutenberg.org/ebooks/67994.rdf","image/jpeg":"https://www.gutenberg.org/cache/epub/67994/pg67994.cover.medium.jpg","application/octet-stream":"https://www.gutenberg.org/files/67994/67994-0.zip"},"download_count":19},{"id":68050,"title":"The Foundling of the Wreck","authors":[{"name":"Anonymous","birth_year":null,"death_year":null}],"translators":[],"subjects":["Biographical fiction","Children -- Conduct of life -- Juvenile fiction","Christian life -- Juvenile fiction","Conduct of life -- Juvenile fiction","Enslaved persons -- Juvenile fiction","Foundlings -- Juvenile fiction","Kings and rulers -- Juvenile fiction","Peter I, Emperor of Russia, 1672-1725 -- Juvenile fiction","Russia -- History -- Peter I, 1689-1725 -- Juvenile fiction"],"bookshelves":[],"languages":["en"],"copyright":false,"media_type":"Text","formats":{"text/html":"https://www.gutenberg.org/ebooks/68050.html.images","application/epub+zip":"https://www.gutenberg.org/ebooks/68050.epub3.images","application/x-mobipocket-ebook":"https://www.gutenberg.org/ebooks/68050.kf8.images","text/plain; charset=us-ascii":"https://www.gutenberg.org/ebooks/68050.txt.utf-8","application/rdf+xml":"https://www.gutenberg.org/ebooks/68050.rdf","image/jpeg":"https://www.gutenberg.org/cache/epub/68050/pg68050.cover.medium.jpg","application/octet-stream":"https://www.gutenberg.org/files/68050/68050-0.zip"},"download_count":19},{"id":68119,"title":"Address of President Roosevelt at Keokuk, Iowa, October 1, 1907","authors":[{"name":"Roosevelt, Theodore","birth_year":1858,"death_year":1919}],"translators":[],"subjects":["Speeches, addresses, etc.","United States -- Politics and government -- 1901-1909"],"bookshelves":[],"languages":["en"],"copyright":false,"media_type":"Text","formats":{"text/html":"https://www.gutenberg.org/ebooks/68119.html.images","application/epub+zip":"https://www.gutenberg.org/ebooks/68119.epub3.images","application/x-mobipocket-ebook":"https://www.gutenberg.org/ebooks/68119.kf8.images","text/plain; charset=us-ascii":"https://www.gutenberg.org/ebooks/68119.txt.utf-8","application/rdf+xml":"https://www.gutenberg.org/ebooks/68119.rdf","image/jpeg":"https://www.gutenberg.org/cache/epub/68119/pg68119.cover.medium.jpg","application/octet-stream":"https://www.gutenberg.org/files/68119/68119-0.zip"},"download_count":19},{"id":68136,"title":"Address of President Roosevelt at Cairo, Illinois, October 3, 1907","authors":[{"name":"Roosevelt, Theodore","birth_year":1858,"death_year":1919}],"translators":[],"subjects":["Speeches, addresses, etc.","United States -- Politics and government -- 1901-1909"],"bookshelves":[],"languages":["en"],"copyright":false,"media_type":"Text","formats":{"text/html":"https://www.gutenberg.org/ebooks/68136.html.images","application/epub+zip":"https://www.gutenberg.org/ebooks/68136.epub3.images","application/x-mobipocket-ebook":"https://www.gutenberg.org/ebooks/68136.kf8.images","text/plain; charset=us-ascii":"https://www.gutenberg.org/ebooks/68136.txt.utf-8","application/rdf+xml":"https://www.gutenberg.org/ebooks/68136.rdf","image/jpeg":"https://www.gutenberg.org/cache/epub/68136/pg68136.cover.medium.jpg","application/octet-stream":"https://www.gutenberg.org/files/68136/68136-0.zip"},"download_count":19},{"id":68173,"title":"Progressive Chile","authors":[{"name":"Mansfield, Robert E.","birth_year":1866,"death_year":null}],"translators":[],"subjects":["Chile","Chile -- Social life and customs"],"bookshelves":[],"languages":["en"],"copyright":false,"media_type":"Text","formats":{"text/html":"https://www.gutenberg.org/ebooks/68173.html.images","application/epub+zip":"https://www.gutenberg.org/ebooks/68173.epub3.images","application/x-mobipocket-ebook":"https://www.gutenberg.org/ebooks/68173.kf8.images","text/plain; charset=us-ascii":"https://www.gutenberg.org/ebooks/68173.txt.utf-8","application/rdf+xml":"https://www.gutenberg.org/ebooks/68173.rdf","image/jpeg":"https://www.gutenberg.org/cache/epub/68173/pg68173.cover.medium.jpg","application/octet-stream":"https://www.gutenberg.org/files/68173/68173-0.zip"},"download_count":19},{"id":68225,"title":"Australian fairy tales","authors":[{"name":"Westbury, Atha","birth_year":1838,"death_year":1901}],"translators":[],"subjects":["Fairy tales -- Australia"],"bookshelves":[],"languages":["en"],"copyright":false,"media_type":"Text","formats":{"text/html":"https://www.gutenberg.org/ebooks/68225.html.images","application/epub+zip":"https://www.gutenberg.org/ebooks/68225.epub3.images","application/x-mobipocket-ebook":"https://www.gutenberg.org/ebooks/68225.kf8.images","text/plain; charset=us-ascii":"https://www.gutenberg.org/ebooks/68225.txt.utf-8","application/rdf+xml":"https://www.gutenberg.org/ebooks/68225.rdf","image/jpeg":"https://www.gutenberg.org/cache/epub/68225/pg68225.cover.medium.jpg","application/octet-stream":"https://www.gutenberg.org/files/68225/68225-0.zip"},"download_count":19},{"id":68294,"title":"Dulcie Carlyon: A novel. Volume 2 (of 3)","authors":[{"name":"Grant, James","birth_year":1822,"death_year":1887}],"translators":[],"subjects":["Fiction"],"bookshelves":[],"languages":["en"],"copyright":false,"media_type":"Text","formats":{"text/html":"https://www.gutenberg.org/ebooks/68294.html.images","application/epub+zip":"https://www.gutenberg.org/ebooks/68294.epub3.images","application/x-mobipocket-ebook":"https://www.gutenberg.org/ebooks/68294.kf8.images","text/plain; charset=us-ascii":"https://www.gutenberg.org/ebooks/68294.txt.utf-8","application/rdf+xml":"https://www.gutenberg.org/ebooks/68294.rdf","image/jpeg":"https://www.gutenberg.org/cache/epub/68294/pg68294.cover.medium.jpg","application/octet-stream":"https://www.gutenberg.org/files/68294/68294-0.zip"},"download_count":19},{"id":68299,"title":"The American National Red Cross Bulletin (Vol. I, No. 3, July 1906)","authors":[{"name":"American National Red Cross","birth_year":null,"death_year":null}],"translators":[],"subjects":["American National Red Cross -- Periodicals","Red Cross and Red Crescent -- Periodicals"],"bookshelves":[],"languages":["en"],"copyright":false,"media_type":"Text","formats":{"text/html":"https://www.gutenberg.org/ebooks/68299.html.images","application/epub+zip":"https://www.gutenberg.org/ebooks/68299.epub3.images","application/x-mobipocket-ebook":"https://www.gutenberg.org/ebooks/68299.kf8.images","text/plain; charset=us-ascii":"https://www.gutenberg.org/ebooks/68299.txt.utf-8","application/rdf+xml":"https://www.gutenberg.org/ebooks/68299.rdf","image/jpeg":"https://www.gutenberg.org/cache/epub/68299/pg68299.cover.medium.jpg","application/octet-stream":"https://www.gutenberg.org/files/68299/68299-0.zip"},"download_count":19},{"id":68335,"title":"The Big Night","authors":[{"name":"Kuttner, Henry","birth_year":1915,"death_year":1958}],"translators":[],"subjects":["Science fiction","Space flight -- Fiction","Space ships -- Fiction"],"bookshelves":[],"languages":["en"],"copyright":false,"media_type":"Text","formats":{"text/html":"https://www.gutenberg.org/ebooks/68335.html.images","application/epub+zip":"https://www.gutenberg.org/ebooks/68335.epub3.images","application/x-mobipocket-ebook":"https://www.gutenberg.org/ebooks/68335.kf8.images","text/plain; charset=us-ascii":"https://www.gutenberg.org/ebooks/68335.txt.utf-8","application/rdf+xml":"https://www.gutenberg.org/ebooks/68335.rdf","image/jpeg":"https://www.gutenberg.org/cache/epub/68335/pg68335.cover.medium.jpg","application/octet-stream":"https://www.gutenberg.org/files/68335/68335-0.zip"},"download_count":19},{"id":68349,"title":"Frank Reade, Jr., with his new steam man in Mexico: or, hot work among the greasers","authors":[{"name":"Senarens, Luis","birth_year":1863,"death_year":1939}],"translators":[],"subjects":["Dime novels","Inventors -- Fiction","Science fiction"],"bookshelves":[],"languages":["en"],"copyright":false,"media_type":"Text","formats":{"text/html":"https://www.gutenberg.org/ebooks/68349.html.images","application/epub+zip":"https://www.gutenberg.org/ebooks/68349.epub3.images","application/x-mobipocket-ebook":"https://www.gutenberg.org/ebooks/68349.kf8.images","text/plain; charset=us-ascii":"https://www.gutenberg.org/ebooks/68349.txt.utf-8","application/rdf+xml":"https://www.gutenberg.org/ebooks/68349.rdf","image/jpeg":"https://www.gutenberg.org/cache/epub/68349/pg68349.cover.medium.jpg","application/octet-stream":"https://www.gutenberg.org/files/68349/68349-0.zip"},"download_count":19},{"id":68352,"title":"The sociable Sand Witch","authors":[{"name":"Sappington, Thomas Lambert","birth_year":1870,"death_year":null}],"translators":[],"subjects":["Children's stories","Fairy tales"],"bookshelves":[],"languages":["en"],"copyright":false,"media_type":"Text","formats":{"text/html":"https://www.gutenberg.org/ebooks/68352.html.images","application/epub+zip":"https://www.gutenberg.org/ebooks/68352.epub3.images","application/x-mobipocket-ebook":"https://www.gutenberg.org/ebooks/68352.kf8.images","text/plain; charset=us-ascii":"https://www.gutenberg.org/ebooks/68352.txt.utf-8","application/rdf+xml":"https://www.gutenberg.org/ebooks/68352.rdf","image/jpeg":"https://www.gutenberg.org/cache/epub/68352/pg68352.cover.medium.jpg","application/octet-stream":"https://www.gutenberg.org/files/68352/68352-0.zip"},"download_count":19},{"id":68364,"title":"Book of brief narratives","authors":[],"translators":[],"subjects":["Detective and mystery stories, American"],"bookshelves":[],"languages":["en"],"copyright":false,"media_type":"Text","formats":{"text/html":"https://www.gutenberg.org/ebooks/68364.html.images","application/epub+zip":"https://www.gutenberg.org/ebooks/68364.epub3.images","application/x-mobipocket-ebook":"https://www.gutenberg.org/ebooks/68364.kf8.images","text/plain; charset=us-ascii":"https://www.gutenberg.org/ebooks/68364.txt.utf-8","application/rdf+xml":"https://www.gutenberg.org/ebooks/68364.rdf","image/jpeg":"https://www.gutenberg.org/cache/epub/68364/pg68364.cover.medium.jpg","application/octet-stream":"https://www.gutenberg.org/files/68364/68364-0.zip"},"download_count":19},{"id":68390,"title":"Down among men","authors":[{"name":"Comfort, Will Levington","birth_year":1878,"death_year":1932}],"translators":[],"subjects":["Conduct of life -- Fiction","Journalists -- Fiction","Man-woman relationships -- Fiction","Russo-Japanese War, 1904-1905 -- Fiction"],"bookshelves":[],"languages":["en"],"copyright":false,"media_type":"Text","formats":{"text/html":"https://www.gutenberg.org/ebooks/68390.html.images","application/epub+zip":"https://www.gutenberg.org/ebooks/68390.epub3.images","application/x-mobipocket-ebook":"https://www.gutenberg.org/ebooks/68390.kf8.images","text/plain; charset=us-ascii":"https://www.gutenberg.org/ebooks/68390.txt.utf-8","application/rdf+xml":"https://www.gutenberg.org/ebooks/68390.rdf","image/jpeg":"https://www.gutenberg.org/cache/epub/68390/pg68390.cover.medium.jpg","application/octet-stream":"https://www.gutenberg.org/files/68390/68390-0.zip"},"download_count":19},{"id":68409,"title":"The Martian Shore","authors":[{"name":"Fontenay, Charles L.","birth_year":1917,"death_year":2007}],"translators":[],"subjects":["Mars (Planet) -- Fiction","Science fiction","Short stories","Survival -- Fiction"],"bookshelves":[],"languages":["en"],"copyright":false,"media_type":"Text","formats":{"text/html":"https://www.gutenberg.org/ebooks/68409.html.images","application/epub+zip":"https://www.gutenberg.org/ebooks/68409.epub3.images","application/x-mobipocket-ebook":"https://www.gutenberg.org/ebooks/68409.kf8.images","text/plain; charset=us-ascii":"https://www.gutenberg.org/ebooks/68409.txt.utf-8","application/rdf+xml":"https://www.gutenberg.org/ebooks/68409.rdf","image/jpeg":"https://www.gutenberg.org/cache/epub/68409/pg68409.cover.medium.jpg","application/octet-stream":"https://www.gutenberg.org/files/68409/68409-0.zip"},"download_count":19},{"id":68425,"title":"The power and the glory","authors":[{"name":"Kuttner, Henry","birth_year":1915,"death_year":1958}],"translators":[],"subjects":["Science fiction"],"bookshelves":[],"languages":["en"],"copyright":false,"media_type":"Text","formats":{"text/html":"https://www.gutenberg.org/ebooks/68425.html.images","application/epub+zip":"https://www.gutenberg.org/ebooks/68425.epub3.images","application/x-mobipocket-ebook":"https://www.gutenberg.org/ebooks/68425.kf8.images","text/plain; charset=us-ascii":"https://www.gutenberg.org/ebooks/68425.txt.utf-8","application/rdf+xml":"https://www.gutenberg.org/ebooks/68425.rdf","image/jpeg":"https://www.gutenberg.org/cache/epub/68425/pg68425.cover.medium.jpg","application/octet-stream":"https://www.gutenberg.org/files/68425/68425-0.zip"},"download_count":19},{"id":68439,"title":"Neva's choice: A sequel to \"Neva's three lovers\"","authors":[{"name":"Lewis, Harriet","birth_year":1841,"death_year":1878}],"translators":[],"subjects":["Conspiracies -- Fiction","Dime novels","Mate selection -- Fiction","Popular literature","Stepmothers -- Fiction","Young women -- Fiction"],"bookshelves":[],"languages":["en"],"copyright":false,"media_type":"Text","formats":{"text/html":"https://www.gutenberg.org/ebooks/68439.html.images","application/epub+zip":"https://www.gutenberg.org/ebooks/68439.epub3.images","application/x-mobipocket-ebook":"https://www.gutenberg.org/ebooks/68439.kf8.images","text/plain; charset=us-ascii":"https://www.gutenberg.org/ebooks/68439.txt.utf-8","application/rdf+xml":"https://www.gutenberg.org/ebooks/68439.rdf","image/jpeg":"https://www.gutenberg.org/cache/epub/68439/pg68439.cover.medium.jpg","application/octet-stream":"https://www.gutenberg.org/files/68439/68439-0.zip"},"download_count":19},{"id":68484,"title":"The stroller","authors":[{"name":"St. Clair, Margaret","birth_year":1911,"death_year":1995}],"translators":[],"subjects":["Human-alien encounters -- Fiction","Science fiction","Short stories","Spouses -- Fiction"],"bookshelves":[],"languages":["en"],"copyright":false,"media_type":"Text","formats":{"text/html":"https://www.gutenberg.org/ebooks/68484.html.images","application/epub+zip":"https://www.gutenberg.org/ebooks/68484.epub3.images","application/x-mobipocket-ebook":"https://www.gutenberg.org/ebooks/68484.kf8.images","text/plain; charset=us-ascii":"https://www.gutenberg.org/ebooks/68484.txt.utf-8","application/rdf+xml":"https://www.gutenberg.org/ebooks/68484.rdf","image/jpeg":"https://www.gutenberg.org/cache/epub/68484/pg68484.cover.medium.jpg","application/octet-stream":"https://www.gutenberg.org/files/68484/68484-0.zip"},"download_count":19},{"id":68506,"title":"The Forest Pilot: A Story for Boy Scouts","authors":[{"name":"Huntington, Edward","birth_year":null,"death_year":null}],"translators":[],"subjects":["Labrador (N.L.) -- Juvenile fiction","Outdoor life -- Juvenile fiction","Shipwrecks -- Juvenile fiction","Survival -- Juvenile fiction"],"bookshelves":[],"languages":["en"],"copyright":false,"media_type":"Text","formats":{"text/html":"https://www.gutenberg.org/ebooks/68506.html.images","application/epub+zip":"https://www.gutenberg.org/ebooks/68506.epub3.images","application/x-mobipocket-ebook":"https://www.gutenberg.org/ebooks/68506.kf8.images","text/plain; charset=us-ascii":"https://www.gutenberg.org/ebooks/68506.txt.utf-8","application/rdf+xml":"https://www.gutenberg.org/ebooks/68506.rdf","image/jpeg":"https://www.gutenberg.org/cache/epub/68506/pg68506.cover.medium.jpg","application/octet-stream":"https://www.gutenberg.org/files/68506/68506-0.zip"},"download_count":19},{"id":68518,"title":"The Yale Literary Magazine (Vol. LXXXVIII, No. 9, June 1923)","authors":[{"name":"Various","birth_year":null,"death_year":null}],"translators":[],"subjects":["College students' writings, American -- Connecticut -- New Haven -- Periodicals","Yale University -- Periodicals"],"bookshelves":[],"languages":["en"],"copyright":false,"media_type":"Text","formats":{"text/html":"https://www.gutenberg.org/ebooks/68518.html.images","application/epub+zip":"https://www.gutenberg.org/ebooks/68518.epub3.images","application/x-mobipocket-ebook":"https://www.gutenberg.org/ebooks/68518.kf8.images","text/plain; charset=us-ascii":"https://www.gutenberg.org/ebooks/68518.txt.utf-8","application/rdf+xml":"https://www.gutenberg.org/ebooks/68518.rdf","image/jpeg":"https://www.gutenberg.org/cache/epub/68518/pg68518.cover.medium.jpg","application/octet-stream":"https://www.gutenberg.org/files/68518/68518-0.zip"},"download_count":19},{"id":68520,"title":"The Van Roon","authors":[{"name":"Snaith, J. C. (John Collis)","birth_year":1876,"death_year":1936}],"translators":[],"subjects":["Antique dealers -- Fiction","Art -- Fiction","London (England) -- Fiction","Love stories","Orphans -- Fiction","Uncles -- Fiction","Young women -- Fiction"],"bookshelves":[],"languages":["en"],"copyright":false,"media_type":"Text","formats":{"text/html":"https://www.gutenberg.org/ebooks/68520.html.images","application/epub+zip":"https://www.gutenberg.org/ebooks/68520.epub3.images","application/x-mobipocket-ebook":"https://www.gutenberg.org/ebooks/68520.kf8.images","text/plain; charset=us-ascii":"https://www.gutenberg.org/ebooks/68520.txt.utf-8","application/rdf+xml":"https://www.gutenberg.org/ebooks/68520.rdf","image/jpeg":"https://www.gutenberg.org/cache/epub/68520/pg68520.cover.medium.jpg","application/octet-stream":"https://www.gutenberg.org/files/68520/68520-0.zip"},"download_count":19},{"id":68557,"title":"You no longer count (Tu n'es plus rien!)","authors":[{"name":"Boylesve, René","birth_year":1867,"death_year":1926}],"translators":[{"name":"Houghton, Louise Seymour","birth_year":1838,"death_year":1920}],"subjects":["World War, 1914-1918 -- Fiction"],"bookshelves":[],"languages":["en"],"copyright":false,"media_type":"Text","formats":{"text/html":"https://www.gutenberg.org/ebooks/68557.html.images","application/epub+zip":"https://www.gutenberg.org/ebooks/68557.epub3.images","application/x-mobipocket-ebook":"https://www.gutenberg.org/ebooks/68557.kf8.images","text/plain; charset=us-ascii":"https://www.gutenberg.org/ebooks/68557.txt.utf-8","application/rdf+xml":"https://www.gutenberg.org/ebooks/68557.rdf","image/jpeg":"https://www.gutenberg.org/cache/epub/68557/pg68557.cover.medium.jpg","application/octet-stream":"https://www.gutenberg.org/files/68557/68557-0.zip"},"download_count":19},{"id":68563,"title":"Nappy has a new friend","authors":[{"name":"Hogan, Inez","birth_year":1895,"death_year":1973}],"translators":[],"subjects":["African Americans -- Juvenile fiction","Children -- Juvenile fiction","Chinese Americans -- Juvenile fiction","Friendship -- Juvenile fiction","Junk trade -- Juvenile fiction","Minorities -- Juvenile fiction","Race relations -- Juvenile fiction","Revues -- Juvenile fiction"],"bookshelves":[],"languages":["en"],"copyright":false,"media_type":"Text","formats":{"text/html":"https://www.gutenberg.org/ebooks/68563.html.images","application/epub+zip":"https://www.gutenberg.org/ebooks/68563.epub3.images","application/x-mobipocket-ebook":"https://www.gutenberg.org/ebooks/68563.kf8.images","text/plain; charset=us-ascii":"https://www.gutenberg.org/ebooks/68563.txt.utf-8","application/rdf+xml":"https://www.gutenberg.org/ebooks/68563.rdf","image/jpeg":"https://www.gutenberg.org/cache/epub/68563/pg68563.cover.medium.jpg","application/octet-stream":"https://www.gutenberg.org/files/68563/68563-0.zip"},"download_count":19},{"id":68587,"title":"Journal of William H. Richardson, a private soldier in the campaign of New and Old Mexico, under the command of Colonel Doniphan of Missouri","authors":[{"name":"Richardson, William H.","birth_year":null,"death_year":null}],"translators":[],"subjects":["Doniphan's Expedition, 1846-1847","Mexican War, 1846-1848 -- Personal narratives","Richardson, William H. -- Diaries","Soldiers -- United States -- Diaries"],"bookshelves":[],"languages":["en"],"copyright":false,"media_type":"Text","formats":{"text/html":"https://www.gutenberg.org/ebooks/68587.html.images","application/epub+zip":"https://www.gutenberg.org/ebooks/68587.epub3.images","application/x-mobipocket-ebook":"https://www.gutenberg.org/ebooks/68587.kf8.images","text/plain; charset=us-ascii":"https://www.gutenberg.org/ebooks/68587.txt.utf-8","application/rdf+xml":"https://www.gutenberg.org/ebooks/68587.rdf","image/jpeg":"https://www.gutenberg.org/cache/epub/68587/pg68587.cover.medium.jpg","application/octet-stream":"https://www.gutenberg.org/files/68587/68587-0.zip"},"download_count":19},{"id":68598,"title":"The band played on","authors":[{"name":"Shook, C.","birth_year":null,"death_year":null}],"translators":[],"subjects":["Fourth dimension -- Fiction","Musicians -- Fiction","Science fiction","Short stories","Time travel -- Fiction"],"bookshelves":[],"languages":["en"],"copyright":false,"media_type":"Text","formats":{"text/html":"https://www.gutenberg.org/ebooks/68598.html.images","application/epub+zip":"https://www.gutenberg.org/ebooks/68598.epub3.images","application/x-mobipocket-ebook":"https://www.gutenberg.org/ebooks/68598.kf8.images","text/plain; charset=us-ascii":"https://www.gutenberg.org/ebooks/68598.txt.utf-8","application/rdf+xml":"https://www.gutenberg.org/ebooks/68598.rdf","image/jpeg":"https://www.gutenberg.org/cache/epub/68598/pg68598.cover.medium.jpg","application/octet-stream":"https://www.gutenberg.org/files/68598/68598-0.zip"},"download_count":19},{"id":68785,"title":"The Southern Literary Messenger, Vol. II., No. 5, April, 1836","authors":[{"name":"Various","birth_year":null,"death_year":null}],"translators":[],"subjects":["American literature -- 19th century -- Periodicals"],"bookshelves":[],"languages":["en"],"copyright":false,"media_type":"Text","formats":{"text/html":"https://www.gutenberg.org/ebooks/68785.html.images","application/epub+zip":"https://www.gutenberg.org/ebooks/68785.epub3.images","application/x-mobipocket-ebook":"https://www.gutenberg.org/ebooks/68785.kf8.images","text/plain; charset=us-ascii":"https://www.gutenberg.org/ebooks/68785.txt.utf-8","application/rdf+xml":"https://www.gutenberg.org/ebooks/68785.rdf","image/jpeg":"https://www.gutenberg.org/cache/epub/68785/pg68785.cover.medium.jpg","application/octet-stream":"https://www.gutenberg.org/files/68785/68785-0.zip"},"download_count":19},{"id":68799,"title":"A successful venture","authors":[{"name":"Deland, Ellen Douglas","birth_year":1860,"death_year":1923}],"translators":[],"subjects":["Family life -- Juvenile fiction"],"bookshelves":[],"languages":["en"],"copyright":false,"media_type":"Text","formats":{"text/html":"https://www.gutenberg.org/ebooks/68799.html.images","application/epub+zip":"https://www.gutenberg.org/ebooks/68799.epub3.images","application/x-mobipocket-ebook":"https://www.gutenberg.org/ebooks/68799.kf8.images","text/plain; charset=us-ascii":"https://www.gutenberg.org/ebooks/68799.txt.utf-8","application/rdf+xml":"https://www.gutenberg.org/ebooks/68799.rdf","image/jpeg":"https://www.gutenberg.org/cache/epub/68799/pg68799.cover.medium.jpg","application/octet-stream":"https://www.gutenberg.org/files/68799/68799-0.zip"},"download_count":19},{"id":68853,"title":"Pastiche and prejudice","authors":[{"name":"Walkley, Arthur Bingham","birth_year":1855,"death_year":1926}],"translators":[],"subjects":["Drama -- History and criticism","English essays -- 20th century","Literature -- History and criticism"],"bookshelves":[],"languages":["en"],"copyright":false,"media_type":"Text","formats":{"text/html":"https://www.gutenberg.org/ebooks/68853.html.images","application/epub+zip":"https://www.gutenberg.org/ebooks/68853.epub3.images","application/x-mobipocket-ebook":"https://www.gutenberg.org/ebooks/68853.kf8.images","text/plain; charset=us-ascii":"https://www.gutenberg.org/ebooks/68853.txt.utf-8","application/rdf+xml":"https://www.gutenberg.org/ebooks/68853.rdf","image/jpeg":"https://www.gutenberg.org/cache/epub/68853/pg68853.cover.medium.jpg","application/octet-stream":"https://www.gutenberg.org/files/68853/68853-0.zip"},"download_count":19},{"id":68886,"title":"King Edward's realm: Story of the making of the Empire","authors":[{"name":"Dawe, C. S. (Charles Sherwill)","birth_year":null,"death_year":null}],"translators":[],"subjects":["Great Britain -- History"],"bookshelves":[],"languages":["en"],"copyright":false,"media_type":"Text","formats":{"text/html":"https://www.gutenberg.org/ebooks/68886.html.images","application/epub+zip":"https://www.gutenberg.org/ebooks/68886.epub3.images","application/x-mobipocket-ebook":"https://www.gutenberg.org/ebooks/68886.kf8.images","text/plain; charset=us-ascii":"https://www.gutenberg.org/ebooks/68886.txt.utf-8","application/rdf+xml":"https://www.gutenberg.org/ebooks/68886.rdf","image/jpeg":"https://www.gutenberg.org/cache/epub/68886/pg68886.cover.medium.jpg","application/octet-stream":"https://www.gutenberg.org/files/68886/68886-0.zip"},"download_count":19},{"id":68920,"title":"Captain Balaam of the 'Cormorant', and other sea comedies","authors":[{"name":"Roberts, Morley","birth_year":1857,"death_year":1942}],"translators":[],"subjects":["English fiction -- 20th century","Sea stories, English","Short stories, English"],"bookshelves":[],"languages":["en"],"copyright":false,"media_type":"Text","formats":{"text/html":"https://www.gutenberg.org/ebooks/68920.html.images","application/epub+zip":"https://www.gutenberg.org/ebooks/68920.epub3.images","application/x-mobipocket-ebook":"https://www.gutenberg.org/ebooks/68920.kf8.images","text/plain; charset=us-ascii":"https://www.gutenberg.org/ebooks/68920.txt.utf-8","application/rdf+xml":"https://www.gutenberg.org/ebooks/68920.rdf","image/jpeg":"https://www.gutenberg.org/cache/epub/68920/pg68920.cover.medium.jpg","application/octet-stream":"https://www.gutenberg.org/files/68920/68920-0.zip"},"download_count":19},{"id":68940,"title":"The Review, Vol. 1, No. 5, May 1911","authors":[{"name":"Various","birth_year":null,"death_year":null}],"translators":[],"subjects":["Prisons -- Periodicals"],"bookshelves":[],"languages":["en"],"copyright":false,"media_type":"Text","formats":{"text/html":"https://www.gutenberg.org/ebooks/68940.html.images","application/epub+zip":"https://www.gutenberg.org/ebooks/68940.epub3.images","application/x-mobipocket-ebook":"https://www.gutenberg.org/ebooks/68940.kf8.images","text/plain; charset=us-ascii":"https://www.gutenberg.org/ebooks/68940.txt.utf-8","application/rdf+xml":"https://www.gutenberg.org/ebooks/68940.rdf","image/jpeg":"https://www.gutenberg.org/cache/epub/68940/pg68940.cover.medium.jpg","application/octet-stream":"https://www.gutenberg.org/files/68940/68940-0.zip"},"download_count":19},{"id":68981,"title":"Through a pocket lens","authors":[{"name":"Scherren, Henry","birth_year":1842,"death_year":1911}],"translators":[],"subjects":["Arthropoda","Microscopes","Microscopy"],"bookshelves":[],"languages":["en"],"copyright":false,"media_type":"Text","formats":{"text/html":"https://www.gutenberg.org/ebooks/68981.html.images","application/epub+zip":"https://www.gutenberg.org/ebooks/68981.epub3.images","application/x-mobipocket-ebook":"https://www.gutenberg.org/ebooks/68981.kf8.images","text/plain; charset=us-ascii":"https://www.gutenberg.org/ebooks/68981.txt.utf-8","application/rdf+xml":"https://www.gutenberg.org/ebooks/68981.rdf","image/jpeg":"https://www.gutenberg.org/cache/epub/68981/pg68981.cover.medium.jpg","application/octet-stream":"https://www.gutenberg.org/files/68981/68981-0.zip"},"download_count":19}]}