{"count":58808,"next":"http://129.241.150.113:8000/books/?languages=en&page=1768","previous":"http://129.241.150.113:8000/books/?languages=en&page=1766","results":[{"id":68252,"title":"The life story of a squirrel","authors":[{"name":"Bridges, T. C. (Thomas Charles)","birth_year":1868,"death_year":null}],"translators":[],"subjects":["Squirrels -- Juvenile fiction","Squirrels -- Juvenile literature"],"bookshelves":[],"languages":["en"],"copyright":false,"media_type":"Text","formats":{"text/html":"https://www.gutenberg.org/ebooks/68252.html.images","application/epub+zip":"https://www.gutenberg.org/ebooks/68252.epub3.images","application/x-mobipocket-ebook":"https://www.gutenberg.org/ebooks/68252.kf8.images","text/plain; charset=us-ascii":"https://www.gutenberg.org/ebooks/68252.txt.utf-8","application/rdf+xml":"https://www.gutenberg.org/ebooks/68252.rdf","image/jpeg":"https://www.gutenberg.org/cache/epub/68252/pg68252.cover.medium.jpg","application/octet-stream":"https://www.gutenberg.org/files/68252/68252-0.zip"},"download_count":15},{"id":68324,"title":"The 151st Field Artillery Brigade","authors":[{"name":"Russell, Richard M.","birth_year":null,"death_year":null}],"translators":[],"subjects":["United States. Army. Field Artillery Brigade, 151st","World War, 1914-1918 -- Regimental histories -- United States"],"bookshelves":[],"languages":["en"],"copyright":false,"media_type":"Text","formats":{"text/html":"https://www.gutenberg.org/ebooks/68324.html.images","application/epub+zip":"https://www.gutenberg.org/ebooks/68324.epub3.images","application/x-mobipocket-ebook":"https://www.gutenberg.org/ebooks/68324.kf8.images","text/plain; charset=us-ascii":"https://www.gutenberg.org/ebooks/68324.txt.utf-8","application/rdf+xml":"https://www.gutenberg.org/ebooks/68324.rdf","image/jpeg":"https://www.gutenberg.org/cache/epub/68324/pg68324.cover.medium.jpg","application/octet-stream":"https://www.gutenberg.org/files/68324/68324-0.zip"},"download_count":15},{"id":68554,"title":"Rustlers beware!","authors":[{"name":"Chapman, Arthur","birth_year":1873,"death_year":1935}],"translators":[],"subjects":["Cattle stealing -- Fiction","Cowboys -- Fiction","Gunfighters -- Fiction","Love stories","Western stories"],"bookshelves":[],"languages":["en"],"copyright":false,"media_type":"Text","formats":{"text/html":"https://www.gutenberg.org/ebooks/68554.html.images","application/epub+zip":"https://www.gutenberg.org/ebooks/68554.epub3.images","application/x-mobipocket-ebook":"https://www.gutenberg.org/ebooks/68554.kf8.images","text/plain; charset=us-ascii":"https://www.gutenberg.org/ebooks/68554.txt.utf-8","application/rdf+xml":"https://www.gutenberg.org/ebooks/68554.rdf","image/jpeg":"https://www.gutenberg.org/cache/epub/68554/pg68554.cover.medium.jpg","application/octet-stream":"https://www.gutenberg.org/files/68554/68554-0.zip"},"download_count":15},{"id":68654,"title":"Canada in war-paint","authors":[{"name":"Bell, Ralph W.","birth_year":null,"death_year":null}],"translators":[],"subjects":["World War, 1914-1918 -- Personal narratives, Canadian"],"bookshelves":[],"languages":["en"],"copyright":false,"media_type":"Text","formats":{"text/html":"https://www.gutenberg.org/ebooks/68654.html.images","application/epub+zip":"https://www.gutenberg.org/ebooks/68654.epub3.images","application/x-mobipocket-ebook":"https://www.gutenberg.org/ebooks/68654.kf8.images","text/plain; charset=us-ascii":"https://www.gutenberg.org/ebooks/68654.txt.utf-8","application/rdf+xml":"https://www.gutenberg.org/ebooks/68654.rdf","image/jpeg":"https://www.gutenberg.org/cache/epub/68654/pg68654.cover.medium.jpg","application/octet-stream":"https://www.gutenberg.org/files/68654/68654-0.zip"},"download_count":15},{"id":68684,"title":"The American missionary — volume 42, no. 9, September, 1888","authors":[{"name":"Various","birth_year":null,"death_year":null}],"translators":[],"subjects":["Congregational churches -- Missions -- Periodicals","Home missions -- Periodicals"],"bookshelves":[],"languages":["en"],"copyright":false,"media_type":"Text","formats":{"text/html":"https://www.gutenberg.org/ebooks/68684.html.images","application/epub+zip":"https://www.gutenberg.org/ebooks/68684.epub3.images","application/x-mobipocket-ebook":"https://www.gutenberg.org/ebooks/68684.kf8.images","text/plain; charset=us-ascii":"https://www.gutenberg.org/ebooks/68684.txt.utf-8","application/rdf+xml":"https://www.gutenberg.org/ebooks/68684.rdf","image/jpeg":"https://www.gutenberg.org/cache/epub/68684/pg68684.cover.medium.jpg","application/octet-stream":"https://www.gutenberg.org/files/68684/68684-0.zip"},"download_count":15},{"id":68855,"title":"The Chattanooga Campaign: With especial reference to Wisconsin's participation therein","authors":[{"name":"Fitch, Michael Hendrick","birth_year":1837,"death_year":null}],"translators":[],"subjects":["Chattanooga, Battle of, Chattanooga, Tenn., 1863","Chickamauga, Battle of, Ga., 1863","United States -- History -- Civil War, 1861-1865 -- Campaigns"],"bookshelves":[],"languages":["en"],"copyright":false,"media_type":"Text","formats":{"text/html":"https://www.gutenberg.org/ebooks/68855.html.images","application/epub+zip":"https://www.gutenberg.org/ebooks/68855.epub3.images","application/x-mobipocket-ebook":"https://www.gutenberg.org/ebooks/68855.kf8.images","text/plain; charset=us-ascii":"https://www.gutenberg.org/ebooks/68855.txt.utf-8","application/rdf+xml":"https://www.gutenberg.org/ebooks/68855.rdf","image/jpeg":"https://www.gutenberg.org/cache/epub/68855/pg68855.cover.medium.jpg","application/octet-stream":"https://www.gutenberg.org/files/68855/68855-0.zip"},"download_count":15},{"id":68918,"title":"Assignats","authors":[{"name":"Leverage, Henry","birth_year":1885,"death_year":1931}],"translators":[],"subjects":["Mutiny -- Fiction","Sea stories","Short stories","Smugglers -- Fiction"],"bookshelves":[],"languages":["en"],"copyright":false,"media_type":"Text","formats":{"text/html":"https://www.gutenberg.org/ebooks/68918.html.images","application/epub+zip":"https://www.gutenberg.org/ebooks/68918.epub3.images","application/x-mobipocket-ebook":"https://www.gutenberg.org/ebooks/68918.kf8.images","text/plain; charset=us-ascii":"https://www.gutenberg.org/ebooks/68918.txt.utf-8","application/rdf+xml":"https://www.gutenberg.org/ebooks/68918.rdf","image/jpeg":"https://www.gutenberg.org/cache/epub/68918/pg68918.cover.medium.jpg","application/octet-stream":"https://www.gutenberg.org/files/68918/68918-0.zip"},"download_count":15},{"id":69050,"title":"The coming","authors":[{"name":"Snaith, J. C. (John Collis)","birth_year":1876,"death_year":1936}],"translators":[],"subjects":["Second Advent -- Fiction","Villages -- England -- Fiction","World War, 1914-1918 -- England -- Fiction"],"bookshelves":[],"languages":["en"],"copyright":false,"media_type":"Text","formats":{"text/html":"https://www.gutenberg.org/ebooks/69050.html.images","application/epub+zip":"https://www.gutenberg.org/ebooks/69050.epub3.images","application/x-mobipocket-ebook":"https://www.gutenberg.org/ebooks/69050.kf8.images","text/plain; charset=us-ascii":"https://www.gutenberg.org/ebooks/69050.txt.utf-8","application/rdf+xml":"https://www.gutenberg.org/ebooks/69050.rdf","image/jpeg":"https://www.gutenberg.org/cache/epub/69050/pg69050.cover.medium.jpg","application/octet-stream":"https://www.gutenberg.org/files/69050/69050-0.zip"},"download_count":15},{"id":69056,"title":"John de Lancaster: a novel; vol. II.","authors":[{"name":"Cumberland, Richard","birth_year":1732,"death_year":1811}],"translators":[],"subjects":["Wales, North -- Fiction"],"bookshelves":[],"languages":["en"],"copyright":false,"media_type":"Text","formats":{"text/html":"https://www.gutenberg.org/ebooks/69056.html.images","application/epub+zip":"https://www.gutenberg.org/ebooks/69056.epub3.images","application/x-mobipocket-ebook":"https://www.gutenberg.org/ebooks/69056.kf8.images","text/plain; charset=us-ascii":"https://www.gutenberg.org/ebooks/69056.txt.utf-8","application/rdf+xml":"https://www.gutenberg.org/ebooks/69056.rdf","image/jpeg":"https://www.gutenberg.org/cache/epub/69056/pg69056.cover.medium.jpg","application/octet-stream":"https://www.gutenberg.org/files/69056/69056-0.zip"},"download_count":15},{"id":69197,"title":"Sketches from the history of medicine, ancient and modern: An oration delivered before the Hunterian Society","authors":[{"name":"Saunders, W. Sedgwick (William Sedgwick)","birth_year":1824,"death_year":1901}],"translators":[],"subjects":["Medicine -- History","Speeches, addresses, etc., English"],"bookshelves":[],"languages":["en"],"copyright":false,"media_type":"Text","formats":{"text/html":"https://www.gutenberg.org/ebooks/69197.html.images","application/epub+zip":"https://www.gutenberg.org/ebooks/69197.epub3.images","application/x-mobipocket-ebook":"https://www.gutenberg.org/ebooks/69197.kf8.images","text/plain; charset=us-ascii":"https://www.gutenberg.org/ebooks/69197.txt.utf-8","application/rdf+xml":"https://www.gutenberg.org/ebooks/69197.rdf","image/jpeg":"https://www.gutenberg.org/cache/epub/69197/pg69197.cover.medium.jpg","application/octet-stream":"https://www.gutenberg.org/files/69197/69197-0.zip"},"download_count":15},{"id":69218,"title":"The worship of the golden calf: A story of wage-slavery in Massachusetts","authors":[{"name":"French, Charles Sheldon","birth_year":null,"death_year":null}],"translators":[],"subjects":["Massachusetts -- Fiction","Mills and mill-work -- Fiction","Political fiction"],"bookshelves":[],"languages":["en"],"copyright":false,"media_type":"Text","formats":{"text/html":"https://www.gutenberg.org/ebooks/69218.html.images","application/epub+zip":"https://www.gutenberg.org/ebooks/69218.epub3.images","application/x-mobipocket-ebook":"https://www.gutenberg.org/ebooks/69218.kf8.images","text/plain; charset=us-ascii":"https://www.gutenberg.org/ebooks/69218.txt.utf-8","application/rdf+xml":"https://www.gutenberg.org/ebooks/69218.rdf","image/jpeg":"https://www.gutenberg.org/cache/epub/69218/pg69218.cover.medium.jpg","application/octet-stream":"https://www.gutenberg.org/files/69218/69218-0.zip"},"download_count":15},{"id":69403,"title":"Ornithological biography, Vol. 3 (of 5) : $b An account of the habits of the birds of the United States of America","authors":[{"name":"Audubon, John James","birth_year":1785,"death_year":1851}],"translators":[],"subjects":["Birds -- North America"],"bookshelves":[],"languages":["en"],"copyright":false,"media_type":"Text","formats":{"text/html":"https://www.gutenberg.org/ebooks/69403.html.images","application/epub+zip":"https://www.gutenberg.org/ebooks/69403.epub3.images","application/x-mobipocket-ebook":"https://www.gutenberg.org/ebooks/69403.kf8.images","text/plain; charset=us-ascii":"https://www.gutenberg.org/ebooks/69403.txt.utf-8","application/rdf+xml":"https://www.gutenberg.org/ebooks/69403.rdf","image/jpeg":"https://www.gutenberg.org/cache/epub/69403/pg69403.cover.medium.jpg","application/octet-stream":"https://www.gutenberg.org/files/69403/69403-0.zip"},"download_count":15},{"id":69624,"title":"Feudal tyrants; or, The Counts of Carlsheim and Sargans, volume 3 (of 4)","authors":[{"name":"Naubert, Benedikte","birth_year":1756,"death_year":1819}],"translators":[{"name":"Lewis, M. G. (Matthew Gregory)","birth_year":1775,"death_year":1818}],"subjects":["German fiction -- Translations into English"],"bookshelves":[],"languages":["en"],"copyright":false,"media_type":"Text","formats":{"text/html":"https://www.gutenberg.org/ebooks/69624.html.images","application/epub+zip":"https://www.gutenberg.org/ebooks/69624.epub3.images","application/x-mobipocket-ebook":"https://www.gutenberg.org/ebooks/69624.kf8.images","text/plain; charset=us-ascii":"https://www.gutenberg.org/ebooks/69624.txt.utf-8","application/rdf+xml":"https://www.gutenberg.org/ebooks/69624.rdf","image/jpeg":"https://www.gutenberg.org/cache/epub/69624/pg69624.cover.medium.jpg","application/octet-stream":"https://www.gutenberg.org/files/69624/69624-0.zip"},"download_count":15},{"id":69651,"title":"Where England sets her feet: a romance","authors":[{"name":"Capes, Bernard","birth_year":1854,"death_year":1918}],"translators":[],"subjects":["Adventure stories","Great Britain -- History -- Elizabeth, 1558-1603 -- Fiction","Historical fiction"],"bookshelves":[],"languages":["en"],"copyright":false,"media_type":"Text","formats":{"text/html":"https://www.gutenberg.org/ebooks/69651.html.images","application/epub+zip":"https://www.gutenberg.org/ebooks/69651.epub3.images","application/x-mobipocket-ebook":"https://www.gutenberg.org/ebooks/69651.kf8.images","text/plain; charset=us-ascii":"https://www.gutenberg.org/ebooks/69651.txt.utf-8","application/rdf+xml":"https://www.gutenberg.org/ebooks/69651.rdf","image/jpeg":"https://www.gutenberg.org/cache/epub/69651/pg69651.cover.medium.jpg","application/octet-stream":"https://www.gutenberg.org/files/69651/69651-0.zip"},"download_count":15},{"id":69720,"title":"Moll Davis: a comedy","authors":[{"name":"Capes, Bernard","birth_year":1854,"death_year":1918}],"translators":[],"subjects":["Great Britain -- History -- Charles II, 1660-1685 -- Fiction","Historical fiction"],"bookshelves":[],"languages":["en"],"copyright":false,"media_type":"Text","formats":{"text/html":"https://www.gutenberg.org/ebooks/69720.html.images","application/epub+zip":"https://www.gutenberg.org/ebooks/69720.epub3.images","application/x-mobipocket-ebook":"https://www.gutenberg.org/ebooks/69720.kf8.images","text/plain; charset=us-ascii":"https://www.gutenberg.org/ebooks/69720.txt.utf-8","application/rdf+xml":"https://www.gutenberg.org/ebooks/69720.rdf","image/jpeg":"https://www.gutenberg.org/cache/epub/69720/pg69720.cover.medium.jpg","application/octet-stream":"https://www.gutenberg.org/files/69720/69720-0.zip"},"download_count":15},{"id":69755,"title":"Women for votes","authors":[{"name":"Hughes, Elizabeth","birth_year":null,"death_year":null}],"translators":[],"subjects":["Farces","Women -- Suffrage -- Drama"],"bookshelves":[],"languages":["en"],"copyright":false,"media_type":"Text","formats":{"text/html":"https://www.gutenberg.org/ebooks/69755.html.images","application/epub+zip":"https://www.gutenberg.org/ebooks/69755.epub3.images","application/x-mobipocket-ebook":"https://www.gutenberg.org/ebooks/69755.kf8.images","text/plain; charset=us-ascii":"https://www.gutenberg.org/ebooks/69755.txt.utf-8","application/rdf+xml":"https://www.gutenberg.org/ebooks/69755.rdf","image/jpeg":"https://www.gutenberg.org/cache/epub/69755/pg69755.cover.medium.jpg","application/octet-stream":"https://www.gutenberg.org/files/69755/69755-0.zip"},"download_count":15},{"id":69760,"title":"Brothers and sisters","authors":[{"name":"Brown, Abbie Farwell","birth_year":1871,"death_year":1927}],"translators":[],"subjects":["Children -- Juvenile fiction","Siblings -- Juvenile fiction"],"bookshelves":[],"languages":["en"],"copyright":false,"media_type":"Text","formats":{"text/html":"https://www.gutenberg.org/ebooks/69760.html.images","application/epub+zip":"https://www.gutenberg.org/ebooks/69760.epub3.images","application/x-mobipocket-ebook":"https://www.gutenberg.org/ebooks/69760.kf8.images","text/plain; charset=us-ascii":"https://www.gutenberg.org/ebooks/69760.txt.utf-8","application/rdf+xml":"https://www.gutenberg.org/ebooks/69760.rdf","image/jpeg":"https://www.gutenberg.org/cache/epub/69760/pg69760.cover.medium.jpg","application/octet-stream":"https://www.gutenberg.org/files/69760/69760-0.zip"},"download_count":15},{"id":69865,"title":"North by night","authors":[{"name":"Burchard, Peter","birth_year":1921,"death_year":2004}],"translators":[],"subjects":["United States -- History -- Civil War, 1861-1865 -- Juvenile fiction"],"bookshelves":[],"languages":["en"],"copyright":false,"media_type":"Text","formats":{"text/html":"https://www.gutenberg.org/ebooks/69865.html.images","application/epub+zip":"https://www.gutenberg.org/ebooks/69865.epub3.images","application/x-mobipocket-ebook":"https://www.gutenberg.org/ebooks/69865.kf8.images","text/plain; charset=us-ascii":"https://www.gutenberg.org/ebooks/69865.txt.utf-8","application/rdf+xml":"https://www.gutenberg.org/ebooks/69865.rdf","image/jpeg":"https://www.gutenberg.org/cache/epub/69865/pg69865.cover.medium.jpg","application/octet-stream":"https://www.gutenberg.org/files/69865/69865-0.zip"},"download_count":15},{"id":70072,"title":"Coloured engravings of heaths; vol. 4","authors":[{"name":"Andrews, Henry Cranke, active 1799-1828","birth_year":null,"death_year":null}],"translators":[],"subjects":["Ericas","Ericas -- Pictorial works"],"bookshelves":[],"languages":["en"],"copyright":false,"media_type":"Text","formats":{"text/html":"https://www.gutenberg.org/ebooks/70072.html.images","application/epub+zip":"https://www.gutenberg.org/ebooks/70072.epub3.images","application/x-mobipocket-ebook":"https://www.gutenberg.org/ebooks/70072.kf8.images","text/plain; charset=us-ascii":"https://www.gutenberg.org/ebooks/70072.txt.utf-8","application/rdf+xml":"https://www.gutenberg.org/ebooks/70072.rdf","image/jpeg":"https://www.gutenberg.org/cache/epub/70072/pg70072.cover.medium.jpg","application/octet-stream":"https://www.gutenberg.org/files/70072/70072-0.zip"},"download_count":15},{"id":70185,"title":"Chateau d'Or, Norah, and Kitty Craig","authors":[{"name":"Holmes, Mary Jane","birth_year":1825,"death_year":1907}],"translators":[],"subjects":["American fiction -- 19th century","Americans -- France -- Fiction","Manners and customs -- Fiction"],"bookshelves":[],"languages":["en"],"copyright":false,"media_type":"Text","formats":{"text/html":"https://www.gutenberg.org/ebooks/70185.html.images","application/epub+zip":"https://www.gutenberg.org/ebooks/70185.epub3.images","application/x-mobipocket-ebook":"https://www.gutenberg.org/ebooks/70185.kf8.images","text/plain; charset=us-ascii":"https://www.gutenberg.org/ebooks/70185.txt.utf-8","application/rdf+xml":"https://www.gutenberg.org/ebooks/70185.rdf","image/jpeg":"https://www.gutenberg.org/cache/epub/70185/pg70185.cover.medium.jpg","application/octet-stream":"https://www.gutenberg.org/files/70185/70185-0.zip"},"download_count":15},{"id":70224,"title":"The chariot of the sun : $b a fantasy","authors":[{"name":"Pocock, Roger","birth_year":1865,"death_year":1941}],"translators":[],"subjects":["Canadian fiction","Speculative fiction"],"bookshelves":[],"languages":["en"],"copyright":false,"media_type":"Text","formats":{"text/html":"https://www.gutenberg.org/ebooks/70224.html.images","application/epub+zip":"https://www.gutenberg.org/ebooks/70224.epub3.images","application/x-mobipocket-ebook":"https://www.gutenberg.org/ebooks/70224.kf8.images","text/plain; charset=us-ascii":"https://www.gutenberg.org/ebooks/70224.txt.utf-8","application/rdf+xml":"https://www.gutenberg.org/ebooks/70224.rdf","image/jpeg":"https://www.gutenberg.org/cache/epub/70224/pg70224.cover.medium.jpg","application/octet-stream":"https://www.gutenberg.org/files/70224/70224-0.zip"},"download_count":15},{"id":70244,"title":"Deems Taylor","authors":[{"name":"Howard, John Tasker","birth_year":1890,"death_year":1964}],"translators":[],"subjects":["Composers -- United States -- Biography","Taylor, Deems, 1885-1966"],"bookshelves":[],"languages":["en"],"copyright":false,"media_type":"Text","formats":{"text/html":"https://www.gutenberg.org/ebooks/70244.html.images","application/epub+zip":"https://www.gutenberg.org/ebooks/70244.epub3.images","application/x-mobipocket-ebook":"https://www.gutenberg.org/ebooks/70244.kf8.images","text/plain; charset=us-ascii":"https://www.gutenberg.org/ebooks/70244.txt.utf-8","application/rdf+xml":"https://www.gutenberg.org/ebooks/70244.rdf","image/jpeg":"https://www.gutenberg.org/cache/epub/70244/pg70244.cover.medium.jpg","application/octet-stream":"https://www.gutenberg.org/files/70244/70244-0.zip"},"download_count":15},{"id":70278,"title":"Chambers's Journal of Popular Literature, Science, and Art, fifth series, no. 120, vol. III, April 17, 1886","authors":[{"name":"Various","birth_year":null,"death_year":null}],"translators":[],"subjects":["Periodicals"],"bookshelves":[],"languages":["en"],"copyright":false,"media_type":"Text","formats":{"text/html":"https://www.gutenberg.org/ebooks/70278.html.images","application/epub+zip":"https://www.gutenberg.org/ebooks/70278.epub3.images","application/x-mobipocket-ebook":"https://www.gutenberg.org/ebooks/70278.kf8.images","text/plain; charset=us-ascii":"https://www.gutenberg.org/ebooks/70278.txt.utf-8","application/rdf+xml":"https://www.gutenberg.org/ebooks/70278.rdf","image/jpeg":"https://www.gutenberg.org/cache/epub/70278/pg70278.cover.medium.jpg","application/octet-stream":"https://www.gutenberg.org/files/70278/70278-0.zip"},"download_count":15},{"id":70462,"title":"The hermit of the forest : $b or, Wandering infants, a rural tale","authors":[{"name":"Anonymous","birth_year":null,"death_year":null}],"translators":[],"subjects":["Abandoned children -- Juvenile fiction","Children's stories","Fathers -- Juvenile fiction","Hermits -- Juvenile fiction","Uncles -- Juvenile fiction"],"bookshelves":[],"languages":["en"],"copyright":false,"media_type":"Text","formats":{"text/html":"https://www.gutenberg.org/ebooks/70462.html.images","application/epub+zip":"https://www.gutenberg.org/ebooks/70462.epub3.images","application/x-mobipocket-ebook":"https://www.gutenberg.org/ebooks/70462.kf8.images","text/plain; charset=us-ascii":"https://www.gutenberg.org/ebooks/70462.txt.utf-8","application/rdf+xml":"https://www.gutenberg.org/ebooks/70462.rdf","image/jpeg":"https://www.gutenberg.org/cache/epub/70462/pg70462.cover.medium.jpg","application/octet-stream":"https://www.gutenberg.org/files/70462/70462-0.zip"},"download_count":15},{"id":70621,"title":"Oxford and the Rhodes Scholarships","authors":[{"name":"Hornbeck, Stanley Kuhl","birth_year":1883,"death_year":1966},{"name":"Scholz, R. F. (Richard Frederick)","birth_year":null,"death_year":null}],"translators":[],"subjects":["Rhodes scholarships"],"bookshelves":[],"languages":["en"],"copyright":false,"media_type":"Text","formats":{"text/html":"https://www.gutenberg.org/ebooks/70621.html.images","application/epub+zip":"https://www.gutenberg.org/ebooks/70621.epub3.images","application/x-mobipocket-ebook":"https://www.gutenberg.org/ebooks/70621.kf8.images","text/plain; charset=us-ascii":"https://www.gutenberg.org/ebooks/70621.txt.utf-8","application/rdf+xml":"https://www.gutenberg.org/ebooks/70621.rdf","image/jpeg":"https://www.gutenberg.org/cache/epub/70621/pg70621.cover.medium.jpg","application/octet-stream":"https://www.gutenberg.org/files/70621/70621-0.zip"},"download_count":15},{"id":70852,"title":"The Chinese lantern : $b A play","authors":[{"name":"Housman, Laurence","birth_year":1865,"death_year":1959}],"translators":[],"subjects":["English drama -- 20th century"],"bookshelves":[],"languages":["en"],"copyright":false,"media_type":"Text","formats":{"text/html":"https://www.gutenberg.org/ebooks/70852.html.images","application/epub+zip":"https://www.gutenberg.org/ebooks/70852.epub3.images","application/x-mobipocket-ebook":"https://www.gutenberg.org/ebooks/70852.kf8.images","text/plain; charset=us-ascii":"https://www.gutenberg.org/ebooks/70852.txt.utf-8","application/rdf+xml":"https://www.gutenberg.org/ebooks/70852.rdf","image/jpeg":"https://www.gutenberg.org/cache/epub/70852/pg70852.cover.medium.jpg","application/octet-stream":"https://www.gutenberg.org/files/70852/70852-0.zip"},"download_count":15},{"id":71012,"title":"At the \"Sign of the Golden Fleece\" : $b A Story of Reformation Days","authors":[{"name":"Leslie, Emma","birth_year":1838,"death_year":1909}],"translators":[],"subjects":["Historical fiction","Reformation -- England -- Juvenile fiction"],"bookshelves":[],"languages":["en"],"copyright":false,"media_type":"Text","formats":{"text/html":"https://www.gutenberg.org/ebooks/71012.html.images","application/epub+zip":"https://www.gutenberg.org/ebooks/71012.epub3.images","application/x-mobipocket-ebook":"https://www.gutenberg.org/ebooks/71012.kf8.images","text/plain; charset=us-ascii":"https://www.gutenberg.org/ebooks/71012.txt.utf-8","application/rdf+xml":"https://www.gutenberg.org/ebooks/71012.rdf","image/jpeg":"https://www.gutenberg.org/cache/epub/71012/pg71012.cover.medium.jpg","application/octet-stream":"https://www.gutenberg.org/files/71012/71012-0.zip"},"download_count":15},{"id":71203,"title":"Father Tom and the Pope : $b Or, a night in the Vatican","authors":[{"name":"Ferguson, Samuel","birth_year":1810,"death_year":1886}],"translators":[],"subjects":["Catholic Church -- Fiction","Christian fiction","Clergy -- Fiction","Popes -- Fiction"],"bookshelves":[],"languages":["en"],"copyright":false,"media_type":"Text","formats":{"text/html":"https://www.gutenberg.org/ebooks/71203.html.images","application/epub+zip":"https://www.gutenberg.org/ebooks/71203.epub3.images","application/x-mobipocket-ebook":"https://www.gutenberg.org/ebooks/71203.kf8.images","text/plain; charset=us-ascii":"https://www.gutenberg.org/ebooks/71203.txt.utf-8","application/rdf+xml":"https://www.gutenberg.org/ebooks/71203.rdf","image/jpeg":"https://www.gutenberg.org/cache/epub/71203/pg71203.cover.medium.jpg","application/octet-stream":"https://www.gutenberg.org/files/71203/71203-0.zip"},"download_count":15},{"id":71245,"title":"The new buggy","authors":[{"name":"Leslie, Madeline","birth_year":1815,"death_year":1893}],"translators":[],"subjects":["Generosity -- Juvenile fiction"],"bookshelves":[],"languages":["en"],"copyright":false,"media_type":"Text","formats":{"text/html":"https://www.gutenberg.org/ebooks/71245.html.images","application/epub+zip":"https://www.gutenberg.org/ebooks/71245.epub3.images","application/x-mobipocket-ebook":"https://www.gutenberg.org/ebooks/71245.kf8.images","text/plain; charset=us-ascii":"https://www.gutenberg.org/ebooks/71245.txt.utf-8","application/rdf+xml":"https://www.gutenberg.org/ebooks/71245.rdf","image/jpeg":"https://www.gutenberg.org/cache/epub/71245/pg71245.cover.medium.jpg","application/octet-stream":"https://www.gutenberg.org/files/71245/71245-0.zip"},"download_count":15},{"id":71301,"title":"The Wishing Carpet","authors":[{"name":"Mitchell, Ruth Comfort","birth_year":1882,"death_year":1954}],"translators":[],"subjects":["Love stories","Mate selection -- Fiction","Mills and mill-work -- Fiction","Southern States -- Fiction"],"bookshelves":[],"languages":["en"],"copyright":false,"media_type":"Text","formats":{"text/html":"https://www.gutenberg.org/ebooks/71301.html.images","application/epub+zip":"https://www.gutenberg.org/ebooks/71301.epub3.images","application/x-mobipocket-ebook":"https://www.gutenberg.org/ebooks/71301.kf8.images","text/plain; charset=us-ascii":"https://www.gutenberg.org/ebooks/71301.txt.utf-8","application/rdf+xml":"https://www.gutenberg.org/ebooks/71301.rdf","image/jpeg":"https://www.gutenberg.org/cache/epub/71301/pg71301.cover.medium.jpg","application/octet-stream":"https://www.gutenberg.org/files/71301/71301-0.zip"},"download_count":15},{"id":632,"title":"The Square Root of 8","authors":[{"name":"Bonnell, Jerry T.","birth_year":null,"death_year":null},{"name":"Nemiroff, Robert J.","birth_year":null,"death_year":null}],"translators":[],"subjects":["Mathematics"],"bookshelves":["Mathematics"],"languages":["en"],"copyright":false,"media_type":"Dataset","formats":{"application/rdf+xml":"https://www.gutenberg.org/ebooks/632.rdf"},"download_count":14},{"id":716,"title":"The Cruise of the Jasper B.","authors":[{"name":"Marquis, Don","birth_year":1878,"death_year":1937}],"translators":[],"subjects":["Adventure stories","Cruise ships -- Fiction"],"bookshelves":[],"languages":["en"],"copyright":false,"media_type":"Text","formats":{"text/html":"https://www.gutenberg.org/ebooks/716.html.images","text/html; charset=iso-8859-1":"https://www.gutenberg.org/files/716/716-h/716-h.htm","application/epub+zip":"https://www.gutenberg.org/ebooks/716.epub3.images","application/x-mobipocket-ebook":"https://www.gutenberg.org/ebooks/716.kf8.images","text/plain; charset=us-ascii":"https://www.gutenberg.org/ebooks/716.txt.utf-8","application/rdf+xml":"https://www.gutenberg.org/ebooks/716.rdf","image/jpeg":"https://www.gutenberg.org/cache/epub/716/pg716.cover.medium.jpg","application/octet-stream":"https://www.gutenberg.org/cache/epub/716/pg716-h.zip"},"download_count":14}]}