{"count":58808,"next":"http://129.241.150.113:8000/books/?languages=en&page=1545","previous":"http://129.241.150.113:8000/books/?languages=en&page=1543","results":[{"id":8684,"title":"The Conquest of America: A Romance of Disaster and Victory, U.S.A., 1921 A.D.","authors":[{"name":"Moffett, Cleveland","birth_year":1863,"death_year":1926}],"translators":[],"subjects":["Imaginary wars and battles -- Fiction","Science fiction"],"bookshelves":[],"languages":["en"],"copyright":false,"media_type":"Text","formats":{"text/html":"https://www.gutenberg.org/ebooks/8684.html.images","text/html; charset=utf-8":"https://www.gutenberg.org/files/8684/8684-h/8684-h.htm","application/epub+zip":"https://www.gutenberg.org/ebooks/8684.epub3.images","application/x-mobipocket-ebook":"https://www.gutenberg.org/ebooks/8684.kf8.images","text/plain; charset=us-ascii":"https://www.gutenberg.org/ebooks/8684.txt.utf-8","text/plain; charset=utf-8":"https://www.gutenberg.org/files/8684/8684-0.txt","text/plain; charset=iso-8859-1":"https://www.gutenberg.org/files/8684/8684-8.txt","application/rdf+xml":"https://www.gutenberg.org/ebooks/8684.rdf","image/jpeg":"https://www.gutenberg.org/cache/epub/8684/pg8684.cover.medium.jpg","application/octet-stream":"https://www.gutenberg.org/cache/epub/8684/pg8684-h.zip"},"download_count":22},{"id":8705,"title":"The Doré Bible Gallery, Volume 5","authors":[],"translators":[],"subjects":["Bible -- Illustrations"],"bookshelves":[],"languages":["en"],"copyright":false,"media_type":"Text","formats":{"text/html":"https://www.gutenberg.org/ebooks/8705.html.images","text/html; charset=iso-8859-1":"https://www.gutenberg.org/files/8705/8705-h/8705-h.htm","application/epub+zip":"https://www.gutenberg.org/ebooks/8705.epub3.images","application/x-mobipocket-ebook":"https://www.gutenberg.org/ebooks/8705.kf8.images","text/plain; charset=us-ascii":"https://www.gutenberg.org/ebooks/8705.txt.utf-8","application/rdf+xml":"https://www.gutenberg.org/ebooks/8705.rdf","image/jpeg":"https://www.gutenberg.org/cache/epub/8705/pg8705.cover.medium.jpg","application/octet-stream":"https://www.gutenberg.org/cache/epub/8705/pg8705-h.zip"},"download_count":22},{"id":8721,"title":"The Three Cities Trilogy: Rome, Volume 1","authors":[{"name":"Zola, Émile","birth_year":1840,"death_year":1902}],"translators":[{"name":"Vizetelly, Ernest Alfred","birth_year":1853,"death_year":1922}],"subjects":["Catholics -- Fiction","Christian pilgrims and pilgrimages -- Fiction","Clergy -- Fiction","Rome (Italy) -- Fiction"],"bookshelves":[],"languages":["en"],"copyright":false,"media_type":"Text","formats":{"text/html":"https://www.gutenberg.org/ebooks/8721.html.images","application/epub+zip":"https://www.gutenberg.org/ebooks/8721.epub3.images","application/x-mobipocket-ebook":"https://www.gutenberg.org/ebooks/8721.kf8.images","text/plain; charset=us-ascii":"https://www.gutenberg.org/ebooks/8721.txt.utf-8","application/rdf+xml":"https://www.gutenberg.org/ebooks/8721.rdf","image/jpeg":"https://www.gutenberg.org/cache/epub/8721/pg8721.cover.medium.jpg","application/octet-stream":"https://www.gutenberg.org/cache/epub/8721/pg8721-h.zip"},"download_count":22},{"id":8751,"title":"Thuvia, Maid of Mars","authors":[{"name":"Burroughs, Edgar Rice","birth_year":1875,"death_year":1950}],"translators":[],"subjects":["Mars (Planet) -- Fiction","Martians -- Fiction","Science fiction"],"bookshelves":["Science Fiction"],"languages":["en"],"copyright":true,"media_type":"Sound","formats":{"text/plain; charset=us-ascii":"https://www.gutenberg.org/files/8751/8751-readme.txt","text/html; charset=iso-8859-1":"https://www.gutenberg.org/files/8751/8751-index.htm","audio/mpeg":"https://www.gutenberg.org/files/8751/mp3/8751-000.mp3","application/rdf+xml":"https://www.gutenberg.org/ebooks/8751.rdf","application/octet-stream":"https://www.gutenberg.org/files/8751/8751-mp3.zip"},"download_count":22},{"id":8770,"title":"Milton","authors":[{"name":"Pattison, Mark","birth_year":1813,"death_year":1884}],"translators":[],"subjects":["Milton, John, 1608-1674"],"bookshelves":["Biographies"],"languages":["en"],"copyright":false,"media_type":"Text","formats":{"text/html":"https://www.gutenberg.org/ebooks/8770.html.images","application/epub+zip":"https://www.gutenberg.org/ebooks/8770.epub3.images","application/x-mobipocket-ebook":"https://www.gutenberg.org/ebooks/8770.kf8.images","text/plain; charset=us-ascii":"https://www.gutenberg.org/ebooks/8770.txt.utf-8","text/plain; charset=iso-8859-1":"https://www.gutenberg.org/files/8770/8770-8.txt","application/rdf+xml":"https://www.gutenberg.org/ebooks/8770.rdf","image/jpeg":"https://www.gutenberg.org/cache/epub/8770/pg8770.cover.medium.jpg","application/octet-stream":"https://www.gutenberg.org/cache/epub/8770/pg8770-h.zip"},"download_count":22},{"id":8842,"title":"Weymouth New Testament in Modern Speech, 1 Timothy","authors":[{"name":"Weymouth, Richard Francis","birth_year":1822,"death_year":1902}],"translators":[],"subjects":["Bible. Timothy"],"bookshelves":[],"languages":["en"],"copyright":false,"media_type":"Text","formats":{"text/html":"https://www.gutenberg.org/ebooks/8842.html.images","application/epub+zip":"https://www.gutenberg.org/ebooks/8842.epub3.images","application/x-mobipocket-ebook":"https://www.gutenberg.org/ebooks/8842.kf8.images","text/plain; charset=us-ascii":"https://www.gutenberg.org/ebooks/8842.txt.utf-8","application/rdf+xml":"https://www.gutenberg.org/ebooks/8842.rdf","image/jpeg":"https://www.gutenberg.org/cache/epub/8842/pg8842.cover.medium.jpg","application/octet-stream":"https://www.gutenberg.org/cache/epub/8842/pg8842-h.zip"},"download_count":22},{"id":8845,"title":"Weymouth New Testament in Modern Speech, Philemon","authors":[{"name":"Weymouth, Richard Francis","birth_year":1822,"death_year":1902}],"translators":[],"subjects":["Bible. Epistles of Paul","Bible. Philemon"],"bookshelves":[],"languages":["en"],"copyright":false,"media_type":"Text","formats":{"text/html":"https://www.gutenberg.org/ebooks/8845.html.images","application/epub+zip":"https://www.gutenberg.org/ebooks/8845.epub3.images","application/x-mobipocket-ebook":"https://www.gutenberg.org/ebooks/8845.kf8.images","text/plain; charset=us-ascii":"https://www.gutenberg.org/ebooks/8845.txt.utf-8","application/rdf+xml":"https://www.gutenberg.org/ebooks/8845.rdf","image/jpeg":"https://www.gutenberg.org/cache/epub/8845/pg8845.cover.medium.jpg","application/octet-stream":"https://www.gutenberg.org/cache/epub/8845/pg8845-h.zip"},"download_count":22},{"id":8852,"title":"Weymouth New Testament in Modern Speech, 3 John","authors":[{"name":"Weymouth, Richard Francis","birth_year":1822,"death_year":1902}],"translators":[],"subjects":["Bible. John"],"bookshelves":[],"languages":["en"],"copyright":false,"media_type":"Text","formats":{"text/html":"https://www.gutenberg.org/ebooks/8852.html.images","application/epub+zip":"https://www.gutenberg.org/ebooks/8852.epub3.images","application/x-mobipocket-ebook":"https://www.gutenberg.org/ebooks/8852.kf8.images","text/plain; charset=us-ascii":"https://www.gutenberg.org/ebooks/8852.txt.utf-8","application/rdf+xml":"https://www.gutenberg.org/ebooks/8852.rdf","image/jpeg":"https://www.gutenberg.org/cache/epub/8852/pg8852.cover.medium.jpg","application/octet-stream":"https://www.gutenberg.org/cache/epub/8852/pg8852-h.zip"},"download_count":22},{"id":9025,"title":"How to Tell a Story and Other Essays","authors":[{"name":"Twain, Mark","birth_year":1835,"death_year":1910}],"translators":[],"subjects":["Essays","Short stories","Storytelling"],"bookshelves":[],"languages":["en"],"copyright":true,"media_type":"Sound","formats":{"text/plain; charset=us-ascii":"https://www.gutenberg.org/files/9025/9025-readme.txt","text/html; charset=iso-8859-1":"https://www.gutenberg.org/files/9025/9025-index.htm","audio/mpeg":"https://www.gutenberg.org/files/9025/mp3/9025-000.mp3","application/rdf+xml":"https://www.gutenberg.org/ebooks/9025.rdf","application/octet-stream":"https://www.gutenberg.org/files/9025/9025-mp3.zip"},"download_count":22},{"id":9063,"title":"The Penance of Magdalena and Other Tales of the California Missions","authors":[{"name":"Chase, J. Smeaton (Joseph Smeaton)","birth_year":1864,"death_year":1923}],"translators":[],"subjects":["Missions -- California -- Fiction"],"bookshelves":["Christianity"],"languages":["en"],"copyright":false,"media_type":"Text","formats":{"text/html":"https://www.gutenberg.org/ebooks/9063.html.images","text/html; charset=us-ascii":"https://www.gutenberg.org/files/9063/9063-h/9063-h.htm","application/epub+zip":"https://www.gutenberg.org/ebooks/9063.epub3.images","application/x-mobipocket-ebook":"https://www.gutenberg.org/ebooks/9063.kf8.images","text/plain; charset=us-ascii":"https://www.gutenberg.org/ebooks/9063.txt.utf-8","application/rdf+xml":"https://www.gutenberg.org/ebooks/9063.rdf","image/jpeg":"https://www.gutenberg.org/cache/epub/9063/pg9063.cover.medium.jpg","application/octet-stream":"https://www.gutenberg.org/cache/epub/9063/pg9063-h.zip"},"download_count":22},{"id":9095,"title":"The Life and Letters of Maria Edgeworth, Volume 2","authors":[{"name":"Edgeworth, Maria","birth_year":1767,"death_year":1849}],"translators":[],"subjects":["Edgeworth, Maria, 1768-1849","Novelists, Irish -- 19th century -- Biography"],"bookshelves":[],"languages":["en"],"copyright":false,"media_type":"Text","formats":{"text/html":"https://www.gutenberg.org/ebooks/9095.html.images","application/epub+zip":"https://www.gutenberg.org/ebooks/9095.epub3.images","application/x-mobipocket-ebook":"https://www.gutenberg.org/ebooks/9095.kf8.images","text/plain; charset=us-ascii":"https://www.gutenberg.org/ebooks/9095.txt.utf-8","text/plain; charset=iso-8859-1":"https://www.gutenberg.org/files/9095/9095-8.txt","application/rdf+xml":"https://www.gutenberg.org/ebooks/9095.rdf","image/jpeg":"https://www.gutenberg.org/cache/epub/9095/pg9095.cover.medium.jpg","application/octet-stream":"https://www.gutenberg.org/cache/epub/9095/pg9095-h.zip"},"download_count":22},{"id":9149,"title":"The Gray Dawn","authors":[{"name":"White, Stewart Edward","birth_year":1873,"death_year":1946}],"translators":[],"subjects":["California -- Fiction"],"bookshelves":[],"languages":["en"],"copyright":false,"media_type":"Text","formats":{"text/html":"https://www.gutenberg.org/ebooks/9149.html.images","application/epub+zip":"https://www.gutenberg.org/ebooks/9149.epub3.images","application/x-mobipocket-ebook":"https://www.gutenberg.org/ebooks/9149.kf8.images","text/plain; charset=us-ascii":"https://www.gutenberg.org/ebooks/9149.txt.utf-8","text/plain; charset=iso-8859-1":"https://www.gutenberg.org/files/9149/9149-8.txt","application/rdf+xml":"https://www.gutenberg.org/ebooks/9149.rdf","image/jpeg":"https://www.gutenberg.org/cache/epub/9149/pg9149.cover.medium.jpg","application/octet-stream":"https://www.gutenberg.org/cache/epub/9149/pg9149-h.zip"},"download_count":22},{"id":9165,"title":"The Three Cities Trilogy: Paris, Volume 2","authors":[{"name":"Zola, Émile","birth_year":1840,"death_year":1902}],"translators":[{"name":"Vizetelly, Ernest Alfred","birth_year":1853,"death_year":1922}],"subjects":["Catholics -- Fiction","Clergy -- Fiction","Man-woman relationships -- Fiction","Paris (France) -- Fiction"],"bookshelves":[],"languages":["en"],"copyright":false,"media_type":"Text","formats":{"text/html":"https://www.gutenberg.org/ebooks/9165.html.images","text/html; charset=iso-8859-1":"https://www.gutenberg.org/files/9165/9165-h/9165-h.htm","application/epub+zip":"https://www.gutenberg.org/ebooks/9165.epub3.images","application/x-mobipocket-ebook":"https://www.gutenberg.org/ebooks/9165.kf8.images","text/plain; charset=us-ascii":"https://www.gutenberg.org/ebooks/9165.txt.utf-8","application/rdf+xml":"https://www.gutenberg.org/ebooks/9165.rdf","image/jpeg":"https://www.gutenberg.org/cache/epub/9165/pg9165.cover.medium.jpg","application/octet-stream":"https://www.gutenberg.org/cache/epub/9165/pg9165-h.zip"},"download_count":22},{"id":9177,"title":"The Royal Game of the Ombre: Written at the Request of divers Honourable Persons—1665","authors":[{"name":"Anonymous","birth_year":null,"death_year":null}],"translators":[],"subjects":["Games -- England -- Early works to 1800","Ombre (Game) -- Early works to 1800"],"bookshelves":[],"languages":["en"],"copyright":false,"media_type":"Text","formats":{"text/html":"https://www.gutenberg.org/ebooks/9177.html.images","application/epub+zip":"https://www.gutenberg.org/ebooks/9177.epub3.images","application/x-mobipocket-ebook":"https://www.gutenberg.org/ebooks/9177.kf8.images","text/plain; charset=us-ascii":"https://www.gutenberg.org/ebooks/9177.txt.utf-8","application/rdf+xml":"https://www.gutenberg.org/ebooks/9177.rdf","image/jpeg":"https://www.gutenberg.org/cache/epub/9177/pg9177.cover.medium.jpg","application/octet-stream":"https://www.gutenberg.org/cache/epub/9177/pg9177-h.zip"},"download_count":22},{"id":9188,"title":"Aboriginal American Authors","authors":[{"name":"Brinton, Daniel G. (Daniel Garrison)","birth_year":1837,"death_year":1899}],"translators":[],"subjects":["Indian literature"],"bookshelves":["Native America"],"languages":["en"],"copyright":false,"media_type":"Text","formats":{"text/html":"https://www.gutenberg.org/ebooks/9188.html.images","application/epub+zip":"https://www.gutenberg.org/ebooks/9188.epub3.images","application/x-mobipocket-ebook":"https://www.gutenberg.org/ebooks/9188.kf8.images","text/plain; charset=us-ascii":"https://www.gutenberg.org/ebooks/9188.txt.utf-8","text/plain; charset=iso-8859-1":"https://www.gutenberg.org/files/9188/9188-8.txt","application/rdf+xml":"https://www.gutenberg.org/ebooks/9188.rdf","image/jpeg":"https://www.gutenberg.org/cache/epub/9188/pg9188.cover.medium.jpg","application/octet-stream":"https://www.gutenberg.org/cache/epub/9188/pg9188-h.zip"},"download_count":22},{"id":9229,"title":"The Intelligence Office (From \"Mosses from an Old Manse\")","authors":[{"name":"Hawthorne, Nathaniel","birth_year":1804,"death_year":1864}],"translators":[],"subjects":["New England -- Social life and customs -- Fiction","Short stories"],"bookshelves":[],"languages":["en"],"copyright":false,"media_type":"Text","formats":{"text/html":"https://www.gutenberg.org/ebooks/9229.html.images","application/epub+zip":"https://www.gutenberg.org/ebooks/9229.epub3.images","application/x-mobipocket-ebook":"https://www.gutenberg.org/ebooks/9229.kf8.images","text/plain; charset=us-ascii":"https://www.gutenberg.org/ebooks/9229.txt.utf-8","application/rdf+xml":"https://www.gutenberg.org/ebooks/9229.rdf","image/jpeg":"https://www.gutenberg.org/cache/epub/9229/pg9229.cover.medium.jpg","application/octet-stream":"https://www.gutenberg.org/files/9229/9229-0.zip"},"download_count":22},{"id":9250,"title":"A Book of Autographs","authors":[{"name":"Hawthorne, Nathaniel","birth_year":1804,"death_year":1864}],"translators":[],"subjects":["United States -- History -- Revolution, 1775-1783 -- Anecdotes"],"bookshelves":[],"languages":["en"],"copyright":false,"media_type":"Text","formats":{"text/html":"https://www.gutenberg.org/ebooks/9250.html.images","text/html; charset=iso-8859-1":"https://www.gutenberg.org/files/9250/9250-h/9250-h.htm","application/epub+zip":"https://www.gutenberg.org/ebooks/9250.epub3.images","application/x-mobipocket-ebook":"https://www.gutenberg.org/ebooks/9250.kf8.images","text/plain; charset=us-ascii":"https://www.gutenberg.org/ebooks/9250.txt.utf-8","application/rdf+xml":"https://www.gutenberg.org/ebooks/9250.rdf","image/jpeg":"https://www.gutenberg.org/cache/epub/9250/pg9250.cover.medium.jpg","application/octet-stream":"https://www.gutenberg.org/cache/epub/9250/pg9250-h.zip"},"download_count":22},{"id":9285,"title":"Summer","authors":[{"name":"Wharton, Edith","birth_year":1862,"death_year":1937}],"translators":[],"subjects":["Berkshire Hills (Mass.) -- Fiction","Guardian and ward -- Fiction","Love stories","Young women -- Fiction"],"bookshelves":[],"languages":["en"],"copyright":true,"media_type":"Sound","formats":{"text/plain; charset=us-ascii":"https://www.gutenberg.org/files/9285/9285-readme.txt","text/html; charset=iso-8859-1":"https://www.gutenberg.org/files/9285/9285-index.htm","audio/mpeg":"https://www.gutenberg.org/files/9285/mp3/9285-000.mp3","application/rdf+xml":"https://www.gutenberg.org/ebooks/9285.rdf","application/octet-stream":"https://www.gutenberg.org/files/9285/9285-mp3.zip"},"download_count":22},{"id":9291,"title":"The Reef","authors":[{"name":"Wharton, Edith","birth_year":1862,"death_year":1937}],"translators":[],"subjects":["Americans -- France -- Fiction","France -- Fiction"],"bookshelves":[],"languages":["en"],"copyright":true,"media_type":"Sound","formats":{"text/plain; charset=us-ascii":"https://www.gutenberg.org/files/9291/9291-readme.txt","text/html; charset=iso-8859-1":"https://www.gutenberg.org/files/9291/9291-index.htm","audio/mpeg":"https://www.gutenberg.org/files/9291/mp3/9291-000.mp3","application/rdf+xml":"https://www.gutenberg.org/ebooks/9291.rdf","application/octet-stream":"https://www.gutenberg.org/files/9291/9291-mp3.zip"},"download_count":22},{"id":9390,"title":"Fifteen Years with the Outcast","authors":[{"name":"Roberts, Fflorens","birth_year":null,"death_year":null}],"translators":[],"subjects":["Prostitution -- California"],"bookshelves":[],"languages":["en"],"copyright":false,"media_type":"Text","formats":{"text/html":"https://www.gutenberg.org/ebooks/9390.html.images","application/epub+zip":"https://www.gutenberg.org/ebooks/9390.epub3.images","application/x-mobipocket-ebook":"https://www.gutenberg.org/ebooks/9390.kf8.images","text/plain; charset=us-ascii":"https://www.gutenberg.org/ebooks/9390.txt.utf-8","application/rdf+xml":"https://www.gutenberg.org/ebooks/9390.rdf","image/jpeg":"https://www.gutenberg.org/cache/epub/9390/pg9390.cover.medium.jpg","application/octet-stream":"https://www.gutenberg.org/cache/epub/9390/pg9390-h.zip"},"download_count":22},{"id":9396,"title":"The Atlantic Monthly, Volume 05, No. 30, April, 1860: A Magazine of Literature, Art, and Politics","authors":[{"name":"Various","birth_year":null,"death_year":null}],"translators":[],"subjects":["American periodicals"],"bookshelves":["The Atlantic Monthly"],"languages":["en"],"copyright":false,"media_type":"Text","formats":{"application/rdf+xml":"https://www.gutenberg.org/ebooks/9396.rdf","text/html":"https://www.gutenberg.org/ebooks/9396.html.images","application/epub+zip":"https://www.gutenberg.org/ebooks/9396.epub3.images","application/x-mobipocket-ebook":"https://www.gutenberg.org/ebooks/9396.kf8.images","text/plain; charset=us-ascii":"https://www.gutenberg.org/ebooks/9396.txt.utf-8","text/plain; charset=iso-8859-1":"https://www.gutenberg.org/files/9396/9396-8.txt","image/jpeg":"https://www.gutenberg.org/cache/epub/9396/pg9396.cover.medium.jpg","application/octet-stream":"https://www.gutenberg.org/cache/epub/9396/pg9396-h.zip"},"download_count":22},{"id":9503,"title":"Seeing Europe with Famous Authors, Volume 2: Great Britain and Ireland, Part 2","authors":[],"translators":[],"subjects":["Great Britain -- Description and travel","Ireland -- Description and travel"],"bookshelves":[],"languages":["en"],"copyright":false,"media_type":"Text","formats":{"text/html":"https://www.gutenberg.org/ebooks/9503.html.images","application/epub+zip":"https://www.gutenberg.org/ebooks/9503.epub3.images","application/x-mobipocket-ebook":"https://www.gutenberg.org/ebooks/9503.kf8.images","text/plain; charset=us-ascii":"https://www.gutenberg.org/ebooks/9503.txt.utf-8","text/plain; charset=iso-8859-1":"https://www.gutenberg.org/files/9503/9503-8.txt","application/rdf+xml":"https://www.gutenberg.org/ebooks/9503.rdf","image/jpeg":"https://www.gutenberg.org/cache/epub/9503/pg9503.cover.medium.jpg","application/octet-stream":"https://www.gutenberg.org/cache/epub/9503/pg9503-h.zip"},"download_count":22},{"id":9562,"title":"Barclay of Ury, and other poems: Part 3 From Volume I of The Works of John Greenleaf Whittier","authors":[{"name":"Whittier, John Greenleaf","birth_year":1807,"death_year":1892}],"translators":[],"subjects":["American poetry -- 19th century"],"bookshelves":[],"languages":["en"],"copyright":false,"media_type":"Text","formats":{"text/html":"https://www.gutenberg.org/ebooks/9562.html.images","application/epub+zip":"https://www.gutenberg.org/ebooks/9562.epub3.images","application/x-mobipocket-ebook":"https://www.gutenberg.org/ebooks/9562.kf8.images","text/plain; charset=us-ascii":"https://www.gutenberg.org/ebooks/9562.txt.utf-8","application/rdf+xml":"https://www.gutenberg.org/ebooks/9562.rdf","image/jpeg":"https://www.gutenberg.org/cache/epub/9562/pg9562.cover.medium.jpg","application/octet-stream":"https://www.gutenberg.org/cache/epub/9562/pg9562-h.zip"},"download_count":22},{"id":9595,"title":"The Conflict with Slavery: Part 1 from The Works of John Greenleaf Whittier, Volume VII","authors":[{"name":"Whittier, John Greenleaf","birth_year":1807,"death_year":1892}],"translators":[],"subjects":["Antislavery movements -- United States","Slavery -- United States"],"bookshelves":[],"languages":["en"],"copyright":false,"media_type":"Text","formats":{"text/html":"https://www.gutenberg.org/ebooks/9595.html.images","application/epub+zip":"https://www.gutenberg.org/ebooks/9595.epub3.images","application/x-mobipocket-ebook":"https://www.gutenberg.org/ebooks/9595.kf8.images","text/plain; charset=us-ascii":"https://www.gutenberg.org/ebooks/9595.txt.utf-8","application/rdf+xml":"https://www.gutenberg.org/ebooks/9595.rdf","image/jpeg":"https://www.gutenberg.org/cache/epub/9595/pg9595.cover.medium.jpg","application/octet-stream":"https://www.gutenberg.org/cache/epub/9595/pg9595-h.zip"},"download_count":22},{"id":9711,"title":"The Holly-Tree","authors":[{"name":"Dickens, Charles","birth_year":1812,"death_year":1870}],"translators":[],"subjects":["Christmas stories"],"bookshelves":[],"languages":["en"],"copyright":true,"media_type":"Sound","formats":{"text/plain; charset=us-ascii":"https://www.gutenberg.org/files/9711/9711-readme.txt","text/html; charset=iso-8859-1":"https://www.gutenberg.org/files/9711/9711-index.htm","audio/mpeg":"https://www.gutenberg.org/files/9711/mp3/9711-000.mp3","application/rdf+xml":"https://www.gutenberg.org/ebooks/9711.rdf","application/octet-stream":"https://www.gutenberg.org/files/9711/9711-mp3.zip"},"download_count":22},{"id":9714,"title":"A House to Let","authors":[{"name":"Dickens, Charles","birth_year":1812,"death_year":1870},{"name":"Collins, Wilkie","birth_year":1824,"death_year":1889},{"name":"Gaskell, Elizabeth Cleghorn","birth_year":1810,"death_year":1865},{"name":"Procter, Adelaide Anne","birth_year":1825,"death_year":1864}],"translators":[],"subjects":["English fiction -- 19th century"],"bookshelves":[],"languages":["en"],"copyright":true,"media_type":"Sound","formats":{"text/plain; charset=us-ascii":"https://www.gutenberg.org/files/9714/9714-readme.txt","text/html; charset=iso-8859-1":"https://www.gutenberg.org/files/9714/9714-index.htm","audio/mpeg":"https://www.gutenberg.org/files/9714/mp3/9714-000.mp3","application/rdf+xml":"https://www.gutenberg.org/ebooks/9714.rdf","application/octet-stream":"https://www.gutenberg.org/files/9714/9714-mp3.zip"},"download_count":22},{"id":9809,"title":"The Price of Things","authors":[{"name":"Glyn, Elinor","birth_year":1864,"death_year":1943}],"translators":[],"subjects":["Fiction"],"bookshelves":[],"languages":["en"],"copyright":false,"media_type":"Text","formats":{"text/html":"https://www.gutenberg.org/ebooks/9809.html.images","application/epub+zip":"https://www.gutenberg.org/ebooks/9809.epub3.images","application/x-mobipocket-ebook":"https://www.gutenberg.org/ebooks/9809.kf8.images","text/plain; charset=us-ascii":"https://www.gutenberg.org/ebooks/9809.txt.utf-8","text/plain; charset=iso-8859-1":"https://www.gutenberg.org/files/9809/9809-8.txt","application/rdf+xml":"https://www.gutenberg.org/ebooks/9809.rdf","image/jpeg":"https://www.gutenberg.org/cache/epub/9809/pg9809.cover.medium.jpg","application/octet-stream":"https://www.gutenberg.org/cache/epub/9809/pg9809-h.zip"},"download_count":22},{"id":9852,"title":"The Man from the Clouds","authors":[{"name":"Clouston, J. Storer (Joseph Storer)","birth_year":1870,"death_year":1944}],"translators":[],"subjects":["World War, 1914-1918 -- Fiction"],"bookshelves":[],"languages":["en"],"copyright":false,"media_type":"Text","formats":{"text/html":"https://www.gutenberg.org/ebooks/9852.html.images","application/epub+zip":"https://www.gutenberg.org/ebooks/9852.epub3.images","application/x-mobipocket-ebook":"https://www.gutenberg.org/ebooks/9852.kf8.images","text/plain; charset=us-ascii":"https://www.gutenberg.org/ebooks/9852.txt.utf-8","text/plain; charset=iso-8859-1":"https://www.gutenberg.org/files/9852/9852-8.txt","application/rdf+xml":"https://www.gutenberg.org/ebooks/9852.rdf","image/jpeg":"https://www.gutenberg.org/cache/epub/9852/pg9852.cover.medium.jpg","application/octet-stream":"https://www.gutenberg.org/cache/epub/9852/pg9852-h.zip"},"download_count":22},{"id":9910,"title":"Canadian Notabilities, Volume 1","authors":[{"name":"Dent, John Charles","birth_year":1841,"death_year":1888}],"translators":[],"subjects":["Canada -- Biography"],"bookshelves":[],"languages":["en"],"copyright":false,"media_type":"Text","formats":{"text/html":"https://www.gutenberg.org/ebooks/9910.html.images","application/epub+zip":"https://www.gutenberg.org/ebooks/9910.epub3.images","application/x-mobipocket-ebook":"https://www.gutenberg.org/ebooks/9910.kf8.images","text/plain; charset=us-ascii":"https://www.gutenberg.org/ebooks/9910.txt.utf-8","text/plain; charset=iso-8859-1":"https://www.gutenberg.org/files/9910/9910-8.txt","application/rdf+xml":"https://www.gutenberg.org/ebooks/9910.rdf","image/jpeg":"https://www.gutenberg.org/cache/epub/9910/pg9910.cover.medium.jpg","application/octet-stream":"https://www.gutenberg.org/cache/epub/9910/pg9910-h.zip"},"download_count":22},{"id":9915,"title":"An Appeal to the Christian Women of the South","authors":[{"name":"Grimké, Angelina Emily","birth_year":1805,"death_year":1879}],"translators":[],"subjects":["Slavery -- United States"],"bookshelves":[],"languages":["en"],"copyright":false,"media_type":"Text","formats":{"text/html":"https://www.gutenberg.org/ebooks/9915.html.images","application/epub+zip":"https://www.gutenberg.org/ebooks/9915.epub3.images","application/x-mobipocket-ebook":"https://www.gutenberg.org/ebooks/9915.kf8.images","text/plain; charset=us-ascii":"https://www.gutenberg.org/ebooks/9915.txt.utf-8","text/plain; charset=iso-8859-1":"https://www.gutenberg.org/files/9915/9915-8.txt","application/rdf+xml":"https://www.gutenberg.org/ebooks/9915.rdf","image/jpeg":"https://www.gutenberg.org/cache/epub/9915/pg9915.cover.medium.jpg","application/octet-stream":"https://www.gutenberg.org/cache/epub/9915/pg9915-h.zip"},"download_count":22},{"id":10081,"title":"The Boy Allies at Jutland; Or, The Greatest Naval Battle of History","authors":[{"name":"Hayes, Clair W. (Clair Wallace)","birth_year":1887,"death_year":null}],"translators":[],"subjects":["Jutland, Battle of, 1916 -- Juvenile fiction","World War, 1914-1918 -- Naval operations -- Juvenile fiction"],"bookshelves":["Children's Book Series"],"languages":["en"],"copyright":false,"media_type":"Text","formats":{"text/html":"https://www.gutenberg.org/ebooks/10081.html.images","application/epub+zip":"https://www.gutenberg.org/ebooks/10081.epub3.images","application/x-mobipocket-ebook":"https://www.gutenberg.org/ebooks/10081.kf8.images","text/plain; charset=us-ascii":"https://www.gutenberg.org/ebooks/10081.txt.utf-8","application/rdf+xml":"https://www.gutenberg.org/ebooks/10081.rdf","image/jpeg":"https://www.gutenberg.org/cache/epub/10081/pg10081.cover.medium.jpg","application/octet-stream":"https://www.gutenberg.org/cache/epub/10081/pg10081-h.zip"},"download_count":22},{"id":10107,"title":"With British Guns in Italy: A Tribute to Italian Achievement","authors":[{"name":"Dalton, Hugh Dalton, Baron","birth_year":1887,"death_year":1962}],"translators":[],"subjects":["World War, 1914-1918 -- Italy"],"bookshelves":["World War I"],"languages":["en"],"copyright":false,"media_type":"Text","formats":{"text/html":"https://www.gutenberg.org/ebooks/10107.html.images","application/epub+zip":"https://www.gutenberg.org/ebooks/10107.epub3.images","application/x-mobipocket-ebook":"https://www.gutenberg.org/ebooks/10107.kf8.images","text/plain; charset=us-ascii":"https://www.gutenberg.org/ebooks/10107.txt.utf-8","text/plain; charset=iso-8859-1":"https://www.gutenberg.org/files/10107/10107-8.txt","application/rdf+xml":"https://www.gutenberg.org/ebooks/10107.rdf","image/jpeg":"https://www.gutenberg.org/cache/epub/10107/pg10107.cover.medium.jpg","application/octet-stream":"https://www.gutenberg.org/cache/epub/10107/pg10107-h.zip"},"download_count":22}]}