{"count":58808,"next":"http://129.241.150.113:8000/books/?languages=en&page=1420","previous":"http://129.241.150.113:8000/books/?languages=en&page=1418","results":[{"id":70414,"title":"Training Infantry","authors":[{"name":"Morrison, John F. (John Frank)","birth_year":1857,"death_year":1932}],"translators":[],"subjects":["Infantry drill and tactics"],"bookshelves":[],"languages":["en"],"copyright":false,"media_type":"Text","formats":{"text/html":"https://www.gutenberg.org/ebooks/70414.html.images","application/epub+zip":"https://www.gutenberg.org/ebooks/70414.epub3.images","application/x-mobipocket-ebook":"https://www.gutenberg.org/ebooks/70414.kf8.images","text/plain; charset=us-ascii":"https://www.gutenberg.org/ebooks/70414.txt.utf-8","application/rdf+xml":"https://www.gutenberg.org/ebooks/70414.rdf","image/jpeg":"https://www.gutenberg.org/cache/epub/70414/pg70414.cover.medium.jpg","application/octet-stream":"https://www.gutenberg.org/files/70414/70414-0.zip"},"download_count":26},{"id":70614,"title":"Tommy Tiptop and his baseball nine : $b or, The boys of Riverdale and their good times","authors":[{"name":"Stone, Raymond","birth_year":null,"death_year":null}],"translators":[],"subjects":["Baseball stories","Friendship -- Juvenile fiction","Sportsmanship -- Juvenile fiction","Teamwork (Sports) -- Juvenile fiction"],"bookshelves":[],"languages":["en"],"copyright":false,"media_type":"Text","formats":{"text/html":"https://www.gutenberg.org/ebooks/70614.html.images","application/epub+zip":"https://www.gutenberg.org/ebooks/70614.epub3.images","application/x-mobipocket-ebook":"https://www.gutenberg.org/ebooks/70614.kf8.images","text/plain; charset=us-ascii":"https://www.gutenberg.org/ebooks/70614.txt.utf-8","application/rdf+xml":"https://www.gutenberg.org/ebooks/70614.rdf","image/jpeg":"https://www.gutenberg.org/cache/epub/70614/pg70614.cover.medium.jpg","application/octet-stream":"https://www.gutenberg.org/files/70614/70614-0.zip"},"download_count":26},{"id":70648,"title":"The course of creation","authors":[{"name":"Anderson, John","birth_year":null,"death_year":1864}],"translators":[],"subjects":["Geology","Religion and science"],"bookshelves":[],"languages":["en"],"copyright":false,"media_type":"Text","formats":{"text/html":"https://www.gutenberg.org/ebooks/70648.html.images","application/epub+zip":"https://www.gutenberg.org/ebooks/70648.epub3.images","application/x-mobipocket-ebook":"https://www.gutenberg.org/ebooks/70648.kf8.images","text/plain; charset=us-ascii":"https://www.gutenberg.org/ebooks/70648.txt.utf-8","application/rdf+xml":"https://www.gutenberg.org/ebooks/70648.rdf","image/jpeg":"https://www.gutenberg.org/cache/epub/70648/pg70648.cover.medium.jpg","application/octet-stream":"https://www.gutenberg.org/files/70648/70648-0.zip"},"download_count":26},{"id":70656,"title":"Chronicles and characters of the stock exchange","authors":[{"name":"Francis, John, of the Bank of England","birth_year":null,"death_year":null}],"translators":[],"subjects":["Speculation","Stock Exchange (London, England)"],"bookshelves":[],"languages":["en"],"copyright":false,"media_type":"Text","formats":{"text/html":"https://www.gutenberg.org/ebooks/70656.html.images","application/epub+zip":"https://www.gutenberg.org/ebooks/70656.epub3.images","application/x-mobipocket-ebook":"https://www.gutenberg.org/ebooks/70656.kf8.images","text/plain; charset=us-ascii":"https://www.gutenberg.org/ebooks/70656.txt.utf-8","application/rdf+xml":"https://www.gutenberg.org/ebooks/70656.rdf","image/jpeg":"https://www.gutenberg.org/cache/epub/70656/pg70656.cover.medium.jpg","application/octet-stream":"https://www.gutenberg.org/files/70656/70656-0.zip"},"download_count":26},{"id":70696,"title":"Stella Rosevelt : $b A novel","authors":[{"name":"Sheldon, Georgie, Mrs.","birth_year":1843,"death_year":1926}],"translators":[],"subjects":["Dime novels","Love stories","Romance fiction"],"bookshelves":[],"languages":["en"],"copyright":false,"media_type":"Text","formats":{"text/html":"https://www.gutenberg.org/ebooks/70696.html.images","application/epub+zip":"https://www.gutenberg.org/ebooks/70696.epub3.images","application/x-mobipocket-ebook":"https://www.gutenberg.org/ebooks/70696.kf8.images","text/plain; charset=us-ascii":"https://www.gutenberg.org/ebooks/70696.txt.utf-8","application/rdf+xml":"https://www.gutenberg.org/ebooks/70696.rdf","image/jpeg":"https://www.gutenberg.org/cache/epub/70696/pg70696.cover.medium.jpg","application/octet-stream":"https://www.gutenberg.org/files/70696/70696-0.zip"},"download_count":26},{"id":70755,"title":"The Earl's promise : $b A novel. Vol. 1 (of 3)","authors":[{"name":"Riddell, J. H., Mrs.","birth_year":1832,"death_year":1906}],"translators":[],"subjects":["City and town life -- Fiction","Landlord and tenant -- Fiction","Mate selection -- Fiction","Ulster (Northern Ireland and Ireland) -- Fiction"],"bookshelves":[],"languages":["en"],"copyright":false,"media_type":"Text","formats":{"text/html":"https://www.gutenberg.org/ebooks/70755.html.images","application/epub+zip":"https://www.gutenberg.org/ebooks/70755.epub3.images","application/x-mobipocket-ebook":"https://www.gutenberg.org/ebooks/70755.kf8.images","text/plain; charset=us-ascii":"https://www.gutenberg.org/ebooks/70755.txt.utf-8","application/rdf+xml":"https://www.gutenberg.org/ebooks/70755.rdf","image/jpeg":"https://www.gutenberg.org/cache/epub/70755/pg70755.cover.medium.jpg","application/octet-stream":"https://www.gutenberg.org/files/70755/70755-0.zip"},"download_count":26},{"id":71057,"title":"A libell of Spanish lies : $b found at the sacke of Cales, discoursing the fight in the West Indies, twixt the English navie being fourteene ships and pinasses, and a fleete of twentie saile of the king of Spaines, and of the death of Sir Francis Drake","authors":[{"name":"Savile, Henry, Captain","birth_year":null,"death_year":null}],"translators":[],"subjects":["Delgadillo de Avellaneda, Bernaldino, 1544-1629","Drake, Francis, approximately 1540-1596 -- Death and burial","Isle of Pines, Battle of the, Cuba, 1596 -- Personal narratives"],"bookshelves":[],"languages":["en"],"copyright":false,"media_type":"Text","formats":{"text/html":"https://www.gutenberg.org/ebooks/71057.html.images","application/epub+zip":"https://www.gutenberg.org/ebooks/71057.epub3.images","application/x-mobipocket-ebook":"https://www.gutenberg.org/ebooks/71057.kf8.images","text/plain; charset=us-ascii":"https://www.gutenberg.org/ebooks/71057.txt.utf-8","application/rdf+xml":"https://www.gutenberg.org/ebooks/71057.rdf","image/jpeg":"https://www.gutenberg.org/cache/epub/71057/pg71057.cover.medium.jpg","application/octet-stream":"https://www.gutenberg.org/files/71057/71057-0.zip"},"download_count":26},{"id":71108,"title":"Meadow Brook","authors":[{"name":"Holmes, Mary Jane","birth_year":1825,"death_year":1907}],"translators":[],"subjects":["American fiction -- 19th century"],"bookshelves":[],"languages":["en"],"copyright":false,"media_type":"Text","formats":{"text/html":"https://www.gutenberg.org/ebooks/71108.html.images","application/epub+zip":"https://www.gutenberg.org/ebooks/71108.epub3.images","application/x-mobipocket-ebook":"https://www.gutenberg.org/ebooks/71108.kf8.images","text/plain; charset=us-ascii":"https://www.gutenberg.org/ebooks/71108.txt.utf-8","application/rdf+xml":"https://www.gutenberg.org/ebooks/71108.rdf","image/jpeg":"https://www.gutenberg.org/cache/epub/71108/pg71108.cover.medium.jpg","application/octet-stream":"https://www.gutenberg.org/files/71108/71108-0.zip"},"download_count":26},{"id":71163,"title":"The parted family and other poems : $b An offering to the afflicted, and a tribute of love to departed friends","authors":[{"name":"Shindler, Mary Dana","birth_year":1810,"death_year":1883}],"translators":[],"subjects":["Death -- Poetry"],"bookshelves":[],"languages":["en"],"copyright":false,"media_type":"Text","formats":{"text/html":"https://www.gutenberg.org/ebooks/71163.html.images","application/epub+zip":"https://www.gutenberg.org/ebooks/71163.epub3.images","application/x-mobipocket-ebook":"https://www.gutenberg.org/ebooks/71163.kf8.images","text/plain; charset=us-ascii":"https://www.gutenberg.org/ebooks/71163.txt.utf-8","application/rdf+xml":"https://www.gutenberg.org/ebooks/71163.rdf","image/jpeg":"https://www.gutenberg.org/cache/epub/71163/pg71163.cover.medium.jpg","application/octet-stream":"https://www.gutenberg.org/files/71163/71163-0.zip"},"download_count":26},{"id":71214,"title":"Your boy and his training : $b A practical treatise on boy-training","authors":[{"name":"Puller, Edwin Seward","birth_year":1870,"death_year":null}],"translators":[],"subjects":["Boys","Child rearing"],"bookshelves":[],"languages":["en"],"copyright":false,"media_type":"Text","formats":{"text/html":"https://www.gutenberg.org/ebooks/71214.html.images","application/epub+zip":"https://www.gutenberg.org/ebooks/71214.epub3.images","application/x-mobipocket-ebook":"https://www.gutenberg.org/ebooks/71214.kf8.images","text/plain; charset=us-ascii":"https://www.gutenberg.org/ebooks/71214.txt.utf-8","application/rdf+xml":"https://www.gutenberg.org/ebooks/71214.rdf","image/jpeg":"https://www.gutenberg.org/cache/epub/71214/pg71214.cover.medium.jpg","application/octet-stream":"https://www.gutenberg.org/files/71214/71214-0.zip"},"download_count":26},{"id":71240,"title":"Poppy Ott's pedigreed pickles","authors":[{"name":"Edwards, Leo","birth_year":1884,"death_year":1944}],"translators":[],"subjects":["Boys -- Juvenile fiction","Humorous stories","Illinois -- Juvenile fiction","Mystery fiction","Treasure troves -- Juvenile fiction"],"bookshelves":[],"languages":["en"],"copyright":false,"media_type":"Text","formats":{"text/html":"https://www.gutenberg.org/ebooks/71240.html.images","application/epub+zip":"https://www.gutenberg.org/ebooks/71240.epub3.images","application/x-mobipocket-ebook":"https://www.gutenberg.org/ebooks/71240.kf8.images","text/plain; charset=us-ascii":"https://www.gutenberg.org/ebooks/71240.txt.utf-8","application/rdf+xml":"https://www.gutenberg.org/ebooks/71240.rdf","image/jpeg":"https://www.gutenberg.org/cache/epub/71240/pg71240.cover.medium.jpg","application/octet-stream":"https://www.gutenberg.org/files/71240/71240-0.zip"},"download_count":26},{"id":71261,"title":"The White Mail","authors":[{"name":"Warman, Cy","birth_year":1855,"death_year":1914}],"translators":[],"subjects":["American fiction -- 19th century","Railroad stories"],"bookshelves":[],"languages":["en"],"copyright":false,"media_type":"Text","formats":{"text/html":"https://www.gutenberg.org/ebooks/71261.html.images","application/epub+zip":"https://www.gutenberg.org/ebooks/71261.epub3.images","application/x-mobipocket-ebook":"https://www.gutenberg.org/ebooks/71261.kf8.images","text/plain; charset=us-ascii":"https://www.gutenberg.org/ebooks/71261.txt.utf-8","application/rdf+xml":"https://www.gutenberg.org/ebooks/71261.rdf","image/jpeg":"https://www.gutenberg.org/cache/epub/71261/pg71261.cover.medium.jpg","application/octet-stream":"https://www.gutenberg.org/files/71261/71261-0.zip"},"download_count":26},{"id":71271,"title":"Bob, the cabin-boy","authors":[{"name":"Anonymous","birth_year":null,"death_year":null}],"translators":[],"subjects":["Christian life -- Juvenile fiction","Ship captains -- Juvenile fiction","Youth and death -- Juvenile fiction"],"bookshelves":[],"languages":["en"],"copyright":false,"media_type":"Text","formats":{"text/html":"https://www.gutenberg.org/ebooks/71271.html.images","application/epub+zip":"https://www.gutenberg.org/ebooks/71271.epub3.images","application/x-mobipocket-ebook":"https://www.gutenberg.org/ebooks/71271.kf8.images","text/plain; charset=us-ascii":"https://www.gutenberg.org/ebooks/71271.txt.utf-8","application/rdf+xml":"https://www.gutenberg.org/ebooks/71271.rdf","image/jpeg":"https://www.gutenberg.org/cache/epub/71271/pg71271.cover.medium.jpg","application/octet-stream":"https://www.gutenberg.org/files/71271/71271-0.zip"},"download_count":26},{"id":71302,"title":"Poems, translated and original","authors":[{"name":"Ellet, E. F. (Elizabeth Fries)","birth_year":1818,"death_year":1877}],"translators":[],"subjects":["American drama -- 19th century","American poetry -- 19th century","Poetry -- Translations into English","Venice (Italy) -- Drama"],"bookshelves":[],"languages":["en"],"copyright":false,"media_type":"Text","formats":{"text/html":"https://www.gutenberg.org/ebooks/71302.html.images","application/epub+zip":"https://www.gutenberg.org/ebooks/71302.epub3.images","application/x-mobipocket-ebook":"https://www.gutenberg.org/ebooks/71302.kf8.images","text/plain; charset=us-ascii":"https://www.gutenberg.org/ebooks/71302.txt.utf-8","application/rdf+xml":"https://www.gutenberg.org/ebooks/71302.rdf","image/jpeg":"https://www.gutenberg.org/cache/epub/71302/pg71302.cover.medium.jpg","application/octet-stream":"https://www.gutenberg.org/files/71302/71302-0.zip"},"download_count":26},{"id":71322,"title":"Wilhelmina in London","authors":[{"name":"Pain, Barry","birth_year":1864,"death_year":1928}],"translators":[],"subjects":["Humorous stories","London (England) -- Fiction","Orphans -- Fiction","Young women -- Fiction"],"bookshelves":[],"languages":["en"],"copyright":false,"media_type":"Text","formats":{"text/html":"https://www.gutenberg.org/ebooks/71322.html.images","application/epub+zip":"https://www.gutenberg.org/ebooks/71322.epub3.images","application/x-mobipocket-ebook":"https://www.gutenberg.org/ebooks/71322.kf8.images","text/plain; charset=us-ascii":"https://www.gutenberg.org/ebooks/71322.txt.utf-8","application/rdf+xml":"https://www.gutenberg.org/ebooks/71322.rdf","image/jpeg":"https://www.gutenberg.org/cache/epub/71322/pg71322.cover.medium.jpg","application/octet-stream":"https://www.gutenberg.org/files/71322/71322-0.zip"},"download_count":26},{"id":71337,"title":"Mary Regan","authors":[{"name":"Scott, Leroy","birth_year":1875,"death_year":1929}],"translators":[],"subjects":["Adventure stories","Crime -- Fiction","Detective and mystery stories","Man-woman relationships -- Fiction","New York (N.Y.) -- Fiction"],"bookshelves":[],"languages":["en"],"copyright":false,"media_type":"Text","formats":{"text/html":"https://www.gutenberg.org/ebooks/71337.html.images","application/epub+zip":"https://www.gutenberg.org/ebooks/71337.epub3.images","application/x-mobipocket-ebook":"https://www.gutenberg.org/ebooks/71337.kf8.images","text/plain; charset=us-ascii":"https://www.gutenberg.org/ebooks/71337.txt.utf-8","application/rdf+xml":"https://www.gutenberg.org/ebooks/71337.rdf","image/jpeg":"https://www.gutenberg.org/cache/epub/71337/pg71337.cover.medium.jpg","application/octet-stream":"https://www.gutenberg.org/files/71337/71337-0.zip"},"download_count":26},{"id":71392,"title":"A bunch of rope yarns","authors":[{"name":"King, Stanton H. (Stanton Henry)","birth_year":1867,"death_year":1939}],"translators":[],"subjects":["Sailors","Seafaring life"],"bookshelves":[],"languages":["en"],"copyright":false,"media_type":"Text","formats":{"text/html":"https://www.gutenberg.org/ebooks/71392.html.images","application/epub+zip":"https://www.gutenberg.org/ebooks/71392.epub3.images","application/x-mobipocket-ebook":"https://www.gutenberg.org/ebooks/71392.kf8.images","text/plain; charset=us-ascii":"https://www.gutenberg.org/ebooks/71392.txt.utf-8","application/rdf+xml":"https://www.gutenberg.org/ebooks/71392.rdf","image/jpeg":"https://www.gutenberg.org/cache/epub/71392/pg71392.cover.medium.jpg","application/octet-stream":"https://www.gutenberg.org/files/71392/71392-h.zip"},"download_count":26},{"id":71507,"title":"The Ohio Naturalist, Vol. II, No. 1, November, 1901","authors":[{"name":"Ohio State University. Biological Club","birth_year":null,"death_year":null}],"translators":[],"subjects":["Natural history -- Ohio -- Periodicals","Natural history -- Periodicals","Science -- Periodicals"],"bookshelves":[],"languages":["en"],"copyright":false,"media_type":"Text","formats":{"text/html":"https://www.gutenberg.org/ebooks/71507.html.images","application/epub+zip":"https://www.gutenberg.org/ebooks/71507.epub3.images","application/x-mobipocket-ebook":"https://www.gutenberg.org/ebooks/71507.kf8.images","text/plain; charset=us-ascii":"https://www.gutenberg.org/ebooks/71507.txt.utf-8","application/rdf+xml":"https://www.gutenberg.org/ebooks/71507.rdf","image/jpeg":"https://www.gutenberg.org/cache/epub/71507/pg71507.cover.medium.jpg","application/octet-stream":"https://www.gutenberg.org/files/71507/71507-h.zip"},"download_count":26},{"id":71526,"title":"Dixie: A monthly magazine, Vol. I, No. 2, February 1899","authors":[{"name":"Various","birth_year":null,"death_year":null}],"translators":[],"subjects":["American literature -- Southern States -- Periodicals"],"bookshelves":[],"languages":["en"],"copyright":false,"media_type":"Text","formats":{"text/html":"https://www.gutenberg.org/ebooks/71526.html.images","application/epub+zip":"https://www.gutenberg.org/ebooks/71526.epub3.images","application/x-mobipocket-ebook":"https://www.gutenberg.org/ebooks/71526.kf8.images","text/plain; charset=us-ascii":"https://www.gutenberg.org/ebooks/71526.txt.utf-8","application/rdf+xml":"https://www.gutenberg.org/ebooks/71526.rdf","image/jpeg":"https://www.gutenberg.org/cache/epub/71526/pg71526.cover.medium.jpg","application/octet-stream":"https://www.gutenberg.org/files/71526/71526-h.zip"},"download_count":26},{"id":71528,"title":"Gondola days","authors":[{"name":"Smith, Francis Hopkinson","birth_year":1838,"death_year":1915}],"translators":[],"subjects":["Venice (Italy) -- Description and travel"],"bookshelves":[],"languages":["en"],"copyright":false,"media_type":"Text","formats":{"text/html":"https://www.gutenberg.org/ebooks/71528.html.images","application/epub+zip":"https://www.gutenberg.org/ebooks/71528.epub3.images","application/x-mobipocket-ebook":"https://www.gutenberg.org/ebooks/71528.kf8.images","text/plain; charset=us-ascii":"https://www.gutenberg.org/ebooks/71528.txt.utf-8","application/rdf+xml":"https://www.gutenberg.org/ebooks/71528.rdf","image/jpeg":"https://www.gutenberg.org/cache/epub/71528/pg71528.cover.medium.jpg","application/octet-stream":"https://www.gutenberg.org/files/71528/71528-h.zip"},"download_count":26},{"id":71642,"title":"With Boone on the frontier : $b Or, The pioneer boys of old Kentucky","authors":[{"name":"Stratemeyer, Edward","birth_year":1862,"death_year":1930}],"translators":[],"subjects":["Adventure stories","Boone, Daniel, 1734-1820 -- Juvenile fiction","Frontier and pioneer life -- Kentucky -- Juvenile fiction","Indians of North America -- Juvenile fiction","Voyages and travels -- Juvenile fiction"],"bookshelves":[],"languages":["en"],"copyright":false,"media_type":"Text","formats":{"text/html":"https://www.gutenberg.org/ebooks/71642.html.images","application/epub+zip":"https://www.gutenberg.org/ebooks/71642.epub3.images","application/x-mobipocket-ebook":"https://www.gutenberg.org/ebooks/71642.kf8.images","text/plain; charset=us-ascii":"https://www.gutenberg.org/ebooks/71642.txt.utf-8","application/rdf+xml":"https://www.gutenberg.org/ebooks/71642.rdf","image/jpeg":"https://www.gutenberg.org/cache/epub/71642/pg71642.cover.medium.jpg","application/octet-stream":"https://www.gutenberg.org/files/71642/71642-h.zip"},"download_count":26},{"id":71693,"title":"The Cambridge natural history, Vol. 03 (of 10)","authors":[{"name":"Cooke, A. H. (Alfred Hands)","birth_year":1854,"death_year":1934},{"name":"Reed, F. R. C. (Frederick Richard Cowper)","birth_year":1869,"death_year":1946}],"translators":[],"subjects":["Animals"],"bookshelves":[],"languages":["en"],"copyright":false,"media_type":"Text","formats":{"text/html":"https://www.gutenberg.org/ebooks/71693.html.images","application/epub+zip":"https://www.gutenberg.org/ebooks/71693.epub3.images","application/x-mobipocket-ebook":"https://www.gutenberg.org/ebooks/71693.kf8.images","text/plain; charset=us-ascii":"https://www.gutenberg.org/ebooks/71693.txt.utf-8","application/rdf+xml":"https://www.gutenberg.org/ebooks/71693.rdf","image/jpeg":"https://www.gutenberg.org/cache/epub/71693/pg71693.cover.medium.jpg","application/octet-stream":"https://www.gutenberg.org/files/71693/71693-h.zip"},"download_count":26},{"id":71974,"title":"The reformation in Poland : $b Some social and economic aspects","authors":[{"name":"Fox, Paul","birth_year":1874,"death_year":1961}],"translators":[],"subjects":["Poland -- Economic conditions","Poland -- Social conditions","Reformation -- Poland"],"bookshelves":[],"languages":["en"],"copyright":false,"media_type":"Text","formats":{"text/html":"https://www.gutenberg.org/ebooks/71974.html.images","application/epub+zip":"https://www.gutenberg.org/ebooks/71974.epub3.images","application/x-mobipocket-ebook":"https://www.gutenberg.org/ebooks/71974.kf8.images","text/plain; charset=us-ascii":"https://www.gutenberg.org/ebooks/71974.txt.utf-8","application/rdf+xml":"https://www.gutenberg.org/ebooks/71974.rdf","image/jpeg":"https://www.gutenberg.org/cache/epub/71974/pg71974.cover.medium.jpg","application/octet-stream":"https://www.gutenberg.org/cache/epub/71974/pg71974-h.zip"},"download_count":26},{"id":71982,"title":"The Cornhill Magazine (vol. XLI, no. 242 new series, August 1916)","authors":[{"name":"Various","birth_year":null,"death_year":null}],"translators":[],"subjects":["England -- Periodicals","English literature -- Periodicals","Short stories, English -- Periodicals"],"bookshelves":[],"languages":["en"],"copyright":false,"media_type":"Text","formats":{"text/html":"https://www.gutenberg.org/ebooks/71982.html.images","application/epub+zip":"https://www.gutenberg.org/ebooks/71982.epub3.images","application/x-mobipocket-ebook":"https://www.gutenberg.org/ebooks/71982.kf8.images","text/plain; charset=us-ascii":"https://www.gutenberg.org/ebooks/71982.txt.utf-8","application/rdf+xml":"https://www.gutenberg.org/ebooks/71982.rdf","image/jpeg":"https://www.gutenberg.org/cache/epub/71982/pg71982.cover.medium.jpg","application/octet-stream":"https://www.gutenberg.org/cache/epub/71982/pg71982-h.zip"},"download_count":26},{"id":72125,"title":"Nibbles Poppelty-Poppett","authors":[{"name":"Davidson, Edith B.","birth_year":null,"death_year":null}],"translators":[],"subjects":["Animals -- Juvenile fiction","Mice -- Juvenile fiction","Voyages and travels -- Juvenile fiction"],"bookshelves":[],"languages":["en"],"copyright":false,"media_type":"Text","formats":{"text/html":"https://www.gutenberg.org/ebooks/72125.html.images","application/epub+zip":"https://www.gutenberg.org/ebooks/72125.epub3.images","application/x-mobipocket-ebook":"https://www.gutenberg.org/ebooks/72125.kf8.images","text/plain; charset=us-ascii":"https://www.gutenberg.org/ebooks/72125.txt.utf-8","application/rdf+xml":"https://www.gutenberg.org/ebooks/72125.rdf","image/jpeg":"https://www.gutenberg.org/cache/epub/72125/pg72125.cover.medium.jpg","application/octet-stream":"https://www.gutenberg.org/cache/epub/72125/pg72125-h.zip"},"download_count":26},{"id":569,"title":"The Complete Works of Brann, the Iconoclast — Volume 12","authors":[{"name":"Brann, William Cowper","birth_year":1855,"death_year":1898}],"translators":[],"subjects":["Brann, William Cowper, 1855-1898","Essays","Reformers"],"bookshelves":[],"languages":["en"],"copyright":false,"media_type":"Text","formats":{"text/html":"https://www.gutenberg.org/ebooks/569.html.images","application/epub+zip":"https://www.gutenberg.org/ebooks/569.epub3.images","application/x-mobipocket-ebook":"https://www.gutenberg.org/ebooks/569.kf8.images","text/plain; charset=us-ascii":"https://www.gutenberg.org/ebooks/569.txt.utf-8","application/rdf+xml":"https://www.gutenberg.org/ebooks/569.rdf","image/jpeg":"https://www.gutenberg.org/cache/epub/569/pg569.cover.medium.jpg","application/octet-stream":"https://www.gutenberg.org/cache/epub/569/pg569-h.zip"},"download_count":25},{"id":745,"title":"One Divided by Pi (To 1 Million Digits)","authors":[{"name":"Kanada, Yasumasa","birth_year":1949,"death_year":2020}],"translators":[],"subjects":["Mathematics"],"bookshelves":["Mathematics"],"languages":["en"],"copyright":false,"media_type":"Dataset","formats":{"text/plain; charset=us-ascii":"https://www.gutenberg.org/files/745/745.txt","application/rdf+xml":"https://www.gutenberg.org/ebooks/745.rdf"},"download_count":25},{"id":822,"title":"The Tarn of Eternity","authors":[{"name":"Tymon, Frank","birth_year":null,"death_year":null}],"translators":[],"subjects":["American fiction"],"bookshelves":[],"languages":["en"],"copyright":true,"media_type":"Text","formats":{"text/html":"https://www.gutenberg.org/ebooks/822.html.images","application/epub+zip":"https://www.gutenberg.org/ebooks/822.epub3.images","application/x-mobipocket-ebook":"https://www.gutenberg.org/ebooks/822.kf8.images","text/plain; charset=us-ascii":"https://www.gutenberg.org/ebooks/822.txt.utf-8","text/plain; charset=iso-8859-1":"https://www.gutenberg.org/files/822/822-8.txt","application/rdf+xml":"https://www.gutenberg.org/ebooks/822.rdf","image/jpeg":"https://www.gutenberg.org/cache/epub/822/pg822.cover.medium.jpg","application/octet-stream":"https://www.gutenberg.org/cache/epub/822/pg822-h.zip"},"download_count":25},{"id":1087,"title":"Baartock","authors":[{"name":"Roth, Lewis","birth_year":null,"death_year":null}],"translators":[],"subjects":["Fairy tales","Trolls -- Juvenile fiction"],"bookshelves":[],"languages":["en"],"copyright":true,"media_type":"Text","formats":{"text/html":"https://www.gutenberg.org/ebooks/1087.html.images","text/html; charset=iso-8859-1":"https://www.gutenberg.org/files/1087/1087-h/1087-h.htm","application/epub+zip":"https://www.gutenberg.org/ebooks/1087.epub3.images","application/x-mobipocket-ebook":"https://www.gutenberg.org/ebooks/1087.kf8.images","text/plain; charset=us-ascii":"https://www.gutenberg.org/ebooks/1087.txt.utf-8","application/rdf+xml":"https://www.gutenberg.org/ebooks/1087.rdf","image/jpeg":"https://www.gutenberg.org/cache/epub/1087/pg1087.cover.medium.jpg","application/octet-stream":"https://www.gutenberg.org/cache/epub/1087/pg1087-h.zip"},"download_count":25},{"id":1104,"title":"The Comedy of Errors","authors":[{"name":"Shakespeare, William","birth_year":1564,"death_year":1616}],"translators":[],"subjects":["Brothers -- Drama","Comedies","Greece -- Drama","Mistaken identity -- Drama","Shipwreck victims -- Drama","Twins -- Drama"],"bookshelves":[],"languages":["en"],"copyright":true,"media_type":"Text","formats":{"text/html":"https://www.gutenberg.org/ebooks/1104.html.images","application/epub+zip":"https://www.gutenberg.org/ebooks/1104.epub3.images","application/x-mobipocket-ebook":"https://www.gutenberg.org/ebooks/1104.kf8.images","text/plain; charset=us-ascii":"https://www.gutenberg.org/ebooks/1104.txt.utf-8","application/rdf+xml":"https://www.gutenberg.org/ebooks/1104.rdf","image/jpeg":"https://www.gutenberg.org/cache/epub/1104/pg1104.cover.medium.jpg","application/octet-stream":"https://www.gutenberg.org/cache/epub/1104/pg1104-h.zip"},"download_count":25},{"id":1134,"title":"The Winter's Tale","authors":[{"name":"Shakespeare, William","birth_year":1564,"death_year":1616}],"translators":[],"subjects":["Castaways -- Drama","Fathers and daughters -- Drama","Married people -- Drama","Sicily (Italy) -- Kings and rulers -- Drama","Tragicomedy"],"bookshelves":[],"languages":["en"],"copyright":false,"media_type":"Text","formats":{"text/html":"https://www.gutenberg.org/ebooks/1134.html.images","application/epub+zip":"https://www.gutenberg.org/ebooks/1134.epub3.images","application/x-mobipocket-ebook":"https://www.gutenberg.org/ebooks/1134.kf8.images","text/plain; charset=us-ascii":"https://www.gutenberg.org/ebooks/1134.txt.utf-8","application/rdf+xml":"https://www.gutenberg.org/ebooks/1134.rdf","image/jpeg":"https://www.gutenberg.org/cache/epub/1134/pg1134.cover.medium.jpg","application/octet-stream":"https://www.gutenberg.org/cache/epub/1134/pg1134-h.zip"},"download_count":25},{"id":1340,"title":"Autobiography of Andrew Dickson White — Volume 1","authors":[{"name":"White, Andrew Dickson","birth_year":1832,"death_year":1918}],"translators":[],"subjects":["Cornell University","Diplomats -- United States -- Biography","White, Andrew Dickson, 1832-1918"],"bookshelves":[],"languages":["en"],"copyright":false,"media_type":"Text","formats":{"text/html":"https://www.gutenberg.org/ebooks/1340.html.images","application/epub+zip":"https://www.gutenberg.org/ebooks/1340.epub3.images","application/x-mobipocket-ebook":"https://www.gutenberg.org/ebooks/1340.kf8.images","text/plain; charset=us-ascii":"https://www.gutenberg.org/ebooks/1340.txt.utf-8","application/rdf+xml":"https://www.gutenberg.org/ebooks/1340.rdf","image/jpeg":"https://www.gutenberg.org/cache/epub/1340/pg1340.cover.medium.jpg","application/octet-stream":"https://www.gutenberg.org/cache/epub/1340/pg1340-h.zip"},"download_count":25}]}