{"count":58808,"next":"http://129.241.150.113:8000/books/?languages=en&page=1020","previous":"http://129.241.150.113:8000/books/?languages=en&page=1018","results":[{"id":70004,"title":"Raggety : $b His life and adventures","authors":[{"name":"White, Mary Josephine","birth_year":null,"death_year":null}],"translators":[],"subjects":["Dogs -- Anecdotes"],"bookshelves":[],"languages":["en"],"copyright":false,"media_type":"Text","formats":{"text/html":"https://www.gutenberg.org/ebooks/70004.html.images","application/epub+zip":"https://www.gutenberg.org/ebooks/70004.epub3.images","application/x-mobipocket-ebook":"https://www.gutenberg.org/ebooks/70004.kf8.images","text/plain; charset=us-ascii":"https://www.gutenberg.org/ebooks/70004.txt.utf-8","application/rdf+xml":"https://www.gutenberg.org/ebooks/70004.rdf","image/jpeg":"https://www.gutenberg.org/cache/epub/70004/pg70004.cover.medium.jpg","application/octet-stream":"https://www.gutenberg.org/files/70004/70004-0.zip"},"download_count":36},{"id":70036,"title":"Governor William Bradford's letter book","authors":[{"name":"Bradford, William","birth_year":1590,"death_year":1657}],"translators":[],"subjects":["Bradford, William, 1588-1657 -- Correspondence","Massachusetts -- History -- Colonial period, ca. 1600-1775 -- Sources","Pilgrims (New Plymouth Colony) -- Sources"],"bookshelves":[],"languages":["en"],"copyright":false,"media_type":"Text","formats":{"text/html":"https://www.gutenberg.org/ebooks/70036.html.images","application/epub+zip":"https://www.gutenberg.org/ebooks/70036.epub3.images","application/x-mobipocket-ebook":"https://www.gutenberg.org/ebooks/70036.kf8.images","text/plain; charset=us-ascii":"https://www.gutenberg.org/ebooks/70036.txt.utf-8","application/rdf+xml":"https://www.gutenberg.org/ebooks/70036.rdf","image/jpeg":"https://www.gutenberg.org/cache/epub/70036/pg70036.cover.medium.jpg","application/octet-stream":"https://www.gutenberg.org/files/70036/70036-0.zip"},"download_count":36},{"id":70082,"title":"The heathery; or, A monograph of the genus Erica. vol. 3","authors":[{"name":"Andrews, Henry Cranke, active 1799-1828","birth_year":null,"death_year":null}],"translators":[],"subjects":["Ericas","Ericas -- Pictorial works"],"bookshelves":[],"languages":["en"],"copyright":false,"media_type":"Text","formats":{"text/html":"https://www.gutenberg.org/ebooks/70082.html.images","application/epub+zip":"https://www.gutenberg.org/ebooks/70082.epub3.images","application/x-mobipocket-ebook":"https://www.gutenberg.org/ebooks/70082.kf8.images","text/plain; charset=us-ascii":"https://www.gutenberg.org/ebooks/70082.txt.utf-8","application/rdf+xml":"https://www.gutenberg.org/ebooks/70082.rdf","image/jpeg":"https://www.gutenberg.org/cache/epub/70082/pg70082.cover.medium.jpg","application/octet-stream":"https://www.gutenberg.org/files/70082/70082-0.zip"},"download_count":36},{"id":70092,"title":"The treatise of Lorenzo Valla on the Donation of Constantine","authors":[{"name":"Valla, Lorenzo","birth_year":1407,"death_year":1457}],"translators":[{"name":"Coleman, Christopher Bush","birth_year":1875,"death_year":1944}],"subjects":["Church and state -- Holy Roman Empire","Constitutum Constantini","Popes -- Temporal power -- Early works to 1800"],"bookshelves":[],"languages":["en"],"copyright":false,"media_type":"Text","formats":{"text/html":"https://www.gutenberg.org/ebooks/70092.html.images","application/epub+zip":"https://www.gutenberg.org/ebooks/70092.epub3.images","application/x-mobipocket-ebook":"https://www.gutenberg.org/ebooks/70092.kf8.images","text/plain; charset=us-ascii":"https://www.gutenberg.org/ebooks/70092.txt.utf-8","application/rdf+xml":"https://www.gutenberg.org/ebooks/70092.rdf","image/jpeg":"https://www.gutenberg.org/cache/epub/70092/pg70092.cover.medium.jpg","application/octet-stream":"https://www.gutenberg.org/files/70092/70092-0.zip"},"download_count":36},{"id":70166,"title":"The Katcina altars in Hopi worship","authors":[{"name":"Fewkes, Jesse Walter","birth_year":1850,"death_year":1930}],"translators":[],"subjects":["Hopi Indians -- Religion","Hopi mythology"],"bookshelves":[],"languages":["en"],"copyright":false,"media_type":"Text","formats":{"text/html":"https://www.gutenberg.org/ebooks/70166.html.images","application/epub+zip":"https://www.gutenberg.org/ebooks/70166.epub3.images","application/x-mobipocket-ebook":"https://www.gutenberg.org/ebooks/70166.kf8.images","text/plain; charset=us-ascii":"https://www.gutenberg.org/ebooks/70166.txt.utf-8","application/rdf+xml":"https://www.gutenberg.org/ebooks/70166.rdf","image/jpeg":"https://www.gutenberg.org/cache/epub/70166/pg70166.cover.medium.jpg","application/octet-stream":"https://www.gutenberg.org/files/70166/70166-0.zip"},"download_count":36},{"id":70231,"title":"Everyday experiences","authors":[{"name":"Sears, F. W. (Franklin Warren)","birth_year":1863,"death_year":null}],"translators":[],"subjects":["New Thought"],"bookshelves":[],"languages":["en"],"copyright":false,"media_type":"Text","formats":{"text/html":"https://www.gutenberg.org/ebooks/70231.html.images","application/epub+zip":"https://www.gutenberg.org/ebooks/70231.epub3.images","application/x-mobipocket-ebook":"https://www.gutenberg.org/ebooks/70231.kf8.images","text/plain; charset=us-ascii":"https://www.gutenberg.org/ebooks/70231.txt.utf-8","application/rdf+xml":"https://www.gutenberg.org/ebooks/70231.rdf","image/jpeg":"https://www.gutenberg.org/cache/epub/70231/pg70231.cover.medium.jpg","application/octet-stream":"https://www.gutenberg.org/files/70231/70231-0.zip"},"download_count":36},{"id":70345,"title":"A constitutional league of peace in the stone age of America : $b The League of the Iroquois and its constitution","authors":[{"name":"Hewitt, J. N. B. (John Napoleon Brinton)","birth_year":1859,"death_year":1937}],"translators":[],"subjects":["Indians of North America","Iroquois Indians"],"bookshelves":[],"languages":["en"],"copyright":false,"media_type":"Text","formats":{"text/html":"https://www.gutenberg.org/ebooks/70345.html.images","application/epub+zip":"https://www.gutenberg.org/ebooks/70345.epub3.images","application/x-mobipocket-ebook":"https://www.gutenberg.org/ebooks/70345.kf8.images","text/plain; charset=us-ascii":"https://www.gutenberg.org/ebooks/70345.txt.utf-8","application/rdf+xml":"https://www.gutenberg.org/ebooks/70345.rdf","image/jpeg":"https://www.gutenberg.org/cache/epub/70345/pg70345.cover.medium.jpg","application/octet-stream":"https://www.gutenberg.org/files/70345/70345-0.zip"},"download_count":36},{"id":70368,"title":"Washington cover-up","authors":[{"name":"Mollenhoff, Clark R. (Clark Raymond)","birth_year":1921,"death_year":1991}],"translators":[],"subjects":["Executive privilege (Government information) -- United States","Government information -- United States"],"bookshelves":[],"languages":["en"],"copyright":false,"media_type":"Text","formats":{"text/html":"https://www.gutenberg.org/ebooks/70368.html.images","application/epub+zip":"https://www.gutenberg.org/ebooks/70368.epub3.images","application/x-mobipocket-ebook":"https://www.gutenberg.org/ebooks/70368.kf8.images","text/plain; charset=us-ascii":"https://www.gutenberg.org/ebooks/70368.txt.utf-8","application/rdf+xml":"https://www.gutenberg.org/ebooks/70368.rdf","image/jpeg":"https://www.gutenberg.org/cache/epub/70368/pg70368.cover.medium.jpg","application/octet-stream":"https://www.gutenberg.org/files/70368/70368-0.zip"},"download_count":36},{"id":70390,"title":"The monster-hunters","authors":[{"name":"Rolt-Wheeler, Francis","birth_year":1876,"death_year":1960}],"translators":[],"subjects":["Paleontology -- Juvenile literature"],"bookshelves":[],"languages":["en"],"copyright":false,"media_type":"Text","formats":{"text/html":"https://www.gutenberg.org/ebooks/70390.html.images","application/epub+zip":"https://www.gutenberg.org/ebooks/70390.epub3.images","application/x-mobipocket-ebook":"https://www.gutenberg.org/ebooks/70390.kf8.images","text/plain; charset=us-ascii":"https://www.gutenberg.org/ebooks/70390.txt.utf-8","application/rdf+xml":"https://www.gutenberg.org/ebooks/70390.rdf","image/jpeg":"https://www.gutenberg.org/cache/epub/70390/pg70390.cover.medium.jpg","application/octet-stream":"https://www.gutenberg.org/files/70390/70390-0.zip"},"download_count":36},{"id":70424,"title":"Old nurse's book of rhymes, jingles and ditties","authors":[],"translators":[],"subjects":["Children's poetry","Nursery rhymes","Picture books for children"],"bookshelves":[],"languages":["en"],"copyright":false,"media_type":"Text","formats":{"text/html":"https://www.gutenberg.org/ebooks/70424.html.images","application/epub+zip":"https://www.gutenberg.org/ebooks/70424.epub3.images","application/x-mobipocket-ebook":"https://www.gutenberg.org/ebooks/70424.kf8.images","text/plain; charset=us-ascii":"https://www.gutenberg.org/ebooks/70424.txt.utf-8","application/rdf+xml":"https://www.gutenberg.org/ebooks/70424.rdf","image/jpeg":"https://www.gutenberg.org/cache/epub/70424/pg70424.cover.medium.jpg","application/octet-stream":"https://www.gutenberg.org/files/70424/70424-0.zip"},"download_count":36},{"id":70482,"title":"Prosperity's child","authors":[{"name":"Stooke, Eleanora H.","birth_year":null,"death_year":null}],"translators":[],"subjects":["Christian life -- Juvenile fiction","Conduct of life -- Juvenile fiction","England -- Juvenile fiction","Families -- Juvenile fiction","Girls -- Juvenile fiction","Schools -- Juvenile fiction"],"bookshelves":[],"languages":["en"],"copyright":false,"media_type":"Text","formats":{"text/html":"https://www.gutenberg.org/ebooks/70482.html.images","application/epub+zip":"https://www.gutenberg.org/ebooks/70482.epub3.images","application/x-mobipocket-ebook":"https://www.gutenberg.org/ebooks/70482.kf8.images","text/plain; charset=us-ascii":"https://www.gutenberg.org/ebooks/70482.txt.utf-8","application/rdf+xml":"https://www.gutenberg.org/ebooks/70482.rdf","image/jpeg":"https://www.gutenberg.org/cache/epub/70482/pg70482.cover.medium.jpg","application/octet-stream":"https://www.gutenberg.org/files/70482/70482-0.zip"},"download_count":36},{"id":70610,"title":"The grandfathers' war","authors":[{"name":"Leinster, Murray","birth_year":1896,"death_year":1975}],"translators":[],"subjects":["Conflict of generations -- Fiction","Physicians -- Fiction","Science fiction","Space colonies -- Fiction","Space medicine -- Fiction","War stories"],"bookshelves":[],"languages":["en"],"copyright":false,"media_type":"Text","formats":{"text/html":"https://www.gutenberg.org/ebooks/70610.html.images","application/epub+zip":"https://www.gutenberg.org/ebooks/70610.epub3.images","application/x-mobipocket-ebook":"https://www.gutenberg.org/ebooks/70610.kf8.images","text/plain; charset=us-ascii":"https://www.gutenberg.org/ebooks/70610.txt.utf-8","application/rdf+xml":"https://www.gutenberg.org/ebooks/70610.rdf","image/jpeg":"https://www.gutenberg.org/cache/epub/70610/pg70610.cover.medium.jpg","application/octet-stream":"https://www.gutenberg.org/files/70610/70610-0.zip"},"download_count":36},{"id":70641,"title":"Three little maids","authors":[{"name":"Turner, Ethel","birth_year":1870,"death_year":1958}],"translators":[],"subjects":["Australia -- Social life and customs -- Juvenile fiction","Domestic fiction","Family life -- Juvenile fiction","Sisters -- Juvenile fiction"],"bookshelves":[],"languages":["en"],"copyright":false,"media_type":"Text","formats":{"text/html":"https://www.gutenberg.org/ebooks/70641.html.images","application/epub+zip":"https://www.gutenberg.org/ebooks/70641.epub3.images","application/x-mobipocket-ebook":"https://www.gutenberg.org/ebooks/70641.kf8.images","text/plain; charset=us-ascii":"https://www.gutenberg.org/ebooks/70641.txt.utf-8","application/rdf+xml":"https://www.gutenberg.org/ebooks/70641.rdf","image/jpeg":"https://www.gutenberg.org/cache/epub/70641/pg70641.cover.medium.jpg","application/octet-stream":"https://www.gutenberg.org/files/70641/70641-0.zip"},"download_count":36},{"id":70657,"title":"Prayer and praying men","authors":[{"name":"Bounds, Edward M. (Edward McKendree)","birth_year":1835,"death_year":1913}],"translators":[],"subjects":["Bible -- Prayers","Prayer -- Christianity"],"bookshelves":[],"languages":["en"],"copyright":false,"media_type":"Text","formats":{"text/html":"https://www.gutenberg.org/ebooks/70657.html.images","application/epub+zip":"https://www.gutenberg.org/ebooks/70657.epub3.images","application/x-mobipocket-ebook":"https://www.gutenberg.org/ebooks/70657.kf8.images","text/plain; charset=us-ascii":"https://www.gutenberg.org/ebooks/70657.txt.utf-8","application/rdf+xml":"https://www.gutenberg.org/ebooks/70657.rdf","image/jpeg":"https://www.gutenberg.org/cache/epub/70657/pg70657.cover.medium.jpg","application/octet-stream":"https://www.gutenberg.org/files/70657/70657-0.zip"},"download_count":36},{"id":70666,"title":"The ethics of Hercules : $b A study of man's body as the sole determinant of ethical values","authors":[{"name":"Givler, Robert Chenault","birth_year":1884,"death_year":1975}],"translators":[],"subjects":["Ethics","Psychophysiology"],"bookshelves":[],"languages":["en"],"copyright":false,"media_type":"Text","formats":{"text/html":"https://www.gutenberg.org/ebooks/70666.html.images","application/epub+zip":"https://www.gutenberg.org/ebooks/70666.epub3.images","application/x-mobipocket-ebook":"https://www.gutenberg.org/ebooks/70666.kf8.images","text/plain; charset=us-ascii":"https://www.gutenberg.org/ebooks/70666.txt.utf-8","application/rdf+xml":"https://www.gutenberg.org/ebooks/70666.rdf","image/jpeg":"https://www.gutenberg.org/cache/epub/70666/pg70666.cover.medium.jpg","application/octet-stream":"https://www.gutenberg.org/files/70666/70666-0.zip"},"download_count":36},{"id":70768,"title":"The fields of France : $b with twenty illustrations in color","authors":[{"name":"Robinson, A. Mary F. (Agnes Mary Frances)","birth_year":1857,"death_year":1944}],"translators":[],"subjects":["France -- Social conditions","France -- Social life and customs","Peasants -- France"],"bookshelves":[],"languages":["en"],"copyright":false,"media_type":"Text","formats":{"text/html":"https://www.gutenberg.org/ebooks/70768.html.images","application/epub+zip":"https://www.gutenberg.org/ebooks/70768.epub3.images","application/x-mobipocket-ebook":"https://www.gutenberg.org/ebooks/70768.kf8.images","text/plain; charset=us-ascii":"https://www.gutenberg.org/ebooks/70768.txt.utf-8","application/rdf+xml":"https://www.gutenberg.org/ebooks/70768.rdf","image/jpeg":"https://www.gutenberg.org/cache/epub/70768/pg70768.cover.medium.jpg","application/octet-stream":"https://www.gutenberg.org/files/70768/70768-0.zip"},"download_count":36},{"id":70907,"title":"Catalogue of the dipterous insects collected at Singapore and Malacca","authors":[{"name":"Wallace, Alfred Russel","birth_year":1823,"death_year":1913}],"translators":[],"subjects":["Diptera -- Malacca","Diptera -- Singapore"],"bookshelves":[],"languages":["en"],"copyright":false,"media_type":"Text","formats":{"text/html":"https://www.gutenberg.org/ebooks/70907.html.images","application/epub+zip":"https://www.gutenberg.org/ebooks/70907.epub3.images","application/x-mobipocket-ebook":"https://www.gutenberg.org/ebooks/70907.kf8.images","text/plain; charset=us-ascii":"https://www.gutenberg.org/ebooks/70907.txt.utf-8","application/rdf+xml":"https://www.gutenberg.org/ebooks/70907.rdf","image/jpeg":"https://www.gutenberg.org/cache/epub/70907/pg70907.cover.medium.jpg","application/octet-stream":"https://www.gutenberg.org/files/70907/70907-0.zip"},"download_count":36},{"id":70951,"title":"A text-book on hygiene and pediatrics from a chiropractic standpoint","authors":[{"name":"Craven, J. H. (John Henry)","birth_year":1880,"death_year":1940}],"translators":[],"subjects":["Children -- Diseases","Chiropractic","Sanitation"],"bookshelves":[],"languages":["en"],"copyright":false,"media_type":"Text","formats":{"text/html":"https://www.gutenberg.org/ebooks/70951.html.images","application/epub+zip":"https://www.gutenberg.org/ebooks/70951.epub3.images","application/x-mobipocket-ebook":"https://www.gutenberg.org/ebooks/70951.kf8.images","text/plain; charset=us-ascii":"https://www.gutenberg.org/ebooks/70951.txt.utf-8","application/rdf+xml":"https://www.gutenberg.org/ebooks/70951.rdf","image/jpeg":"https://www.gutenberg.org/cache/epub/70951/pg70951.cover.medium.jpg","application/octet-stream":"https://www.gutenberg.org/files/70951/70951-0.zip"},"download_count":36},{"id":71155,"title":"Facing the chair : $b Story of the Americanization of two foreignborn workmen","authors":[{"name":"Dos Passos, John","birth_year":1896,"death_year":1970}],"translators":[],"subjects":["Sacco, Nicola, 1891-1927","Sacco-Vanzetti Trial, Dedham, Mass., 1921","Trials (Murder) -- Massachusetts -- Dedham","Vanzetti, Bartolomeo, 1888-1927"],"bookshelves":[],"languages":["en"],"copyright":false,"media_type":"Text","formats":{"text/html":"https://www.gutenberg.org/ebooks/71155.html.images","application/epub+zip":"https://www.gutenberg.org/ebooks/71155.epub3.images","application/x-mobipocket-ebook":"https://www.gutenberg.org/ebooks/71155.kf8.images","text/plain; charset=us-ascii":"https://www.gutenberg.org/ebooks/71155.txt.utf-8","application/rdf+xml":"https://www.gutenberg.org/ebooks/71155.rdf","image/jpeg":"https://www.gutenberg.org/cache/epub/71155/pg71155.cover.medium.jpg","application/octet-stream":"https://www.gutenberg.org/files/71155/71155-0.zip"},"download_count":36},{"id":71304,"title":"A mechanical and critical enquiry into the nature of hermaphrodites","authors":[{"name":"Parsons, James","birth_year":1705,"death_year":1770}],"translators":[],"subjects":["Intersexuality -- Early works to 1800"],"bookshelves":[],"languages":["en"],"copyright":false,"media_type":"Text","formats":{"text/html":"https://www.gutenberg.org/ebooks/71304.html.images","application/epub+zip":"https://www.gutenberg.org/ebooks/71304.epub3.images","application/x-mobipocket-ebook":"https://www.gutenberg.org/ebooks/71304.kf8.images","text/plain; charset=us-ascii":"https://www.gutenberg.org/ebooks/71304.txt.utf-8","application/rdf+xml":"https://www.gutenberg.org/ebooks/71304.rdf","image/jpeg":"https://www.gutenberg.org/cache/epub/71304/pg71304.cover.medium.jpg","application/octet-stream":"https://www.gutenberg.org/files/71304/71304-0.zip"},"download_count":36},{"id":71309,"title":"Six little Bunkers at Captain Ben's","authors":[{"name":"Hope, Laura Lee","birth_year":null,"death_year":null}],"translators":[],"subjects":["Adventure stories","Siblings -- Juvenile fiction"],"bookshelves":[],"languages":["en"],"copyright":false,"media_type":"Text","formats":{"text/html":"https://www.gutenberg.org/ebooks/71309.html.images","application/epub+zip":"https://www.gutenberg.org/ebooks/71309.epub3.images","application/x-mobipocket-ebook":"https://www.gutenberg.org/ebooks/71309.kf8.images","text/plain; charset=us-ascii":"https://www.gutenberg.org/ebooks/71309.txt.utf-8","application/rdf+xml":"https://www.gutenberg.org/ebooks/71309.rdf","image/jpeg":"https://www.gutenberg.org/cache/epub/71309/pg71309.cover.medium.jpg","application/octet-stream":"https://www.gutenberg.org/files/71309/71309-0.zip"},"download_count":36},{"id":71410,"title":"The woollen dress","authors":[{"name":"Bordeaux, Henry","birth_year":1870,"death_year":1963}],"translators":[{"name":"Davis, Ruth Helen","birth_year":null,"death_year":null}],"subjects":["French fiction -- Translations into English"],"bookshelves":[],"languages":["en"],"copyright":false,"media_type":"Text","formats":{"text/html":"https://www.gutenberg.org/ebooks/71410.html.images","application/epub+zip":"https://www.gutenberg.org/ebooks/71410.epub3.images","application/x-mobipocket-ebook":"https://www.gutenberg.org/ebooks/71410.kf8.images","text/plain; charset=us-ascii":"https://www.gutenberg.org/ebooks/71410.txt.utf-8","application/rdf+xml":"https://www.gutenberg.org/ebooks/71410.rdf","image/jpeg":"https://www.gutenberg.org/cache/epub/71410/pg71410.cover.medium.jpg","application/octet-stream":"https://www.gutenberg.org/files/71410/71410-h.zip"},"download_count":36},{"id":71422,"title":"The pioneer West : $b Narratives of the westward march of empire","authors":[],"translators":[],"subjects":["Frontier and pioneer life -- West (U.S.)"],"bookshelves":[],"languages":["en"],"copyright":false,"media_type":"Text","formats":{"text/html":"https://www.gutenberg.org/ebooks/71422.html.images","application/epub+zip":"https://www.gutenberg.org/ebooks/71422.epub3.images","application/x-mobipocket-ebook":"https://www.gutenberg.org/ebooks/71422.kf8.images","text/plain; charset=us-ascii":"https://www.gutenberg.org/ebooks/71422.txt.utf-8","application/rdf+xml":"https://www.gutenberg.org/ebooks/71422.rdf","image/jpeg":"https://www.gutenberg.org/cache/epub/71422/pg71422.cover.medium.jpg","application/octet-stream":"https://www.gutenberg.org/files/71422/71422-h.zip"},"download_count":36},{"id":71531,"title":"The Ohio Naturalist, vol. II, no. 2, December, 1901","authors":[{"name":"Ohio State University. Biological Club","birth_year":null,"death_year":null}],"translators":[],"subjects":["Natural history -- Ohio -- Periodicals","Natural history -- Periodicals","Science -- Periodicals"],"bookshelves":[],"languages":["en"],"copyright":false,"media_type":"Text","formats":{"text/html":"https://www.gutenberg.org/ebooks/71531.html.images","application/epub+zip":"https://www.gutenberg.org/ebooks/71531.epub3.images","application/x-mobipocket-ebook":"https://www.gutenberg.org/ebooks/71531.kf8.images","text/plain; charset=us-ascii":"https://www.gutenberg.org/ebooks/71531.txt.utf-8","application/rdf+xml":"https://www.gutenberg.org/ebooks/71531.rdf","image/jpeg":"https://www.gutenberg.org/cache/epub/71531/pg71531.cover.medium.jpg","application/octet-stream":"https://www.gutenberg.org/files/71531/71531-h.zip"},"download_count":36},{"id":71575,"title":"The hand-book of artillery","authors":[{"name":"Roberts, Joseph","birth_year":1814,"death_year":1898}],"translators":[],"subjects":["Artillery"],"bookshelves":[],"languages":["en"],"copyright":false,"media_type":"Text","formats":{"text/html":"https://www.gutenberg.org/ebooks/71575.html.images","application/epub+zip":"https://www.gutenberg.org/ebooks/71575.epub3.images","application/x-mobipocket-ebook":"https://www.gutenberg.org/ebooks/71575.kf8.images","text/plain; charset=us-ascii":"https://www.gutenberg.org/ebooks/71575.txt.utf-8","application/rdf+xml":"https://www.gutenberg.org/ebooks/71575.rdf","image/jpeg":"https://www.gutenberg.org/cache/epub/71575/pg71575.cover.medium.jpg","application/octet-stream":"https://www.gutenberg.org/files/71575/71575-h.zip"},"download_count":36},{"id":71670,"title":"Royal fruit gelatin suggestions","authors":[{"name":"Royal Baking Powder Company","birth_year":null,"death_year":null}],"translators":[],"subjects":["Cooking (Gelatin)","Desserts","Gelatin","Molded dishes (Cooking)","Salads"],"bookshelves":[],"languages":["en"],"copyright":false,"media_type":"Text","formats":{"text/html":"https://www.gutenberg.org/ebooks/71670.html.images","application/epub+zip":"https://www.gutenberg.org/ebooks/71670.epub3.images","application/x-mobipocket-ebook":"https://www.gutenberg.org/ebooks/71670.kf8.images","text/plain; charset=us-ascii":"https://www.gutenberg.org/ebooks/71670.txt.utf-8","application/rdf+xml":"https://www.gutenberg.org/ebooks/71670.rdf","image/jpeg":"https://www.gutenberg.org/cache/epub/71670/pg71670.cover.medium.jpg","application/octet-stream":"https://www.gutenberg.org/files/71670/71670-h.zip"},"download_count":36},{"id":71672,"title":"A Virginia cavalier","authors":[{"name":"Seawell, Molly Elliot","birth_year":1860,"death_year":1916}],"translators":[],"subjects":["Washington, George, 1732-1799 -- Juvenile fiction"],"bookshelves":[],"languages":["en"],"copyright":false,"media_type":"Text","formats":{"text/html":"https://www.gutenberg.org/ebooks/71672.html.images","application/epub+zip":"https://www.gutenberg.org/ebooks/71672.epub3.images","application/x-mobipocket-ebook":"https://www.gutenberg.org/ebooks/71672.kf8.images","text/plain; charset=us-ascii":"https://www.gutenberg.org/ebooks/71672.txt.utf-8","application/rdf+xml":"https://www.gutenberg.org/ebooks/71672.rdf","image/jpeg":"https://www.gutenberg.org/cache/epub/71672/pg71672.cover.medium.jpg","application/octet-stream":"https://www.gutenberg.org/files/71672/71672-h.zip"},"download_count":36},{"id":71777,"title":"Of Yankee granite : $b An account of the building of the Bunker Hill Monument","authors":[{"name":"Cameron, Edward Herbert","birth_year":1875,"death_year":1938}],"translators":[],"subjects":["Bunker Hill Monument (Boston, Mass.)"],"bookshelves":[],"languages":["en"],"copyright":false,"media_type":"Text","formats":{"text/html":"https://www.gutenberg.org/ebooks/71777.html.images","application/epub+zip":"https://www.gutenberg.org/ebooks/71777.epub3.images","application/x-mobipocket-ebook":"https://www.gutenberg.org/ebooks/71777.kf8.images","text/plain; charset=us-ascii":"https://www.gutenberg.org/ebooks/71777.txt.utf-8","application/rdf+xml":"https://www.gutenberg.org/ebooks/71777.rdf","image/jpeg":"https://www.gutenberg.org/cache/epub/71777/pg71777.cover.medium.jpg","application/octet-stream":"https://www.gutenberg.org/cache/epub/71777/pg71777-h.zip"},"download_count":36},{"id":71789,"title":"Bones and I : $b or, the skeleton at home","authors":[{"name":"Whyte-Melville, G. J. (George John)","birth_year":1821,"death_year":1878}],"translators":[],"subjects":["English fiction -- 19th century","Paranormal fiction, English"],"bookshelves":[],"languages":["en"],"copyright":false,"media_type":"Text","formats":{"text/html":"https://www.gutenberg.org/ebooks/71789.html.images","application/epub+zip":"https://www.gutenberg.org/ebooks/71789.epub3.images","application/x-mobipocket-ebook":"https://www.gutenberg.org/ebooks/71789.kf8.images","text/plain; charset=us-ascii":"https://www.gutenberg.org/ebooks/71789.txt.utf-8","application/rdf+xml":"https://www.gutenberg.org/ebooks/71789.rdf","image/jpeg":"https://www.gutenberg.org/cache/epub/71789/pg71789.cover.medium.jpg","application/octet-stream":"https://www.gutenberg.org/cache/epub/71789/pg71789-h.zip"},"download_count":36},{"id":71808,"title":"The binding of the Nile and the new Soudan","authors":[{"name":"Peel, Sidney Cornwallis","birth_year":1870,"death_year":1938}],"translators":[],"subjects":["Irrigation -- Egypt","Nile River","Sudan (Region)"],"bookshelves":[],"languages":["en"],"copyright":false,"media_type":"Text","formats":{"text/html":"https://www.gutenberg.org/ebooks/71808.html.images","application/epub+zip":"https://www.gutenberg.org/ebooks/71808.epub3.images","application/x-mobipocket-ebook":"https://www.gutenberg.org/ebooks/71808.kf8.images","text/plain; charset=us-ascii":"https://www.gutenberg.org/ebooks/71808.txt.utf-8","application/rdf+xml":"https://www.gutenberg.org/ebooks/71808.rdf","image/jpeg":"https://www.gutenberg.org/cache/epub/71808/pg71808.cover.medium.jpg","application/octet-stream":"https://www.gutenberg.org/cache/epub/71808/pg71808-h.zip"},"download_count":36},{"id":71939,"title":"Gratitude","authors":[{"name":"Norton, Roy","birth_year":1869,"death_year":1942}],"translators":[],"subjects":["Gold miners -- Alaska -- Fiction","Short stories"],"bookshelves":[],"languages":["en"],"copyright":false,"media_type":"Text","formats":{"text/html":"https://www.gutenberg.org/ebooks/71939.html.images","application/epub+zip":"https://www.gutenberg.org/ebooks/71939.epub3.images","application/x-mobipocket-ebook":"https://www.gutenberg.org/ebooks/71939.kf8.images","text/plain; charset=us-ascii":"https://www.gutenberg.org/ebooks/71939.txt.utf-8","application/rdf+xml":"https://www.gutenberg.org/ebooks/71939.rdf","image/jpeg":"https://www.gutenberg.org/cache/epub/71939/pg71939.cover.medium.jpg","application/octet-stream":"https://www.gutenberg.org/cache/epub/71939/pg71939-h.zip"},"download_count":36},{"id":72214,"title":"The sexagenarian; or, the recollections of a literary life (Volume 2 of 2)","authors":[{"name":"Beloe, William","birth_year":1756,"death_year":1817}],"translators":[],"subjects":["Authors, English","Beloe, William, 1756-1817","English literature -- Anecdotes"],"bookshelves":[],"languages":["en"],"copyright":false,"media_type":"Text","formats":{"text/html":"https://www.gutenberg.org/ebooks/72214.html.images","application/epub+zip":"https://www.gutenberg.org/ebooks/72214.epub3.images","application/x-mobipocket-ebook":"https://www.gutenberg.org/ebooks/72214.kf8.images","text/plain; charset=us-ascii":"https://www.gutenberg.org/ebooks/72214.txt.utf-8","application/rdf+xml":"https://www.gutenberg.org/ebooks/72214.rdf","image/jpeg":"https://www.gutenberg.org/cache/epub/72214/pg72214.cover.medium.jpg","application/octet-stream":"https://www.gutenberg.org/cache/epub/72214/pg72214-h.zip"},"download_count":36}]}