{"count":58808,"next":"http://129.241.150.113:8000/books/?languages=en&page=1821","previous":"http://129.241.150.113:8000/books/?languages=en&page=1819","results":[{"id":68573,"title":"Petunia blossoms: Ballads and poems","authors":[{"name":"Schrage, Dorothea Auguste Gunhilde","birth_year":null,"death_year":null}],"translators":[],"subjects":["American poetry -- 20th century"],"bookshelves":[],"languages":["en"],"copyright":false,"media_type":"Text","formats":{"text/html":"https://www.gutenberg.org/ebooks/68573.html.images","application/epub+zip":"https://www.gutenberg.org/ebooks/68573.epub3.images","application/x-mobipocket-ebook":"https://www.gutenberg.org/ebooks/68573.kf8.images","text/plain; charset=us-ascii":"https://www.gutenberg.org/ebooks/68573.txt.utf-8","application/rdf+xml":"https://www.gutenberg.org/ebooks/68573.rdf","image/jpeg":"https://www.gutenberg.org/cache/epub/68573/pg68573.cover.medium.jpg","application/octet-stream":"https://www.gutenberg.org/files/68573/68573-0.zip"},"download_count":10},{"id":69367,"title":"An apology for abolitionists: addressed by the anti-slavery society of Meriden, Conn., to their fellow citizens","authors":[{"name":"Pratt, Philo","birth_year":null,"death_year":null},{"name":"Tibbals, Isaac I.","birth_year":null,"death_year":null},{"name":"Webb, Walter","birth_year":null,"death_year":null},{"name":"Anti-slavery Society of Meriden, Conn.","birth_year":null,"death_year":null}],"translators":[],"subjects":["Abolitionists -- Connecticut -- Meriden","Slavery -- United States","Slavery -- United States -- Societies, etc."],"bookshelves":[],"languages":["en"],"copyright":false,"media_type":"Text","formats":{"text/html":"https://www.gutenberg.org/ebooks/69367.html.images","application/epub+zip":"https://www.gutenberg.org/ebooks/69367.epub3.images","application/x-mobipocket-ebook":"https://www.gutenberg.org/ebooks/69367.kf8.images","text/plain; charset=us-ascii":"https://www.gutenberg.org/ebooks/69367.txt.utf-8","application/rdf+xml":"https://www.gutenberg.org/ebooks/69367.rdf","image/jpeg":"https://www.gutenberg.org/cache/epub/69367/pg69367.cover.medium.jpg","application/octet-stream":"https://www.gutenberg.org/files/69367/69367-0.zip"},"download_count":10},{"id":69374,"title":"On the relation which ought to subsist between the strength of an electric current and the diameter of conductors, to prevent overheating: A paper read at the Society of Telegraph-Engineers and Electricians, March 27th, 1884.","authors":[{"name":"Forbes, George","birth_year":1849,"death_year":1936}],"translators":[],"subjects":["Electric conductors"],"bookshelves":[],"languages":["en"],"copyright":false,"media_type":"Text","formats":{"application/pdf":"https://www.gutenberg.org/files/69374/69374.pdf","image/jpeg":"https://www.gutenberg.org/files/69374/69474-t/images/cover.jpg","application/rdf+xml":"https://www.gutenberg.org/ebooks/69374.rdf","application/prs.tex":"https://www.gutenberg.org/files/69374/69474-t/69374.tex"},"download_count":10},{"id":69550,"title":"Mercia, the astronomer royal: A romance","authors":[{"name":"Mears, A. Garland","birth_year":null,"death_year":1920}],"translators":[],"subjects":["Science fiction","Utopian fiction"],"bookshelves":[],"languages":["en"],"copyright":false,"media_type":"Text","formats":{"text/html":"https://www.gutenberg.org/ebooks/69550.html.images","application/epub+zip":"https://www.gutenberg.org/ebooks/69550.epub3.images","application/x-mobipocket-ebook":"https://www.gutenberg.org/ebooks/69550.kf8.images","text/plain; charset=us-ascii":"https://www.gutenberg.org/ebooks/69550.txt.utf-8","application/rdf+xml":"https://www.gutenberg.org/ebooks/69550.rdf","image/jpeg":"https://www.gutenberg.org/cache/epub/69550/pg69550.cover.medium.jpg","application/octet-stream":"https://www.gutenberg.org/files/69550/69550-0.zip"},"download_count":10},{"id":69641,"title":"Schneider Von Groot's Christmas dream","authors":[{"name":"Warwick, George","birth_year":null,"death_year":null}],"translators":[],"subjects":["Christmas poetry","Temperance -- Poetry"],"bookshelves":[],"languages":["en"],"copyright":false,"media_type":"Text","formats":{"text/html":"https://www.gutenberg.org/ebooks/69641.html.images","application/epub+zip":"https://www.gutenberg.org/ebooks/69641.epub3.images","application/x-mobipocket-ebook":"https://www.gutenberg.org/ebooks/69641.kf8.images","text/plain; charset=us-ascii":"https://www.gutenberg.org/ebooks/69641.txt.utf-8","application/rdf+xml":"https://www.gutenberg.org/ebooks/69641.rdf","image/jpeg":"https://www.gutenberg.org/cache/epub/69641/pg69641.cover.medium.jpg","application/octet-stream":"https://www.gutenberg.org/files/69641/69641-0.zip"},"download_count":10},{"id":69763,"title":"Kwasa the cliff dweller","authors":[{"name":"Grimes, Katharine Atherton","birth_year":1877,"death_year":1967}],"translators":[],"subjects":["Shoshoni Indians -- Juvenile literature"],"bookshelves":[],"languages":["en"],"copyright":false,"media_type":"Text","formats":{"text/html":"https://www.gutenberg.org/ebooks/69763.html.images","application/epub+zip":"https://www.gutenberg.org/ebooks/69763.epub3.images","application/x-mobipocket-ebook":"https://www.gutenberg.org/ebooks/69763.kf8.images","text/plain; charset=us-ascii":"https://www.gutenberg.org/ebooks/69763.txt.utf-8","application/rdf+xml":"https://www.gutenberg.org/ebooks/69763.rdf","image/jpeg":"https://www.gutenberg.org/cache/epub/69763/pg69763.cover.medium.jpg","application/octet-stream":"https://www.gutenberg.org/files/69763/69763-0.zip"},"download_count":10},{"id":70209,"title":"Bird in hand : $b a play in one act","authors":[{"name":"Housman, Laurence","birth_year":1865,"death_year":1959}],"translators":[],"subjects":["English drama -- 20th century","One-act plays"],"bookshelves":[],"languages":["en"],"copyright":false,"media_type":"Text","formats":{"text/html":"https://www.gutenberg.org/ebooks/70209.html.images","application/epub+zip":"https://www.gutenberg.org/ebooks/70209.epub3.images","application/x-mobipocket-ebook":"https://www.gutenberg.org/ebooks/70209.kf8.images","text/plain; charset=us-ascii":"https://www.gutenberg.org/ebooks/70209.txt.utf-8","application/rdf+xml":"https://www.gutenberg.org/ebooks/70209.rdf","image/jpeg":"https://www.gutenberg.org/cache/epub/70209/pg70209.cover.medium.jpg","application/octet-stream":"https://www.gutenberg.org/files/70209/70209-0.zip"},"download_count":10},{"id":70305,"title":"Torwood's trust : $b A novel (Vol. 1 of 3)","authors":[{"name":"Everett-Green, Evelyn","birth_year":1856,"death_year":1932}],"translators":[],"subjects":["English fiction -- 19th century"],"bookshelves":[],"languages":["en"],"copyright":false,"media_type":"Text","formats":{"text/html":"https://www.gutenberg.org/ebooks/70305.html.images","application/epub+zip":"https://www.gutenberg.org/ebooks/70305.epub3.images","application/x-mobipocket-ebook":"https://www.gutenberg.org/ebooks/70305.kf8.images","text/plain; charset=us-ascii":"https://www.gutenberg.org/ebooks/70305.txt.utf-8","application/rdf+xml":"https://www.gutenberg.org/ebooks/70305.rdf","image/jpeg":"https://www.gutenberg.org/cache/epub/70305/pg70305.cover.medium.jpg","application/octet-stream":"https://www.gutenberg.org/files/70305/70305-0.zip"},"download_count":10},{"id":70316,"title":"Thamyris; $b or, Is there a future for poetry?","authors":[{"name":"Trevelyan, R. C. (Robert Calverley)","birth_year":1872,"death_year":1951}],"translators":[],"subjects":["Poetry"],"bookshelves":[],"languages":["en"],"copyright":false,"media_type":"Text","formats":{"text/html":"https://www.gutenberg.org/ebooks/70316.html.images","application/epub+zip":"https://www.gutenberg.org/ebooks/70316.epub3.images","application/x-mobipocket-ebook":"https://www.gutenberg.org/ebooks/70316.kf8.images","text/plain; charset=us-ascii":"https://www.gutenberg.org/ebooks/70316.txt.utf-8","application/rdf+xml":"https://www.gutenberg.org/ebooks/70316.rdf","image/jpeg":"https://www.gutenberg.org/cache/epub/70316/pg70316.cover.medium.jpg","application/octet-stream":"https://www.gutenberg.org/files/70316/70316-0.zip"},"download_count":10},{"id":70358,"title":"Bunny Brown and his sister Sue and their trick dog","authors":[{"name":"Hope, Laura Lee","birth_year":null,"death_year":null}],"translators":[],"subjects":["Brown, Bunny (Fictitious character) -- Juvenile fiction","Dogs -- Juvenile fiction","Siblings -- Juvenile fiction"],"bookshelves":[],"languages":["en"],"copyright":false,"media_type":"Text","formats":{"text/html":"https://www.gutenberg.org/ebooks/70358.html.images","application/epub+zip":"https://www.gutenberg.org/ebooks/70358.epub3.images","application/x-mobipocket-ebook":"https://www.gutenberg.org/ebooks/70358.kf8.images","text/plain; charset=us-ascii":"https://www.gutenberg.org/ebooks/70358.txt.utf-8","application/rdf+xml":"https://www.gutenberg.org/ebooks/70358.rdf","image/jpeg":"https://www.gutenberg.org/cache/epub/70358/pg70358.cover.medium.jpg","application/octet-stream":"https://www.gutenberg.org/files/70358/70358-0.zip"},"download_count":10},{"id":70507,"title":"The Cornhill Magazine (Vol. I, No. 5, May 1860)","authors":[{"name":"Various","birth_year":null,"death_year":null}],"translators":[],"subjects":["England -- Periodicals","English literature -- Periodicals","Short stories, English -- Periodicals"],"bookshelves":[],"languages":["en"],"copyright":false,"media_type":"Text","formats":{"text/html":"https://www.gutenberg.org/ebooks/70507.html.images","application/epub+zip":"https://www.gutenberg.org/ebooks/70507.epub3.images","application/x-mobipocket-ebook":"https://www.gutenberg.org/ebooks/70507.kf8.images","text/plain; charset=us-ascii":"https://www.gutenberg.org/ebooks/70507.txt.utf-8","application/rdf+xml":"https://www.gutenberg.org/ebooks/70507.rdf","image/jpeg":"https://www.gutenberg.org/cache/epub/70507/pg70507.cover.medium.jpg","application/octet-stream":"https://www.gutenberg.org/files/70507/70507-0.zip"},"download_count":10},{"id":70514,"title":"The Survey, volume 30, number 7, May 17, 1913","authors":[{"name":"Various","birth_year":null,"death_year":null}],"translators":[],"subjects":["Charities -- Periodicals","Social problems -- Periodicals","United States -- Social conditions -- Periodicals"],"bookshelves":[],"languages":["en"],"copyright":false,"media_type":"Text","formats":{"text/html":"https://www.gutenberg.org/ebooks/70514.html.images","application/epub+zip":"https://www.gutenberg.org/ebooks/70514.epub3.images","application/x-mobipocket-ebook":"https://www.gutenberg.org/ebooks/70514.kf8.images","text/plain; charset=us-ascii":"https://www.gutenberg.org/ebooks/70514.txt.utf-8","application/rdf+xml":"https://www.gutenberg.org/ebooks/70514.rdf","image/jpeg":"https://www.gutenberg.org/cache/epub/70514/pg70514.cover.medium.jpg","application/octet-stream":"https://www.gutenberg.org/files/70514/70514-0.zip"},"download_count":10},{"id":70750,"title":"The Review, Vol. 1, No. 12, December, 1911","authors":[{"name":"Various","birth_year":null,"death_year":null}],"translators":[],"subjects":["Prisons -- Periodicals"],"bookshelves":[],"languages":["en"],"copyright":false,"media_type":"Text","formats":{"text/html":"https://www.gutenberg.org/ebooks/70750.html.images","application/epub+zip":"https://www.gutenberg.org/ebooks/70750.epub3.images","application/x-mobipocket-ebook":"https://www.gutenberg.org/ebooks/70750.kf8.images","text/plain; charset=us-ascii":"https://www.gutenberg.org/ebooks/70750.txt.utf-8","application/rdf+xml":"https://www.gutenberg.org/ebooks/70750.rdf","image/jpeg":"https://www.gutenberg.org/cache/epub/70750/pg70750.cover.medium.jpg","application/octet-stream":"https://www.gutenberg.org/files/70750/70750-0.zip"},"download_count":10},{"id":71321,"title":"The convict's child : $b or, the helmet of hope.","authors":[{"name":"A. L. O. E.","birth_year":1821,"death_year":1893}],"translators":[],"subjects":["Almshouses -- England -- Juvenile fiction","Blind -- Juvenile fiction","Christian life -- Juvenile fiction","Young women -- Conduct of life -- Juvenile fiction"],"bookshelves":[],"languages":["en"],"copyright":false,"media_type":"Text","formats":{"text/html":"https://www.gutenberg.org/ebooks/71321.html.images","application/epub+zip":"https://www.gutenberg.org/ebooks/71321.epub3.images","application/x-mobipocket-ebook":"https://www.gutenberg.org/ebooks/71321.kf8.images","text/plain; charset=us-ascii":"https://www.gutenberg.org/ebooks/71321.txt.utf-8","application/rdf+xml":"https://www.gutenberg.org/ebooks/71321.rdf","image/jpeg":"https://www.gutenberg.org/cache/epub/71321/pg71321.cover.medium.jpg","application/octet-stream":"https://www.gutenberg.org/files/71321/71321-0.zip"},"download_count":10},{"id":2208,"title":"Human Genome Project, rough draft, Chromosome Number 08","authors":[{"name":"Human Genome Project","birth_year":null,"death_year":null}],"translators":[],"subjects":["Human Genome Project","Human gene mapping","Human genetics","Nucleotide sequence"],"bookshelves":[],"languages":["en"],"copyright":false,"media_type":"Dataset","formats":{"text/plain; charset=us-ascii":"https://www.gutenberg.org/files/2208/2208.zip","application/rdf+xml":"https://www.gutenberg.org/ebooks/2208.rdf"},"download_count":9},{"id":2221,"title":"Human Genome Project, rough draft, Chromosome Number 21","authors":[{"name":"Human Genome Project","birth_year":null,"death_year":null}],"translators":[],"subjects":["Human Genome Project","Human gene mapping","Human genetics","Nucleotide sequence"],"bookshelves":[],"languages":["en"],"copyright":false,"media_type":"Dataset","formats":{"text/plain; charset=us-ascii":"https://www.gutenberg.org/files/2221/2221.zip","application/rdf+xml":"https://www.gutenberg.org/ebooks/2221.rdf"},"download_count":9},{"id":2223,"title":"Human Genome Project, rough draft, Chromosome X Number 23","authors":[{"name":"Human Genome Project","birth_year":null,"death_year":null}],"translators":[],"subjects":["Human Genome Project","Human gene mapping","Human genetics","Nucleotide sequence"],"bookshelves":[],"languages":["en"],"copyright":false,"media_type":"Dataset","formats":{"text/plain; charset=us-ascii":"https://www.gutenberg.org/files/2223/2223.zip","application/rdf+xml":"https://www.gutenberg.org/ebooks/2223.rdf"},"download_count":9},{"id":2238,"title":"Measure for Measure","authors":[{"name":"Shakespeare, William","birth_year":1564,"death_year":1616}],"translators":[],"subjects":["Chastity -- Drama","Comedies","Siblings -- Drama","Vienna (Austria) -- Drama"],"bookshelves":[],"languages":["en"],"copyright":false,"media_type":"Text","formats":{"text/html":"https://www.gutenberg.org/ebooks/2238.html.images","application/epub+zip":"https://www.gutenberg.org/ebooks/2238.epub3.images","application/x-mobipocket-ebook":"https://www.gutenberg.org/ebooks/2238.kf8.images","text/plain; charset=us-ascii":"https://www.gutenberg.org/ebooks/2238.txt.utf-8","application/rdf+xml":"https://www.gutenberg.org/ebooks/2238.rdf","image/jpeg":"https://www.gutenberg.org/cache/epub/2238/pg2238.cover.medium.jpg","application/octet-stream":"https://www.gutenberg.org/cache/epub/2238/pg2238-h.zip"},"download_count":9},{"id":3353,"title":"Letters to His Son, 1749: On the Fine Art of Becoming a Man of the World and a Gentleman","authors":[{"name":"Chesterfield, Philip Dormer Stanhope, Earl of","birth_year":1694,"death_year":1773}],"translators":[],"subjects":["Conduct of life"],"bookshelves":[],"languages":["en"],"copyright":false,"media_type":"Text","formats":{"text/html":"https://www.gutenberg.org/ebooks/3353.html.images","application/epub+zip":"https://www.gutenberg.org/ebooks/3353.epub3.images","application/x-mobipocket-ebook":"https://www.gutenberg.org/ebooks/3353.kf8.images","text/plain; charset=us-ascii":"https://www.gutenberg.org/ebooks/3353.txt.utf-8","application/rdf+xml":"https://www.gutenberg.org/ebooks/3353.rdf","image/jpeg":"https://www.gutenberg.org/cache/epub/3353/pg3353.cover.medium.jpg","application/octet-stream":"https://www.gutenberg.org/cache/epub/3353/pg3353-h.zip"},"download_count":9},{"id":3358,"title":"Letters to His Son, 1756-58: On the Fine Art of Becoming a Man of the World and a Gentleman","authors":[{"name":"Chesterfield, Philip Dormer Stanhope, Earl of","birth_year":1694,"death_year":1773}],"translators":[],"subjects":["Conduct of life"],"bookshelves":[],"languages":["en"],"copyright":false,"media_type":"Text","formats":{"text/html":"https://www.gutenberg.org/ebooks/3358.html.images","application/epub+zip":"https://www.gutenberg.org/ebooks/3358.epub3.images","application/x-mobipocket-ebook":"https://www.gutenberg.org/ebooks/3358.kf8.images","text/plain; charset=us-ascii":"https://www.gutenberg.org/ebooks/3358.txt.utf-8","application/rdf+xml":"https://www.gutenberg.org/ebooks/3358.rdf","image/jpeg":"https://www.gutenberg.org/cache/epub/3358/pg3358.cover.medium.jpg","application/octet-stream":"https://www.gutenberg.org/cache/epub/3358/pg3358-h.zip"},"download_count":9},{"id":3511,"title":"Human Genome Project, Chromosome Number 11","authors":[{"name":"Human Genome Project","birth_year":null,"death_year":null}],"translators":[],"subjects":["Human Genome Project","Human gene mapping","Human genetics","Nucleotide sequence"],"bookshelves":[],"languages":["en"],"copyright":false,"media_type":"Dataset","formats":{"text/plain; charset=us-ascii":"https://www.gutenberg.org/files/3511/3511.zip","application/rdf+xml":"https://www.gutenberg.org/ebooks/3511.rdf"},"download_count":9},{"id":4148,"title":"Diary of Samuel Pepys — Volume 28: April/May 1664","authors":[{"name":"Pepys, Samuel","birth_year":1633,"death_year":1703}],"translators":[{"name":"Bright, Mynors","birth_year":1818,"death_year":1883}],"subjects":["Cabinet officers -- Great Britain -- Diaries","Diarists -- Great Britain -- Diaries","Great Britain -- History -- Charles II, 1660-1685 -- Sources","Great Britain -- Social life and customs -- 17th century -- Sources","Pepys, Samuel, 1633-1703 -- Diaries"],"bookshelves":[],"languages":["en"],"copyright":false,"media_type":"Text","formats":{"text/html":"https://www.gutenberg.org/ebooks/4148.html.images","application/epub+zip":"https://www.gutenberg.org/ebooks/4148.epub3.images","application/x-mobipocket-ebook":"https://www.gutenberg.org/ebooks/4148.kf8.images","text/plain; charset=us-ascii":"https://www.gutenberg.org/ebooks/4148.txt.utf-8","application/rdf+xml":"https://www.gutenberg.org/ebooks/4148.rdf","image/jpeg":"https://www.gutenberg.org/cache/epub/4148/pg4148.cover.medium.jpg","application/octet-stream":"https://www.gutenberg.org/cache/epub/4148/pg4148-h.zip"},"download_count":9},{"id":4435,"title":"Vittoria — Volume 1","authors":[{"name":"Meredith, George","birth_year":1828,"death_year":1909}],"translators":[],"subjects":["Historical fiction","Italy -- History -- Revolution of 1848 -- Fiction","War stories"],"bookshelves":["Historical Fiction"],"languages":["en"],"copyright":false,"media_type":"Text","formats":{"text/html":"https://www.gutenberg.org/ebooks/4435.html.images","application/epub+zip":"https://www.gutenberg.org/ebooks/4435.epub3.images","application/x-mobipocket-ebook":"https://www.gutenberg.org/ebooks/4435.kf8.images","text/plain; charset=us-ascii":"https://www.gutenberg.org/ebooks/4435.txt.utf-8","application/rdf+xml":"https://www.gutenberg.org/ebooks/4435.rdf","image/jpeg":"https://www.gutenberg.org/cache/epub/4435/pg4435.cover.medium.jpg","application/octet-stream":"https://www.gutenberg.org/cache/epub/4435/pg4435-h.zip"},"download_count":9},{"id":4475,"title":"One of Our Conquerors — Volume 5","authors":[{"name":"Meredith, George","birth_year":1828,"death_year":1909}],"translators":[],"subjects":["England -- Social conditions -- 19th century -- Fiction","English fiction -- 19th century","Great Britain -- Politics and government -- 19th century -- Fiction"],"bookshelves":[],"languages":["en"],"copyright":false,"media_type":"Text","formats":{"text/html":"https://www.gutenberg.org/ebooks/4475.html.images","application/epub+zip":"https://www.gutenberg.org/ebooks/4475.epub3.images","application/x-mobipocket-ebook":"https://www.gutenberg.org/ebooks/4475.kf8.images","text/plain; charset=us-ascii":"https://www.gutenberg.org/ebooks/4475.txt.utf-8","application/rdf+xml":"https://www.gutenberg.org/ebooks/4475.rdf","image/jpeg":"https://www.gutenberg.org/cache/epub/4475/pg4475.cover.medium.jpg","application/octet-stream":"https://www.gutenberg.org/cache/epub/4475/pg4475-h.zip"},"download_count":9},{"id":4804,"title":"The Rise of the Dutch Republic — Volume 04: 1555-59","authors":[{"name":"Motley, John Lothrop","birth_year":1814,"death_year":1877}],"translators":[],"subjects":["Netherlands -- Church history","Netherlands -- History -- Eighty Years' War, 1568-1648"],"bookshelves":[],"languages":["en"],"copyright":false,"media_type":"Text","formats":{"text/html":"https://www.gutenberg.org/ebooks/4804.html.images","application/epub+zip":"https://www.gutenberg.org/ebooks/4804.epub3.images","application/x-mobipocket-ebook":"https://www.gutenberg.org/ebooks/4804.kf8.images","text/plain; charset=us-ascii":"https://www.gutenberg.org/ebooks/4804.txt.utf-8","application/rdf+xml":"https://www.gutenberg.org/ebooks/4804.rdf","image/jpeg":"https://www.gutenberg.org/cache/epub/4804/pg4804.cover.medium.jpg","application/octet-stream":"https://www.gutenberg.org/cache/epub/4804/pg4804-h.zip"},"download_count":9},{"id":4837,"title":"History of the United Netherlands from the Death of William the Silent to the Twelve Year's Truce, 1584","authors":[{"name":"Motley, John Lothrop","birth_year":1814,"death_year":1877}],"translators":[],"subjects":["Netherlands -- History -- Eighty Years' War, 1568-1648"],"bookshelves":[],"languages":["en"],"copyright":false,"media_type":"Text","formats":{"text/html":"https://www.gutenberg.org/ebooks/4837.html.images","application/epub+zip":"https://www.gutenberg.org/ebooks/4837.epub3.images","application/x-mobipocket-ebook":"https://www.gutenberg.org/ebooks/4837.kf8.images","text/plain; charset=us-ascii":"https://www.gutenberg.org/ebooks/4837.txt.utf-8","application/rdf+xml":"https://www.gutenberg.org/ebooks/4837.rdf","image/jpeg":"https://www.gutenberg.org/cache/epub/4837/pg4837.cover.medium.jpg","application/octet-stream":"https://www.gutenberg.org/cache/epub/4837/pg4837-h.zip"},"download_count":9},{"id":4882,"title":"History of the United Netherlands from the Death of William the Silent to the Twelve Year's Truce, 1608b","authors":[{"name":"Motley, John Lothrop","birth_year":1814,"death_year":1877}],"translators":[],"subjects":["Netherlands -- History -- Eighty Years' War, 1568-1648"],"bookshelves":[],"languages":["en"],"copyright":false,"media_type":"Text","formats":{"text/html":"https://www.gutenberg.org/ebooks/4882.html.images","application/epub+zip":"https://www.gutenberg.org/ebooks/4882.epub3.images","application/x-mobipocket-ebook":"https://www.gutenberg.org/ebooks/4882.kf8.images","text/plain; charset=us-ascii":"https://www.gutenberg.org/ebooks/4882.txt.utf-8","application/rdf+xml":"https://www.gutenberg.org/ebooks/4882.rdf","image/jpeg":"https://www.gutenberg.org/cache/epub/4882/pg4882.cover.medium.jpg","application/octet-stream":"https://www.gutenberg.org/cache/epub/4882/pg4882-h.zip"},"download_count":9},{"id":5490,"title":"The Emperor — Volume 08","authors":[{"name":"Ebers, Georg","birth_year":1837,"death_year":1898}],"translators":[{"name":"Bell, Clara","birth_year":1834,"death_year":1927}],"subjects":["Egypt -- History -- 30 B.C.-640 A.D. -- Fiction","German fiction -- Translations into English","Hadrian, Emperor of Rome, 76-138 -- Fiction"],"bookshelves":[],"languages":["en"],"copyright":false,"media_type":"Text","formats":{"text/html":"https://www.gutenberg.org/ebooks/5490.html.images","application/epub+zip":"https://www.gutenberg.org/ebooks/5490.epub3.images","application/x-mobipocket-ebook":"https://www.gutenberg.org/ebooks/5490.kf8.images","text/plain; charset=us-ascii":"https://www.gutenberg.org/ebooks/5490.txt.utf-8","application/rdf+xml":"https://www.gutenberg.org/ebooks/5490.rdf","image/jpeg":"https://www.gutenberg.org/cache/epub/5490/pg5490.cover.medium.jpg","application/octet-stream":"https://www.gutenberg.org/cache/epub/5490/pg5490-h.zip"},"download_count":9},{"id":5545,"title":"In the Fire of the Forge: A Romance of Old Nuremberg — Volume 03","authors":[{"name":"Ebers, Georg","birth_year":1837,"death_year":1898}],"translators":[{"name":"Safford, Mary J.","birth_year":null,"death_year":null}],"subjects":["German fiction -- Translations into English","Nuremberg (Germany) -- Fiction"],"bookshelves":[],"languages":["en"],"copyright":false,"media_type":"Text","formats":{"text/html":"https://www.gutenberg.org/ebooks/5545.html.images","application/epub+zip":"https://www.gutenberg.org/ebooks/5545.epub3.images","application/x-mobipocket-ebook":"https://www.gutenberg.org/ebooks/5545.kf8.images","text/plain; charset=us-ascii":"https://www.gutenberg.org/ebooks/5545.txt.utf-8","application/rdf+xml":"https://www.gutenberg.org/ebooks/5545.rdf","image/jpeg":"https://www.gutenberg.org/cache/epub/5545/pg5545.cover.medium.jpg","application/octet-stream":"https://www.gutenberg.org/cache/epub/5545/pg5545-h.zip"},"download_count":9},{"id":5597,"title":"The Story of My Life — Volume 05","authors":[{"name":"Ebers, Georg","birth_year":1837,"death_year":1898}],"translators":[{"name":"Safford, Mary J.","birth_year":null,"death_year":null}],"subjects":["Ebers, Georg, 1837-1898"],"bookshelves":[],"languages":["en"],"copyright":false,"media_type":"Text","formats":{"text/html":"https://www.gutenberg.org/ebooks/5597.html.images","application/epub+zip":"https://www.gutenberg.org/ebooks/5597.epub3.images","application/x-mobipocket-ebook":"https://www.gutenberg.org/ebooks/5597.kf8.images","text/plain; charset=us-ascii":"https://www.gutenberg.org/ebooks/5597.txt.utf-8","application/rdf+xml":"https://www.gutenberg.org/ebooks/5597.rdf","image/jpeg":"https://www.gutenberg.org/cache/epub/5597/pg5597.cover.medium.jpg","application/octet-stream":"https://www.gutenberg.org/cache/epub/5597/pg5597-h.zip"},"download_count":9},{"id":5847,"title":"The Heart of Rome: A Tale of the \"Lost Water\"","authors":[{"name":"Crawford, F. Marion (Francis Marion)","birth_year":1854,"death_year":1909}],"translators":[],"subjects":["Rome (Italy) -- Fiction"],"bookshelves":[],"languages":["en"],"copyright":false,"media_type":"Text","formats":{"text/html":"https://www.gutenberg.org/ebooks/5847.html.images","application/epub+zip":"https://www.gutenberg.org/ebooks/5847.epub3.images","application/x-mobipocket-ebook":"https://www.gutenberg.org/ebooks/5847.kf8.images","text/plain; charset=us-ascii":"https://www.gutenberg.org/ebooks/5847.txt.utf-8","application/rdf+xml":"https://www.gutenberg.org/ebooks/5847.rdf","image/jpeg":"https://www.gutenberg.org/cache/epub/5847/pg5847.cover.medium.jpg","application/octet-stream":"https://www.gutenberg.org/cache/epub/5847/pg5847-h.zip"},"download_count":9},{"id":6175,"title":"Pierre and His People: Tales of the Far North. Volume 2.","authors":[{"name":"Parker, Gilbert","birth_year":1862,"death_year":1932}],"translators":[],"subjects":["Canada, Northern -- Fiction","Short stories, Canadian"],"bookshelves":[],"languages":["en"],"copyright":false,"media_type":"Text","formats":{"text/html":"https://www.gutenberg.org/ebooks/6175.html.images","application/epub+zip":"https://www.gutenberg.org/ebooks/6175.epub3.images","application/x-mobipocket-ebook":"https://www.gutenberg.org/ebooks/6175.kf8.images","text/plain; charset=us-ascii":"https://www.gutenberg.org/ebooks/6175.txt.utf-8","application/rdf+xml":"https://www.gutenberg.org/ebooks/6175.rdf","image/jpeg":"https://www.gutenberg.org/cache/epub/6175/pg6175.cover.medium.jpg","application/octet-stream":"https://www.gutenberg.org/cache/epub/6175/pg6175-h.zip"},"download_count":9}]}