{"count":58808,"next":"http://129.241.150.113:8000/books/?languages=en&page=925","previous":"http://129.241.150.113:8000/books/?languages=en&page=923","results":[{"id":8080,"title":"A Passionate Pilgrim","authors":[{"name":"James, Henry","birth_year":1843,"death_year":1916}],"translators":[],"subjects":["Americans -- England -- Fiction"],"bookshelves":[],"languages":["en"],"copyright":false,"media_type":"Text","formats":{"text/html":"https://www.gutenberg.org/ebooks/8080.html.images","application/epub+zip":"https://www.gutenberg.org/ebooks/8080.epub3.images","application/x-mobipocket-ebook":"https://www.gutenberg.org/ebooks/8080.kf8.images","text/plain; charset=us-ascii":"https://www.gutenberg.org/ebooks/8080.txt.utf-8","application/rdf+xml":"https://www.gutenberg.org/ebooks/8080.rdf","image/jpeg":"https://www.gutenberg.org/cache/epub/8080/pg8080.cover.medium.jpg","application/octet-stream":"https://www.gutenberg.org/files/8080/8080-0.zip"},"download_count":38},{"id":8140,"title":"Lectures of Col. R. G. Ingersoll, Volume I: Including His Answers to the Clergy, His Oration at His Brother's Grave, Etc., Etc.","authors":[{"name":"Ingersoll, Robert Green","birth_year":1833,"death_year":1899}],"translators":[],"subjects":["Free thought"],"bookshelves":[],"languages":["en"],"copyright":false,"media_type":"Text","formats":{"text/html":"https://www.gutenberg.org/ebooks/8140.html.images","text/html; charset=iso-8859-1":"https://www.gutenberg.org/files/8140/8140-h/8140-h.htm","application/epub+zip":"https://www.gutenberg.org/ebooks/8140.epub3.images","application/x-mobipocket-ebook":"https://www.gutenberg.org/ebooks/8140.kf8.images","text/plain; charset=us-ascii":"https://www.gutenberg.org/ebooks/8140.txt.utf-8","application/rdf+xml":"https://www.gutenberg.org/ebooks/8140.rdf","image/jpeg":"https://www.gutenberg.org/cache/epub/8140/pg8140.cover.medium.jpg","application/octet-stream":"https://www.gutenberg.org/cache/epub/8140/pg8140-h.zip"},"download_count":38},{"id":8155,"title":"Colonel Thorndyke's Secret","authors":[{"name":"Henty, G. A. (George Alfred)","birth_year":1832,"death_year":1902}],"translators":[],"subjects":["Detective and mystery stories","Hindus -- England -- Fiction","India -- Social life and customs -- Fiction"],"bookshelves":["Children's Fiction"],"languages":["en"],"copyright":false,"media_type":"Text","formats":{"text/html":"https://www.gutenberg.org/ebooks/8155.html.images","text/html; charset=utf-8":"https://www.gutenberg.org/files/8155/8155-h/8155-h.htm","application/epub+zip":"https://www.gutenberg.org/ebooks/8155.epub3.images","application/x-mobipocket-ebook":"https://www.gutenberg.org/ebooks/8155.kf8.images","text/plain; charset=us-ascii":"https://www.gutenberg.org/ebooks/8155.txt.utf-8","text/plain; charset=utf-8":"https://www.gutenberg.org/files/8155/8155-0.txt","application/rdf+xml":"https://www.gutenberg.org/ebooks/8155.rdf","image/jpeg":"https://www.gutenberg.org/cache/epub/8155/pg8155.cover.medium.jpg","application/octet-stream":"https://www.gutenberg.org/cache/epub/8155/pg8155-h.zip"},"download_count":38},{"id":8165,"title":"The Geste of Duke Jocelyn","authors":[{"name":"Farnol, Jeffery","birth_year":1878,"death_year":1952}],"translators":[],"subjects":["Adventure stories","Knights and knighthood -- Fiction","Love stories"],"bookshelves":[],"languages":["en"],"copyright":false,"media_type":"Text","formats":{"text/html":"https://www.gutenberg.org/ebooks/8165.html.images","text/html; charset=utf-8":"https://www.gutenberg.org/files/8165/8165-h/8165-h.htm","application/epub+zip":"https://www.gutenberg.org/ebooks/8165.epub3.images","application/x-mobipocket-ebook":"https://www.gutenberg.org/ebooks/8165.kf8.images","text/plain; charset=us-ascii":"https://www.gutenberg.org/ebooks/8165.txt.utf-8","text/plain; charset=utf-8":"https://www.gutenberg.org/files/8165/8165-0.txt","text/plain; charset=iso-8859-1":"https://www.gutenberg.org/files/8165/8165-8.txt","application/rdf+xml":"https://www.gutenberg.org/ebooks/8165.rdf","image/jpeg":"https://www.gutenberg.org/cache/epub/8165/pg8165.cover.medium.jpg","application/octet-stream":"https://www.gutenberg.org/cache/epub/8165/pg8165-h.zip"},"download_count":38},{"id":8440,"title":"Men in War","authors":[{"name":"Latzko, Andreas","birth_year":1876,"death_year":1943}],"translators":[],"subjects":["War stories, German -- Translations into English","World War, 1914-1918 -- Fiction"],"bookshelves":["World War I"],"languages":["en"],"copyright":false,"media_type":"Text","formats":{"text/html":"https://www.gutenberg.org/ebooks/8440.html.images","text/html; charset=iso-8859-1":"https://www.gutenberg.org/files/8440/8440-h/8440-h.htm","application/epub+zip":"https://www.gutenberg.org/ebooks/8440.epub3.images","application/x-mobipocket-ebook":"https://www.gutenberg.org/ebooks/8440.kf8.images","text/plain; charset=us-ascii":"https://www.gutenberg.org/ebooks/8440.txt.utf-8","text/plain; charset=iso-8859-1":"https://www.gutenberg.org/files/8440/8440-8.txt","application/rdf+xml":"https://www.gutenberg.org/ebooks/8440.rdf","image/jpeg":"https://www.gutenberg.org/cache/epub/8440/pg8440.cover.medium.jpg","application/octet-stream":"https://www.gutenberg.org/cache/epub/8440/pg8440-h.zip"},"download_count":38},{"id":8645,"title":"Prue and I","authors":[{"name":"Curtis, George William","birth_year":1824,"death_year":1892}],"translators":[],"subjects":["Biographical fiction, American"],"bookshelves":[],"languages":["en"],"copyright":false,"media_type":"Text","formats":{"text/html":"https://www.gutenberg.org/ebooks/8645.html.images","text/html; charset=utf-8":"https://www.gutenberg.org/files/8645/8645-h/8645-h.htm","application/epub+zip":"https://www.gutenberg.org/ebooks/8645.epub3.images","application/x-mobipocket-ebook":"https://www.gutenberg.org/ebooks/8645.kf8.images","text/plain; charset=us-ascii":"https://www.gutenberg.org/ebooks/8645.txt.utf-8","text/plain; charset=iso-8859-1":"https://www.gutenberg.org/files/8645/8645-8.txt","application/rdf+xml":"https://www.gutenberg.org/ebooks/8645.rdf","image/jpeg":"https://www.gutenberg.org/cache/epub/8645/pg8645.cover.medium.jpg","application/octet-stream":"https://www.gutenberg.org/cache/epub/8645/pg8645-h.zip"},"download_count":38},{"id":8790,"title":"The Divine Comedy by Dante, Illustrated, Purgatory, Volume 1","authors":[{"name":"Dante Alighieri","birth_year":1265,"death_year":1321}],"translators":[{"name":"Cary, Henry Francis","birth_year":1772,"death_year":1844}],"subjects":["Epic poetry, Italian -- Translations into English","Italian poetry -- To 1400 -- Translations into English"],"bookshelves":[],"languages":["en"],"copyright":false,"media_type":"Text","formats":{"text/html":"https://www.gutenberg.org/ebooks/8790.html.images","text/html; charset=iso-8859-1":"https://www.gutenberg.org/files/8790/8790-h/8790-h.htm","application/epub+zip":"https://www.gutenberg.org/ebooks/8790.epub3.images","application/x-mobipocket-ebook":"https://www.gutenberg.org/ebooks/8790.kf8.images","text/plain; charset=us-ascii":"https://www.gutenberg.org/ebooks/8790.txt.utf-8","application/rdf+xml":"https://www.gutenberg.org/ebooks/8790.rdf","image/jpeg":"https://www.gutenberg.org/cache/epub/8790/pg8790.cover.medium.jpg","application/octet-stream":"https://www.gutenberg.org/cache/epub/8790/pg8790-h.zip"},"download_count":38},{"id":8793,"title":"The Divine Comedy by Dante, Illustrated, Purgatory, Volume 4","authors":[{"name":"Dante Alighieri","birth_year":1265,"death_year":1321}],"translators":[{"name":"Cary, Henry Francis","birth_year":1772,"death_year":1844}],"subjects":["Epic poetry, Italian -- Translations into English","Italian poetry -- To 1400 -- Translations into English"],"bookshelves":[],"languages":["en"],"copyright":false,"media_type":"Text","formats":{"text/html":"https://www.gutenberg.org/ebooks/8793.html.images","text/html; charset=iso-8859-1":"https://www.gutenberg.org/files/8793/8793-h/8793-h.htm","application/epub+zip":"https://www.gutenberg.org/ebooks/8793.epub3.images","application/x-mobipocket-ebook":"https://www.gutenberg.org/ebooks/8793.kf8.images","text/plain; charset=us-ascii":"https://www.gutenberg.org/ebooks/8793.txt.utf-8","application/rdf+xml":"https://www.gutenberg.org/ebooks/8793.rdf","image/jpeg":"https://www.gutenberg.org/cache/epub/8793/pg8793.cover.medium.jpg","application/octet-stream":"https://www.gutenberg.org/cache/epub/8793/pg8793-h.zip"},"download_count":38},{"id":8825,"title":"The Life and Letters of Maria Edgeworth, Volume 1","authors":[{"name":"Edgeworth, Maria","birth_year":1767,"death_year":1849}],"translators":[],"subjects":["Edgeworth, Maria, 1768-1849","Novelists, Irish -- 19th century -- Biography"],"bookshelves":[],"languages":["en"],"copyright":false,"media_type":"Text","formats":{"text/html":"https://www.gutenberg.org/ebooks/8825.html.images","application/epub+zip":"https://www.gutenberg.org/ebooks/8825.epub3.images","application/x-mobipocket-ebook":"https://www.gutenberg.org/ebooks/8825.kf8.images","text/plain; charset=us-ascii":"https://www.gutenberg.org/ebooks/8825.txt.utf-8","text/plain; charset=iso-8859-1":"https://www.gutenberg.org/files/8825/8825-8.txt","application/rdf+xml":"https://www.gutenberg.org/ebooks/8825.rdf","image/jpeg":"https://www.gutenberg.org/cache/epub/8825/pg8825.cover.medium.jpg","application/octet-stream":"https://www.gutenberg.org/cache/epub/8825/pg8825-h.zip"},"download_count":38},{"id":9035,"title":"The Tragedy of Pudd'nhead Wilson","authors":[{"name":"Twain, Mark","birth_year":1835,"death_year":1910}],"translators":[],"subjects":["Impostors and imposture -- Fiction","Infants switched at birth -- Fiction","Legal stories","Missouri -- Fiction","Passing (Identity) -- Fiction","Race relations -- Fiction","Trials (Murder) -- Fiction"],"bookshelves":[],"languages":["en"],"copyright":true,"media_type":"Sound","formats":{"text/plain; charset=us-ascii":"https://www.gutenberg.org/files/9035/9035-readme.txt","text/html; charset=iso-8859-1":"https://www.gutenberg.org/files/9035/9035-index.htm","audio/mpeg":"https://www.gutenberg.org/files/9035/mp3/9035-000.mp3","application/rdf+xml":"https://www.gutenberg.org/ebooks/9035.rdf","application/octet-stream":"https://www.gutenberg.org/files/9035/9035-mp3.zip"},"download_count":38},{"id":9101,"title":"Domestic Cookery, Useful Receipts, and Hints to Young Housekeepers","authors":[{"name":"Lea, Elizabeth E. (Elizabeth Ellicott)","birth_year":1793,"death_year":1858}],"translators":[],"subjects":["Cooking, American","Formulas, recipes, etc."],"bookshelves":["Cookbooks and Cooking"],"languages":["en"],"copyright":false,"media_type":"Text","formats":{"text/html":"https://www.gutenberg.org/ebooks/9101.html.images","text/html; charset=us-ascii":"https://www.gutenberg.org/files/9101/9101-h/9101-h.htm","application/epub+zip":"https://www.gutenberg.org/ebooks/9101.epub3.images","application/x-mobipocket-ebook":"https://www.gutenberg.org/ebooks/9101.kf8.images","text/plain; charset=us-ascii":"https://www.gutenberg.org/ebooks/9101.txt.utf-8","application/rdf+xml":"https://www.gutenberg.org/ebooks/9101.rdf","image/jpeg":"https://www.gutenberg.org/cache/epub/9101/pg9101.cover.medium.jpg","application/octet-stream":"https://www.gutenberg.org/cache/epub/9101/pg9101-h.zip"},"download_count":38},{"id":9236,"title":"Main Street: (From: \"The Snow Image and Other Twice-Told Tales\")","authors":[{"name":"Hawthorne, Nathaniel","birth_year":1804,"death_year":1864}],"translators":[],"subjects":["Historical fiction, American","New England -- Social life and customs -- Fiction","Short stories"],"bookshelves":[],"languages":["en"],"copyright":false,"media_type":"Text","formats":{"text/html":"https://www.gutenberg.org/ebooks/9236.html.images","application/epub+zip":"https://www.gutenberg.org/ebooks/9236.epub3.images","application/x-mobipocket-ebook":"https://www.gutenberg.org/ebooks/9236.kf8.images","text/plain; charset=us-ascii":"https://www.gutenberg.org/ebooks/9236.txt.utf-8","application/rdf+xml":"https://www.gutenberg.org/ebooks/9236.rdf","image/jpeg":"https://www.gutenberg.org/cache/epub/9236/pg9236.cover.medium.jpg","application/octet-stream":"https://www.gutenberg.org/files/9236/9236-0.zip"},"download_count":38},{"id":9244,"title":"Little Daffydowndilly: (From: \"The Snow Image and Other Twice-Told Tales\")","authors":[{"name":"Hawthorne, Nathaniel","birth_year":1804,"death_year":1864}],"translators":[],"subjects":["Historical fiction, American","New England -- Social life and customs -- Fiction","Short stories"],"bookshelves":[],"languages":["en"],"copyright":false,"media_type":"Text","formats":{"text/html":"https://www.gutenberg.org/ebooks/9244.html.images","application/epub+zip":"https://www.gutenberg.org/ebooks/9244.epub3.images","application/x-mobipocket-ebook":"https://www.gutenberg.org/ebooks/9244.kf8.images","text/plain; charset=us-ascii":"https://www.gutenberg.org/ebooks/9244.txt.utf-8","application/rdf+xml":"https://www.gutenberg.org/ebooks/9244.rdf","image/jpeg":"https://www.gutenberg.org/cache/epub/9244/pg9244.cover.medium.jpg","application/octet-stream":"https://www.gutenberg.org/files/9244/9244-0.zip"},"download_count":38},{"id":9272,"title":"Gulliver's Travels","authors":[{"name":"Swift, Jonathan","birth_year":1667,"death_year":1745}],"translators":[],"subjects":["Fantasy fiction","Gulliver, Lemuel (Fictitious character) -- Fiction","Satire","Travelers -- Fiction","Voyages, Imaginary -- Early works to 1800"],"bookshelves":[],"languages":["en"],"copyright":true,"media_type":"Sound","formats":{"text/plain; charset=us-ascii":"https://www.gutenberg.org/files/9272/9272-readme.txt","text/html; charset=iso-8859-1":"https://www.gutenberg.org/files/9272/9272-index.htm","audio/mpeg":"https://www.gutenberg.org/files/9272/mp3/9272-000.mp3","application/rdf+xml":"https://www.gutenberg.org/ebooks/9272.rdf","application/octet-stream":"https://www.gutenberg.org/files/9272/9272-mp3.zip"},"download_count":38},{"id":9360,"title":"Within the Tides","authors":[{"name":"Conrad, Joseph","birth_year":1857,"death_year":1924}],"translators":[],"subjects":["Short stories, English"],"bookshelves":[],"languages":["en"],"copyright":true,"media_type":"Sound","formats":{"text/plain; charset=us-ascii":"https://www.gutenberg.org/files/9360/9360-readme.txt","text/html; charset=iso-8859-1":"https://www.gutenberg.org/files/9360/9360-index.htm","audio/mpeg":"https://www.gutenberg.org/files/9360/mp3/9360-000.mp3","application/rdf+xml":"https://www.gutenberg.org/ebooks/9360.rdf","application/octet-stream":"https://www.gutenberg.org/files/9360/9360-mp3.zip"},"download_count":38},{"id":9378,"title":"The Lone Wolf: A Melodrama","authors":[{"name":"Vance, Louis Joseph","birth_year":1879,"death_year":1933}],"translators":[],"subjects":["Jewel thieves -- Fiction"],"bookshelves":[],"languages":["en"],"copyright":false,"media_type":"Text","formats":{"text/html":"https://www.gutenberg.org/ebooks/9378.html.images","application/epub+zip":"https://www.gutenberg.org/ebooks/9378.epub3.images","application/x-mobipocket-ebook":"https://www.gutenberg.org/ebooks/9378.kf8.images","text/plain; charset=us-ascii":"https://www.gutenberg.org/ebooks/9378.txt.utf-8","text/plain; charset=iso-8859-1":"https://www.gutenberg.org/files/9378/9378-8.txt","application/rdf+xml":"https://www.gutenberg.org/ebooks/9378.rdf","image/jpeg":"https://www.gutenberg.org/cache/epub/9378/pg9378.cover.medium.jpg","application/octet-stream":"https://www.gutenberg.org/cache/epub/9378/pg9378-h.zip"},"download_count":38},{"id":9471,"title":"The Vicar's Daughter","authors":[{"name":"MacDonald, George","birth_year":1824,"death_year":1905}],"translators":[],"subjects":["Children of clergy -- Fiction","Christian fiction","Fathers and daughters -- Fiction","Scotland -- Fiction"],"bookshelves":[],"languages":["en"],"copyright":false,"media_type":"Text","formats":{"text/html":"https://www.gutenberg.org/ebooks/9471.html.images","application/epub+zip":"https://www.gutenberg.org/ebooks/9471.epub3.images","application/x-mobipocket-ebook":"https://www.gutenberg.org/ebooks/9471.kf8.images","text/plain; charset=us-ascii":"https://www.gutenberg.org/ebooks/9471.txt.utf-8","application/rdf+xml":"https://www.gutenberg.org/ebooks/9471.rdf","image/jpeg":"https://www.gutenberg.org/cache/epub/9471/pg9471.cover.medium.jpg","application/octet-stream":"https://www.gutenberg.org/files/9471/9471-8.zip"},"download_count":38},{"id":9606,"title":"A Little Book of Western Verse","authors":[{"name":"Field, Eugene","birth_year":1850,"death_year":1895}],"translators":[],"subjects":["Poetry"],"bookshelves":["Poetry"],"languages":["en"],"copyright":false,"media_type":"Text","formats":{"text/html":"https://www.gutenberg.org/ebooks/9606.html.images","application/epub+zip":"https://www.gutenberg.org/ebooks/9606.epub3.images","application/x-mobipocket-ebook":"https://www.gutenberg.org/ebooks/9606.kf8.images","text/plain; charset=us-ascii":"https://www.gutenberg.org/ebooks/9606.txt.utf-8","text/plain; charset=iso-8859-1":"https://www.gutenberg.org/files/9606/9606-8.txt","application/rdf+xml":"https://www.gutenberg.org/ebooks/9606.rdf","image/jpeg":"https://www.gutenberg.org/cache/epub/9606/pg9606.cover.medium.jpg","application/octet-stream":"https://www.gutenberg.org/cache/epub/9606/pg9606-h.zip"},"download_count":38},{"id":9651,"title":"A Child-World","authors":[{"name":"Riley, James Whitcomb","birth_year":1849,"death_year":1916}],"translators":[],"subjects":["Children -- Conduct of life -- Juvenile poetry","Children's poetry","Conduct of life -- Juvenile poetry","Storytelling -- Juvenile poetry"],"bookshelves":[],"languages":["en"],"copyright":false,"media_type":"Text","formats":{"text/html":"https://www.gutenberg.org/ebooks/9651.html.images","application/epub+zip":"https://www.gutenberg.org/ebooks/9651.epub3.images","application/x-mobipocket-ebook":"https://www.gutenberg.org/ebooks/9651.kf8.images","text/plain; charset=us-ascii":"https://www.gutenberg.org/ebooks/9651.txt.utf-8","text/plain; charset=iso-8859-1":"https://www.gutenberg.org/files/9651/9651-8.txt","application/rdf+xml":"https://www.gutenberg.org/ebooks/9651.rdf","image/jpeg":"https://www.gutenberg.org/cache/epub/9651/pg9651.cover.medium.jpg","application/octet-stream":"https://www.gutenberg.org/files/9651/9651-h.zip"},"download_count":38},{"id":9808,"title":"The Loudwater Mystery","authors":[{"name":"Jepson, Edgar","birth_year":1863,"death_year":1938}],"translators":[],"subjects":["Detective and mystery stories"],"bookshelves":[],"languages":["en"],"copyright":false,"media_type":"Text","formats":{"text/html":"https://www.gutenberg.org/ebooks/9808.html.images","application/epub+zip":"https://www.gutenberg.org/ebooks/9808.epub3.images","application/x-mobipocket-ebook":"https://www.gutenberg.org/ebooks/9808.kf8.images","text/plain; charset=us-ascii":"https://www.gutenberg.org/ebooks/9808.txt.utf-8","text/plain; charset=iso-8859-1":"https://www.gutenberg.org/files/9808/9808-8.txt","application/rdf+xml":"https://www.gutenberg.org/ebooks/9808.rdf","image/jpeg":"https://www.gutenberg.org/cache/epub/9808/pg9808.cover.medium.jpg","application/octet-stream":"https://www.gutenberg.org/cache/epub/9808/pg9808-h.zip"},"download_count":38},{"id":9812,"title":"I Spy","authors":[{"name":"Lincoln, Natalie Sumner","birth_year":1881,"death_year":1935}],"translators":[],"subjects":["Spy stories","Washington (D.C.) -- Fiction","World War, 1914-1918 -- Fiction"],"bookshelves":[],"languages":["en"],"copyright":false,"media_type":"Text","formats":{"text/html":"https://www.gutenberg.org/ebooks/9812.html.images","application/epub+zip":"https://www.gutenberg.org/ebooks/9812.epub3.images","application/x-mobipocket-ebook":"https://www.gutenberg.org/ebooks/9812.kf8.images","text/plain; charset=us-ascii":"https://www.gutenberg.org/ebooks/9812.txt.utf-8","text/plain; charset=iso-8859-1":"https://www.gutenberg.org/files/9812/9812-8.txt","application/rdf+xml":"https://www.gutenberg.org/ebooks/9812.rdf","image/jpeg":"https://www.gutenberg.org/cache/epub/9812/pg9812.cover.medium.jpg","application/octet-stream":"https://www.gutenberg.org/cache/epub/9812/pg9812-h.zip"},"download_count":38},{"id":9917,"title":"Your Child: Today and Tomorrow: Some Problems for Parents Concerning Punishment, Reasoning, Lies, Ideals and Ambitions, Fear, Work and Play, Imagination, Social Activities, Obedience, Adolescence, Will, Heredity","authors":[{"name":"Gruenberg, Sidonie Matsner","birth_year":1881,"death_year":1974}],"translators":[],"subjects":["Children"],"bookshelves":[],"languages":["en"],"copyright":false,"media_type":"Text","formats":{"text/html":"https://www.gutenberg.org/ebooks/9917.html.images","application/epub+zip":"https://www.gutenberg.org/ebooks/9917.epub3.images","application/x-mobipocket-ebook":"https://www.gutenberg.org/ebooks/9917.kf8.images","text/plain; charset=us-ascii":"https://www.gutenberg.org/ebooks/9917.txt.utf-8","text/plain; charset=iso-8859-1":"https://www.gutenberg.org/files/9917/9917-8.txt","application/rdf+xml":"https://www.gutenberg.org/ebooks/9917.rdf","image/jpeg":"https://www.gutenberg.org/cache/epub/9917/pg9917.cover.medium.jpg","application/octet-stream":"https://www.gutenberg.org/cache/epub/9917/pg9917-h.zip"},"download_count":38},{"id":10123,"title":"Aunt Jane's Nieces","authors":[{"name":"Baum, L. Frank (Lyman Frank)","birth_year":1856,"death_year":1919}],"translators":[],"subjects":["Aunts -- Juvenile fiction","Cousins -- Juvenile fiction","Families -- Economic aspects -- Juvenile fiction","Family -- Juvenile fiction","Inheritance and succession -- Juvenile fiction","Young women -- Juvenile fiction"],"bookshelves":[],"languages":["en"],"copyright":false,"media_type":"Text","formats":{"text/html":"https://www.gutenberg.org/ebooks/10123.html.images","application/epub+zip":"https://www.gutenberg.org/ebooks/10123.epub3.images","application/x-mobipocket-ebook":"https://www.gutenberg.org/ebooks/10123.kf8.images","text/plain; charset=us-ascii":"https://www.gutenberg.org/ebooks/10123.txt.utf-8","application/rdf+xml":"https://www.gutenberg.org/ebooks/10123.rdf","image/jpeg":"https://www.gutenberg.org/cache/epub/10123/pg10123.cover.medium.jpg","application/octet-stream":"https://www.gutenberg.org/cache/epub/10123/pg10123-h.zip"},"download_count":38},{"id":10194,"title":"Opera Reel with Calls","authors":[],"translators":[],"subjects":["Old-time music","Reels (Music)"],"bookshelves":[],"languages":["en"],"copyright":false,"media_type":"Sound","formats":{"text/plain; charset=us-ascii":"https://www.gutenberg.org/files/10194/10194-m/10194-m-readme.txt","audio/mpeg":"https://www.gutenberg.org/files/10194/10194-m/10194-m-001.mp3","application/rdf+xml":"https://www.gutenberg.org/ebooks/10194.rdf"},"download_count":38},{"id":10212,"title":"Peck's Bad Boy with the Circus","authors":[{"name":"Peck, George W. (George Wilbur)","birth_year":1840,"death_year":1916}],"translators":[],"subjects":["Boys -- Juvenile fiction","Circus -- Juvenile fiction"],"bookshelves":["Children's Book Series"],"languages":["en"],"copyright":false,"media_type":"Text","formats":{"text/html":"https://www.gutenberg.org/ebooks/10212.html.images","text/html; charset=us-ascii":"https://www.gutenberg.org/files/10212/10212-h/10212-h.htm","application/epub+zip":"https://www.gutenberg.org/ebooks/10212.epub3.images","application/x-mobipocket-ebook":"https://www.gutenberg.org/ebooks/10212.kf8.images","text/plain; charset=us-ascii":"https://www.gutenberg.org/ebooks/10212.txt.utf-8","application/rdf+xml":"https://www.gutenberg.org/ebooks/10212.rdf","image/jpeg":"https://www.gutenberg.org/cache/epub/10212/pg10212.cover.medium.jpg","application/octet-stream":"https://www.gutenberg.org/cache/epub/10212/pg10212-h.zip"},"download_count":38},{"id":10281,"title":"Antony's Address over the Body of Caesar: From Julius Caesar","authors":[{"name":"Shakespeare, William","birth_year":1564,"death_year":1616}],"translators":[],"subjects":["Shakespeare, William, 1564-1616. Julius Caesar. Selections"],"bookshelves":[],"languages":["en"],"copyright":false,"media_type":"Sound","formats":{"text/plain; charset=us-ascii":"https://www.gutenberg.org/files/10281/10281-m/10281-m-readme.txt","audio/mpeg":"https://www.gutenberg.org/files/10281/10281-m/10281-m-001.mp3","application/rdf+xml":"https://www.gutenberg.org/ebooks/10281.rdf"},"download_count":38},{"id":10300,"title":"Snyder, Does Your Mother Know You're Out?","authors":[],"translators":[],"subjects":["Songs with piano","Yodels"],"bookshelves":[],"languages":["en"],"copyright":false,"media_type":"Sound","formats":{"text/plain; charset=us-ascii":"https://www.gutenberg.org/files/10300/10300-m/10300-m-readme.txt","audio/mpeg":"https://www.gutenberg.org/files/10300/10300-m/10300-m-001.mp3","application/rdf+xml":"https://www.gutenberg.org/ebooks/10300.rdf"},"download_count":38},{"id":10350,"title":"The Works of Samuel Johnson, LL.D. in Eleven Volumes, Volume 06: Reviews, Political Tracts, and Lives of Eminent Persons","authors":[{"name":"Johnson, Samuel","birth_year":1709,"death_year":1784}],"translators":[],"subjects":["English essays -- 18th century"],"bookshelves":[],"languages":["en"],"copyright":false,"media_type":"Text","formats":{"text/html":"https://www.gutenberg.org/ebooks/10350.html.images","text/html; charset=iso-8859-1":"https://www.gutenberg.org/files/10350/10350-h/10350-h.htm","application/epub+zip":"https://www.gutenberg.org/ebooks/10350.epub3.images","application/x-mobipocket-ebook":"https://www.gutenberg.org/ebooks/10350.kf8.images","text/plain; charset=us-ascii":"https://www.gutenberg.org/ebooks/10350.txt.utf-8","text/plain; charset=iso-8859-1":"https://www.gutenberg.org/files/10350/10350-8.txt","application/rdf+xml":"https://www.gutenberg.org/ebooks/10350.rdf","image/jpeg":"https://www.gutenberg.org/cache/epub/10350/pg10350.cover.medium.jpg","application/octet-stream":"https://www.gutenberg.org/cache/epub/10350/pg10350-h.zip"},"download_count":38},{"id":10391,"title":"The Wolf's Long Howl","authors":[{"name":"Waterloo, Stanley","birth_year":1846,"death_year":1913}],"translators":[],"subjects":["Science fiction","Short stories"],"bookshelves":[],"languages":["en"],"copyright":false,"media_type":"Text","formats":{"text/html":"https://www.gutenberg.org/ebooks/10391.html.images","text/html; charset=iso-8859-1":"https://www.gutenberg.org/files/10391/10391-h/10391-h.htm","application/epub+zip":"https://www.gutenberg.org/ebooks/10391.epub3.images","application/x-mobipocket-ebook":"https://www.gutenberg.org/ebooks/10391.kf8.images","text/plain; charset=us-ascii":"https://www.gutenberg.org/ebooks/10391.txt.utf-8","text/plain; charset=iso-8859-1":"https://www.gutenberg.org/files/10391/10391-8.txt","application/rdf+xml":"https://www.gutenberg.org/ebooks/10391.rdf","image/jpeg":"https://www.gutenberg.org/cache/epub/10391/pg10391.cover.medium.jpg","application/octet-stream":"https://www.gutenberg.org/cache/epub/10391/pg10391-h.zip"},"download_count":38},{"id":10411,"title":"By the Sapphire Sea","authors":[],"translators":[],"subjects":["Love songs","Ocean -- Songs and music","Popular music -- 1921-1930","Sea songs"],"bookshelves":[],"languages":["en"],"copyright":false,"media_type":"Sound","formats":{"text/plain; charset=us-ascii":"https://www.gutenberg.org/files/10411/10411-m/10411-m-readme.txt","text/plain":"https://www.gutenberg.org/files/10411/10411-m.zip","audio/mpeg":"https://www.gutenberg.org/files/10411/10411-m/10411-m-001.mp3","application/rdf+xml":"https://www.gutenberg.org/ebooks/10411.rdf"},"download_count":38},{"id":10496,"title":"Red Masquerade: Being the Story of the Lone Wolf's Daughter","authors":[{"name":"Vance, Louis Joseph","birth_year":1879,"death_year":1933}],"translators":[],"subjects":["Jewel thieves -- Fiction"],"bookshelves":[],"languages":["en"],"copyright":false,"media_type":"Text","formats":{"application/rdf+xml":"https://www.gutenberg.org/ebooks/10496.rdf","text/html":"https://www.gutenberg.org/ebooks/10496.html.images","application/epub+zip":"https://www.gutenberg.org/ebooks/10496.epub3.images","application/x-mobipocket-ebook":"https://www.gutenberg.org/ebooks/10496.kf8.images","text/plain; charset=us-ascii":"https://www.gutenberg.org/ebooks/10496.txt.utf-8","image/jpeg":"https://www.gutenberg.org/cache/epub/10496/pg10496.cover.medium.jpg","application/octet-stream":"https://www.gutenberg.org/files/10496/10496-0.zip"},"download_count":38},{"id":10649,"title":"Beacon Lights of History, Volume 14: The New Era: A Supplementary Volume, by Recent Writers, as Set Forth in the Preface and Table of Contents","authors":[{"name":"Lord, John","birth_year":1810,"death_year":1894}],"translators":[],"subjects":["History"],"bookshelves":["Children's History"],"languages":["en"],"copyright":false,"media_type":"Text","formats":{"text/html":"https://www.gutenberg.org/ebooks/10649.html.images","text/html; charset=iso-8859-1":"https://www.gutenberg.org/files/10649/10649-h/10649-h.htm","application/epub+zip":"https://www.gutenberg.org/ebooks/10649.epub3.images","application/x-mobipocket-ebook":"https://www.gutenberg.org/ebooks/10649.kf8.images","text/plain; charset=us-ascii":"https://www.gutenberg.org/ebooks/10649.txt.utf-8","text/plain; charset=iso-8859-1":"https://www.gutenberg.org/files/10649/10649-8.txt","application/rdf+xml":"https://www.gutenberg.org/ebooks/10649.rdf","image/jpeg":"https://www.gutenberg.org/cache/epub/10649/pg10649.cover.medium.jpg","application/octet-stream":"https://www.gutenberg.org/cache/epub/10649/pg10649-h.zip"},"download_count":38}]}