{"count":58808,"next":"http://129.241.150.113:8000/books/?languages=en&page=1710","previous":"http://129.241.150.113:8000/books/?languages=en&page=1708","results":[{"id":8623,"title":"The Adventures of Gerard","authors":[{"name":"Doyle, Arthur Conan","birth_year":1859,"death_year":1930}],"translators":[],"subjects":["Adventure stories, English","France -- History, Military -- 19th century -- Fiction","Napoleonic Wars, 1800-1815 -- Fiction","War stories, English"],"bookshelves":["Historical Fiction"],"languages":["en"],"copyright":true,"media_type":"Sound","formats":{"text/plain; charset=us-ascii":"https://www.gutenberg.org/files/8623/8623-readme.txt","text/html; charset=iso-8859-1":"https://www.gutenberg.org/files/8623/8623-index.htm","audio/mpeg":"https://www.gutenberg.org/files/8623/mp3/8623-000.mp3","application/rdf+xml":"https://www.gutenberg.org/ebooks/8623.rdf","application/octet-stream":"https://www.gutenberg.org/files/8623/8623-mp3.zip"},"download_count":17},{"id":8636,"title":"Songs of Action","authors":[{"name":"Doyle, Arthur Conan","birth_year":1859,"death_year":1930}],"translators":[],"subjects":["English poetry"],"bookshelves":[],"languages":["en"],"copyright":true,"media_type":"Sound","formats":{"text/plain; charset=us-ascii":"https://www.gutenberg.org/files/8636/8636-readme.txt","text/html; charset=iso-8859-1":"https://www.gutenberg.org/files/8636/8636-index.htm","audio/mpeg":"https://www.gutenberg.org/files/8636/mp3/8636-000.mp3","application/rdf+xml":"https://www.gutenberg.org/ebooks/8636.rdf","application/octet-stream":"https://www.gutenberg.org/files/8636/8636-mp3.zip"},"download_count":17},{"id":8706,"title":"The Doré Bible Gallery, Volume 6","authors":[],"translators":[],"subjects":["Bible -- Illustrations"],"bookshelves":[],"languages":["en"],"copyright":false,"media_type":"Text","formats":{"text/html":"https://www.gutenberg.org/ebooks/8706.html.images","text/html; charset=iso-8859-1":"https://www.gutenberg.org/files/8706/8706-h/8706-h.htm","application/epub+zip":"https://www.gutenberg.org/ebooks/8706.epub3.images","application/x-mobipocket-ebook":"https://www.gutenberg.org/ebooks/8706.kf8.images","text/plain; charset=us-ascii":"https://www.gutenberg.org/ebooks/8706.txt.utf-8","application/rdf+xml":"https://www.gutenberg.org/ebooks/8706.rdf","image/jpeg":"https://www.gutenberg.org/cache/epub/8706/pg8706.cover.medium.jpg","application/octet-stream":"https://www.gutenberg.org/cache/epub/8706/pg8706-h.zip"},"download_count":17},{"id":8723,"title":"The Three Cities Trilogy: Rome, Volume 3","authors":[{"name":"Zola, Émile","birth_year":1840,"death_year":1902}],"translators":[{"name":"Vizetelly, Ernest Alfred","birth_year":1853,"death_year":1922}],"subjects":["Catholics -- Fiction","Christian pilgrims and pilgrimages -- Fiction","Clergy -- Fiction","Rome (Italy) -- Fiction"],"bookshelves":[],"languages":["en"],"copyright":false,"media_type":"Text","formats":{"text/html":"https://www.gutenberg.org/ebooks/8723.html.images","application/epub+zip":"https://www.gutenberg.org/ebooks/8723.epub3.images","application/x-mobipocket-ebook":"https://www.gutenberg.org/ebooks/8723.kf8.images","text/plain; charset=us-ascii":"https://www.gutenberg.org/ebooks/8723.txt.utf-8","application/rdf+xml":"https://www.gutenberg.org/ebooks/8723.rdf","image/jpeg":"https://www.gutenberg.org/cache/epub/8723/pg8723.cover.medium.jpg","application/octet-stream":"https://www.gutenberg.org/cache/epub/8723/pg8723-h.zip"},"download_count":17},{"id":8818,"title":"The Last Days of Pompeii","authors":[{"name":"Lytton, Edward Bulwer Lytton, Baron","birth_year":1803,"death_year":1873}],"translators":[],"subjects":["Historical fiction","Pompeii (Extinct city) -- Fiction"],"bookshelves":["Historical Fiction"],"languages":["en"],"copyright":true,"media_type":"Sound","formats":{"text/plain; charset=us-ascii":"https://www.gutenberg.org/files/8818/8818-readme.txt","text/html; charset=iso-8859-1":"https://www.gutenberg.org/files/8818/8818-index.htm","audio/mpeg":"https://www.gutenberg.org/files/8818/mp3/8818-000.mp3","application/rdf+xml":"https://www.gutenberg.org/ebooks/8818.rdf","application/octet-stream":"https://www.gutenberg.org/files/8818/8818-mp3.zip"},"download_count":17},{"id":8839,"title":"Weymouth New Testament in Modern Speech, Colossians","authors":[{"name":"Weymouth, Richard Francis","birth_year":1822,"death_year":1902}],"translators":[],"subjects":["Bible. Colossians"],"bookshelves":[],"languages":["en"],"copyright":false,"media_type":"Text","formats":{"text/html":"https://www.gutenberg.org/ebooks/8839.html.images","application/epub+zip":"https://www.gutenberg.org/ebooks/8839.epub3.images","application/x-mobipocket-ebook":"https://www.gutenberg.org/ebooks/8839.kf8.images","text/plain; charset=us-ascii":"https://www.gutenberg.org/ebooks/8839.txt.utf-8","application/rdf+xml":"https://www.gutenberg.org/ebooks/8839.rdf","image/jpeg":"https://www.gutenberg.org/cache/epub/8839/pg8839.cover.medium.jpg","application/octet-stream":"https://www.gutenberg.org/cache/epub/8839/pg8839-h.zip"},"download_count":17},{"id":8853,"title":"Weymouth New Testament in Modern Speech, Jude","authors":[{"name":"Weymouth, Richard Francis","birth_year":1822,"death_year":1902}],"translators":[],"subjects":["Bible. Jude"],"bookshelves":[],"languages":["en"],"copyright":false,"media_type":"Text","formats":{"text/html":"https://www.gutenberg.org/ebooks/8853.html.images","application/epub+zip":"https://www.gutenberg.org/ebooks/8853.epub3.images","application/x-mobipocket-ebook":"https://www.gutenberg.org/ebooks/8853.kf8.images","text/plain; charset=us-ascii":"https://www.gutenberg.org/ebooks/8853.txt.utf-8","application/rdf+xml":"https://www.gutenberg.org/ebooks/8853.rdf","image/jpeg":"https://www.gutenberg.org/cache/epub/8853/pg8853.cover.medium.jpg","application/octet-stream":"https://www.gutenberg.org/cache/epub/8853/pg8853-h.zip"},"download_count":17},{"id":8856,"title":"The Secrets of the Great City: A Work Descriptive of the Virtues and the Vices, the Mysteries, Miseries and Crimes of New York City","authors":[{"name":"McCabe, James Dabney","birth_year":1842,"death_year":1883}],"translators":[],"subjects":["New York (N.Y.) -- Description and travel","New York (N.Y.) -- History"],"bookshelves":[],"languages":["en"],"copyright":false,"media_type":"Text","formats":{"text/html":"https://www.gutenberg.org/ebooks/8856.html.images","application/epub+zip":"https://www.gutenberg.org/ebooks/8856.epub3.images","application/x-mobipocket-ebook":"https://www.gutenberg.org/ebooks/8856.kf8.images","text/plain; charset=us-ascii":"https://www.gutenberg.org/ebooks/8856.txt.utf-8","text/plain; charset=iso-8859-1":"https://www.gutenberg.org/files/8856/8856-8.txt","application/rdf+xml":"https://www.gutenberg.org/ebooks/8856.rdf","image/jpeg":"https://www.gutenberg.org/cache/epub/8856/pg8856.cover.medium.jpg","application/octet-stream":"https://www.gutenberg.org/cache/epub/8856/pg8856-h.zip"},"download_count":17},{"id":8962,"title":"The Four Million","authors":[{"name":"Henry, O.","birth_year":1862,"death_year":1910}],"translators":[],"subjects":["New York (N.Y.) -- Social life and customs -- Fiction"],"bookshelves":[],"languages":["en"],"copyright":true,"media_type":"Sound","formats":{"text/plain; charset=us-ascii":"https://www.gutenberg.org/files/8962/8962-readme.txt","text/html; charset=iso-8859-1":"https://www.gutenberg.org/files/8962/8962-index.htm","audio/mpeg":"https://www.gutenberg.org/files/8962/mp3/8962-000.mp3","application/rdf+xml":"https://www.gutenberg.org/ebooks/8962.rdf","application/octet-stream":"https://www.gutenberg.org/files/8962/8962-mp3.zip"},"download_count":17},{"id":9033,"title":"Sketches New and Old","authors":[{"name":"Twain, Mark","birth_year":1835,"death_year":1910}],"translators":[],"subjects":["Humorous stories, American","United States -- Social life and customs -- Fiction"],"bookshelves":[],"languages":["en"],"copyright":true,"media_type":"Sound","formats":{"text/plain; charset=us-ascii":"https://www.gutenberg.org/files/9033/9033-readme.txt","text/html; charset=iso-8859-1":"https://www.gutenberg.org/files/9033/9033-index.htm","audio/mpeg":"https://www.gutenberg.org/files/9033/mp3/9033-000.mp3","application/rdf+xml":"https://www.gutenberg.org/ebooks/9033.rdf","application/octet-stream":"https://www.gutenberg.org/files/9033/9033-mp3.zip"},"download_count":17},{"id":9034,"title":"The Stolen White Elephant","authors":[{"name":"Twain, Mark","birth_year":1835,"death_year":1910}],"translators":[],"subjects":["Detective and mystery stories","Short stories"],"bookshelves":[],"languages":["en"],"copyright":true,"media_type":"Sound","formats":{"text/plain; charset=us-ascii":"https://www.gutenberg.org/files/9034/9034-readme.txt","text/html; charset=iso-8859-1":"https://www.gutenberg.org/files/9034/9034-index.htm","audio/mpeg":"https://www.gutenberg.org/files/9034/mp3/9034-000.mp3","application/rdf+xml":"https://www.gutenberg.org/ebooks/9034.rdf","application/octet-stream":"https://www.gutenberg.org/files/9034/9034-mp3.zip"},"download_count":17},{"id":9167,"title":"The Three Cities Trilogy: Paris, Volume 4","authors":[{"name":"Zola, Émile","birth_year":1840,"death_year":1902}],"translators":[{"name":"Vizetelly, Ernest Alfred","birth_year":1853,"death_year":1922}],"subjects":["Catholics -- Fiction","Clergy -- Fiction","Man-woman relationships -- Fiction","Paris (France) -- Fiction"],"bookshelves":[],"languages":["en"],"copyright":false,"media_type":"Text","formats":{"text/html":"https://www.gutenberg.org/ebooks/9167.html.images","text/html; charset=iso-8859-1":"https://www.gutenberg.org/files/9167/9167-h/9167-h.htm","application/epub+zip":"https://www.gutenberg.org/ebooks/9167.epub3.images","application/x-mobipocket-ebook":"https://www.gutenberg.org/ebooks/9167.kf8.images","text/plain; charset=us-ascii":"https://www.gutenberg.org/ebooks/9167.txt.utf-8","application/rdf+xml":"https://www.gutenberg.org/ebooks/9167.rdf","image/jpeg":"https://www.gutenberg.org/cache/epub/9167/pg9167.cover.medium.jpg","application/octet-stream":"https://www.gutenberg.org/cache/epub/9167/pg9167-h.zip"},"download_count":17},{"id":9337,"title":"Amy Foster","authors":[{"name":"Conrad, Joseph","birth_year":1857,"death_year":1924}],"translators":[],"subjects":["Man-woman relationships -- Fiction"],"bookshelves":[],"languages":["en"],"copyright":true,"media_type":"Sound","formats":{"text/plain; charset=us-ascii":"https://www.gutenberg.org/files/9337/9337-readme.txt","text/html; charset=iso-8859-1":"https://www.gutenberg.org/files/9337/9337-index.htm","audio/mpeg":"https://www.gutenberg.org/files/9337/mp3/9337-000.mp3","application/rdf+xml":"https://www.gutenberg.org/ebooks/9337.rdf","application/octet-stream":"https://www.gutenberg.org/files/9337/9337-mp3.zip"},"download_count":17},{"id":9426,"title":"Moments of Vision","authors":[{"name":"Hardy, Thomas","birth_year":1840,"death_year":1928}],"translators":[],"subjects":["English poetry","World War, 1914-1918 -- Poetry"],"bookshelves":[],"languages":["en"],"copyright":true,"media_type":"Sound","formats":{"text/plain; charset=us-ascii":"https://www.gutenberg.org/files/9426/9426-readme.txt","text/html; charset=iso-8859-1":"https://www.gutenberg.org/files/9426/9426-index.htm","audio/mpeg":"https://www.gutenberg.org/files/9426/mp3/9426-000.mp3","application/rdf+xml":"https://www.gutenberg.org/ebooks/9426.rdf","application/octet-stream":"https://www.gutenberg.org/files/9426/9426-mp3.zip"},"download_count":17},{"id":9431,"title":"Romantic Adventures of a Milkmaid","authors":[{"name":"Hardy, Thomas","birth_year":1840,"death_year":1928}],"translators":[],"subjects":["Women agricultural laborers -- Fiction"],"bookshelves":[],"languages":["en"],"copyright":true,"media_type":"Sound","formats":{"text/plain; charset=us-ascii":"https://www.gutenberg.org/files/9431/9431-readme.txt","text/html; charset=iso-8859-1":"https://www.gutenberg.org/files/9431/9431-index.htm","audio/mpeg":"https://www.gutenberg.org/files/9431/mp3/9431-000.mp3","application/rdf+xml":"https://www.gutenberg.org/ebooks/9431.rdf","application/octet-stream":"https://www.gutenberg.org/files/9431/9431-mp3.zip"},"download_count":17},{"id":9481,"title":"Punchinello, Volume 1, No. 02, April 9, 1870","authors":[{"name":"Various","birth_year":null,"death_year":null}],"translators":[],"subjects":["American wit and humor -- Periodicals"],"bookshelves":["Punchinello"],"languages":["en"],"copyright":false,"media_type":"Text","formats":{"text/html":"https://www.gutenberg.org/ebooks/9481.html.images","text/html; charset=iso-8859-1":"https://www.gutenberg.org/files/9481/9481-h/9481-h.htm","application/epub+zip":"https://www.gutenberg.org/ebooks/9481.epub3.images","application/x-mobipocket-ebook":"https://www.gutenberg.org/ebooks/9481.kf8.images","text/plain; charset=us-ascii":"https://www.gutenberg.org/ebooks/9481.txt.utf-8","text/plain; charset=iso-8859-1":"https://www.gutenberg.org/files/9481/9481-8.txt","application/rdf+xml":"https://www.gutenberg.org/ebooks/9481.rdf","image/jpeg":"https://www.gutenberg.org/cache/epub/9481/pg9481.cover.medium.jpg","application/octet-stream":"https://www.gutenberg.org/cache/epub/9481/pg9481-h.zip"},"download_count":17},{"id":9510,"title":"The Lock and Key Library: The Most Interesting Stories of All Nations: American","authors":[],"translators":[],"subjects":["Detective and mystery stories","Short stories"],"bookshelves":[],"languages":["en"],"copyright":true,"media_type":"Sound","formats":{"text/plain; charset=us-ascii":"https://www.gutenberg.org/files/9510/9510-readme.txt","text/html; charset=iso-8859-1":"https://www.gutenberg.org/files/9510/9510-index.htm","audio/mpeg":"https://www.gutenberg.org/files/9510/mp3/9510-000.mp3","application/rdf+xml":"https://www.gutenberg.org/ebooks/9510.rdf","application/octet-stream":"https://www.gutenberg.org/files/9510/9510-mp3.zip"},"download_count":17},{"id":9573,"title":"Religious Poems, Part 2.: Part 6 From Volume II of The Works of John Greenleaf Whittier","authors":[{"name":"Whittier, John Greenleaf","birth_year":1807,"death_year":1892}],"translators":[],"subjects":["American poetry -- 19th century"],"bookshelves":[],"languages":["en"],"copyright":false,"media_type":"Text","formats":{"text/html":"https://www.gutenberg.org/ebooks/9573.html.images","application/epub+zip":"https://www.gutenberg.org/ebooks/9573.epub3.images","application/x-mobipocket-ebook":"https://www.gutenberg.org/ebooks/9573.kf8.images","text/plain; charset=us-ascii":"https://www.gutenberg.org/ebooks/9573.txt.utf-8","application/rdf+xml":"https://www.gutenberg.org/ebooks/9573.rdf","image/jpeg":"https://www.gutenberg.org/cache/epub/9573/pg9573.cover.medium.jpg","application/octet-stream":"https://www.gutenberg.org/cache/epub/9573/pg9573-h.zip"},"download_count":17},{"id":9583,"title":"Occasional Poems: Part 3 from Volume IV of The Works of John Greenleaf Whittier","authors":[{"name":"Whittier, John Greenleaf","birth_year":1807,"death_year":1892}],"translators":[],"subjects":["American poetry -- 19th century"],"bookshelves":[],"languages":["en"],"copyright":false,"media_type":"Text","formats":{"text/html":"https://www.gutenberg.org/ebooks/9583.html.images","application/epub+zip":"https://www.gutenberg.org/ebooks/9583.epub3.images","application/x-mobipocket-ebook":"https://www.gutenberg.org/ebooks/9583.kf8.images","text/plain; charset=us-ascii":"https://www.gutenberg.org/ebooks/9583.txt.utf-8","application/rdf+xml":"https://www.gutenberg.org/ebooks/9583.rdf","image/jpeg":"https://www.gutenberg.org/cache/epub/9583/pg9583.cover.medium.jpg","application/octet-stream":"https://www.gutenberg.org/cache/epub/9583/pg9583-h.zip"},"download_count":17},{"id":9584,"title":"The Tent on the Beach, and other poems: Part 4 from Volume IV of The Works of John Greenleaf Whittier","authors":[{"name":"Whittier, John Greenleaf","birth_year":1807,"death_year":1892}],"translators":[],"subjects":["American poetry -- 19th century"],"bookshelves":[],"languages":["en"],"copyright":false,"media_type":"Text","formats":{"text/html":"https://www.gutenberg.org/ebooks/9584.html.images","application/epub+zip":"https://www.gutenberg.org/ebooks/9584.epub3.images","application/x-mobipocket-ebook":"https://www.gutenberg.org/ebooks/9584.kf8.images","text/plain; charset=us-ascii":"https://www.gutenberg.org/ebooks/9584.txt.utf-8","application/rdf+xml":"https://www.gutenberg.org/ebooks/9584.rdf","image/jpeg":"https://www.gutenberg.org/cache/epub/9584/pg9584.cover.medium.jpg","application/octet-stream":"https://www.gutenberg.org/cache/epub/9584/pg9584-h.zip"},"download_count":17},{"id":9605,"title":"Chico: the Story of a Homing Pigeon","authors":[{"name":"Blanchard, Lucy Mansfield Blanchard","birth_year":1870,"death_year":null}],"translators":[],"subjects":["Birds -- Juvenile fiction","Homing pigeons -- War use -- Juvenile fiction","World War, 1914-1918 -- Italy -- Juvenile Fiction"],"bookshelves":[],"languages":["en"],"copyright":false,"media_type":"Text","formats":{"text/html":"https://www.gutenberg.org/ebooks/9605.html.images","application/epub+zip":"https://www.gutenberg.org/ebooks/9605.epub3.images","application/x-mobipocket-ebook":"https://www.gutenberg.org/ebooks/9605.kf8.images","text/plain; charset=us-ascii":"https://www.gutenberg.org/ebooks/9605.txt.utf-8","application/rdf+xml":"https://www.gutenberg.org/ebooks/9605.rdf","image/jpeg":"https://www.gutenberg.org/cache/epub/9605/pg9605.cover.medium.jpg","application/octet-stream":"https://www.gutenberg.org/cache/epub/9605/pg9605-h.zip"},"download_count":17},{"id":9698,"title":"Some Christmas Stories","authors":[{"name":"Dickens, Charles","birth_year":1812,"death_year":1870}],"translators":[],"subjects":["Christmas stories, English"],"bookshelves":[],"languages":["en"],"copyright":true,"media_type":"Sound","formats":{"text/plain; charset=us-ascii":"https://www.gutenberg.org/files/9698/9698-readme.txt","text/html; charset=iso-8859-1":"https://www.gutenberg.org/files/9698/9698-index.htm","audio/mpeg":"https://www.gutenberg.org/files/9698/mp3/9698-000.mp3","application/rdf+xml":"https://www.gutenberg.org/ebooks/9698.rdf","application/octet-stream":"https://www.gutenberg.org/files/9698/9698-mp3.zip"},"download_count":17},{"id":9758,"title":"Leila or, the Siege of Granada, Book III.","authors":[{"name":"Lytton, Edward Bulwer Lytton, Baron","birth_year":1803,"death_year":1873}],"translators":[],"subjects":["Granada (Spain) -- History -- Siege, 1491-1492 -- Fiction","Sieges -- Fiction"],"bookshelves":["Historical Fiction"],"languages":["en"],"copyright":false,"media_type":"Text","formats":{"text/html":"https://www.gutenberg.org/ebooks/9758.html.images","application/epub+zip":"https://www.gutenberg.org/ebooks/9758.epub3.images","application/x-mobipocket-ebook":"https://www.gutenberg.org/ebooks/9758.kf8.images","text/plain; charset=us-ascii":"https://www.gutenberg.org/ebooks/9758.txt.utf-8","application/rdf+xml":"https://www.gutenberg.org/ebooks/9758.rdf","image/jpeg":"https://www.gutenberg.org/cache/epub/9758/pg9758.cover.medium.jpg","application/octet-stream":"https://www.gutenberg.org/cache/epub/9758/pg9758-h.zip"},"download_count":17},{"id":10027,"title":"The Triple Alliance, Its Trials and Triumphs","authors":[{"name":"Avery, Harold","birth_year":1867,"death_year":1943}],"translators":[],"subjects":["Schools -- Juvenile fiction"],"bookshelves":["School Stories"],"languages":["en"],"copyright":false,"media_type":"Text","formats":{"text/html":"https://www.gutenberg.org/ebooks/10027.html.images","application/epub+zip":"https://www.gutenberg.org/ebooks/10027.epub3.images","application/x-mobipocket-ebook":"https://www.gutenberg.org/ebooks/10027.kf8.images","text/plain; charset=us-ascii":"https://www.gutenberg.org/ebooks/10027.txt.utf-8","application/rdf+xml":"https://www.gutenberg.org/ebooks/10027.rdf","image/jpeg":"https://www.gutenberg.org/cache/epub/10027/pg10027.cover.medium.jpg","application/octet-stream":"https://www.gutenberg.org/cache/epub/10027/pg10027-h.zip"},"download_count":17},{"id":10034,"title":"Punchinello, Volume 1, No. 26, September 24, 1870","authors":[{"name":"Various","birth_year":null,"death_year":null}],"translators":[],"subjects":["American wit and humor -- Periodicals"],"bookshelves":["Punchinello"],"languages":["en"],"copyright":false,"media_type":"Text","formats":{"text/html":"https://www.gutenberg.org/ebooks/10034.html.images","text/html; charset=iso-8859-1":"https://www.gutenberg.org/files/10034/10034-h/10034-h.htm","application/epub+zip":"https://www.gutenberg.org/ebooks/10034.epub3.images","application/x-mobipocket-ebook":"https://www.gutenberg.org/ebooks/10034.kf8.images","text/plain; charset=us-ascii":"https://www.gutenberg.org/ebooks/10034.txt.utf-8","text/plain; charset=iso-8859-1":"https://www.gutenberg.org/files/10034/10034-8.txt","application/rdf+xml":"https://www.gutenberg.org/ebooks/10034.rdf","image/jpeg":"https://www.gutenberg.org/cache/epub/10034/pg10034.cover.medium.jpg","application/octet-stream":"https://www.gutenberg.org/cache/epub/10034/pg10034-h.zip"},"download_count":17},{"id":10164,"title":"The Black Creek Stopping-House, and Other Stories","authors":[{"name":"McClung, Nellie L.","birth_year":1873,"death_year":1951}],"translators":[],"subjects":["Manitoba -- Fiction","Short stories, Canadian"],"bookshelves":[],"languages":["en"],"copyright":false,"media_type":"Text","formats":{"text/html":"https://www.gutenberg.org/ebooks/10164.html.images","application/epub+zip":"https://www.gutenberg.org/ebooks/10164.epub3.images","application/x-mobipocket-ebook":"https://www.gutenberg.org/ebooks/10164.kf8.images","text/plain; charset=us-ascii":"https://www.gutenberg.org/ebooks/10164.txt.utf-8","text/plain; charset=iso-8859-1":"https://www.gutenberg.org/files/10164/10164-8.txt","application/rdf+xml":"https://www.gutenberg.org/ebooks/10164.rdf","image/jpeg":"https://www.gutenberg.org/cache/epub/10164/pg10164.cover.medium.jpg","application/octet-stream":"https://www.gutenberg.org/cache/epub/10164/pg10164-h.zip"},"download_count":17},{"id":10222,"title":"The Pilgrims of New England: A Tale of the Early American Settlers","authors":[{"name":"Webb, J. B., Mrs. (Annie)","birth_year":1806,"death_year":1880}],"translators":[],"subjects":["Pilgrims (New Plymouth Colony) -- Fiction"],"bookshelves":["Children's History"],"languages":["en"],"copyright":false,"media_type":"Text","formats":{"text/html":"https://www.gutenberg.org/ebooks/10222.html.images","application/epub+zip":"https://www.gutenberg.org/ebooks/10222.epub3.images","application/x-mobipocket-ebook":"https://www.gutenberg.org/ebooks/10222.kf8.images","text/plain; charset=us-ascii":"https://www.gutenberg.org/ebooks/10222.txt.utf-8","text/plain; charset=iso-8859-1":"https://www.gutenberg.org/files/10222/10222-8.txt","application/rdf+xml":"https://www.gutenberg.org/ebooks/10222.rdf","image/jpeg":"https://www.gutenberg.org/cache/epub/10222/pg10222.cover.medium.jpg","application/octet-stream":"https://www.gutenberg.org/cache/epub/10222/pg10222-h.zip"},"download_count":17},{"id":10292,"title":"Punchinello, Volume 2, No. 36, December 3, 1870","authors":[{"name":"Various","birth_year":null,"death_year":null}],"translators":[],"subjects":["American wit and humor -- Periodicals"],"bookshelves":["Punchinello"],"languages":["en"],"copyright":false,"media_type":"Text","formats":{"text/html":"https://www.gutenberg.org/ebooks/10292.html.images","text/html; charset=iso-8859-1":"https://www.gutenberg.org/files/10292/10292-h/10292-h.htm","application/epub+zip":"https://www.gutenberg.org/ebooks/10292.epub3.images","application/x-mobipocket-ebook":"https://www.gutenberg.org/ebooks/10292.kf8.images","text/plain; charset=us-ascii":"https://www.gutenberg.org/ebooks/10292.txt.utf-8","text/plain; charset=iso-8859-1":"https://www.gutenberg.org/files/10292/10292-8.txt","application/rdf+xml":"https://www.gutenberg.org/ebooks/10292.rdf","image/jpeg":"https://www.gutenberg.org/cache/epub/10292/pg10292.cover.medium.jpg","application/octet-stream":"https://www.gutenberg.org/cache/epub/10292/pg10292-h.zip"},"download_count":17},{"id":10310,"title":"After Dinner Toast at Little Menlo","authors":[{"name":"Sullivan, Arthur","birth_year":1842,"death_year":1900}],"translators":[],"subjects":["Toasts"],"bookshelves":[],"languages":["en"],"copyright":false,"media_type":"Sound","formats":{"text/plain; charset=us-ascii":"https://www.gutenberg.org/files/10310/10310-m/10310-m-readme.txt","audio/mpeg":"https://www.gutenberg.org/files/10310/10310-m/10310-m-001.mp3","application/rdf+xml":"https://www.gutenberg.org/ebooks/10310.rdf"},"download_count":17},{"id":10320,"title":"Dotty Dimple at Play","authors":[{"name":"May, Sophie","birth_year":1833,"death_year":1906}],"translators":[],"subjects":["Children -- Conduct of life -- Juvenile fiction","Girls -- Juvenile fiction"],"bookshelves":["Children's Book Series"],"languages":["en"],"copyright":false,"media_type":"Text","formats":{"text/html":"https://www.gutenberg.org/ebooks/10320.html.images","application/epub+zip":"https://www.gutenberg.org/ebooks/10320.epub3.images","application/x-mobipocket-ebook":"https://www.gutenberg.org/ebooks/10320.kf8.images","text/plain; charset=us-ascii":"https://www.gutenberg.org/ebooks/10320.txt.utf-8","application/rdf+xml":"https://www.gutenberg.org/ebooks/10320.rdf","image/jpeg":"https://www.gutenberg.org/cache/epub/10320/pg10320.cover.medium.jpg","application/octet-stream":"https://www.gutenberg.org/cache/epub/10320/pg10320-h.zip"},"download_count":17},{"id":10331,"title":"The Mirror of Literature, Amusement, and Instruction. Volume 12, No. 324, July 26, 1828","authors":[{"name":"Various","birth_year":null,"death_year":null}],"translators":[],"subjects":["Popular literature -- Great Britain -- Periodicals"],"bookshelves":["The Mirror of Literature, Amusement, and Instruction"],"languages":["en"],"copyright":false,"media_type":"Text","formats":{"text/html":"https://www.gutenberg.org/ebooks/10331.html.images","application/epub+zip":"https://www.gutenberg.org/ebooks/10331.epub3.images","application/x-mobipocket-ebook":"https://www.gutenberg.org/ebooks/10331.kf8.images","text/plain; charset=us-ascii":"https://www.gutenberg.org/ebooks/10331.txt.utf-8","text/plain; charset=iso-8859-1":"https://www.gutenberg.org/files/10331/10331-8.txt","application/rdf+xml":"https://www.gutenberg.org/ebooks/10331.rdf","image/jpeg":"https://www.gutenberg.org/cache/epub/10331/pg10331.cover.medium.jpg","application/octet-stream":"https://www.gutenberg.org/cache/epub/10331/pg10331-h.zip"},"download_count":17},{"id":10382,"title":"Memoir of William Watts McNair, Late of \"Connaught House,\" Mussooree, of the Indian Survey Department, the First European Explorer of Kafiristan","authors":[{"name":"Howard, J. E.","birth_year":null,"death_year":null}],"translators":[],"subjects":["McNair, William Watts, 1849-1889","Nuristan (Afghanistan) -- Description and travel","Nuristani (Asian people)"],"bookshelves":[],"languages":["en"],"copyright":false,"media_type":"Text","formats":{"text/html":"https://www.gutenberg.org/ebooks/10382.html.images","application/epub+zip":"https://www.gutenberg.org/ebooks/10382.epub3.images","application/x-mobipocket-ebook":"https://www.gutenberg.org/ebooks/10382.kf8.images","text/plain; charset=us-ascii":"https://www.gutenberg.org/ebooks/10382.txt.utf-8","text/plain; charset=iso-8859-1":"https://www.gutenberg.org/files/10382/10382-8.txt","application/rdf+xml":"https://www.gutenberg.org/ebooks/10382.rdf","image/jpeg":"https://www.gutenberg.org/cache/epub/10382/pg10382.cover.medium.jpg","application/octet-stream":"https://www.gutenberg.org/cache/epub/10382/pg10382-h.zip"},"download_count":17}]}