{"count":58808,"next":"http://129.241.150.113:8000/books/?languages=en&page=1582","previous":"http://129.241.150.113:8000/books/?languages=en&page=1580","results":[{"id":6658,"title":"Owindia : a true tale of the MacKenzie River Indians, North-West America","authors":[{"name":"Bompas, Charlotte Selina","birth_year":1830,"death_year":1917}],"translators":[],"subjects":["Foundlings -- Fiction","Indians of North America -- Canada -- Fiction","Murder -- Fiction"],"bookshelves":["Native America"],"languages":["en"],"copyright":false,"media_type":"Text","formats":{"text/html":"https://www.gutenberg.org/ebooks/6658.html.images","text/html; charset=iso-8859-1":"https://www.gutenberg.org/files/6658/6658-h/6658-h.htm","application/epub+zip":"https://www.gutenberg.org/ebooks/6658.epub3.images","application/x-mobipocket-ebook":"https://www.gutenberg.org/ebooks/6658.kf8.images","text/plain; charset=us-ascii":"https://www.gutenberg.org/ebooks/6658.txt.utf-8","application/rdf+xml":"https://www.gutenberg.org/ebooks/6658.rdf","image/jpeg":"https://www.gutenberg.org/cache/epub/6658/pg6658.cover.medium.jpg","application/octet-stream":"https://www.gutenberg.org/cache/epub/6658/pg6658-h.zip"},"download_count":21},{"id":6676,"title":"Rosy","authors":[{"name":"Molesworth, Mrs.","birth_year":1839,"death_year":1921}],"translators":[],"subjects":["Family -- England -- Juvenile fiction","Girls -- Conduct of life -- Juvenile fiction","Jealousy -- Juvenile fiction","Siblings -- Juvenile fiction","Temper -- Juvenile fiction"],"bookshelves":[],"languages":["en"],"copyright":false,"media_type":"Text","formats":{"text/html":"https://www.gutenberg.org/ebooks/6676.html.images","application/epub+zip":"https://www.gutenberg.org/ebooks/6676.epub3.images","application/x-mobipocket-ebook":"https://www.gutenberg.org/ebooks/6676.kf8.images","text/plain; charset=us-ascii":"https://www.gutenberg.org/ebooks/6676.txt.utf-8","application/rdf+xml":"https://www.gutenberg.org/ebooks/6676.rdf","image/jpeg":"https://www.gutenberg.org/cache/epub/6676/pg6676.cover.medium.jpg","application/octet-stream":"https://www.gutenberg.org/files/6676/6676-0.zip"},"download_count":21},{"id":6733,"title":"Memoir of Father Vincent de Paul; religious of La Trappe","authors":[{"name":"Vincent de Paul, Father","birth_year":1768,"death_year":1853}],"translators":[],"subjects":["Catholic Church -- Missions -- Nova Scotia","Indians of North America -- Nova Scotia","Missionaries -- Nova Scotia -- Biography","Nova Scotia -- History","Trappists -- Nova Scotia -- History -- 19th century","Trappists -- United States -- History -- 19th century","Vincent de Paul, Father, 1768-1853"],"bookshelves":[],"languages":["en"],"copyright":false,"media_type":"Text","formats":{"text/html":"https://www.gutenberg.org/ebooks/6733.html.images","application/epub+zip":"https://www.gutenberg.org/ebooks/6733.epub3.images","application/x-mobipocket-ebook":"https://www.gutenberg.org/ebooks/6733.kf8.images","text/plain; charset=us-ascii":"https://www.gutenberg.org/ebooks/6733.txt.utf-8","application/rdf+xml":"https://www.gutenberg.org/ebooks/6733.rdf","image/jpeg":"https://www.gutenberg.org/cache/epub/6733/pg6733.cover.medium.jpg","application/octet-stream":"https://www.gutenberg.org/cache/epub/6733/pg6733-h.zip"},"download_count":21},{"id":6772,"title":"The Thirty Years War — Volume 03","authors":[{"name":"Schiller, Friedrich","birth_year":1759,"death_year":1805}],"translators":[],"subjects":["Thirty Years' War, 1618-1648"],"bookshelves":[],"languages":["en"],"copyright":false,"media_type":"Text","formats":{"text/html":"https://www.gutenberg.org/ebooks/6772.html.images","application/epub+zip":"https://www.gutenberg.org/ebooks/6772.epub3.images","application/x-mobipocket-ebook":"https://www.gutenberg.org/ebooks/6772.kf8.images","text/plain; charset=us-ascii":"https://www.gutenberg.org/ebooks/6772.txt.utf-8","application/rdf+xml":"https://www.gutenberg.org/ebooks/6772.rdf","image/jpeg":"https://www.gutenberg.org/cache/epub/6772/pg6772.cover.medium.jpg","application/octet-stream":"https://www.gutenberg.org/cache/epub/6772/pg6772-h.zip"},"download_count":21},{"id":6861,"title":"Vautrin: A Drama in Five Acts","authors":[{"name":"Balzac, Honoré de","birth_year":1799,"death_year":1850}],"translators":[],"subjects":["French drama -- 19th century -- Translations into English"],"bookshelves":[],"languages":["en"],"copyright":false,"media_type":"Text","formats":{"text/html":"https://www.gutenberg.org/ebooks/6861.html.images","application/epub+zip":"https://www.gutenberg.org/ebooks/6861.epub3.images","application/x-mobipocket-ebook":"https://www.gutenberg.org/ebooks/6861.kf8.images","text/plain; charset=us-ascii":"https://www.gutenberg.org/ebooks/6861.txt.utf-8","application/rdf+xml":"https://www.gutenberg.org/ebooks/6861.rdf","image/jpeg":"https://www.gutenberg.org/cache/epub/6861/pg6861.cover.medium.jpg","application/octet-stream":"https://www.gutenberg.org/cache/epub/6861/pg6861-h.zip"},"download_count":21},{"id":6884,"title":"Sleeping Fires: a Novel","authors":[{"name":"Atherton, Gertrude Franklin Horn","birth_year":1857,"death_year":1948}],"translators":[],"subjects":["Autobiographical fiction","Books and reading -- Fiction","Depression, Mental -- Fiction","Domestic fiction","Journalists -- Fiction","Married women -- Fiction","Psychological fiction","San Francisco (Calif.) -- Fiction","Triangles (Interpersonal relations) -- Fiction"],"bookshelves":[],"languages":["en"],"copyright":false,"media_type":"Text","formats":{"text/html":"https://www.gutenberg.org/ebooks/6884.html.images","application/epub+zip":"https://www.gutenberg.org/ebooks/6884.epub3.images","application/x-mobipocket-ebook":"https://www.gutenberg.org/ebooks/6884.kf8.images","text/plain; charset=us-ascii":"https://www.gutenberg.org/ebooks/6884.txt.utf-8","application/rdf+xml":"https://www.gutenberg.org/ebooks/6884.rdf","image/jpeg":"https://www.gutenberg.org/cache/epub/6884/pg6884.cover.medium.jpg","application/octet-stream":"https://www.gutenberg.org/cache/epub/6884/pg6884-h.zip"},"download_count":21},{"id":6974,"title":"Tomaso's Fortune and Other Stories","authors":[{"name":"Merriman, Henry Seton","birth_year":1862,"death_year":1903}],"translators":[],"subjects":["Fiction","Short stories"],"bookshelves":[],"languages":["en"],"copyright":false,"media_type":"Text","formats":{"text/html":"https://www.gutenberg.org/ebooks/6974.html.images","text/html; charset=utf-8":"https://www.gutenberg.org/files/6974/6974-h/6974-h.htm","application/epub+zip":"https://www.gutenberg.org/ebooks/6974.epub3.images","application/x-mobipocket-ebook":"https://www.gutenberg.org/ebooks/6974.kf8.images","text/plain; charset=us-ascii":"https://www.gutenberg.org/ebooks/6974.txt.utf-8","text/plain; charset=utf-8":"https://www.gutenberg.org/files/6974/6974-0.txt","application/rdf+xml":"https://www.gutenberg.org/ebooks/6974.rdf","image/jpeg":"https://www.gutenberg.org/cache/epub/6974/pg6974.cover.medium.jpg","application/octet-stream":"https://www.gutenberg.org/cache/epub/6974/pg6974-h.zip"},"download_count":21},{"id":7016,"title":"Adventures in the Land of Canaan","authors":[{"name":"Berry, R. L. (Robert Lee)","birth_year":1874,"death_year":1952}],"translators":[],"subjects":["Christian life"],"bookshelves":[],"languages":["en"],"copyright":false,"media_type":"Text","formats":{"text/html":"https://www.gutenberg.org/ebooks/7016.html.images","application/epub+zip":"https://www.gutenberg.org/ebooks/7016.epub3.images","application/x-mobipocket-ebook":"https://www.gutenberg.org/ebooks/7016.kf8.images","text/plain; charset=us-ascii":"https://www.gutenberg.org/ebooks/7016.txt.utf-8","application/rdf+xml":"https://www.gutenberg.org/ebooks/7016.rdf","image/jpeg":"https://www.gutenberg.org/cache/epub/7016/pg7016.cover.medium.jpg","application/octet-stream":"https://www.gutenberg.org/cache/epub/7016/pg7016-h.zip"},"download_count":21},{"id":7253,"title":"The Letter-Bag of Lady Elizabeth Spencer-Stanhope — Volume 1","authors":[],"translators":[],"subjects":["Great Britain -- Social life and customs -- 19th century","Spencer-Stanhope, Elizabeth Wilhelmina Coke, Lady, 1795-1873"],"bookshelves":[],"languages":["en"],"copyright":false,"media_type":"Text","formats":{"text/html":"https://www.gutenberg.org/ebooks/7253.html.images","application/epub+zip":"https://www.gutenberg.org/ebooks/7253.epub3.images","application/x-mobipocket-ebook":"https://www.gutenberg.org/ebooks/7253.kf8.images","text/plain; charset=us-ascii":"https://www.gutenberg.org/ebooks/7253.txt.utf-8","text/plain; charset=iso-8859-1":"https://www.gutenberg.org/files/7253/7253-8.txt","application/rdf+xml":"https://www.gutenberg.org/ebooks/7253.rdf","image/jpeg":"https://www.gutenberg.org/cache/epub/7253/pg7253.cover.medium.jpg","application/octet-stream":"https://www.gutenberg.org/cache/epub/7253/pg7253-h.zip"},"download_count":21},{"id":7348,"title":"The Jewel City","authors":[{"name":"Macomber, Ben","birth_year":1876,"death_year":null}],"translators":[],"subjects":["Panama-Pacific International Exposition (1915 : San Francisco, Calif.)"],"bookshelves":[],"languages":["en"],"copyright":false,"media_type":"Text","formats":{"text/html":"https://www.gutenberg.org/ebooks/7348.html.images","application/epub+zip":"https://www.gutenberg.org/ebooks/7348.epub3.images","application/x-mobipocket-ebook":"https://www.gutenberg.org/ebooks/7348.kf8.images","text/plain; charset=us-ascii":"https://www.gutenberg.org/ebooks/7348.txt.utf-8","application/rdf+xml":"https://www.gutenberg.org/ebooks/7348.rdf","image/jpeg":"https://www.gutenberg.org/cache/epub/7348/pg7348.cover.medium.jpg","application/octet-stream":"https://www.gutenberg.org/cache/epub/7348/pg7348-h.zip"},"download_count":21},{"id":7358,"title":"Brought Home","authors":[{"name":"Stretton, Hesba","birth_year":1832,"death_year":1911}],"translators":[],"subjects":["Temperance -- Fiction"],"bookshelves":[],"languages":["en"],"copyright":false,"media_type":"Text","formats":{"text/html":"https://www.gutenberg.org/ebooks/7358.html.images","text/html; charset=us-ascii":"https://www.gutenberg.org/files/7358/7358-h/7358-h.htm","application/epub+zip":"https://www.gutenberg.org/ebooks/7358.epub3.images","application/x-mobipocket-ebook":"https://www.gutenberg.org/ebooks/7358.kf8.images","text/plain; charset=us-ascii":"https://www.gutenberg.org/ebooks/7358.txt.utf-8","application/rdf+xml":"https://www.gutenberg.org/ebooks/7358.rdf","image/jpeg":"https://www.gutenberg.org/cache/epub/7358/pg7358.cover.medium.jpg","application/octet-stream":"https://www.gutenberg.org/cache/epub/7358/pg7358-h.zip"},"download_count":21},{"id":7388,"title":"The Poetical Works of Oliver Wendell Holmes — Volume 01: Earlier Poems (1830-1836)","authors":[{"name":"Holmes, Oliver Wendell","birth_year":1809,"death_year":1894}],"translators":[],"subjects":["American poetry"],"bookshelves":[],"languages":["en"],"copyright":false,"media_type":"Text","formats":{"text/html":"https://www.gutenberg.org/ebooks/7388.html.images","application/epub+zip":"https://www.gutenberg.org/ebooks/7388.epub3.images","application/x-mobipocket-ebook":"https://www.gutenberg.org/ebooks/7388.kf8.images","text/plain; charset=us-ascii":"https://www.gutenberg.org/ebooks/7388.txt.utf-8","application/rdf+xml":"https://www.gutenberg.org/ebooks/7388.rdf","image/jpeg":"https://www.gutenberg.org/cache/epub/7388/pg7388.cover.medium.jpg","application/octet-stream":"https://www.gutenberg.org/cache/epub/7388/pg7388-h.zip"},"download_count":21},{"id":7395,"title":"The Poetical Works of Oliver Wendell Holmes — Volume 08: Bunker Hill and Other Poems","authors":[{"name":"Holmes, Oliver Wendell","birth_year":1809,"death_year":1894}],"translators":[],"subjects":["American poetry"],"bookshelves":[],"languages":["en"],"copyright":false,"media_type":"Text","formats":{"text/html":"https://www.gutenberg.org/ebooks/7395.html.images","application/epub+zip":"https://www.gutenberg.org/ebooks/7395.epub3.images","application/x-mobipocket-ebook":"https://www.gutenberg.org/ebooks/7395.kf8.images","text/plain; charset=us-ascii":"https://www.gutenberg.org/ebooks/7395.txt.utf-8","application/rdf+xml":"https://www.gutenberg.org/ebooks/7395.rdf","image/jpeg":"https://www.gutenberg.org/cache/epub/7395/pg7395.cover.medium.jpg","application/octet-stream":"https://www.gutenberg.org/cache/epub/7395/pg7395-h.zip"},"download_count":21},{"id":7404,"title":"John James Audubon","authors":[{"name":"Burroughs, John","birth_year":1837,"death_year":1921}],"translators":[],"subjects":["Audubon, John James, 1785-1851","Naturalists -- Biography","Scientists -- Biography"],"bookshelves":[],"languages":["en"],"copyright":false,"media_type":"Text","formats":{"text/html":"https://www.gutenberg.org/ebooks/7404.html.images","text/html; charset=iso-8859-1":"https://www.gutenberg.org/files/7404/7404-h/7404-h.htm","application/epub+zip":"https://www.gutenberg.org/ebooks/7404.epub3.images","application/x-mobipocket-ebook":"https://www.gutenberg.org/ebooks/7404.kf8.images","text/plain; charset=us-ascii":"https://www.gutenberg.org/ebooks/7404.txt.utf-8","text/plain; charset=iso-8859-1":"https://www.gutenberg.org/files/7404/7404-8.txt","application/rdf+xml":"https://www.gutenberg.org/ebooks/7404.rdf","image/jpeg":"https://www.gutenberg.org/cache/epub/7404/pg7404.cover.medium.jpg","application/octet-stream":"https://www.gutenberg.org/cache/epub/7404/pg7404-h.zip"},"download_count":21},{"id":7429,"title":"Trials and Triumphs of Faith","authors":[{"name":"Cole, Mary","birth_year":1853,"death_year":1940}],"translators":[],"subjects":["Cole, Mary, 1853-1940","Faith"],"bookshelves":[],"languages":["en"],"copyright":false,"media_type":"Text","formats":{"text/html":"https://www.gutenberg.org/ebooks/7429.html.images","application/epub+zip":"https://www.gutenberg.org/ebooks/7429.epub3.images","application/x-mobipocket-ebook":"https://www.gutenberg.org/ebooks/7429.kf8.images","text/plain; charset=us-ascii":"https://www.gutenberg.org/ebooks/7429.txt.utf-8","application/rdf+xml":"https://www.gutenberg.org/ebooks/7429.rdf","image/jpeg":"https://www.gutenberg.org/cache/epub/7429/pg7429.cover.medium.jpg","application/octet-stream":"https://www.gutenberg.org/cache/epub/7429/pg7429-h.zip"},"download_count":21},{"id":7436,"title":"The Development of Religious Liberty in Connecticut","authors":[{"name":"Greene, M. Louise (Maria Louise)","birth_year":null,"death_year":null}],"translators":[],"subjects":["Connecticut -- Church history"],"bookshelves":[],"languages":["en"],"copyright":false,"media_type":"Text","formats":{"text/html":"https://www.gutenberg.org/ebooks/7436.html.images","application/epub+zip":"https://www.gutenberg.org/ebooks/7436.epub3.images","application/x-mobipocket-ebook":"https://www.gutenberg.org/ebooks/7436.kf8.images","text/plain; charset=us-ascii":"https://www.gutenberg.org/ebooks/7436.txt.utf-8","text/plain; charset=iso-8859-1":"https://www.gutenberg.org/files/7436/7436-8.txt","application/rdf+xml":"https://www.gutenberg.org/ebooks/7436.rdf","image/jpeg":"https://www.gutenberg.org/cache/epub/7436/pg7436.cover.medium.jpg","application/octet-stream":"https://www.gutenberg.org/cache/epub/7436/pg7436-h.zip"},"download_count":21},{"id":7651,"title":"Kenelm Chillingly — Volume 02","authors":[{"name":"Lytton, Edward Bulwer Lytton, Baron","birth_year":1803,"death_year":1873}],"translators":[],"subjects":["English fiction -- 19th century"],"bookshelves":[],"languages":["en"],"copyright":false,"media_type":"Text","formats":{"text/html":"https://www.gutenberg.org/ebooks/7651.html.images","application/epub+zip":"https://www.gutenberg.org/ebooks/7651.epub3.images","application/x-mobipocket-ebook":"https://www.gutenberg.org/ebooks/7651.kf8.images","text/plain; charset=us-ascii":"https://www.gutenberg.org/ebooks/7651.txt.utf-8","application/rdf+xml":"https://www.gutenberg.org/ebooks/7651.rdf","image/jpeg":"https://www.gutenberg.org/cache/epub/7651/pg7651.cover.medium.jpg","application/octet-stream":"https://www.gutenberg.org/cache/epub/7651/pg7651-h.zip"},"download_count":21},{"id":7652,"title":"Kenelm Chillingly — Volume 03","authors":[{"name":"Lytton, Edward Bulwer Lytton, Baron","birth_year":1803,"death_year":1873}],"translators":[],"subjects":["English fiction -- 19th century"],"bookshelves":[],"languages":["en"],"copyright":false,"media_type":"Text","formats":{"text/html":"https://www.gutenberg.org/ebooks/7652.html.images","application/epub+zip":"https://www.gutenberg.org/ebooks/7652.epub3.images","application/x-mobipocket-ebook":"https://www.gutenberg.org/ebooks/7652.kf8.images","text/plain; charset=us-ascii":"https://www.gutenberg.org/ebooks/7652.txt.utf-8","application/rdf+xml":"https://www.gutenberg.org/ebooks/7652.rdf","image/jpeg":"https://www.gutenberg.org/cache/epub/7652/pg7652.cover.medium.jpg","application/octet-stream":"https://www.gutenberg.org/cache/epub/7652/pg7652-h.zip"},"download_count":21},{"id":7655,"title":"Kenelm Chillingly — Volume 06","authors":[{"name":"Lytton, Edward Bulwer Lytton, Baron","birth_year":1803,"death_year":1873}],"translators":[],"subjects":["English fiction -- 19th century"],"bookshelves":[],"languages":["en"],"copyright":false,"media_type":"Text","formats":{"text/html":"https://www.gutenberg.org/ebooks/7655.html.images","application/epub+zip":"https://www.gutenberg.org/ebooks/7655.epub3.images","application/x-mobipocket-ebook":"https://www.gutenberg.org/ebooks/7655.kf8.images","text/plain; charset=us-ascii":"https://www.gutenberg.org/ebooks/7655.txt.utf-8","application/rdf+xml":"https://www.gutenberg.org/ebooks/7655.rdf","image/jpeg":"https://www.gutenberg.org/cache/epub/7655/pg7655.cover.medium.jpg","application/octet-stream":"https://www.gutenberg.org/cache/epub/7655/pg7655-h.zip"},"download_count":21},{"id":7656,"title":"Kenelm Chillingly — Volume 07","authors":[{"name":"Lytton, Edward Bulwer Lytton, Baron","birth_year":1803,"death_year":1873}],"translators":[],"subjects":["English fiction -- 19th century"],"bookshelves":[],"languages":["en"],"copyright":false,"media_type":"Text","formats":{"text/html":"https://www.gutenberg.org/ebooks/7656.html.images","application/epub+zip":"https://www.gutenberg.org/ebooks/7656.epub3.images","application/x-mobipocket-ebook":"https://www.gutenberg.org/ebooks/7656.kf8.images","text/plain; charset=us-ascii":"https://www.gutenberg.org/ebooks/7656.txt.utf-8","application/rdf+xml":"https://www.gutenberg.org/ebooks/7656.rdf","image/jpeg":"https://www.gutenberg.org/cache/epub/7656/pg7656.cover.medium.jpg","application/octet-stream":"https://www.gutenberg.org/cache/epub/7656/pg7656-h.zip"},"download_count":21},{"id":7675,"title":"Harold : the Last of the Saxon Kings — Volume 04","authors":[{"name":"Lytton, Edward Bulwer Lytton, Baron","birth_year":1803,"death_year":1873}],"translators":[],"subjects":["Anglo-Saxons -- Kings and rulers -- Fiction","Biographical fiction","Great Britain -- History -- Edward, the Confessor, 1042-1066 -- Fiction","Great Britain -- Kings and rulers -- Fiction","Harold, King of England, 1022?-1066 -- Fiction","William I, King of England, 1027 or 8-1087 -- Fiction"],"bookshelves":["Historical Fiction"],"languages":["en"],"copyright":false,"media_type":"Text","formats":{"text/html":"https://www.gutenberg.org/ebooks/7675.html.images","application/epub+zip":"https://www.gutenberg.org/ebooks/7675.epub3.images","application/x-mobipocket-ebook":"https://www.gutenberg.org/ebooks/7675.kf8.images","text/plain; charset=us-ascii":"https://www.gutenberg.org/ebooks/7675.txt.utf-8","application/rdf+xml":"https://www.gutenberg.org/ebooks/7675.rdf","image/jpeg":"https://www.gutenberg.org/cache/epub/7675/pg7675.cover.medium.jpg","application/octet-stream":"https://www.gutenberg.org/cache/epub/7675/pg7675-h.zip"},"download_count":21},{"id":7703,"title":"\"My Novel\" — Volume 02","authors":[{"name":"Lytton, Edward Bulwer Lytton, Baron","birth_year":1803,"death_year":1873}],"translators":[],"subjects":["Death -- Fiction","Domestic fiction","England -- Fiction","Germany -- Fiction","Inventors -- Fiction","Poets -- Fiction","Rhine River -- Fiction"],"bookshelves":[],"languages":["en"],"copyright":false,"media_type":"Text","formats":{"text/html":"https://www.gutenberg.org/ebooks/7703.html.images","application/epub+zip":"https://www.gutenberg.org/ebooks/7703.epub3.images","application/x-mobipocket-ebook":"https://www.gutenberg.org/ebooks/7703.kf8.images","text/plain; charset=us-ascii":"https://www.gutenberg.org/ebooks/7703.txt.utf-8","application/rdf+xml":"https://www.gutenberg.org/ebooks/7703.rdf","image/jpeg":"https://www.gutenberg.org/cache/epub/7703/pg7703.cover.medium.jpg","application/octet-stream":"https://www.gutenberg.org/cache/epub/7703/pg7703-h.zip"},"download_count":21},{"id":7742,"title":"The Parisians — Volume 06","authors":[{"name":"Lytton, Edward Bulwer Lytton, Baron","birth_year":1803,"death_year":1873}],"translators":[],"subjects":["English fiction -- 19th century","Paris (France) -- Social life and customs -- 19th century -- Fiction"],"bookshelves":["Historical Fiction"],"languages":["en"],"copyright":false,"media_type":"Text","formats":{"text/html":"https://www.gutenberg.org/ebooks/7742.html.images","application/epub+zip":"https://www.gutenberg.org/ebooks/7742.epub3.images","application/x-mobipocket-ebook":"https://www.gutenberg.org/ebooks/7742.kf8.images","text/plain; charset=us-ascii":"https://www.gutenberg.org/ebooks/7742.txt.utf-8","application/rdf+xml":"https://www.gutenberg.org/ebooks/7742.rdf","image/jpeg":"https://www.gutenberg.org/cache/epub/7742/pg7742.cover.medium.jpg","application/octet-stream":"https://www.gutenberg.org/files/7742/7742.zip"},"download_count":21},{"id":8027,"title":"The Bible, King James version, Book 27: Daniel","authors":[{"name":"Anonymous","birth_year":null,"death_year":null}],"translators":[],"subjects":["Bible. Daniel"],"bookshelves":["Judaism"],"languages":["en"],"copyright":false,"media_type":"Text","formats":{"text/html":"https://www.gutenberg.org/ebooks/8027.html.images","application/epub+zip":"https://www.gutenberg.org/ebooks/8027.epub3.images","application/x-mobipocket-ebook":"https://www.gutenberg.org/ebooks/8027.kf8.images","text/plain; charset=us-ascii":"https://www.gutenberg.org/ebooks/8027.txt.utf-8","application/rdf+xml":"https://www.gutenberg.org/ebooks/8027.rdf","image/jpeg":"https://www.gutenberg.org/cache/epub/8027/pg8027.cover.medium.jpg","application/octet-stream":"https://www.gutenberg.org/cache/epub/8027/pg8027-h.zip"},"download_count":21},{"id":8032,"title":"The Bible, King James version, Book 32: Jonah","authors":[{"name":"Anonymous","birth_year":null,"death_year":null}],"translators":[],"subjects":["Bible. Jonah"],"bookshelves":["Judaism"],"languages":["en"],"copyright":false,"media_type":"Text","formats":{"text/html":"https://www.gutenberg.org/ebooks/8032.html.images","application/epub+zip":"https://www.gutenberg.org/ebooks/8032.epub3.images","application/x-mobipocket-ebook":"https://www.gutenberg.org/ebooks/8032.kf8.images","text/plain; charset=us-ascii":"https://www.gutenberg.org/ebooks/8032.txt.utf-8","application/rdf+xml":"https://www.gutenberg.org/ebooks/8032.rdf","image/jpeg":"https://www.gutenberg.org/cache/epub/8032/pg8032.cover.medium.jpg","application/octet-stream":"https://www.gutenberg.org/cache/epub/8032/pg8032-h.zip"},"download_count":21},{"id":8036,"title":"The Bible, King James version, Book 36: Zephaniah","authors":[{"name":"Anonymous","birth_year":null,"death_year":null}],"translators":[],"subjects":["Bible. Zephaniah"],"bookshelves":["Judaism"],"languages":["en"],"copyright":false,"media_type":"Text","formats":{"text/html":"https://www.gutenberg.org/ebooks/8036.html.images","application/epub+zip":"https://www.gutenberg.org/ebooks/8036.epub3.images","application/x-mobipocket-ebook":"https://www.gutenberg.org/ebooks/8036.kf8.images","text/plain; charset=us-ascii":"https://www.gutenberg.org/ebooks/8036.txt.utf-8","application/rdf+xml":"https://www.gutenberg.org/ebooks/8036.rdf","image/jpeg":"https://www.gutenberg.org/cache/epub/8036/pg8036.cover.medium.jpg","application/octet-stream":"https://www.gutenberg.org/cache/epub/8036/pg8036-h.zip"},"download_count":21},{"id":8044,"title":"The Bible, King James version, Book 44: Acts","authors":[{"name":"Anonymous","birth_year":null,"death_year":null}],"translators":[],"subjects":["Bible. Acts"],"bookshelves":["Harvard Classics"],"languages":["en"],"copyright":false,"media_type":"Text","formats":{"text/html":"https://www.gutenberg.org/ebooks/8044.html.images","application/epub+zip":"https://www.gutenberg.org/ebooks/8044.epub3.images","application/x-mobipocket-ebook":"https://www.gutenberg.org/ebooks/8044.kf8.images","text/plain; charset=us-ascii":"https://www.gutenberg.org/ebooks/8044.txt.utf-8","application/rdf+xml":"https://www.gutenberg.org/ebooks/8044.rdf","image/jpeg":"https://www.gutenberg.org/cache/epub/8044/pg8044.cover.medium.jpg","application/octet-stream":"https://www.gutenberg.org/cache/epub/8044/pg8044-h.zip"},"download_count":21},{"id":8222,"title":"Early Letters of George Wm. Curtis to John S. Dwight; Brook Farm and Concord","authors":[{"name":"Curtis, George William","birth_year":1824,"death_year":1892}],"translators":[],"subjects":["Authors, American -- 19th century -- Correspondence","Brook Farm Phalanx (West Roxbury, Boston, Mass.)","Curtis, George William, 1824-1892 -- Correspondence","Dwight, John Sullivan, 1813-1893 -- Correspondence"],"bookshelves":[],"languages":["en"],"copyright":false,"media_type":"Text","formats":{"text/html":"https://www.gutenberg.org/ebooks/8222.html.images","application/epub+zip":"https://www.gutenberg.org/ebooks/8222.epub3.images","application/x-mobipocket-ebook":"https://www.gutenberg.org/ebooks/8222.kf8.images","text/plain; charset=us-ascii":"https://www.gutenberg.org/ebooks/8222.txt.utf-8","application/rdf+xml":"https://www.gutenberg.org/ebooks/8222.rdf","image/jpeg":"https://www.gutenberg.org/cache/epub/8222/pg8222.cover.medium.jpg","application/octet-stream":"https://www.gutenberg.org/cache/epub/8222/pg8222-h.zip"},"download_count":21},{"id":8233,"title":"The World English Bible (WEB): Joshua","authors":[{"name":"Anonymous","birth_year":null,"death_year":null}],"translators":[],"subjects":["Bible. Joshua"],"bookshelves":[],"languages":["en"],"copyright":false,"media_type":"Text","formats":{"text/html":"https://www.gutenberg.org/ebooks/8233.html.images","application/epub+zip":"https://www.gutenberg.org/ebooks/8233.epub3.images","application/x-mobipocket-ebook":"https://www.gutenberg.org/ebooks/8233.kf8.images","text/plain; charset=us-ascii":"https://www.gutenberg.org/ebooks/8233.txt.utf-8","application/rdf+xml":"https://www.gutenberg.org/ebooks/8233.rdf","image/jpeg":"https://www.gutenberg.org/cache/epub/8233/pg8233.cover.medium.jpg","application/octet-stream":"https://www.gutenberg.org/cache/epub/8233/pg8233-h.zip"},"download_count":21},{"id":8246,"title":"The World English Bible (WEB): Psalms","authors":[{"name":"Anonymous","birth_year":null,"death_year":null}],"translators":[],"subjects":["Bible. Psalms"],"bookshelves":[],"languages":["en"],"copyright":false,"media_type":"Text","formats":{"text/html":"https://www.gutenberg.org/ebooks/8246.html.images","application/epub+zip":"https://www.gutenberg.org/ebooks/8246.epub3.images","application/x-mobipocket-ebook":"https://www.gutenberg.org/ebooks/8246.kf8.images","text/plain; charset=us-ascii":"https://www.gutenberg.org/ebooks/8246.txt.utf-8","application/rdf+xml":"https://www.gutenberg.org/ebooks/8246.rdf","image/jpeg":"https://www.gutenberg.org/cache/epub/8246/pg8246.cover.medium.jpg","application/octet-stream":"https://www.gutenberg.org/cache/epub/8246/pg8246-h.zip"},"download_count":21},{"id":8293,"title":"The World English Bible (WEB): Revelation","authors":[{"name":"Anonymous","birth_year":null,"death_year":null}],"translators":[],"subjects":["Bible. Revelation"],"bookshelves":[],"languages":["en"],"copyright":false,"media_type":"Text","formats":{"text/html":"https://www.gutenberg.org/ebooks/8293.html.images","application/epub+zip":"https://www.gutenberg.org/ebooks/8293.epub3.images","application/x-mobipocket-ebook":"https://www.gutenberg.org/ebooks/8293.kf8.images","text/plain; charset=us-ascii":"https://www.gutenberg.org/ebooks/8293.txt.utf-8","application/rdf+xml":"https://www.gutenberg.org/ebooks/8293.rdf","image/jpeg":"https://www.gutenberg.org/cache/epub/8293/pg8293.cover.medium.jpg","application/octet-stream":"https://www.gutenberg.org/cache/epub/8293/pg8293-h.zip"},"download_count":21},{"id":8305,"title":"The Bible, Douay-Rheims, Book 05: Deuteronomy: The Challoner Revision","authors":[],"translators":[],"subjects":["Bible. Deuteronomy"],"bookshelves":[],"languages":["en"],"copyright":false,"media_type":"Text","formats":{"text/html":"https://www.gutenberg.org/ebooks/8305.html.images","application/epub+zip":"https://www.gutenberg.org/ebooks/8305.epub3.images","application/x-mobipocket-ebook":"https://www.gutenberg.org/ebooks/8305.kf8.images","text/plain; charset=us-ascii":"https://www.gutenberg.org/ebooks/8305.txt.utf-8","application/rdf+xml":"https://www.gutenberg.org/ebooks/8305.rdf","image/jpeg":"https://www.gutenberg.org/cache/epub/8305/pg8305.cover.medium.jpg","application/octet-stream":"https://www.gutenberg.org/cache/epub/8305/pg8305-h.zip"},"download_count":21}]}