{"count":58808,"next":"http://129.241.150.113:8000/books/?languages=en&page=763","previous":"http://129.241.150.113:8000/books/?languages=en&page=761","results":[{"id":68894,"title":"Twenty tales by twenty women: From real life in Chicago","authors":[{"name":"Anonymous","birth_year":null,"death_year":null}],"translators":[],"subjects":["Chicago (Ill.) -- Moral conditions","Prostitution -- Illinois -- Chicago"],"bookshelves":[],"languages":["en"],"copyright":false,"media_type":"Text","formats":{"text/html":"https://www.gutenberg.org/ebooks/68894.html.images","application/epub+zip":"https://www.gutenberg.org/ebooks/68894.epub3.images","application/x-mobipocket-ebook":"https://www.gutenberg.org/ebooks/68894.kf8.images","text/plain; charset=us-ascii":"https://www.gutenberg.org/ebooks/68894.txt.utf-8","application/rdf+xml":"https://www.gutenberg.org/ebooks/68894.rdf","image/jpeg":"https://www.gutenberg.org/cache/epub/68894/pg68894.cover.medium.jpg","application/octet-stream":"https://www.gutenberg.org/files/68894/68894-0.zip"},"download_count":45},{"id":68989,"title":"Catalogue of a collection of early drawings and pictures of London: With some contemporary furniture","authors":[{"name":"Burlington Fine Arts Club","birth_year":null,"death_year":null}],"translators":[],"subjects":["Art -- Exhibitions","London (England) -- Pictorial works -- Catalogs"],"bookshelves":[],"languages":["en"],"copyright":false,"media_type":"Text","formats":{"text/html":"https://www.gutenberg.org/ebooks/68989.html.images","application/epub+zip":"https://www.gutenberg.org/ebooks/68989.epub3.images","application/x-mobipocket-ebook":"https://www.gutenberg.org/ebooks/68989.kf8.images","text/plain; charset=us-ascii":"https://www.gutenberg.org/ebooks/68989.txt.utf-8","application/rdf+xml":"https://www.gutenberg.org/ebooks/68989.rdf","image/jpeg":"https://www.gutenberg.org/cache/epub/68989/pg68989.cover.medium.jpg","application/octet-stream":"https://www.gutenberg.org/files/68989/68989-0.zip"},"download_count":45},{"id":69622,"title":"The place of magic in the intellectual history of Europe","authors":[{"name":"Thorndike, Lynn","birth_year":1882,"death_year":1965}],"translators":[],"subjects":["Magic -- Europe -- History"],"bookshelves":[],"languages":["en"],"copyright":false,"media_type":"Text","formats":{"text/html":"https://www.gutenberg.org/ebooks/69622.html.images","application/epub+zip":"https://www.gutenberg.org/ebooks/69622.epub3.images","application/x-mobipocket-ebook":"https://www.gutenberg.org/ebooks/69622.kf8.images","text/plain; charset=us-ascii":"https://www.gutenberg.org/ebooks/69622.txt.utf-8","application/rdf+xml":"https://www.gutenberg.org/ebooks/69622.rdf","image/jpeg":"https://www.gutenberg.org/cache/epub/69622/pg69622.cover.medium.jpg","application/octet-stream":"https://www.gutenberg.org/files/69622/69622-0.zip"},"download_count":45},{"id":69694,"title":"The Devil of East Lupton, Vermont","authors":[{"name":"Leinster, Murray","birth_year":1896,"death_year":1975}],"translators":[],"subjects":["Human-alien encounters -- Fiction","Short stories","Tramps -- Fiction","Vermont -- Fiction"],"bookshelves":[],"languages":["en"],"copyright":false,"media_type":"Text","formats":{"text/html":"https://www.gutenberg.org/ebooks/69694.html.images","application/epub+zip":"https://www.gutenberg.org/ebooks/69694.epub3.images","application/x-mobipocket-ebook":"https://www.gutenberg.org/ebooks/69694.kf8.images","text/plain; charset=us-ascii":"https://www.gutenberg.org/ebooks/69694.txt.utf-8","application/rdf+xml":"https://www.gutenberg.org/ebooks/69694.rdf","image/jpeg":"https://www.gutenberg.org/cache/epub/69694/pg69694.cover.medium.jpg","application/octet-stream":"https://www.gutenberg.org/files/69694/69694-0.zip"},"download_count":45},{"id":69725,"title":"Elementary woodworking","authors":[{"name":"Foster, Edwin W.","birth_year":null,"death_year":null}],"translators":[],"subjects":["Trees","Woodwork","Woodworking tools"],"bookshelves":[],"languages":["en"],"copyright":false,"media_type":"Text","formats":{"text/html":"https://www.gutenberg.org/ebooks/69725.html.images","application/epub+zip":"https://www.gutenberg.org/ebooks/69725.epub3.images","application/x-mobipocket-ebook":"https://www.gutenberg.org/ebooks/69725.kf8.images","text/plain; charset=us-ascii":"https://www.gutenberg.org/ebooks/69725.txt.utf-8","application/rdf+xml":"https://www.gutenberg.org/ebooks/69725.rdf","image/jpeg":"https://www.gutenberg.org/cache/epub/69725/pg69725.cover.medium.jpg","application/octet-stream":"https://www.gutenberg.org/files/69725/69725-0.zip"},"download_count":45},{"id":69812,"title":"Practical vegetarian cookery","authors":[],"translators":[],"subjects":["Cookbooks","Vegetarian cooking"],"bookshelves":[],"languages":["en"],"copyright":false,"media_type":"Text","formats":{"text/html":"https://www.gutenberg.org/ebooks/69812.html.images","application/epub+zip":"https://www.gutenberg.org/ebooks/69812.epub3.images","application/x-mobipocket-ebook":"https://www.gutenberg.org/ebooks/69812.kf8.images","text/plain; charset=us-ascii":"https://www.gutenberg.org/ebooks/69812.txt.utf-8","application/rdf+xml":"https://www.gutenberg.org/ebooks/69812.rdf","image/jpeg":"https://www.gutenberg.org/cache/epub/69812/pg69812.cover.medium.jpg","application/octet-stream":"https://www.gutenberg.org/files/69812/69812-0.zip"},"download_count":45},{"id":70105,"title":"Gilead Balm, knight errant : $b His adventures in search of the truth","authors":[{"name":"Capes, Bernard","birth_year":1854,"death_year":1918}],"translators":[],"subjects":["Detective and mystery stories, English","English fiction -- 20th century"],"bookshelves":[],"languages":["en"],"copyright":false,"media_type":"Text","formats":{"text/html":"https://www.gutenberg.org/ebooks/70105.html.images","application/epub+zip":"https://www.gutenberg.org/ebooks/70105.epub3.images","application/x-mobipocket-ebook":"https://www.gutenberg.org/ebooks/70105.kf8.images","text/plain; charset=us-ascii":"https://www.gutenberg.org/ebooks/70105.txt.utf-8","application/rdf+xml":"https://www.gutenberg.org/ebooks/70105.rdf","image/jpeg":"https://www.gutenberg.org/cache/epub/70105/pg70105.cover.medium.jpg","application/octet-stream":"https://www.gutenberg.org/files/70105/70105-0.zip"},"download_count":45},{"id":70180,"title":"Twenty years around the world","authors":[{"name":"Vassar, John Guy","birth_year":1811,"death_year":1888}],"translators":[],"subjects":["Voyages and travels","Voyages around the world"],"bookshelves":[],"languages":["en"],"copyright":false,"media_type":"Text","formats":{"application/rdf+xml":"https://www.gutenberg.org/ebooks/70180.rdf","text/html":"https://www.gutenberg.org/ebooks/70180.html.images","application/epub+zip":"https://www.gutenberg.org/ebooks/70180.epub3.images","application/x-mobipocket-ebook":"https://www.gutenberg.org/ebooks/70180.kf8.images","text/plain; charset=us-ascii":"https://www.gutenberg.org/ebooks/70180.txt.utf-8","image/jpeg":"https://www.gutenberg.org/cache/epub/70180/pg70180.cover.medium.jpg","application/octet-stream":"https://www.gutenberg.org/files/70180/70180-0.zip"},"download_count":45},{"id":70218,"title":"The gadget had a ghost","authors":[{"name":"Leinster, Murray","birth_year":1896,"death_year":1975}],"translators":[],"subjects":["Istanbul (Turkey) -- Fiction","Science fiction","Time travel -- Fiction"],"bookshelves":[],"languages":["en"],"copyright":false,"media_type":"Text","formats":{"text/html":"https://www.gutenberg.org/ebooks/70218.html.images","application/epub+zip":"https://www.gutenberg.org/ebooks/70218.epub3.images","application/x-mobipocket-ebook":"https://www.gutenberg.org/ebooks/70218.kf8.images","text/plain; charset=us-ascii":"https://www.gutenberg.org/ebooks/70218.txt.utf-8","application/rdf+xml":"https://www.gutenberg.org/ebooks/70218.rdf","image/jpeg":"https://www.gutenberg.org/cache/epub/70218/pg70218.cover.medium.jpg","application/octet-stream":"https://www.gutenberg.org/files/70218/70218-0.zip"},"download_count":45},{"id":70304,"title":"The Inquisition : $b a political and military study of its establishment","authors":[{"name":"Nickerson, Hoffman","birth_year":1888,"death_year":1965}],"translators":[],"subjects":["Albigenses","Christian heresies -- History -- Middle Ages, 600-1500","Inquisition","Prohibition"],"bookshelves":[],"languages":["en"],"copyright":false,"media_type":"Text","formats":{"text/html":"https://www.gutenberg.org/ebooks/70304.html.images","application/epub+zip":"https://www.gutenberg.org/ebooks/70304.epub3.images","application/x-mobipocket-ebook":"https://www.gutenberg.org/ebooks/70304.kf8.images","text/plain; charset=us-ascii":"https://www.gutenberg.org/ebooks/70304.txt.utf-8","application/rdf+xml":"https://www.gutenberg.org/ebooks/70304.rdf","image/jpeg":"https://www.gutenberg.org/cache/epub/70304/pg70304.cover.medium.jpg","application/octet-stream":"https://www.gutenberg.org/files/70304/70304-0.zip"},"download_count":45},{"id":70315,"title":"The old lady shows her medals","authors":[{"name":"Barrie, J. M. (James Matthew)","birth_year":1860,"death_year":1937}],"translators":[],"subjects":["World War, 1914-1918 -- Drama"],"bookshelves":[],"languages":["en"],"copyright":false,"media_type":"Text","formats":{"text/html":"https://www.gutenberg.org/ebooks/70315.html.images","application/epub+zip":"https://www.gutenberg.org/ebooks/70315.epub3.images","application/x-mobipocket-ebook":"https://www.gutenberg.org/ebooks/70315.kf8.images","text/plain; charset=us-ascii":"https://www.gutenberg.org/ebooks/70315.txt.utf-8","application/rdf+xml":"https://www.gutenberg.org/ebooks/70315.rdf","image/jpeg":"https://www.gutenberg.org/cache/epub/70315/pg70315.cover.medium.jpg","application/octet-stream":"https://www.gutenberg.org/files/70315/70315-0.zip"},"download_count":45},{"id":70441,"title":"The Anzac Book","authors":[],"translators":[],"subjects":["Great Britain. Army. Australian and New Zealand Army Corps","World War, 1914-1918 -- Campaigns -- Turkey -- Gallipoli Peninsula","World War, 1914-1918 -- Gift books"],"bookshelves":[],"languages":["en"],"copyright":false,"media_type":"Text","formats":{"text/html":"https://www.gutenberg.org/ebooks/70441.html.images","application/epub+zip":"https://www.gutenberg.org/ebooks/70441.epub3.images","application/x-mobipocket-ebook":"https://www.gutenberg.org/ebooks/70441.kf8.images","text/plain; charset=us-ascii":"https://www.gutenberg.org/ebooks/70441.txt.utf-8","application/rdf+xml":"https://www.gutenberg.org/ebooks/70441.rdf","image/jpeg":"https://www.gutenberg.org/cache/epub/70441/pg70441.cover.medium.jpg","application/octet-stream":"https://www.gutenberg.org/files/70441/70441-0.zip"},"download_count":45},{"id":70444,"title":"French & English : $b A comparison","authors":[{"name":"Hamerton, Philip Gilbert","birth_year":1834,"death_year":1894}],"translators":[],"subjects":["National characteristics, English","National characteristics, French"],"bookshelves":[],"languages":["en"],"copyright":false,"media_type":"Text","formats":{"text/html":"https://www.gutenberg.org/ebooks/70444.html.images","application/epub+zip":"https://www.gutenberg.org/ebooks/70444.epub3.images","application/x-mobipocket-ebook":"https://www.gutenberg.org/ebooks/70444.kf8.images","text/plain; charset=us-ascii":"https://www.gutenberg.org/ebooks/70444.txt.utf-8","application/rdf+xml":"https://www.gutenberg.org/ebooks/70444.rdf","image/jpeg":"https://www.gutenberg.org/cache/epub/70444/pg70444.cover.medium.jpg","application/octet-stream":"https://www.gutenberg.org/files/70444/70444-0.zip"},"download_count":45},{"id":70449,"title":"Bluffer's luck","authors":[{"name":"Tuttle, W. C. (Wilbur C.)","birth_year":1883,"death_year":1969}],"translators":[],"subjects":["Cowboys -- Fiction","Hartley, Hashknife (Fictitious character) -- Fiction","Stevens, Sleepy (Fictitious character) -- Fiction","Western stories"],"bookshelves":[],"languages":["en"],"copyright":false,"media_type":"Text","formats":{"text/html":"https://www.gutenberg.org/ebooks/70449.html.images","application/epub+zip":"https://www.gutenberg.org/ebooks/70449.epub3.images","application/x-mobipocket-ebook":"https://www.gutenberg.org/ebooks/70449.kf8.images","text/plain; charset=us-ascii":"https://www.gutenberg.org/ebooks/70449.txt.utf-8","application/rdf+xml":"https://www.gutenberg.org/ebooks/70449.rdf","image/jpeg":"https://www.gutenberg.org/cache/epub/70449/pg70449.cover.medium.jpg","application/octet-stream":"https://www.gutenberg.org/files/70449/70449-0.zip"},"download_count":45},{"id":70453,"title":"Clerk Maxwell's electromagnetic theory","authors":[{"name":"Lorentz, H. A. (Hendrik Antoon)","birth_year":1853,"death_year":1928}],"translators":[],"subjects":["Electromagnetic theory","Maxwell, James Clerk, 1831-1879"],"bookshelves":[],"languages":["en"],"copyright":false,"media_type":"Text","formats":{"text/html":"https://www.gutenberg.org/ebooks/70453.html.images","application/epub+zip":"https://www.gutenberg.org/ebooks/70453.epub3.images","application/x-mobipocket-ebook":"https://www.gutenberg.org/ebooks/70453.kf8.images","text/plain; charset=us-ascii":"https://www.gutenberg.org/ebooks/70453.txt.utf-8","application/rdf+xml":"https://www.gutenberg.org/ebooks/70453.rdf","image/jpeg":"https://www.gutenberg.org/cache/epub/70453/pg70453.cover.medium.jpg","application/octet-stream":"https://www.gutenberg.org/files/70453/70453-0.zip"},"download_count":45},{"id":70613,"title":"A reply to \"The affectionate and Christian address of many thousands of women of Great Britain and Ireland, to their sisters, the women of the United States of America.\"","authors":[{"name":"Stowe, Harriet Beecher","birth_year":1811,"death_year":1896}],"translators":[],"subjects":["Slavery -- United States","United States -- History -- Civil War, 1861-1865 -- Foreign public opinion"],"bookshelves":[],"languages":["en"],"copyright":false,"media_type":"Text","formats":{"text/html":"https://www.gutenberg.org/ebooks/70613.html.images","application/epub+zip":"https://www.gutenberg.org/ebooks/70613.epub3.images","application/x-mobipocket-ebook":"https://www.gutenberg.org/ebooks/70613.kf8.images","text/plain; charset=us-ascii":"https://www.gutenberg.org/ebooks/70613.txt.utf-8","application/rdf+xml":"https://www.gutenberg.org/ebooks/70613.rdf","image/jpeg":"https://www.gutenberg.org/cache/epub/70613/pg70613.cover.medium.jpg","application/octet-stream":"https://www.gutenberg.org/files/70613/70613-0.zip"},"download_count":45},{"id":70689,"title":"Slipstream: the autobiography of an air craftsman","authors":[{"name":"Wilson, Eugene E.","birth_year":1887,"death_year":1974}],"translators":[],"subjects":["Aircraft industry -- United States -- Biography","United States. Navy -- Aviation","Wilson, Eugene E., 1887-1974"],"bookshelves":[],"languages":["en"],"copyright":false,"media_type":"Text","formats":{"text/html":"https://www.gutenberg.org/ebooks/70689.html.images","application/epub+zip":"https://www.gutenberg.org/ebooks/70689.epub3.images","application/x-mobipocket-ebook":"https://www.gutenberg.org/ebooks/70689.kf8.images","text/plain; charset=us-ascii":"https://www.gutenberg.org/ebooks/70689.txt.utf-8","application/rdf+xml":"https://www.gutenberg.org/ebooks/70689.rdf","image/jpeg":"https://www.gutenberg.org/cache/epub/70689/pg70689.cover.medium.jpg","application/octet-stream":"https://www.gutenberg.org/files/70689/70689-0.zip"},"download_count":45},{"id":70698,"title":"The lonely house","authors":[{"name":"Lowndes, Marie Belloc","birth_year":1868,"death_year":1947}],"translators":[],"subjects":["British -- Monaco -- Fiction","Heiresses -- Fiction","Love stories","Monte-Carlo (Monaco) -- Fiction","Thrillers (Fiction)","Young women -- Fiction"],"bookshelves":[],"languages":["en"],"copyright":false,"media_type":"Text","formats":{"text/html":"https://www.gutenberg.org/ebooks/70698.html.images","application/epub+zip":"https://www.gutenberg.org/ebooks/70698.epub3.images","application/x-mobipocket-ebook":"https://www.gutenberg.org/ebooks/70698.kf8.images","text/plain; charset=us-ascii":"https://www.gutenberg.org/ebooks/70698.txt.utf-8","application/rdf+xml":"https://www.gutenberg.org/ebooks/70698.rdf","image/jpeg":"https://www.gutenberg.org/cache/epub/70698/pg70698.cover.medium.jpg","application/octet-stream":"https://www.gutenberg.org/files/70698/70698-0.zip"},"download_count":45},{"id":70783,"title":"Uncle Wiggily's funny auto : $b or, How the Skillery Skallery Alligator was bumped; and Uncle Wiggily and his snow plow; also How the bunny rabbit gentleman watered the garden","authors":[{"name":"Garis, Howard Roger","birth_year":1873,"death_year":1962}],"translators":[],"subjects":["Alligators -- Juvenile fiction","Animals -- Juvenile fiction","Automobile travel -- Juvenile fiction","Foxes -- Juvenile fiction","Gardening -- Juvenile fiction","Geese -- Juvenile fiction","Humorous stories, American","Muskrat -- Juvenile fiction","Rabbits -- Juvenile fiction","Snow -- Juvenile fiction","Swine -- Juvenile fiction","Tricksters -- Juvenile fiction","Uncle Wiggily (Fictitious character) -- Juvenile fiction","Wolves -- Juvenile fiction"],"bookshelves":[],"languages":["en"],"copyright":false,"media_type":"Text","formats":{"text/html":"https://www.gutenberg.org/ebooks/70783.html.images","application/epub+zip":"https://www.gutenberg.org/ebooks/70783.epub3.images","application/x-mobipocket-ebook":"https://www.gutenberg.org/ebooks/70783.kf8.images","text/plain; charset=us-ascii":"https://www.gutenberg.org/ebooks/70783.txt.utf-8","application/rdf+xml":"https://www.gutenberg.org/ebooks/70783.rdf","image/jpeg":"https://www.gutenberg.org/cache/epub/70783/pg70783.cover.medium.jpg","application/octet-stream":"https://www.gutenberg.org/files/70783/70783-0.zip"},"download_count":45},{"id":70893,"title":"The abandoned farm, and Connie's mistake","authors":[{"name":"Holmes, Mary Jane","birth_year":1825,"death_year":1907}],"translators":[],"subjects":["American fiction -- 20th century"],"bookshelves":[],"languages":["en"],"copyright":false,"media_type":"Text","formats":{"text/html":"https://www.gutenberg.org/ebooks/70893.html.images","application/epub+zip":"https://www.gutenberg.org/ebooks/70893.epub3.images","application/x-mobipocket-ebook":"https://www.gutenberg.org/ebooks/70893.kf8.images","text/plain; charset=us-ascii":"https://www.gutenberg.org/ebooks/70893.txt.utf-8","application/rdf+xml":"https://www.gutenberg.org/ebooks/70893.rdf","image/jpeg":"https://www.gutenberg.org/cache/epub/70893/pg70893.cover.medium.jpg","application/octet-stream":"https://www.gutenberg.org/files/70893/70893-0.zip"},"download_count":45},{"id":70998,"title":"The complete works of John Gower, volume 1 : $b The French works","authors":[{"name":"Gower, John","birth_year":null,"death_year":1408}],"translators":[],"subjects":["Poetry"],"bookshelves":[],"languages":["en"],"copyright":false,"media_type":"Text","formats":{"text/html":"https://www.gutenberg.org/ebooks/70998.html.images","application/epub+zip":"https://www.gutenberg.org/ebooks/70998.epub3.images","application/x-mobipocket-ebook":"https://www.gutenberg.org/ebooks/70998.kf8.images","text/plain; charset=us-ascii":"https://www.gutenberg.org/ebooks/70998.txt.utf-8","application/rdf+xml":"https://www.gutenberg.org/ebooks/70998.rdf","image/jpeg":"https://www.gutenberg.org/cache/epub/70998/pg70998.cover.medium.jpg","application/octet-stream":"https://www.gutenberg.org/files/70998/70998-0.zip"},"download_count":45},{"id":71202,"title":"Stories of grit","authors":[{"name":"Wallace, Archer","birth_year":1884,"death_year":1958}],"translators":[],"subjects":["Biography -- Juvenile literature","Boys -- Biography"],"bookshelves":[],"languages":["en"],"copyright":false,"media_type":"Text","formats":{"text/html":"https://www.gutenberg.org/ebooks/71202.html.images","application/epub+zip":"https://www.gutenberg.org/ebooks/71202.epub3.images","application/x-mobipocket-ebook":"https://www.gutenberg.org/ebooks/71202.kf8.images","text/plain; charset=us-ascii":"https://www.gutenberg.org/ebooks/71202.txt.utf-8","application/rdf+xml":"https://www.gutenberg.org/ebooks/71202.rdf","image/jpeg":"https://www.gutenberg.org/cache/epub/71202/pg71202.cover.medium.jpg","application/octet-stream":"https://www.gutenberg.org/files/71202/71202-0.zip"},"download_count":45},{"id":71209,"title":"The historians' history of the world in twenty-five volumes, volume 09 : $b Italy","authors":[],"translators":[],"subjects":["World history"],"bookshelves":[],"languages":["en"],"copyright":false,"media_type":"Text","formats":{"text/html":"https://www.gutenberg.org/ebooks/71209.html.images","application/epub+zip":"https://www.gutenberg.org/ebooks/71209.epub3.images","application/x-mobipocket-ebook":"https://www.gutenberg.org/ebooks/71209.kf8.images","text/plain; charset=us-ascii":"https://www.gutenberg.org/ebooks/71209.txt.utf-8","application/rdf+xml":"https://www.gutenberg.org/ebooks/71209.rdf","image/jpeg":"https://www.gutenberg.org/cache/epub/71209/pg71209.cover.medium.jpg","application/octet-stream":"https://www.gutenberg.org/files/71209/71209-0.zip"},"download_count":45},{"id":71615,"title":"Loaves and fishes","authors":[{"name":"Capes, Bernard","birth_year":1854,"death_year":1918}],"translators":[],"subjects":["English fiction","Short stories, English"],"bookshelves":[],"languages":["en"],"copyright":false,"media_type":"Text","formats":{"text/html":"https://www.gutenberg.org/ebooks/71615.html.images","application/epub+zip":"https://www.gutenberg.org/ebooks/71615.epub3.images","application/x-mobipocket-ebook":"https://www.gutenberg.org/ebooks/71615.kf8.images","text/plain; charset=us-ascii":"https://www.gutenberg.org/ebooks/71615.txt.utf-8","application/rdf+xml":"https://www.gutenberg.org/ebooks/71615.rdf","image/jpeg":"https://www.gutenberg.org/cache/epub/71615/pg71615.cover.medium.jpg","application/octet-stream":"https://www.gutenberg.org/files/71615/71615-0.zip"},"download_count":45},{"id":71622,"title":"The heart of Africa, Vol. 2 (of 2)","authors":[{"name":"Schweinfurth, Georg August","birth_year":1836,"death_year":1925}],"translators":[{"name":"Frewer, Ellen E. (Ellen Elizabeth)","birth_year":null,"death_year":null}],"subjects":["Africa, Central -- Description and travel","Schweinfurth, Georg August, 1836-1925 -- Travel -- Africa, Central"],"bookshelves":[],"languages":["en"],"copyright":false,"media_type":"Text","formats":{"text/html":"https://www.gutenberg.org/ebooks/71622.html.images","application/epub+zip":"https://www.gutenberg.org/ebooks/71622.epub3.images","application/x-mobipocket-ebook":"https://www.gutenberg.org/ebooks/71622.kf8.images","text/plain; charset=us-ascii":"https://www.gutenberg.org/ebooks/71622.txt.utf-8","application/rdf+xml":"https://www.gutenberg.org/ebooks/71622.rdf","image/jpeg":"https://www.gutenberg.org/cache/epub/71622/pg71622.cover.medium.jpg","application/octet-stream":"https://www.gutenberg.org/files/71622/71622-h.zip"},"download_count":45},{"id":71633,"title":"Nid and Nod","authors":[{"name":"Barbour, Ralph Henry","birth_year":1870,"death_year":1944}],"translators":[],"subjects":["Baseball -- Juvenile fiction","Boarding schools -- Juvenile fiction","Teenagers -- Juvenile fiction"],"bookshelves":[],"languages":["en"],"copyright":false,"media_type":"Text","formats":{"text/html":"https://www.gutenberg.org/ebooks/71633.html.images","application/epub+zip":"https://www.gutenberg.org/ebooks/71633.epub3.images","application/x-mobipocket-ebook":"https://www.gutenberg.org/ebooks/71633.kf8.images","text/plain; charset=us-ascii":"https://www.gutenberg.org/ebooks/71633.txt.utf-8","application/rdf+xml":"https://www.gutenberg.org/ebooks/71633.rdf","image/jpeg":"https://www.gutenberg.org/cache/epub/71633/pg71633.cover.medium.jpg","application/octet-stream":"https://www.gutenberg.org/files/71633/71633-h.zip"},"download_count":45},{"id":71651,"title":"Cairo to Kisumu : $b Egypt—The Sudan—Kenya Colony","authors":[{"name":"Carpenter, Frank G. (Frank George)","birth_year":1855,"death_year":1924}],"translators":[],"subjects":["Egypt -- Description and travel","Kenya -- Description and travel","Sudan -- Description and travel"],"bookshelves":[],"languages":["en"],"copyright":false,"media_type":"Text","formats":{"text/html":"https://www.gutenberg.org/ebooks/71651.html.images","application/epub+zip":"https://www.gutenberg.org/ebooks/71651.epub3.images","application/x-mobipocket-ebook":"https://www.gutenberg.org/ebooks/71651.kf8.images","text/plain; charset=us-ascii":"https://www.gutenberg.org/ebooks/71651.txt.utf-8","application/rdf+xml":"https://www.gutenberg.org/ebooks/71651.rdf","image/jpeg":"https://www.gutenberg.org/cache/epub/71651/pg71651.cover.medium.jpg","application/octet-stream":"https://www.gutenberg.org/files/71651/71651-h.zip"},"download_count":45},{"id":71727,"title":"Chinese mettle","authors":[{"name":"Kemp, E. G. (Emily Georgiana)","birth_year":1860,"death_year":1939}],"translators":[],"subjects":["China -- Description and travel"],"bookshelves":[],"languages":["en"],"copyright":false,"media_type":"Text","formats":{"text/html":"https://www.gutenberg.org/ebooks/71727.html.images","application/epub+zip":"https://www.gutenberg.org/ebooks/71727.epub3.images","application/x-mobipocket-ebook":"https://www.gutenberg.org/ebooks/71727.kf8.images","text/plain; charset=us-ascii":"https://www.gutenberg.org/ebooks/71727.txt.utf-8","application/rdf+xml":"https://www.gutenberg.org/ebooks/71727.rdf","image/jpeg":"https://www.gutenberg.org/cache/epub/71727/pg71727.cover.medium.jpg","application/octet-stream":"https://www.gutenberg.org/files/71727/71727-h.zip"},"download_count":45},{"id":71741,"title":"The English of military communications","authors":[{"name":"Ganoe, William Addleman","birth_year":1881,"death_year":1966}],"translators":[],"subjects":["English language -- Rhetoric","Military orders","United States. Army -- Records and correspondence"],"bookshelves":[],"languages":["en"],"copyright":false,"media_type":"Text","formats":{"text/html":"https://www.gutenberg.org/ebooks/71741.html.images","application/epub+zip":"https://www.gutenberg.org/ebooks/71741.epub3.images","application/x-mobipocket-ebook":"https://www.gutenberg.org/ebooks/71741.kf8.images","text/plain; charset=us-ascii":"https://www.gutenberg.org/ebooks/71741.txt.utf-8","application/rdf+xml":"https://www.gutenberg.org/ebooks/71741.rdf","image/jpeg":"https://www.gutenberg.org/cache/epub/71741/pg71741.cover.medium.jpg","application/octet-stream":"https://www.gutenberg.org/files/71741/71741-h.zip"},"download_count":45},{"id":71783,"title":"Sunshine and shadow, or, Paul Burton's surprise : $b A romance of the American Revolution","authors":[{"name":"Moore, Julia A.","birth_year":1847,"death_year":1920}],"translators":[],"subjects":["United States -- History -- Revolution, 1775-1783 -- Fiction"],"bookshelves":[],"languages":["en"],"copyright":false,"media_type":"Text","formats":{"text/html":"https://www.gutenberg.org/ebooks/71783.html.images","application/epub+zip":"https://www.gutenberg.org/ebooks/71783.epub3.images","application/x-mobipocket-ebook":"https://www.gutenberg.org/ebooks/71783.kf8.images","text/plain; charset=us-ascii":"https://www.gutenberg.org/ebooks/71783.txt.utf-8","application/rdf+xml":"https://www.gutenberg.org/ebooks/71783.rdf","image/jpeg":"https://www.gutenberg.org/cache/epub/71783/pg71783.cover.medium.jpg","application/octet-stream":"https://www.gutenberg.org/cache/epub/71783/pg71783-h.zip"},"download_count":45},{"id":71866,"title":"War : $b A poem in blank verse","authors":[{"name":"Spateman, John","birth_year":1697,"death_year":1749}],"translators":[],"subjects":["War poetry, English"],"bookshelves":[],"languages":["en"],"copyright":false,"media_type":"Text","formats":{"text/html":"https://www.gutenberg.org/ebooks/71866.html.images","application/epub+zip":"https://www.gutenberg.org/ebooks/71866.epub3.images","application/x-mobipocket-ebook":"https://www.gutenberg.org/ebooks/71866.kf8.images","text/plain; charset=us-ascii":"https://www.gutenberg.org/ebooks/71866.txt.utf-8","application/rdf+xml":"https://www.gutenberg.org/ebooks/71866.rdf","image/jpeg":"https://www.gutenberg.org/cache/epub/71866/pg71866.cover.medium.jpg","application/octet-stream":"https://www.gutenberg.org/cache/epub/71866/pg71866-h.zip"},"download_count":45},{"id":71872,"title":"A book of martyrs","authors":[{"name":"Comer, Cornelia A. P. (Cornelia Atwood Pratt)","birth_year":1865,"death_year":1929}],"translators":[],"subjects":["American fiction -- 19th century","Short stories, American"],"bookshelves":[],"languages":["en"],"copyright":false,"media_type":"Text","formats":{"text/html":"https://www.gutenberg.org/ebooks/71872.html.images","application/epub+zip":"https://www.gutenberg.org/ebooks/71872.epub3.images","application/x-mobipocket-ebook":"https://www.gutenberg.org/ebooks/71872.kf8.images","text/plain; charset=us-ascii":"https://www.gutenberg.org/ebooks/71872.txt.utf-8","application/rdf+xml":"https://www.gutenberg.org/ebooks/71872.rdf","image/jpeg":"https://www.gutenberg.org/cache/epub/71872/pg71872.cover.medium.jpg","application/octet-stream":"https://www.gutenberg.org/cache/epub/71872/pg71872-h.zip"},"download_count":45}]}