{"count":58808,"next":"http://129.241.150.113:8000/books/?languages=en&page=1800","previous":"http://129.241.150.113:8000/books/?languages=en&page=1798","results":[{"id":8127,"title":"Songs of Two Nations","authors":[{"name":"Swinburne, Algernon Charles","birth_year":1837,"death_year":1909}],"translators":[],"subjects":["Poetry"],"bookshelves":[],"languages":["en"],"copyright":false,"media_type":"Text","formats":{"text/html":"https://www.gutenberg.org/ebooks/8127.html.images","text/html; charset=iso-8859-1":"https://www.gutenberg.org/files/8127/8127-h/8127-h.htm","application/epub+zip":"https://www.gutenberg.org/ebooks/8127.epub3.images","application/x-mobipocket-ebook":"https://www.gutenberg.org/ebooks/8127.kf8.images","text/plain; charset=us-ascii":"https://www.gutenberg.org/ebooks/8127.txt.utf-8","text/plain; charset=iso-8859-1":"https://www.gutenberg.org/files/8127/8127-8.txt","application/rdf+xml":"https://www.gutenberg.org/ebooks/8127.rdf","image/jpeg":"https://www.gutenberg.org/cache/epub/8127/pg8127.cover.medium.jpg","application/octet-stream":"https://www.gutenberg.org/cache/epub/8127/pg8127-h.zip"},"download_count":12},{"id":8238,"title":"The World English Bible (WEB): 1 Kings","authors":[{"name":"Anonymous","birth_year":null,"death_year":null}],"translators":[],"subjects":["Bible. Kings, 1st"],"bookshelves":[],"languages":["en"],"copyright":false,"media_type":"Text","formats":{"text/html":"https://www.gutenberg.org/ebooks/8238.html.images","application/epub+zip":"https://www.gutenberg.org/ebooks/8238.epub3.images","application/x-mobipocket-ebook":"https://www.gutenberg.org/ebooks/8238.kf8.images","text/plain; charset=us-ascii":"https://www.gutenberg.org/ebooks/8238.txt.utf-8","application/rdf+xml":"https://www.gutenberg.org/ebooks/8238.rdf","image/jpeg":"https://www.gutenberg.org/cache/epub/8238/pg8238.cover.medium.jpg","application/octet-stream":"https://www.gutenberg.org/cache/epub/8238/pg8238-h.zip"},"download_count":12},{"id":8247,"title":"The World English Bible (WEB): Proverbs","authors":[{"name":"Anonymous","birth_year":null,"death_year":null}],"translators":[],"subjects":["Bible. Proverbs"],"bookshelves":[],"languages":["en"],"copyright":false,"media_type":"Text","formats":{"text/html":"https://www.gutenberg.org/ebooks/8247.html.images","application/epub+zip":"https://www.gutenberg.org/ebooks/8247.epub3.images","application/x-mobipocket-ebook":"https://www.gutenberg.org/ebooks/8247.kf8.images","text/plain; charset=us-ascii":"https://www.gutenberg.org/ebooks/8247.txt.utf-8","application/rdf+xml":"https://www.gutenberg.org/ebooks/8247.rdf","image/jpeg":"https://www.gutenberg.org/cache/epub/8247/pg8247.cover.medium.jpg","application/octet-stream":"https://www.gutenberg.org/cache/epub/8247/pg8247-h.zip"},"download_count":12},{"id":8265,"title":"The World English Bible (WEB): Zechariah","authors":[{"name":"Anonymous","birth_year":null,"death_year":null}],"translators":[],"subjects":["Bible. Zechariah"],"bookshelves":[],"languages":["en"],"copyright":false,"media_type":"Text","formats":{"text/html":"https://www.gutenberg.org/ebooks/8265.html.images","application/epub+zip":"https://www.gutenberg.org/ebooks/8265.epub3.images","application/x-mobipocket-ebook":"https://www.gutenberg.org/ebooks/8265.kf8.images","text/plain; charset=us-ascii":"https://www.gutenberg.org/ebooks/8265.txt.utf-8","application/rdf+xml":"https://www.gutenberg.org/ebooks/8265.rdf","image/jpeg":"https://www.gutenberg.org/cache/epub/8265/pg8265.cover.medium.jpg","application/octet-stream":"https://www.gutenberg.org/cache/epub/8265/pg8265-h.zip"},"download_count":12},{"id":8274,"title":"The World English Bible (WEB): 2 Corinthians","authors":[{"name":"Anonymous","birth_year":null,"death_year":null}],"translators":[],"subjects":["Bible. Corinthians, 2nd"],"bookshelves":[],"languages":["en"],"copyright":false,"media_type":"Text","formats":{"text/html":"https://www.gutenberg.org/ebooks/8274.html.images","application/epub+zip":"https://www.gutenberg.org/ebooks/8274.epub3.images","application/x-mobipocket-ebook":"https://www.gutenberg.org/ebooks/8274.kf8.images","text/plain; charset=us-ascii":"https://www.gutenberg.org/ebooks/8274.txt.utf-8","application/rdf+xml":"https://www.gutenberg.org/ebooks/8274.rdf","image/jpeg":"https://www.gutenberg.org/cache/epub/8274/pg8274.cover.medium.jpg","application/octet-stream":"https://www.gutenberg.org/cache/epub/8274/pg8274-h.zip"},"download_count":12},{"id":8280,"title":"The World English Bible (WEB): 2 Thessalonians","authors":[{"name":"Anonymous","birth_year":null,"death_year":null}],"translators":[],"subjects":["Bible. Thessalonians, 2nd"],"bookshelves":[],"languages":["en"],"copyright":false,"media_type":"Text","formats":{"text/html":"https://www.gutenberg.org/ebooks/8280.html.images","application/epub+zip":"https://www.gutenberg.org/ebooks/8280.epub3.images","application/x-mobipocket-ebook":"https://www.gutenberg.org/ebooks/8280.kf8.images","text/plain; charset=us-ascii":"https://www.gutenberg.org/ebooks/8280.txt.utf-8","application/rdf+xml":"https://www.gutenberg.org/ebooks/8280.rdf","image/jpeg":"https://www.gutenberg.org/cache/epub/8280/pg8280.cover.medium.jpg","application/octet-stream":"https://www.gutenberg.org/cache/epub/8280/pg8280-h.zip"},"download_count":12},{"id":8284,"title":"The World English Bible (WEB): Philemon","authors":[{"name":"Anonymous","birth_year":null,"death_year":null}],"translators":[],"subjects":["Bible. Epistles of Paul","Bible. Philemon"],"bookshelves":[],"languages":["en"],"copyright":false,"media_type":"Text","formats":{"text/html":"https://www.gutenberg.org/ebooks/8284.html.images","application/epub+zip":"https://www.gutenberg.org/ebooks/8284.epub3.images","application/x-mobipocket-ebook":"https://www.gutenberg.org/ebooks/8284.kf8.images","text/plain; charset=us-ascii":"https://www.gutenberg.org/ebooks/8284.txt.utf-8","application/rdf+xml":"https://www.gutenberg.org/ebooks/8284.rdf","image/jpeg":"https://www.gutenberg.org/cache/epub/8284/pg8284.cover.medium.jpg","application/octet-stream":"https://www.gutenberg.org/cache/epub/8284/pg8284-h.zip"},"download_count":12},{"id":8303,"title":"The Bible, Douay-Rheims, Book 03: Leviticus: The Challoner Revision","authors":[],"translators":[],"subjects":["Bible. Leviticus"],"bookshelves":[],"languages":["en"],"copyright":false,"media_type":"Text","formats":{"text/html":"https://www.gutenberg.org/ebooks/8303.html.images","application/epub+zip":"https://www.gutenberg.org/ebooks/8303.epub3.images","application/x-mobipocket-ebook":"https://www.gutenberg.org/ebooks/8303.kf8.images","text/plain; charset=us-ascii":"https://www.gutenberg.org/ebooks/8303.txt.utf-8","application/rdf+xml":"https://www.gutenberg.org/ebooks/8303.rdf","image/jpeg":"https://www.gutenberg.org/cache/epub/8303/pg8303.cover.medium.jpg","application/octet-stream":"https://www.gutenberg.org/cache/epub/8303/pg8303-h.zip"},"download_count":12},{"id":8306,"title":"The Bible, Douay-Rheims, Book 06: Josue: The Challoner Revision","authors":[],"translators":[],"subjects":["Bible. Joshua"],"bookshelves":[],"languages":["en"],"copyright":false,"media_type":"Text","formats":{"text/html":"https://www.gutenberg.org/ebooks/8306.html.images","application/epub+zip":"https://www.gutenberg.org/ebooks/8306.epub3.images","application/x-mobipocket-ebook":"https://www.gutenberg.org/ebooks/8306.kf8.images","text/plain; charset=us-ascii":"https://www.gutenberg.org/ebooks/8306.txt.utf-8","application/rdf+xml":"https://www.gutenberg.org/ebooks/8306.rdf","image/jpeg":"https://www.gutenberg.org/cache/epub/8306/pg8306.cover.medium.jpg","application/octet-stream":"https://www.gutenberg.org/cache/epub/8306/pg8306-h.zip"},"download_count":12},{"id":8315,"title":"The Bible, Douay-Rheims, Book 15: 1 Esdras: The Challoner Revision","authors":[],"translators":[],"subjects":["Bible. Ezra"],"bookshelves":[],"languages":["en"],"copyright":false,"media_type":"Text","formats":{"text/html":"https://www.gutenberg.org/ebooks/8315.html.images","application/epub+zip":"https://www.gutenberg.org/ebooks/8315.epub3.images","application/x-mobipocket-ebook":"https://www.gutenberg.org/ebooks/8315.kf8.images","text/plain; charset=us-ascii":"https://www.gutenberg.org/ebooks/8315.txt.utf-8","application/rdf+xml":"https://www.gutenberg.org/ebooks/8315.rdf","image/jpeg":"https://www.gutenberg.org/cache/epub/8315/pg8315.cover.medium.jpg","application/octet-stream":"https://www.gutenberg.org/cache/epub/8315/pg8315-h.zip"},"download_count":12},{"id":8348,"title":"The Bible, Douay-Rheims, Book 48: Mark: The Challoner Revision","authors":[],"translators":[],"subjects":["Bible. Mark"],"bookshelves":[],"languages":["en"],"copyright":false,"media_type":"Text","formats":{"text/html":"https://www.gutenberg.org/ebooks/8348.html.images","application/epub+zip":"https://www.gutenberg.org/ebooks/8348.epub3.images","application/x-mobipocket-ebook":"https://www.gutenberg.org/ebooks/8348.kf8.images","text/plain; charset=us-ascii":"https://www.gutenberg.org/ebooks/8348.txt.utf-8","application/rdf+xml":"https://www.gutenberg.org/ebooks/8348.rdf","image/jpeg":"https://www.gutenberg.org/cache/epub/8348/pg8348.cover.medium.jpg","application/octet-stream":"https://www.gutenberg.org/cache/epub/8348/pg8348-h.zip"},"download_count":12},{"id":8354,"title":"The Bible, Douay-Rheims, Book 54: 2 Corinthians: The Challoner Revision","authors":[],"translators":[],"subjects":["Bible. Corinthians, 2nd"],"bookshelves":[],"languages":["en"],"copyright":false,"media_type":"Text","formats":{"text/html":"https://www.gutenberg.org/ebooks/8354.html.images","application/epub+zip":"https://www.gutenberg.org/ebooks/8354.epub3.images","application/x-mobipocket-ebook":"https://www.gutenberg.org/ebooks/8354.kf8.images","text/plain; charset=us-ascii":"https://www.gutenberg.org/ebooks/8354.txt.utf-8","application/rdf+xml":"https://www.gutenberg.org/ebooks/8354.rdf","image/jpeg":"https://www.gutenberg.org/cache/epub/8354/pg8354.cover.medium.jpg","application/octet-stream":"https://www.gutenberg.org/cache/epub/8354/pg8354-h.zip"},"download_count":12},{"id":8396,"title":"The Gentleman: A Romance of the Sea","authors":[{"name":"Ollivant, Alfred","birth_year":1874,"death_year":1927}],"translators":[],"subjects":["Fiction","Sea stories"],"bookshelves":[],"languages":["en"],"copyright":false,"media_type":"Text","formats":{"text/html":"https://www.gutenberg.org/ebooks/8396.html.images","application/epub+zip":"https://www.gutenberg.org/ebooks/8396.epub3.images","application/x-mobipocket-ebook":"https://www.gutenberg.org/ebooks/8396.kf8.images","text/plain; charset=us-ascii":"https://www.gutenberg.org/ebooks/8396.txt.utf-8","text/plain; charset=iso-8859-1":"https://www.gutenberg.org/files/8396/8396-8.txt","application/rdf+xml":"https://www.gutenberg.org/ebooks/8396.rdf","image/jpeg":"https://www.gutenberg.org/cache/epub/8396/pg8396.cover.medium.jpg","application/octet-stream":"https://www.gutenberg.org/cache/epub/8396/pg8396-h.zip"},"download_count":12},{"id":9009,"title":"Life on the Mississippi","authors":[{"name":"Twain, Mark","birth_year":1835,"death_year":1910}],"translators":[],"subjects":["Authors, American -- 19th century -- Biography","Mississippi River -- Description and travel","Mississippi River Valley -- Social life and customs -- 19th century","Pilots and pilotage -- Mississippi River","Twain, Mark, 1835-1910 -- Travel -- Mississippi River"],"bookshelves":[],"languages":["en"],"copyright":true,"media_type":"Sound","formats":{"text/plain; charset=us-ascii":"https://www.gutenberg.org/files/9009/9009-readme.txt","text/html; charset=iso-8859-1":"https://www.gutenberg.org/files/9009/9009-index.htm","audio/mpeg":"https://www.gutenberg.org/files/9009/mp3/9009-000.mp3","application/rdf+xml":"https://www.gutenberg.org/ebooks/9009.rdf","application/octet-stream":"https://www.gutenberg.org/files/9009/9009-mp3.zip"},"download_count":12},{"id":9029,"title":"Mark Twain's Speeches","authors":[{"name":"Twain, Mark","birth_year":1835,"death_year":1910}],"translators":[],"subjects":["Speeches, addresses, etc., American"],"bookshelves":[],"languages":["en"],"copyright":true,"media_type":"Sound","formats":{"text/plain; charset=us-ascii":"https://www.gutenberg.org/files/9029/9029-readme.txt","text/html; charset=iso-8859-1":"https://www.gutenberg.org/files/9029/9029-index.htm","audio/mpeg":"https://www.gutenberg.org/files/9029/mp3/9029-000.mp3","application/rdf+xml":"https://www.gutenberg.org/ebooks/9029.rdf","application/octet-stream":"https://www.gutenberg.org/files/9029/9029-mp3.zip"},"download_count":12},{"id":9287,"title":"The Glimpses of the Moon","authors":[{"name":"Wharton, Edith","birth_year":1862,"death_year":1937}],"translators":[],"subjects":["Americans -- Europe -- Fiction","Europe -- Fiction","Love stories","Married people -- Fiction","Socialites -- Fiction"],"bookshelves":[],"languages":["en"],"copyright":true,"media_type":"Sound","formats":{"text/plain; charset=us-ascii":"https://www.gutenberg.org/files/9287/9287-readme.txt","text/html; charset=iso-8859-1":"https://www.gutenberg.org/files/9287/9287-index.htm","audio/mpeg":"https://www.gutenberg.org/files/9287/mp3/9287-000.mp3","application/rdf+xml":"https://www.gutenberg.org/ebooks/9287.rdf","application/octet-stream":"https://www.gutenberg.org/files/9287/9287-mp3.zip"},"download_count":12},{"id":9400,"title":"A Select Collection of Old English Plays, Volume 02","authors":[],"translators":[],"subjects":["English drama"],"bookshelves":[],"languages":["en"],"copyright":false,"media_type":"Text","formats":{"text/html":"https://www.gutenberg.org/ebooks/9400.html.images","application/epub+zip":"https://www.gutenberg.org/ebooks/9400.epub3.images","application/x-mobipocket-ebook":"https://www.gutenberg.org/ebooks/9400.kf8.images","text/plain; charset=us-ascii":"https://www.gutenberg.org/ebooks/9400.txt.utf-8","text/plain; charset=iso-8859-1":"https://www.gutenberg.org/files/9400/9400-8.txt","application/rdf+xml":"https://www.gutenberg.org/ebooks/9400.rdf","image/jpeg":"https://www.gutenberg.org/cache/epub/9400/pg9400.cover.medium.jpg","application/octet-stream":"https://www.gutenberg.org/cache/epub/9400/pg9400-h.zip"},"download_count":12},{"id":9438,"title":"The Well-Beloved","authors":[{"name":"Hardy, Thomas","birth_year":1840,"death_year":1928}],"translators":[],"subjects":["Man-woman relationships -- Fiction","Mothers and daughters -- Fiction","Portland (England) -- Fiction","Psychological fiction","Sculptors -- Fiction"],"bookshelves":[],"languages":["en"],"copyright":true,"media_type":"Sound","formats":{"text/plain; charset=us-ascii":"https://www.gutenberg.org/files/9438/9438-readme.txt","text/html; charset=iso-8859-1":"https://www.gutenberg.org/files/9438/9438-index.htm","audio/mpeg":"https://www.gutenberg.org/files/9438/mp3/9438-000.mp3","application/rdf+xml":"https://www.gutenberg.org/ebooks/9438.rdf","application/octet-stream":"https://www.gutenberg.org/files/9438/9438-mp3.zip"},"download_count":12},{"id":9524,"title":"Notes on a Journey from Cornhill to Grand Cairo","authors":[{"name":"Thackeray, William Makepeace","birth_year":1811,"death_year":1863}],"translators":[],"subjects":["Europe, Southern -- Description and travel","Middle East -- Description and travel","Middle East -- In art","Thackeray, William Makepeace, 1811-1863 -- Travel -- Middle East"],"bookshelves":[],"languages":["en"],"copyright":true,"media_type":"Sound","formats":{"text/plain; charset=us-ascii":"https://www.gutenberg.org/files/9524/9524-readme.txt","text/html; charset=iso-8859-1":"https://www.gutenberg.org/files/9524/9524-index.htm","audio/mpeg":"https://www.gutenberg.org/files/9524/mp3/9524-000.mp3","application/rdf+xml":"https://www.gutenberg.org/ebooks/9524.rdf","application/octet-stream":"https://www.gutenberg.org/files/9524/9524-mp3.zip"},"download_count":12},{"id":9527,"title":"The Fatal Boots","authors":[{"name":"Thackeray, William Makepeace","birth_year":1811,"death_year":1863}],"translators":[],"subjects":["Early memories -- Fiction","England -- Social life and customs -- 19th century -- Fiction","Family life -- Fiction"],"bookshelves":[],"languages":["en"],"copyright":true,"media_type":"Sound","formats":{"text/plain; charset=us-ascii":"https://www.gutenberg.org/files/9527/9527-readme.txt","text/html; charset=iso-8859-1":"https://www.gutenberg.org/files/9527/9527-index.htm","audio/mpeg":"https://www.gutenberg.org/files/9527/mp3/9527-000.mp3","application/rdf+xml":"https://www.gutenberg.org/ebooks/9527.rdf","application/octet-stream":"https://www.gutenberg.org/files/9527/9527-mp3.zip"},"download_count":12},{"id":9532,"title":"The Lock and Key Library: Classic Mystery and Detective Stories: Old Time English","authors":[],"translators":[],"subjects":["Detective and mystery stories"],"bookshelves":[],"languages":["en"],"copyright":true,"media_type":"Sound","formats":{"text/plain; charset=us-ascii":"https://www.gutenberg.org/files/9532/9532-readme.txt","text/html; charset=iso-8859-1":"https://www.gutenberg.org/files/9532/9532-index.htm","audio/mpeg":"https://www.gutenberg.org/files/9532/mp3/9532-000.mp3","application/rdf+xml":"https://www.gutenberg.org/ebooks/9532.rdf","application/octet-stream":"https://www.gutenberg.org/files/9532/9532-mp3.zip"},"download_count":12},{"id":9536,"title":"The Newcomes: Memoirs of a Most Respectable Family","authors":[{"name":"Thackeray, William Makepeace","birth_year":1811,"death_year":1863}],"translators":[],"subjects":["Domestic fiction","Families -- England -- Fiction"],"bookshelves":[],"languages":["en"],"copyright":true,"media_type":"Sound","formats":{"text/plain; charset=us-ascii":"https://www.gutenberg.org/files/9536/9536-readme.txt","text/html; charset=iso-8859-1":"https://www.gutenberg.org/files/9536/9536-index.htm","audio/mpeg":"https://www.gutenberg.org/files/9536/mp3/9536-000.mp3","application/rdf+xml":"https://www.gutenberg.org/ebooks/9536.rdf","application/octet-stream":"https://www.gutenberg.org/files/9536/9536-mp3.zip"},"download_count":12},{"id":9568,"title":"The Frost Spirit, and other poems: Part 1 From Volume II of The Works of John Greenleaf Whittier","authors":[{"name":"Whittier, John Greenleaf","birth_year":1807,"death_year":1892}],"translators":[],"subjects":["American poetry -- 19th century"],"bookshelves":[],"languages":["en"],"copyright":false,"media_type":"Text","formats":{"text/html":"https://www.gutenberg.org/ebooks/9568.html.images","application/epub+zip":"https://www.gutenberg.org/ebooks/9568.epub3.images","application/x-mobipocket-ebook":"https://www.gutenberg.org/ebooks/9568.kf8.images","text/plain; charset=us-ascii":"https://www.gutenberg.org/ebooks/9568.txt.utf-8","application/rdf+xml":"https://www.gutenberg.org/ebooks/9568.rdf","image/jpeg":"https://www.gutenberg.org/cache/epub/9568/pg9568.cover.medium.jpg","application/octet-stream":"https://www.gutenberg.org/cache/epub/9568/pg9568-h.zip"},"download_count":12},{"id":9571,"title":"Snow Bound, and other poems: Part 4 From Volume II of The Works of John Greenleaf Whittier","authors":[{"name":"Whittier, John Greenleaf","birth_year":1807,"death_year":1892}],"translators":[],"subjects":["American poetry -- 19th century"],"bookshelves":[],"languages":["en"],"copyright":false,"media_type":"Text","formats":{"text/html":"https://www.gutenberg.org/ebooks/9571.html.images","application/epub+zip":"https://www.gutenberg.org/ebooks/9571.epub3.images","application/x-mobipocket-ebook":"https://www.gutenberg.org/ebooks/9571.kf8.images","text/plain; charset=us-ascii":"https://www.gutenberg.org/ebooks/9571.txt.utf-8","application/rdf+xml":"https://www.gutenberg.org/ebooks/9571.rdf","image/jpeg":"https://www.gutenberg.org/cache/epub/9571/pg9571.cover.medium.jpg","application/octet-stream":"https://www.gutenberg.org/cache/epub/9571/pg9571-h.zip"},"download_count":12},{"id":9673,"title":"Brother Jacob","authors":[{"name":"Eliot, George","birth_year":1819,"death_year":1880}],"translators":[],"subjects":["Brothers -- Fiction","Confectioners -- Fiction","England -- Fiction","Impostors and imposture -- Fiction","Men with mental disabilities -- Fiction"],"bookshelves":[],"languages":["en"],"copyright":true,"media_type":"Sound","formats":{"text/plain; charset=us-ascii":"https://www.gutenberg.org/files/9673/9673-readme.txt","text/html; charset=iso-8859-1":"https://www.gutenberg.org/files/9673/9673-index.htm","audio/mpeg":"https://www.gutenberg.org/files/9673/mp3/9673-000.mp3","application/rdf+xml":"https://www.gutenberg.org/ebooks/9673.rdf","application/octet-stream":"https://www.gutenberg.org/files/9673/9673-mp3.zip"},"download_count":12},{"id":9692,"title":"A Message from the Sea","authors":[{"name":"Dickens, Charles","birth_year":1812,"death_year":1870}],"translators":[],"subjects":["English fiction -- 19th century","Sea stories"],"bookshelves":[],"languages":["en"],"copyright":true,"media_type":"Sound","formats":{"text/plain; charset=us-ascii":"https://www.gutenberg.org/files/9692/9692-readme.txt","text/html; charset=iso-8859-1":"https://www.gutenberg.org/files/9692/9692-index.htm","audio/mpeg":"https://www.gutenberg.org/files/9692/mp3/9692-000.mp3","application/rdf+xml":"https://www.gutenberg.org/ebooks/9692.rdf","application/octet-stream":"https://www.gutenberg.org/files/9692/9692-mp3.zip"},"download_count":12},{"id":9704,"title":"Doctor Marigold","authors":[{"name":"Dickens, Charles","birth_year":1812,"death_year":1870}],"translators":[],"subjects":["Christmas stories","Short stories, English"],"bookshelves":[],"languages":["en"],"copyright":true,"media_type":"Sound","formats":{"text/plain; charset=us-ascii":"https://www.gutenberg.org/files/9704/9704-readme.txt","text/html; charset=iso-8859-1":"https://www.gutenberg.org/files/9704/9704-index.htm","audio/mpeg":"https://www.gutenberg.org/files/9704/mp3/9704-000.mp3","application/rdf+xml":"https://www.gutenberg.org/ebooks/9704.rdf","application/octet-stream":"https://www.gutenberg.org/files/9704/9704-mp3.zip"},"download_count":12},{"id":9734,"title":"Sketches of Young Gentlemen","authors":[{"name":"Dickens, Charles","birth_year":1812,"death_year":1870}],"translators":[],"subjects":["England -- Social life and customs -- 19th century","Young men -- England"],"bookshelves":[],"languages":["en"],"copyright":true,"media_type":"Sound","formats":{"text/plain; charset=us-ascii":"https://www.gutenberg.org/files/9734/9734-readme.txt","text/html; charset=iso-8859-1":"https://www.gutenberg.org/files/9734/9734-index.htm","audio/mpeg":"https://www.gutenberg.org/files/9734/mp3/9734-000.mp3","application/rdf+xml":"https://www.gutenberg.org/ebooks/9734.rdf","application/octet-stream":"https://www.gutenberg.org/files/9734/9734-mp3.zip"},"download_count":12},{"id":9735,"title":"Somebody's Luggage","authors":[{"name":"Dickens, Charles","birth_year":1812,"death_year":1870}],"translators":[],"subjects":["England -- Social life and customs -- 19th century -- Fiction"],"bookshelves":[],"languages":["en"],"copyright":true,"media_type":"Sound","formats":{"text/plain; charset=us-ascii":"https://www.gutenberg.org/files/9735/9735-readme.txt","text/html; charset=iso-8859-1":"https://www.gutenberg.org/files/9735/9735-index.htm","audio/mpeg":"https://www.gutenberg.org/files/9735/mp3/9735-000.mp3","application/rdf+xml":"https://www.gutenberg.org/ebooks/9735.rdf","application/octet-stream":"https://www.gutenberg.org/files/9735/9735-mp3.zip"},"download_count":12},{"id":9737,"title":"The Seven Poor Travellers","authors":[{"name":"Dickens, Charles","birth_year":1812,"death_year":1870}],"translators":[],"subjects":["Christmas stories, English"],"bookshelves":[],"languages":["en"],"copyright":true,"media_type":"Sound","formats":{"text/plain; charset=us-ascii":"https://www.gutenberg.org/files/9737/9737-readme.txt","text/html; charset=iso-8859-1":"https://www.gutenberg.org/files/9737/9737-index.htm","audio/mpeg":"https://www.gutenberg.org/files/9737/mp3/9737-000.mp3","application/rdf+xml":"https://www.gutenberg.org/ebooks/9737.rdf","application/octet-stream":"https://www.gutenberg.org/files/9737/9737-mp3.zip"},"download_count":12},{"id":9740,"title":"Tom Tiddler's Ground","authors":[{"name":"Dickens, Charles","birth_year":1812,"death_year":1870}],"translators":[],"subjects":["English fiction"],"bookshelves":[],"languages":["en"],"copyright":true,"media_type":"Sound","formats":{"text/plain; charset=us-ascii":"https://www.gutenberg.org/files/9740/9740-readme.txt","text/html; charset=iso-8859-1":"https://www.gutenberg.org/files/9740/9740-index.htm","audio/mpeg":"https://www.gutenberg.org/files/9740/mp3/9740-000.mp3","application/rdf+xml":"https://www.gutenberg.org/ebooks/9740.rdf","application/octet-stream":"https://www.gutenberg.org/files/9740/9740-mp3.zip"},"download_count":12},{"id":10091,"title":"Punchinello, Volume 2, No. 31, October 29, 1870","authors":[{"name":"Various","birth_year":null,"death_year":null}],"translators":[],"subjects":["American wit and humor -- Periodicals"],"bookshelves":["Punchinello"],"languages":["en"],"copyright":false,"media_type":"Text","formats":{"text/html":"https://www.gutenberg.org/ebooks/10091.html.images","text/html; charset=iso-8859-1":"https://www.gutenberg.org/files/10091/10091-h/10091-h.htm","application/epub+zip":"https://www.gutenberg.org/ebooks/10091.epub3.images","application/x-mobipocket-ebook":"https://www.gutenberg.org/ebooks/10091.kf8.images","text/plain; charset=us-ascii":"https://www.gutenberg.org/ebooks/10091.txt.utf-8","text/plain; charset=iso-8859-1":"https://www.gutenberg.org/files/10091/10091-8.txt","application/rdf+xml":"https://www.gutenberg.org/ebooks/10091.rdf","image/jpeg":"https://www.gutenberg.org/cache/epub/10091/pg10091.cover.medium.jpg","application/octet-stream":"https://www.gutenberg.org/cache/epub/10091/pg10091-h.zip"},"download_count":12}]}