{"count":58808,"next":"http://129.241.150.113:8000/books/?languages=en&page=1498","previous":"http://129.241.150.113:8000/books/?languages=en&page=1496","results":[{"id":65900,"title":"Over Fen and Wold","authors":[{"name":"Hissey, James John","birth_year":1847,"death_year":1921}],"translators":[],"subjects":["Lincolnshire (England) -- Description and travel"],"bookshelves":[],"languages":["en"],"copyright":false,"media_type":"Text","formats":{"text/html":"https://www.gutenberg.org/ebooks/65900.html.images","text/html; charset=utf-8":"https://www.gutenberg.org/files/65900/65900-h/65900-h.htm","application/epub+zip":"https://www.gutenberg.org/ebooks/65900.epub3.images","application/x-mobipocket-ebook":"https://www.gutenberg.org/ebooks/65900.kf8.images","text/plain; charset=us-ascii":"https://www.gutenberg.org/ebooks/65900.txt.utf-8","text/plain; charset=utf-8":"https://www.gutenberg.org/files/65900/65900-0.txt","application/rdf+xml":"https://www.gutenberg.org/ebooks/65900.rdf","image/jpeg":"https://www.gutenberg.org/cache/epub/65900/pg65900.cover.medium.jpg","application/octet-stream":"https://www.gutenberg.org/cache/epub/65900/pg65900-h.zip"},"download_count":24},{"id":65980,"title":"The Invisible Enemy","authors":[{"name":"Castle, Arnold","birth_year":null,"death_year":null}],"translators":[],"subjects":["Psychological fiction","Science fiction","Short stories","Teenage boys -- Fiction","War stories"],"bookshelves":[],"languages":["en"],"copyright":false,"media_type":"Text","formats":{"text/html":"https://www.gutenberg.org/ebooks/65980.html.images","application/epub+zip":"https://www.gutenberg.org/ebooks/65980.epub3.images","application/x-mobipocket-ebook":"https://www.gutenberg.org/ebooks/65980.kf8.images","text/plain; charset=us-ascii":"https://www.gutenberg.org/ebooks/65980.txt.utf-8","application/rdf+xml":"https://www.gutenberg.org/ebooks/65980.rdf","image/jpeg":"https://www.gutenberg.org/cache/epub/65980/pg65980.cover.medium.jpg","application/octet-stream":"https://www.gutenberg.org/files/65980/65980-0.zip"},"download_count":24},{"id":66021,"title":"Armageddon, 1970","authors":[{"name":"Krepps, Robert W.","birth_year":1919,"death_year":1980}],"translators":[],"subjects":["Adventure stories","Human-alien encounters -- Fiction","Science fiction"],"bookshelves":[],"languages":["en"],"copyright":false,"media_type":"Text","formats":{"text/html":"https://www.gutenberg.org/ebooks/66021.html.images","text/html; charset=utf-8":"https://www.gutenberg.org/files/66021/66021-h/66021-h.htm","application/epub+zip":"https://www.gutenberg.org/ebooks/66021.epub3.images","application/x-mobipocket-ebook":"https://www.gutenberg.org/ebooks/66021.kf8.images","text/plain; charset=us-ascii":"https://www.gutenberg.org/ebooks/66021.txt.utf-8","text/plain; charset=utf-8":"https://www.gutenberg.org/files/66021/66021-0.txt","application/rdf+xml":"https://www.gutenberg.org/ebooks/66021.rdf","image/jpeg":"https://www.gutenberg.org/cache/epub/66021/pg66021.cover.medium.jpg","application/octet-stream":"https://www.gutenberg.org/cache/epub/66021/pg66021-h.zip"},"download_count":24},{"id":66151,"title":"Lesson for Today","authors":[{"name":"Nydahl, Joel","birth_year":null,"death_year":null}],"translators":[],"subjects":["Apocalyptic fiction","Human-alien encounters -- Fiction","Mothers and sons -- Fiction","Science fiction","Short stories"],"bookshelves":[],"languages":["en"],"copyright":false,"media_type":"Text","formats":{"text/html":"https://www.gutenberg.org/ebooks/66151.html.images","application/epub+zip":"https://www.gutenberg.org/ebooks/66151.epub3.images","application/x-mobipocket-ebook":"https://www.gutenberg.org/ebooks/66151.kf8.images","text/plain; charset=us-ascii":"https://www.gutenberg.org/ebooks/66151.txt.utf-8","application/rdf+xml":"https://www.gutenberg.org/ebooks/66151.rdf","image/jpeg":"https://www.gutenberg.org/cache/epub/66151/pg66151.cover.medium.jpg","application/octet-stream":"https://www.gutenberg.org/files/66151/66151-0.zip"},"download_count":24},{"id":66220,"title":"Mancala, the National Game of Africa","authors":[{"name":"Culin, Stewart","birth_year":1858,"death_year":1929}],"translators":[],"subjects":["Board games -- Africa","Games -- Africa","Mancala (Game)"],"bookshelves":[],"languages":["en"],"copyright":false,"media_type":"Text","formats":{"text/html":"https://www.gutenberg.org/ebooks/66220.html.images","application/epub+zip":"https://www.gutenberg.org/ebooks/66220.epub3.images","application/x-mobipocket-ebook":"https://www.gutenberg.org/ebooks/66220.kf8.images","text/plain; charset=us-ascii":"https://www.gutenberg.org/ebooks/66220.txt.utf-8","application/rdf+xml":"https://www.gutenberg.org/ebooks/66220.rdf","image/jpeg":"https://www.gutenberg.org/cache/epub/66220/pg66220.cover.medium.jpg","application/octet-stream":"https://www.gutenberg.org/files/66220/66220-0.zip"},"download_count":24},{"id":66422,"title":"Style and the Man","authors":[{"name":"Nicholson, Meredith","birth_year":1866,"death_year":1947}],"translators":[],"subjects":["Literary style"],"bookshelves":[],"languages":["en"],"copyright":false,"media_type":"Text","formats":{"text/html":"https://www.gutenberg.org/ebooks/66422.html.images","application/epub+zip":"https://www.gutenberg.org/ebooks/66422.epub3.images","application/x-mobipocket-ebook":"https://www.gutenberg.org/ebooks/66422.kf8.images","text/plain; charset=us-ascii":"https://www.gutenberg.org/ebooks/66422.txt.utf-8","application/rdf+xml":"https://www.gutenberg.org/ebooks/66422.rdf","image/jpeg":"https://www.gutenberg.org/cache/epub/66422/pg66422.cover.medium.jpg","application/octet-stream":"https://www.gutenberg.org/files/66422/66422-0.zip"},"download_count":24},{"id":66436,"title":"Trouble Near the Sun","authors":[{"name":"Ramm, Alan J.","birth_year":null,"death_year":null}],"translators":[],"subjects":["Interpersonal relations -- Fiction","Rescues -- Fiction","Science fiction","Short stories","Space ships -- Fiction"],"bookshelves":[],"languages":["en"],"copyright":false,"media_type":"Text","formats":{"text/html":"https://www.gutenberg.org/ebooks/66436.html.images","application/epub+zip":"https://www.gutenberg.org/ebooks/66436.epub3.images","application/x-mobipocket-ebook":"https://www.gutenberg.org/ebooks/66436.kf8.images","text/plain; charset=us-ascii":"https://www.gutenberg.org/ebooks/66436.txt.utf-8","application/rdf+xml":"https://www.gutenberg.org/ebooks/66436.rdf","image/jpeg":"https://www.gutenberg.org/cache/epub/66436/pg66436.cover.medium.jpg","application/octet-stream":"https://www.gutenberg.org/files/66436/66436-0.zip"},"download_count":24},{"id":66450,"title":"Billy Whiskers Out for Fun","authors":[{"name":"Montgomery, Frances Trego","birth_year":1858,"death_year":1925}],"translators":[],"subjects":["Adventure stories","Animals -- Juvenile fiction","Goats -- Juvenile fiction"],"bookshelves":[],"languages":["en"],"copyright":false,"media_type":"Text","formats":{"text/html":"https://www.gutenberg.org/ebooks/66450.html.images","application/epub+zip":"https://www.gutenberg.org/ebooks/66450.epub3.images","application/x-mobipocket-ebook":"https://www.gutenberg.org/ebooks/66450.kf8.images","text/plain; charset=us-ascii":"https://www.gutenberg.org/ebooks/66450.txt.utf-8","application/rdf+xml":"https://www.gutenberg.org/ebooks/66450.rdf","image/jpeg":"https://www.gutenberg.org/cache/epub/66450/pg66450.cover.medium.jpg","application/octet-stream":"https://www.gutenberg.org/files/66450/66450-0.zip"},"download_count":24},{"id":66467,"title":"Rev. T. Connellan, to his dearly beloved brethren, the Roman Catholics of the diocese of Elphin","authors":[{"name":"Connellan, Thomas","birth_year":1854,"death_year":null}],"translators":[],"subjects":["Catholic Church -- Controversial literature","Catholic ex-priests -- Ireland"],"bookshelves":[],"languages":["en"],"copyright":false,"media_type":"Text","formats":{"text/html":"https://www.gutenberg.org/ebooks/66467.html.images","application/epub+zip":"https://www.gutenberg.org/ebooks/66467.epub3.images","application/x-mobipocket-ebook":"https://www.gutenberg.org/ebooks/66467.kf8.images","text/plain; charset=us-ascii":"https://www.gutenberg.org/ebooks/66467.txt.utf-8","application/rdf+xml":"https://www.gutenberg.org/ebooks/66467.rdf","image/jpeg":"https://www.gutenberg.org/cache/epub/66467/pg66467.cover.medium.jpg","application/octet-stream":"https://www.gutenberg.org/files/66467/66467-0.zip"},"download_count":24},{"id":66550,"title":"Farewell","authors":[{"name":"Harvey, F. W. (Frederick William)","birth_year":1888,"death_year":1957}],"translators":[],"subjects":["English poetry -- 20th century"],"bookshelves":[],"languages":["en"],"copyright":false,"media_type":"Text","formats":{"text/html":"https://www.gutenberg.org/ebooks/66550.html.images","application/epub+zip":"https://www.gutenberg.org/ebooks/66550.epub3.images","application/x-mobipocket-ebook":"https://www.gutenberg.org/ebooks/66550.kf8.images","text/plain; charset=us-ascii":"https://www.gutenberg.org/ebooks/66550.txt.utf-8","application/rdf+xml":"https://www.gutenberg.org/ebooks/66550.rdf","image/jpeg":"https://www.gutenberg.org/cache/epub/66550/pg66550.cover.medium.jpg","application/octet-stream":"https://www.gutenberg.org/files/66550/66550-0.zip"},"download_count":24},{"id":66703,"title":"The Story of a Boulder; or, Gleanings from the Note-book of a Field Geologist","authors":[{"name":"Geikie, Archibald","birth_year":1835,"death_year":1924}],"translators":[],"subjects":["Geology","Petrology"],"bookshelves":[],"languages":["en"],"copyright":false,"media_type":"Text","formats":{"text/html":"https://www.gutenberg.org/ebooks/66703.html.images","application/epub+zip":"https://www.gutenberg.org/ebooks/66703.epub3.images","application/x-mobipocket-ebook":"https://www.gutenberg.org/ebooks/66703.kf8.images","text/plain; charset=us-ascii":"https://www.gutenberg.org/ebooks/66703.txt.utf-8","application/rdf+xml":"https://www.gutenberg.org/ebooks/66703.rdf","image/jpeg":"https://www.gutenberg.org/cache/epub/66703/pg66703.cover.medium.jpg","application/octet-stream":"https://www.gutenberg.org/files/66703/66703-0.zip"},"download_count":24},{"id":66728,"title":"The Kingmakers","authors":[{"name":"Stevenson, Burton Egbert","birth_year":1872,"death_year":1962}],"translators":[],"subjects":["Imaginary places -- Europe, Eastern -- Fiction","Kings and rulers -- Fiction","Man-woman relationships -- Fiction","Riviera (France) -- Fiction"],"bookshelves":[],"languages":["en"],"copyright":false,"media_type":"Text","formats":{"text/html":"https://www.gutenberg.org/ebooks/66728.html.images","application/epub+zip":"https://www.gutenberg.org/ebooks/66728.epub3.images","application/x-mobipocket-ebook":"https://www.gutenberg.org/ebooks/66728.kf8.images","text/plain; charset=us-ascii":"https://www.gutenberg.org/ebooks/66728.txt.utf-8","application/rdf+xml":"https://www.gutenberg.org/ebooks/66728.rdf","image/jpeg":"https://www.gutenberg.org/cache/epub/66728/pg66728.cover.medium.jpg","application/octet-stream":"https://www.gutenberg.org/files/66728/66728-0.zip"},"download_count":24},{"id":66748,"title":"Chambers's Journal of Popular Literature, Science, and Art, Fifth Series, No. 52, Vol. I, December 27, 1884","authors":[{"name":"Various","birth_year":null,"death_year":null}],"translators":[],"subjects":["Periodicals"],"bookshelves":[],"languages":["en"],"copyright":false,"media_type":"Text","formats":{"text/html":"https://www.gutenberg.org/ebooks/66748.html.images","application/epub+zip":"https://www.gutenberg.org/ebooks/66748.epub3.images","application/x-mobipocket-ebook":"https://www.gutenberg.org/ebooks/66748.kf8.images","text/plain; charset=us-ascii":"https://www.gutenberg.org/ebooks/66748.txt.utf-8","application/rdf+xml":"https://www.gutenberg.org/ebooks/66748.rdf","image/jpeg":"https://www.gutenberg.org/cache/epub/66748/pg66748.cover.medium.jpg","application/octet-stream":"https://www.gutenberg.org/files/66748/66748-0.zip"},"download_count":24},{"id":66854,"title":"The Mason-Wasps","authors":[{"name":"Fabre, Jean-Henri","birth_year":1823,"death_year":1915}],"translators":[{"name":"Teixeira de Mattos, Alexander","birth_year":1865,"death_year":1921}],"subjects":["Wasps"],"bookshelves":[],"languages":["en"],"copyright":false,"media_type":"Text","formats":{"text/html":"https://www.gutenberg.org/ebooks/66854.html.images","application/epub+zip":"https://www.gutenberg.org/ebooks/66854.epub3.images","application/x-mobipocket-ebook":"https://www.gutenberg.org/ebooks/66854.kf8.images","text/plain; charset=us-ascii":"https://www.gutenberg.org/ebooks/66854.txt.utf-8","application/rdf+xml":"https://www.gutenberg.org/ebooks/66854.rdf","image/jpeg":"https://www.gutenberg.org/cache/epub/66854/pg66854.cover.medium.jpg","application/octet-stream":"https://www.gutenberg.org/files/66854/66854-0.zip"},"download_count":24},{"id":66884,"title":"Joseph and His Brethren","authors":[{"name":"Tweedie, W. K. (William King)","birth_year":1803,"death_year":1863}],"translators":[],"subjects":["Bible stories, English -- Juvenile literature","Brothers -- Juvenile literature","Christian life -- Juvenile literature","Jealousy -- Juvenile literature","Joseph (Son of Jacob) -- Juvenile literature"],"bookshelves":[],"languages":["en"],"copyright":false,"media_type":"Text","formats":{"text/html":"https://www.gutenberg.org/ebooks/66884.html.images","application/epub+zip":"https://www.gutenberg.org/ebooks/66884.epub3.images","application/x-mobipocket-ebook":"https://www.gutenberg.org/ebooks/66884.kf8.images","text/plain; charset=us-ascii":"https://www.gutenberg.org/ebooks/66884.txt.utf-8","application/rdf+xml":"https://www.gutenberg.org/ebooks/66884.rdf","image/jpeg":"https://www.gutenberg.org/cache/epub/66884/pg66884.cover.medium.jpg","application/octet-stream":"https://www.gutenberg.org/files/66884/66884-0.zip"},"download_count":24},{"id":67046,"title":"Virginia of V. M. Ranch","authors":[{"name":"North, Grace May","birth_year":1876,"death_year":1960}],"translators":[],"subjects":["Arizona -- Juvenile fiction","Girls -- Juvenile fiction","Guardian and ward -- Juvenile fiction","Ranch life -- Juvenile fiction"],"bookshelves":[],"languages":["en"],"copyright":false,"media_type":"Text","formats":{"text/html":"https://www.gutenberg.org/ebooks/67046.html.images","application/epub+zip":"https://www.gutenberg.org/ebooks/67046.epub3.images","application/x-mobipocket-ebook":"https://www.gutenberg.org/ebooks/67046.kf8.images","text/plain; charset=us-ascii":"https://www.gutenberg.org/ebooks/67046.txt.utf-8","application/rdf+xml":"https://www.gutenberg.org/ebooks/67046.rdf","image/jpeg":"https://www.gutenberg.org/cache/epub/67046/pg67046.cover.medium.jpg","application/octet-stream":"https://www.gutenberg.org/files/67046/67046-0.zip"},"download_count":24},{"id":67057,"title":"Polly in the Southwest","authors":[{"name":"Roy, Lillian Elizabeth","birth_year":1868,"death_year":1932}],"translators":[],"subjects":["Southwest, New -- Juvenile fiction","Young women -- Juvenile fiction"],"bookshelves":[],"languages":["en"],"copyright":false,"media_type":"Text","formats":{"text/html":"https://www.gutenberg.org/ebooks/67057.html.images","application/epub+zip":"https://www.gutenberg.org/ebooks/67057.epub3.images","application/x-mobipocket-ebook":"https://www.gutenberg.org/ebooks/67057.kf8.images","text/plain; charset=us-ascii":"https://www.gutenberg.org/ebooks/67057.txt.utf-8","application/rdf+xml":"https://www.gutenberg.org/ebooks/67057.rdf","image/jpeg":"https://www.gutenberg.org/cache/epub/67057/pg67057.cover.medium.jpg","application/octet-stream":"https://www.gutenberg.org/files/67057/67057-0.zip"},"download_count":24},{"id":67082,"title":"Nick Carter Stories No. 11, November 23, 1912: Nick Carter Strikes Oil; or, Uncovering More Than a Murder","authors":[{"name":"Carter, Nicholas (House name)","birth_year":null,"death_year":null},{"name":"Bradshaw, Alden F.","birth_year":null,"death_year":null}],"translators":[],"subjects":["Detective and mystery stories, American -- Periodicals","Popular literature -- Periodicals"],"bookshelves":[],"languages":["en"],"copyright":false,"media_type":"Text","formats":{"text/html":"https://www.gutenberg.org/ebooks/67082.html.images","application/epub+zip":"https://www.gutenberg.org/ebooks/67082.epub3.images","application/x-mobipocket-ebook":"https://www.gutenberg.org/ebooks/67082.kf8.images","text/plain; charset=us-ascii":"https://www.gutenberg.org/ebooks/67082.txt.utf-8","application/rdf+xml":"https://www.gutenberg.org/ebooks/67082.rdf","image/jpeg":"https://www.gutenberg.org/cache/epub/67082/pg67082.cover.medium.jpg","application/octet-stream":"https://www.gutenberg.org/files/67082/67082-0.zip"},"download_count":24},{"id":67195,"title":"The Poor Man","authors":[{"name":"Benson, Stella","birth_year":1892,"death_year":1933}],"translators":[],"subjects":["British -- California -- Fiction","British -- China -- Fiction","Man-woman relationships -- Fiction"],"bookshelves":[],"languages":["en"],"copyright":false,"media_type":"Text","formats":{"text/html":"https://www.gutenberg.org/ebooks/67195.html.images","application/epub+zip":"https://www.gutenberg.org/ebooks/67195.epub3.images","application/x-mobipocket-ebook":"https://www.gutenberg.org/ebooks/67195.kf8.images","text/plain; charset=us-ascii":"https://www.gutenberg.org/ebooks/67195.txt.utf-8","application/rdf+xml":"https://www.gutenberg.org/ebooks/67195.rdf","image/jpeg":"https://www.gutenberg.org/cache/epub/67195/pg67195.cover.medium.jpg","application/octet-stream":"https://www.gutenberg.org/files/67195/67195-0.zip"},"download_count":24},{"id":67221,"title":"Pueblo pottery making: a study at the village of San Ildefonso","authors":[{"name":"Guthe, Carl E. (Carl Eugen)","birth_year":1893,"death_year":1974}],"translators":[],"subjects":["Indian pottery -- North America","Pottery -- New Mexico -- San Ildefonso Pueblo","Pueblo art","Pueblo pottery","San Ildefonso Pueblo (N.M.)"],"bookshelves":[],"languages":["en"],"copyright":false,"media_type":"Text","formats":{"text/html":"https://www.gutenberg.org/ebooks/67221.html.images","application/epub+zip":"https://www.gutenberg.org/ebooks/67221.epub3.images","application/x-mobipocket-ebook":"https://www.gutenberg.org/ebooks/67221.kf8.images","text/plain; charset=us-ascii":"https://www.gutenberg.org/ebooks/67221.txt.utf-8","application/rdf+xml":"https://www.gutenberg.org/ebooks/67221.rdf","image/jpeg":"https://www.gutenberg.org/cache/epub/67221/pg67221.cover.medium.jpg","application/octet-stream":"https://www.gutenberg.org/files/67221/67221-0.zip"},"download_count":24},{"id":67247,"title":"The Real Question as to Altar Lights: Christ's Body Present by Consecration, and Offered in the Sacrament of the Altar: A Letter to the Rev. John W.H. Molyneux","authors":[{"name":"Phipps, Edward James","birth_year":null,"death_year":null}],"translators":[],"subjects":["Church of England -- Doctrines","Lord's Supper -- Church of England","Ritualism"],"bookshelves":[],"languages":["en"],"copyright":false,"media_type":"Text","formats":{"text/html":"https://www.gutenberg.org/ebooks/67247.html.images","application/epub+zip":"https://www.gutenberg.org/ebooks/67247.epub3.images","application/x-mobipocket-ebook":"https://www.gutenberg.org/ebooks/67247.kf8.images","text/plain; charset=us-ascii":"https://www.gutenberg.org/ebooks/67247.txt.utf-8","application/rdf+xml":"https://www.gutenberg.org/ebooks/67247.rdf","image/jpeg":"https://www.gutenberg.org/cache/epub/67247/pg67247.cover.medium.jpg","application/octet-stream":"https://www.gutenberg.org/files/67247/67247-0.zip"},"download_count":24},{"id":67277,"title":"Life of Her Majesty Queen Victoria","authors":[{"name":"Fawcett, Millicent Garrett, Dame","birth_year":1847,"death_year":1929}],"translators":[],"subjects":["Victoria, Queen of Great Britain, 1819-1901"],"bookshelves":[],"languages":["en"],"copyright":false,"media_type":"Text","formats":{"text/html":"https://www.gutenberg.org/ebooks/67277.html.images","application/epub+zip":"https://www.gutenberg.org/ebooks/67277.epub3.images","application/x-mobipocket-ebook":"https://www.gutenberg.org/ebooks/67277.kf8.images","text/plain; charset=us-ascii":"https://www.gutenberg.org/ebooks/67277.txt.utf-8","application/rdf+xml":"https://www.gutenberg.org/ebooks/67277.rdf","image/jpeg":"https://www.gutenberg.org/cache/epub/67277/pg67277.cover.medium.jpg","application/octet-stream":"https://www.gutenberg.org/files/67277/67277-0.zip"},"download_count":24},{"id":67367,"title":"The Importance of Marking Historic Spots, an Address","authors":[{"name":"Shoemaker, Henry W.","birth_year":1880,"death_year":1958}],"translators":[],"subjects":["Historic sites -- Pennsylvania","Historical markers"],"bookshelves":[],"languages":["en"],"copyright":false,"media_type":"Text","formats":{"text/html":"https://www.gutenberg.org/ebooks/67367.html.images","application/epub+zip":"https://www.gutenberg.org/ebooks/67367.epub3.images","application/x-mobipocket-ebook":"https://www.gutenberg.org/ebooks/67367.kf8.images","text/plain; charset=us-ascii":"https://www.gutenberg.org/ebooks/67367.txt.utf-8","application/rdf+xml":"https://www.gutenberg.org/ebooks/67367.rdf","image/jpeg":"https://www.gutenberg.org/cache/epub/67367/pg67367.cover.medium.jpg","application/octet-stream":"https://www.gutenberg.org/files/67367/67367-0.zip"},"download_count":24},{"id":67386,"title":"A Preliminary Dissertation on the Mechanisms of the Heavens","authors":[{"name":"Somerville, Mary","birth_year":1780,"death_year":1872}],"translators":[],"subjects":["Celestial mechanics"],"bookshelves":[],"languages":["en"],"copyright":false,"media_type":"Text","formats":{"text/html":"https://www.gutenberg.org/ebooks/67386.html.images","application/epub+zip":"https://www.gutenberg.org/ebooks/67386.epub3.images","application/x-mobipocket-ebook":"https://www.gutenberg.org/ebooks/67386.kf8.images","text/plain; charset=us-ascii":"https://www.gutenberg.org/ebooks/67386.txt.utf-8","application/rdf+xml":"https://www.gutenberg.org/ebooks/67386.rdf","image/jpeg":"https://www.gutenberg.org/cache/epub/67386/pg67386.cover.medium.jpg","application/octet-stream":"https://www.gutenberg.org/files/67386/67386-0.zip"},"download_count":24},{"id":67418,"title":"The Wilderness Trail","authors":[{"name":"Bedford-Jones, H. (Henry)","birth_year":1887,"death_year":1949}],"translators":[],"subjects":["United States -- History -- 19th century -- Fiction"],"bookshelves":[],"languages":["en"],"copyright":false,"media_type":"Text","formats":{"text/html":"https://www.gutenberg.org/ebooks/67418.html.images","application/epub+zip":"https://www.gutenberg.org/ebooks/67418.epub3.images","application/x-mobipocket-ebook":"https://www.gutenberg.org/ebooks/67418.kf8.images","text/plain; charset=us-ascii":"https://www.gutenberg.org/ebooks/67418.txt.utf-8","application/rdf+xml":"https://www.gutenberg.org/ebooks/67418.rdf","image/jpeg":"https://www.gutenberg.org/cache/epub/67418/pg67418.cover.medium.jpg","application/octet-stream":"https://www.gutenberg.org/files/67418/67418-0.zip"},"download_count":24},{"id":67449,"title":"De Camp Genealogy: Laurent De Camp of New Utrecht, N.Y., 1664, and his descendants","authors":[{"name":"Morrison, George Austin","birth_year":1864,"death_year":1916}],"translators":[],"subjects":["DeCamp family","DeCamp, Laurent, approximately 1645-","New Utrecht (New York, N.Y.) -- Genealogy"],"bookshelves":[],"languages":["en"],"copyright":false,"media_type":"Text","formats":{"text/html":"https://www.gutenberg.org/ebooks/67449.html.images","application/epub+zip":"https://www.gutenberg.org/ebooks/67449.epub3.images","application/x-mobipocket-ebook":"https://www.gutenberg.org/ebooks/67449.kf8.images","text/plain; charset=us-ascii":"https://www.gutenberg.org/ebooks/67449.txt.utf-8","application/rdf+xml":"https://www.gutenberg.org/ebooks/67449.rdf","image/jpeg":"https://www.gutenberg.org/cache/epub/67449/pg67449.cover.medium.jpg","application/octet-stream":"https://www.gutenberg.org/files/67449/67449-0.zip"},"download_count":24},{"id":67497,"title":"The Fool","authors":[{"name":"Mason, David","birth_year":1924,"death_year":1974}],"translators":[],"subjects":["Human-alien encounters -- Fiction","Life on other planets -- Fiction","Religion -- Fiction","Science fiction","Short stories"],"bookshelves":[],"languages":["en"],"copyright":false,"media_type":"Text","formats":{"text/html":"https://www.gutenberg.org/ebooks/67497.html.images","application/epub+zip":"https://www.gutenberg.org/ebooks/67497.epub3.images","application/x-mobipocket-ebook":"https://www.gutenberg.org/ebooks/67497.kf8.images","text/plain; charset=us-ascii":"https://www.gutenberg.org/ebooks/67497.txt.utf-8","application/rdf+xml":"https://www.gutenberg.org/ebooks/67497.rdf","image/jpeg":"https://www.gutenberg.org/cache/epub/67497/pg67497.cover.medium.jpg","application/octet-stream":"https://www.gutenberg.org/files/67497/67497-0.zip"},"download_count":24},{"id":67548,"title":"History of a World of Immortals without a God: Translated from an unpublished manuscript in the library of a continental university","authors":[],"translators":[{"name":"Barlow, James William","birth_year":1826,"death_year":1913}],"subjects":["Science fiction","Utopias -- Fiction"],"bookshelves":[],"languages":["en"],"copyright":false,"media_type":"Text","formats":{"text/html":"https://www.gutenberg.org/ebooks/67548.html.images","application/epub+zip":"https://www.gutenberg.org/ebooks/67548.epub3.images","application/x-mobipocket-ebook":"https://www.gutenberg.org/ebooks/67548.kf8.images","text/plain; charset=us-ascii":"https://www.gutenberg.org/ebooks/67548.txt.utf-8","application/rdf+xml":"https://www.gutenberg.org/ebooks/67548.rdf","image/jpeg":"https://www.gutenberg.org/cache/epub/67548/pg67548.cover.medium.jpg","application/octet-stream":"https://www.gutenberg.org/files/67548/67548-0.zip"},"download_count":24},{"id":67550,"title":"Troubled Waters","authors":[{"name":"Sinclair, Bertrand W.","birth_year":1881,"death_year":1972}],"translators":[],"subjects":["British Columbia -- Fiction","Loggers -- Fiction","Man-woman relationships -- Fiction","Triangles (Interpersonal relations) -- Fiction"],"bookshelves":[],"languages":["en"],"copyright":false,"media_type":"Text","formats":{"text/html":"https://www.gutenberg.org/ebooks/67550.html.images","application/epub+zip":"https://www.gutenberg.org/ebooks/67550.epub3.images","application/x-mobipocket-ebook":"https://www.gutenberg.org/ebooks/67550.kf8.images","text/plain; charset=us-ascii":"https://www.gutenberg.org/ebooks/67550.txt.utf-8","application/rdf+xml":"https://www.gutenberg.org/ebooks/67550.rdf","image/jpeg":"https://www.gutenberg.org/cache/epub/67550/pg67550.cover.medium.jpg","application/octet-stream":"https://www.gutenberg.org/files/67550/67550-0.zip"},"download_count":24},{"id":67577,"title":"We Women and Our Authors","authors":[{"name":"Marholm, Laura","birth_year":1854,"death_year":1928}],"translators":[{"name":"Ramsden, Hermione Charlotte","birth_year":1867,"death_year":1951}],"subjects":["Women -- Social and moral questions","Women in literature"],"bookshelves":[],"languages":["en"],"copyright":false,"media_type":"Text","formats":{"text/html":"https://www.gutenberg.org/ebooks/67577.html.images","application/epub+zip":"https://www.gutenberg.org/ebooks/67577.epub3.images","application/x-mobipocket-ebook":"https://www.gutenberg.org/ebooks/67577.kf8.images","text/plain; charset=us-ascii":"https://www.gutenberg.org/ebooks/67577.txt.utf-8","application/rdf+xml":"https://www.gutenberg.org/ebooks/67577.rdf","image/jpeg":"https://www.gutenberg.org/cache/epub/67577/pg67577.cover.medium.jpg","application/octet-stream":"https://www.gutenberg.org/files/67577/67577-0.zip"},"download_count":24},{"id":67590,"title":"A Son of the Ages: The Reincarnations and Adventures of Scar, the Link: A Story of Man From the Beginning","authors":[{"name":"Waterloo, Stanley","birth_year":1846,"death_year":1913}],"translators":[],"subjects":["Prehistoric peoples -- Fiction","Science fiction"],"bookshelves":[],"languages":["en"],"copyright":false,"media_type":"Text","formats":{"text/html":"https://www.gutenberg.org/ebooks/67590.html.images","application/epub+zip":"https://www.gutenberg.org/ebooks/67590.epub3.images","application/x-mobipocket-ebook":"https://www.gutenberg.org/ebooks/67590.kf8.images","text/plain; charset=us-ascii":"https://www.gutenberg.org/ebooks/67590.txt.utf-8","application/rdf+xml":"https://www.gutenberg.org/ebooks/67590.rdf","image/jpeg":"https://www.gutenberg.org/cache/epub/67590/pg67590.cover.medium.jpg","application/octet-stream":"https://www.gutenberg.org/files/67590/67590-0.zip"},"download_count":24},{"id":67673,"title":"Recollections: The Reminiscences of the Busy Life of One Who Has Played the Varied Parts of Sailor, Author & Lecturer","authors":[{"name":"Bullen, Frank Thomas","birth_year":1857,"death_year":1915}],"translators":[],"subjects":["Authors, English -- 20th century -- Biography","Bullen, Frank Thomas, 1857-1915","Lecturers -- Great Britain -- Biography"],"bookshelves":[],"languages":["en"],"copyright":false,"media_type":"Text","formats":{"text/html":"https://www.gutenberg.org/ebooks/67673.html.images","application/epub+zip":"https://www.gutenberg.org/ebooks/67673.epub3.images","application/x-mobipocket-ebook":"https://www.gutenberg.org/ebooks/67673.kf8.images","text/plain; charset=us-ascii":"https://www.gutenberg.org/ebooks/67673.txt.utf-8","application/rdf+xml":"https://www.gutenberg.org/ebooks/67673.rdf","image/jpeg":"https://www.gutenberg.org/cache/epub/67673/pg67673.cover.medium.jpg","application/octet-stream":"https://www.gutenberg.org/files/67673/67673-0.zip"},"download_count":24}]}