{"count":58808,"next":"http://129.241.150.113:8000/books/?languages=en&page=1335","previous":"http://129.241.150.113:8000/books/?languages=en&page=1333","results":[{"id":70837,"title":"Thrice wedded, but only once a wife","authors":[{"name":"Sheldon, Georgie, Mrs.","birth_year":1843,"death_year":1926}],"translators":[],"subjects":["Dime novels","Romance fiction"],"bookshelves":[],"languages":["en"],"copyright":false,"media_type":"Text","formats":{"text/html":"https://www.gutenberg.org/ebooks/70837.html.images","application/epub+zip":"https://www.gutenberg.org/ebooks/70837.epub3.images","application/x-mobipocket-ebook":"https://www.gutenberg.org/ebooks/70837.kf8.images","text/plain; charset=us-ascii":"https://www.gutenberg.org/ebooks/70837.txt.utf-8","application/rdf+xml":"https://www.gutenberg.org/ebooks/70837.rdf","image/jpeg":"https://www.gutenberg.org/cache/epub/70837/pg70837.cover.medium.jpg","application/octet-stream":"https://www.gutenberg.org/files/70837/70837-0.zip"},"download_count":28},{"id":70953,"title":"The model prayer : $b A series of expositions on \"the Lord's prayer\"","authors":[{"name":"Jones, J. D. (John Daniel)","birth_year":1865,"death_year":1942}],"translators":[],"subjects":["Lord's prayer"],"bookshelves":[],"languages":["en"],"copyright":false,"media_type":"Text","formats":{"text/html":"https://www.gutenberg.org/ebooks/70953.html.images","application/epub+zip":"https://www.gutenberg.org/ebooks/70953.epub3.images","application/x-mobipocket-ebook":"https://www.gutenberg.org/ebooks/70953.kf8.images","text/plain; charset=us-ascii":"https://www.gutenberg.org/ebooks/70953.txt.utf-8","application/rdf+xml":"https://www.gutenberg.org/ebooks/70953.rdf","image/jpeg":"https://www.gutenberg.org/cache/epub/70953/pg70953.cover.medium.jpg","application/octet-stream":"https://www.gutenberg.org/files/70953/70953-0.zip"},"download_count":28},{"id":70967,"title":"The unhallowed harvest","authors":[{"name":"Greene, Homer","birth_year":1853,"death_year":1940}],"translators":[],"subjects":["Capitalism -- Fiction","Clergy -- Fiction","Industrial relations -- Fiction","Interpersonal relations -- Fiction","Mills and mill-work -- Fiction","Socialism -- Fiction","Strikes and lockouts -- Fiction"],"bookshelves":[],"languages":["en"],"copyright":false,"media_type":"Text","formats":{"text/html":"https://www.gutenberg.org/ebooks/70967.html.images","application/epub+zip":"https://www.gutenberg.org/ebooks/70967.epub3.images","application/x-mobipocket-ebook":"https://www.gutenberg.org/ebooks/70967.kf8.images","text/plain; charset=us-ascii":"https://www.gutenberg.org/ebooks/70967.txt.utf-8","application/rdf+xml":"https://www.gutenberg.org/ebooks/70967.rdf","image/jpeg":"https://www.gutenberg.org/cache/epub/70967/pg70967.cover.medium.jpg","application/octet-stream":"https://www.gutenberg.org/files/70967/70967-0.zip"},"download_count":28},{"id":70980,"title":"Printing and bookbinding for schools","authors":[{"name":"Vaughn, Samuel Jesse","birth_year":1877,"death_year":null}],"translators":[],"subjects":["Bookbinding","Printing"],"bookshelves":[],"languages":["en"],"copyright":false,"media_type":"Text","formats":{"text/html":"https://www.gutenberg.org/ebooks/70980.html.images","application/epub+zip":"https://www.gutenberg.org/ebooks/70980.epub3.images","application/x-mobipocket-ebook":"https://www.gutenberg.org/ebooks/70980.kf8.images","text/plain; charset=us-ascii":"https://www.gutenberg.org/ebooks/70980.txt.utf-8","application/rdf+xml":"https://www.gutenberg.org/ebooks/70980.rdf","image/jpeg":"https://www.gutenberg.org/cache/epub/70980/pg70980.cover.medium.jpg","application/octet-stream":"https://www.gutenberg.org/files/70980/70980-0.zip"},"download_count":28},{"id":71048,"title":"Memoirs of the Princesse de Ligne, Vol. 1 (of 2)","authors":[{"name":"Massalska, Apolonia Helena","birth_year":1763,"death_year":1815}],"translators":[{"name":"Ensor, Laura","birth_year":null,"death_year":null}],"subjects":["Ligne, Charles Joseph, prince de, 1735-1814","Massalska, Apolonia Helena, 1763-1815"],"bookshelves":[],"languages":["en"],"copyright":false,"media_type":"Text","formats":{"text/html":"https://www.gutenberg.org/ebooks/71048.html.images","application/epub+zip":"https://www.gutenberg.org/ebooks/71048.epub3.images","application/x-mobipocket-ebook":"https://www.gutenberg.org/ebooks/71048.kf8.images","text/plain; charset=us-ascii":"https://www.gutenberg.org/ebooks/71048.txt.utf-8","application/rdf+xml":"https://www.gutenberg.org/ebooks/71048.rdf","image/jpeg":"https://www.gutenberg.org/cache/epub/71048/pg71048.cover.medium.jpg","application/octet-stream":"https://www.gutenberg.org/files/71048/71048-0.zip"},"download_count":28},{"id":71080,"title":"The rag pickers : $b and other stories","authors":[{"name":"Leslie, Madeline","birth_year":1815,"death_year":1893}],"translators":[],"subjects":["Animal welfare -- Juvenile fiction","Children -- Death -- Juvenile fiction","Children's stories","Christian life -- Juvenile fiction"],"bookshelves":[],"languages":["en"],"copyright":false,"media_type":"Text","formats":{"text/html":"https://www.gutenberg.org/ebooks/71080.html.images","application/epub+zip":"https://www.gutenberg.org/ebooks/71080.epub3.images","application/x-mobipocket-ebook":"https://www.gutenberg.org/ebooks/71080.kf8.images","text/plain; charset=us-ascii":"https://www.gutenberg.org/ebooks/71080.txt.utf-8","application/rdf+xml":"https://www.gutenberg.org/ebooks/71080.rdf","image/jpeg":"https://www.gutenberg.org/cache/epub/71080/pg71080.cover.medium.jpg","application/octet-stream":"https://www.gutenberg.org/files/71080/71080-0.zip"},"download_count":28},{"id":71114,"title":"Far above rubies (Vol. 3 of 3) : $b A novel","authors":[{"name":"Riddell, J. H., Mrs.","birth_year":1832,"death_year":1906}],"translators":[],"subjects":["Fiction"],"bookshelves":[],"languages":["en"],"copyright":false,"media_type":"Text","formats":{"text/html":"https://www.gutenberg.org/ebooks/71114.html.images","application/epub+zip":"https://www.gutenberg.org/ebooks/71114.epub3.images","application/x-mobipocket-ebook":"https://www.gutenberg.org/ebooks/71114.kf8.images","text/plain; charset=us-ascii":"https://www.gutenberg.org/ebooks/71114.txt.utf-8","application/rdf+xml":"https://www.gutenberg.org/ebooks/71114.rdf","image/jpeg":"https://www.gutenberg.org/cache/epub/71114/pg71114.cover.medium.jpg","application/octet-stream":"https://www.gutenberg.org/files/71114/71114-0.zip"},"download_count":28},{"id":71122,"title":"The book of antelopes, vol. 1 (of 4)","authors":[{"name":"Sclater, Philip Lutley","birth_year":1829,"death_year":1913},{"name":"Thomas, Oldfield","birth_year":1858,"death_year":1929}],"translators":[],"subjects":["Antelopes"],"bookshelves":[],"languages":["en"],"copyright":false,"media_type":"Text","formats":{"text/html":"https://www.gutenberg.org/ebooks/71122.html.images","application/epub+zip":"https://www.gutenberg.org/ebooks/71122.epub3.images","application/x-mobipocket-ebook":"https://www.gutenberg.org/ebooks/71122.kf8.images","text/plain; charset=us-ascii":"https://www.gutenberg.org/ebooks/71122.txt.utf-8","application/rdf+xml":"https://www.gutenberg.org/ebooks/71122.rdf","image/jpeg":"https://www.gutenberg.org/cache/epub/71122/pg71122.cover.medium.jpg","application/octet-stream":"https://www.gutenberg.org/files/71122/71122-0.zip"},"download_count":28},{"id":71135,"title":"An Englishwoman's adventures in the German lines","authors":[{"name":"Lloyd, Ann Gladys","birth_year":1889,"death_year":null}],"translators":[],"subjects":["World War, 1914-1918 -- Personal narratives"],"bookshelves":[],"languages":["en"],"copyright":false,"media_type":"Text","formats":{"text/html":"https://www.gutenberg.org/ebooks/71135.html.images","application/epub+zip":"https://www.gutenberg.org/ebooks/71135.epub3.images","application/x-mobipocket-ebook":"https://www.gutenberg.org/ebooks/71135.kf8.images","text/plain; charset=us-ascii":"https://www.gutenberg.org/ebooks/71135.txt.utf-8","application/rdf+xml":"https://www.gutenberg.org/ebooks/71135.rdf","image/jpeg":"https://www.gutenberg.org/cache/epub/71135/pg71135.cover.medium.jpg","application/octet-stream":"https://www.gutenberg.org/files/71135/71135-0.zip"},"download_count":28},{"id":71231,"title":"Bible history and brief outline of church history","authors":[{"name":"Vogt, Volrath","birth_year":1817,"death_year":1889}],"translators":[{"name":"Brun, Nils Christian Nilsen","birth_year":1846,"death_year":1919}],"subjects":["Bible -- History of Biblical events","Church history"],"bookshelves":[],"languages":["en"],"copyright":false,"media_type":"Text","formats":{"text/html":"https://www.gutenberg.org/ebooks/71231.html.images","application/epub+zip":"https://www.gutenberg.org/ebooks/71231.epub3.images","application/x-mobipocket-ebook":"https://www.gutenberg.org/ebooks/71231.kf8.images","text/plain; charset=us-ascii":"https://www.gutenberg.org/ebooks/71231.txt.utf-8","application/rdf+xml":"https://www.gutenberg.org/ebooks/71231.rdf","image/jpeg":"https://www.gutenberg.org/cache/epub/71231/pg71231.cover.medium.jpg","application/octet-stream":"https://www.gutenberg.org/files/71231/71231-0.zip"},"download_count":28},{"id":71312,"title":"Leprosy : $b in its clinical & pathological aspects","authors":[{"name":"Hansen, G. Armauer (Gerhard Armauer)","birth_year":1841,"death_year":1912},{"name":"Looft, Carl","birth_year":1863,"death_year":1943}],"translators":[{"name":"Walker, Norman","birth_year":1862,"death_year":1942}],"subjects":["Leprosy"],"bookshelves":[],"languages":["en"],"copyright":false,"media_type":"Text","formats":{"text/html":"https://www.gutenberg.org/ebooks/71312.html.images","application/epub+zip":"https://www.gutenberg.org/ebooks/71312.epub3.images","application/x-mobipocket-ebook":"https://www.gutenberg.org/ebooks/71312.kf8.images","text/plain; charset=us-ascii":"https://www.gutenberg.org/ebooks/71312.txt.utf-8","application/rdf+xml":"https://www.gutenberg.org/ebooks/71312.rdf","image/jpeg":"https://www.gutenberg.org/cache/epub/71312/pg71312.cover.medium.jpg","application/octet-stream":"https://www.gutenberg.org/files/71312/71312-0.zip"},"download_count":28},{"id":71313,"title":"The last crash","authors":[{"name":"Latour, Kenneth","birth_year":null,"death_year":null}],"translators":[],"subjects":["Aeronautics -- Fiction","Air pilots -- Fiction","Man-woman relationships -- Fiction"],"bookshelves":[],"languages":["en"],"copyright":false,"media_type":"Text","formats":{"text/html":"https://www.gutenberg.org/ebooks/71313.html.images","application/epub+zip":"https://www.gutenberg.org/ebooks/71313.epub3.images","application/x-mobipocket-ebook":"https://www.gutenberg.org/ebooks/71313.kf8.images","text/plain; charset=us-ascii":"https://www.gutenberg.org/ebooks/71313.txt.utf-8","application/rdf+xml":"https://www.gutenberg.org/ebooks/71313.rdf","image/jpeg":"https://www.gutenberg.org/cache/epub/71313/pg71313.cover.medium.jpg","application/octet-stream":"https://www.gutenberg.org/files/71313/71313-0.zip"},"download_count":28},{"id":71383,"title":"The look of the thing and other stories","authors":[{"name":"A. L. O. E.","birth_year":1821,"death_year":1893}],"translators":[],"subjects":["Christian life -- Juvenile fiction","Short stories"],"bookshelves":[],"languages":["en"],"copyright":false,"media_type":"Text","formats":{"text/html":"https://www.gutenberg.org/ebooks/71383.html.images","application/epub+zip":"https://www.gutenberg.org/ebooks/71383.epub3.images","application/x-mobipocket-ebook":"https://www.gutenberg.org/ebooks/71383.kf8.images","text/plain; charset=us-ascii":"https://www.gutenberg.org/ebooks/71383.txt.utf-8","application/rdf+xml":"https://www.gutenberg.org/ebooks/71383.rdf","image/jpeg":"https://www.gutenberg.org/cache/epub/71383/pg71383.cover.medium.jpg","application/octet-stream":"https://www.gutenberg.org/files/71383/71383-h.zip"},"download_count":28},{"id":71385,"title":"Niebuhr's lectures on Roman history, Vol. 2 (of 3)","authors":[{"name":"Niebuhr, Barthold Georg","birth_year":1776,"death_year":1831}],"translators":[{"name":"Chepmell, Havilland Le Mesurier‏","birth_year":null,"death_year":null},{"name":"Demmler, F.","birth_year":null,"death_year":null}],"subjects":["Rome -- History"],"bookshelves":[],"languages":["en"],"copyright":false,"media_type":"Text","formats":{"text/html":"https://www.gutenberg.org/ebooks/71385.html.images","application/epub+zip":"https://www.gutenberg.org/ebooks/71385.epub3.images","application/x-mobipocket-ebook":"https://www.gutenberg.org/ebooks/71385.kf8.images","text/plain; charset=us-ascii":"https://www.gutenberg.org/ebooks/71385.txt.utf-8","application/rdf+xml":"https://www.gutenberg.org/ebooks/71385.rdf","image/jpeg":"https://www.gutenberg.org/cache/epub/71385/pg71385.cover.medium.jpg","application/octet-stream":"https://www.gutenberg.org/files/71385/71385-h.zip"},"download_count":28},{"id":71447,"title":"Great Smoky Mountains National Park : $b Tennessee--North Carolina, open all year","authors":[{"name":"United States. National Park Service","birth_year":null,"death_year":null}],"translators":[],"subjects":["Great Smoky Mountains National Park (N.C. and Tenn.) -- Description and travel","Great Smoky Mountains National Park (N.C. and Tenn.) -- Maps","Outdoor recreation -- Great Smoky Mountains National Park (N.C. and Tenn.)"],"bookshelves":[],"languages":["en"],"copyright":false,"media_type":"Text","formats":{"text/html":"https://www.gutenberg.org/ebooks/71447.html.images","application/epub+zip":"https://www.gutenberg.org/ebooks/71447.epub3.images","application/x-mobipocket-ebook":"https://www.gutenberg.org/ebooks/71447.kf8.images","text/plain; charset=us-ascii":"https://www.gutenberg.org/ebooks/71447.txt.utf-8","application/rdf+xml":"https://www.gutenberg.org/ebooks/71447.rdf","image/jpeg":"https://www.gutenberg.org/cache/epub/71447/pg71447.cover.medium.jpg","application/octet-stream":"https://www.gutenberg.org/files/71447/71447-h.zip"},"download_count":28},{"id":71488,"title":"Broadcast","authors":[{"name":"Grattan, Will H.","birth_year":null,"death_year":null}],"translators":[],"subjects":["Gold miners -- Fiction","Jewel thieves -- Fiction","Radio -- Fiction","Short stories","Western stories"],"bookshelves":[],"languages":["en"],"copyright":false,"media_type":"Text","formats":{"text/html":"https://www.gutenberg.org/ebooks/71488.html.images","application/epub+zip":"https://www.gutenberg.org/ebooks/71488.epub3.images","application/x-mobipocket-ebook":"https://www.gutenberg.org/ebooks/71488.kf8.images","text/plain; charset=us-ascii":"https://www.gutenberg.org/ebooks/71488.txt.utf-8","application/rdf+xml":"https://www.gutenberg.org/ebooks/71488.rdf","image/jpeg":"https://www.gutenberg.org/cache/epub/71488/pg71488.cover.medium.jpg","application/octet-stream":"https://www.gutenberg.org/files/71488/71488-h.zip"},"download_count":28},{"id":71550,"title":"Under dispute","authors":[{"name":"Repplier, Agnes","birth_year":1855,"death_year":1950}],"translators":[],"subjects":["American essays -- 20th century"],"bookshelves":[],"languages":["en"],"copyright":false,"media_type":"Text","formats":{"text/html":"https://www.gutenberg.org/ebooks/71550.html.images","application/epub+zip":"https://www.gutenberg.org/ebooks/71550.epub3.images","application/x-mobipocket-ebook":"https://www.gutenberg.org/ebooks/71550.kf8.images","text/plain; charset=us-ascii":"https://www.gutenberg.org/ebooks/71550.txt.utf-8","application/rdf+xml":"https://www.gutenberg.org/ebooks/71550.rdf","image/jpeg":"https://www.gutenberg.org/cache/epub/71550/pg71550.cover.medium.jpg","application/octet-stream":"https://www.gutenberg.org/files/71550/71550-h.zip"},"download_count":28},{"id":71552,"title":"The young volcano explorers : $b Or, American boys in the West Indies","authors":[{"name":"Stratemeyer, Edward","birth_year":1862,"death_year":1930}],"translators":[],"subjects":["Volcanoes -- Juvenile fiction","West Indies -- Juvenile fiction"],"bookshelves":[],"languages":["en"],"copyright":false,"media_type":"Text","formats":{"text/html":"https://www.gutenberg.org/ebooks/71552.html.images","application/epub+zip":"https://www.gutenberg.org/ebooks/71552.epub3.images","application/x-mobipocket-ebook":"https://www.gutenberg.org/ebooks/71552.kf8.images","text/plain; charset=us-ascii":"https://www.gutenberg.org/ebooks/71552.txt.utf-8","application/rdf+xml":"https://www.gutenberg.org/ebooks/71552.rdf","image/jpeg":"https://www.gutenberg.org/cache/epub/71552/pg71552.cover.medium.jpg","application/octet-stream":"https://www.gutenberg.org/files/71552/71552-h.zip"},"download_count":28},{"id":71596,"title":"Whittier at close range","authors":[{"name":"Sparhawk, Frances C.","birth_year":1847,"death_year":1930}],"translators":[],"subjects":["Whittier, John Greenleaf, 1807-1892"],"bookshelves":[],"languages":["en"],"copyright":false,"media_type":"Text","formats":{"text/html":"https://www.gutenberg.org/ebooks/71596.html.images","application/epub+zip":"https://www.gutenberg.org/ebooks/71596.epub3.images","application/x-mobipocket-ebook":"https://www.gutenberg.org/ebooks/71596.kf8.images","text/plain; charset=us-ascii":"https://www.gutenberg.org/ebooks/71596.txt.utf-8","application/rdf+xml":"https://www.gutenberg.org/ebooks/71596.rdf","image/jpeg":"https://www.gutenberg.org/cache/epub/71596/pg71596.cover.medium.jpg","application/octet-stream":"https://www.gutenberg.org/files/71596/71596-h.zip"},"download_count":28},{"id":71755,"title":"A little gipsy lass : $b A story of moorland and wild","authors":[{"name":"Stables, Gordon","birth_year":1840,"death_year":1910}],"translators":[],"subjects":["Adventure stories","Great Britain -- Juvenile fiction","Romanies -- Juvenile fiction"],"bookshelves":[],"languages":["en"],"copyright":false,"media_type":"Text","formats":{"text/html":"https://www.gutenberg.org/ebooks/71755.html.images","application/epub+zip":"https://www.gutenberg.org/ebooks/71755.epub3.images","application/x-mobipocket-ebook":"https://www.gutenberg.org/ebooks/71755.kf8.images","text/plain; charset=us-ascii":"https://www.gutenberg.org/ebooks/71755.txt.utf-8","application/rdf+xml":"https://www.gutenberg.org/ebooks/71755.rdf","image/jpeg":"https://www.gutenberg.org/cache/epub/71755/pg71755.cover.medium.jpg","application/octet-stream":"https://www.gutenberg.org/files/71755/71755-h.zip"},"download_count":28},{"id":71923,"title":"The will to live (Les Roquevillard) : $b A novel","authors":[{"name":"Bordeaux, Henry","birth_year":1870,"death_year":1963}],"translators":[{"name":"Duffield, Pitts","birth_year":1869,"death_year":null}],"subjects":["Elopement -- Fiction","Families -- Fiction","France -- Fiction","French fiction -- Translations into English"],"bookshelves":[],"languages":["en"],"copyright":false,"media_type":"Text","formats":{"text/html":"https://www.gutenberg.org/ebooks/71923.html.images","application/epub+zip":"https://www.gutenberg.org/ebooks/71923.epub3.images","application/x-mobipocket-ebook":"https://www.gutenberg.org/ebooks/71923.kf8.images","text/plain; charset=us-ascii":"https://www.gutenberg.org/ebooks/71923.txt.utf-8","application/rdf+xml":"https://www.gutenberg.org/ebooks/71923.rdf","image/jpeg":"https://www.gutenberg.org/cache/epub/71923/pg71923.cover.medium.jpg","application/octet-stream":"https://www.gutenberg.org/cache/epub/71923/pg71923-h.zip"},"download_count":28},{"id":72083,"title":"Dungeon Rock; or, the pirate's cave, at Lynn","authors":[{"name":"Emerson, N. S. (Nannette Snow)","birth_year":1840,"death_year":1884}],"translators":[],"subjects":["Pirates -- Massachusetts -- Lynn -- History"],"bookshelves":[],"languages":["en"],"copyright":false,"media_type":"Text","formats":{"text/html":"https://www.gutenberg.org/ebooks/72083.html.images","application/epub+zip":"https://www.gutenberg.org/ebooks/72083.epub3.images","application/x-mobipocket-ebook":"https://www.gutenberg.org/ebooks/72083.kf8.images","text/plain; charset=us-ascii":"https://www.gutenberg.org/ebooks/72083.txt.utf-8","application/rdf+xml":"https://www.gutenberg.org/ebooks/72083.rdf","image/jpeg":"https://www.gutenberg.org/cache/epub/72083/pg72083.cover.medium.jpg","application/octet-stream":"https://www.gutenberg.org/cache/epub/72083/pg72083-h.zip"},"download_count":28},{"id":789,"title":"The Gathering of Brother Hilarius","authors":[{"name":"Fairless, Michael","birth_year":1869,"death_year":1901}],"translators":[],"subjects":["English fiction -- 19th century","Monasteries -- Fiction","Monks -- Fiction","Plague -- Fiction"],"bookshelves":[],"languages":["en"],"copyright":false,"media_type":"Text","formats":{"text/html":"https://www.gutenberg.org/ebooks/789.html.images","application/epub+zip":"https://www.gutenberg.org/ebooks/789.epub3.images","application/x-mobipocket-ebook":"https://www.gutenberg.org/ebooks/789.kf8.images","text/plain; charset=us-ascii":"https://www.gutenberg.org/ebooks/789.txt.utf-8","text/plain; charset=utf-8":"https://www.gutenberg.org/files/789/789-0.txt","application/rdf+xml":"https://www.gutenberg.org/ebooks/789.rdf","image/jpeg":"https://www.gutenberg.org/cache/epub/789/pg789.cover.medium.jpg","application/octet-stream":"https://www.gutenberg.org/cache/epub/789/pg789-h.zip"},"download_count":27},{"id":859,"title":"Polly of the Circus","authors":[{"name":"Mayo, Margaret","birth_year":1882,"death_year":1951}],"translators":[],"subjects":["Circus -- Fiction","Circus performers -- Fiction"],"bookshelves":[],"languages":["en"],"copyright":false,"media_type":"Text","formats":{"text/html":"https://www.gutenberg.org/ebooks/859.html.images","text/html; charset=utf-8":"https://www.gutenberg.org/files/859/859-h/859-h.htm","application/epub+zip":"https://www.gutenberg.org/ebooks/859.epub3.images","application/x-mobipocket-ebook":"https://www.gutenberg.org/ebooks/859.kf8.images","text/plain; charset=us-ascii":"https://www.gutenberg.org/ebooks/859.txt.utf-8","text/plain; charset=utf-8":"https://www.gutenberg.org/files/859/859-0.txt","application/rdf+xml":"https://www.gutenberg.org/ebooks/859.rdf","image/jpeg":"https://www.gutenberg.org/cache/epub/859/pg859.cover.medium.jpg","application/octet-stream":"https://www.gutenberg.org/cache/epub/859/pg859-h.zip"},"download_count":27},{"id":880,"title":"My Garden Acquaintance","authors":[{"name":"Lowell, James Russell","birth_year":1819,"death_year":1891}],"translators":[],"subjects":["Essays","Natural history"],"bookshelves":[],"languages":["en"],"copyright":false,"media_type":"Text","formats":{"text/html":"https://www.gutenberg.org/ebooks/880.html.images","text/html; charset=us-ascii":"https://www.gutenberg.org/files/880/880-h/880-h.htm","application/epub+zip":"https://www.gutenberg.org/ebooks/880.epub3.images","application/x-mobipocket-ebook":"https://www.gutenberg.org/ebooks/880.kf8.images","text/plain; charset=us-ascii":"https://www.gutenberg.org/ebooks/880.txt.utf-8","application/rdf+xml":"https://www.gutenberg.org/ebooks/880.rdf","image/jpeg":"https://www.gutenberg.org/cache/epub/880/pg880.cover.medium.jpg","application/octet-stream":"https://www.gutenberg.org/cache/epub/880/pg880-h.zip"},"download_count":27},{"id":1040,"title":"The Three Taverns: A Book of Poems","authors":[{"name":"Robinson, Edwin Arlington","birth_year":1869,"death_year":1935}],"translators":[],"subjects":["American poetry","Lyric poetry"],"bookshelves":[],"languages":["en"],"copyright":false,"media_type":"Text","formats":{"text/html":"https://www.gutenberg.org/ebooks/1040.html.images","text/html; charset=iso-8859-1":"https://www.gutenberg.org/files/1040/1040-h/1040-h.htm","application/epub+zip":"https://www.gutenberg.org/ebooks/1040.epub3.images","application/x-mobipocket-ebook":"https://www.gutenberg.org/ebooks/1040.kf8.images","text/plain; charset=us-ascii":"https://www.gutenberg.org/ebooks/1040.txt.utf-8","application/rdf+xml":"https://www.gutenberg.org/ebooks/1040.rdf","image/jpeg":"https://www.gutenberg.org/cache/epub/1040/pg1040.cover.medium.jpg","application/octet-stream":"https://www.gutenberg.org/cache/epub/1040/pg1040-h.zip"},"download_count":27},{"id":1203,"title":"Dolly Dialogues","authors":[{"name":"Hope, Anthony","birth_year":1863,"death_year":1933}],"translators":[],"subjects":["England -- Social life and customs -- 19th century -- Fiction","Manners and customs -- Fiction"],"bookshelves":[],"languages":["en"],"copyright":false,"media_type":"Text","formats":{"text/html":"https://www.gutenberg.org/ebooks/1203.html.images","text/html; charset=utf-8":"https://www.gutenberg.org/files/1203/1203-h/1203-h.htm","application/epub+zip":"https://www.gutenberg.org/ebooks/1203.epub3.images","application/x-mobipocket-ebook":"https://www.gutenberg.org/ebooks/1203.kf8.images","text/plain; charset=us-ascii":"https://www.gutenberg.org/ebooks/1203.txt.utf-8","text/plain; charset=utf-8":"https://www.gutenberg.org/files/1203/1203-0.txt","application/rdf+xml":"https://www.gutenberg.org/ebooks/1203.rdf","image/jpeg":"https://www.gutenberg.org/cache/epub/1203/pg1203.cover.medium.jpg","application/octet-stream":"https://www.gutenberg.org/cache/epub/1203/pg1203-h.zip"},"download_count":27},{"id":1222,"title":"Cobb's Anatomy","authors":[{"name":"Cobb, Irvin S. (Irvin Shrewsbury)","birth_year":1876,"death_year":1944}],"translators":[],"subjects":["Anatomy -- Humor","Satire, American"],"bookshelves":[],"languages":["en"],"copyright":false,"media_type":"Text","formats":{"text/html":"https://www.gutenberg.org/ebooks/1222.html.images","text/html; charset=us-ascii":"https://www.gutenberg.org/files/1222/1222-h/1222-h.htm","application/epub+zip":"https://www.gutenberg.org/ebooks/1222.epub3.images","application/x-mobipocket-ebook":"https://www.gutenberg.org/ebooks/1222.kf8.images","text/plain; charset=us-ascii":"https://www.gutenberg.org/ebooks/1222.txt.utf-8","application/rdf+xml":"https://www.gutenberg.org/ebooks/1222.rdf","image/jpeg":"https://www.gutenberg.org/cache/epub/1222/pg1222.cover.medium.jpg","application/octet-stream":"https://www.gutenberg.org/cache/epub/1222/pg1222-h.zip"},"download_count":27},{"id":1337,"title":"Shelley","authors":[{"name":"Waterlow, Sydney","birth_year":1878,"death_year":1944}],"translators":[],"subjects":["Poets, English -- 19th century -- Biography","Shelley, Percy Bysshe, 1792-1822"],"bookshelves":[],"languages":["en"],"copyright":false,"media_type":"Text","formats":{"text/html":"https://www.gutenberg.org/ebooks/1337.html.images","text/html; charset=us-ascii":"https://www.gutenberg.org/files/1337/1337-h/1337-h.htm","application/epub+zip":"https://www.gutenberg.org/ebooks/1337.epub3.images","application/x-mobipocket-ebook":"https://www.gutenberg.org/ebooks/1337.kf8.images","text/plain; charset=us-ascii":"https://www.gutenberg.org/ebooks/1337.txt.utf-8","application/rdf+xml":"https://www.gutenberg.org/ebooks/1337.rdf","image/jpeg":"https://www.gutenberg.org/cache/epub/1337/pg1337.cover.medium.jpg","application/octet-stream":"https://www.gutenberg.org/cache/epub/1337/pg1337-h.zip"},"download_count":27},{"id":1379,"title":"A Straight Deal; Or, The Ancient Grudge","authors":[{"name":"Wister, Owen","birth_year":1860,"death_year":1938}],"translators":[],"subjects":["Great Britain -- Relations -- United States","United States -- Relations -- Great Britain"],"bookshelves":[],"languages":["en"],"copyright":false,"media_type":"Text","formats":{"text/html":"https://www.gutenberg.org/ebooks/1379.html.images","text/html; charset=utf-8":"https://www.gutenberg.org/files/1379/1379-h/1379-h.htm","application/epub+zip":"https://www.gutenberg.org/ebooks/1379.epub3.images","application/x-mobipocket-ebook":"https://www.gutenberg.org/ebooks/1379.kf8.images","text/plain; charset=us-ascii":"https://www.gutenberg.org/ebooks/1379.txt.utf-8","text/plain; charset=utf-8":"https://www.gutenberg.org/files/1379/1379-0.txt","application/rdf+xml":"https://www.gutenberg.org/ebooks/1379.rdf","image/jpeg":"https://www.gutenberg.org/cache/epub/1379/pg1379.cover.medium.jpg","application/octet-stream":"https://www.gutenberg.org/cache/epub/1379/pg1379-h.zip"},"download_count":27},{"id":1431,"title":"Trooper Peter Halket of Mashonaland","authors":[{"name":"Schreiner, Olive","birth_year":1855,"death_year":1920}],"translators":[],"subjects":["Africa, Southern -- Fiction","Zimbabwe -- History -- Shona Revolt, 1896-1897 -- Fiction"],"bookshelves":[],"languages":["en"],"copyright":false,"media_type":"Text","formats":{"text/html":"https://www.gutenberg.org/ebooks/1431.html.images","text/html; charset=utf-8":"https://www.gutenberg.org/files/1431/1431-h/1431-h.htm","application/epub+zip":"https://www.gutenberg.org/ebooks/1431.epub3.images","application/x-mobipocket-ebook":"https://www.gutenberg.org/ebooks/1431.kf8.images","text/plain; charset=us-ascii":"https://www.gutenberg.org/ebooks/1431.txt.utf-8","text/plain; charset=utf-8":"https://www.gutenberg.org/files/1431/1431-0.txt","application/rdf+xml":"https://www.gutenberg.org/ebooks/1431.rdf","image/jpeg":"https://www.gutenberg.org/cache/epub/1431/pg1431.cover.medium.jpg","application/octet-stream":"https://www.gutenberg.org/cache/epub/1431/pg1431-h.zip"},"download_count":27},{"id":1527,"title":"Twelfth Night; Or, What You Will","authors":[{"name":"Shakespeare, William","birth_year":1564,"death_year":1616}],"translators":[],"subjects":["Comedies","Illyria -- Drama","Mistaken identity -- Drama","Shipwreck survival -- Drama","Siblings -- Drama","Twins -- Drama"],"bookshelves":[],"languages":["en"],"copyright":false,"media_type":"Text","formats":{"text/html":"https://www.gutenberg.org/ebooks/1527.html.images","application/epub+zip":"https://www.gutenberg.org/ebooks/1527.epub3.images","application/x-mobipocket-ebook":"https://www.gutenberg.org/ebooks/1527.kf8.images","text/plain; charset=us-ascii":"https://www.gutenberg.org/ebooks/1527.txt.utf-8","application/rdf+xml":"https://www.gutenberg.org/ebooks/1527.rdf","image/jpeg":"https://www.gutenberg.org/cache/epub/1527/pg1527.cover.medium.jpg","application/octet-stream":"https://www.gutenberg.org/cache/epub/1527/pg1527-h.zip"},"download_count":27}]}