{"count":58808,"next":"http://129.241.150.113:8000/books/?languages=en&page=1376","previous":"http://129.241.150.113:8000/books/?languages=en&page=1374","results":[{"id":68549,"title":"The poisoned paradise: A romance of Monte Carlo","authors":[{"name":"Service, Robert W. (Robert William)","birth_year":1874,"death_year":1958}],"translators":[],"subjects":["Gambling -- Fiction","Monte-Carlo (Monaco) -- Fiction"],"bookshelves":[],"languages":["en"],"copyright":false,"media_type":"Text","formats":{"text/html":"https://www.gutenberg.org/ebooks/68549.html.images","application/epub+zip":"https://www.gutenberg.org/ebooks/68549.epub3.images","application/x-mobipocket-ebook":"https://www.gutenberg.org/ebooks/68549.kf8.images","text/plain; charset=us-ascii":"https://www.gutenberg.org/ebooks/68549.txt.utf-8","application/rdf+xml":"https://www.gutenberg.org/ebooks/68549.rdf","image/jpeg":"https://www.gutenberg.org/cache/epub/68549/pg68549.cover.medium.jpg","application/octet-stream":"https://www.gutenberg.org/files/68549/68549-0.zip"},"download_count":27},{"id":68550,"title":"The pearl lagoon","authors":[{"name":"Nordhoff, Charles","birth_year":1830,"death_year":1901}],"translators":[],"subjects":["Islands of the Pacific -- Fiction","Oceania -- Fiction","Pearl fisheries -- Fiction","Sea stories"],"bookshelves":[],"languages":["en"],"copyright":false,"media_type":"Text","formats":{"text/html":"https://www.gutenberg.org/ebooks/68550.html.images","application/epub+zip":"https://www.gutenberg.org/ebooks/68550.epub3.images","application/x-mobipocket-ebook":"https://www.gutenberg.org/ebooks/68550.kf8.images","text/plain; charset=us-ascii":"https://www.gutenberg.org/ebooks/68550.txt.utf-8","application/rdf+xml":"https://www.gutenberg.org/ebooks/68550.rdf","image/jpeg":"https://www.gutenberg.org/cache/epub/68550/pg68550.cover.medium.jpg","application/octet-stream":"https://www.gutenberg.org/files/68550/68550-0.zip"},"download_count":27},{"id":68565,"title":"To the sons of tomorrow","authors":[{"name":"Cox, Irving E.","birth_year":1917,"death_year":2001}],"translators":[],"subjects":["Castaways -- Fiction","Human-alien encounters -- Fiction","Science fiction"],"bookshelves":[],"languages":["en"],"copyright":false,"media_type":"Text","formats":{"text/html":"https://www.gutenberg.org/ebooks/68565.html.images","application/epub+zip":"https://www.gutenberg.org/ebooks/68565.epub3.images","application/x-mobipocket-ebook":"https://www.gutenberg.org/ebooks/68565.kf8.images","text/plain; charset=us-ascii":"https://www.gutenberg.org/ebooks/68565.txt.utf-8","application/rdf+xml":"https://www.gutenberg.org/ebooks/68565.rdf","image/jpeg":"https://www.gutenberg.org/cache/epub/68565/pg68565.cover.medium.jpg","application/octet-stream":"https://www.gutenberg.org/files/68565/68565-0.zip"},"download_count":27},{"id":68583,"title":"Elastic and non-elastic narrow fabrics: and a chapter on narrow fabrics made on knitting machines","authors":[{"name":"Brown, Samuel","birth_year":null,"death_year":null}],"translators":[],"subjects":["Elastic fabrics","Looms","Rubber industry and trade","Textile fabrics","Weaving"],"bookshelves":[],"languages":["en"],"copyright":false,"media_type":"Text","formats":{"text/html":"https://www.gutenberg.org/ebooks/68583.html.images","application/epub+zip":"https://www.gutenberg.org/ebooks/68583.epub3.images","application/x-mobipocket-ebook":"https://www.gutenberg.org/ebooks/68583.kf8.images","text/plain; charset=us-ascii":"https://www.gutenberg.org/ebooks/68583.txt.utf-8","application/rdf+xml":"https://www.gutenberg.org/ebooks/68583.rdf","image/jpeg":"https://www.gutenberg.org/cache/epub/68583/pg68583.cover.medium.jpg","application/octet-stream":"https://www.gutenberg.org/files/68583/68583-0.zip"},"download_count":27},{"id":68666,"title":"Traditions of the Arikara","authors":[{"name":"Dorsey, George A. (George Amos)","birth_year":1868,"death_year":1931}],"translators":[],"subjects":["Arikara Indians -- Folklore","Pawnee Indians -- Folklore"],"bookshelves":[],"languages":["en"],"copyright":false,"media_type":"Text","formats":{"text/html":"https://www.gutenberg.org/ebooks/68666.html.images","application/epub+zip":"https://www.gutenberg.org/ebooks/68666.epub3.images","application/x-mobipocket-ebook":"https://www.gutenberg.org/ebooks/68666.kf8.images","text/plain; charset=us-ascii":"https://www.gutenberg.org/ebooks/68666.txt.utf-8","application/rdf+xml":"https://www.gutenberg.org/ebooks/68666.rdf","image/jpeg":"https://www.gutenberg.org/cache/epub/68666/pg68666.cover.medium.jpg","application/octet-stream":"https://www.gutenberg.org/files/68666/68666-0.zip"},"download_count":27},{"id":68712,"title":"The secret in the hill","authors":[{"name":"Capes, Bernard","birth_year":1854,"death_year":1918}],"translators":[],"subjects":["Orphans -- Fiction","Suffolk (England) -- Fiction","Treasure troves -- Fiction","Trials (Murder) -- Fiction","Uncles -- Fiction"],"bookshelves":[],"languages":["en"],"copyright":false,"media_type":"Text","formats":{"text/html":"https://www.gutenberg.org/ebooks/68712.html.images","application/epub+zip":"https://www.gutenberg.org/ebooks/68712.epub3.images","application/x-mobipocket-ebook":"https://www.gutenberg.org/ebooks/68712.kf8.images","text/plain; charset=us-ascii":"https://www.gutenberg.org/ebooks/68712.txt.utf-8","application/rdf+xml":"https://www.gutenberg.org/ebooks/68712.rdf","image/jpeg":"https://www.gutenberg.org/cache/epub/68712/pg68712.cover.medium.jpg","application/octet-stream":"https://www.gutenberg.org/files/68712/68712-0.zip"},"download_count":27},{"id":68743,"title":"Spaceman's luck","authors":[{"name":"Smith, George O. (George Oliver)","birth_year":1911,"death_year":1981}],"translators":[],"subjects":["Science fiction","Short stories","Space flight to the moon -- Fiction"],"bookshelves":[],"languages":["en"],"copyright":false,"media_type":"Text","formats":{"text/html":"https://www.gutenberg.org/ebooks/68743.html.images","application/epub+zip":"https://www.gutenberg.org/ebooks/68743.epub3.images","application/x-mobipocket-ebook":"https://www.gutenberg.org/ebooks/68743.kf8.images","text/plain; charset=us-ascii":"https://www.gutenberg.org/ebooks/68743.txt.utf-8","application/rdf+xml":"https://www.gutenberg.org/ebooks/68743.rdf","image/jpeg":"https://www.gutenberg.org/cache/epub/68743/pg68743.cover.medium.jpg","application/octet-stream":"https://www.gutenberg.org/files/68743/68743-0.zip"},"download_count":27},{"id":68757,"title":"List of post offices in Canada, with the names of the postmasters ... 1856: With a supplementary list to 1st March, 1857, inclusive","authors":[{"name":"Canada. Post Office Department","birth_year":null,"death_year":null}],"translators":[],"subjects":["Postal service -- Canada -- Guides"],"bookshelves":[],"languages":["en"],"copyright":false,"media_type":"Text","formats":{"text/html":"https://www.gutenberg.org/ebooks/68757.html.images","application/epub+zip":"https://www.gutenberg.org/ebooks/68757.epub3.images","application/x-mobipocket-ebook":"https://www.gutenberg.org/ebooks/68757.kf8.images","text/plain; charset=us-ascii":"https://www.gutenberg.org/ebooks/68757.txt.utf-8","application/rdf+xml":"https://www.gutenberg.org/ebooks/68757.rdf","image/jpeg":"https://www.gutenberg.org/cache/epub/68757/pg68757.cover.medium.jpg","application/octet-stream":"https://www.gutenberg.org/files/68757/68757-0.zip"},"download_count":27},{"id":68772,"title":"An inaugural dissertation on pulmonary consumption","authors":[{"name":"Delafield, Edward","birth_year":1794,"death_year":1875}],"translators":[],"subjects":["Tuberculosis"],"bookshelves":[],"languages":["en"],"copyright":false,"media_type":"Text","formats":{"text/html":"https://www.gutenberg.org/ebooks/68772.html.images","application/epub+zip":"https://www.gutenberg.org/ebooks/68772.epub3.images","application/x-mobipocket-ebook":"https://www.gutenberg.org/ebooks/68772.kf8.images","text/plain; charset=us-ascii":"https://www.gutenberg.org/ebooks/68772.txt.utf-8","application/rdf+xml":"https://www.gutenberg.org/ebooks/68772.rdf","image/jpeg":"https://www.gutenberg.org/cache/epub/68772/pg68772.cover.medium.jpg","application/octet-stream":"https://www.gutenberg.org/files/68772/68772-0.zip"},"download_count":27},{"id":68776,"title":"Glenarvon, Volume 3 (of 3)","authors":[{"name":"Lamb, Caroline, Lady","birth_year":1785,"death_year":1828}],"translators":[],"subjects":["Gothic fiction","Ireland -- History -- Rebellion of 1798 -- Fiction","Man-woman relationships -- Fiction","Romans à clef"],"bookshelves":[],"languages":["en"],"copyright":false,"media_type":"Text","formats":{"text/html":"https://www.gutenberg.org/ebooks/68776.html.images","application/epub+zip":"https://www.gutenberg.org/ebooks/68776.epub3.images","application/x-mobipocket-ebook":"https://www.gutenberg.org/ebooks/68776.kf8.images","text/plain; charset=us-ascii":"https://www.gutenberg.org/ebooks/68776.txt.utf-8","application/rdf+xml":"https://www.gutenberg.org/ebooks/68776.rdf","image/jpeg":"https://www.gutenberg.org/cache/epub/68776/pg68776.cover.medium.jpg","application/octet-stream":"https://www.gutenberg.org/files/68776/68776-0.zip"},"download_count":27},{"id":68786,"title":"Modern bookbindings: Their design and decoration","authors":[{"name":"Prideaux, S. T. (Sarah Treverbian)","birth_year":1853,"death_year":1933}],"translators":[],"subjects":["Bookbinding"],"bookshelves":[],"languages":["en"],"copyright":false,"media_type":"Text","formats":{"text/html":"https://www.gutenberg.org/ebooks/68786.html.images","application/epub+zip":"https://www.gutenberg.org/ebooks/68786.epub3.images","application/x-mobipocket-ebook":"https://www.gutenberg.org/ebooks/68786.kf8.images","text/plain; charset=us-ascii":"https://www.gutenberg.org/ebooks/68786.txt.utf-8","application/rdf+xml":"https://www.gutenberg.org/ebooks/68786.rdf","image/jpeg":"https://www.gutenberg.org/cache/epub/68786/pg68786.cover.medium.jpg","application/octet-stream":"https://www.gutenberg.org/files/68786/68786-0.zip"},"download_count":27},{"id":68860,"title":"From outer space","authors":[{"name":"Zacks, Robert","birth_year":null,"death_year":null}],"translators":[],"subjects":["Human-alien encounters -- Fiction","Science fiction","Short stories","Storytelling -- Fiction"],"bookshelves":[],"languages":["en"],"copyright":false,"media_type":"Text","formats":{"text/html":"https://www.gutenberg.org/ebooks/68860.html.images","application/epub+zip":"https://www.gutenberg.org/ebooks/68860.epub3.images","application/x-mobipocket-ebook":"https://www.gutenberg.org/ebooks/68860.kf8.images","text/plain; charset=us-ascii":"https://www.gutenberg.org/ebooks/68860.txt.utf-8","application/rdf+xml":"https://www.gutenberg.org/ebooks/68860.rdf","image/jpeg":"https://www.gutenberg.org/cache/epub/68860/pg68860.cover.medium.jpg","application/octet-stream":"https://www.gutenberg.org/files/68860/68860-0.zip"},"download_count":27},{"id":68866,"title":"Hints for painters, decorators, and paper-hangers.: Being a selection of useful rules, data, memoranda, methods, and suggestions for house, ship and furniture painting, paper-hanging, gilding, color mixing, and other matters useful and instructive to painters and decorators. Prepared with special reference to the wants of amateurs","authors":[{"name":"An Old Hand","birth_year":null,"death_year":null}],"translators":[],"subjects":["House painting","Interior decoration","Paperhanging"],"bookshelves":[],"languages":["en"],"copyright":false,"media_type":"Text","formats":{"text/html":"https://www.gutenberg.org/ebooks/68866.html.images","application/epub+zip":"https://www.gutenberg.org/ebooks/68866.epub3.images","application/x-mobipocket-ebook":"https://www.gutenberg.org/ebooks/68866.kf8.images","text/plain; charset=us-ascii":"https://www.gutenberg.org/ebooks/68866.txt.utf-8","application/rdf+xml":"https://www.gutenberg.org/ebooks/68866.rdf","image/jpeg":"https://www.gutenberg.org/cache/epub/68866/pg68866.cover.medium.jpg","application/octet-stream":"https://www.gutenberg.org/files/68866/68866-0.zip"},"download_count":27},{"id":68892,"title":"The gnome's gneiss","authors":[{"name":"Crossen, Kendell Foster","birth_year":1910,"death_year":1981}],"translators":[],"subjects":["Fantasy fiction","Irish Americans -- Fiction","New York (N.Y.) -- Fiction"],"bookshelves":[],"languages":["en"],"copyright":false,"media_type":"Text","formats":{"text/html":"https://www.gutenberg.org/ebooks/68892.html.images","application/epub+zip":"https://www.gutenberg.org/ebooks/68892.epub3.images","application/x-mobipocket-ebook":"https://www.gutenberg.org/ebooks/68892.kf8.images","text/plain; charset=us-ascii":"https://www.gutenberg.org/ebooks/68892.txt.utf-8","application/rdf+xml":"https://www.gutenberg.org/ebooks/68892.rdf","image/jpeg":"https://www.gutenberg.org/cache/epub/68892/pg68892.cover.medium.jpg","application/octet-stream":"https://www.gutenberg.org/files/68892/68892-0.zip"},"download_count":27},{"id":68917,"title":"Modern literature: a novel, Volume 3 (of 3)","authors":[{"name":"Bisset, Robert","birth_year":1759,"death_year":1805}],"translators":[],"subjects":["England -- Social life and customs -- 18th century -- Fiction"],"bookshelves":[],"languages":["en"],"copyright":false,"media_type":"Text","formats":{"text/html":"https://www.gutenberg.org/ebooks/68917.html.images","application/epub+zip":"https://www.gutenberg.org/ebooks/68917.epub3.images","application/x-mobipocket-ebook":"https://www.gutenberg.org/ebooks/68917.kf8.images","text/plain; charset=us-ascii":"https://www.gutenberg.org/ebooks/68917.txt.utf-8","application/rdf+xml":"https://www.gutenberg.org/ebooks/68917.rdf","image/jpeg":"https://www.gutenberg.org/cache/epub/68917/pg68917.cover.medium.jpg","application/octet-stream":"https://www.gutenberg.org/files/68917/68917-0.zip"},"download_count":27},{"id":68921,"title":"The making of a man","authors":[{"name":"Flatt, W. D.","birth_year":null,"death_year":null}],"translators":[],"subjects":["Conduct of life -- Juvenile fiction","Frontier and pioneer life -- Canada -- Juvenile fiction"],"bookshelves":[],"languages":["en"],"copyright":false,"media_type":"Text","formats":{"text/html":"https://www.gutenberg.org/ebooks/68921.html.images","application/epub+zip":"https://www.gutenberg.org/ebooks/68921.epub3.images","application/x-mobipocket-ebook":"https://www.gutenberg.org/ebooks/68921.kf8.images","text/plain; charset=us-ascii":"https://www.gutenberg.org/ebooks/68921.txt.utf-8","application/rdf+xml":"https://www.gutenberg.org/ebooks/68921.rdf","image/jpeg":"https://www.gutenberg.org/cache/epub/68921/pg68921.cover.medium.jpg","application/octet-stream":"https://www.gutenberg.org/files/68921/68921-0.zip"},"download_count":27},{"id":69016,"title":"The construction and maintenance of earth roads","authors":[{"name":"Lyman, Richard Roswell","birth_year":1870,"death_year":1963}],"translators":[],"subjects":["Roads"],"bookshelves":[],"languages":["en"],"copyright":false,"media_type":"Text","formats":{"text/html":"https://www.gutenberg.org/ebooks/69016.html.images","application/epub+zip":"https://www.gutenberg.org/ebooks/69016.epub3.images","application/x-mobipocket-ebook":"https://www.gutenberg.org/ebooks/69016.kf8.images","text/plain; charset=us-ascii":"https://www.gutenberg.org/ebooks/69016.txt.utf-8","application/rdf+xml":"https://www.gutenberg.org/ebooks/69016.rdf","image/jpeg":"https://www.gutenberg.org/cache/epub/69016/pg69016.cover.medium.jpg","application/octet-stream":"https://www.gutenberg.org/files/69016/69016-0.zip"},"download_count":27},{"id":69047,"title":"The Tiddly Winks","authors":[{"name":"Smith, Laura Rountree","birth_year":1876,"death_year":1924}],"translators":[],"subjects":["Fairies -- Juvenile fiction","Readers (Primary)"],"bookshelves":[],"languages":["en"],"copyright":false,"media_type":"Text","formats":{"text/html":"https://www.gutenberg.org/ebooks/69047.html.images","application/epub+zip":"https://www.gutenberg.org/ebooks/69047.epub3.images","application/x-mobipocket-ebook":"https://www.gutenberg.org/ebooks/69047.kf8.images","text/plain; charset=us-ascii":"https://www.gutenberg.org/ebooks/69047.txt.utf-8","application/rdf+xml":"https://www.gutenberg.org/ebooks/69047.rdf","image/jpeg":"https://www.gutenberg.org/cache/epub/69047/pg69047.cover.medium.jpg","application/octet-stream":"https://www.gutenberg.org/files/69047/69047-0.zip"},"download_count":27},{"id":69099,"title":"The book of Edinburgh anecdote","authors":[{"name":"Watt, Francis","birth_year":1849,"death_year":1927}],"translators":[],"subjects":["Edinburgh (Scotland) -- History"],"bookshelves":[],"languages":["en"],"copyright":false,"media_type":"Text","formats":{"text/html":"https://www.gutenberg.org/ebooks/69099.html.images","application/epub+zip":"https://www.gutenberg.org/ebooks/69099.epub3.images","application/x-mobipocket-ebook":"https://www.gutenberg.org/ebooks/69099.kf8.images","text/plain; charset=us-ascii":"https://www.gutenberg.org/ebooks/69099.txt.utf-8","application/rdf+xml":"https://www.gutenberg.org/ebooks/69099.rdf","image/jpeg":"https://www.gutenberg.org/cache/epub/69099/pg69099.cover.medium.jpg","application/octet-stream":"https://www.gutenberg.org/files/69099/69099-0.zip"},"download_count":27},{"id":69118,"title":"The West from a car window","authors":[{"name":"Davis, Richard Harding","birth_year":1864,"death_year":1916}],"translators":[],"subjects":["Overland journeys to the Pacific","West (U.S.) -- Description and travel"],"bookshelves":[],"languages":["en"],"copyright":false,"media_type":"Text","formats":{"text/html":"https://www.gutenberg.org/ebooks/69118.html.images","application/epub+zip":"https://www.gutenberg.org/ebooks/69118.epub3.images","application/x-mobipocket-ebook":"https://www.gutenberg.org/ebooks/69118.kf8.images","text/plain; charset=us-ascii":"https://www.gutenberg.org/ebooks/69118.txt.utf-8","application/rdf+xml":"https://www.gutenberg.org/ebooks/69118.rdf","image/jpeg":"https://www.gutenberg.org/cache/epub/69118/pg69118.cover.medium.jpg","application/octet-stream":"https://www.gutenberg.org/files/69118/69118-0.zip"},"download_count":27},{"id":69211,"title":"The angry house","authors":[{"name":"Smith, Richard Rein","birth_year":1930,"death_year":null}],"translators":[],"subjects":["Artificial intelligence -- Fiction","Burglars -- Fiction","Dwellings -- Fiction","Science fiction","Short stories"],"bookshelves":[],"languages":["en"],"copyright":false,"media_type":"Text","formats":{"text/html":"https://www.gutenberg.org/ebooks/69211.html.images","application/epub+zip":"https://www.gutenberg.org/ebooks/69211.epub3.images","application/x-mobipocket-ebook":"https://www.gutenberg.org/ebooks/69211.kf8.images","text/plain; charset=us-ascii":"https://www.gutenberg.org/ebooks/69211.txt.utf-8","application/rdf+xml":"https://www.gutenberg.org/ebooks/69211.rdf","image/jpeg":"https://www.gutenberg.org/cache/epub/69211/pg69211.cover.medium.jpg","application/octet-stream":"https://www.gutenberg.org/files/69211/69211-0.zip"},"download_count":27},{"id":69354,"title":"Three gringos in Venezuela and Central America","authors":[{"name":"Davis, Richard Harding","birth_year":1864,"death_year":1916}],"translators":[],"subjects":["Central America -- Description and travel","Louisiana State Lottery Company","Venezuela -- Description and travel"],"bookshelves":[],"languages":["en"],"copyright":false,"media_type":"Text","formats":{"text/html":"https://www.gutenberg.org/ebooks/69354.html.images","application/epub+zip":"https://www.gutenberg.org/ebooks/69354.epub3.images","application/x-mobipocket-ebook":"https://www.gutenberg.org/ebooks/69354.kf8.images","text/plain; charset=us-ascii":"https://www.gutenberg.org/ebooks/69354.txt.utf-8","application/rdf+xml":"https://www.gutenberg.org/ebooks/69354.rdf","image/jpeg":"https://www.gutenberg.org/cache/epub/69354/pg69354.cover.medium.jpg","application/octet-stream":"https://www.gutenberg.org/files/69354/69354-0.zip"},"download_count":27},{"id":69390,"title":"Aristocracy in America. From the sketch-book of a German nobleman. vol. 1 (of 2)","authors":[{"name":"Grund, Francis J. (Francis Joseph)","birth_year":1804,"death_year":1863}],"translators":[],"subjects":["Boston (Mass.) -- Social life and customs","New York (N.Y.) -- Social life and customs -- 19th century","Philadelphia (Pa.) -- Social life and customs","United States -- Social life and customs -- 1783-1865","Washington (D.C.) -- Social life and customs"],"bookshelves":[],"languages":["en"],"copyright":false,"media_type":"Text","formats":{"text/html":"https://www.gutenberg.org/ebooks/69390.html.images","application/epub+zip":"https://www.gutenberg.org/ebooks/69390.epub3.images","application/x-mobipocket-ebook":"https://www.gutenberg.org/ebooks/69390.kf8.images","text/plain; charset=us-ascii":"https://www.gutenberg.org/ebooks/69390.txt.utf-8","application/rdf+xml":"https://www.gutenberg.org/ebooks/69390.rdf","image/jpeg":"https://www.gutenberg.org/cache/epub/69390/pg69390.cover.medium.jpg","application/octet-stream":"https://www.gutenberg.org/files/69390/69390-0.zip"},"download_count":27},{"id":69400,"title":"Gay life in Paris: how life is enjoyed by the people of that great metropolis","authors":[{"name":"Anonymous","birth_year":null,"death_year":null}],"translators":[],"subjects":["Paris (France) -- Social life and customs -- 19th century"],"bookshelves":[],"languages":["en"],"copyright":false,"media_type":"Text","formats":{"text/html":"https://www.gutenberg.org/ebooks/69400.html.images","application/epub+zip":"https://www.gutenberg.org/ebooks/69400.epub3.images","application/x-mobipocket-ebook":"https://www.gutenberg.org/ebooks/69400.kf8.images","text/plain; charset=us-ascii":"https://www.gutenberg.org/ebooks/69400.txt.utf-8","application/rdf+xml":"https://www.gutenberg.org/ebooks/69400.rdf","image/jpeg":"https://www.gutenberg.org/cache/epub/69400/pg69400.cover.medium.jpg","application/octet-stream":"https://www.gutenberg.org/files/69400/69400-0.zip"},"download_count":27},{"id":69439,"title":"Physiological economy in nutrition, with special reference to the minimal proteid requirement of the healthy man: an experimental study","authors":[{"name":"Chittenden, R. H. (Russell Henry)","birth_year":1856,"death_year":1943}],"translators":[],"subjects":["Metabolism","Nutrition"],"bookshelves":[],"languages":["en"],"copyright":false,"media_type":"Text","formats":{"text/html":"https://www.gutenberg.org/ebooks/69439.html.images","application/epub+zip":"https://www.gutenberg.org/ebooks/69439.epub3.images","application/x-mobipocket-ebook":"https://www.gutenberg.org/ebooks/69439.kf8.images","text/plain; charset=us-ascii":"https://www.gutenberg.org/ebooks/69439.txt.utf-8","application/rdf+xml":"https://www.gutenberg.org/ebooks/69439.rdf","image/jpeg":"https://www.gutenberg.org/cache/epub/69439/pg69439.cover.medium.jpg","application/octet-stream":"https://www.gutenberg.org/files/69439/69439-0.zip"},"download_count":27},{"id":69442,"title":"Medical symbolism in connection with historical studies in the arts of healing and hygiene","authors":[{"name":"Sozinskey, Thomas S.","birth_year":null,"death_year":1889}],"translators":[],"subjects":["Symbolism in medicine"],"bookshelves":[],"languages":["en"],"copyright":false,"media_type":"Text","formats":{"text/html":"https://www.gutenberg.org/ebooks/69442.html.images","application/epub+zip":"https://www.gutenberg.org/ebooks/69442.epub3.images","application/x-mobipocket-ebook":"https://www.gutenberg.org/ebooks/69442.kf8.images","text/plain; charset=us-ascii":"https://www.gutenberg.org/ebooks/69442.txt.utf-8","application/rdf+xml":"https://www.gutenberg.org/ebooks/69442.rdf","image/jpeg":"https://www.gutenberg.org/cache/epub/69442/pg69442.cover.medium.jpg","application/octet-stream":"https://www.gutenberg.org/files/69442/69442-0.zip"},"download_count":27},{"id":69493,"title":"Lessons in chalk modeling: The new method of map drawing","authors":[{"name":"Heffron, Ida Cassa","birth_year":null,"death_year":null}],"translators":[],"subjects":["Geography -- Study and teaching","Map drawing"],"bookshelves":[],"languages":["en"],"copyright":false,"media_type":"Text","formats":{"text/html":"https://www.gutenberg.org/ebooks/69493.html.images","application/epub+zip":"https://www.gutenberg.org/ebooks/69493.epub3.images","application/x-mobipocket-ebook":"https://www.gutenberg.org/ebooks/69493.kf8.images","text/plain; charset=us-ascii":"https://www.gutenberg.org/ebooks/69493.txt.utf-8","application/rdf+xml":"https://www.gutenberg.org/ebooks/69493.rdf","image/jpeg":"https://www.gutenberg.org/cache/epub/69493/pg69493.cover.medium.jpg","application/octet-stream":"https://www.gutenberg.org/files/69493/69493-0.zip"},"download_count":27},{"id":69510,"title":"Goa and the Blue Mountains; or, Six months of sick leave","authors":[{"name":"Burton, Richard Francis, Sir","birth_year":1821,"death_year":1890}],"translators":[],"subjects":["Goa (India : State) -- Description and travel","Goa (India : State) -- Social life and customs","Malabar Coast (India) -- Description and travel","Malabar Coast (India) -- Social life and customs","Nilgiri Hills (India) -- Description and travel","Nilgiri Hills (India) -- Social life and customs"],"bookshelves":[],"languages":["en"],"copyright":false,"media_type":"Text","formats":{"text/html":"https://www.gutenberg.org/ebooks/69510.html.images","application/epub+zip":"https://www.gutenberg.org/ebooks/69510.epub3.images","application/x-mobipocket-ebook":"https://www.gutenberg.org/ebooks/69510.kf8.images","text/plain; charset=us-ascii":"https://www.gutenberg.org/ebooks/69510.txt.utf-8","application/rdf+xml":"https://www.gutenberg.org/ebooks/69510.rdf","image/jpeg":"https://www.gutenberg.org/cache/epub/69510/pg69510.cover.medium.jpg","application/octet-stream":"https://www.gutenberg.org/files/69510/69510-0.zip"},"download_count":27},{"id":69521,"title":"Surprise house","authors":[{"name":"Brown, Abbie Farwell","birth_year":1871,"death_year":1927}],"translators":[],"subjects":["Cats -- Juvenile fiction","Families -- Juvenile fiction","Inheritance and succession -- Juvenile fiction","Mystery fiction"],"bookshelves":[],"languages":["en"],"copyright":false,"media_type":"Text","formats":{"text/html":"https://www.gutenberg.org/ebooks/69521.html.images","application/epub+zip":"https://www.gutenberg.org/ebooks/69521.epub3.images","application/x-mobipocket-ebook":"https://www.gutenberg.org/ebooks/69521.kf8.images","text/plain; charset=us-ascii":"https://www.gutenberg.org/ebooks/69521.txt.utf-8","application/rdf+xml":"https://www.gutenberg.org/ebooks/69521.rdf","image/jpeg":"https://www.gutenberg.org/cache/epub/69521/pg69521.cover.medium.jpg","application/octet-stream":"https://www.gutenberg.org/files/69521/69521-0.zip"},"download_count":27},{"id":69546,"title":"Together","authors":[{"name":"Douglas, Norman","birth_year":1868,"death_year":1952}],"translators":[],"subjects":["Tyrol (Austria) -- Description and travel"],"bookshelves":[],"languages":["en"],"copyright":false,"media_type":"Text","formats":{"text/html":"https://www.gutenberg.org/ebooks/69546.html.images","application/epub+zip":"https://www.gutenberg.org/ebooks/69546.epub3.images","application/x-mobipocket-ebook":"https://www.gutenberg.org/ebooks/69546.kf8.images","text/plain; charset=us-ascii":"https://www.gutenberg.org/ebooks/69546.txt.utf-8","application/rdf+xml":"https://www.gutenberg.org/ebooks/69546.rdf","image/jpeg":"https://www.gutenberg.org/cache/epub/69546/pg69546.cover.medium.jpg","application/octet-stream":"https://www.gutenberg.org/files/69546/69546-0.zip"},"download_count":27},{"id":69547,"title":"Never the twain shall meet","authors":[{"name":"Kyne, Peter B. (Peter Bernard)","birth_year":1880,"death_year":1957}],"translators":[],"subjects":["Guardian and ward -- Fiction","Islands -- Fiction","Man-woman relationships -- Fiction","San Francisco (Calif.) -- Fiction","South Pacific Ocean -- Fiction","Triangles (Interpersonal relations) -- Fiction"],"bookshelves":[],"languages":["en"],"copyright":false,"media_type":"Text","formats":{"text/html":"https://www.gutenberg.org/ebooks/69547.html.images","application/epub+zip":"https://www.gutenberg.org/ebooks/69547.epub3.images","application/x-mobipocket-ebook":"https://www.gutenberg.org/ebooks/69547.kf8.images","text/plain; charset=us-ascii":"https://www.gutenberg.org/ebooks/69547.txt.utf-8","application/rdf+xml":"https://www.gutenberg.org/ebooks/69547.rdf","image/jpeg":"https://www.gutenberg.org/cache/epub/69547/pg69547.cover.medium.jpg","application/octet-stream":"https://www.gutenberg.org/files/69547/69547-0.zip"},"download_count":27},{"id":69588,"title":"The romance of the Canadian Pacific Railway","authors":[{"name":"MacBeth, R. G. (Roderick George)","birth_year":1858,"death_year":1934}],"translators":[],"subjects":["Canadian Pacific Railway Company"],"bookshelves":[],"languages":["en"],"copyright":false,"media_type":"Text","formats":{"text/html":"https://www.gutenberg.org/ebooks/69588.html.images","application/epub+zip":"https://www.gutenberg.org/ebooks/69588.epub3.images","application/x-mobipocket-ebook":"https://www.gutenberg.org/ebooks/69588.kf8.images","text/plain; charset=us-ascii":"https://www.gutenberg.org/ebooks/69588.txt.utf-8","application/rdf+xml":"https://www.gutenberg.org/ebooks/69588.rdf","image/jpeg":"https://www.gutenberg.org/cache/epub/69588/pg69588.cover.medium.jpg","application/octet-stream":"https://www.gutenberg.org/files/69588/69588-0.zip"},"download_count":27}]}