{"count":58808,"next":"http://129.241.150.113:8000/books/?languages=en&page=1709","previous":"http://129.241.150.113:8000/books/?languages=en&page=1707","results":[{"id":7357,"title":"J. Cole","authors":[{"name":"Gellibrand, Emma","birth_year":null,"death_year":null}],"translators":[],"subjects":["Children -- Conduct of life -- Fiction","Household employees -- Fiction"],"bookshelves":[],"languages":["en"],"copyright":false,"media_type":"Text","formats":{"text/html":"https://www.gutenberg.org/ebooks/7357.html.images","text/html; charset=utf-8":"https://www.gutenberg.org/files/7357/7357-h/7357-h.htm","application/epub+zip":"https://www.gutenberg.org/ebooks/7357.epub3.images","application/x-mobipocket-ebook":"https://www.gutenberg.org/ebooks/7357.kf8.images","text/plain; charset=us-ascii":"https://www.gutenberg.org/ebooks/7357.txt.utf-8","text/plain; charset=utf-8":"https://www.gutenberg.org/files/7357/7357-0.txt","text/plain; charset=iso-8859-1":"https://www.gutenberg.org/files/7357/7357-8.txt","application/rdf+xml":"https://www.gutenberg.org/ebooks/7357.rdf","image/jpeg":"https://www.gutenberg.org/cache/epub/7357/pg7357.cover.medium.jpg","application/octet-stream":"https://www.gutenberg.org/cache/epub/7357/pg7357-h.zip"},"download_count":17},{"id":7391,"title":"The Poetical Works of Oliver Wendell Holmes — Volume 04: Songs in Many Keys","authors":[{"name":"Holmes, Oliver Wendell","birth_year":1809,"death_year":1894}],"translators":[],"subjects":["American poetry"],"bookshelves":[],"languages":["en"],"copyright":false,"media_type":"Text","formats":{"text/html":"https://www.gutenberg.org/ebooks/7391.html.images","application/epub+zip":"https://www.gutenberg.org/ebooks/7391.epub3.images","application/x-mobipocket-ebook":"https://www.gutenberg.org/ebooks/7391.kf8.images","text/plain; charset=us-ascii":"https://www.gutenberg.org/ebooks/7391.txt.utf-8","application/rdf+xml":"https://www.gutenberg.org/ebooks/7391.rdf","image/jpeg":"https://www.gutenberg.org/cache/epub/7391/pg7391.cover.medium.jpg","application/octet-stream":"https://www.gutenberg.org/cache/epub/7391/pg7391-h.zip"},"download_count":17},{"id":7580,"title":"Widger's Quotes and Images from Conscience by Hector Malot: The French Immortals: Quotes and Images","authors":[{"name":"Malot, Hector","birth_year":1830,"death_year":1907}],"translators":[],"subjects":["Quotations, French -- Translations into English"],"bookshelves":[],"languages":["en"],"copyright":false,"media_type":"Text","formats":{"text/html":"https://www.gutenberg.org/ebooks/7580.html.images","text/html; charset=us-ascii":"https://www.gutenberg.org/files/7580/7580-h/7580-h.htm","application/epub+zip":"https://www.gutenberg.org/ebooks/7580.epub3.images","application/x-mobipocket-ebook":"https://www.gutenberg.org/ebooks/7580.kf8.images","text/plain; charset=us-ascii":"https://www.gutenberg.org/ebooks/7580.txt.utf-8","application/rdf+xml":"https://www.gutenberg.org/ebooks/7580.rdf","image/jpeg":"https://www.gutenberg.org/cache/epub/7580/pg7580.cover.medium.jpg","application/octet-stream":"https://www.gutenberg.org/cache/epub/7580/pg7580-h.zip"},"download_count":17},{"id":7621,"title":"Pelham — Volume 07","authors":[{"name":"Lytton, Edward Bulwer Lytton, Baron","birth_year":1803,"death_year":1873}],"translators":[],"subjects":["Adventure stories","English fiction -- 19th century","Great Britain -- History -- 19th century -- Fiction"],"bookshelves":[],"languages":["en"],"copyright":false,"media_type":"Text","formats":{"text/html":"https://www.gutenberg.org/ebooks/7621.html.images","application/epub+zip":"https://www.gutenberg.org/ebooks/7621.epub3.images","application/x-mobipocket-ebook":"https://www.gutenberg.org/ebooks/7621.kf8.images","text/plain; charset=us-ascii":"https://www.gutenberg.org/ebooks/7621.txt.utf-8","application/rdf+xml":"https://www.gutenberg.org/ebooks/7621.rdf","image/jpeg":"https://www.gutenberg.org/cache/epub/7621/pg7621.cover.medium.jpg","application/octet-stream":"https://www.gutenberg.org/cache/epub/7621/pg7621-h.zip"},"download_count":17},{"id":7647,"title":"Ernest Maltravers — Volume 08","authors":[{"name":"Lytton, Edward Bulwer Lytton, Baron","birth_year":1803,"death_year":1873}],"translators":[],"subjects":["English fiction -- 19th century"],"bookshelves":[],"languages":["en"],"copyright":false,"media_type":"Text","formats":{"text/html":"https://www.gutenberg.org/ebooks/7647.html.images","application/epub+zip":"https://www.gutenberg.org/ebooks/7647.epub3.images","application/x-mobipocket-ebook":"https://www.gutenberg.org/ebooks/7647.kf8.images","text/plain; charset=us-ascii":"https://www.gutenberg.org/ebooks/7647.txt.utf-8","application/rdf+xml":"https://www.gutenberg.org/ebooks/7647.rdf","image/jpeg":"https://www.gutenberg.org/cache/epub/7647/pg7647.cover.medium.jpg","application/octet-stream":"https://www.gutenberg.org/cache/epub/7647/pg7647-h.zip"},"download_count":17},{"id":7685,"title":"Lucretia — Volume 01","authors":[{"name":"Lytton, Edward Bulwer Lytton, Baron","birth_year":1803,"death_year":1873}],"translators":[],"subjects":["Crime -- Fiction","Detective and mystery stories, English","English fiction -- 19th century","London (England) -- Fiction"],"bookshelves":[],"languages":["en"],"copyright":false,"media_type":"Text","formats":{"text/html":"https://www.gutenberg.org/ebooks/7685.html.images","application/epub+zip":"https://www.gutenberg.org/ebooks/7685.epub3.images","application/x-mobipocket-ebook":"https://www.gutenberg.org/ebooks/7685.kf8.images","text/plain; charset=us-ascii":"https://www.gutenberg.org/ebooks/7685.txt.utf-8","application/rdf+xml":"https://www.gutenberg.org/ebooks/7685.rdf","image/jpeg":"https://www.gutenberg.org/cache/epub/7685/pg7685.cover.medium.jpg","application/octet-stream":"https://www.gutenberg.org/cache/epub/7685/pg7685-h.zip"},"download_count":17},{"id":7718,"title":"The Last of the Barons — Volume 04","authors":[{"name":"Lytton, Edward Bulwer Lytton, Baron","birth_year":1803,"death_year":1873}],"translators":[],"subjects":["Great Britain -- History -- Wars of the Roses, 1455-1485 -- Fiction","Warwick, Richard Neville, Earl of, 1428-1471 -- Fiction"],"bookshelves":["Historical Fiction"],"languages":["en"],"copyright":false,"media_type":"Text","formats":{"text/html":"https://www.gutenberg.org/ebooks/7718.html.images","application/epub+zip":"https://www.gutenberg.org/ebooks/7718.epub3.images","application/x-mobipocket-ebook":"https://www.gutenberg.org/ebooks/7718.kf8.images","text/plain; charset=us-ascii":"https://www.gutenberg.org/ebooks/7718.txt.utf-8","application/rdf+xml":"https://www.gutenberg.org/ebooks/7718.rdf","image/jpeg":"https://www.gutenberg.org/cache/epub/7718/pg7718.cover.medium.jpg","application/octet-stream":"https://www.gutenberg.org/cache/epub/7718/pg7718-h.zip"},"download_count":17},{"id":7725,"title":"The Last of the Barons — Volume 11","authors":[{"name":"Lytton, Edward Bulwer Lytton, Baron","birth_year":1803,"death_year":1873}],"translators":[],"subjects":["Great Britain -- History -- Wars of the Roses, 1455-1485 -- Fiction","Warwick, Richard Neville, Earl of, 1428-1471 -- Fiction"],"bookshelves":["Historical Fiction"],"languages":["en"],"copyright":false,"media_type":"Text","formats":{"text/html":"https://www.gutenberg.org/ebooks/7725.html.images","application/epub+zip":"https://www.gutenberg.org/ebooks/7725.epub3.images","application/x-mobipocket-ebook":"https://www.gutenberg.org/ebooks/7725.kf8.images","text/plain; charset=us-ascii":"https://www.gutenberg.org/ebooks/7725.txt.utf-8","application/rdf+xml":"https://www.gutenberg.org/ebooks/7725.rdf","image/jpeg":"https://www.gutenberg.org/cache/epub/7725/pg7725.cover.medium.jpg","application/octet-stream":"https://www.gutenberg.org/cache/epub/7725/pg7725-h.zip"},"download_count":17},{"id":7754,"title":"Godolphin, Volume 5.","authors":[{"name":"Lytton, Edward Bulwer Lytton, Baron","birth_year":1803,"death_year":1873}],"translators":[],"subjects":["England -- Social life and customs -- 19th century -- Fiction"],"bookshelves":[],"languages":["en"],"copyright":false,"media_type":"Text","formats":{"text/html":"https://www.gutenberg.org/ebooks/7754.html.images","application/epub+zip":"https://www.gutenberg.org/ebooks/7754.epub3.images","application/x-mobipocket-ebook":"https://www.gutenberg.org/ebooks/7754.kf8.images","text/plain; charset=us-ascii":"https://www.gutenberg.org/ebooks/7754.txt.utf-8","application/rdf+xml":"https://www.gutenberg.org/ebooks/7754.rdf","image/jpeg":"https://www.gutenberg.org/cache/epub/7754/pg7754.cover.medium.jpg","application/octet-stream":"https://www.gutenberg.org/cache/epub/7754/pg7754-h.zip"},"download_count":17},{"id":7757,"title":"Falkland, Book 1.","authors":[{"name":"Lytton, Edward Bulwer Lytton, Baron","birth_year":1803,"death_year":1873}],"translators":[],"subjects":["Fiction"],"bookshelves":[],"languages":["en"],"copyright":false,"media_type":"Text","formats":{"text/html":"https://www.gutenberg.org/ebooks/7757.html.images","application/epub+zip":"https://www.gutenberg.org/ebooks/7757.epub3.images","application/x-mobipocket-ebook":"https://www.gutenberg.org/ebooks/7757.kf8.images","text/plain; charset=us-ascii":"https://www.gutenberg.org/ebooks/7757.txt.utf-8","application/rdf+xml":"https://www.gutenberg.org/ebooks/7757.rdf","image/jpeg":"https://www.gutenberg.org/cache/epub/7757/pg7757.cover.medium.jpg","application/octet-stream":"https://www.gutenberg.org/cache/epub/7757/pg7757-h.zip"},"download_count":17},{"id":7759,"title":"Falkland, Book 3.","authors":[{"name":"Lytton, Edward Bulwer Lytton, Baron","birth_year":1803,"death_year":1873}],"translators":[],"subjects":["Fiction"],"bookshelves":[],"languages":["en"],"copyright":false,"media_type":"Text","formats":{"text/html":"https://www.gutenberg.org/ebooks/7759.html.images","application/epub+zip":"https://www.gutenberg.org/ebooks/7759.epub3.images","application/x-mobipocket-ebook":"https://www.gutenberg.org/ebooks/7759.kf8.images","text/plain; charset=us-ascii":"https://www.gutenberg.org/ebooks/7759.txt.utf-8","application/rdf+xml":"https://www.gutenberg.org/ebooks/7759.rdf","image/jpeg":"https://www.gutenberg.org/cache/epub/7759/pg7759.cover.medium.jpg","application/octet-stream":"https://www.gutenberg.org/cache/epub/7759/pg7759-h.zip"},"download_count":17},{"id":7764,"title":"Little Bear at Work and at Play","authors":[{"name":"Fox, Frances Margaret","birth_year":1870,"death_year":1959}],"translators":[],"subjects":["Bears -- Juvenile fiction"],"bookshelves":[],"languages":["en"],"copyright":false,"media_type":"Text","formats":{"text/html":"https://www.gutenberg.org/ebooks/7764.html.images","application/epub+zip":"https://www.gutenberg.org/ebooks/7764.epub3.images","application/x-mobipocket-ebook":"https://www.gutenberg.org/ebooks/7764.kf8.images","text/plain; charset=us-ascii":"https://www.gutenberg.org/ebooks/7764.txt.utf-8","application/rdf+xml":"https://www.gutenberg.org/ebooks/7764.rdf","image/jpeg":"https://www.gutenberg.org/cache/epub/7764/pg7764.cover.medium.jpg","application/octet-stream":"https://www.gutenberg.org/cache/epub/7764/pg7764-h.zip"},"download_count":17},{"id":7798,"title":"The Village Coquette; Or, The Supposed Lottery","authors":[{"name":"Dufresny, Charles Rivière","birth_year":1657,"death_year":1724}],"translators":[{"name":"Morlock, Frank J.","birth_year":null,"death_year":null}],"subjects":["Comedies","French drama -- 18th century -- Translations into English"],"bookshelves":[],"languages":["en"],"copyright":true,"media_type":"Text","formats":{"text/html":"https://www.gutenberg.org/ebooks/7798.html.images","application/epub+zip":"https://www.gutenberg.org/ebooks/7798.epub3.images","application/x-mobipocket-ebook":"https://www.gutenberg.org/ebooks/7798.kf8.images","text/plain; charset=us-ascii":"https://www.gutenberg.org/ebooks/7798.txt.utf-8","text/plain; charset=iso-8859-1":"https://www.gutenberg.org/files/7798/7798-8.txt","application/rdf+xml":"https://www.gutenberg.org/ebooks/7798.rdf","image/jpeg":"https://www.gutenberg.org/cache/epub/7798/pg7798.cover.medium.jpg","application/octet-stream":"https://www.gutenberg.org/cache/epub/7798/pg7798-h.zip"},"download_count":17},{"id":7863,"title":"The Avalanche: A Mystery Story","authors":[{"name":"Atherton, Gertrude Franklin Horn","birth_year":1857,"death_year":1948}],"translators":[],"subjects":["Detective and mystery stories"],"bookshelves":["Contemporary Reviews"],"languages":["en"],"copyright":false,"media_type":"Text","formats":{"text/html":"https://www.gutenberg.org/ebooks/7863.html.images","application/epub+zip":"https://www.gutenberg.org/ebooks/7863.epub3.images","application/x-mobipocket-ebook":"https://www.gutenberg.org/ebooks/7863.kf8.images","text/plain; charset=us-ascii":"https://www.gutenberg.org/ebooks/7863.txt.utf-8","text/plain; charset=iso-8859-1":"https://www.gutenberg.org/files/7863/7863-8.txt","application/rdf+xml":"https://www.gutenberg.org/ebooks/7863.rdf","image/jpeg":"https://www.gutenberg.org/cache/epub/7863/pg7863.cover.medium.jpg","application/octet-stream":"https://www.gutenberg.org/cache/epub/7863/pg7863-h.zip"},"download_count":17},{"id":7898,"title":"Mouser Cat's Story","authors":[{"name":"Prentice, Amy","birth_year":null,"death_year":null}],"translators":[],"subjects":["Animals -- Juvenile fiction","Cats -- Juvenile fiction","Storytelling -- Juvenile fiction"],"bookshelves":[],"languages":["en"],"copyright":false,"media_type":"Text","formats":{"text/html":"https://www.gutenberg.org/ebooks/7898.html.images","text/html; charset=iso-8859-1":"https://www.gutenberg.org/files/7898/7898-h/7898-h.htm","application/epub+zip":"https://www.gutenberg.org/ebooks/7898.epub3.images","application/x-mobipocket-ebook":"https://www.gutenberg.org/ebooks/7898.kf8.images","text/plain; charset=us-ascii":"https://www.gutenberg.org/ebooks/7898.txt.utf-8","application/rdf+xml":"https://www.gutenberg.org/ebooks/7898.rdf","image/jpeg":"https://www.gutenberg.org/cache/epub/7898/pg7898.cover.medium.jpg","application/octet-stream":"https://www.gutenberg.org/cache/epub/7898/pg7898-h.zip"},"download_count":17},{"id":7906,"title":"American Historical and Literary Curiosities, Part 06","authors":[{"name":"Smith, J. Jay (John Jay)","birth_year":1798,"death_year":1881},{"name":"Watson, John F. (John Fanning)","birth_year":1779,"death_year":1860}],"translators":[],"subjects":["Autographs -- United States -- Facsimiles","United States -- History -- Revolution, 1775-1783 -- Sources"],"bookshelves":[],"languages":["en"],"copyright":false,"media_type":"Text","formats":{"text/html":"https://www.gutenberg.org/ebooks/7906.html.images","text/html; charset=iso-8859-1":"https://www.gutenberg.org/files/7906/7906-h/7906-h.htm","application/epub+zip":"https://www.gutenberg.org/ebooks/7906.epub3.images","application/x-mobipocket-ebook":"https://www.gutenberg.org/ebooks/7906.kf8.images","text/plain; charset=us-ascii":"https://www.gutenberg.org/ebooks/7906.txt.utf-8","text/plain; charset=iso-8859-1":"https://www.gutenberg.org/files/7906/7906.txt","application/rdf+xml":"https://www.gutenberg.org/ebooks/7906.rdf","image/jpeg":"https://www.gutenberg.org/cache/epub/7906/pg7906.cover.medium.jpg","application/octet-stream":"https://www.gutenberg.org/cache/epub/7906/pg7906-h.zip"},"download_count":17},{"id":7932,"title":"Brook Farm: Historic and Personal Memoirs","authors":[{"name":"Codman, John Thomas","birth_year":null,"death_year":null}],"translators":[],"subjects":["Brook Farm Phalanx (West Roxbury, Boston, Mass.)"],"bookshelves":[],"languages":["en"],"copyright":false,"media_type":"Text","formats":{"text/html":"https://www.gutenberg.org/ebooks/7932.html.images","application/epub+zip":"https://www.gutenberg.org/ebooks/7932.epub3.images","application/x-mobipocket-ebook":"https://www.gutenberg.org/ebooks/7932.kf8.images","text/plain; charset=us-ascii":"https://www.gutenberg.org/ebooks/7932.txt.utf-8","text/plain; charset=iso-8859-1":"https://www.gutenberg.org/files/7932/7932-8.txt","application/rdf+xml":"https://www.gutenberg.org/ebooks/7932.rdf","image/jpeg":"https://www.gutenberg.org/cache/epub/7932/pg7932.cover.medium.jpg","application/octet-stream":"https://www.gutenberg.org/cache/epub/7932/pg7932-h.zip"},"download_count":17},{"id":8006,"title":"The Bible, King James version, Book 6: Joshua","authors":[{"name":"Anonymous","birth_year":null,"death_year":null}],"translators":[],"subjects":["Bible. Joshua"],"bookshelves":["Judaism"],"languages":["en"],"copyright":false,"media_type":"Text","formats":{"text/html":"https://www.gutenberg.org/ebooks/8006.html.images","application/epub+zip":"https://www.gutenberg.org/ebooks/8006.epub3.images","application/x-mobipocket-ebook":"https://www.gutenberg.org/ebooks/8006.kf8.images","text/plain; charset=us-ascii":"https://www.gutenberg.org/ebooks/8006.txt.utf-8","application/rdf+xml":"https://www.gutenberg.org/ebooks/8006.rdf","image/jpeg":"https://www.gutenberg.org/cache/epub/8006/pg8006.cover.medium.jpg","application/octet-stream":"https://www.gutenberg.org/cache/epub/8006/pg8006-h.zip"},"download_count":17},{"id":8033,"title":"The Bible, King James version, Book 33: Micah","authors":[{"name":"Anonymous","birth_year":null,"death_year":null}],"translators":[],"subjects":["Bible. Micah"],"bookshelves":["Judaism"],"languages":["en"],"copyright":false,"media_type":"Text","formats":{"text/html":"https://www.gutenberg.org/ebooks/8033.html.images","application/epub+zip":"https://www.gutenberg.org/ebooks/8033.epub3.images","application/x-mobipocket-ebook":"https://www.gutenberg.org/ebooks/8033.kf8.images","text/plain; charset=us-ascii":"https://www.gutenberg.org/ebooks/8033.txt.utf-8","application/rdf+xml":"https://www.gutenberg.org/ebooks/8033.rdf","image/jpeg":"https://www.gutenberg.org/cache/epub/8033/pg8033.cover.medium.jpg","application/octet-stream":"https://www.gutenberg.org/cache/epub/8033/pg8033-h.zip"},"download_count":17},{"id":8122,"title":"Legends of the Northwest","authors":[{"name":"Gordon, Hanford Lennox","birth_year":1836,"death_year":1920}],"translators":[],"subjects":["Dakota Indians -- Folklore","Dakota Indians -- Poetry","Ojibwa Indians -- Folklore","Ojibwa Indians -- Poetry"],"bookshelves":[],"languages":["en"],"copyright":false,"media_type":"Text","formats":{"text/html":"https://www.gutenberg.org/ebooks/8122.html.images","text/html; charset=iso-8859-1":"https://www.gutenberg.org/files/8122/8122-h/8122-h.htm","application/epub+zip":"https://www.gutenberg.org/ebooks/8122.epub3.images","application/x-mobipocket-ebook":"https://www.gutenberg.org/ebooks/8122.kf8.images","text/plain; charset=us-ascii":"https://www.gutenberg.org/ebooks/8122.txt.utf-8","text/plain; charset=iso-8859-1":"https://www.gutenberg.org/files/8122/8122-8.txt","application/rdf+xml":"https://www.gutenberg.org/ebooks/8122.rdf","image/jpeg":"https://www.gutenberg.org/cache/epub/8122/pg8122.cover.medium.jpg","application/octet-stream":"https://www.gutenberg.org/cache/epub/8122/pg8122-h.zip"},"download_count":17},{"id":8257,"title":"The World English Bible (WEB): Amos","authors":[{"name":"Anonymous","birth_year":null,"death_year":null}],"translators":[],"subjects":["Bible. Amos"],"bookshelves":[],"languages":["en"],"copyright":false,"media_type":"Text","formats":{"text/html":"https://www.gutenberg.org/ebooks/8257.html.images","application/epub+zip":"https://www.gutenberg.org/ebooks/8257.epub3.images","application/x-mobipocket-ebook":"https://www.gutenberg.org/ebooks/8257.kf8.images","text/plain; charset=us-ascii":"https://www.gutenberg.org/ebooks/8257.txt.utf-8","application/rdf+xml":"https://www.gutenberg.org/ebooks/8257.rdf","image/jpeg":"https://www.gutenberg.org/cache/epub/8257/pg8257.cover.medium.jpg","application/octet-stream":"https://www.gutenberg.org/cache/epub/8257/pg8257-h.zip"},"download_count":17},{"id":8279,"title":"The World English Bible (WEB): 1 Thessalonians","authors":[{"name":"Anonymous","birth_year":null,"death_year":null}],"translators":[],"subjects":["Bible. Thessalonians, 1st"],"bookshelves":[],"languages":["en"],"copyright":false,"media_type":"Text","formats":{"text/html":"https://www.gutenberg.org/ebooks/8279.html.images","application/epub+zip":"https://www.gutenberg.org/ebooks/8279.epub3.images","application/x-mobipocket-ebook":"https://www.gutenberg.org/ebooks/8279.kf8.images","text/plain; charset=us-ascii":"https://www.gutenberg.org/ebooks/8279.txt.utf-8","application/rdf+xml":"https://www.gutenberg.org/ebooks/8279.rdf","image/jpeg":"https://www.gutenberg.org/cache/epub/8279/pg8279.cover.medium.jpg","application/octet-stream":"https://www.gutenberg.org/cache/epub/8279/pg8279-h.zip"},"download_count":17},{"id":8282,"title":"The World English Bible (WEB): 2 Timothy","authors":[{"name":"Anonymous","birth_year":null,"death_year":null}],"translators":[],"subjects":["Bible. Timothy, 2nd"],"bookshelves":[],"languages":["en"],"copyright":false,"media_type":"Text","formats":{"text/html":"https://www.gutenberg.org/ebooks/8282.html.images","application/epub+zip":"https://www.gutenberg.org/ebooks/8282.epub3.images","application/x-mobipocket-ebook":"https://www.gutenberg.org/ebooks/8282.kf8.images","text/plain; charset=us-ascii":"https://www.gutenberg.org/ebooks/8282.txt.utf-8","application/rdf+xml":"https://www.gutenberg.org/ebooks/8282.rdf","image/jpeg":"https://www.gutenberg.org/cache/epub/8282/pg8282.cover.medium.jpg","application/octet-stream":"https://www.gutenberg.org/cache/epub/8282/pg8282-h.zip"},"download_count":17},{"id":8291,"title":"The World English Bible (WEB): 3 John","authors":[{"name":"Anonymous","birth_year":null,"death_year":null}],"translators":[],"subjects":["Bible. Epistle of John, 3rd"],"bookshelves":[],"languages":["en"],"copyright":false,"media_type":"Text","formats":{"text/html":"https://www.gutenberg.org/ebooks/8291.html.images","application/epub+zip":"https://www.gutenberg.org/ebooks/8291.epub3.images","application/x-mobipocket-ebook":"https://www.gutenberg.org/ebooks/8291.kf8.images","text/plain; charset=us-ascii":"https://www.gutenberg.org/ebooks/8291.txt.utf-8","application/rdf+xml":"https://www.gutenberg.org/ebooks/8291.rdf","image/jpeg":"https://www.gutenberg.org/cache/epub/8291/pg8291.cover.medium.jpg","application/octet-stream":"https://www.gutenberg.org/cache/epub/8291/pg8291-h.zip"},"download_count":17},{"id":8313,"title":"The Bible, Douay-Rheims, Book 13: 1 Paralipomenon: The Challoner Revision","authors":[],"translators":[],"subjects":["Bible. Chronicles, 1st"],"bookshelves":[],"languages":["en"],"copyright":false,"media_type":"Text","formats":{"text/html":"https://www.gutenberg.org/ebooks/8313.html.images","application/epub+zip":"https://www.gutenberg.org/ebooks/8313.epub3.images","application/x-mobipocket-ebook":"https://www.gutenberg.org/ebooks/8313.kf8.images","text/plain; charset=us-ascii":"https://www.gutenberg.org/ebooks/8313.txt.utf-8","application/rdf+xml":"https://www.gutenberg.org/ebooks/8313.rdf","image/jpeg":"https://www.gutenberg.org/cache/epub/8313/pg8313.cover.medium.jpg","application/octet-stream":"https://www.gutenberg.org/cache/epub/8313/pg8313-h.zip"},"download_count":17},{"id":8340,"title":"The Bible, Douay-Rheims, Book 40: Habacuc: The Challoner Revision","authors":[],"translators":[],"subjects":["Bible. Habakkuk"],"bookshelves":[],"languages":["en"],"copyright":false,"media_type":"Text","formats":{"text/html":"https://www.gutenberg.org/ebooks/8340.html.images","application/epub+zip":"https://www.gutenberg.org/ebooks/8340.epub3.images","application/x-mobipocket-ebook":"https://www.gutenberg.org/ebooks/8340.kf8.images","text/plain; charset=us-ascii":"https://www.gutenberg.org/ebooks/8340.txt.utf-8","application/rdf+xml":"https://www.gutenberg.org/ebooks/8340.rdf","image/jpeg":"https://www.gutenberg.org/cache/epub/8340/pg8340.cover.medium.jpg","application/octet-stream":"https://www.gutenberg.org/cache/epub/8340/pg8340-h.zip"},"download_count":17},{"id":8344,"title":"The Bible, Douay-Rheims, Book 44: Malachias: The Challoner Revision","authors":[],"translators":[],"subjects":["Bible. Malachi"],"bookshelves":[],"languages":["en"],"copyright":false,"media_type":"Text","formats":{"text/html":"https://www.gutenberg.org/ebooks/8344.html.images","application/epub+zip":"https://www.gutenberg.org/ebooks/8344.epub3.images","application/x-mobipocket-ebook":"https://www.gutenberg.org/ebooks/8344.kf8.images","text/plain; charset=us-ascii":"https://www.gutenberg.org/ebooks/8344.txt.utf-8","application/rdf+xml":"https://www.gutenberg.org/ebooks/8344.rdf","image/jpeg":"https://www.gutenberg.org/cache/epub/8344/pg8344.cover.medium.jpg","application/octet-stream":"https://www.gutenberg.org/cache/epub/8344/pg8344-h.zip"},"download_count":17},{"id":8364,"title":"The Bible, Douay-Rheims, Book 64: Philemon: The Challoner Revision","authors":[],"translators":[],"subjects":["Bible. Epistles of Paul","Bible. Philemon"],"bookshelves":[],"languages":["en"],"copyright":false,"media_type":"Text","formats":{"text/html":"https://www.gutenberg.org/ebooks/8364.html.images","application/epub+zip":"https://www.gutenberg.org/ebooks/8364.epub3.images","application/x-mobipocket-ebook":"https://www.gutenberg.org/ebooks/8364.kf8.images","text/plain; charset=us-ascii":"https://www.gutenberg.org/ebooks/8364.txt.utf-8","application/rdf+xml":"https://www.gutenberg.org/ebooks/8364.rdf","image/jpeg":"https://www.gutenberg.org/cache/epub/8364/pg8364.cover.medium.jpg","application/octet-stream":"https://www.gutenberg.org/cache/epub/8364/pg8364-h.zip"},"download_count":17},{"id":8406,"title":"The Subterranean Brotherhood","authors":[{"name":"Hawthorne, Julian","birth_year":1846,"death_year":1934}],"translators":[],"subjects":["Prisons"],"bookshelves":[],"languages":["en"],"copyright":false,"media_type":"Text","formats":{"text/html":"https://www.gutenberg.org/ebooks/8406.html.images","application/epub+zip":"https://www.gutenberg.org/ebooks/8406.epub3.images","application/x-mobipocket-ebook":"https://www.gutenberg.org/ebooks/8406.kf8.images","text/plain; charset=us-ascii":"https://www.gutenberg.org/ebooks/8406.txt.utf-8","text/plain; charset=iso-8859-1":"https://www.gutenberg.org/files/8406/8406-8.txt","application/rdf+xml":"https://www.gutenberg.org/ebooks/8406.rdf","image/jpeg":"https://www.gutenberg.org/cache/epub/8406/pg8406.cover.medium.jpg","application/octet-stream":"https://www.gutenberg.org/cache/epub/8406/pg8406-h.zip"},"download_count":17},{"id":8522,"title":"The Puritans","authors":[{"name":"Bates, Arlo","birth_year":1850,"death_year":1918}],"translators":[],"subjects":["Fiction"],"bookshelves":[],"languages":["en"],"copyright":false,"media_type":"Text","formats":{"text/html":"https://www.gutenberg.org/ebooks/8522.html.images","application/epub+zip":"https://www.gutenberg.org/ebooks/8522.epub3.images","application/x-mobipocket-ebook":"https://www.gutenberg.org/ebooks/8522.kf8.images","text/plain; charset=us-ascii":"https://www.gutenberg.org/ebooks/8522.txt.utf-8","text/plain; charset=iso-8859-1":"https://www.gutenberg.org/files/8522/8522-8.txt","application/rdf+xml":"https://www.gutenberg.org/ebooks/8522.rdf","image/jpeg":"https://www.gutenberg.org/cache/epub/8522/pg8522.cover.medium.jpg","application/octet-stream":"https://www.gutenberg.org/cache/epub/8522/pg8522-h.zip"},"download_count":17},{"id":8529,"title":"The World Decision","authors":[{"name":"Herrick, Robert","birth_year":1868,"death_year":1938}],"translators":[],"subjects":["World War, 1914-1918","World War, 1914-1918 -- France","World War, 1914-1918 -- Italy","World War, 1914-1918 -- United States"],"bookshelves":[],"languages":["en"],"copyright":false,"media_type":"Text","formats":{"text/html":"https://www.gutenberg.org/ebooks/8529.html.images","application/epub+zip":"https://www.gutenberg.org/ebooks/8529.epub3.images","application/x-mobipocket-ebook":"https://www.gutenberg.org/ebooks/8529.kf8.images","text/plain; charset=us-ascii":"https://www.gutenberg.org/ebooks/8529.txt.utf-8","text/plain; charset=iso-8859-1":"https://www.gutenberg.org/files/8529/8529-8.txt","application/rdf+xml":"https://www.gutenberg.org/ebooks/8529.rdf","image/jpeg":"https://www.gutenberg.org/cache/epub/8529/pg8529.cover.medium.jpg","application/octet-stream":"https://www.gutenberg.org/cache/epub/8529/pg8529-h.zip"},"download_count":17},{"id":8588,"title":"Roughing It, Part 7.","authors":[{"name":"Twain, Mark","birth_year":1835,"death_year":1910}],"translators":[],"subjects":["Authors, American -- Homes and haunts -- West (U.S.)","Hawaii -- Description and travel","Twain, Mark, 1835-1910 -- Travel -- West (U.S.)","West (U.S.) -- Description and travel","West (U.S.) -- Intellectual life -- 19th century"],"bookshelves":[],"languages":["en"],"copyright":false,"media_type":"Text","formats":{"text/html":"https://www.gutenberg.org/ebooks/8588.html.images","text/html; charset=iso-8859-1":"https://www.gutenberg.org/files/8588/8588-h/8588-h.htm","application/epub+zip":"https://www.gutenberg.org/ebooks/8588.epub3.images","application/x-mobipocket-ebook":"https://www.gutenberg.org/ebooks/8588.kf8.images","text/plain; charset=us-ascii":"https://www.gutenberg.org/ebooks/8588.txt.utf-8","application/rdf+xml":"https://www.gutenberg.org/ebooks/8588.rdf","image/jpeg":"https://www.gutenberg.org/cache/epub/8588/pg8588.cover.medium.jpg","application/octet-stream":"https://www.gutenberg.org/cache/epub/8588/pg8588-h.zip"},"download_count":17}]}