{"count":58808,"next":"http://129.241.150.113:8000/books/?languages=en&page=809","previous":"http://129.241.150.113:8000/books/?languages=en&page=807","results":[{"id":66651,"title":"Meadowlark Basin","authors":[{"name":"Bower, B. M.","birth_year":1871,"death_year":1940}],"translators":[],"subjects":["Cowboys -- Fiction","Montana -- Fiction","Ranch life -- Fiction","Western stories"],"bookshelves":[],"languages":["en"],"copyright":false,"media_type":"Text","formats":{"text/html":"https://www.gutenberg.org/ebooks/66651.html.images","application/epub+zip":"https://www.gutenberg.org/ebooks/66651.epub3.images","application/x-mobipocket-ebook":"https://www.gutenberg.org/ebooks/66651.kf8.images","text/plain; charset=us-ascii":"https://www.gutenberg.org/ebooks/66651.txt.utf-8","application/rdf+xml":"https://www.gutenberg.org/ebooks/66651.rdf","image/jpeg":"https://www.gutenberg.org/cache/epub/66651/pg66651.cover.medium.jpg","application/octet-stream":"https://www.gutenberg.org/files/66651/66651-0.zip"},"download_count":43},{"id":66723,"title":"Stop, You're Killing Me!","authors":[{"name":"Marlowe, Stephen","birth_year":1928,"death_year":2008}],"translators":[],"subjects":["Detectives -- Fiction","Inventors -- Fiction","Private investigators -- Fiction","Science fiction","Short stories","Time travel -- Fiction"],"bookshelves":[],"languages":["en"],"copyright":false,"media_type":"Text","formats":{"text/html":"https://www.gutenberg.org/ebooks/66723.html.images","application/epub+zip":"https://www.gutenberg.org/ebooks/66723.epub3.images","application/x-mobipocket-ebook":"https://www.gutenberg.org/ebooks/66723.kf8.images","text/plain; charset=us-ascii":"https://www.gutenberg.org/ebooks/66723.txt.utf-8","application/rdf+xml":"https://www.gutenberg.org/ebooks/66723.rdf","image/jpeg":"https://www.gutenberg.org/cache/epub/66723/pg66723.cover.medium.jpg","application/octet-stream":"https://www.gutenberg.org/files/66723/66723-0.zip"},"download_count":43},{"id":66755,"title":"Animal Life in Field and Garden","authors":[{"name":"Fabre, Jean-Henri","birth_year":1823,"death_year":1915}],"translators":[{"name":"Bicknell, Florence Constable","birth_year":null,"death_year":null}],"subjects":["Natural history -- Juvenile literature"],"bookshelves":[],"languages":["en"],"copyright":false,"media_type":"Text","formats":{"text/html":"https://www.gutenberg.org/ebooks/66755.html.images","application/epub+zip":"https://www.gutenberg.org/ebooks/66755.epub3.images","application/x-mobipocket-ebook":"https://www.gutenberg.org/ebooks/66755.kf8.images","text/plain; charset=us-ascii":"https://www.gutenberg.org/ebooks/66755.txt.utf-8","application/rdf+xml":"https://www.gutenberg.org/ebooks/66755.rdf","image/jpeg":"https://www.gutenberg.org/cache/epub/66755/pg66755.cover.medium.jpg","application/octet-stream":"https://www.gutenberg.org/files/66755/66755-0.zip"},"download_count":43},{"id":66846,"title":"\"1914\"","authors":[{"name":"Oxenham, John","birth_year":1852,"death_year":1941}],"translators":[],"subjects":["World War, 1914-1918 -- Fiction"],"bookshelves":[],"languages":["en"],"copyright":false,"media_type":"Text","formats":{"text/html":"https://www.gutenberg.org/ebooks/66846.html.images","application/epub+zip":"https://www.gutenberg.org/ebooks/66846.epub3.images","application/x-mobipocket-ebook":"https://www.gutenberg.org/ebooks/66846.kf8.images","text/plain; charset=us-ascii":"https://www.gutenberg.org/ebooks/66846.txt.utf-8","application/rdf+xml":"https://www.gutenberg.org/ebooks/66846.rdf","image/jpeg":"https://www.gutenberg.org/cache/epub/66846/pg66846.cover.medium.jpg","application/octet-stream":"https://www.gutenberg.org/files/66846/66846-0.zip"},"download_count":43},{"id":67003,"title":"Wanderings in Three Continents","authors":[{"name":"Burton, Richard Francis, Sir","birth_year":1821,"death_year":1890}],"translators":[],"subjects":["Burton, Richard Francis, Sir, 1821-1890 -- Travel","Voyages and travels"],"bookshelves":[],"languages":["en"],"copyright":false,"media_type":"Text","formats":{"text/html":"https://www.gutenberg.org/ebooks/67003.html.images","application/epub+zip":"https://www.gutenberg.org/ebooks/67003.epub3.images","application/x-mobipocket-ebook":"https://www.gutenberg.org/ebooks/67003.kf8.images","text/plain; charset=us-ascii":"https://www.gutenberg.org/ebooks/67003.txt.utf-8","application/rdf+xml":"https://www.gutenberg.org/ebooks/67003.rdf","image/jpeg":"https://www.gutenberg.org/cache/epub/67003/pg67003.cover.medium.jpg","application/octet-stream":"https://www.gutenberg.org/files/67003/67003-0.zip"},"download_count":43},{"id":67056,"title":"The Japanese New Year's Festival, Games and Pastimes","authors":[{"name":"Gunsaulus, Helen Cowen","birth_year":1886,"death_year":1954}],"translators":[],"subjects":["Games -- Japan","Japan -- Social life and customs","New Year"],"bookshelves":[],"languages":["en"],"copyright":false,"media_type":"Text","formats":{"text/html":"https://www.gutenberg.org/ebooks/67056.html.images","application/epub+zip":"https://www.gutenberg.org/ebooks/67056.epub3.images","application/x-mobipocket-ebook":"https://www.gutenberg.org/ebooks/67056.kf8.images","text/plain; charset=us-ascii":"https://www.gutenberg.org/ebooks/67056.txt.utf-8","application/rdf+xml":"https://www.gutenberg.org/ebooks/67056.rdf","image/jpeg":"https://www.gutenberg.org/cache/epub/67056/pg67056.cover.medium.jpg","application/octet-stream":"https://www.gutenberg.org/files/67056/67056-0.zip"},"download_count":43},{"id":67070,"title":"The Last Laugh","authors":[{"name":"Lawrence, D. H. (David Herbert)","birth_year":1885,"death_year":1930}],"translators":[],"subjects":["England -- Fiction","Paranormal fiction","Short stories"],"bookshelves":[],"languages":["en"],"copyright":false,"media_type":"Text","formats":{"text/html":"https://www.gutenberg.org/ebooks/67070.html.images","application/epub+zip":"https://www.gutenberg.org/ebooks/67070.epub3.images","application/x-mobipocket-ebook":"https://www.gutenberg.org/ebooks/67070.kf8.images","text/plain; charset=us-ascii":"https://www.gutenberg.org/ebooks/67070.txt.utf-8","application/rdf+xml":"https://www.gutenberg.org/ebooks/67070.rdf","image/jpeg":"https://www.gutenberg.org/cache/epub/67070/pg67070.cover.medium.jpg","application/octet-stream":"https://www.gutenberg.org/files/67070/67070-0.zip"},"download_count":43},{"id":67072,"title":"The Curse of Eve","authors":[{"name":"Doyle, Arthur Conan","birth_year":1859,"death_year":1930}],"translators":[],"subjects":["Childbirth -- Fiction","Husband and wife -- Fiction","London (England) -- Fiction","Medical fiction","Physicians -- Fiction","Short stories"],"bookshelves":[],"languages":["en"],"copyright":false,"media_type":"Text","formats":{"text/html":"https://www.gutenberg.org/ebooks/67072.html.images","application/epub+zip":"https://www.gutenberg.org/ebooks/67072.epub3.images","application/x-mobipocket-ebook":"https://www.gutenberg.org/ebooks/67072.kf8.images","text/plain; charset=us-ascii":"https://www.gutenberg.org/ebooks/67072.txt.utf-8","application/rdf+xml":"https://www.gutenberg.org/ebooks/67072.rdf","image/jpeg":"https://www.gutenberg.org/cache/epub/67072/pg67072.cover.medium.jpg","application/octet-stream":"https://www.gutenberg.org/files/67072/67072-0.zip"},"download_count":43},{"id":67171,"title":"Buddhism and Christianity: A Parallel and a Contrast","authors":[{"name":"Scott, Archibald","birth_year":1837,"death_year":1909}],"translators":[],"subjects":["Buddhism -- Relations -- Christianity","Christianity and other religions -- Buddhism"],"bookshelves":[],"languages":["en"],"copyright":false,"media_type":"Text","formats":{"text/html":"https://www.gutenberg.org/ebooks/67171.html.images","application/epub+zip":"https://www.gutenberg.org/ebooks/67171.epub3.images","application/x-mobipocket-ebook":"https://www.gutenberg.org/ebooks/67171.kf8.images","text/plain; charset=us-ascii":"https://www.gutenberg.org/ebooks/67171.txt.utf-8","application/rdf+xml":"https://www.gutenberg.org/ebooks/67171.rdf","image/jpeg":"https://www.gutenberg.org/cache/epub/67171/pg67171.cover.medium.jpg","application/octet-stream":"https://www.gutenberg.org/files/67171/67171-0.zip"},"download_count":43},{"id":67223,"title":"The Strangest Things in the World: A Book About Extraordinary Manifestations of Nature","authors":[{"name":"Henry, Thomas R. (Thomas Robert)","birth_year":1893,"death_year":null}],"translators":[],"subjects":["Animal behavior","Natural history"],"bookshelves":[],"languages":["en"],"copyright":false,"media_type":"Text","formats":{"text/html":"https://www.gutenberg.org/ebooks/67223.html.images","application/epub+zip":"https://www.gutenberg.org/ebooks/67223.epub3.images","application/x-mobipocket-ebook":"https://www.gutenberg.org/ebooks/67223.kf8.images","text/plain; charset=us-ascii":"https://www.gutenberg.org/ebooks/67223.txt.utf-8","application/rdf+xml":"https://www.gutenberg.org/ebooks/67223.rdf","image/jpeg":"https://www.gutenberg.org/cache/epub/67223/pg67223.cover.medium.jpg","application/octet-stream":"https://www.gutenberg.org/files/67223/67223-0.zip"},"download_count":43},{"id":67293,"title":"The Sixth Marine Division","authors":[{"name":"Stockman, James R.","birth_year":1915,"death_year":2000}],"translators":[],"subjects":["United States. Marine Corps. Marine Division, 6th","World War, 1939-1945 -- Campaigns -- Japan -- Okinawa Island","World War, 1939-1945 -- Regimental histories -- United States"],"bookshelves":[],"languages":["en"],"copyright":false,"media_type":"Text","formats":{"text/html":"https://www.gutenberg.org/ebooks/67293.html.images","application/epub+zip":"https://www.gutenberg.org/ebooks/67293.epub3.images","application/x-mobipocket-ebook":"https://www.gutenberg.org/ebooks/67293.kf8.images","text/plain; charset=us-ascii":"https://www.gutenberg.org/ebooks/67293.txt.utf-8","application/rdf+xml":"https://www.gutenberg.org/ebooks/67293.rdf","image/jpeg":"https://www.gutenberg.org/cache/epub/67293/pg67293.cover.medium.jpg","application/octet-stream":"https://www.gutenberg.org/files/67293/67293-0.zip"},"download_count":43},{"id":67351,"title":"News from No Man's Land","authors":[{"name":"Green, James","birth_year":1865,"death_year":1948}],"translators":[],"subjects":["World War, 1914-1918 -- Personal narratives, Australian"],"bookshelves":[],"languages":["en"],"copyright":false,"media_type":"Text","formats":{"text/html":"https://www.gutenberg.org/ebooks/67351.html.images","application/epub+zip":"https://www.gutenberg.org/ebooks/67351.epub3.images","application/x-mobipocket-ebook":"https://www.gutenberg.org/ebooks/67351.kf8.images","text/plain; charset=us-ascii":"https://www.gutenberg.org/ebooks/67351.txt.utf-8","application/rdf+xml":"https://www.gutenberg.org/ebooks/67351.rdf","image/jpeg":"https://www.gutenberg.org/cache/epub/67351/pg67351.cover.medium.jpg","application/octet-stream":"https://www.gutenberg.org/files/67351/67351-0.zip"},"download_count":43},{"id":67379,"title":"A Cyclopædia of Sacred Poetical Quotations: Consisting of Choice Passages from the Sacred Poetry of All Ages and Countries, Classified and Arranged, for Facility of Reference, Under Subject Headings; Illustrated by Striking Passages from Scripture, and Forming Altogether a Complete Book of Devotional Poetry.","authors":[],"translators":[],"subjects":["Quotations","Religious poetry"],"bookshelves":[],"languages":["en"],"copyright":false,"media_type":"Text","formats":{"text/html":"https://www.gutenberg.org/ebooks/67379.html.images","application/epub+zip":"https://www.gutenberg.org/ebooks/67379.epub3.images","application/x-mobipocket-ebook":"https://www.gutenberg.org/ebooks/67379.kf8.images","text/plain; charset=us-ascii":"https://www.gutenberg.org/ebooks/67379.txt.utf-8","application/rdf+xml":"https://www.gutenberg.org/ebooks/67379.rdf","image/jpeg":"https://www.gutenberg.org/cache/epub/67379/pg67379.cover.medium.jpg","application/octet-stream":"https://www.gutenberg.org/files/67379/67379-0.zip"},"download_count":43},{"id":67393,"title":"The Fourth Battalion, The King's Own (Royal Lancaster Regiment) and the Great War","authors":[{"name":"Crossley, J.","birth_year":null,"death_year":null},{"name":"Wadham, W. F. A. (Walter F. A.)","birth_year":null,"death_year":null}],"translators":[],"subjects":["Great Britain. Army. King's Own Royal Regiment (Lancaster). Battalion, 4th","World War, 1914-1918 -- Campaigns -- Western Front"],"bookshelves":[],"languages":["en"],"copyright":false,"media_type":"Text","formats":{"text/html":"https://www.gutenberg.org/ebooks/67393.html.images","application/epub+zip":"https://www.gutenberg.org/ebooks/67393.epub3.images","application/x-mobipocket-ebook":"https://www.gutenberg.org/ebooks/67393.kf8.images","text/plain; charset=us-ascii":"https://www.gutenberg.org/ebooks/67393.txt.utf-8","application/rdf+xml":"https://www.gutenberg.org/ebooks/67393.rdf","image/jpeg":"https://www.gutenberg.org/cache/epub/67393/pg67393.cover.medium.jpg","application/octet-stream":"https://www.gutenberg.org/files/67393/67393-0.zip"},"download_count":43},{"id":67405,"title":"Woman in the golden ages","authors":[{"name":"Mason, Amelia Gere","birth_year":1831,"death_year":1923}],"translators":[],"subjects":["Women -- History"],"bookshelves":[],"languages":["en"],"copyright":false,"media_type":"Text","formats":{"text/html":"https://www.gutenberg.org/ebooks/67405.html.images","application/epub+zip":"https://www.gutenberg.org/ebooks/67405.epub3.images","application/x-mobipocket-ebook":"https://www.gutenberg.org/ebooks/67405.kf8.images","text/plain; charset=us-ascii":"https://www.gutenberg.org/ebooks/67405.txt.utf-8","application/rdf+xml":"https://www.gutenberg.org/ebooks/67405.rdf","image/jpeg":"https://www.gutenberg.org/cache/epub/67405/pg67405.cover.medium.jpg","application/octet-stream":"https://www.gutenberg.org/files/67405/67405-0.zip"},"download_count":43},{"id":67533,"title":"The Book of Alfalfa: History, Cultivation and Merits: Its Uses as a Forage and Fertilizer","authors":[{"name":"Coburn, F. D. (Foster Dwight)","birth_year":1846,"death_year":1924}],"translators":[],"subjects":["Alfalfa"],"bookshelves":[],"languages":["en"],"copyright":false,"media_type":"Text","formats":{"text/html":"https://www.gutenberg.org/ebooks/67533.html.images","application/epub+zip":"https://www.gutenberg.org/ebooks/67533.epub3.images","application/x-mobipocket-ebook":"https://www.gutenberg.org/ebooks/67533.kf8.images","text/plain; charset=us-ascii":"https://www.gutenberg.org/ebooks/67533.txt.utf-8","application/rdf+xml":"https://www.gutenberg.org/ebooks/67533.rdf","image/jpeg":"https://www.gutenberg.org/cache/epub/67533/pg67533.cover.medium.jpg","application/octet-stream":"https://www.gutenberg.org/files/67533/67533-0.zip"},"download_count":43},{"id":67574,"title":"The Growth of the English House: A short history of its architectural development from 1100 to 1800","authors":[{"name":"Gotch, J. Alfred (John Alfred)","birth_year":1852,"death_year":1942}],"translators":[],"subjects":["Architecture -- England","Architecture, Domestic"],"bookshelves":[],"languages":["en"],"copyright":false,"media_type":"Text","formats":{"text/html":"https://www.gutenberg.org/ebooks/67574.html.images","application/epub+zip":"https://www.gutenberg.org/ebooks/67574.epub3.images","application/x-mobipocket-ebook":"https://www.gutenberg.org/ebooks/67574.kf8.images","text/plain; charset=us-ascii":"https://www.gutenberg.org/ebooks/67574.txt.utf-8","application/rdf+xml":"https://www.gutenberg.org/ebooks/67574.rdf","image/jpeg":"https://www.gutenberg.org/cache/epub/67574/pg67574.cover.medium.jpg","application/octet-stream":"https://www.gutenberg.org/files/67574/67574-0.zip"},"download_count":43},{"id":67744,"title":"The Silver Stallion: A Comedy of Redemption","authors":[{"name":"Cabell, James Branch","birth_year":1879,"death_year":1958}],"translators":[],"subjects":["Alternative histories (Fiction)","Fantasy fiction","Humorous stories","Knights and knighthood -- Fiction","Middle Ages -- Fiction","Quests (Expeditions) -- Fiction"],"bookshelves":[],"languages":["en"],"copyright":false,"media_type":"Text","formats":{"text/html":"https://www.gutenberg.org/ebooks/67744.html.images","application/epub+zip":"https://www.gutenberg.org/ebooks/67744.epub3.images","application/x-mobipocket-ebook":"https://www.gutenberg.org/ebooks/67744.kf8.images","text/plain; charset=us-ascii":"https://www.gutenberg.org/ebooks/67744.txt.utf-8","application/rdf+xml":"https://www.gutenberg.org/ebooks/67744.rdf","image/jpeg":"https://www.gutenberg.org/cache/epub/67744/pg67744.cover.medium.jpg","application/octet-stream":"https://www.gutenberg.org/files/67744/67744-0.zip"},"download_count":43},{"id":68059,"title":"The man among the monkeys; or, Ninety days in apeland: To which are added: The philosopher and his monkeys, The professor and the crocodile, and other strange stories of men and animals","authors":[{"name":"Gozlan, Léon","birth_year":1803,"death_year":1866}],"translators":[],"subjects":["Human-animal relationships -- Juvenile fiction","Monkeys -- Juvenile fiction","Robinsonades","Shipwreck survival -- Juvenile fiction","Survival -- Juvenile fiction"],"bookshelves":[],"languages":["en"],"copyright":false,"media_type":"Text","formats":{"text/html":"https://www.gutenberg.org/ebooks/68059.html.images","application/epub+zip":"https://www.gutenberg.org/ebooks/68059.epub3.images","application/x-mobipocket-ebook":"https://www.gutenberg.org/ebooks/68059.kf8.images","text/plain; charset=us-ascii":"https://www.gutenberg.org/ebooks/68059.txt.utf-8","application/rdf+xml":"https://www.gutenberg.org/ebooks/68059.rdf","image/jpeg":"https://www.gutenberg.org/cache/epub/68059/pg68059.cover.medium.jpg","application/octet-stream":"https://www.gutenberg.org/files/68059/68059-0.zip"},"download_count":43},{"id":68144,"title":"Thoughts upon slavery","authors":[{"name":"Wesley, John","birth_year":1703,"death_year":1791}],"translators":[],"subjects":["Slavery -- Early works to 1800"],"bookshelves":[],"languages":["en"],"copyright":false,"media_type":"Text","formats":{"text/html":"https://www.gutenberg.org/ebooks/68144.html.images","application/epub+zip":"https://www.gutenberg.org/ebooks/68144.epub3.images","application/x-mobipocket-ebook":"https://www.gutenberg.org/ebooks/68144.kf8.images","text/plain; charset=us-ascii":"https://www.gutenberg.org/ebooks/68144.txt.utf-8","application/rdf+xml":"https://www.gutenberg.org/ebooks/68144.rdf","image/jpeg":"https://www.gutenberg.org/cache/epub/68144/pg68144.cover.medium.jpg","application/octet-stream":"https://www.gutenberg.org/files/68144/68144-0.zip"},"download_count":43},{"id":68186,"title":"Insect life: Souvenirs of a naturalist","authors":[{"name":"Fabre, Jean-Henri","birth_year":1823,"death_year":1915}],"translators":[{"name":"Roberts, Margaret","birth_year":1833,"death_year":1919}],"subjects":["Insects -- Biology"],"bookshelves":[],"languages":["en"],"copyright":false,"media_type":"Text","formats":{"text/html":"https://www.gutenberg.org/ebooks/68186.html.images","application/epub+zip":"https://www.gutenberg.org/ebooks/68186.epub3.images","application/x-mobipocket-ebook":"https://www.gutenberg.org/ebooks/68186.kf8.images","text/plain; charset=us-ascii":"https://www.gutenberg.org/ebooks/68186.txt.utf-8","application/rdf+xml":"https://www.gutenberg.org/ebooks/68186.rdf","image/jpeg":"https://www.gutenberg.org/cache/epub/68186/pg68186.cover.medium.jpg","application/octet-stream":"https://www.gutenberg.org/files/68186/68186-0.zip"},"download_count":43},{"id":68187,"title":"History of the war in the Peninsula and in the south of France from the year 1807 to the year 1814, vol. 3","authors":[{"name":"Napier, William Francis Patrick","birth_year":1785,"death_year":1860}],"translators":[],"subjects":["Peninsular War, 1807-1814"],"bookshelves":[],"languages":["en"],"copyright":false,"media_type":"Text","formats":{"text/html":"https://www.gutenberg.org/ebooks/68187.html.images","application/epub+zip":"https://www.gutenberg.org/ebooks/68187.epub3.images","application/x-mobipocket-ebook":"https://www.gutenberg.org/ebooks/68187.kf8.images","text/plain; charset=us-ascii":"https://www.gutenberg.org/ebooks/68187.txt.utf-8","application/rdf+xml":"https://www.gutenberg.org/ebooks/68187.rdf","image/jpeg":"https://www.gutenberg.org/cache/epub/68187/pg68187.cover.medium.jpg","application/octet-stream":"https://www.gutenberg.org/files/68187/68187-0.zip"},"download_count":43},{"id":68313,"title":"Meddler's Moon","authors":[{"name":"Smith, George O. (George Oliver)","birth_year":1911,"death_year":1981}],"translators":[],"subjects":["Man-woman relationships -- Fiction","Science fiction","Time travel -- Fiction"],"bookshelves":[],"languages":["en"],"copyright":false,"media_type":"Text","formats":{"text/html":"https://www.gutenberg.org/ebooks/68313.html.images","application/epub+zip":"https://www.gutenberg.org/ebooks/68313.epub3.images","application/x-mobipocket-ebook":"https://www.gutenberg.org/ebooks/68313.kf8.images","text/plain; charset=us-ascii":"https://www.gutenberg.org/ebooks/68313.txt.utf-8","application/rdf+xml":"https://www.gutenberg.org/ebooks/68313.rdf","image/jpeg":"https://www.gutenberg.org/cache/epub/68313/pg68313.cover.medium.jpg","application/octet-stream":"https://www.gutenberg.org/files/68313/68313-0.zip"},"download_count":43},{"id":68711,"title":"The handy manual: A veritable mine of useful and interesting statistics, information, etc.","authors":[{"name":"Anonymous","birth_year":null,"death_year":null}],"translators":[],"subjects":["Reference works"],"bookshelves":[],"languages":["en"],"copyright":false,"media_type":"Text","formats":{"text/html":"https://www.gutenberg.org/ebooks/68711.html.images","application/epub+zip":"https://www.gutenberg.org/ebooks/68711.epub3.images","application/x-mobipocket-ebook":"https://www.gutenberg.org/ebooks/68711.kf8.images","text/plain; charset=us-ascii":"https://www.gutenberg.org/ebooks/68711.txt.utf-8","application/rdf+xml":"https://www.gutenberg.org/ebooks/68711.rdf","image/jpeg":"https://www.gutenberg.org/cache/epub/68711/pg68711.cover.medium.jpg","application/octet-stream":"https://www.gutenberg.org/files/68711/68711-0.zip"},"download_count":43},{"id":68850,"title":"When the movies were young","authors":[{"name":"Arvidson, Linda","birth_year":1884,"death_year":1949}],"translators":[],"subjects":["Motion pictures -- United States -- History"],"bookshelves":[],"languages":["en"],"copyright":false,"media_type":"Text","formats":{"text/html":"https://www.gutenberg.org/ebooks/68850.html.images","application/epub+zip":"https://www.gutenberg.org/ebooks/68850.epub3.images","application/x-mobipocket-ebook":"https://www.gutenberg.org/ebooks/68850.kf8.images","text/plain; charset=us-ascii":"https://www.gutenberg.org/ebooks/68850.txt.utf-8","application/rdf+xml":"https://www.gutenberg.org/ebooks/68850.rdf","image/jpeg":"https://www.gutenberg.org/cache/epub/68850/pg68850.cover.medium.jpg","application/octet-stream":"https://www.gutenberg.org/files/68850/68850-0.zip"},"download_count":43},{"id":68955,"title":"The Black Cat, Vol. I, No. 6, March 1896","authors":[{"name":"Various","birth_year":null,"death_year":null}],"translators":[],"subjects":["Short stories, American -- Periodicals"],"bookshelves":[],"languages":["en"],"copyright":false,"media_type":"Text","formats":{"text/html":"https://www.gutenberg.org/ebooks/68955.html.images","application/epub+zip":"https://www.gutenberg.org/ebooks/68955.epub3.images","application/x-mobipocket-ebook":"https://www.gutenberg.org/ebooks/68955.kf8.images","text/plain; charset=us-ascii":"https://www.gutenberg.org/ebooks/68955.txt.utf-8","application/rdf+xml":"https://www.gutenberg.org/ebooks/68955.rdf","image/jpeg":"https://www.gutenberg.org/cache/epub/68955/pg68955.cover.medium.jpg","application/octet-stream":"https://www.gutenberg.org/files/68955/68955-0.zip"},"download_count":43},{"id":68996,"title":"Angel: A sketch in Indian ink","authors":[{"name":"Croker, B. M. (Bithia Mary)","birth_year":1848,"death_year":1920}],"translators":[],"subjects":["British -- India -- Fiction","India -- History -- British occupation, 1765-1947 -- Fiction"],"bookshelves":[],"languages":["en"],"copyright":false,"media_type":"Text","formats":{"text/html":"https://www.gutenberg.org/ebooks/68996.html.images","application/epub+zip":"https://www.gutenberg.org/ebooks/68996.epub3.images","application/x-mobipocket-ebook":"https://www.gutenberg.org/ebooks/68996.kf8.images","text/plain; charset=us-ascii":"https://www.gutenberg.org/ebooks/68996.txt.utf-8","application/rdf+xml":"https://www.gutenberg.org/ebooks/68996.rdf","image/jpeg":"https://www.gutenberg.org/cache/epub/68996/pg68996.cover.medium.jpg","application/octet-stream":"https://www.gutenberg.org/files/68996/68996-0.zip"},"download_count":43},{"id":69282,"title":"The doctor, &c., vol. 1 (of 7)","authors":[{"name":"Southey, Robert","birth_year":1774,"death_year":1843}],"translators":[],"subjects":["English literature -- 19th century"],"bookshelves":[],"languages":["en"],"copyright":false,"media_type":"Text","formats":{"text/html":"https://www.gutenberg.org/ebooks/69282.html.images","application/epub+zip":"https://www.gutenberg.org/ebooks/69282.epub3.images","application/x-mobipocket-ebook":"https://www.gutenberg.org/ebooks/69282.kf8.images","text/plain; charset=us-ascii":"https://www.gutenberg.org/ebooks/69282.txt.utf-8","application/rdf+xml":"https://www.gutenberg.org/ebooks/69282.rdf","image/jpeg":"https://www.gutenberg.org/cache/epub/69282/pg69282.cover.medium.jpg","application/octet-stream":"https://www.gutenberg.org/files/69282/69282-0.zip"},"download_count":43},{"id":69298,"title":"Heraldry as art: An account of its development and practice, chiefly in England","authors":[{"name":"Eve, G. W. (George William)","birth_year":1855,"death_year":1914}],"translators":[],"subjects":["Heraldry -- Great Britain"],"bookshelves":[],"languages":["en"],"copyright":false,"media_type":"Text","formats":{"text/html":"https://www.gutenberg.org/ebooks/69298.html.images","application/epub+zip":"https://www.gutenberg.org/ebooks/69298.epub3.images","application/x-mobipocket-ebook":"https://www.gutenberg.org/ebooks/69298.kf8.images","text/plain; charset=us-ascii":"https://www.gutenberg.org/ebooks/69298.txt.utf-8","application/rdf+xml":"https://www.gutenberg.org/ebooks/69298.rdf","image/jpeg":"https://www.gutenberg.org/cache/epub/69298/pg69298.cover.medium.jpg","application/octet-stream":"https://www.gutenberg.org/files/69298/69298-0.zip"},"download_count":43},{"id":69378,"title":"Negro workaday songs","authors":[{"name":"Odum, Howard Washington","birth_year":1884,"death_year":1954},{"name":"Johnson, Guy Benton","birth_year":1901,"death_year":1991}],"translators":[],"subjects":["African Americans -- Music -- History and criticism","Folk music -- Southern States -- History and criticism","Folk songs, English -- Southern States -- History and criticism","Work songs -- Southern States -- History and criticism"],"bookshelves":[],"languages":["en"],"copyright":false,"media_type":"Text","formats":{"text/html":"https://www.gutenberg.org/ebooks/69378.html.images","application/epub+zip":"https://www.gutenberg.org/ebooks/69378.epub3.images","application/x-mobipocket-ebook":"https://www.gutenberg.org/ebooks/69378.kf8.images","text/plain; charset=us-ascii":"https://www.gutenberg.org/ebooks/69378.txt.utf-8","application/rdf+xml":"https://www.gutenberg.org/ebooks/69378.rdf","image/jpeg":"https://www.gutenberg.org/cache/epub/69378/pg69378.cover.medium.jpg","application/octet-stream":"https://www.gutenberg.org/files/69378/69378-0.zip"},"download_count":43},{"id":69527,"title":"The war against Germany: Europe and adjacent areas","authors":[{"name":"Hunter, Kenneth E.","birth_year":null,"death_year":null},{"name":"United States. Department of the Army. Office of Military History","birth_year":null,"death_year":null}],"translators":[],"subjects":["World War, 1939-1945 -- Campaigns -- Western Front","World War, 1939-1945 -- Pictorial works"],"bookshelves":[],"languages":["en"],"copyright":false,"media_type":"Text","formats":{"text/html":"https://www.gutenberg.org/ebooks/69527.html.images","application/epub+zip":"https://www.gutenberg.org/ebooks/69527.epub3.images","application/x-mobipocket-ebook":"https://www.gutenberg.org/ebooks/69527.kf8.images","text/plain; charset=us-ascii":"https://www.gutenberg.org/ebooks/69527.txt.utf-8","application/rdf+xml":"https://www.gutenberg.org/ebooks/69527.rdf","image/jpeg":"https://www.gutenberg.org/cache/epub/69527/pg69527.cover.medium.jpg","application/octet-stream":"https://www.gutenberg.org/files/69527/69527-0.zip"},"download_count":43},{"id":69590,"title":"Salt and the salt industry","authors":[{"name":"Calvert, Albert Frederick","birth_year":1872,"death_year":1946}],"translators":[],"subjects":["Salt industry and trade","Salt industry and trade -- England -- Cheshire"],"bookshelves":[],"languages":["en"],"copyright":false,"media_type":"Text","formats":{"text/html":"https://www.gutenberg.org/ebooks/69590.html.images","application/epub+zip":"https://www.gutenberg.org/ebooks/69590.epub3.images","application/x-mobipocket-ebook":"https://www.gutenberg.org/ebooks/69590.kf8.images","text/plain; charset=us-ascii":"https://www.gutenberg.org/ebooks/69590.txt.utf-8","application/rdf+xml":"https://www.gutenberg.org/ebooks/69590.rdf","image/jpeg":"https://www.gutenberg.org/cache/epub/69590/pg69590.cover.medium.jpg","application/octet-stream":"https://www.gutenberg.org/files/69590/69590-0.zip"},"download_count":43}]}