{"count":2834,"next":"http://129.241.150.113:8000/books/?languages=fi&page=75","previous":"http://129.241.150.113:8000/books/?languages=fi&page=73","results":[{"id":67263,"title":"Hienoston huvinäytelmä","authors":[{"name":"Castle, Egerton","birth_year":1858,"death_year":1920},{"name":"Castle, Agnes","birth_year":1860,"death_year":1922}],"translators":[{"name":"Hedman, Valfrid","birth_year":1872,"death_year":1939}],"subjects":["Bath (England) -- Fiction"],"bookshelves":[],"languages":["fi"],"copyright":false,"media_type":"Text","formats":{"text/html":"https://www.gutenberg.org/ebooks/67263.html.images","application/epub+zip":"https://www.gutenberg.org/ebooks/67263.epub3.images","application/x-mobipocket-ebook":"https://www.gutenberg.org/ebooks/67263.kf8.images","text/plain; charset=us-ascii":"https://www.gutenberg.org/ebooks/67263.txt.utf-8","application/rdf+xml":"https://www.gutenberg.org/ebooks/67263.rdf","image/jpeg":"https://www.gutenberg.org/cache/epub/67263/pg67263.cover.medium.jpg","application/octet-stream":"https://www.gutenberg.org/files/67263/67263-0.zip"},"download_count":17},{"id":67762,"title":"Kun elämä on ihanaa: Yhteiskoululaisromaani","authors":[{"name":"Hirn, Eva","birth_year":1877,"death_year":1948}],"translators":[],"subjects":["Children's stories, Finnish"],"bookshelves":[],"languages":["fi"],"copyright":false,"media_type":"Text","formats":{"text/html":"https://www.gutenberg.org/ebooks/67762.html.images","application/epub+zip":"https://www.gutenberg.org/ebooks/67762.epub3.images","application/x-mobipocket-ebook":"https://www.gutenberg.org/ebooks/67762.kf8.images","text/plain; charset=us-ascii":"https://www.gutenberg.org/ebooks/67762.txt.utf-8","application/rdf+xml":"https://www.gutenberg.org/ebooks/67762.rdf","image/jpeg":"https://www.gutenberg.org/cache/epub/67762/pg67762.cover.medium.jpg","application/octet-stream":"https://www.gutenberg.org/files/67762/67762-0.zip"},"download_count":17},{"id":68109,"title":"Merenneito: Novelli","authors":[{"name":"Hiidenheimo, Elli","birth_year":1883,"death_year":1950}],"translators":[],"subjects":["Finnish fiction -- 20th century"],"bookshelves":[],"languages":["fi"],"copyright":false,"media_type":"Text","formats":{"text/html":"https://www.gutenberg.org/ebooks/68109.html.images","application/epub+zip":"https://www.gutenberg.org/ebooks/68109.epub3.images","application/x-mobipocket-ebook":"https://www.gutenberg.org/ebooks/68109.kf8.images","text/plain; charset=us-ascii":"https://www.gutenberg.org/ebooks/68109.txt.utf-8","application/rdf+xml":"https://www.gutenberg.org/ebooks/68109.rdf","image/jpeg":"https://www.gutenberg.org/cache/epub/68109/pg68109.cover.medium.jpg","application/octet-stream":"https://www.gutenberg.org/files/68109/68109-0.zip"},"download_count":17},{"id":68661,"title":"Nuoren opettajattaren varaventtiili","authors":[{"name":"Valtonen, Hilja","birth_year":1897,"death_year":1988}],"translators":[],"subjects":["Finnish fiction -- 20th century"],"bookshelves":[],"languages":["fi"],"copyright":false,"media_type":"Text","formats":{"text/html":"https://www.gutenberg.org/ebooks/68661.html.images","application/epub+zip":"https://www.gutenberg.org/ebooks/68661.epub3.images","application/x-mobipocket-ebook":"https://www.gutenberg.org/ebooks/68661.kf8.images","text/plain; charset=us-ascii":"https://www.gutenberg.org/ebooks/68661.txt.utf-8","application/rdf+xml":"https://www.gutenberg.org/ebooks/68661.rdf","image/jpeg":"https://www.gutenberg.org/cache/epub/68661/pg68661.cover.medium.jpg","application/octet-stream":"https://www.gutenberg.org/files/68661/68661-0.zip"},"download_count":17},{"id":68793,"title":"Tulevaisuudenunelmia","authors":[{"name":"Flygare-Carlén, Emilie","birth_year":1807,"death_year":1892}],"translators":[{"name":"Jokinen, Wäinö","birth_year":1879,"death_year":1920}],"subjects":["Swedish fiction -- Translations into Finnish"],"bookshelves":[],"languages":["fi"],"copyright":false,"media_type":"Text","formats":{"text/html":"https://www.gutenberg.org/ebooks/68793.html.images","application/epub+zip":"https://www.gutenberg.org/ebooks/68793.epub3.images","application/x-mobipocket-ebook":"https://www.gutenberg.org/ebooks/68793.kf8.images","text/plain; charset=us-ascii":"https://www.gutenberg.org/ebooks/68793.txt.utf-8","application/rdf+xml":"https://www.gutenberg.org/ebooks/68793.rdf","image/jpeg":"https://www.gutenberg.org/cache/epub/68793/pg68793.cover.medium.jpg","application/octet-stream":"https://www.gutenberg.org/files/68793/68793-0.zip"},"download_count":17},{"id":68851,"title":"Mangorin kokkikirja: Jutelma korkeimman diplomatian alalta","authors":[{"name":"Etlar, Carit","birth_year":1816,"death_year":1900}],"translators":[],"subjects":["Danish fiction -- Translations into Finnish"],"bookshelves":[],"languages":["fi"],"copyright":false,"media_type":"Text","formats":{"text/html":"https://www.gutenberg.org/ebooks/68851.html.images","application/epub+zip":"https://www.gutenberg.org/ebooks/68851.epub3.images","application/x-mobipocket-ebook":"https://www.gutenberg.org/ebooks/68851.kf8.images","text/plain; charset=us-ascii":"https://www.gutenberg.org/ebooks/68851.txt.utf-8","application/rdf+xml":"https://www.gutenberg.org/ebooks/68851.rdf","image/jpeg":"https://www.gutenberg.org/cache/epub/68851/pg68851.cover.medium.jpg","application/octet-stream":"https://www.gutenberg.org/files/68851/68851-0.zip"},"download_count":17},{"id":69309,"title":"Buddenbrookit 1: Erään suvun rappeutumistarina","authors":[{"name":"Mann, Thomas","birth_year":1875,"death_year":1955}],"translators":[{"name":"Siegberg, Siiri","birth_year":1890,"death_year":1940}],"subjects":["Domestic fiction","Families -- Fiction","Germany -- Fiction"],"bookshelves":[],"languages":["fi"],"copyright":false,"media_type":"Text","formats":{"text/html":"https://www.gutenberg.org/ebooks/69309.html.images","application/epub+zip":"https://www.gutenberg.org/ebooks/69309.epub3.images","application/x-mobipocket-ebook":"https://www.gutenberg.org/ebooks/69309.kf8.images","text/plain; charset=us-ascii":"https://www.gutenberg.org/ebooks/69309.txt.utf-8","application/rdf+xml":"https://www.gutenberg.org/ebooks/69309.rdf","image/jpeg":"https://www.gutenberg.org/cache/epub/69309/pg69309.cover.medium.jpg","application/octet-stream":"https://www.gutenberg.org/files/69309/69309-0.zip"},"download_count":17},{"id":69518,"title":"Vanhoja muistoja","authors":[{"name":"Sillanpää, Frans Eemil","birth_year":1888,"death_year":1964},{"name":"Ströbel, Heinrich","birth_year":1869,"death_year":1944}],"translators":[],"subjects":["Essays"],"bookshelves":[],"languages":["fi"],"copyright":false,"media_type":"Text","formats":{"text/html":"https://www.gutenberg.org/ebooks/69518.html.images","application/epub+zip":"https://www.gutenberg.org/ebooks/69518.epub3.images","application/x-mobipocket-ebook":"https://www.gutenberg.org/ebooks/69518.kf8.images","text/plain; charset=us-ascii":"https://www.gutenberg.org/ebooks/69518.txt.utf-8","application/rdf+xml":"https://www.gutenberg.org/ebooks/69518.rdf","image/jpeg":"https://www.gutenberg.org/cache/epub/69518/pg69518.cover.medium.jpg","application/octet-stream":"https://www.gutenberg.org/files/69518/69518-0.zip"},"download_count":17},{"id":69697,"title":"Suuri arvoitus","authors":[{"name":"London, Jack","birth_year":1876,"death_year":1916}],"translators":[{"name":"A.I.R.","birth_year":null,"death_year":null}],"subjects":["Klondike River Valley (Yukon) -- Fiction","Short stories, American -- Translations into Finnish"],"bookshelves":[],"languages":["fi"],"copyright":false,"media_type":"Text","formats":{"text/html":"https://www.gutenberg.org/ebooks/69697.html.images","application/epub+zip":"https://www.gutenberg.org/ebooks/69697.epub3.images","application/x-mobipocket-ebook":"https://www.gutenberg.org/ebooks/69697.kf8.images","text/plain; charset=us-ascii":"https://www.gutenberg.org/ebooks/69697.txt.utf-8","application/rdf+xml":"https://www.gutenberg.org/ebooks/69697.rdf","image/jpeg":"https://www.gutenberg.org/cache/epub/69697/pg69697.cover.medium.jpg","application/octet-stream":"https://www.gutenberg.org/files/69697/69697-0.zip"},"download_count":17},{"id":69884,"title":"Uittomiehiä ja kullankaivajia","authors":[{"name":"White, Stewart Edward","birth_year":1873,"death_year":1946}],"translators":[{"name":"Kesäniemi, Paavo","birth_year":1879,"death_year":1940}],"subjects":["Frontier and pioneer life -- West (U.S.) -- Fiction","Western stories"],"bookshelves":[],"languages":["fi"],"copyright":false,"media_type":"Text","formats":{"text/html":"https://www.gutenberg.org/ebooks/69884.html.images","application/epub+zip":"https://www.gutenberg.org/ebooks/69884.epub3.images","application/x-mobipocket-ebook":"https://www.gutenberg.org/ebooks/69884.kf8.images","text/plain; charset=us-ascii":"https://www.gutenberg.org/ebooks/69884.txt.utf-8","application/rdf+xml":"https://www.gutenberg.org/ebooks/69884.rdf","image/jpeg":"https://www.gutenberg.org/cache/epub/69884/pg69884.cover.medium.jpg","application/octet-stream":"https://www.gutenberg.org/files/69884/69884-0.zip"},"download_count":17},{"id":70406,"title":"Tarasconin Tartarin","authors":[{"name":"Daudet, Alphonse","birth_year":1840,"death_year":1897}],"translators":[{"name":"Hahl, Jalmari","birth_year":1869,"death_year":1929}],"subjects":["Algeria -- Fiction","Lion hunting -- Fiction"],"bookshelves":[],"languages":["fi"],"copyright":false,"media_type":"Text","formats":{"text/html":"https://www.gutenberg.org/ebooks/70406.html.images","application/epub+zip":"https://www.gutenberg.org/ebooks/70406.epub3.images","application/x-mobipocket-ebook":"https://www.gutenberg.org/ebooks/70406.kf8.images","text/plain; charset=us-ascii":"https://www.gutenberg.org/ebooks/70406.txt.utf-8","application/rdf+xml":"https://www.gutenberg.org/ebooks/70406.rdf","image/jpeg":"https://www.gutenberg.org/cache/epub/70406/pg70406.cover.medium.jpg","application/octet-stream":"https://www.gutenberg.org/files/70406/70406-0.zip"},"download_count":17},{"id":70428,"title":"Maantiede ja löytöretket 4 : $b Uusin aika 17.-vuosisadan alusta nykyaikaan (loppupuoli)","authors":[{"name":"Inha, Into Konrad","birth_year":1865,"death_year":1930}],"translators":[],"subjects":["Discoveries in geography"],"bookshelves":[],"languages":["fi"],"copyright":false,"media_type":"Text","formats":{"text/html":"https://www.gutenberg.org/ebooks/70428.html.images","application/epub+zip":"https://www.gutenberg.org/ebooks/70428.epub3.images","application/x-mobipocket-ebook":"https://www.gutenberg.org/ebooks/70428.kf8.images","text/plain; charset=us-ascii":"https://www.gutenberg.org/ebooks/70428.txt.utf-8","application/rdf+xml":"https://www.gutenberg.org/ebooks/70428.rdf","image/jpeg":"https://www.gutenberg.org/cache/epub/70428/pg70428.cover.medium.jpg","application/octet-stream":"https://www.gutenberg.org/files/70428/70428-0.zip"},"download_count":17},{"id":70896,"title":"Arizonan öitä","authors":[{"name":"White, Stewart Edward","birth_year":1873,"death_year":1946}],"translators":[{"name":"Kesäniemi, Paavo","birth_year":1879,"death_year":1940}],"subjects":["Arizona -- Fiction","Cattle breeders -- Fiction","Cowboys -- Fiction","Western stories"],"bookshelves":[],"languages":["fi"],"copyright":false,"media_type":"Text","formats":{"text/html":"https://www.gutenberg.org/ebooks/70896.html.images","application/epub+zip":"https://www.gutenberg.org/ebooks/70896.epub3.images","application/x-mobipocket-ebook":"https://www.gutenberg.org/ebooks/70896.kf8.images","text/plain; charset=us-ascii":"https://www.gutenberg.org/ebooks/70896.txt.utf-8","application/rdf+xml":"https://www.gutenberg.org/ebooks/70896.rdf","image/jpeg":"https://www.gutenberg.org/cache/epub/70896/pg70896.cover.medium.jpg","application/octet-stream":"https://www.gutenberg.org/files/70896/70896-0.zip"},"download_count":17},{"id":71211,"title":"Maan puoleen : $b Runoja","authors":[{"name":"Siljo, Juhani","birth_year":1888,"death_year":1918}],"translators":[],"subjects":["Finnish poetry"],"bookshelves":[],"languages":["fi"],"copyright":false,"media_type":"Text","formats":{"text/html":"https://www.gutenberg.org/ebooks/71211.html.images","application/epub+zip":"https://www.gutenberg.org/ebooks/71211.epub3.images","application/x-mobipocket-ebook":"https://www.gutenberg.org/ebooks/71211.kf8.images","text/plain; charset=us-ascii":"https://www.gutenberg.org/ebooks/71211.txt.utf-8","application/rdf+xml":"https://www.gutenberg.org/ebooks/71211.rdf","image/jpeg":"https://www.gutenberg.org/cache/epub/71211/pg71211.cover.medium.jpg","application/octet-stream":"https://www.gutenberg.org/files/71211/71211-0.zip"},"download_count":17},{"id":71242,"title":"Sydänmailta : $b Novelleja ja tunnelmia","authors":[{"name":"Korhonen, Veikko","birth_year":1888,"death_year":1942}],"translators":[],"subjects":["Finnish literature"],"bookshelves":[],"languages":["fi"],"copyright":false,"media_type":"Text","formats":{"text/html":"https://www.gutenberg.org/ebooks/71242.html.images","application/epub+zip":"https://www.gutenberg.org/ebooks/71242.epub3.images","application/x-mobipocket-ebook":"https://www.gutenberg.org/ebooks/71242.kf8.images","text/plain; charset=us-ascii":"https://www.gutenberg.org/ebooks/71242.txt.utf-8","application/rdf+xml":"https://www.gutenberg.org/ebooks/71242.rdf","image/jpeg":"https://www.gutenberg.org/cache/epub/71242/pg71242.cover.medium.jpg","application/octet-stream":"https://www.gutenberg.org/files/71242/71242-0.zip"},"download_count":17},{"id":71270,"title":"Muuan äiti","authors":[{"name":"Talvio, Maila","birth_year":1871,"death_year":1951}],"translators":[],"subjects":["Finnish fiction -- 20th century"],"bookshelves":[],"languages":["fi"],"copyright":false,"media_type":"Text","formats":{"text/html":"https://www.gutenberg.org/ebooks/71270.html.images","application/epub+zip":"https://www.gutenberg.org/ebooks/71270.epub3.images","application/x-mobipocket-ebook":"https://www.gutenberg.org/ebooks/71270.kf8.images","text/plain; charset=us-ascii":"https://www.gutenberg.org/ebooks/71270.txt.utf-8","application/rdf+xml":"https://www.gutenberg.org/ebooks/71270.rdf","image/jpeg":"https://www.gutenberg.org/cache/epub/71270/pg71270.cover.medium.jpg","application/octet-stream":"https://www.gutenberg.org/files/71270/71270-0.zip"},"download_count":17},{"id":71288,"title":"Ikuinen arvoitus : $b Romaani","authors":[{"name":"Geijerstam, Gustaf af","birth_year":1858,"death_year":1909}],"translators":[{"name":"Kaila, Antti","birth_year":null,"death_year":null}],"subjects":["Swedish fiction -- Translations into Finnish"],"bookshelves":[],"languages":["fi"],"copyright":false,"media_type":"Text","formats":{"text/html":"https://www.gutenberg.org/ebooks/71288.html.images","application/epub+zip":"https://www.gutenberg.org/ebooks/71288.epub3.images","application/x-mobipocket-ebook":"https://www.gutenberg.org/ebooks/71288.kf8.images","text/plain; charset=us-ascii":"https://www.gutenberg.org/ebooks/71288.txt.utf-8","application/rdf+xml":"https://www.gutenberg.org/ebooks/71288.rdf","image/jpeg":"https://www.gutenberg.org/cache/epub/71288/pg71288.cover.medium.jpg","application/octet-stream":"https://www.gutenberg.org/files/71288/71288-0.zip"},"download_count":17},{"id":71389,"title":"Älä nuolaise ennenkuin tipahtaa! : $b Romaani","authors":[{"name":"Valtonen, Hilja","birth_year":1897,"death_year":1988}],"translators":[],"subjects":["Finnish fiction -- 20th century"],"bookshelves":[],"languages":["fi"],"copyright":false,"media_type":"Text","formats":{"text/html":"https://www.gutenberg.org/ebooks/71389.html.images","application/epub+zip":"https://www.gutenberg.org/ebooks/71389.epub3.images","application/x-mobipocket-ebook":"https://www.gutenberg.org/ebooks/71389.kf8.images","text/plain; charset=us-ascii":"https://www.gutenberg.org/ebooks/71389.txt.utf-8","application/rdf+xml":"https://www.gutenberg.org/ebooks/71389.rdf","image/jpeg":"https://www.gutenberg.org/cache/epub/71389/pg71389.cover.medium.jpg","application/octet-stream":"https://www.gutenberg.org/cache/epub/71389/pg71389-h.zip"},"download_count":17},{"id":71583,"title":"Korven kulkuri : $b Lukuja luonnon kirjasta","authors":[{"name":"Roberts, Charles G. D., Sir","birth_year":1860,"death_year":1943}],"translators":[{"name":"Enkvist, Hertta","birth_year":1893,"death_year":1962}],"subjects":["Animals -- Fiction"],"bookshelves":[],"languages":["fi"],"copyright":false,"media_type":"Text","formats":{"text/html":"https://www.gutenberg.org/ebooks/71583.html.images","application/epub+zip":"https://www.gutenberg.org/ebooks/71583.epub3.images","application/x-mobipocket-ebook":"https://www.gutenberg.org/ebooks/71583.kf8.images","text/plain; charset=us-ascii":"https://www.gutenberg.org/ebooks/71583.txt.utf-8","application/rdf+xml":"https://www.gutenberg.org/ebooks/71583.rdf","image/jpeg":"https://www.gutenberg.org/cache/epub/71583/pg71583.cover.medium.jpg","application/octet-stream":"https://www.gutenberg.org/cache/epub/71583/pg71583-h.zip"},"download_count":17},{"id":71680,"title":"Pasinkow","authors":[{"name":"Turgenev, Ivan Sergeevich","birth_year":1818,"death_year":1883}],"translators":[{"name":"Suppanen, Aatto","birth_year":1855,"death_year":1898}],"subjects":["Russia -- Social life and customs -- Fiction","Turgenev, Ivan Sergeevich, 1818-1883 -- Translations into Finnish"],"bookshelves":[],"languages":["fi"],"copyright":false,"media_type":"Text","formats":{"text/html":"https://www.gutenberg.org/ebooks/71680.html.images","application/epub+zip":"https://www.gutenberg.org/ebooks/71680.epub3.images","application/x-mobipocket-ebook":"https://www.gutenberg.org/ebooks/71680.kf8.images","text/plain; charset=us-ascii":"https://www.gutenberg.org/ebooks/71680.txt.utf-8","application/rdf+xml":"https://www.gutenberg.org/ebooks/71680.rdf","image/jpeg":"https://www.gutenberg.org/cache/epub/71680/pg71680.cover.medium.jpg","application/octet-stream":"https://www.gutenberg.org/cache/epub/71680/pg71680-h.zip"},"download_count":17},{"id":71697,"title":"Runoja","authors":[{"name":"Stenbäck, Lars","birth_year":1811,"death_year":1870}],"translators":[{"name":"Weijola, Yrjö","birth_year":1875,"death_year":1930}],"subjects":["Swedish poetry -- Translations into Finnish"],"bookshelves":[],"languages":["fi"],"copyright":false,"media_type":"Text","formats":{"text/html":"https://www.gutenberg.org/ebooks/71697.html.images","application/epub+zip":"https://www.gutenberg.org/ebooks/71697.epub3.images","application/x-mobipocket-ebook":"https://www.gutenberg.org/ebooks/71697.kf8.images","text/plain; charset=us-ascii":"https://www.gutenberg.org/ebooks/71697.txt.utf-8","application/rdf+xml":"https://www.gutenberg.org/ebooks/71697.rdf","image/jpeg":"https://www.gutenberg.org/cache/epub/71697/pg71697.cover.medium.jpg","application/octet-stream":"https://www.gutenberg.org/cache/epub/71697/pg71697-h.zip"},"download_count":17},{"id":71994,"title":"Lauluja","authors":[{"name":"Rytkönen, Antti","birth_year":1870,"death_year":1930}],"translators":[],"subjects":["Finnish poetry -- 19th century"],"bookshelves":[],"languages":["fi"],"copyright":false,"media_type":"Text","formats":{"text/html":"https://www.gutenberg.org/ebooks/71994.html.images","application/epub+zip":"https://www.gutenberg.org/ebooks/71994.epub3.images","application/x-mobipocket-ebook":"https://www.gutenberg.org/ebooks/71994.kf8.images","text/plain; charset=us-ascii":"https://www.gutenberg.org/ebooks/71994.txt.utf-8","application/rdf+xml":"https://www.gutenberg.org/ebooks/71994.rdf","image/jpeg":"https://www.gutenberg.org/cache/epub/71994/pg71994.cover.medium.jpg","application/octet-stream":"https://www.gutenberg.org/cache/epub/71994/pg71994-h.zip"},"download_count":17},{"id":14440,"title":"Alla kasvon kaikkivallan: Mystillinen trilogia","authors":[{"name":"Leino, Eino","birth_year":1878,"death_year":1926}],"translators":[],"subjects":["Finnish literature"],"bookshelves":[],"languages":["fi"],"copyright":false,"media_type":"Text","formats":{"text/html":"https://www.gutenberg.org/ebooks/14440.html.images","application/epub+zip":"https://www.gutenberg.org/ebooks/14440.epub3.images","application/x-mobipocket-ebook":"https://www.gutenberg.org/ebooks/14440.kf8.images","text/plain; charset=us-ascii":"https://www.gutenberg.org/ebooks/14440.txt.utf-8","text/plain; charset=iso-8859-1":"https://www.gutenberg.org/files/14440/14440-8.txt","application/rdf+xml":"https://www.gutenberg.org/ebooks/14440.rdf","image/jpeg":"https://www.gutenberg.org/cache/epub/14440/pg14440.cover.medium.jpg","application/octet-stream":"https://www.gutenberg.org/cache/epub/14440/pg14440-h.zip"},"download_count":16},{"id":14733,"title":"Elämän hawainnoita 01: Uudistalo; Halla=aamuna; Mökin Maiju; Noidan rangaistus","authors":[{"name":"Päivärinta, Pietari","birth_year":1827,"death_year":1913}],"translators":[],"subjects":["Finnish fiction"],"bookshelves":[],"languages":["fi"],"copyright":false,"media_type":"Text","formats":{"text/html":"https://www.gutenberg.org/ebooks/14733.html.images","application/epub+zip":"https://www.gutenberg.org/ebooks/14733.epub3.images","application/x-mobipocket-ebook":"https://www.gutenberg.org/ebooks/14733.kf8.images","text/plain; charset=us-ascii":"https://www.gutenberg.org/ebooks/14733.txt.utf-8","text/plain; charset=iso-8859-1":"https://www.gutenberg.org/files/14733/14733-8.txt","application/rdf+xml":"https://www.gutenberg.org/ebooks/14733.rdf","image/jpeg":"https://www.gutenberg.org/cache/epub/14733/pg14733.cover.medium.jpg","application/octet-stream":"https://www.gutenberg.org/cache/epub/14733/pg14733-h.zip"},"download_count":16},{"id":14840,"title":"Vaihdokas: Kuvaus vanhan kansan elämästä","authors":[{"name":"Reijonen, Juho Heikki","birth_year":1855,"death_year":1924}],"translators":[],"subjects":["Finnish fiction -- 19th century"],"bookshelves":[],"languages":["fi"],"copyright":false,"media_type":"Text","formats":{"text/html":"https://www.gutenberg.org/ebooks/14840.html.images","application/epub+zip":"https://www.gutenberg.org/ebooks/14840.epub3.images","application/x-mobipocket-ebook":"https://www.gutenberg.org/ebooks/14840.kf8.images","text/plain; charset=us-ascii":"https://www.gutenberg.org/ebooks/14840.txt.utf-8","text/plain; charset=iso-8859-1":"https://www.gutenberg.org/files/14840/14840-8.txt","application/rdf+xml":"https://www.gutenberg.org/ebooks/14840.rdf","image/jpeg":"https://www.gutenberg.org/cache/epub/14840/pg14840.cover.medium.jpg","application/octet-stream":"https://www.gutenberg.org/cache/epub/14840/pg14840-h.zip"},"download_count":16},{"id":14950,"title":"Kirottua työtä: Kuvaus Savon kansan elämästä","authors":[{"name":"Kauppis-Heikki","birth_year":1862,"death_year":1920}],"translators":[],"subjects":["Finnish fiction -- 19th century"],"bookshelves":[],"languages":["fi"],"copyright":false,"media_type":"Text","formats":{"text/html":"https://www.gutenberg.org/ebooks/14950.html.images","application/epub+zip":"https://www.gutenberg.org/ebooks/14950.epub3.images","application/x-mobipocket-ebook":"https://www.gutenberg.org/ebooks/14950.kf8.images","text/plain; charset=us-ascii":"https://www.gutenberg.org/ebooks/14950.txt.utf-8","text/plain; charset=iso-8859-1":"https://www.gutenberg.org/files/14950/14950-8.txt","application/rdf+xml":"https://www.gutenberg.org/ebooks/14950.rdf","image/jpeg":"https://www.gutenberg.org/cache/epub/14950/pg14950.cover.medium.jpg","application/octet-stream":"https://www.gutenberg.org/cache/epub/14950/pg14950-h.zip"},"download_count":16},{"id":15340,"title":"Joululahjat","authors":[{"name":"Hahnsson, Theodolinda","birth_year":1838,"death_year":1919}],"translators":[],"subjects":["Fiction","Short stories"],"bookshelves":["Christmas"],"languages":["fi"],"copyright":false,"media_type":"Text","formats":{"text/html":"https://www.gutenberg.org/ebooks/15340.html.images","application/epub+zip":"https://www.gutenberg.org/ebooks/15340.epub3.images","application/x-mobipocket-ebook":"https://www.gutenberg.org/ebooks/15340.kf8.images","text/plain; charset=us-ascii":"https://www.gutenberg.org/ebooks/15340.txt.utf-8","text/plain; charset=iso-8859-1":"https://www.gutenberg.org/files/15340/15340-8.txt","application/rdf+xml":"https://www.gutenberg.org/ebooks/15340.rdf","image/jpeg":"https://www.gutenberg.org/cache/epub/15340/pg15340.cover.medium.jpg","application/octet-stream":"https://www.gutenberg.org/cache/epub/15340/pg15340-h.zip"},"download_count":16},{"id":15611,"title":"Auringon noustessa: Kasvavalle nuorisolle","authors":[{"name":"Roschier, Tekla","birth_year":1870,"death_year":1928}],"translators":[],"subjects":["Fiction"],"bookshelves":[],"languages":["fi"],"copyright":false,"media_type":"Text","formats":{"text/html":"https://www.gutenberg.org/ebooks/15611.html.images","application/epub+zip":"https://www.gutenberg.org/ebooks/15611.epub3.images","application/x-mobipocket-ebook":"https://www.gutenberg.org/ebooks/15611.kf8.images","text/plain; charset=us-ascii":"https://www.gutenberg.org/ebooks/15611.txt.utf-8","text/plain; charset=iso-8859-1":"https://www.gutenberg.org/files/15611/15611-8.txt","application/rdf+xml":"https://www.gutenberg.org/ebooks/15611.rdf","image/jpeg":"https://www.gutenberg.org/cache/epub/15611/pg15611.cover.medium.jpg","application/octet-stream":"https://www.gutenberg.org/cache/epub/15611/pg15611-h.zip"},"download_count":16},{"id":15897,"title":"Ristiaallokossa: Kokoelma runoelmia","authors":[{"name":"Leino, Kasimir","birth_year":1866,"death_year":1919}],"translators":[],"subjects":["Poetry"],"bookshelves":[],"languages":["fi"],"copyright":false,"media_type":"Text","formats":{"text/html":"https://www.gutenberg.org/ebooks/15897.html.images","application/epub+zip":"https://www.gutenberg.org/ebooks/15897.epub3.images","application/x-mobipocket-ebook":"https://www.gutenberg.org/ebooks/15897.kf8.images","text/plain; charset=us-ascii":"https://www.gutenberg.org/ebooks/15897.txt.utf-8","text/plain; charset=iso-8859-1":"https://www.gutenberg.org/files/15897/15897-8.txt","application/rdf+xml":"https://www.gutenberg.org/ebooks/15897.rdf","image/jpeg":"https://www.gutenberg.org/cache/epub/15897/pg15897.cover.medium.jpg","application/octet-stream":"https://www.gutenberg.org/cache/epub/15897/pg15897-h.zip"},"download_count":16},{"id":16395,"title":"Runoelmia","authors":[{"name":"Kramsu, Kaarlo","birth_year":1855,"death_year":1895}],"translators":[],"subjects":["Poetry"],"bookshelves":[],"languages":["fi"],"copyright":false,"media_type":"Text","formats":{"text/html":"https://www.gutenberg.org/ebooks/16395.html.images","application/epub+zip":"https://www.gutenberg.org/ebooks/16395.epub3.images","application/x-mobipocket-ebook":"https://www.gutenberg.org/ebooks/16395.kf8.images","text/plain; charset=us-ascii":"https://www.gutenberg.org/ebooks/16395.txt.utf-8","text/plain; charset=iso-8859-1":"https://www.gutenberg.org/files/16395/16395-8.txt","application/rdf+xml":"https://www.gutenberg.org/ebooks/16395.rdf","image/jpeg":"https://www.gutenberg.org/cache/epub/16395/pg16395.cover.medium.jpg","application/octet-stream":"https://www.gutenberg.org/cache/epub/16395/pg16395-h.zip"},"download_count":16},{"id":16411,"title":"Kahleeton vanki: Elämäkerrallinen kuvaus","authors":[{"name":"Meriläinen, Heikki","birth_year":1847,"death_year":1939}],"translators":[],"subjects":["Fiction"],"bookshelves":[],"languages":["fi"],"copyright":false,"media_type":"Text","formats":{"text/html":"https://www.gutenberg.org/ebooks/16411.html.images","application/epub+zip":"https://www.gutenberg.org/ebooks/16411.epub3.images","application/x-mobipocket-ebook":"https://www.gutenberg.org/ebooks/16411.kf8.images","text/plain; charset=us-ascii":"https://www.gutenberg.org/ebooks/16411.txt.utf-8","text/plain; charset=iso-8859-1":"https://www.gutenberg.org/files/16411/16411-8.txt","application/rdf+xml":"https://www.gutenberg.org/ebooks/16411.rdf","image/jpeg":"https://www.gutenberg.org/cache/epub/16411/pg16411.cover.medium.jpg","application/octet-stream":"https://www.gutenberg.org/cache/epub/16411/pg16411-h.zip"},"download_count":16},{"id":17092,"title":"Inger, Östråtin rouva: Viisinäytöksinen murhenäytelmä","authors":[{"name":"Ibsen, Henrik","birth_year":1828,"death_year":1906}],"translators":[{"name":"Lehtonen, Joel","birth_year":1881,"death_year":1934}],"subjects":["Inger Ottesdater, -1555 -- Drama"],"bookshelves":[],"languages":["fi"],"copyright":false,"media_type":"Text","formats":{"text/html":"https://www.gutenberg.org/ebooks/17092.html.images","application/epub+zip":"https://www.gutenberg.org/ebooks/17092.epub3.images","application/x-mobipocket-ebook":"https://www.gutenberg.org/ebooks/17092.kf8.images","text/plain; charset=us-ascii":"https://www.gutenberg.org/ebooks/17092.txt.utf-8","text/plain; charset=iso-8859-1":"https://www.gutenberg.org/files/17092/17092-8.txt","application/rdf+xml":"https://www.gutenberg.org/ebooks/17092.rdf","image/jpeg":"https://www.gutenberg.org/cache/epub/17092/pg17092.cover.medium.jpg","application/octet-stream":"https://www.gutenberg.org/cache/epub/17092/pg17092-h.zip"},"download_count":16}]}