{"count":2834,"next":"http://129.241.150.113:8000/books/?languages=fi&page=89","previous":"http://129.241.150.113:8000/books/?languages=fi&page=87","results":[{"id":63186,"title":"Porvari-väkeä matkoilla: eli Buchholz-herrasväen matka-kertomukset","authors":[{"name":"Stinde, Julius","birth_year":1841,"death_year":1905}],"translators":[],"subjects":["Germans -- Italy -- Fiction","Italy -- Description and travel -- Fiction"],"bookshelves":[],"languages":["fi"],"copyright":false,"media_type":"Text","formats":{"text/html":"https://www.gutenberg.org/ebooks/63186.html.images","application/epub+zip":"https://www.gutenberg.org/ebooks/63186.epub3.images","application/x-mobipocket-ebook":"https://www.gutenberg.org/ebooks/63186.kf8.images","text/plain; charset=us-ascii":"https://www.gutenberg.org/ebooks/63186.txt.utf-8","text/plain; charset=iso-8859-1":"https://www.gutenberg.org/files/63186/63186-8.txt","application/rdf+xml":"https://www.gutenberg.org/ebooks/63186.rdf","image/jpeg":"https://www.gutenberg.org/cache/epub/63186/pg63186.cover.medium.jpg","application/octet-stream":"https://www.gutenberg.org/cache/epub/63186/pg63186-h.zip"},"download_count":8},{"id":65516,"title":"Musta sankari: Allanin ystävän Umslopogaasin lapsuus ja nuoruuden vaiheet: Kertomus zulukaffereista","authors":[{"name":"Haggard, H. Rider (Henry Rider)","birth_year":1856,"death_year":1925}],"translators":[{"name":"Nyman, O. E.","birth_year":1888,"death_year":1953}],"subjects":["Zululand (South Africa) -- Fiction"],"bookshelves":[],"languages":["fi"],"copyright":false,"media_type":"Text","formats":{"text/html":"https://www.gutenberg.org/ebooks/65516.html.images","application/epub+zip":"https://www.gutenberg.org/ebooks/65516.epub3.images","application/x-mobipocket-ebook":"https://www.gutenberg.org/ebooks/65516.kf8.images","text/plain; charset=us-ascii":"https://www.gutenberg.org/ebooks/65516.txt.utf-8","text/plain; charset=utf-8":"https://www.gutenberg.org/files/65516/65516-0.txt","application/rdf+xml":"https://www.gutenberg.org/ebooks/65516.rdf","image/jpeg":"https://www.gutenberg.org/cache/epub/65516/pg65516.cover.medium.jpg","application/octet-stream":"https://www.gutenberg.org/cache/epub/65516/pg65516-h.zip"},"download_count":8},{"id":67964,"title":"Sana: Romaani","authors":[{"name":"Ebers, Georg","birth_year":1837,"death_year":1898}],"translators":[{"name":"Lagus, F. H. B.","birth_year":1855,"death_year":1936}],"subjects":["German fiction -- Translations into Finnish","Netherlands -- History -- Eighty Years' War, 1568-1648 -- Fiction"],"bookshelves":[],"languages":["fi"],"copyright":false,"media_type":"Text","formats":{"text/html":"https://www.gutenberg.org/ebooks/67964.html.images","application/epub+zip":"https://www.gutenberg.org/ebooks/67964.epub3.images","application/x-mobipocket-ebook":"https://www.gutenberg.org/ebooks/67964.kf8.images","text/plain; charset=us-ascii":"https://www.gutenberg.org/ebooks/67964.txt.utf-8","application/rdf+xml":"https://www.gutenberg.org/ebooks/67964.rdf","image/jpeg":"https://www.gutenberg.org/cache/epub/67964/pg67964.cover.medium.jpg","application/octet-stream":"https://www.gutenberg.org/files/67964/67964-0.zip"},"download_count":8},{"id":50951,"title":"Kirkkopuheet","authors":[{"name":"Järnefelt, Arvid","birth_year":1861,"death_year":1932}],"translators":[],"subjects":["Sermons, Finnish"],"bookshelves":[],"languages":["fi"],"copyright":false,"media_type":"Text","formats":{"text/html":"https://www.gutenberg.org/ebooks/50951.html.images","application/epub+zip":"https://www.gutenberg.org/ebooks/50951.epub3.images","application/x-mobipocket-ebook":"https://www.gutenberg.org/ebooks/50951.kf8.images","text/plain; charset=us-ascii":"https://www.gutenberg.org/ebooks/50951.txt.utf-8","text/plain; charset=iso-8859-1":"https://www.gutenberg.org/files/50951/50951-8.txt","application/rdf+xml":"https://www.gutenberg.org/ebooks/50951.rdf","image/jpeg":"https://www.gutenberg.org/cache/epub/50951/pg50951.cover.medium.jpg","application/octet-stream":"https://www.gutenberg.org/cache/epub/50951/pg50951-h.zip"},"download_count":7},{"id":69100,"title":"Vain tytön rakkaus","authors":[{"name":"Garvice, Charles","birth_year":1850,"death_year":1920}],"translators":[{"name":"Kupiainen, Alpo","birth_year":1888,"death_year":1937}],"subjects":["English fiction -- Translations into Finnish","Love stories"],"bookshelves":[],"languages":["fi"],"copyright":false,"media_type":"Text","formats":{"text/html":"https://www.gutenberg.org/ebooks/69100.html.images","application/epub+zip":"https://www.gutenberg.org/ebooks/69100.epub3.images","application/x-mobipocket-ebook":"https://www.gutenberg.org/ebooks/69100.kf8.images","text/plain; charset=us-ascii":"https://www.gutenberg.org/ebooks/69100.txt.utf-8","application/rdf+xml":"https://www.gutenberg.org/ebooks/69100.rdf","image/jpeg":"https://www.gutenberg.org/cache/epub/69100/pg69100.cover.medium.jpg","application/octet-stream":"https://www.gutenberg.org/files/69100/69100-0.zip"},"download_count":7},{"id":69195,"title":"Matti Pohto: Vanhojen suomalaisten kirjain pelastaja","authors":[{"name":"Virkkunen, Artturi H. (Artturi Heikki)","birth_year":1864,"death_year":1924}],"translators":[],"subjects":["Bibliomania","Pohto, Matti, 1817-1857"],"bookshelves":[],"languages":["fi"],"copyright":false,"media_type":"Text","formats":{"text/html":"https://www.gutenberg.org/ebooks/69195.html.images","application/epub+zip":"https://www.gutenberg.org/ebooks/69195.epub3.images","application/x-mobipocket-ebook":"https://www.gutenberg.org/ebooks/69195.kf8.images","text/plain; charset=us-ascii":"https://www.gutenberg.org/ebooks/69195.txt.utf-8","application/rdf+xml":"https://www.gutenberg.org/ebooks/69195.rdf","image/jpeg":"https://www.gutenberg.org/cache/epub/69195/pg69195.cover.medium.jpg","application/octet-stream":"https://www.gutenberg.org/files/69195/69195-0.zip"},"download_count":7},{"id":71056,"title":"Kun silmät aukenevat","authors":[{"name":"Bordeaux, Henry","birth_year":1870,"death_year":1963}],"translators":[],"subjects":["French fiction -- Translations into Finnish"],"bookshelves":[],"languages":["fi"],"copyright":false,"media_type":"Text","formats":{"text/html":"https://www.gutenberg.org/ebooks/71056.html.images","application/epub+zip":"https://www.gutenberg.org/ebooks/71056.epub3.images","application/x-mobipocket-ebook":"https://www.gutenberg.org/ebooks/71056.kf8.images","text/plain; charset=us-ascii":"https://www.gutenberg.org/ebooks/71056.txt.utf-8","application/rdf+xml":"https://www.gutenberg.org/ebooks/71056.rdf","image/jpeg":"https://www.gutenberg.org/cache/epub/71056/pg71056.cover.medium.jpg","application/octet-stream":"https://www.gutenberg.org/files/71056/71056-0.zip"},"download_count":7},{"id":53090,"title":"Henrik Gabriel Porthan historiantutkijana","authors":[{"name":"Suolahti, Gunnar","birth_year":1876,"death_year":1933}],"translators":[],"subjects":["Porthan, Henrik Gabriel, 1739-1804"],"bookshelves":[],"languages":["fi"],"copyright":false,"media_type":"Text","formats":{"text/html":"https://www.gutenberg.org/ebooks/53090.html.images","application/epub+zip":"https://www.gutenberg.org/ebooks/53090.epub3.images","application/x-mobipocket-ebook":"https://www.gutenberg.org/ebooks/53090.kf8.images","text/plain; charset=us-ascii":"https://www.gutenberg.org/ebooks/53090.txt.utf-8","text/plain; charset=iso-8859-1":"https://www.gutenberg.org/files/53090/53090-8.txt","application/rdf+xml":"https://www.gutenberg.org/ebooks/53090.rdf","image/jpeg":"https://www.gutenberg.org/cache/epub/53090/pg53090.cover.medium.jpg","application/octet-stream":"https://www.gutenberg.org/cache/epub/53090/pg53090-h.zip"},"download_count":6},{"id":55698,"title":"Kuopion takana: Kolminäytöksinen huvinäytelmä","authors":[{"name":"Numers, Gustaf von","birth_year":1848,"death_year":1913}],"translators":[],"subjects":["Drama"],"bookshelves":[],"languages":["fi"],"copyright":false,"media_type":"Text","formats":{"text/html":"https://www.gutenberg.org/ebooks/55698.html.images","application/epub+zip":"https://www.gutenberg.org/ebooks/55698.epub3.images","application/x-mobipocket-ebook":"https://www.gutenberg.org/ebooks/55698.kf8.images","text/plain; charset=us-ascii":"https://www.gutenberg.org/ebooks/55698.txt.utf-8","text/plain; charset=iso-8859-1":"https://www.gutenberg.org/files/55698/55698-8.txt","application/rdf+xml":"https://www.gutenberg.org/ebooks/55698.rdf","image/jpeg":"https://www.gutenberg.org/cache/epub/55698/pg55698.cover.medium.jpg","application/octet-stream":"https://www.gutenberg.org/cache/epub/55698/pg55698-h.zip"},"download_count":6},{"id":55204,"title":"Nukki: Novelli","authors":[{"name":"Prévost, Marcel","birth_year":1862,"death_year":1941}],"translators":[{"name":"Wuori, Martti","birth_year":1858,"death_year":1934}],"subjects":["French fiction -- Translations into Finnish"],"bookshelves":[],"languages":["fi"],"copyright":false,"media_type":"Text","formats":{"text/html":"https://www.gutenberg.org/ebooks/55204.html.images","application/epub+zip":"https://www.gutenberg.org/ebooks/55204.epub3.images","application/x-mobipocket-ebook":"https://www.gutenberg.org/ebooks/55204.kf8.images","text/plain; charset=us-ascii":"https://www.gutenberg.org/ebooks/55204.txt.utf-8","text/plain; charset=iso-8859-1":"https://www.gutenberg.org/files/55204/55204-8.txt","application/rdf+xml":"https://www.gutenberg.org/ebooks/55204.rdf","image/jpeg":"https://www.gutenberg.org/cache/epub/55204/pg55204.cover.medium.jpg","application/octet-stream":"https://www.gutenberg.org/cache/epub/55204/pg55204-h.zip"},"download_count":5},{"id":65352,"title":"Mallassaunalla: Näytelmällinen pikakuva 1:ssä näytöksessä","authors":[{"name":"Halme, Kaarle","birth_year":1864,"death_year":1946}],"translators":[],"subjects":["Finnish drama"],"bookshelves":[],"languages":["fi"],"copyright":false,"media_type":"Text","formats":{"text/html":"https://www.gutenberg.org/ebooks/65352.html.images","application/epub+zip":"https://www.gutenberg.org/ebooks/65352.epub3.images","application/x-mobipocket-ebook":"https://www.gutenberg.org/ebooks/65352.kf8.images","text/plain; charset=us-ascii":"https://www.gutenberg.org/ebooks/65352.txt.utf-8","text/plain; charset=utf-8":"https://www.gutenberg.org/files/65352/65352-0.txt","application/rdf+xml":"https://www.gutenberg.org/ebooks/65352.rdf","image/jpeg":"https://www.gutenberg.org/cache/epub/65352/pg65352.cover.medium.jpg","application/octet-stream":"https://www.gutenberg.org/cache/epub/65352/pg65352-h.zip"},"download_count":5},{"id":66053,"title":"Kihlatut","authors":[{"name":"Pietilä, Fredrika","birth_year":1837,"death_year":1888}],"translators":[],"subjects":["Finnish fiction -- 19th century"],"bookshelves":[],"languages":["fi"],"copyright":false,"media_type":"Text","formats":{"text/html":"https://www.gutenberg.org/ebooks/66053.html.images","application/epub+zip":"https://www.gutenberg.org/ebooks/66053.epub3.images","application/x-mobipocket-ebook":"https://www.gutenberg.org/ebooks/66053.kf8.images","text/plain; charset=us-ascii":"https://www.gutenberg.org/ebooks/66053.txt.utf-8","text/plain; charset=utf-8":"https://www.gutenberg.org/files/66053/66053-0.txt","application/rdf+xml":"https://www.gutenberg.org/ebooks/66053.rdf","image/jpeg":"https://www.gutenberg.org/cache/epub/66053/pg66053.cover.medium.jpg","application/octet-stream":"https://www.gutenberg.org/cache/epub/66053/pg66053-h.zip"},"download_count":5},{"id":70616,"title":"Karhu : $b Pila yhdessä näytöksessä","authors":[{"name":"Chekhov, Anton Pavlovich","birth_year":1860,"death_year":1904}],"translators":[{"name":"Silvanto, Reino","birth_year":1883,"death_year":1943}],"subjects":["Comedies","Farces","One-act plays","Russia -- Social life and customs -- Drama","Russian drama -- Translations into Finnish","Widows -- Drama"],"bookshelves":[],"languages":["fi"],"copyright":false,"media_type":"Text","formats":{"text/html":"https://www.gutenberg.org/ebooks/70616.html.images","application/epub+zip":"https://www.gutenberg.org/ebooks/70616.epub3.images","application/x-mobipocket-ebook":"https://www.gutenberg.org/ebooks/70616.kf8.images","text/plain; charset=us-ascii":"https://www.gutenberg.org/ebooks/70616.txt.utf-8","application/rdf+xml":"https://www.gutenberg.org/ebooks/70616.rdf","image/jpeg":"https://www.gutenberg.org/cache/epub/70616/pg70616.cover.medium.jpg","application/octet-stream":"https://www.gutenberg.org/files/70616/70616-0.zip"},"download_count":5},{"id":72780,"title":"Cloomber Hallin salaisuus","authors":[{"name":"Doyle, Arthur Conan","birth_year":1859,"death_year":1930}],"translators":[],"subjects":[],"bookshelves":[],"languages":["fi"],"copyright":false,"media_type":"Text","formats":{"text/plain; charset=us-ascii":"https://www.gutenberg.org/files/72780/72780-0.txt"},"download_count":0},{"id":72809,"title":"Merentakaisia lauluja","authors":[{"name":"Kallas, Aino","birth_year":1878,"death_year":1956}],"translators":[],"subjects":[],"bookshelves":[],"languages":["fi"],"copyright":false,"media_type":"Text","formats":{"text/html":"https://www.gutenberg.org/ebooks/72809.html.images","application/epub+zip":"https://www.gutenberg.org/ebooks/72809.epub3.images","application/x-mobipocket-ebook":"https://www.gutenberg.org/ebooks/72809.kf8.images","text/plain; charset=us-ascii":"https://www.gutenberg.org/ebooks/72809.txt.utf-8","application/rdf+xml":"https://www.gutenberg.org/ebooks/72809.rdf","image/jpeg":"https://www.gutenberg.org/cache/epub/72809/pg72809.cover.medium.jpg","application/octet-stream":"https://www.gutenberg.org/cache/epub/72809/pg72809-h.zip"},"download_count":0},{"id":72810,"title":"Ruotsin rajalta","authors":[{"name":"Kataja, Väinö","birth_year":1867,"death_year":1914}],"translators":[],"subjects":[],"bookshelves":[],"languages":["fi"],"copyright":false,"media_type":"Text","formats":{"text/html":"https://www.gutenberg.org/ebooks/72810.html.images","application/epub+zip":"https://www.gutenberg.org/ebooks/72810.epub3.images","application/x-mobipocket-ebook":"https://www.gutenberg.org/ebooks/72810.kf8.images","text/plain; charset=us-ascii":"https://www.gutenberg.org/ebooks/72810.txt.utf-8","application/rdf+xml":"https://www.gutenberg.org/ebooks/72810.rdf","image/jpeg":"https://www.gutenberg.org/cache/epub/72810/pg72810.cover.medium.jpg","application/octet-stream":"https://www.gutenberg.org/cache/epub/72810/pg72810-h.zip"},"download_count":0},{"id":72821,"title":"Vedenpaisumus II","authors":[{"name":"Sienkiewicz, Henryk","birth_year":1846,"death_year":1916}],"translators":[{"name":"Trast, V. K.","birth_year":1878,"death_year":1953}],"subjects":[],"bookshelves":[],"languages":["fi"],"copyright":false,"media_type":"Text","formats":{"text/html":"https://www.gutenberg.org/ebooks/72821.html.images","application/epub+zip":"https://www.gutenberg.org/ebooks/72821.epub3.images","application/x-mobipocket-ebook":"https://www.gutenberg.org/ebooks/72821.kf8.images","text/plain; charset=us-ascii":"https://www.gutenberg.org/ebooks/72821.txt.utf-8","application/rdf+xml":"https://www.gutenberg.org/ebooks/72821.rdf","image/jpeg":"https://www.gutenberg.org/cache/epub/72821/pg72821.cover.medium.jpg","application/octet-stream":"https://www.gutenberg.org/cache/epub/72821/pg72821-h.zip"},"download_count":0},{"id":72832,"title":"Marraskuun ilta : $b Novelleja","authors":[{"name":"Kaste, Anni","birth_year":1876,"death_year":1961}],"translators":[],"subjects":[],"bookshelves":[],"languages":["fi"],"copyright":false,"media_type":"Text","formats":{"text/plain; charset=us-ascii":"https://www.gutenberg.org/files/72832/72832-0.txt"},"download_count":0},{"id":72833,"title":"Suomen Kansan Vanhoja Runoja ynnä myös Nykyisempiä Lauluja II","authors":[],"translators":[],"subjects":[],"bookshelves":[],"languages":["fi"],"copyright":false,"media_type":"Text","formats":{"text/plain; charset=us-ascii":"https://www.gutenberg.org/files/72833/72833-0.txt"},"download_count":0},{"id":72841,"title":"Suomen Kansan Vanhoja Runoja ynnä myös Nykyisempiä Lauluja III","authors":[],"translators":[],"subjects":[],"bookshelves":[],"languages":["fi"],"copyright":false,"media_type":"Text","formats":{"text/plain; charset=us-ascii":"https://www.gutenberg.org/files/72841/72841-0.txt"},"download_count":0},{"id":72842,"title":"Vedenpaisumus III","authors":[{"name":"Sienkiewicz, Henryk","birth_year":1846,"death_year":1916}],"translators":[{"name":"Trast, V. K.","birth_year":1878,"death_year":1953}],"subjects":[],"bookshelves":[],"languages":["fi"],"copyright":false,"media_type":"Text","formats":{"text/plain; charset=us-ascii":"https://www.gutenberg.org/files/72842/72842-0.txt"},"download_count":0},{"id":72850,"title":"Uusi tulevaisuus : $b Kolme kertoelmaa","authors":[{"name":"Lassinen, Emil","birth_year":1861,"death_year":1938}],"translators":[],"subjects":[],"bookshelves":[],"languages":["fi"],"copyright":false,"media_type":"Text","formats":{"text/plain; charset=us-ascii":"https://www.gutenberg.org/files/72850/72850-0.txt"},"download_count":0},{"id":72851,"title":"Veneellä poikki Suomenniemen : $b Seikkailuja Pohjanmaan vesillä ja saloilla","authors":[{"name":"Korhonen, Arvo E.","birth_year":null,"death_year":null}],"translators":[],"subjects":[],"bookshelves":[],"languages":["fi"],"copyright":false,"media_type":"Text","formats":{"text/plain; charset=us-ascii":"https://www.gutenberg.org/files/72851/72851-0.txt"},"download_count":0},{"id":72857,"title":"Mikko Tiukkatuuli : $b Kertomus koulupojasta","authors":[{"name":"Lie, Bernt","birth_year":null,"death_year":null}],"translators":[{"name":"Andelin, Selma","birth_year":null,"death_year":null}],"subjects":[],"bookshelves":[],"languages":["fi"],"copyright":false,"media_type":"Text","formats":{"text/plain; charset=us-ascii":"https://www.gutenberg.org/files/72857/72857-0.txt"},"download_count":0},{"id":72858,"title":"Seuratkaamme häntä!","authors":[{"name":"Sienkiewicz, Henryk","birth_year":1846,"death_year":1916}],"translators":[{"name":"Weems, M. L. (Mason Locke)","birth_year":1759,"death_year":1825}],"subjects":[],"bookshelves":[],"languages":["fi"],"copyright":false,"media_type":"Text","formats":{"text/plain; charset=us-ascii":"https://www.gutenberg.org/files/72858/72858-0.txt"},"download_count":0},{"id":72868,"title":"Niilo Skalm : $b Viisinäytöksinen historiallinen murhenäytelmä","authors":[{"name":"Wilkuna, Kyösti","birth_year":1879,"death_year":1922}],"translators":[],"subjects":[],"bookshelves":[],"languages":["fi"],"copyright":false,"media_type":"Text","formats":{"text/plain; charset=us-ascii":"https://www.gutenberg.org/files/72868/72868-0.txt"},"download_count":0},{"id":72874,"title":"Mainio kertomus suutarimestari Simeon Lestin syntymästä ja sankarillisesta elämästä","authors":[{"name":"Kojo, Viljo","birth_year":1891,"death_year":1966}],"translators":[],"subjects":[],"bookshelves":[],"languages":["fi"],"copyright":false,"media_type":"Text","formats":{"text/plain; charset=us-ascii":"https://www.gutenberg.org/files/72874/72874-0.txt"},"download_count":0},{"id":72879,"title":"Synnin mitta : $b Kertomus nykyaikaisesta Lapista","authors":[{"name":"Järventaus, Arvi","birth_year":1883,"death_year":1939}],"translators":[],"subjects":[],"bookshelves":[],"languages":["fi"],"copyright":false,"media_type":"Text","formats":{"text/plain; charset=us-ascii":"https://www.gutenberg.org/files/72879/72879-0.txt"},"download_count":0},{"id":72887,"title":"Näkinkenkä : $b Runoja","authors":[{"name":"Pimiä, Ilmari","birth_year":null,"death_year":null}],"translators":[],"subjects":[],"bookshelves":[],"languages":["fi"],"copyright":false,"media_type":"Text","formats":{"text/plain; charset=us-ascii":"https://www.gutenberg.org/files/72887/72887-0.txt"},"download_count":0},{"id":72888,"title":"Portugallian keisari : $b Kertomus Vermlannista","authors":[{"name":"Lagerlöf, Selma","birth_year":1858,"death_year":1940}],"translators":[{"name":"Krohn, Helmi","birth_year":1871,"death_year":1967}],"subjects":[],"bookshelves":[],"languages":["fi"],"copyright":false,"media_type":"Text","formats":{"text/plain; charset=us-ascii":"https://www.gutenberg.org/files/72888/72888-0.txt"},"download_count":0},{"id":72896,"title":"Kuningattaren romaani : $b ynnä alkuperäisiä suomalaisia kertomuksia","authors":[{"name":"Various","birth_year":null,"death_year":null}],"translators":[],"subjects":[],"bookshelves":[],"languages":["fi"],"copyright":false,"media_type":"Text","formats":{"text/plain; charset=us-ascii":"https://www.gutenberg.org/files/72896/72896-0.txt"},"download_count":0},{"id":72899,"title":"Paljain jaloin : $b Runoja","authors":[{"name":"Kailas, Uuno","birth_year":1901,"death_year":1933}],"translators":[],"subjects":[],"bookshelves":[],"languages":["fi"],"copyright":false,"media_type":"Text","formats":{"text/plain; charset=us-ascii":"https://www.gutenberg.org/files/72899/72899-0.txt"},"download_count":0}]}