{"count":2834,"next":"http://129.241.150.113:8000/books/?languages=fi&page=2","previous":null,"results":[{"id":7000,"title":"Kalevala","authors":[],"translators":[],"subjects":["Finnish poetry"],"bookshelves":[],"languages":["fi"],"copyright":false,"media_type":"Text","formats":{"text/html":"https://www.gutenberg.org/ebooks/7000.html.images","text/html; charset=iso-8859-1":"https://www.gutenberg.org/files/7000/7000-h/7000-h.htm","application/epub+zip":"https://www.gutenberg.org/ebooks/7000.epub3.images","application/x-mobipocket-ebook":"https://www.gutenberg.org/ebooks/7000.kf8.images","text/plain; charset=us-ascii":"https://www.gutenberg.org/ebooks/7000.txt.utf-8","text/plain; charset=iso-8859-1":"https://www.gutenberg.org/files/7000/7000-8.txt","application/rdf+xml":"https://www.gutenberg.org/ebooks/7000.rdf","image/jpeg":"https://www.gutenberg.org/cache/epub/7000/pg7000.cover.medium.jpg","application/octet-stream":"https://www.gutenberg.org/cache/epub/7000/pg7000-h.zip"},"download_count":364},{"id":11940,"title":"Seitsemän veljestä: Kertomus","authors":[{"name":"Kivi, Aleksis","birth_year":1834,"death_year":1872}],"translators":[],"subjects":["Finland -- Fiction"],"bookshelves":[],"languages":["fi"],"copyright":false,"media_type":"Text","formats":{"text/html":"https://www.gutenberg.org/ebooks/11940.html.images","application/epub+zip":"https://www.gutenberg.org/ebooks/11940.epub3.images","application/x-mobipocket-ebook":"https://www.gutenberg.org/ebooks/11940.kf8.images","text/plain; charset=us-ascii":"https://www.gutenberg.org/ebooks/11940.txt.utf-8","text/plain; charset=iso-8859-1":"https://www.gutenberg.org/files/11940/11940-8.txt","application/rdf+xml":"https://www.gutenberg.org/ebooks/11940.rdf","image/jpeg":"https://www.gutenberg.org/cache/epub/11940/pg11940.cover.medium.jpg","application/octet-stream":"https://www.gutenberg.org/cache/epub/11940/pg11940-h.zip"},"download_count":240},{"id":11296,"title":"Työmiehen vaimo","authors":[{"name":"Canth, Minna","birth_year":1844,"death_year":1897}],"translators":[],"subjects":["Finnish drama"],"bookshelves":[],"languages":["fi"],"copyright":false,"media_type":"Text","formats":{"text/html":"https://www.gutenberg.org/ebooks/11296.html.images","application/epub+zip":"https://www.gutenberg.org/ebooks/11296.epub3.images","application/x-mobipocket-ebook":"https://www.gutenberg.org/ebooks/11296.kf8.images","text/plain; charset=us-ascii":"https://www.gutenberg.org/ebooks/11296.txt.utf-8","text/plain; charset=utf-8":"https://www.gutenberg.org/files/11296/11296-0.txt","application/rdf+xml":"https://www.gutenberg.org/ebooks/11296.rdf","image/jpeg":"https://www.gutenberg.org/cache/epub/11296/pg11296.cover.medium.jpg","application/octet-stream":"https://www.gutenberg.org/cache/epub/11296/pg11296-h.zip"},"download_count":216},{"id":13173,"title":"Anna Liisa; Kotoa pois","authors":[{"name":"Canth, Minna","birth_year":1844,"death_year":1897}],"translators":[],"subjects":["Finnish drama"],"bookshelves":[],"languages":["fi"],"copyright":false,"media_type":"Text","formats":{"text/html":"https://www.gutenberg.org/ebooks/13173.html.images","application/epub+zip":"https://www.gutenberg.org/ebooks/13173.epub3.images","application/x-mobipocket-ebook":"https://www.gutenberg.org/ebooks/13173.kf8.images","text/plain; charset=us-ascii":"https://www.gutenberg.org/ebooks/13173.txt.utf-8","text/plain; charset=iso-8859-1":"https://www.gutenberg.org/files/13173/13173-8.txt","application/rdf+xml":"https://www.gutenberg.org/ebooks/13173.rdf","image/jpeg":"https://www.gutenberg.org/cache/epub/13173/pg13173.cover.medium.jpg","application/octet-stream":"https://www.gutenberg.org/cache/epub/13173/pg13173-h.zip"},"download_count":191},{"id":72734,"title":"Loinen : $b Kertomus","authors":[{"name":"Järvi, K. A. (Kaarlo August)","birth_year":1869,"death_year":1942}],"translators":[],"subjects":["Finnish fiction -- 20th century"],"bookshelves":[],"languages":["fi"],"copyright":false,"media_type":"Text","formats":{"text/html":"https://www.gutenberg.org/ebooks/72734.html.images","application/epub+zip":"https://www.gutenberg.org/ebooks/72734.epub3.images","application/x-mobipocket-ebook":"https://www.gutenberg.org/ebooks/72734.kf8.images","text/plain; charset=us-ascii":"https://www.gutenberg.org/ebooks/72734.txt.utf-8","application/rdf+xml":"https://www.gutenberg.org/ebooks/72734.rdf","image/jpeg":"https://www.gutenberg.org/cache/epub/72734/pg72734.cover.medium.jpg","application/octet-stream":"https://www.gutenberg.org/cache/epub/72734/pg72734-h.zip"},"download_count":188},{"id":72733,"title":"Kommunisti- ja bolshevikkipakinoita","authors":[{"name":"Kivinen, Ilmari","birth_year":1883,"death_year":1940}],"translators":[],"subjects":["Finnish fiction -- 20th century"],"bookshelves":[],"languages":["fi"],"copyright":false,"media_type":"Text","formats":{"text/html":"https://www.gutenberg.org/ebooks/72733.html.images","application/epub+zip":"https://www.gutenberg.org/ebooks/72733.epub3.images","application/x-mobipocket-ebook":"https://www.gutenberg.org/ebooks/72733.kf8.images","text/plain; charset=us-ascii":"https://www.gutenberg.org/ebooks/72733.txt.utf-8","application/rdf+xml":"https://www.gutenberg.org/ebooks/72733.rdf","image/jpeg":"https://www.gutenberg.org/cache/epub/72733/pg72733.cover.medium.jpg","application/octet-stream":"https://www.gutenberg.org/cache/epub/72733/pg72733-h.zip"},"download_count":186},{"id":72593,"title":"Onnen arkku : $b Tarina Halkovuorelta","authors":[{"name":"Jäämaa, Ilmari","birth_year":1888,"death_year":1934}],"translators":[],"subjects":["Finnish fiction -- 20th century"],"bookshelves":[],"languages":["fi"],"copyright":false,"media_type":"Text","formats":{"text/html":"https://www.gutenberg.org/ebooks/72593.html.images","application/epub+zip":"https://www.gutenberg.org/ebooks/72593.epub3.images","application/x-mobipocket-ebook":"https://www.gutenberg.org/ebooks/72593.kf8.images","text/plain; charset=us-ascii":"https://www.gutenberg.org/ebooks/72593.txt.utf-8","application/rdf+xml":"https://www.gutenberg.org/ebooks/72593.rdf","image/jpeg":"https://www.gutenberg.org/cache/epub/72593/pg72593.cover.medium.jpg","application/octet-stream":"https://www.gutenberg.org/cache/epub/72593/pg72593-h.zip"},"download_count":183},{"id":72594,"title":"Yhden ainoan kerran : $b Novelleja","authors":[{"name":"Kajander, Kalle","birth_year":1862,"death_year":1928}],"translators":[],"subjects":["Finnish fiction -- 20th century","Short stories, Finnish"],"bookshelves":[],"languages":["fi"],"copyright":false,"media_type":"Text","formats":{"text/html":"https://www.gutenberg.org/ebooks/72594.html.images","application/epub+zip":"https://www.gutenberg.org/ebooks/72594.epub3.images","application/x-mobipocket-ebook":"https://www.gutenberg.org/ebooks/72594.kf8.images","text/plain; charset=us-ascii":"https://www.gutenberg.org/ebooks/72594.txt.utf-8","application/rdf+xml":"https://www.gutenberg.org/ebooks/72594.rdf","image/jpeg":"https://www.gutenberg.org/cache/epub/72594/pg72594.cover.medium.jpg","application/octet-stream":"https://www.gutenberg.org/cache/epub/72594/pg72594-h.zip"},"download_count":181},{"id":72652,"title":"Tullikavaltajia","authors":[{"name":"Kataja, Väinö","birth_year":1867,"death_year":1914}],"translators":[],"subjects":["Finnish fiction -- 20th century"],"bookshelves":[],"languages":["fi"],"copyright":false,"media_type":"Text","formats":{"text/html":"https://www.gutenberg.org/ebooks/72652.html.images","application/epub+zip":"https://www.gutenberg.org/ebooks/72652.epub3.images","application/x-mobipocket-ebook":"https://www.gutenberg.org/ebooks/72652.kf8.images","text/plain; charset=us-ascii":"https://www.gutenberg.org/ebooks/72652.txt.utf-8","application/rdf+xml":"https://www.gutenberg.org/ebooks/72652.rdf","image/jpeg":"https://www.gutenberg.org/cache/epub/72652/pg72652.cover.medium.jpg","application/octet-stream":"https://www.gutenberg.org/cache/epub/72652/pg72652-h.zip"},"download_count":181},{"id":72579,"title":"Alakuloinen meri : $b Runoja","authors":[{"name":"Kaari, Anna","birth_year":1903,"death_year":1987}],"translators":[],"subjects":["Finnish poetry -- 20th century"],"bookshelves":[],"languages":["fi"],"copyright":false,"media_type":"Text","formats":{"text/html":"https://www.gutenberg.org/ebooks/72579.html.images","application/epub+zip":"https://www.gutenberg.org/ebooks/72579.epub3.images","application/x-mobipocket-ebook":"https://www.gutenberg.org/ebooks/72579.kf8.images","text/plain; charset=us-ascii":"https://www.gutenberg.org/ebooks/72579.txt.utf-8","application/rdf+xml":"https://www.gutenberg.org/ebooks/72579.rdf","image/jpeg":"https://www.gutenberg.org/cache/epub/72579/pg72579.cover.medium.jpg","application/octet-stream":"https://www.gutenberg.org/cache/epub/72579/pg72579-h.zip"},"download_count":177},{"id":14125,"title":"Amerikan löytöretken päiväkirja","authors":[{"name":"Columbus, Christopher","birth_year":1451,"death_year":1506}],"translators":[],"subjects":["America -- Discovery and exploration -- Spanish","Columbus, Christopher -- Diaries","Explorers -- America -- Diaries","Explorers -- Spain -- Diaries"],"bookshelves":[],"languages":["fi"],"copyright":false,"media_type":"Text","formats":{"text/html":"https://www.gutenberg.org/ebooks/14125.html.images","text/html; charset=iso-8859-1":"https://www.gutenberg.org/files/14125/14125-h/14125-h.htm","application/epub+zip":"https://www.gutenberg.org/ebooks/14125.epub3.images","application/x-mobipocket-ebook":"https://www.gutenberg.org/ebooks/14125.kf8.images","text/plain; charset=us-ascii":"https://www.gutenberg.org/ebooks/14125.txt.utf-8","text/plain; charset=iso-8859-1":"https://www.gutenberg.org/files/14125/14125-8.txt","application/rdf+xml":"https://www.gutenberg.org/ebooks/14125.rdf","image/jpeg":"https://www.gutenberg.org/cache/epub/14125/pg14125.cover.medium.jpg","application/octet-stream":"https://www.gutenberg.org/cache/epub/14125/pg14125-h.zip"},"download_count":175},{"id":55664,"title":"Sudenpyytäjät","authors":[{"name":"Curwood, James Oliver","birth_year":1878,"death_year":1927}],"translators":[{"name":"Joutsen, O. A. (Otto Aleksanteri)","birth_year":1878,"death_year":1936}],"subjects":["Canada -- Fiction","Hunters -- Fiction","Indians of North America -- Canada -- Fiction","Wilderness survival -- Fiction","Wolf hunting -- Fiction","Wolves -- Fiction"],"bookshelves":[],"languages":["fi"],"copyright":false,"media_type":"Text","formats":{"text/html":"https://www.gutenberg.org/ebooks/55664.html.images","application/epub+zip":"https://www.gutenberg.org/ebooks/55664.epub3.images","application/x-mobipocket-ebook":"https://www.gutenberg.org/ebooks/55664.kf8.images","text/plain; charset=us-ascii":"https://www.gutenberg.org/ebooks/55664.txt.utf-8","text/plain; charset=iso-8859-1":"https://www.gutenberg.org/files/55664/55664-8.txt","application/rdf+xml":"https://www.gutenberg.org/ebooks/55664.rdf","image/jpeg":"https://www.gutenberg.org/cache/epub/55664/pg55664.cover.medium.jpg","application/octet-stream":"https://www.gutenberg.org/cache/epub/55664/pg55664-h.zip"},"download_count":173},{"id":72606,"title":"Punanen lippu : $b ynnä pari muuta kertomusta","authors":[{"name":"Hornborg, Karl Henrik","birth_year":1853,"death_year":1921}],"translators":[],"subjects":["Finnish fiction -- 19th century","Short stories, Finnish"],"bookshelves":[],"languages":["fi"],"copyright":false,"media_type":"Text","formats":{"text/html":"https://www.gutenberg.org/ebooks/72606.html.images","application/epub+zip":"https://www.gutenberg.org/ebooks/72606.epub3.images","application/x-mobipocket-ebook":"https://www.gutenberg.org/ebooks/72606.kf8.images","text/plain; charset=us-ascii":"https://www.gutenberg.org/ebooks/72606.txt.utf-8","application/rdf+xml":"https://www.gutenberg.org/ebooks/72606.rdf","image/jpeg":"https://www.gutenberg.org/cache/epub/72606/pg72606.cover.medium.jpg","application/octet-stream":"https://www.gutenberg.org/cache/epub/72606/pg72606-h.zip"},"download_count":173},{"id":72587,"title":"\"Riennon\" toimitus : $b Piirteitä Kolkkalan kaupungin sivistyshistoriasta","authors":[{"name":"Wilkuna, Kyösti","birth_year":1879,"death_year":1922}],"translators":[],"subjects":["Finnish fiction -- 20th century"],"bookshelves":[],"languages":["fi"],"copyright":false,"media_type":"Text","formats":{"text/html":"https://www.gutenberg.org/ebooks/72587.html.images","application/epub+zip":"https://www.gutenberg.org/ebooks/72587.epub3.images","application/x-mobipocket-ebook":"https://www.gutenberg.org/ebooks/72587.kf8.images","text/plain; charset=us-ascii":"https://www.gutenberg.org/ebooks/72587.txt.utf-8","application/rdf+xml":"https://www.gutenberg.org/ebooks/72587.rdf","image/jpeg":"https://www.gutenberg.org/cache/epub/72587/pg72587.cover.medium.jpg","application/octet-stream":"https://www.gutenberg.org/cache/epub/72587/pg72587-h.zip"},"download_count":168},{"id":72750,"title":"Kapteeni Bloodin vaiheet : $b Seikkailuromaani","authors":[{"name":"Sabatini, Rafael","birth_year":1875,"death_year":1950}],"translators":[{"name":"Kesäniemi, Paavo","birth_year":1879,"death_year":1940}],"subjects":["Adventure stories","British -- Caribbean Area -- Fiction","Caribbean Area -- Fiction","Historical fiction","Physicians -- Fiction","Pirates -- Fiction","Sea stories"],"bookshelves":[],"languages":["fi"],"copyright":false,"media_type":"Text","formats":{"text/html":"https://www.gutenberg.org/ebooks/72750.html.images","application/epub+zip":"https://www.gutenberg.org/ebooks/72750.epub3.images","application/x-mobipocket-ebook":"https://www.gutenberg.org/ebooks/72750.kf8.images","text/plain; charset=us-ascii":"https://www.gutenberg.org/ebooks/72750.txt.utf-8","application/rdf+xml":"https://www.gutenberg.org/ebooks/72750.rdf","image/jpeg":"https://www.gutenberg.org/cache/epub/72750/pg72750.cover.medium.jpg","application/octet-stream":"https://www.gutenberg.org/cache/epub/72750/pg72750-h.zip"},"download_count":167},{"id":72604,"title":"Kaarilan tytöt : $b Kertomus nuorisolle","authors":[{"name":"Virvatuli, Annikki","birth_year":1884,"death_year":1940}],"translators":[],"subjects":["Children's stories, Finnish"],"bookshelves":[],"languages":["fi"],"copyright":false,"media_type":"Text","formats":{"text/html":"https://www.gutenberg.org/ebooks/72604.html.images","application/epub+zip":"https://www.gutenberg.org/ebooks/72604.epub3.images","application/x-mobipocket-ebook":"https://www.gutenberg.org/ebooks/72604.kf8.images","text/plain; charset=us-ascii":"https://www.gutenberg.org/ebooks/72604.txt.utf-8","application/rdf+xml":"https://www.gutenberg.org/ebooks/72604.rdf","image/jpeg":"https://www.gutenberg.org/cache/epub/72604/pg72604.cover.medium.jpg","application/octet-stream":"https://www.gutenberg.org/cache/epub/72604/pg72604-h.zip"},"download_count":162},{"id":72634,"title":"Haaveilua","authors":[{"name":"Lundegård-Hagberg, Marianne","birth_year":null,"death_year":null}],"translators":[{"name":"Auer, Vihtori","birth_year":1882,"death_year":1951}],"subjects":["Fiction"],"bookshelves":[],"languages":["fi"],"copyright":false,"media_type":"Text","formats":{"text/html":"https://www.gutenberg.org/ebooks/72634.html.images","application/epub+zip":"https://www.gutenberg.org/ebooks/72634.epub3.images","application/x-mobipocket-ebook":"https://www.gutenberg.org/ebooks/72634.kf8.images","text/plain; charset=us-ascii":"https://www.gutenberg.org/ebooks/72634.txt.utf-8","application/rdf+xml":"https://www.gutenberg.org/ebooks/72634.rdf","image/jpeg":"https://www.gutenberg.org/cache/epub/72634/pg72634.cover.medium.jpg","application/octet-stream":"https://www.gutenberg.org/cache/epub/72634/pg72634-h.zip"},"download_count":162},{"id":72657,"title":"Pohjalaisia ja peräpohjalaisia","authors":[{"name":"Koskimaa, Juho","birth_year":1891,"death_year":1926}],"translators":[],"subjects":["Finnish fiction -- 20th century","Short stories, Finnish"],"bookshelves":[],"languages":["fi"],"copyright":false,"media_type":"Text","formats":{"text/html":"https://www.gutenberg.org/ebooks/72657.html.images","application/epub+zip":"https://www.gutenberg.org/ebooks/72657.epub3.images","application/x-mobipocket-ebook":"https://www.gutenberg.org/ebooks/72657.kf8.images","text/plain; charset=us-ascii":"https://www.gutenberg.org/ebooks/72657.txt.utf-8","application/rdf+xml":"https://www.gutenberg.org/ebooks/72657.rdf","image/jpeg":"https://www.gutenberg.org/cache/epub/72657/pg72657.cover.medium.jpg","application/octet-stream":"https://www.gutenberg.org/cache/epub/72657/pg72657-h.zip"},"download_count":161},{"id":72758,"title":"Puolan kapinat vv. 1831 ja 1863","authors":[{"name":"Yrjö-Koskinen, Yrjö Sakari","birth_year":1830,"death_year":1903}],"translators":[],"subjects":["Poland -- History -- Revolution, 1830-1832","Poland -- History -- Revolution, 1863-1864"],"bookshelves":[],"languages":["fi"],"copyright":false,"media_type":"Text","formats":{"text/html":"https://www.gutenberg.org/ebooks/72758.html.images","application/epub+zip":"https://www.gutenberg.org/ebooks/72758.epub3.images","application/x-mobipocket-ebook":"https://www.gutenberg.org/ebooks/72758.kf8.images","text/plain; charset=us-ascii":"https://www.gutenberg.org/ebooks/72758.txt.utf-8","application/rdf+xml":"https://www.gutenberg.org/ebooks/72758.rdf","image/jpeg":"https://www.gutenberg.org/cache/epub/72758/pg72758.cover.medium.jpg","application/octet-stream":"https://www.gutenberg.org/cache/epub/72758/pg72758-h.zip"},"download_count":160},{"id":72568,"title":"Viljan valtakunta","authors":[{"name":"Hemmer, Jarl","birth_year":1893,"death_year":1944}],"translators":[{"name":"Jalkanen, Huugo","birth_year":1888,"death_year":1969}],"subjects":["Swedish poetry -- Translations into Finnish"],"bookshelves":[],"languages":["fi"],"copyright":false,"media_type":"Text","formats":{"text/html":"https://www.gutenberg.org/ebooks/72568.html.images","application/epub+zip":"https://www.gutenberg.org/ebooks/72568.epub3.images","application/x-mobipocket-ebook":"https://www.gutenberg.org/ebooks/72568.kf8.images","text/plain; charset=us-ascii":"https://www.gutenberg.org/ebooks/72568.txt.utf-8","application/rdf+xml":"https://www.gutenberg.org/ebooks/72568.rdf","image/jpeg":"https://www.gutenberg.org/cache/epub/72568/pg72568.cover.medium.jpg","application/octet-stream":"https://www.gutenberg.org/cache/epub/72568/pg72568-h.zip"},"download_count":158},{"id":72616,"title":"Rajaviiva : $b Yhteiskunnallinen maalaisromaani","authors":[{"name":"Korhonen, Veikko","birth_year":1888,"death_year":1942}],"translators":[],"subjects":["Finnish fiction -- 20th century"],"bookshelves":[],"languages":["fi"],"copyright":false,"media_type":"Text","formats":{"text/html":"https://www.gutenberg.org/ebooks/72616.html.images","application/epub+zip":"https://www.gutenberg.org/ebooks/72616.epub3.images","application/x-mobipocket-ebook":"https://www.gutenberg.org/ebooks/72616.kf8.images","text/plain; charset=us-ascii":"https://www.gutenberg.org/ebooks/72616.txt.utf-8","application/rdf+xml":"https://www.gutenberg.org/ebooks/72616.rdf","image/jpeg":"https://www.gutenberg.org/cache/epub/72616/pg72616.cover.medium.jpg","application/octet-stream":"https://www.gutenberg.org/cache/epub/72616/pg72616-h.zip"},"download_count":154},{"id":17674,"title":"Nora: Näytelmä kolmessa näytöksessä","authors":[{"name":"Ibsen, Henrik","birth_year":1828,"death_year":1906}],"translators":[],"subjects":["Man-woman relationships -- Drama","Marriage -- Drama","Wives -- Drama"],"bookshelves":["Best Books Ever Listings"],"languages":["fi"],"copyright":false,"media_type":"Text","formats":{"text/html":"https://www.gutenberg.org/ebooks/17674.html.images","application/epub+zip":"https://www.gutenberg.org/ebooks/17674.epub3.images","application/x-mobipocket-ebook":"https://www.gutenberg.org/ebooks/17674.kf8.images","text/plain; charset=us-ascii":"https://www.gutenberg.org/ebooks/17674.txt.utf-8","text/plain; charset=iso-8859-1":"https://www.gutenberg.org/files/17674/17674-8.txt","application/rdf+xml":"https://www.gutenberg.org/ebooks/17674.rdf","image/jpeg":"https://www.gutenberg.org/cache/epub/17674/pg17674.cover.medium.jpg","application/octet-stream":"https://www.gutenberg.org/cache/epub/17674/pg17674-h.zip"},"download_count":150},{"id":72684,"title":"Kesäyö","authors":[{"name":"Kataja, Väinö","birth_year":1867,"death_year":1914}],"translators":[],"subjects":["Finnish fiction -- 20th century"],"bookshelves":[],"languages":["fi"],"copyright":false,"media_type":"Text","formats":{"text/html":"https://www.gutenberg.org/ebooks/72684.html.images","application/epub+zip":"https://www.gutenberg.org/ebooks/72684.epub3.images","application/x-mobipocket-ebook":"https://www.gutenberg.org/ebooks/72684.kf8.images","text/plain; charset=us-ascii":"https://www.gutenberg.org/ebooks/72684.txt.utf-8","application/rdf+xml":"https://www.gutenberg.org/ebooks/72684.rdf","image/jpeg":"https://www.gutenberg.org/cache/epub/72684/pg72684.cover.medium.jpg","application/octet-stream":"https://www.gutenberg.org/cache/epub/72684/pg72684-h.zip"},"download_count":150},{"id":72727,"title":"Valkoinen ja musta","authors":[{"name":"Korhonen, Veikko","birth_year":1888,"death_year":1942}],"translators":[],"subjects":["Finnish fiction -- 20th century"],"bookshelves":[],"languages":["fi"],"copyright":false,"media_type":"Text","formats":{"text/html":"https://www.gutenberg.org/ebooks/72727.html.images","application/epub+zip":"https://www.gutenberg.org/ebooks/72727.epub3.images","application/x-mobipocket-ebook":"https://www.gutenberg.org/ebooks/72727.kf8.images","text/plain; charset=us-ascii":"https://www.gutenberg.org/ebooks/72727.txt.utf-8","application/rdf+xml":"https://www.gutenberg.org/ebooks/72727.rdf","image/jpeg":"https://www.gutenberg.org/cache/epub/72727/pg72727.cover.medium.jpg","application/octet-stream":"https://www.gutenberg.org/cache/epub/72727/pg72727-h.zip"},"download_count":150},{"id":72664,"title":"Islanti : $b tarun ja runon maa","authors":[{"name":"Inha, Into Konrad","birth_year":1865,"death_year":1930}],"translators":[],"subjects":["Iceland"],"bookshelves":[],"languages":["fi"],"copyright":false,"media_type":"Text","formats":{"text/html":"https://www.gutenberg.org/ebooks/72664.html.images","application/epub+zip":"https://www.gutenberg.org/ebooks/72664.epub3.images","application/x-mobipocket-ebook":"https://www.gutenberg.org/ebooks/72664.kf8.images","text/plain; charset=us-ascii":"https://www.gutenberg.org/ebooks/72664.txt.utf-8","application/rdf+xml":"https://www.gutenberg.org/ebooks/72664.rdf","image/jpeg":"https://www.gutenberg.org/cache/epub/72664/pg72664.cover.medium.jpg","application/octet-stream":"https://www.gutenberg.org/cache/epub/72664/pg72664-h.zip"},"download_count":147},{"id":72617,"title":"Patruuna Jönssonin muistelmat","authors":[{"name":"Sigurd","birth_year":1852,"death_year":1906}],"translators":[{"name":"Haveri, Arvo","birth_year":1881,"death_year":1934}],"subjects":["Swedish literature -- Translations into Finnish"],"bookshelves":[],"languages":["fi"],"copyright":false,"media_type":"Text","formats":{"text/html":"https://www.gutenberg.org/ebooks/72617.html.images","application/epub+zip":"https://www.gutenberg.org/ebooks/72617.epub3.images","application/x-mobipocket-ebook":"https://www.gutenberg.org/ebooks/72617.kf8.images","text/plain; charset=us-ascii":"https://www.gutenberg.org/ebooks/72617.txt.utf-8","application/rdf+xml":"https://www.gutenberg.org/ebooks/72617.rdf","image/jpeg":"https://www.gutenberg.org/cache/epub/72617/pg72617.cover.medium.jpg","application/octet-stream":"https://www.gutenberg.org/cache/epub/72617/pg72617-h.zip"},"download_count":144},{"id":72656,"title":"Keisarin kynttilänjalat","authors":[{"name":"Orczy, Emmuska Orczy, Baroness","birth_year":1865,"death_year":1947}],"translators":[{"name":"Nuotio, Tauno","birth_year":1903,"death_year":1970}],"subjects":["Carnival -- Fiction","Spy stories","Vienna (Austria) -- Fiction"],"bookshelves":[],"languages":["fi"],"copyright":false,"media_type":"Text","formats":{"text/html":"https://www.gutenberg.org/ebooks/72656.html.images","application/epub+zip":"https://www.gutenberg.org/ebooks/72656.epub3.images","application/x-mobipocket-ebook":"https://www.gutenberg.org/ebooks/72656.kf8.images","text/plain; charset=us-ascii":"https://www.gutenberg.org/ebooks/72656.txt.utf-8","application/rdf+xml":"https://www.gutenberg.org/ebooks/72656.rdf","image/jpeg":"https://www.gutenberg.org/cache/epub/72656/pg72656.cover.medium.jpg","application/octet-stream":"https://www.gutenberg.org/cache/epub/72656/pg72656-h.zip"},"download_count":144},{"id":72692,"title":"Portaankorvan emäntä : $b Kuvaus Ruotsin rajoilta","authors":[{"name":"Kataja, Väinö","birth_year":1867,"death_year":1914}],"translators":[],"subjects":["Finnish fiction -- 20th century"],"bookshelves":[],"languages":["fi"],"copyright":false,"media_type":"Text","formats":{"text/html":"https://www.gutenberg.org/ebooks/72692.html.images","application/epub+zip":"https://www.gutenberg.org/ebooks/72692.epub3.images","application/x-mobipocket-ebook":"https://www.gutenberg.org/ebooks/72692.kf8.images","text/plain; charset=us-ascii":"https://www.gutenberg.org/ebooks/72692.txt.utf-8","application/rdf+xml":"https://www.gutenberg.org/ebooks/72692.rdf","image/jpeg":"https://www.gutenberg.org/cache/epub/72692/pg72692.cover.medium.jpg","application/octet-stream":"https://www.gutenberg.org/cache/epub/72692/pg72692-h.zip"},"download_count":143},{"id":72739,"title":"Corbalin vihkiäiset : $b Romaani Ranskan vallankumouksen ajoilta","authors":[{"name":"Sabatini, Rafael","birth_year":1875,"death_year":1950}],"translators":[{"name":"Hedman, Valfrid","birth_year":1872,"death_year":1939}],"subjects":["Aristocracy (Social class) -- France -- Fiction","France -- History -- Revolution, 1789-1799 -- Fiction","Historical fiction","Nobility -- France -- Fiction"],"bookshelves":[],"languages":["fi"],"copyright":false,"media_type":"Text","formats":{"text/html":"https://www.gutenberg.org/ebooks/72739.html.images","application/epub+zip":"https://www.gutenberg.org/ebooks/72739.epub3.images","application/x-mobipocket-ebook":"https://www.gutenberg.org/ebooks/72739.kf8.images","text/plain; charset=us-ascii":"https://www.gutenberg.org/ebooks/72739.txt.utf-8","application/rdf+xml":"https://www.gutenberg.org/ebooks/72739.rdf","image/jpeg":"https://www.gutenberg.org/cache/epub/72739/pg72739.cover.medium.jpg","application/octet-stream":"https://www.gutenberg.org/cache/epub/72739/pg72739-h.zip"},"download_count":139},{"id":13593,"title":"Yksin","authors":[{"name":"Aho, Juhani","birth_year":1861,"death_year":1921}],"translators":[],"subjects":["Finnish fiction"],"bookshelves":[],"languages":["fi"],"copyright":false,"media_type":"Text","formats":{"text/html":"https://www.gutenberg.org/ebooks/13593.html.images","application/epub+zip":"https://www.gutenberg.org/ebooks/13593.epub3.images","application/x-mobipocket-ebook":"https://www.gutenberg.org/ebooks/13593.kf8.images","text/plain; charset=us-ascii":"https://www.gutenberg.org/ebooks/13593.txt.utf-8","text/plain; charset=iso-8859-1":"https://www.gutenberg.org/files/13593/13593-8.txt","application/rdf+xml":"https://www.gutenberg.org/ebooks/13593.rdf","image/jpeg":"https://www.gutenberg.org/cache/epub/13593/pg13593.cover.medium.jpg","application/octet-stream":"https://www.gutenberg.org/cache/epub/13593/pg13593-h.zip"},"download_count":138},{"id":72663,"title":"Ihmiskohtalo : $b Kuvaus tilattoman elämästä","authors":[{"name":"Kataja, Väinö","birth_year":1867,"death_year":1914}],"translators":[],"subjects":["Finnish fiction -- 20th century"],"bookshelves":[],"languages":["fi"],"copyright":false,"media_type":"Text","formats":{"text/html":"https://www.gutenberg.org/ebooks/72663.html.images","application/epub+zip":"https://www.gutenberg.org/ebooks/72663.epub3.images","application/x-mobipocket-ebook":"https://www.gutenberg.org/ebooks/72663.kf8.images","text/plain; charset=us-ascii":"https://www.gutenberg.org/ebooks/72663.txt.utf-8","application/rdf+xml":"https://www.gutenberg.org/ebooks/72663.rdf","image/jpeg":"https://www.gutenberg.org/cache/epub/72663/pg72663.cover.medium.jpg","application/octet-stream":"https://www.gutenberg.org/cache/epub/72663/pg72663-h.zip"},"download_count":138},{"id":54543,"title":"Antigone","authors":[{"name":"Sophocles","birth_year":-496,"death_year":-406}],"translators":[{"name":"Koskimies, Kaarlo","birth_year":1851,"death_year":1918}],"subjects":["Antigone (Mythological character) -- Drama","Tragedies"],"bookshelves":[],"languages":["fi"],"copyright":false,"media_type":"Text","formats":{"text/html":"https://www.gutenberg.org/ebooks/54543.html.images","application/epub+zip":"https://www.gutenberg.org/ebooks/54543.epub3.images","application/x-mobipocket-ebook":"https://www.gutenberg.org/ebooks/54543.kf8.images","text/plain; charset=us-ascii":"https://www.gutenberg.org/ebooks/54543.txt.utf-8","text/plain; charset=iso-8859-1":"https://www.gutenberg.org/files/54543/54543-8.txt","application/rdf+xml":"https://www.gutenberg.org/ebooks/54543.rdf","image/jpeg":"https://www.gutenberg.org/cache/epub/54543/pg54543.cover.medium.jpg","application/octet-stream":"https://www.gutenberg.org/cache/epub/54543/pg54543-h.zip"},"download_count":134}]}