{"count":2834,"next":"http://129.241.150.113:8000/books/?languages=fi&page=79","previous":"http://129.241.150.113:8000/books/?languages=fi&page=77","results":[{"id":69377,"title":"Tarinoita","authors":[{"name":"Mikszáth, Kálmán","birth_year":1847,"death_year":1910}],"translators":[{"name":"Wainio, Niilo E.","birth_year":1860,"death_year":1931}],"subjects":["Hungarian fiction -- Translations into Finnish","Short stories, Hungarian -- Translations into Finnish"],"bookshelves":[],"languages":["fi"],"copyright":false,"media_type":"Text","formats":{"text/html":"https://www.gutenberg.org/ebooks/69377.html.images","application/epub+zip":"https://www.gutenberg.org/ebooks/69377.epub3.images","application/x-mobipocket-ebook":"https://www.gutenberg.org/ebooks/69377.kf8.images","text/plain; charset=us-ascii":"https://www.gutenberg.org/ebooks/69377.txt.utf-8","application/rdf+xml":"https://www.gutenberg.org/ebooks/69377.rdf","image/jpeg":"https://www.gutenberg.org/cache/epub/69377/pg69377.cover.medium.jpg","application/octet-stream":"https://www.gutenberg.org/files/69377/69377-0.zip"},"download_count":16},{"id":69933,"title":"Kuninkaitten kuningas","authors":[{"name":"Wells, H. G. (Herbert George)","birth_year":1866,"death_year":1946}],"translators":[{"name":"Palola, Eino","birth_year":1885,"death_year":1951}],"subjects":["English fiction -- Translations into Finnish","Fathers and daughters -- Fiction","Hallucinations and illusions -- Fiction","Man-woman relationships -- Fiction","Self-actualization (Psychology) -- Fiction","Widowers -- Fiction"],"bookshelves":[],"languages":["fi"],"copyright":false,"media_type":"Text","formats":{"text/html":"https://www.gutenberg.org/ebooks/69933.html.images","application/epub+zip":"https://www.gutenberg.org/ebooks/69933.epub3.images","application/x-mobipocket-ebook":"https://www.gutenberg.org/ebooks/69933.kf8.images","text/plain; charset=us-ascii":"https://www.gutenberg.org/ebooks/69933.txt.utf-8","application/rdf+xml":"https://www.gutenberg.org/ebooks/69933.rdf","image/jpeg":"https://www.gutenberg.org/cache/epub/69933/pg69933.cover.medium.jpg","application/octet-stream":"https://www.gutenberg.org/files/69933/69933-0.zip"},"download_count":16},{"id":70238,"title":"Valittuja kertomuksia","authors":[{"name":"France, Anatole","birth_year":1844,"death_year":1924}],"translators":[{"name":"Manninen, Otto","birth_year":1872,"death_year":1950},{"name":"Hollo, J. A. (Juho Aukusti)","birth_year":1885,"death_year":1967}],"subjects":["French fiction -- Translations into Finnish","Short stories, French -- Translations into Finnish"],"bookshelves":[],"languages":["fi"],"copyright":false,"media_type":"Text","formats":{"text/html":"https://www.gutenberg.org/ebooks/70238.html.images","application/epub+zip":"https://www.gutenberg.org/ebooks/70238.epub3.images","application/x-mobipocket-ebook":"https://www.gutenberg.org/ebooks/70238.kf8.images","text/plain; charset=us-ascii":"https://www.gutenberg.org/ebooks/70238.txt.utf-8","application/rdf+xml":"https://www.gutenberg.org/ebooks/70238.rdf","image/jpeg":"https://www.gutenberg.org/cache/epub/70238/pg70238.cover.medium.jpg","application/octet-stream":"https://www.gutenberg.org/files/70238/70238-0.zip"},"download_count":16},{"id":70256,"title":"Virginia : $b Vapaista metsistä tarina","authors":[{"name":"White, Stewart Edward","birth_year":1873,"death_year":1946}],"translators":[{"name":"Inha, Into Konrad","birth_year":1865,"death_year":1930}],"subjects":["Canada, Northern -- Fiction"],"bookshelves":[],"languages":["fi"],"copyright":false,"media_type":"Text","formats":{"text/html":"https://www.gutenberg.org/ebooks/70256.html.images","application/epub+zip":"https://www.gutenberg.org/ebooks/70256.epub3.images","application/x-mobipocket-ebook":"https://www.gutenberg.org/ebooks/70256.kf8.images","text/plain; charset=us-ascii":"https://www.gutenberg.org/ebooks/70256.txt.utf-8","application/rdf+xml":"https://www.gutenberg.org/ebooks/70256.rdf","image/jpeg":"https://www.gutenberg.org/cache/epub/70256/pg70256.cover.medium.jpg","application/octet-stream":"https://www.gutenberg.org/files/70256/70256-0.zip"},"download_count":16},{"id":70602,"title":"Kosinta : $b Yksinäytöksinen pila","authors":[{"name":"Chekhov, Anton Pavlovich","birth_year":1860,"death_year":1904}],"translators":[{"name":"Silvanto, Reino","birth_year":1883,"death_year":1943}],"subjects":["Comedies","Farces","Marriage proposals -- Drama","One-act plays","Russian drama -- Translations into Finnish"],"bookshelves":[],"languages":["fi"],"copyright":false,"media_type":"Text","formats":{"text/html":"https://www.gutenberg.org/ebooks/70602.html.images","application/epub+zip":"https://www.gutenberg.org/ebooks/70602.epub3.images","application/x-mobipocket-ebook":"https://www.gutenberg.org/ebooks/70602.kf8.images","text/plain; charset=us-ascii":"https://www.gutenberg.org/ebooks/70602.txt.utf-8","application/rdf+xml":"https://www.gutenberg.org/ebooks/70602.rdf","image/jpeg":"https://www.gutenberg.org/cache/epub/70602/pg70602.cover.medium.jpg","application/octet-stream":"https://www.gutenberg.org/files/70602/70602-0.zip"},"download_count":16},{"id":70604,"title":"Sophokles","authors":[{"name":"Zilliacus, Emil","birth_year":1878,"death_year":1961}],"translators":[{"name":"Manninen, Otto","birth_year":1872,"death_year":1950},{"name":"Tuulio, Tyyni","birth_year":1892,"death_year":1991}],"subjects":["Sophocles"],"bookshelves":[],"languages":["fi"],"copyright":false,"media_type":"Text","formats":{"text/html":"https://www.gutenberg.org/ebooks/70604.html.images","application/epub+zip":"https://www.gutenberg.org/ebooks/70604.epub3.images","application/x-mobipocket-ebook":"https://www.gutenberg.org/ebooks/70604.kf8.images","text/plain; charset=us-ascii":"https://www.gutenberg.org/ebooks/70604.txt.utf-8","application/rdf+xml":"https://www.gutenberg.org/ebooks/70604.rdf","image/jpeg":"https://www.gutenberg.org/cache/epub/70604/pg70604.cover.medium.jpg","application/octet-stream":"https://www.gutenberg.org/files/70604/70604-0.zip"},"download_count":16},{"id":70673,"title":"Sisäiset voimat","authors":[{"name":"Baudouin, Charles","birth_year":1893,"death_year":1963}],"translators":[{"name":"Hollo, J. A. (Juho Aukusti)","birth_year":1885,"death_year":1967}],"subjects":["Psychoanalysis","Psychology"],"bookshelves":[],"languages":["fi"],"copyright":false,"media_type":"Text","formats":{"text/html":"https://www.gutenberg.org/ebooks/70673.html.images","application/epub+zip":"https://www.gutenberg.org/ebooks/70673.epub3.images","application/x-mobipocket-ebook":"https://www.gutenberg.org/ebooks/70673.kf8.images","text/plain; charset=us-ascii":"https://www.gutenberg.org/ebooks/70673.txt.utf-8","application/rdf+xml":"https://www.gutenberg.org/ebooks/70673.rdf","image/jpeg":"https://www.gutenberg.org/cache/epub/70673/pg70673.cover.medium.jpg","application/octet-stream":"https://www.gutenberg.org/files/70673/70673-0.zip"},"download_count":16},{"id":70931,"title":"Kuusi pilapuhetta : $b huvi-iltain ratoksi","authors":[{"name":"Korhonen, Heikki","birth_year":1884,"death_year":1957}],"translators":[],"subjects":["Finnish literature","Finnish wit and humor"],"bookshelves":[],"languages":["fi"],"copyright":false,"media_type":"Text","formats":{"text/html":"https://www.gutenberg.org/ebooks/70931.html.images","application/epub+zip":"https://www.gutenberg.org/ebooks/70931.epub3.images","application/x-mobipocket-ebook":"https://www.gutenberg.org/ebooks/70931.kf8.images","text/plain; charset=us-ascii":"https://www.gutenberg.org/ebooks/70931.txt.utf-8","application/rdf+xml":"https://www.gutenberg.org/ebooks/70931.rdf","image/jpeg":"https://www.gutenberg.org/cache/epub/70931/pg70931.cover.medium.jpg","application/octet-stream":"https://www.gutenberg.org/files/70931/70931-0.zip"},"download_count":16},{"id":71216,"title":"Harhateillä","authors":[{"name":"Gerstäcker, Friedrich","birth_year":1816,"death_year":1872}],"translators":[{"name":"Anttila, Selma","birth_year":1867,"death_year":1942}],"subjects":["German fiction -- Translations into Finnish","Humorous stories"],"bookshelves":[],"languages":["fi"],"copyright":false,"media_type":"Text","formats":{"text/html":"https://www.gutenberg.org/ebooks/71216.html.images","application/epub+zip":"https://www.gutenberg.org/ebooks/71216.epub3.images","application/x-mobipocket-ebook":"https://www.gutenberg.org/ebooks/71216.kf8.images","text/plain; charset=us-ascii":"https://www.gutenberg.org/ebooks/71216.txt.utf-8","application/rdf+xml":"https://www.gutenberg.org/ebooks/71216.rdf","image/jpeg":"https://www.gutenberg.org/cache/epub/71216/pg71216.cover.medium.jpg","application/octet-stream":"https://www.gutenberg.org/files/71216/71216-0.zip"},"download_count":16},{"id":71310,"title":"Nuoren naisen kohtalo","authors":[{"name":"Fontane, Theodor","birth_year":1819,"death_year":1898}],"translators":[{"name":"Hollo, J. A. (Juho Aukusti)","birth_year":1885,"death_year":1967}],"subjects":["Adultery -- Fiction","Berlin (Germany) -- Social life and customs -- 19th century -- Fiction","Didactic fiction","National characteristics, Prussian -- Fiction","Prussia (Germany) -- Social life and customs -- 19th century -- Fiction","Teenage girls -- Fiction"],"bookshelves":[],"languages":["fi"],"copyright":false,"media_type":"Text","formats":{"text/html":"https://www.gutenberg.org/ebooks/71310.html.images","application/epub+zip":"https://www.gutenberg.org/ebooks/71310.epub3.images","application/x-mobipocket-ebook":"https://www.gutenberg.org/ebooks/71310.kf8.images","text/plain; charset=us-ascii":"https://www.gutenberg.org/ebooks/71310.txt.utf-8","application/rdf+xml":"https://www.gutenberg.org/ebooks/71310.rdf","image/jpeg":"https://www.gutenberg.org/cache/epub/71310/pg71310.cover.medium.jpg","application/octet-stream":"https://www.gutenberg.org/files/71310/71310-0.zip"},"download_count":16},{"id":71520,"title":"Veikaten vihille : $b Romaani","authors":[{"name":"Terhi, Kaarlo","birth_year":1872,"death_year":1921}],"translators":[],"subjects":["Finnish fiction -- 20th century"],"bookshelves":[],"languages":["fi"],"copyright":false,"media_type":"Text","formats":{"text/html":"https://www.gutenberg.org/ebooks/71520.html.images","application/epub+zip":"https://www.gutenberg.org/ebooks/71520.epub3.images","application/x-mobipocket-ebook":"https://www.gutenberg.org/ebooks/71520.kf8.images","text/plain; charset=us-ascii":"https://www.gutenberg.org/ebooks/71520.txt.utf-8","application/rdf+xml":"https://www.gutenberg.org/ebooks/71520.rdf","image/jpeg":"https://www.gutenberg.org/cache/epub/71520/pg71520.cover.medium.jpg","application/octet-stream":"https://www.gutenberg.org/cache/epub/71520/pg71520-h.zip"},"download_count":16},{"id":71524,"title":"Kaunis Saksa : $b Sarja saksalaista lyriikkaa","authors":[],"translators":[{"name":"Kailas, Uuno","birth_year":1901,"death_year":1933}],"subjects":["German poetry -- Translations into Finnish"],"bookshelves":[],"languages":["fi"],"copyright":false,"media_type":"Text","formats":{"text/html":"https://www.gutenberg.org/ebooks/71524.html.images","application/epub+zip":"https://www.gutenberg.org/ebooks/71524.epub3.images","application/x-mobipocket-ebook":"https://www.gutenberg.org/ebooks/71524.kf8.images","text/plain; charset=us-ascii":"https://www.gutenberg.org/ebooks/71524.txt.utf-8","application/rdf+xml":"https://www.gutenberg.org/ebooks/71524.rdf","image/jpeg":"https://www.gutenberg.org/cache/epub/71524/pg71524.cover.medium.jpg","application/octet-stream":"https://www.gutenberg.org/cache/epub/71524/pg71524-h.zip"},"download_count":16},{"id":71534,"title":"Vastarannalla","authors":[{"name":"Kaste, Anni","birth_year":1876,"death_year":1961}],"translators":[],"subjects":["Finnish fiction -- 20th century","Short stories, Finnish"],"bookshelves":[],"languages":["fi"],"copyright":false,"media_type":"Text","formats":{"text/html":"https://www.gutenberg.org/ebooks/71534.html.images","application/epub+zip":"https://www.gutenberg.org/ebooks/71534.epub3.images","application/x-mobipocket-ebook":"https://www.gutenberg.org/ebooks/71534.kf8.images","text/plain; charset=us-ascii":"https://www.gutenberg.org/ebooks/71534.txt.utf-8","application/rdf+xml":"https://www.gutenberg.org/ebooks/71534.rdf","image/jpeg":"https://www.gutenberg.org/cache/epub/71534/pg71534.cover.medium.jpg","application/octet-stream":"https://www.gutenberg.org/cache/epub/71534/pg71534-h.zip"},"download_count":16},{"id":71560,"title":"Luvattu maa : $b Romaani","authors":[{"name":"Prydz, Alvilde","birth_year":1848,"death_year":1922}],"translators":[{"name":"Walldén, Hilja","birth_year":1871,"death_year":1929}],"subjects":["Norway -- Fiction"],"bookshelves":[],"languages":["fi"],"copyright":false,"media_type":"Text","formats":{"text/html":"https://www.gutenberg.org/ebooks/71560.html.images","application/epub+zip":"https://www.gutenberg.org/ebooks/71560.epub3.images","application/x-mobipocket-ebook":"https://www.gutenberg.org/ebooks/71560.kf8.images","text/plain; charset=us-ascii":"https://www.gutenberg.org/ebooks/71560.txt.utf-8","application/rdf+xml":"https://www.gutenberg.org/ebooks/71560.rdf","image/jpeg":"https://www.gutenberg.org/cache/epub/71560/pg71560.cover.medium.jpg","application/octet-stream":"https://www.gutenberg.org/cache/epub/71560/pg71560-h.zip"},"download_count":16},{"id":8451,"title":"Aarniometsän sydän","authors":[{"name":"Roberts, Charles G. D., Sir","birth_year":1860,"death_year":1943}],"translators":[{"name":"Inha, Into Konrad","birth_year":1865,"death_year":1930}],"subjects":["Mothers and daughters -- Fiction","New Brunswick -- Fiction"],"bookshelves":[],"languages":["fi"],"copyright":false,"media_type":"Text","formats":{"text/html":"https://www.gutenberg.org/ebooks/8451.html.images","application/epub+zip":"https://www.gutenberg.org/ebooks/8451.epub3.images","application/x-mobipocket-ebook":"https://www.gutenberg.org/ebooks/8451.kf8.images","text/plain; charset=us-ascii":"https://www.gutenberg.org/ebooks/8451.txt.utf-8","application/rdf+xml":"https://www.gutenberg.org/ebooks/8451.rdf","image/jpeg":"https://www.gutenberg.org/cache/epub/8451/pg8451.cover.medium.jpg","application/octet-stream":"https://www.gutenberg.org/files/8451/8451.zip"},"download_count":15},{"id":10265,"title":"Anssin Jukka ja Härmän Häät","authors":[],"translators":[],"subjects":["Folk songs, Finnish"],"bookshelves":[],"languages":["fi"],"copyright":false,"media_type":"Sound","formats":{"text/plain; charset=us-ascii":"https://www.gutenberg.org/files/10265/10265-m/10265-m-readme.txt","audio/mpeg":"https://www.gutenberg.org/files/10265/10265-m/10265-m-001.mp3","application/rdf+xml":"https://www.gutenberg.org/ebooks/10265.rdf"},"download_count":15},{"id":11916,"title":"Rakkautta","authors":[{"name":"Lassila, Maiju","birth_year":1868,"death_year":1918}],"translators":[],"subjects":["Finnish fiction -- 20th century"],"bookshelves":[],"languages":["fi"],"copyright":false,"media_type":"Text","formats":{"text/html":"https://www.gutenberg.org/ebooks/11916.html.images","application/epub+zip":"https://www.gutenberg.org/ebooks/11916.epub3.images","application/x-mobipocket-ebook":"https://www.gutenberg.org/ebooks/11916.kf8.images","text/plain; charset=us-ascii":"https://www.gutenberg.org/ebooks/11916.txt.utf-8","text/plain; charset=iso-8859-1":"https://www.gutenberg.org/files/11916/11916-8.txt","application/rdf+xml":"https://www.gutenberg.org/ebooks/11916.rdf","image/jpeg":"https://www.gutenberg.org/cache/epub/11916/pg11916.cover.medium.jpg","application/octet-stream":"https://www.gutenberg.org/cache/epub/11916/pg11916-h.zip"},"download_count":15},{"id":12547,"title":"Jumalainen näytelmä: Paratiisi","authors":[{"name":"Dante Alighieri","birth_year":1265,"death_year":1321}],"translators":[{"name":"Leino, Eino","birth_year":1878,"death_year":1926}],"subjects":["Poetry"],"bookshelves":[],"languages":["fi"],"copyright":false,"media_type":"Text","formats":{"text/html":"https://www.gutenberg.org/ebooks/12547.html.images","application/epub+zip":"https://www.gutenberg.org/ebooks/12547.epub3.images","application/x-mobipocket-ebook":"https://www.gutenberg.org/ebooks/12547.kf8.images","text/plain; charset=us-ascii":"https://www.gutenberg.org/ebooks/12547.txt.utf-8","text/plain; charset=iso-8859-1":"https://www.gutenberg.org/files/12547/12547-8.txt","application/rdf+xml":"https://www.gutenberg.org/ebooks/12547.rdf","image/jpeg":"https://www.gutenberg.org/cache/epub/12547/pg12547.cover.medium.jpg","application/octet-stream":"https://www.gutenberg.org/cache/epub/12547/pg12547-h.zip"},"download_count":15},{"id":14351,"title":"Maaliskuun lauluja; Tarina suuresta tammesta; Yökehrääjä","authors":[{"name":"Leino, Eino","birth_year":1878,"death_year":1926}],"translators":[],"subjects":["Finnish poetry"],"bookshelves":[],"languages":["fi"],"copyright":false,"media_type":"Text","formats":{"text/html":"https://www.gutenberg.org/ebooks/14351.html.images","application/epub+zip":"https://www.gutenberg.org/ebooks/14351.epub3.images","application/x-mobipocket-ebook":"https://www.gutenberg.org/ebooks/14351.kf8.images","text/plain; charset=us-ascii":"https://www.gutenberg.org/ebooks/14351.txt.utf-8","text/plain; charset=iso-8859-1":"https://www.gutenberg.org/files/14351/14351-8.txt","application/rdf+xml":"https://www.gutenberg.org/ebooks/14351.rdf","image/jpeg":"https://www.gutenberg.org/cache/epub/14351/pg14351.cover.medium.jpg","application/octet-stream":"https://www.gutenberg.org/cache/epub/14351/pg14351-h.zip"},"download_count":15},{"id":14775,"title":"Elämän hawainnoita 03: Suku=ylpeys; Tahdon woima","authors":[{"name":"Päivärinta, Pietari","birth_year":1827,"death_year":1913}],"translators":[],"subjects":["Finnish fiction"],"bookshelves":[],"languages":["fi"],"copyright":false,"media_type":"Text","formats":{"text/html":"https://www.gutenberg.org/ebooks/14775.html.images","application/epub+zip":"https://www.gutenberg.org/ebooks/14775.epub3.images","application/x-mobipocket-ebook":"https://www.gutenberg.org/ebooks/14775.kf8.images","text/plain; charset=us-ascii":"https://www.gutenberg.org/ebooks/14775.txt.utf-8","text/plain; charset=iso-8859-1":"https://www.gutenberg.org/files/14775/14775-8.txt","application/rdf+xml":"https://www.gutenberg.org/ebooks/14775.rdf","image/jpeg":"https://www.gutenberg.org/cache/epub/14775/pg14775.cover.medium.jpg","application/octet-stream":"https://www.gutenberg.org/cache/epub/14775/pg14775-h.zip"},"download_count":15},{"id":14802,"title":"Huutolaiset","authors":[{"name":"Hahnsson, Theodolinda","birth_year":1838,"death_year":1919}],"translators":[],"subjects":["Fiction"],"bookshelves":[],"languages":["fi"],"copyright":false,"media_type":"Text","formats":{"text/html":"https://www.gutenberg.org/ebooks/14802.html.images","application/epub+zip":"https://www.gutenberg.org/ebooks/14802.epub3.images","application/x-mobipocket-ebook":"https://www.gutenberg.org/ebooks/14802.kf8.images","text/plain; charset=us-ascii":"https://www.gutenberg.org/ebooks/14802.txt.utf-8","text/plain; charset=iso-8859-1":"https://www.gutenberg.org/files/14802/14802-8.txt","application/rdf+xml":"https://www.gutenberg.org/ebooks/14802.rdf","image/jpeg":"https://www.gutenberg.org/cache/epub/14802/pg14802.cover.medium.jpg","application/octet-stream":"https://www.gutenberg.org/cache/epub/14802/pg14802-h.zip"},"download_count":15},{"id":15217,"title":"Sillankorvan emäntä: Nelinäytöksinen näytelmä - Tapaus länsisuomalaisessa talonpoikaissuvussa 1860-1870-luvulla","authors":[{"name":"Kilpi, Hilja","birth_year":1844,"death_year":1927}],"translators":[],"subjects":["Drama"],"bookshelves":[],"languages":["fi"],"copyright":false,"media_type":"Text","formats":{"text/html":"https://www.gutenberg.org/ebooks/15217.html.images","application/epub+zip":"https://www.gutenberg.org/ebooks/15217.epub3.images","application/x-mobipocket-ebook":"https://www.gutenberg.org/ebooks/15217.kf8.images","text/plain; charset=us-ascii":"https://www.gutenberg.org/ebooks/15217.txt.utf-8","text/plain; charset=iso-8859-1":"https://www.gutenberg.org/files/15217/15217-8.txt","application/rdf+xml":"https://www.gutenberg.org/ebooks/15217.rdf","image/jpeg":"https://www.gutenberg.org/cache/epub/15217/pg15217.cover.medium.jpg","application/octet-stream":"https://www.gutenberg.org/cache/epub/15217/pg15217-h.zip"},"download_count":15},{"id":15264,"title":"Totta ja leikkiä","authors":[{"name":"Malmberg, Aino","birth_year":1865,"death_year":1933}],"translators":[],"subjects":["Fiction","Short stories"],"bookshelves":[],"languages":["fi"],"copyright":false,"media_type":"Text","formats":{"text/html":"https://www.gutenberg.org/ebooks/15264.html.images","application/epub+zip":"https://www.gutenberg.org/ebooks/15264.epub3.images","application/x-mobipocket-ebook":"https://www.gutenberg.org/ebooks/15264.kf8.images","text/plain; charset=us-ascii":"https://www.gutenberg.org/ebooks/15264.txt.utf-8","text/plain; charset=iso-8859-1":"https://www.gutenberg.org/files/15264/15264-8.txt","application/rdf+xml":"https://www.gutenberg.org/ebooks/15264.rdf","image/jpeg":"https://www.gutenberg.org/cache/epub/15264/pg15264.cover.medium.jpg","application/octet-stream":"https://www.gutenberg.org/cache/epub/15264/pg15264-h.zip"},"download_count":15},{"id":16120,"title":"Kertoelmia ja kuvauksia","authors":[{"name":"Reijonen, Juho Heikki","birth_year":1855,"death_year":1924}],"translators":[],"subjects":["Finnish fiction","Short stories, Finnish"],"bookshelves":[],"languages":["fi"],"copyright":false,"media_type":"Text","formats":{"text/html":"https://www.gutenberg.org/ebooks/16120.html.images","application/epub+zip":"https://www.gutenberg.org/ebooks/16120.epub3.images","application/x-mobipocket-ebook":"https://www.gutenberg.org/ebooks/16120.kf8.images","text/plain; charset=us-ascii":"https://www.gutenberg.org/ebooks/16120.txt.utf-8","text/plain; charset=iso-8859-1":"https://www.gutenberg.org/files/16120/16120-8.txt","application/rdf+xml":"https://www.gutenberg.org/ebooks/16120.rdf","image/jpeg":"https://www.gutenberg.org/cache/epub/16120/pg16120.cover.medium.jpg","application/octet-stream":"https://www.gutenberg.org/cache/epub/16120/pg16120-h.zip"},"download_count":15},{"id":16754,"title":"Kuusten juurella: Romaani","authors":[{"name":"Meriläinen, Heikki","birth_year":1847,"death_year":1939}],"translators":[],"subjects":["Fiction"],"bookshelves":[],"languages":["fi"],"copyright":false,"media_type":"Text","formats":{"text/html":"https://www.gutenberg.org/ebooks/16754.html.images","application/epub+zip":"https://www.gutenberg.org/ebooks/16754.epub3.images","application/x-mobipocket-ebook":"https://www.gutenberg.org/ebooks/16754.kf8.images","text/plain; charset=us-ascii":"https://www.gutenberg.org/ebooks/16754.txt.utf-8","text/plain; charset=iso-8859-1":"https://www.gutenberg.org/files/16754/16754-8.txt","application/rdf+xml":"https://www.gutenberg.org/ebooks/16754.rdf","image/jpeg":"https://www.gutenberg.org/cache/epub/16754/pg16754.cover.medium.jpg","application/octet-stream":"https://www.gutenberg.org/cache/epub/16754/pg16754-h.zip"},"download_count":15},{"id":20089,"title":"Kootut teokset 3: Näytelmät","authors":[{"name":"Erkko, J. H.","birth_year":1849,"death_year":1906}],"translators":[],"subjects":["Finnish drama"],"bookshelves":[],"languages":["fi"],"copyright":false,"media_type":"Text","formats":{"text/html":"https://www.gutenberg.org/ebooks/20089.html.images","application/epub+zip":"https://www.gutenberg.org/ebooks/20089.epub3.images","application/x-mobipocket-ebook":"https://www.gutenberg.org/ebooks/20089.kf8.images","text/plain; charset=us-ascii":"https://www.gutenberg.org/ebooks/20089.txt.utf-8","text/plain; charset=iso-8859-1":"https://www.gutenberg.org/files/20089/20089-8.txt","application/rdf+xml":"https://www.gutenberg.org/ebooks/20089.rdf","image/jpeg":"https://www.gutenberg.org/cache/epub/20089/pg20089.cover.medium.jpg","application/octet-stream":"https://www.gutenberg.org/cache/epub/20089/pg20089-h.zip"},"download_count":15},{"id":21207,"title":"Syyslehtiä","authors":[{"name":"Päivärinta, Pietari","birth_year":1827,"death_year":1913}],"translators":[],"subjects":["Fiction","Short stories"],"bookshelves":[],"languages":["fi"],"copyright":false,"media_type":"Text","formats":{"text/html":"https://www.gutenberg.org/ebooks/21207.html.images","application/epub+zip":"https://www.gutenberg.org/ebooks/21207.epub3.images","application/x-mobipocket-ebook":"https://www.gutenberg.org/ebooks/21207.kf8.images","text/plain; charset=us-ascii":"https://www.gutenberg.org/ebooks/21207.txt.utf-8","text/plain; charset=iso-8859-1":"https://www.gutenberg.org/files/21207/21207-8.txt","application/rdf+xml":"https://www.gutenberg.org/ebooks/21207.rdf","image/jpeg":"https://www.gutenberg.org/cache/epub/21207/pg21207.cover.medium.jpg","application/octet-stream":"https://www.gutenberg.org/cache/epub/21207/pg21207-h.zip"},"download_count":15},{"id":22923,"title":"Pieni helmivyö: Suomen runoja koulunuorisolle","authors":[],"translators":[],"subjects":["Finnish poetry"],"bookshelves":[],"languages":["fi"],"copyright":false,"media_type":"Text","formats":{"text/html":"https://www.gutenberg.org/ebooks/22923.html.images","application/epub+zip":"https://www.gutenberg.org/ebooks/22923.epub3.images","application/x-mobipocket-ebook":"https://www.gutenberg.org/ebooks/22923.kf8.images","text/plain; charset=us-ascii":"https://www.gutenberg.org/ebooks/22923.txt.utf-8","text/plain; charset=iso-8859-1":"https://www.gutenberg.org/files/22923/22923-8.txt","application/rdf+xml":"https://www.gutenberg.org/ebooks/22923.rdf","image/jpeg":"https://www.gutenberg.org/cache/epub/22923/pg22923.cover.medium.jpg","application/octet-stream":"https://www.gutenberg.org/cache/epub/22923/pg22923-h.zip"},"download_count":15},{"id":23342,"title":"Sisar Rosa","authors":[{"name":"Collins, Wilkie","birth_year":1824,"death_year":1889}],"translators":[{"name":"Salonen, B. F.","birth_year":1849,"death_year":1881}],"subjects":["Fiction"],"bookshelves":[],"languages":["fi"],"copyright":false,"media_type":"Text","formats":{"text/html":"https://www.gutenberg.org/ebooks/23342.html.images","application/epub+zip":"https://www.gutenberg.org/ebooks/23342.epub3.images","application/x-mobipocket-ebook":"https://www.gutenberg.org/ebooks/23342.kf8.images","text/plain; charset=us-ascii":"https://www.gutenberg.org/ebooks/23342.txt.utf-8","text/plain; charset=iso-8859-1":"https://www.gutenberg.org/files/23342/23342-8.txt","application/rdf+xml":"https://www.gutenberg.org/ebooks/23342.rdf","image/jpeg":"https://www.gutenberg.org/cache/epub/23342/pg23342.cover.medium.jpg","application/octet-stream":"https://www.gutenberg.org/cache/epub/23342/pg23342-h.zip"},"download_count":15},{"id":26555,"title":"Sepitelmiä: Runon-kokeita","authors":[{"name":"Wuorinen, Olli","birth_year":1842,"death_year":1917}],"translators":[],"subjects":["Finnish poetry"],"bookshelves":[],"languages":["fi"],"copyright":false,"media_type":"Text","formats":{"text/html":"https://www.gutenberg.org/ebooks/26555.html.images","application/epub+zip":"https://www.gutenberg.org/ebooks/26555.epub3.images","application/x-mobipocket-ebook":"https://www.gutenberg.org/ebooks/26555.kf8.images","text/plain; charset=us-ascii":"https://www.gutenberg.org/ebooks/26555.txt.utf-8","text/plain; charset=iso-8859-1":"https://www.gutenberg.org/files/26555/26555-8.txt","application/rdf+xml":"https://www.gutenberg.org/ebooks/26555.rdf","image/jpeg":"https://www.gutenberg.org/cache/epub/26555/pg26555.cover.medium.jpg","application/octet-stream":"https://www.gutenberg.org/cache/epub/26555/pg26555-h.zip"},"download_count":15},{"id":29708,"title":"Runoelmia","authors":[{"name":"Mäkinen, Antti","birth_year":1857,"death_year":1936}],"translators":[],"subjects":["Poetry"],"bookshelves":[],"languages":["fi"],"copyright":false,"media_type":"Text","formats":{"text/html":"https://www.gutenberg.org/ebooks/29708.html.images","application/epub+zip":"https://www.gutenberg.org/ebooks/29708.epub3.images","application/x-mobipocket-ebook":"https://www.gutenberg.org/ebooks/29708.kf8.images","text/plain; charset=us-ascii":"https://www.gutenberg.org/ebooks/29708.txt.utf-8","text/plain; charset=iso-8859-1":"https://www.gutenberg.org/files/29708/29708-8.txt","application/rdf+xml":"https://www.gutenberg.org/ebooks/29708.rdf","image/jpeg":"https://www.gutenberg.org/cache/epub/29708/pg29708.cover.medium.jpg","application/octet-stream":"https://www.gutenberg.org/cache/epub/29708/pg29708-h.zip"},"download_count":15},{"id":31460,"title":"Oma tupa, oma lupa","authors":[{"name":"Pärn, J.","birth_year":1843,"death_year":1916}],"translators":[{"name":"Joutsen, Aino","birth_year":null,"death_year":null}],"subjects":["Estonian fiction -- Translations into Finnish"],"bookshelves":[],"languages":["fi"],"copyright":false,"media_type":"Text","formats":{"text/html":"https://www.gutenberg.org/ebooks/31460.html.images","application/epub+zip":"https://www.gutenberg.org/ebooks/31460.epub3.images","application/x-mobipocket-ebook":"https://www.gutenberg.org/ebooks/31460.kf8.images","text/plain; charset=us-ascii":"https://www.gutenberg.org/ebooks/31460.txt.utf-8","text/plain; charset=iso-8859-1":"https://www.gutenberg.org/files/31460/31460-8.txt","application/rdf+xml":"https://www.gutenberg.org/ebooks/31460.rdf","image/jpeg":"https://www.gutenberg.org/cache/epub/31460/pg31460.cover.medium.jpg","application/octet-stream":"https://www.gutenberg.org/cache/epub/31460/pg31460-h.zip"},"download_count":15}]}