{"count":2834,"next":"http://129.241.150.113:8000/books/?languages=fi&page=84","previous":"http://129.241.150.113:8000/books/?languages=fi&page=82","results":[{"id":59973,"title":"Kertoelmia","authors":[{"name":"Haahti, Hilja","birth_year":1874,"death_year":1966}],"translators":[],"subjects":["Finnish fiction -- 20th century","Short stories, Finnish"],"bookshelves":[],"languages":["fi"],"copyright":false,"media_type":"Text","formats":{"text/html":"https://www.gutenberg.org/ebooks/59973.html.images","application/epub+zip":"https://www.gutenberg.org/ebooks/59973.epub3.images","application/x-mobipocket-ebook":"https://www.gutenberg.org/ebooks/59973.kf8.images","text/plain; charset=us-ascii":"https://www.gutenberg.org/ebooks/59973.txt.utf-8","text/plain; charset=iso-8859-1":"https://www.gutenberg.org/files/59973/59973-8.txt","application/rdf+xml":"https://www.gutenberg.org/ebooks/59973.rdf","image/jpeg":"https://www.gutenberg.org/cache/epub/59973/pg59973.cover.medium.jpg","application/octet-stream":"https://www.gutenberg.org/cache/epub/59973/pg59973-h.zip"},"download_count":14},{"id":60266,"title":"Kesätoverit: Meren säveliä","authors":[{"name":"Haahti, Hilja","birth_year":1874,"death_year":1966}],"translators":[],"subjects":["Finnish fiction -- 20th century","Historical fiction"],"bookshelves":[],"languages":["fi"],"copyright":false,"media_type":"Text","formats":{"application/rdf+xml":"https://www.gutenberg.org/ebooks/60266.rdf","text/html":"https://www.gutenberg.org/ebooks/60266.html.images","application/epub+zip":"https://www.gutenberg.org/ebooks/60266.epub3.images","application/x-mobipocket-ebook":"https://www.gutenberg.org/ebooks/60266.kf8.images","text/plain; charset=us-ascii":"https://www.gutenberg.org/ebooks/60266.txt.utf-8","text/plain; charset=iso-8859-1":"https://www.gutenberg.org/files/60266/60266-8.txt","image/jpeg":"https://www.gutenberg.org/cache/epub/60266/pg60266.cover.medium.jpg","application/octet-stream":"https://www.gutenberg.org/cache/epub/60266/pg60266-h.zip"},"download_count":14},{"id":60714,"title":"Pappiparka","authors":[{"name":"Juuti, Kustaa","birth_year":1855,"death_year":1911}],"translators":[],"subjects":["Finnish fiction -- 19th century"],"bookshelves":[],"languages":["fi"],"copyright":false,"media_type":"Text","formats":{"text/html":"https://www.gutenberg.org/ebooks/60714.html.images","application/epub+zip":"https://www.gutenberg.org/ebooks/60714.epub3.images","application/x-mobipocket-ebook":"https://www.gutenberg.org/ebooks/60714.kf8.images","text/plain; charset=us-ascii":"https://www.gutenberg.org/ebooks/60714.txt.utf-8","text/plain; charset=iso-8859-1":"https://www.gutenberg.org/files/60714/60714-8.txt","application/rdf+xml":"https://www.gutenberg.org/ebooks/60714.rdf","image/jpeg":"https://www.gutenberg.org/cache/epub/60714/pg60714.cover.medium.jpg","application/octet-stream":"https://www.gutenberg.org/cache/epub/60714/pg60714-h.zip"},"download_count":14},{"id":61650,"title":"Lehtiviidan torppari: Nykyajan kuvaus","authors":[{"name":"Järvinen, Eero","birth_year":1860,"death_year":1920}],"translators":[],"subjects":["Finnish fiction -- 19th century"],"bookshelves":[],"languages":["fi"],"copyright":false,"media_type":"Text","formats":{"text/html":"https://www.gutenberg.org/ebooks/61650.html.images","application/epub+zip":"https://www.gutenberg.org/ebooks/61650.epub3.images","application/x-mobipocket-ebook":"https://www.gutenberg.org/ebooks/61650.kf8.images","text/plain; charset=us-ascii":"https://www.gutenberg.org/ebooks/61650.txt.utf-8","text/plain; charset=iso-8859-1":"https://www.gutenberg.org/files/61650/61650-8.txt","application/rdf+xml":"https://www.gutenberg.org/ebooks/61650.rdf","image/jpeg":"https://www.gutenberg.org/cache/epub/61650/pg61650.cover.medium.jpg","application/octet-stream":"https://www.gutenberg.org/cache/epub/61650/pg61650-h.zip"},"download_count":14},{"id":61748,"title":"Karjalan kankahilta I: Kertoelmia","authors":[{"name":"Juuti, Kustaa","birth_year":1855,"death_year":1911}],"translators":[],"subjects":["Finnish fiction -- 19th century","Short stories, Finnish"],"bookshelves":[],"languages":["fi"],"copyright":false,"media_type":"Text","formats":{"text/html":"https://www.gutenberg.org/ebooks/61748.html.images","application/epub+zip":"https://www.gutenberg.org/ebooks/61748.epub3.images","application/x-mobipocket-ebook":"https://www.gutenberg.org/ebooks/61748.kf8.images","text/plain; charset=us-ascii":"https://www.gutenberg.org/ebooks/61748.txt.utf-8","text/plain; charset=iso-8859-1":"https://www.gutenberg.org/files/61748/61748-8.txt","application/rdf+xml":"https://www.gutenberg.org/ebooks/61748.rdf","image/jpeg":"https://www.gutenberg.org/cache/epub/61748/pg61748.cover.medium.jpg","application/octet-stream":"https://www.gutenberg.org/cache/epub/61748/pg61748-h.zip"},"download_count":14},{"id":62433,"title":"Aaro","authors":[{"name":"Soini, Lauri","birth_year":1875,"death_year":1919}],"translators":[],"subjects":["Finnish fiction -- 19th century"],"bookshelves":[],"languages":["fi"],"copyright":false,"media_type":"Text","formats":{"text/html":"https://www.gutenberg.org/ebooks/62433.html.images","application/epub+zip":"https://www.gutenberg.org/ebooks/62433.epub3.images","application/x-mobipocket-ebook":"https://www.gutenberg.org/ebooks/62433.kf8.images","text/plain; charset=us-ascii":"https://www.gutenberg.org/ebooks/62433.txt.utf-8","text/plain; charset=iso-8859-1":"https://www.gutenberg.org/files/62433/62433-8.txt","application/rdf+xml":"https://www.gutenberg.org/ebooks/62433.rdf","image/jpeg":"https://www.gutenberg.org/cache/epub/62433/pg62433.cover.medium.jpg","application/octet-stream":"https://www.gutenberg.org/cache/epub/62433/pg62433-h.zip"},"download_count":14},{"id":65217,"title":"Marie-Claire: Romaani","authors":[{"name":"Audoux, Marguerite","birth_year":1863,"death_year":1937}],"translators":[{"name":"Hämeen-Anttila, Väinö","birth_year":1878,"death_year":1942}],"subjects":["French fiction -- Translations into Finnish"],"bookshelves":[],"languages":["fi"],"copyright":false,"media_type":"Text","formats":{"text/html":"https://www.gutenberg.org/ebooks/65217.html.images","application/epub+zip":"https://www.gutenberg.org/ebooks/65217.epub3.images","application/x-mobipocket-ebook":"https://www.gutenberg.org/ebooks/65217.kf8.images","text/plain; charset=us-ascii":"https://www.gutenberg.org/ebooks/65217.txt.utf-8","text/plain; charset=utf-8":"https://www.gutenberg.org/files/65217/65217-0.txt","application/rdf+xml":"https://www.gutenberg.org/ebooks/65217.rdf","image/jpeg":"https://www.gutenberg.org/cache/epub/65217/pg65217.cover.medium.jpg","application/octet-stream":"https://www.gutenberg.org/cache/epub/65217/pg65217-h.zip"},"download_count":14},{"id":65879,"title":"Hilligenlei (Pyhä maa)","authors":[{"name":"Frenssen, Gustav","birth_year":1863,"death_year":1945}],"translators":[{"name":"Kilpi, Volter","birth_year":1874,"death_year":1939}],"subjects":["German fiction -- Translations into Finnish"],"bookshelves":[],"languages":["fi"],"copyright":false,"media_type":"Text","formats":{"text/html":"https://www.gutenberg.org/ebooks/65879.html.images","application/epub+zip":"https://www.gutenberg.org/ebooks/65879.epub3.images","application/x-mobipocket-ebook":"https://www.gutenberg.org/ebooks/65879.kf8.images","text/plain; charset=us-ascii":"https://www.gutenberg.org/ebooks/65879.txt.utf-8","text/plain; charset=utf-8":"https://www.gutenberg.org/files/65879/65879-0.txt","application/rdf+xml":"https://www.gutenberg.org/ebooks/65879.rdf","image/jpeg":"https://www.gutenberg.org/cache/epub/65879/pg65879.cover.medium.jpg","application/octet-stream":"https://www.gutenberg.org/cache/epub/65879/pg65879-h.zip"},"download_count":14},{"id":65963,"title":"Karjalan Osman nuoruus: Historiallinen kertomus yhdeksänneltä vuosisadalta","authors":[{"name":"Huntuvuori, Hilda","birth_year":1887,"death_year":1968}],"translators":[],"subjects":["Finnish fiction -- 20th century","Historical fiction"],"bookshelves":[],"languages":["fi"],"copyright":false,"media_type":"Text","formats":{"text/html":"https://www.gutenberg.org/ebooks/65963.html.images","application/epub+zip":"https://www.gutenberg.org/ebooks/65963.epub3.images","application/x-mobipocket-ebook":"https://www.gutenberg.org/ebooks/65963.kf8.images","text/plain; charset=us-ascii":"https://www.gutenberg.org/ebooks/65963.txt.utf-8","text/plain; charset=utf-8":"https://www.gutenberg.org/files/65963/65963-0.txt","application/rdf+xml":"https://www.gutenberg.org/ebooks/65963.rdf","image/jpeg":"https://www.gutenberg.org/cache/epub/65963/pg65963.cover.medium.jpg","application/octet-stream":"https://www.gutenberg.org/cache/epub/65963/pg65963-h.zip"},"download_count":14},{"id":66967,"title":"Kadonnut mies","authors":[{"name":"Fletcher, J. S. (Joseph Smith)","birth_year":1863,"death_year":1935}],"translators":[{"name":"Kupiainen, Alpo","birth_year":1888,"death_year":1937}],"subjects":["Detective and mystery stories","Lawyers -- Fiction","London (England) -- Social life and customs -- 20th century -- Fiction","Murder -- Investigation -- Fiction"],"bookshelves":[],"languages":["fi"],"copyright":false,"media_type":"Text","formats":{"text/html":"https://www.gutenberg.org/ebooks/66967.html.images","application/epub+zip":"https://www.gutenberg.org/ebooks/66967.epub3.images","application/x-mobipocket-ebook":"https://www.gutenberg.org/ebooks/66967.kf8.images","text/plain; charset=us-ascii":"https://www.gutenberg.org/ebooks/66967.txt.utf-8","application/rdf+xml":"https://www.gutenberg.org/ebooks/66967.rdf","image/jpeg":"https://www.gutenberg.org/cache/epub/66967/pg66967.cover.medium.jpg","application/octet-stream":"https://www.gutenberg.org/files/66967/66967-0.zip"},"download_count":14},{"id":67763,"title":"Pormestarin vaimo: Romaani","authors":[{"name":"Ebers, Georg","birth_year":1837,"death_year":1898}],"translators":[{"name":"Walldén, Hilja","birth_year":1871,"death_year":1929}],"subjects":["German fiction -- Translations into Finnish","Netherlands -- History -- Eighty Years' War, 1568-1648 -- Fiction"],"bookshelves":[],"languages":["fi"],"copyright":false,"media_type":"Text","formats":{"text/html":"https://www.gutenberg.org/ebooks/67763.html.images","application/epub+zip":"https://www.gutenberg.org/ebooks/67763.epub3.images","application/x-mobipocket-ebook":"https://www.gutenberg.org/ebooks/67763.kf8.images","text/plain; charset=us-ascii":"https://www.gutenberg.org/ebooks/67763.txt.utf-8","application/rdf+xml":"https://www.gutenberg.org/ebooks/67763.rdf","image/jpeg":"https://www.gutenberg.org/cache/epub/67763/pg67763.cover.medium.jpg","application/octet-stream":"https://www.gutenberg.org/files/67763/67763-0.zip"},"download_count":14},{"id":68024,"title":"Crainquebille y.m. kertomuksia","authors":[{"name":"France, Anatole","birth_year":1844,"death_year":1924}],"translators":[{"name":"Manninen, Otto","birth_year":1872,"death_year":1950}],"subjects":["France -- Social life and customs -- Fiction","French fiction -- Translations into Finnish","Short stories, French -- Translations into Finnish"],"bookshelves":[],"languages":["fi"],"copyright":false,"media_type":"Text","formats":{"text/html":"https://www.gutenberg.org/ebooks/68024.html.images","application/epub+zip":"https://www.gutenberg.org/ebooks/68024.epub3.images","application/x-mobipocket-ebook":"https://www.gutenberg.org/ebooks/68024.kf8.images","text/plain; charset=us-ascii":"https://www.gutenberg.org/ebooks/68024.txt.utf-8","application/rdf+xml":"https://www.gutenberg.org/ebooks/68024.rdf","image/jpeg":"https://www.gutenberg.org/cache/epub/68024/pg68024.cover.medium.jpg","application/octet-stream":"https://www.gutenberg.org/files/68024/68024-0.zip"},"download_count":14},{"id":68200,"title":"Oottako kuullu: Sen tuhannen prätinöötä Pohjanmaalta","authors":[{"name":"Ikola, Jaakko","birth_year":1887,"death_year":1951}],"translators":[],"subjects":["Dialect literature, Finnish","Finnish fiction -- 20th century","Short stories, Finnish"],"bookshelves":[],"languages":["fi"],"copyright":false,"media_type":"Text","formats":{"text/html":"https://www.gutenberg.org/ebooks/68200.html.images","application/epub+zip":"https://www.gutenberg.org/ebooks/68200.epub3.images","application/x-mobipocket-ebook":"https://www.gutenberg.org/ebooks/68200.kf8.images","text/plain; charset=us-ascii":"https://www.gutenberg.org/ebooks/68200.txt.utf-8","application/rdf+xml":"https://www.gutenberg.org/ebooks/68200.rdf","image/jpeg":"https://www.gutenberg.org/cache/epub/68200/pg68200.cover.medium.jpg","application/octet-stream":"https://www.gutenberg.org/files/68200/68200-0.zip"},"download_count":14},{"id":68734,"title":"Graalin malja: Runoja","authors":[{"name":"Pohjanpää, Lauri Henrik","birth_year":1889,"death_year":1962}],"translators":[],"subjects":["Finnish poetry -- 20th century"],"bookshelves":[],"languages":["fi"],"copyright":false,"media_type":"Text","formats":{"text/html":"https://www.gutenberg.org/ebooks/68734.html.images","application/epub+zip":"https://www.gutenberg.org/ebooks/68734.epub3.images","application/x-mobipocket-ebook":"https://www.gutenberg.org/ebooks/68734.kf8.images","text/plain; charset=us-ascii":"https://www.gutenberg.org/ebooks/68734.txt.utf-8","application/rdf+xml":"https://www.gutenberg.org/ebooks/68734.rdf","image/jpeg":"https://www.gutenberg.org/cache/epub/68734/pg68734.cover.medium.jpg","application/octet-stream":"https://www.gutenberg.org/files/68734/68734-0.zip"},"download_count":14},{"id":69436,"title":"Granadan ruusu: Romaani","authors":[{"name":"Rameau, Jean","birth_year":1859,"death_year":1942}],"translators":[],"subjects":["French fiction -- Translations into Finnish"],"bookshelves":[],"languages":["fi"],"copyright":false,"media_type":"Text","formats":{"text/html":"https://www.gutenberg.org/ebooks/69436.html.images","application/epub+zip":"https://www.gutenberg.org/ebooks/69436.epub3.images","application/x-mobipocket-ebook":"https://www.gutenberg.org/ebooks/69436.kf8.images","text/plain; charset=us-ascii":"https://www.gutenberg.org/ebooks/69436.txt.utf-8","application/rdf+xml":"https://www.gutenberg.org/ebooks/69436.rdf","image/jpeg":"https://www.gutenberg.org/cache/epub/69436/pg69436.cover.medium.jpg","application/octet-stream":"https://www.gutenberg.org/files/69436/69436-0.zip"},"download_count":14},{"id":70141,"title":"Pikku Pietari","authors":[{"name":"France, Anatole","birth_year":1844,"death_year":1924}],"translators":[{"name":"Hollo, J. A. (Juho Aukusti)","birth_year":1885,"death_year":1967}],"subjects":["French fiction -- Translations into Finnish"],"bookshelves":[],"languages":["fi"],"copyright":false,"media_type":"Text","formats":{"text/html":"https://www.gutenberg.org/ebooks/70141.html.images","application/epub+zip":"https://www.gutenberg.org/ebooks/70141.epub3.images","application/x-mobipocket-ebook":"https://www.gutenberg.org/ebooks/70141.kf8.images","text/plain; charset=us-ascii":"https://www.gutenberg.org/ebooks/70141.txt.utf-8","application/rdf+xml":"https://www.gutenberg.org/ebooks/70141.rdf","image/jpeg":"https://www.gutenberg.org/cache/epub/70141/pg70141.cover.medium.jpg","application/octet-stream":"https://www.gutenberg.org/files/70141/70141-0.zip"},"download_count":14},{"id":70897,"title":"Avioliittoilmoitus : $b Pilakuvaus 2:ssa kohtauksessa","authors":[{"name":"Heisalo, Lauri","birth_year":1884,"death_year":1957}],"translators":[],"subjects":["Finnish drama -- 20th century"],"bookshelves":[],"languages":["fi"],"copyright":false,"media_type":"Text","formats":{"text/html":"https://www.gutenberg.org/ebooks/70897.html.images","application/epub+zip":"https://www.gutenberg.org/ebooks/70897.epub3.images","application/x-mobipocket-ebook":"https://www.gutenberg.org/ebooks/70897.kf8.images","text/plain; charset=us-ascii":"https://www.gutenberg.org/ebooks/70897.txt.utf-8","application/rdf+xml":"https://www.gutenberg.org/ebooks/70897.rdf","image/jpeg":"https://www.gutenberg.org/cache/epub/70897/pg70897.cover.medium.jpg","application/octet-stream":"https://www.gutenberg.org/files/70897/70897-0.zip"},"download_count":14},{"id":71083,"title":"Anna Hollmannin häviö : $b Kertomus","authors":[{"name":"Frenssen, Gustav","birth_year":1863,"death_year":1945}],"translators":[{"name":"Talvio, Maila","birth_year":1871,"death_year":1951}],"subjects":["German fiction -- Translations into Finnish"],"bookshelves":[],"languages":["fi"],"copyright":false,"media_type":"Text","formats":{"text/html":"https://www.gutenberg.org/ebooks/71083.html.images","application/epub+zip":"https://www.gutenberg.org/ebooks/71083.epub3.images","application/x-mobipocket-ebook":"https://www.gutenberg.org/ebooks/71083.kf8.images","text/plain; charset=us-ascii":"https://www.gutenberg.org/ebooks/71083.txt.utf-8","application/rdf+xml":"https://www.gutenberg.org/ebooks/71083.rdf","image/jpeg":"https://www.gutenberg.org/cache/epub/71083/pg71083.cover.medium.jpg","application/octet-stream":"https://www.gutenberg.org/files/71083/71083-0.zip"},"download_count":14},{"id":71189,"title":"Satuja ja tarinoita VIII","authors":[{"name":"Andersen, H. C. (Hans Christian)","birth_year":1805,"death_year":1875}],"translators":[{"name":"Talvio, Maila","birth_year":1871,"death_year":1951}],"subjects":["Fairy tales"],"bookshelves":[],"languages":["fi"],"copyright":false,"media_type":"Text","formats":{"text/html":"https://www.gutenberg.org/ebooks/71189.html.images","application/epub+zip":"https://www.gutenberg.org/ebooks/71189.epub3.images","application/x-mobipocket-ebook":"https://www.gutenberg.org/ebooks/71189.kf8.images","text/plain; charset=us-ascii":"https://www.gutenberg.org/ebooks/71189.txt.utf-8","application/rdf+xml":"https://www.gutenberg.org/ebooks/71189.rdf","image/jpeg":"https://www.gutenberg.org/cache/epub/71189/pg71189.cover.medium.jpg","application/octet-stream":"https://www.gutenberg.org/files/71189/71189-0.zip"},"download_count":14},{"id":71269,"title":"Kullan voima : $b Kertomus","authors":[{"name":"Doyle, Arthur Conan","birth_year":1859,"death_year":1930}],"translators":[],"subjects":["Alchemists -- Fiction","England -- Social life and customs -- 19th century -- Fiction","Fantasy fiction","Philanthropists -- Fiction","Wealth -- Fiction"],"bookshelves":[],"languages":["fi"],"copyright":false,"media_type":"Text","formats":{"text/html":"https://www.gutenberg.org/ebooks/71269.html.images","application/epub+zip":"https://www.gutenberg.org/ebooks/71269.epub3.images","application/x-mobipocket-ebook":"https://www.gutenberg.org/ebooks/71269.kf8.images","text/plain; charset=us-ascii":"https://www.gutenberg.org/ebooks/71269.txt.utf-8","application/rdf+xml":"https://www.gutenberg.org/ebooks/71269.rdf","image/jpeg":"https://www.gutenberg.org/cache/epub/71269/pg71269.cover.medium.jpg","application/octet-stream":"https://www.gutenberg.org/files/71269/71269-0.zip"},"download_count":14},{"id":71460,"title":"Kerkkiä : $b Kuvauksia ja pätkiä","authors":[{"name":"Saima","birth_year":1863,"death_year":1931}],"translators":[],"subjects":["Finnish fiction -- 19th century","Short stories, Finnish"],"bookshelves":[],"languages":["fi"],"copyright":false,"media_type":"Text","formats":{"text/html":"https://www.gutenberg.org/ebooks/71460.html.images","application/epub+zip":"https://www.gutenberg.org/ebooks/71460.epub3.images","application/x-mobipocket-ebook":"https://www.gutenberg.org/ebooks/71460.kf8.images","text/plain; charset=us-ascii":"https://www.gutenberg.org/ebooks/71460.txt.utf-8","application/rdf+xml":"https://www.gutenberg.org/ebooks/71460.rdf","image/jpeg":"https://www.gutenberg.org/cache/epub/71460/pg71460.cover.medium.jpg","application/octet-stream":"https://www.gutenberg.org/cache/epub/71460/pg71460-h.zip"},"download_count":14},{"id":71657,"title":"Kansan hyväksi","authors":[{"name":"Krohn, Helmi","birth_year":1871,"death_year":1967}],"translators":[],"subjects":["Finnish fiction -- 20th century"],"bookshelves":[],"languages":["fi"],"copyright":false,"media_type":"Text","formats":{"text/html":"https://www.gutenberg.org/ebooks/71657.html.images","application/epub+zip":"https://www.gutenberg.org/ebooks/71657.epub3.images","application/x-mobipocket-ebook":"https://www.gutenberg.org/ebooks/71657.kf8.images","text/plain; charset=us-ascii":"https://www.gutenberg.org/ebooks/71657.txt.utf-8","application/rdf+xml":"https://www.gutenberg.org/ebooks/71657.rdf","image/jpeg":"https://www.gutenberg.org/cache/epub/71657/pg71657.cover.medium.jpg","application/octet-stream":"https://www.gutenberg.org/cache/epub/71657/pg71657-h.zip"},"download_count":14},{"id":71963,"title":"Saksanmaa : $b Talvinen tarina","authors":[{"name":"Heine, Heinrich","birth_year":1797,"death_year":1856}],"translators":[{"name":"Manninen, Otto","birth_year":1872,"death_year":1950}],"subjects":["German poetry -- Translations into Finnish"],"bookshelves":[],"languages":["fi"],"copyright":false,"media_type":"Text","formats":{"text/html":"https://www.gutenberg.org/ebooks/71963.html.images","application/epub+zip":"https://www.gutenberg.org/ebooks/71963.epub3.images","application/x-mobipocket-ebook":"https://www.gutenberg.org/ebooks/71963.kf8.images","text/plain; charset=us-ascii":"https://www.gutenberg.org/ebooks/71963.txt.utf-8","application/rdf+xml":"https://www.gutenberg.org/ebooks/71963.rdf","image/jpeg":"https://www.gutenberg.org/cache/epub/71963/pg71963.cover.medium.jpg","application/octet-stream":"https://www.gutenberg.org/cache/epub/71963/pg71963-h.zip"},"download_count":14},{"id":15501,"title":"Yksinkö?","authors":[{"name":"Malmberg, Aino","birth_year":1865,"death_year":1933}],"translators":[],"subjects":["Fiction"],"bookshelves":[],"languages":["fi"],"copyright":false,"media_type":"Text","formats":{"text/html":"https://www.gutenberg.org/ebooks/15501.html.images","application/epub+zip":"https://www.gutenberg.org/ebooks/15501.epub3.images","application/x-mobipocket-ebook":"https://www.gutenberg.org/ebooks/15501.kf8.images","text/plain; charset=us-ascii":"https://www.gutenberg.org/ebooks/15501.txt.utf-8","text/plain; charset=iso-8859-1":"https://www.gutenberg.org/files/15501/15501-8.txt","application/rdf+xml":"https://www.gutenberg.org/ebooks/15501.rdf","image/jpeg":"https://www.gutenberg.org/cache/epub/15501/pg15501.cover.medium.jpg","application/octet-stream":"https://www.gutenberg.org/cache/epub/15501/pg15501-h.zip"},"download_count":13},{"id":15765,"title":"Kaukonäkijä: eli kuvauksia Ruijasta","authors":[{"name":"Lie, Jonas","birth_year":1833,"death_year":1908}],"translators":[],"subjects":["Norway -- Fiction"],"bookshelves":[],"languages":["fi"],"copyright":false,"media_type":"Text","formats":{"text/html":"https://www.gutenberg.org/ebooks/15765.html.images","application/epub+zip":"https://www.gutenberg.org/ebooks/15765.epub3.images","application/x-mobipocket-ebook":"https://www.gutenberg.org/ebooks/15765.kf8.images","text/plain; charset=us-ascii":"https://www.gutenberg.org/ebooks/15765.txt.utf-8","text/plain; charset=iso-8859-1":"https://www.gutenberg.org/files/15765/15765-8.txt","application/rdf+xml":"https://www.gutenberg.org/ebooks/15765.rdf","image/jpeg":"https://www.gutenberg.org/cache/epub/15765/pg15765.cover.medium.jpg","application/octet-stream":"https://www.gutenberg.org/cache/epub/15765/pg15765-h.zip"},"download_count":13},{"id":16374,"title":"Kuppari-Maija","authors":[{"name":"Meriläinen, Heikki","birth_year":1847,"death_year":1939}],"translators":[],"subjects":["Fiction","Short stories"],"bookshelves":[],"languages":["fi"],"copyright":false,"media_type":"Text","formats":{"text/html":"https://www.gutenberg.org/ebooks/16374.html.images","application/epub+zip":"https://www.gutenberg.org/ebooks/16374.epub3.images","application/x-mobipocket-ebook":"https://www.gutenberg.org/ebooks/16374.kf8.images","text/plain; charset=us-ascii":"https://www.gutenberg.org/ebooks/16374.txt.utf-8","text/plain; charset=iso-8859-1":"https://www.gutenberg.org/files/16374/16374-8.txt","application/rdf+xml":"https://www.gutenberg.org/ebooks/16374.rdf","image/jpeg":"https://www.gutenberg.org/cache/epub/16374/pg16374.cover.medium.jpg","application/octet-stream":"https://www.gutenberg.org/cache/epub/16374/pg16374-h.zip"},"download_count":13},{"id":16689,"title":"Sattumuksia Jänislahdella","authors":[{"name":"Meriläinen, Heikki","birth_year":1847,"death_year":1939}],"translators":[],"subjects":["Fiction"],"bookshelves":[],"languages":["fi"],"copyright":false,"media_type":"Text","formats":{"text/html":"https://www.gutenberg.org/ebooks/16689.html.images","application/epub+zip":"https://www.gutenberg.org/ebooks/16689.epub3.images","application/x-mobipocket-ebook":"https://www.gutenberg.org/ebooks/16689.kf8.images","text/plain; charset=us-ascii":"https://www.gutenberg.org/ebooks/16689.txt.utf-8","text/plain; charset=iso-8859-1":"https://www.gutenberg.org/files/16689/16689-8.txt","application/rdf+xml":"https://www.gutenberg.org/ebooks/16689.rdf","image/jpeg":"https://www.gutenberg.org/cache/epub/16689/pg16689.cover.medium.jpg","application/octet-stream":"https://www.gutenberg.org/cache/epub/16689/pg16689-h.zip"},"download_count":13},{"id":20884,"title":"Yhdyselämää","authors":[{"name":"Lie, Jonas","birth_year":1833,"death_year":1908}],"translators":[{"name":"Roschier, Tekla","birth_year":1870,"death_year":1928}],"subjects":["Fiction"],"bookshelves":[],"languages":["fi"],"copyright":false,"media_type":"Text","formats":{"text/html":"https://www.gutenberg.org/ebooks/20884.html.images","application/epub+zip":"https://www.gutenberg.org/ebooks/20884.epub3.images","application/x-mobipocket-ebook":"https://www.gutenberg.org/ebooks/20884.kf8.images","text/plain; charset=us-ascii":"https://www.gutenberg.org/ebooks/20884.txt.utf-8","text/plain; charset=iso-8859-1":"https://www.gutenberg.org/files/20884/20884-8.txt","application/rdf+xml":"https://www.gutenberg.org/ebooks/20884.rdf","image/jpeg":"https://www.gutenberg.org/cache/epub/20884/pg20884.cover.medium.jpg","application/octet-stream":"https://www.gutenberg.org/cache/epub/20884/pg20884-h.zip"},"download_count":13},{"id":28661,"title":"Paul ja Virginia","authors":[{"name":"Saint-Pierre, Bernardin de","birth_year":1737,"death_year":1814}],"translators":[{"name":"Joutsen, O. A. (Otto Aleksanteri)","birth_year":1878,"death_year":1936}],"subjects":["Charity -- Fiction","Death -- Fiction","Friendship -- Fiction","Love stories","Mauritius -- Fiction","Shipwrecks -- Fiction","Slavery -- Fiction"],"bookshelves":[],"languages":["fi"],"copyright":false,"media_type":"Text","formats":{"text/html":"https://www.gutenberg.org/ebooks/28661.html.images","application/epub+zip":"https://www.gutenberg.org/ebooks/28661.epub3.images","application/x-mobipocket-ebook":"https://www.gutenberg.org/ebooks/28661.kf8.images","text/plain; charset=us-ascii":"https://www.gutenberg.org/ebooks/28661.txt.utf-8","text/plain; charset=iso-8859-1":"https://www.gutenberg.org/files/28661/28661-8.txt","application/rdf+xml":"https://www.gutenberg.org/ebooks/28661.rdf","image/jpeg":"https://www.gutenberg.org/cache/epub/28661/pg28661.cover.medium.jpg","application/octet-stream":"https://www.gutenberg.org/cache/epub/28661/pg28661-h.zip"},"download_count":13},{"id":36824,"title":"Novelleja","authors":[{"name":"Schwartz, Marie Sophie","birth_year":1819,"death_year":1894}],"translators":[],"subjects":["Fiction","Short stories"],"bookshelves":[],"languages":["fi"],"copyright":false,"media_type":"Text","formats":{"text/html":"https://www.gutenberg.org/ebooks/36824.html.images","application/epub+zip":"https://www.gutenberg.org/ebooks/36824.epub3.images","application/x-mobipocket-ebook":"https://www.gutenberg.org/ebooks/36824.kf8.images","text/plain; charset=us-ascii":"https://www.gutenberg.org/ebooks/36824.txt.utf-8","text/plain; charset=iso-8859-1":"https://www.gutenberg.org/files/36824/36824-8.txt","application/rdf+xml":"https://www.gutenberg.org/ebooks/36824.rdf","image/jpeg":"https://www.gutenberg.org/cache/epub/36824/pg36824.cover.medium.jpg","application/octet-stream":"https://www.gutenberg.org/cache/epub/36824/pg36824-h.zip"},"download_count":13},{"id":38772,"title":"Kehitys-aikana: Tytöistä","authors":[{"name":"Topelius, Toini","birth_year":1854,"death_year":1910}],"translators":[],"subjects":["Children -- Juvenile fiction"],"bookshelves":[],"languages":["fi"],"copyright":false,"media_type":"Text","formats":{"text/html":"https://www.gutenberg.org/ebooks/38772.html.images","application/epub+zip":"https://www.gutenberg.org/ebooks/38772.epub3.images","application/x-mobipocket-ebook":"https://www.gutenberg.org/ebooks/38772.kf8.images","text/plain; charset=us-ascii":"https://www.gutenberg.org/ebooks/38772.txt.utf-8","text/plain; charset=iso-8859-1":"https://www.gutenberg.org/files/38772/38772-8.txt","application/rdf+xml":"https://www.gutenberg.org/ebooks/38772.rdf","image/jpeg":"https://www.gutenberg.org/cache/epub/38772/pg38772.cover.medium.jpg","application/octet-stream":"https://www.gutenberg.org/cache/epub/38772/pg38772-h.zip"},"download_count":13},{"id":39697,"title":"Kertomuksia","authors":[{"name":"Benedictsson, Victoria","birth_year":1850,"death_year":1888}],"translators":[],"subjects":["Swedish fiction -- Translations into Finnish"],"bookshelves":[],"languages":["fi"],"copyright":false,"media_type":"Text","formats":{"text/html":"https://www.gutenberg.org/ebooks/39697.html.images","application/epub+zip":"https://www.gutenberg.org/ebooks/39697.epub3.images","application/x-mobipocket-ebook":"https://www.gutenberg.org/ebooks/39697.kf8.images","text/plain; charset=us-ascii":"https://www.gutenberg.org/ebooks/39697.txt.utf-8","text/plain; charset=iso-8859-1":"https://www.gutenberg.org/files/39697/39697-8.txt","application/rdf+xml":"https://www.gutenberg.org/ebooks/39697.rdf","image/jpeg":"https://www.gutenberg.org/cache/epub/39697/pg39697.cover.medium.jpg","application/octet-stream":"https://www.gutenberg.org/cache/epub/39697/pg39697-h.zip"},"download_count":13}]}