{"count":2834,"next":"http://129.241.150.113:8000/books/?languages=fi&page=3","previous":"http://129.241.150.113:8000/books/?languages=fi","results":[{"id":72635,"title":"Maattomia : $b Yhteiskunnallinen maalaisromaani","authors":[{"name":"Korhonen, Veikko","birth_year":1888,"death_year":1942}],"translators":[],"subjects":["Finnish fiction -- 20th century"],"bookshelves":[],"languages":["fi"],"copyright":false,"media_type":"Text","formats":{"text/html":"https://www.gutenberg.org/ebooks/72635.html.images","application/epub+zip":"https://www.gutenberg.org/ebooks/72635.epub3.images","application/x-mobipocket-ebook":"https://www.gutenberg.org/ebooks/72635.kf8.images","text/plain; charset=us-ascii":"https://www.gutenberg.org/ebooks/72635.txt.utf-8","application/rdf+xml":"https://www.gutenberg.org/ebooks/72635.rdf","image/jpeg":"https://www.gutenberg.org/cache/epub/72635/pg72635.cover.medium.jpg","application/octet-stream":"https://www.gutenberg.org/cache/epub/72635/pg72635-h.zip"},"download_count":127},{"id":72755,"title":"Ihanteensa uhri : $b Rakkaustarina","authors":[{"name":"Osterloh, Agnes","birth_year":null,"death_year":null}],"translators":[{"name":"Brander, G. A.","birth_year":null,"death_year":null}],"subjects":["Diary fiction","Love stories"],"bookshelves":[],"languages":["fi"],"copyright":false,"media_type":"Text","formats":{"application/rdf+xml":"https://www.gutenberg.org/ebooks/72755.rdf","text/html":"https://www.gutenberg.org/ebooks/72755.html.images","application/epub+zip":"https://www.gutenberg.org/ebooks/72755.epub3.images","application/x-mobipocket-ebook":"https://www.gutenberg.org/ebooks/72755.kf8.images","text/plain; charset=us-ascii":"https://www.gutenberg.org/ebooks/72755.txt.utf-8","image/jpeg":"https://www.gutenberg.org/cache/epub/72755/pg72755.cover.medium.jpg","application/octet-stream":"https://www.gutenberg.org/cache/epub/72755/pg72755-h.zip"},"download_count":127},{"id":72703,"title":"Lemmen lauluja : $b Valikoima","authors":[{"name":"Leino, Eino","birth_year":1878,"death_year":1926}],"translators":[],"subjects":["Finnish poetry"],"bookshelves":[],"languages":["fi"],"copyright":false,"media_type":"Text","formats":{"text/html":"https://www.gutenberg.org/ebooks/72703.html.images","application/epub+zip":"https://www.gutenberg.org/ebooks/72703.epub3.images","application/x-mobipocket-ebook":"https://www.gutenberg.org/ebooks/72703.kf8.images","text/plain; charset=us-ascii":"https://www.gutenberg.org/ebooks/72703.txt.utf-8","application/rdf+xml":"https://www.gutenberg.org/ebooks/72703.rdf","image/jpeg":"https://www.gutenberg.org/cache/epub/72703/pg72703.cover.medium.jpg","application/octet-stream":"https://www.gutenberg.org/cache/epub/72703/pg72703-h.zip"},"download_count":124},{"id":72535,"title":"Meripoikia : $b Merimiesjutelmia","authors":[{"name":"Jacobs, W. W. (William Wymark)","birth_year":1863,"death_year":1943}],"translators":[{"name":"Palm, Emil","birth_year":null,"death_year":null}],"subjects":["Humorous stories, English -- Translations into Finnish","Sailors -- Fiction","Seafaring life -- Fiction"],"bookshelves":[],"languages":["fi"],"copyright":false,"media_type":"Text","formats":{"text/html":"https://www.gutenberg.org/ebooks/72535.html.images","application/epub+zip":"https://www.gutenberg.org/ebooks/72535.epub3.images","application/x-mobipocket-ebook":"https://www.gutenberg.org/ebooks/72535.kf8.images","text/plain; charset=us-ascii":"https://www.gutenberg.org/ebooks/72535.txt.utf-8","application/rdf+xml":"https://www.gutenberg.org/ebooks/72535.rdf","image/jpeg":"https://www.gutenberg.org/cache/epub/72535/pg72535.cover.medium.jpg","application/octet-stream":"https://www.gutenberg.org/cache/epub/72535/pg72535-h.zip"},"download_count":123},{"id":72536,"title":"Elämä aatteiden puolesta","authors":[{"name":"Meysenbug, Malwida von","birth_year":1816,"death_year":1903}],"translators":[{"name":"Paalanen, Esteri","birth_year":1886,"death_year":1976}],"subjects":["Authors, German -- 19th century -- Biography","Meysenbug, Malwida von, 1816-1903"],"bookshelves":[],"languages":["fi"],"copyright":false,"media_type":"Text","formats":{"text/html":"https://www.gutenberg.org/ebooks/72536.html.images","application/epub+zip":"https://www.gutenberg.org/ebooks/72536.epub3.images","application/x-mobipocket-ebook":"https://www.gutenberg.org/ebooks/72536.kf8.images","text/plain; charset=us-ascii":"https://www.gutenberg.org/ebooks/72536.txt.utf-8","application/rdf+xml":"https://www.gutenberg.org/ebooks/72536.rdf","image/jpeg":"https://www.gutenberg.org/cache/epub/72536/pg72536.cover.medium.jpg","application/octet-stream":"https://www.gutenberg.org/cache/epub/72536/pg72536-h.zip"},"download_count":123},{"id":72690,"title":"Kaunosielu : $b Kuvaus","authors":[{"name":"Leino, Eino","birth_year":1878,"death_year":1926}],"translators":[],"subjects":["Finnish fiction -- 20th century"],"bookshelves":[],"languages":["fi"],"copyright":false,"media_type":"Text","formats":{"text/html":"https://www.gutenberg.org/ebooks/72690.html.images","application/epub+zip":"https://www.gutenberg.org/ebooks/72690.epub3.images","application/x-mobipocket-ebook":"https://www.gutenberg.org/ebooks/72690.kf8.images","text/plain; charset=us-ascii":"https://www.gutenberg.org/ebooks/72690.txt.utf-8","application/rdf+xml":"https://www.gutenberg.org/ebooks/72690.rdf","image/jpeg":"https://www.gutenberg.org/cache/epub/72690/pg72690.cover.medium.jpg","application/octet-stream":"https://www.gutenberg.org/cache/epub/72690/pg72690-h.zip"},"download_count":118},{"id":7078,"title":"Kanteletar: Suomen kansan wanhoja lauluja ja wirsiä","authors":[],"translators":[],"subjects":["Folk songs, Finnish"],"bookshelves":[],"languages":["fi"],"copyright":false,"media_type":"Text","formats":{"text/html":"https://www.gutenberg.org/ebooks/7078.html.images","application/epub+zip":"https://www.gutenberg.org/ebooks/7078.epub3.images","application/x-mobipocket-ebook":"https://www.gutenberg.org/ebooks/7078.kf8.images","text/plain; charset=us-ascii":"https://www.gutenberg.org/ebooks/7078.txt.utf-8","application/rdf+xml":"https://www.gutenberg.org/ebooks/7078.rdf","image/jpeg":"https://www.gutenberg.org/cache/epub/7078/pg7078.cover.medium.jpg","application/octet-stream":"https://www.gutenberg.org/files/7078/7078-0.zip"},"download_count":112},{"id":16223,"title":"Lukemisia lapsille 1","authors":[{"name":"Topelius, Zacharias","birth_year":1818,"death_year":1898}],"translators":[],"subjects":["Fairy tales"],"bookshelves":[],"languages":["fi"],"copyright":false,"media_type":"Text","formats":{"text/html":"https://www.gutenberg.org/ebooks/16223.html.images","text/html; charset=iso-8859-1":"https://www.gutenberg.org/files/16223/16223-h/16223-h.htm","application/epub+zip":"https://www.gutenberg.org/ebooks/16223.epub3.images","application/x-mobipocket-ebook":"https://www.gutenberg.org/ebooks/16223.kf8.images","text/plain; charset=us-ascii":"https://www.gutenberg.org/ebooks/16223.txt.utf-8","text/plain; charset=iso-8859-1":"https://www.gutenberg.org/files/16223/16223-8.txt","application/rdf+xml":"https://www.gutenberg.org/ebooks/16223.rdf","image/jpeg":"https://www.gutenberg.org/cache/epub/16223/pg16223.cover.medium.jpg","application/octet-stream":"https://www.gutenberg.org/cache/epub/16223/pg16223-h.zip"},"download_count":111},{"id":20145,"title":"Elegioja","authors":[{"name":"Koskenniemi, Veikko Antero","birth_year":1885,"death_year":1962}],"translators":[],"subjects":["Poetry"],"bookshelves":[],"languages":["fi"],"copyright":false,"media_type":"Text","formats":{"text/html":"https://www.gutenberg.org/ebooks/20145.html.images","application/epub+zip":"https://www.gutenberg.org/ebooks/20145.epub3.images","application/x-mobipocket-ebook":"https://www.gutenberg.org/ebooks/20145.kf8.images","text/plain; charset=us-ascii":"https://www.gutenberg.org/ebooks/20145.txt.utf-8","text/plain; charset=iso-8859-1":"https://www.gutenberg.org/files/20145/20145-8.txt","application/rdf+xml":"https://www.gutenberg.org/ebooks/20145.rdf","image/jpeg":"https://www.gutenberg.org/cache/epub/20145/pg20145.cover.medium.jpg","application/octet-stream":"https://www.gutenberg.org/cache/epub/20145/pg20145-h.zip"},"download_count":111},{"id":45448,"title":"Monte-Criston kreivi","authors":[{"name":"Dumas, Alexandre","birth_year":1802,"death_year":1870},{"name":"Maquet, Auguste","birth_year":1813,"death_year":1888}],"translators":[{"name":"Finne, Jalmari","birth_year":1874,"death_year":1938}],"subjects":["Adventure stories","Dantès, Edmond (Fictitious character) -- Fiction","France -- History -- 19th century -- Fiction","Historical fiction","Pirates -- Fiction","Prisoners -- Fiction","Revenge -- Fiction"],"bookshelves":[],"languages":["fi"],"copyright":false,"media_type":"Text","formats":{"text/html":"https://www.gutenberg.org/ebooks/45448.html.images","application/epub+zip":"https://www.gutenberg.org/ebooks/45448.epub3.images","application/x-mobipocket-ebook":"https://www.gutenberg.org/ebooks/45448.kf8.images","text/plain; charset=us-ascii":"https://www.gutenberg.org/ebooks/45448.txt.utf-8","text/plain; charset=iso-8859-1":"https://www.gutenberg.org/files/45448/45448-8.txt","application/rdf+xml":"https://www.gutenberg.org/ebooks/45448.rdf","image/jpeg":"https://www.gutenberg.org/cache/epub/45448/pg45448.cover.medium.jpg","application/octet-stream":"https://www.gutenberg.org/cache/epub/45448/pg45448-h.zip"},"download_count":111},{"id":20272,"title":"Helsinkiin","authors":[{"name":"Aho, Juhani","birth_year":1861,"death_year":1921}],"translators":[],"subjects":["Students -- Finland -- Helsinki -- Fiction"],"bookshelves":[],"languages":["fi"],"copyright":false,"media_type":"Sound","formats":{"text/plain":"https://www.gutenberg.org/files/20272/20272-readme.txt","text/html":"https://www.gutenberg.org/files/20272/20272-index.html","audio/ogg":"https://www.gutenberg.org/files/20272/ogg/20272-01.ogg","audio/mp4":"https://www.gutenberg.org/files/20272/m4b/20272-01.m4b","audio/mpeg":"https://www.gutenberg.org/files/20272/mp3/20272-01.mp3","application/rdf+xml":"https://www.gutenberg.org/ebooks/20272.rdf"},"download_count":110},{"id":48751,"title":"Suomen kansan muinaisia loitsurunoja","authors":[{"name":"Lönnrot, Elias","birth_year":1802,"death_year":1884}],"translators":[],"subjects":["Ballads, Finnish","Folk songs, Finnish","Incantations"],"bookshelves":[],"languages":["fi"],"copyright":false,"media_type":"Text","formats":{"text/html":"https://www.gutenberg.org/ebooks/48751.html.images","application/epub+zip":"https://www.gutenberg.org/ebooks/48751.epub3.images","application/x-mobipocket-ebook":"https://www.gutenberg.org/ebooks/48751.kf8.images","text/plain; charset=us-ascii":"https://www.gutenberg.org/ebooks/48751.txt.utf-8","text/plain; charset=iso-8859-1":"https://www.gutenberg.org/files/48751/48751-8.txt","application/rdf+xml":"https://www.gutenberg.org/ebooks/48751.rdf","image/jpeg":"https://www.gutenberg.org/cache/epub/48751/pg48751.cover.medium.jpg","application/octet-stream":"https://www.gutenberg.org/cache/epub/48751/pg48751-h.zip"},"download_count":109},{"id":72711,"title":"Laivan kannella : $b 2-näytöksinen laulunäytelmä","authors":[{"name":"Jääskeläinen, Pasi","birth_year":null,"death_year":null}],"translators":[],"subjects":["Finnish drama"],"bookshelves":[],"languages":["fi"],"copyright":false,"media_type":"Text","formats":{"text/html":"https://www.gutenberg.org/ebooks/72711.html.images","application/epub+zip":"https://www.gutenberg.org/ebooks/72711.epub3.images","application/x-mobipocket-ebook":"https://www.gutenberg.org/ebooks/72711.kf8.images","text/plain; charset=us-ascii":"https://www.gutenberg.org/ebooks/72711.txt.utf-8","application/rdf+xml":"https://www.gutenberg.org/ebooks/72711.rdf","image/jpeg":"https://www.gutenberg.org/cache/epub/72711/pg72711.cover.medium.jpg","application/octet-stream":"https://www.gutenberg.org/cache/epub/72711/pg72711-h.zip"},"download_count":109},{"id":72749,"title":"Hopeaviulu : $b Runoja","authors":[{"name":"Vaara, Elina","birth_year":1903,"death_year":1980}],"translators":[],"subjects":["Finnish poetry -- 20th century"],"bookshelves":[],"languages":["fi"],"copyright":false,"media_type":"Text","formats":{"text/html":"https://www.gutenberg.org/ebooks/72749.html.images","application/epub+zip":"https://www.gutenberg.org/ebooks/72749.epub3.images","application/x-mobipocket-ebook":"https://www.gutenberg.org/ebooks/72749.kf8.images","text/plain; charset=us-ascii":"https://www.gutenberg.org/ebooks/72749.txt.utf-8","application/rdf+xml":"https://www.gutenberg.org/ebooks/72749.rdf","image/jpeg":"https://www.gutenberg.org/cache/epub/72749/pg72749.cover.medium.jpg","application/octet-stream":"https://www.gutenberg.org/cache/epub/72749/pg72749-h.zip"},"download_count":108},{"id":44831,"title":"Kesäyön unelma","authors":[{"name":"Shakespeare, William","birth_year":1564,"death_year":1616}],"translators":[{"name":"Cajander, Paavo Emil","birth_year":1846,"death_year":1913}],"subjects":["Athens (Greece) -- Drama","Comedies","Courtship -- Drama","Fairy plays"],"bookshelves":[],"languages":["fi"],"copyright":false,"media_type":"Text","formats":{"text/html":"https://www.gutenberg.org/ebooks/44831.html.images","text/html; charset=iso-8859-1":"https://www.gutenberg.org/files/44831/44831-h/44831-h.htm","application/epub+zip":"https://www.gutenberg.org/ebooks/44831.epub3.images","application/x-mobipocket-ebook":"https://www.gutenberg.org/ebooks/44831.kf8.images","text/plain; charset=us-ascii":"https://www.gutenberg.org/ebooks/44831.txt.utf-8","text/plain; charset=iso-8859-1":"https://www.gutenberg.org/files/44831/44831-8.txt","application/rdf+xml":"https://www.gutenberg.org/ebooks/44831.rdf","image/jpeg":"https://www.gutenberg.org/cache/epub/44831/pg44831.cover.medium.jpg","application/octet-stream":"https://www.gutenberg.org/cache/epub/44831/pg44831-h.zip"},"download_count":105},{"id":46569,"title":"Liisan seikkailut ihmemaassa","authors":[{"name":"Carroll, Lewis","birth_year":1832,"death_year":1898}],"translators":[{"name":"Swan, Anni","birth_year":1875,"death_year":1958}],"subjects":["Alice (Fictitious character from Carroll) -- Juvenile fiction","Children's stories","Fantasy fiction","Imaginary places -- Juvenile fiction"],"bookshelves":[],"languages":["fi"],"copyright":false,"media_type":"Text","formats":{"text/html":"https://www.gutenberg.org/ebooks/46569.html.images","application/epub+zip":"https://www.gutenberg.org/ebooks/46569.epub3.images","application/x-mobipocket-ebook":"https://www.gutenberg.org/ebooks/46569.kf8.images","text/plain; charset=us-ascii":"https://www.gutenberg.org/ebooks/46569.txt.utf-8","text/plain; charset=iso-8859-1":"https://www.gutenberg.org/files/46569/46569-8.txt","application/rdf+xml":"https://www.gutenberg.org/ebooks/46569.rdf","image/jpeg":"https://www.gutenberg.org/cache/epub/46569/pg46569.cover.medium.jpg","application/octet-stream":"https://www.gutenberg.org/cache/epub/46569/pg46569-h.zip"},"download_count":104},{"id":72523,"title":"Suljettujen ovien takana : $b Romaani","authors":[{"name":"Hellaakoski, Aaro","birth_year":1893,"death_year":1952}],"translators":[],"subjects":["Finnish fiction -- 20th century"],"bookshelves":[],"languages":["fi"],"copyright":false,"media_type":"Text","formats":{"text/html":"https://www.gutenberg.org/ebooks/72523.html.images","application/epub+zip":"https://www.gutenberg.org/ebooks/72523.epub3.images","application/x-mobipocket-ebook":"https://www.gutenberg.org/ebooks/72523.kf8.images","text/plain; charset=us-ascii":"https://www.gutenberg.org/ebooks/72523.txt.utf-8","application/rdf+xml":"https://www.gutenberg.org/ebooks/72523.rdf","image/jpeg":"https://www.gutenberg.org/cache/epub/72523/pg72523.cover.medium.jpg","application/octet-stream":"https://www.gutenberg.org/cache/epub/72523/pg72523-h.zip"},"download_count":104},{"id":72783,"title":"Tuulikannel : $b Mieterunoja. II","authors":[{"name":"Leino, Eino","birth_year":1878,"death_year":1926}],"translators":[],"subjects":["Finnish poetry"],"bookshelves":[],"languages":["fi"],"copyright":false,"media_type":"Text","formats":{"text/html":"https://www.gutenberg.org/ebooks/72783.html.images","application/epub+zip":"https://www.gutenberg.org/ebooks/72783.epub3.images","application/x-mobipocket-ebook":"https://www.gutenberg.org/ebooks/72783.kf8.images","text/plain; charset=us-ascii":"https://www.gutenberg.org/ebooks/72783.txt.utf-8","application/rdf+xml":"https://www.gutenberg.org/ebooks/72783.rdf","image/jpeg":"https://www.gutenberg.org/cache/epub/72783/pg72783.cover.medium.jpg","application/octet-stream":"https://www.gutenberg.org/cache/epub/72783/pg72783-h.zip"},"download_count":102},{"id":72503,"title":"Jalkamatkoilta","authors":[{"name":"Ramsay, Anders","birth_year":1832,"death_year":1910}],"translators":[{"name":"Suppanen, Aatto","birth_year":1855,"death_year":1898}],"subjects":["Finland -- Description and travel","Hiking"],"bookshelves":[],"languages":["fi"],"copyright":false,"media_type":"Text","formats":{"text/html":"https://www.gutenberg.org/ebooks/72503.html.images","application/epub+zip":"https://www.gutenberg.org/ebooks/72503.epub3.images","application/x-mobipocket-ebook":"https://www.gutenberg.org/ebooks/72503.kf8.images","text/plain; charset=us-ascii":"https://www.gutenberg.org/ebooks/72503.txt.utf-8","application/rdf+xml":"https://www.gutenberg.org/ebooks/72503.rdf","image/jpeg":"https://www.gutenberg.org/cache/epub/72503/pg72503.cover.medium.jpg","application/octet-stream":"https://www.gutenberg.org/cache/epub/72503/pg72503-h.zip"},"download_count":101},{"id":72725,"title":"Kansa ja kannel : $b Runoja","authors":[{"name":"Soini, Lauri","birth_year":1875,"death_year":1919}],"translators":[],"subjects":["Finnish poetry -- 20th century"],"bookshelves":[],"languages":["fi"],"copyright":false,"media_type":"Text","formats":{"text/html":"https://www.gutenberg.org/ebooks/72725.html.images","application/epub+zip":"https://www.gutenberg.org/ebooks/72725.epub3.images","application/x-mobipocket-ebook":"https://www.gutenberg.org/ebooks/72725.kf8.images","text/plain; charset=us-ascii":"https://www.gutenberg.org/ebooks/72725.txt.utf-8","application/rdf+xml":"https://www.gutenberg.org/ebooks/72725.rdf","image/jpeg":"https://www.gutenberg.org/cache/epub/72725/pg72725.cover.medium.jpg","application/octet-stream":"https://www.gutenberg.org/cache/epub/72725/pg72725-h.zip"},"download_count":101},{"id":72788,"title":"Vedenpaisumus I : $b Historiallinen romaani","authors":[{"name":"Sienkiewicz, Henryk","birth_year":1846,"death_year":1916}],"translators":[{"name":"Silvanto, Reino","birth_year":1883,"death_year":1943}],"subjects":["Historical fiction","Poland -- History -- John II Casimir, 1648-1668 -- Fiction"],"bookshelves":[],"languages":["fi"],"copyright":false,"media_type":"Text","formats":{"text/html":"https://www.gutenberg.org/ebooks/72788.html.images","application/epub+zip":"https://www.gutenberg.org/ebooks/72788.epub3.images","application/x-mobipocket-ebook":"https://www.gutenberg.org/ebooks/72788.kf8.images","text/plain; charset=us-ascii":"https://www.gutenberg.org/ebooks/72788.txt.utf-8","application/rdf+xml":"https://www.gutenberg.org/ebooks/72788.rdf","image/jpeg":"https://www.gutenberg.org/cache/epub/72788/pg72788.cover.medium.jpg","application/octet-stream":"https://www.gutenberg.org/cache/epub/72788/pg72788-h.zip"},"download_count":101},{"id":72691,"title":"Lauluja ja ballaadeja","authors":[{"name":"Kallas, Aino","birth_year":1878,"death_year":1956}],"translators":[],"subjects":["Finnish poetry -- 19th century"],"bookshelves":[],"languages":["fi"],"copyright":false,"media_type":"Text","formats":{"text/html":"https://www.gutenberg.org/ebooks/72691.html.images","application/epub+zip":"https://www.gutenberg.org/ebooks/72691.epub3.images","application/x-mobipocket-ebook":"https://www.gutenberg.org/ebooks/72691.kf8.images","text/plain; charset=us-ascii":"https://www.gutenberg.org/ebooks/72691.txt.utf-8","application/rdf+xml":"https://www.gutenberg.org/ebooks/72691.rdf","image/jpeg":"https://www.gutenberg.org/cache/epub/72691/pg72691.cover.medium.jpg","application/octet-stream":"https://www.gutenberg.org/cache/epub/72691/pg72691-h.zip"},"download_count":98},{"id":72791,"title":"Voiton päivä; Vala; Kotiin : $b Historiallisia näytelmiä","authors":[{"name":"Wilkuna, Kyösti","birth_year":1879,"death_year":1922}],"translators":[],"subjects":["Finnish drama -- 20th century","One-act plays, Finnish"],"bookshelves":[],"languages":["fi"],"copyright":false,"media_type":"Text","formats":{"text/html":"https://www.gutenberg.org/ebooks/72791.html.images","application/epub+zip":"https://www.gutenberg.org/ebooks/72791.epub3.images","application/x-mobipocket-ebook":"https://www.gutenberg.org/ebooks/72791.kf8.images","text/plain; charset=us-ascii":"https://www.gutenberg.org/ebooks/72791.txt.utf-8","application/rdf+xml":"https://www.gutenberg.org/ebooks/72791.rdf","image/jpeg":"https://www.gutenberg.org/cache/epub/72791/pg72791.cover.medium.jpg","application/octet-stream":"https://www.gutenberg.org/cache/epub/72791/pg72791-h.zip"},"download_count":98},{"id":12546,"title":"Jumalainen näytelmä","authors":[{"name":"Dante Alighieri","birth_year":1265,"death_year":1321}],"translators":[{"name":"Leino, Eino","birth_year":1878,"death_year":1926}],"subjects":["Poetry"],"bookshelves":[],"languages":["fi"],"copyright":false,"media_type":"Text","formats":{"text/html":"https://www.gutenberg.org/ebooks/12546.html.images","application/epub+zip":"https://www.gutenberg.org/ebooks/12546.epub3.images","application/x-mobipocket-ebook":"https://www.gutenberg.org/ebooks/12546.kf8.images","text/plain; charset=us-ascii":"https://www.gutenberg.org/ebooks/12546.txt.utf-8","text/plain; charset=iso-8859-1":"https://www.gutenberg.org/files/12546/12546-8.txt","application/rdf+xml":"https://www.gutenberg.org/ebooks/12546.rdf","image/jpeg":"https://www.gutenberg.org/cache/epub/12546/pg12546.cover.medium.jpg","application/octet-stream":"https://www.gutenberg.org/cache/epub/12546/pg12546-h.zip"},"download_count":91},{"id":12757,"title":"Vänrikki Stoolin tarinat (suom. Manninen)","authors":[{"name":"Runeberg, Johan Ludvig","birth_year":1804,"death_year":1877}],"translators":[{"name":"Manninen, Otto","birth_year":1872,"death_year":1950}],"subjects":["Finland -- History -- Russian Conquest, 1808-1809 -- Poetry"],"bookshelves":[],"languages":["fi"],"copyright":false,"media_type":"Text","formats":{"text/html":"https://www.gutenberg.org/ebooks/12757.html.images","application/epub+zip":"https://www.gutenberg.org/ebooks/12757.epub3.images","application/x-mobipocket-ebook":"https://www.gutenberg.org/ebooks/12757.kf8.images","text/plain; charset=us-ascii":"https://www.gutenberg.org/ebooks/12757.txt.utf-8","text/plain; charset=iso-8859-1":"https://www.gutenberg.org/files/12757/12757-8.txt","application/rdf+xml":"https://www.gutenberg.org/ebooks/12757.rdf","image/jpeg":"https://www.gutenberg.org/cache/epub/12757/pg12757.cover.medium.jpg","application/octet-stream":"https://www.gutenberg.org/cache/epub/12757/pg12757-h.zip"},"download_count":91},{"id":45263,"title":"Rikos ja rangaistus: Kuusiosainen romaani ynnä epilogi","authors":[{"name":"Dostoyevsky, Fyodor","birth_year":1821,"death_year":1881}],"translators":[],"subjects":["Crime -- Psychological aspects -- Fiction","Detective and mystery stories","Murder -- Fiction","Psychological fiction","Saint Petersburg (Russia) -- Fiction"],"bookshelves":[],"languages":["fi"],"copyright":false,"media_type":"Text","formats":{"text/html":"https://www.gutenberg.org/ebooks/45263.html.images","application/epub+zip":"https://www.gutenberg.org/ebooks/45263.epub3.images","application/x-mobipocket-ebook":"https://www.gutenberg.org/ebooks/45263.kf8.images","text/plain; charset=us-ascii":"https://www.gutenberg.org/ebooks/45263.txt.utf-8","text/plain; charset=iso-8859-1":"https://www.gutenberg.org/files/45263/45263-8.txt","application/rdf+xml":"https://www.gutenberg.org/ebooks/45263.rdf","image/jpeg":"https://www.gutenberg.org/cache/epub/45263/pg45263.cover.medium.jpg","application/octet-stream":"https://www.gutenberg.org/cache/epub/45263/pg45263-h.zip"},"download_count":88},{"id":72530,"title":"Omenapuu","authors":[{"name":"Galsworthy, John","birth_year":1867,"death_year":1933}],"translators":[],"subjects":["England -- Fiction","Man-woman relationships -- Fiction","Social classes -- Fiction"],"bookshelves":[],"languages":["fi"],"copyright":false,"media_type":"Text","formats":{"text/html":"https://www.gutenberg.org/ebooks/72530.html.images","application/epub+zip":"https://www.gutenberg.org/ebooks/72530.epub3.images","application/x-mobipocket-ebook":"https://www.gutenberg.org/ebooks/72530.kf8.images","text/plain; charset=us-ascii":"https://www.gutenberg.org/ebooks/72530.txt.utf-8","application/rdf+xml":"https://www.gutenberg.org/ebooks/72530.rdf","image/jpeg":"https://www.gutenberg.org/cache/epub/72530/pg72530.cover.medium.jpg","application/octet-stream":"https://www.gutenberg.org/cache/epub/72530/pg72530-h.zip"},"download_count":88},{"id":72790,"title":"Suomen päivä; Herra koulumestari : $b Kaksi 1-näytöksistä kuvaelmaa","authors":[{"name":"Walakorpi, Urho Wiljo","birth_year":1886,"death_year":1957}],"translators":[],"subjects":["Finnish drama -- 20th century","One-act plays, Finnish"],"bookshelves":[],"languages":["fi"],"copyright":false,"media_type":"Text","formats":{"text/html":"https://www.gutenberg.org/ebooks/72790.html.images","application/epub+zip":"https://www.gutenberg.org/ebooks/72790.epub3.images","application/x-mobipocket-ebook":"https://www.gutenberg.org/ebooks/72790.kf8.images","text/plain; charset=us-ascii":"https://www.gutenberg.org/ebooks/72790.txt.utf-8","application/rdf+xml":"https://www.gutenberg.org/ebooks/72790.rdf","image/jpeg":"https://www.gutenberg.org/cache/epub/72790/pg72790.cover.medium.jpg","application/octet-stream":"https://www.gutenberg.org/cache/epub/72790/pg72790-h.zip"},"download_count":88},{"id":72710,"title":"Tirisen kosinta; Miljoona-arpa; Toppakahvia : $b Kolme yksinäytöksinen pilaa","authors":[{"name":"Jääskeläinen, Pasi","birth_year":null,"death_year":null}],"translators":[],"subjects":["Finnish drama"],"bookshelves":[],"languages":["fi"],"copyright":false,"media_type":"Text","formats":{"text/html":"https://www.gutenberg.org/ebooks/72710.html.images","application/epub+zip":"https://www.gutenberg.org/ebooks/72710.epub3.images","application/x-mobipocket-ebook":"https://www.gutenberg.org/ebooks/72710.kf8.images","text/plain; charset=us-ascii":"https://www.gutenberg.org/ebooks/72710.txt.utf-8","application/rdf+xml":"https://www.gutenberg.org/ebooks/72710.rdf","image/jpeg":"https://www.gutenberg.org/cache/epub/72710/pg72710.cover.medium.jpg","application/octet-stream":"https://www.gutenberg.org/cache/epub/72710/pg72710-h.zip"},"download_count":87},{"id":49487,"title":"Anna Karenina","authors":[{"name":"Tolstoy, Leo, graf","birth_year":1828,"death_year":1910}],"translators":[{"name":"Kalima, Eino","birth_year":1882,"death_year":1972}],"subjects":["Adultery -- Fiction","Didactic fiction","Love stories","Married women -- Fiction","Russia -- Fiction","Russian fiction -- Translations into Finnish"],"bookshelves":[],"languages":["fi"],"copyright":false,"media_type":"Text","formats":{"text/html":"https://www.gutenberg.org/ebooks/49487.html.images","application/epub+zip":"https://www.gutenberg.org/ebooks/49487.epub3.images","application/x-mobipocket-ebook":"https://www.gutenberg.org/ebooks/49487.kf8.images","text/plain; charset=us-ascii":"https://www.gutenberg.org/ebooks/49487.txt.utf-8","text/plain; charset=iso-8859-1":"https://www.gutenberg.org/files/49487/49487-8.txt","application/rdf+xml":"https://www.gutenberg.org/ebooks/49487.rdf","image/jpeg":"https://www.gutenberg.org/cache/epub/49487/pg49487.cover.medium.jpg","application/octet-stream":"https://www.gutenberg.org/cache/epub/49487/pg49487-h.zip"},"download_count":86},{"id":16314,"title":"Lukemisia lapsille 2","authors":[{"name":"Topelius, Zacharias","birth_year":1818,"death_year":1898}],"translators":[],"subjects":["Fairy tales"],"bookshelves":[],"languages":["fi"],"copyright":false,"media_type":"Text","formats":{"text/html":"https://www.gutenberg.org/ebooks/16314.html.images","text/html; charset=iso-8859-1":"https://www.gutenberg.org/files/16314/16314-h/16314-h.htm","application/epub+zip":"https://www.gutenberg.org/ebooks/16314.epub3.images","application/x-mobipocket-ebook":"https://www.gutenberg.org/ebooks/16314.kf8.images","text/plain; charset=us-ascii":"https://www.gutenberg.org/ebooks/16314.txt.utf-8","text/plain; charset=iso-8859-1":"https://www.gutenberg.org/files/16314/16314-8.txt","application/rdf+xml":"https://www.gutenberg.org/ebooks/16314.rdf","image/jpeg":"https://www.gutenberg.org/cache/epub/16314/pg16314.cover.medium.jpg","application/octet-stream":"https://www.gutenberg.org/cache/epub/16314/pg16314-h.zip"},"download_count":85},{"id":72484,"title":"Itämaalaisia haaveiluja","authors":[{"name":"Hedman, Valfrid","birth_year":1872,"death_year":1939}],"translators":[],"subjects":["Finnish poetry"],"bookshelves":[],"languages":["fi"],"copyright":false,"media_type":"Text","formats":{"text/html":"https://www.gutenberg.org/ebooks/72484.html.images","application/epub+zip":"https://www.gutenberg.org/ebooks/72484.epub3.images","application/x-mobipocket-ebook":"https://www.gutenberg.org/ebooks/72484.kf8.images","text/plain; charset=us-ascii":"https://www.gutenberg.org/ebooks/72484.txt.utf-8","application/rdf+xml":"https://www.gutenberg.org/ebooks/72484.rdf","image/jpeg":"https://www.gutenberg.org/cache/epub/72484/pg72484.cover.medium.jpg","application/octet-stream":"https://www.gutenberg.org/cache/epub/72484/pg72484-h.zip"},"download_count":85}]}