{"count":444,"next":"http://129.241.150.113:8000/books/?languages=zh&page=8","previous":"http://129.241.150.113:8000/books/?languages=zh&page=6","results":[{"id":27023,"title":"白圭志","authors":[{"name":"Cui, Xiangchuan, active 1836","birth_year":null,"death_year":null}],"translators":[],"subjects":["Chinese fiction"],"bookshelves":[],"languages":["zh"],"copyright":false,"media_type":"Text","formats":{"text/html":"https://www.gutenberg.org/ebooks/27023.html.images","application/epub+zip":"https://www.gutenberg.org/ebooks/27023.epub3.images","application/x-mobipocket-ebook":"https://www.gutenberg.org/ebooks/27023.kf8.images","text/plain; charset=us-ascii":"https://www.gutenberg.org/ebooks/27023.txt.utf-8","text/plain; charset=utf-8":"https://www.gutenberg.org/files/27023/27023-0.txt","application/rdf+xml":"https://www.gutenberg.org/ebooks/27023.rdf","image/jpeg":"https://www.gutenberg.org/cache/epub/27023/pg27023.cover.medium.jpg","application/octet-stream":"https://www.gutenberg.org/cache/epub/27023/pg27023-h.zip"},"download_count":60},{"id":27686,"title":"狄公案","authors":[{"name":"Anonymous","birth_year":null,"death_year":null}],"translators":[],"subjects":["Di, Renjie, 629-700 -- Fiction"],"bookshelves":[],"languages":["zh"],"copyright":false,"media_type":"Text","formats":{"text/html":"https://www.gutenberg.org/ebooks/27686.html.images","application/epub+zip":"https://www.gutenberg.org/ebooks/27686.epub3.images","application/x-mobipocket-ebook":"https://www.gutenberg.org/ebooks/27686.kf8.images","text/plain; charset=us-ascii":"https://www.gutenberg.org/ebooks/27686.txt.utf-8","text/plain; charset=utf-8":"https://www.gutenberg.org/files/27686/27686-0.txt","application/rdf+xml":"https://www.gutenberg.org/ebooks/27686.rdf","image/jpeg":"https://www.gutenberg.org/cache/epub/27686/pg27686.cover.medium.jpg","application/octet-stream":"https://www.gutenberg.org/cache/epub/27686/pg27686-h.zip"},"download_count":60},{"id":23913,"title":"莊子的故事","authors":[{"name":"Song, Ye","birth_year":null,"death_year":null}],"translators":[],"subjects":["Zhuangzi"],"bookshelves":[],"languages":["zh"],"copyright":false,"media_type":"Text","formats":{"text/html":"https://www.gutenberg.org/ebooks/23913.html.images","application/epub+zip":"https://www.gutenberg.org/ebooks/23913.epub3.images","application/x-mobipocket-ebook":"https://www.gutenberg.org/ebooks/23913.kf8.images","text/plain; charset=us-ascii":"https://www.gutenberg.org/ebooks/23913.txt.utf-8","text/plain; charset=utf-8":"https://www.gutenberg.org/files/23913/23913-0.txt","application/rdf+xml":"https://www.gutenberg.org/ebooks/23913.rdf","image/jpeg":"https://www.gutenberg.org/cache/epub/23913/pg23913.cover.medium.jpg","application/octet-stream":"https://www.gutenberg.org/cache/epub/23913/pg23913-h.zip"},"download_count":59},{"id":25196,"title":"百家姓","authors":[{"name":"Anonymous","birth_year":null,"death_year":null}],"translators":[],"subjects":["Names, Personal -- Chinese"],"bookshelves":[],"languages":["zh"],"copyright":false,"media_type":"Text","formats":{"text/html":"https://www.gutenberg.org/ebooks/25196.html.images","application/epub+zip":"https://www.gutenberg.org/ebooks/25196.epub3.images","application/x-mobipocket-ebook":"https://www.gutenberg.org/ebooks/25196.kf8.images","text/plain; charset=us-ascii":"https://www.gutenberg.org/ebooks/25196.txt.utf-8","text/plain; charset=utf-8":"https://www.gutenberg.org/files/25196/25196-0.txt","application/rdf+xml":"https://www.gutenberg.org/ebooks/25196.rdf","image/jpeg":"https://www.gutenberg.org/cache/epub/25196/pg25196.cover.medium.jpg","application/octet-stream":"https://www.gutenberg.org/cache/epub/25196/pg25196-h.zip"},"download_count":59},{"id":25202,"title":"補紅樓夢","authors":[{"name":"Langhuanshanqiao, active 18th century-19th century","birth_year":null,"death_year":null}],"translators":[],"subjects":["Chinese fiction -- Qing dynasty, 1644-1912"],"bookshelves":[],"languages":["zh"],"copyright":false,"media_type":"Text","formats":{"text/html":"https://www.gutenberg.org/ebooks/25202.html.images","application/epub+zip":"https://www.gutenberg.org/ebooks/25202.epub3.images","application/x-mobipocket-ebook":"https://www.gutenberg.org/ebooks/25202.kf8.images","text/plain; charset=us-ascii":"https://www.gutenberg.org/ebooks/25202.txt.utf-8","text/plain; charset=utf-8":"https://www.gutenberg.org/files/25202/25202-0.txt","application/rdf+xml":"https://www.gutenberg.org/ebooks/25202.rdf","image/jpeg":"https://www.gutenberg.org/cache/epub/25202/pg25202.cover.medium.jpg","application/octet-stream":"https://www.gutenberg.org/cache/epub/25202/pg25202-h.zip"},"download_count":59},{"id":25252,"title":"貞觀政要","authors":[{"name":"Wu, Jing","birth_year":670,"death_year":749}],"translators":[],"subjects":["China -- Politics and government -- 581-907","Political ethics -- China","Tang Taizong, Emperor of China, 597-649"],"bookshelves":[],"languages":["zh"],"copyright":false,"media_type":"Text","formats":{"text/html":"https://www.gutenberg.org/ebooks/25252.html.images","application/epub+zip":"https://www.gutenberg.org/ebooks/25252.epub3.images","application/x-mobipocket-ebook":"https://www.gutenberg.org/ebooks/25252.kf8.images","text/plain; charset=us-ascii":"https://www.gutenberg.org/ebooks/25252.txt.utf-8","text/plain; charset=utf-8":"https://www.gutenberg.org/files/25252/25252-0.txt","application/rdf+xml":"https://www.gutenberg.org/ebooks/25252.rdf","image/jpeg":"https://www.gutenberg.org/cache/epub/25252/pg25252.cover.medium.jpg","application/octet-stream":"https://www.gutenberg.org/cache/epub/25252/pg25252-h.zip"},"download_count":59},{"id":25375,"title":"諧鐸","authors":[{"name":"Shen, Qifeng","birth_year":1741,"death_year":null}],"translators":[],"subjects":["Chinese fiction -- Qing dynasty, 1644-1912","Short stories, Chinese"],"bookshelves":[],"languages":["zh"],"copyright":false,"media_type":"Text","formats":{"text/html":"https://www.gutenberg.org/ebooks/25375.html.images","application/epub+zip":"https://www.gutenberg.org/ebooks/25375.epub3.images","application/x-mobipocket-ebook":"https://www.gutenberg.org/ebooks/25375.kf8.images","text/plain; charset=us-ascii":"https://www.gutenberg.org/ebooks/25375.txt.utf-8","text/plain; charset=utf-8":"https://www.gutenberg.org/files/25375/25375-0.txt","application/rdf+xml":"https://www.gutenberg.org/ebooks/25375.rdf","image/jpeg":"https://www.gutenberg.org/cache/epub/25375/pg25375.cover.medium.jpg","application/octet-stream":"https://www.gutenberg.org/cache/epub/25375/pg25375-h.zip"},"download_count":59},{"id":57278,"title":"青樓夢","authors":[{"name":"Yu, Da","birth_year":null,"death_year":1884}],"translators":[],"subjects":["Chinese fiction -- Qing dynasty, 1644-1912"],"bookshelves":[],"languages":["zh"],"copyright":false,"media_type":"Text","formats":{"text/html":"https://www.gutenberg.org/ebooks/57278.html.images","application/epub+zip":"https://www.gutenberg.org/ebooks/57278.epub3.images","application/x-mobipocket-ebook":"https://www.gutenberg.org/ebooks/57278.kf8.images","text/plain; charset=us-ascii":"https://www.gutenberg.org/ebooks/57278.txt.utf-8","text/plain; charset=utf-8":"https://www.gutenberg.org/files/57278/57278-0.txt","application/rdf+xml":"https://www.gutenberg.org/ebooks/57278.rdf","image/jpeg":"https://www.gutenberg.org/cache/epub/57278/pg57278.cover.medium.jpg","application/octet-stream":"https://www.gutenberg.org/cache/epub/57278/pg57278-h.zip"},"download_count":59},{"id":25517,"title":"傳習錄","authors":[{"name":"Wang, Yangming","birth_year":1472,"death_year":1529}],"translators":[],"subjects":["Neo-Confucianism -- China","Philosophy, Chinese -- 960-1644"],"bookshelves":[],"languages":["zh"],"copyright":false,"media_type":"Text","formats":{"text/html":"https://www.gutenberg.org/ebooks/25517.html.images","application/epub+zip":"https://www.gutenberg.org/ebooks/25517.epub3.images","application/x-mobipocket-ebook":"https://www.gutenberg.org/ebooks/25517.kf8.images","text/plain; charset=us-ascii":"https://www.gutenberg.org/ebooks/25517.txt.utf-8","text/plain; charset=utf-8":"https://www.gutenberg.org/files/25517/25517-0.txt","application/rdf+xml":"https://www.gutenberg.org/ebooks/25517.rdf","image/jpeg":"https://www.gutenberg.org/cache/epub/25517/pg25517.cover.medium.jpg","application/octet-stream":"https://www.gutenberg.org/cache/epub/25517/pg25517-h.zip"},"download_count":58},{"id":27104,"title":"歸蓮夢","authors":[{"name":"Su'anzhuren, active 18th century","birth_year":null,"death_year":null}],"translators":[],"subjects":["Chinese fiction -- Qing dynasty, 1644-1912"],"bookshelves":[],"languages":["zh"],"copyright":false,"media_type":"Text","formats":{"text/html":"https://www.gutenberg.org/ebooks/27104.html.images","application/epub+zip":"https://www.gutenberg.org/ebooks/27104.epub3.images","application/x-mobipocket-ebook":"https://www.gutenberg.org/ebooks/27104.kf8.images","text/plain; charset=us-ascii":"https://www.gutenberg.org/ebooks/27104.txt.utf-8","text/plain; charset=utf-8":"https://www.gutenberg.org/files/27104/27104-0.txt","application/rdf+xml":"https://www.gutenberg.org/ebooks/27104.rdf","image/jpeg":"https://www.gutenberg.org/cache/epub/27104/pg27104.cover.medium.jpg","application/octet-stream":"https://www.gutenberg.org/cache/epub/27104/pg27104-h.zip"},"download_count":58},{"id":27165,"title":"西湖夢尋","authors":[{"name":"Zhang, Dai","birth_year":1597,"death_year":1679}],"translators":[],"subjects":["West Lake (China) -- Description and travel","West Lake (China) -- History"],"bookshelves":[],"languages":["zh"],"copyright":false,"media_type":"Text","formats":{"text/html":"https://www.gutenberg.org/ebooks/27165.html.images","application/epub+zip":"https://www.gutenberg.org/ebooks/27165.epub3.images","application/x-mobipocket-ebook":"https://www.gutenberg.org/ebooks/27165.kf8.images","text/plain; charset=us-ascii":"https://www.gutenberg.org/ebooks/27165.txt.utf-8","text/plain; charset=utf-8":"https://www.gutenberg.org/files/27165/27165-0.txt","application/rdf+xml":"https://www.gutenberg.org/ebooks/27165.rdf","image/jpeg":"https://www.gutenberg.org/cache/epub/27165/pg27165.cover.medium.jpg","application/octet-stream":"https://www.gutenberg.org/cache/epub/27165/pg27165-h.zip"},"download_count":58},{"id":23834,"title":"青箱雜記","authors":[{"name":"Wu, Chuhou, jin shi 1053","birth_year":null,"death_year":null}],"translators":[],"subjects":["China -- History -- Song dynasty, 960-1279 -- Anecdotes"],"bookshelves":[],"languages":["zh"],"copyright":false,"media_type":"Text","formats":{"text/html":"https://www.gutenberg.org/ebooks/23834.html.images","application/epub+zip":"https://www.gutenberg.org/ebooks/23834.epub3.images","application/x-mobipocket-ebook":"https://www.gutenberg.org/ebooks/23834.kf8.images","text/plain; charset=us-ascii":"https://www.gutenberg.org/ebooks/23834.txt.utf-8","text/plain; charset=utf-8":"https://www.gutenberg.org/files/23834/23834-0.txt","application/rdf+xml":"https://www.gutenberg.org/ebooks/23834.rdf","image/jpeg":"https://www.gutenberg.org/cache/epub/23834/pg23834.cover.medium.jpg","application/octet-stream":"https://www.gutenberg.org/cache/epub/23834/pg23834-h.zip"},"download_count":57},{"id":24052,"title":"玉壺淸話","authors":[{"name":"Wenying, active 11th century","birth_year":null,"death_year":null}],"translators":[],"subjects":["China -- History -- Song dynasty, 960-1279 -- Anecdotes"],"bookshelves":[],"languages":["zh"],"copyright":false,"media_type":"Text","formats":{"text/html":"https://www.gutenberg.org/ebooks/24052.html.images","application/epub+zip":"https://www.gutenberg.org/ebooks/24052.epub3.images","application/x-mobipocket-ebook":"https://www.gutenberg.org/ebooks/24052.kf8.images","text/plain; charset=us-ascii":"https://www.gutenberg.org/ebooks/24052.txt.utf-8","text/plain; charset=utf-8":"https://www.gutenberg.org/files/24052/24052-0.txt","application/rdf+xml":"https://www.gutenberg.org/ebooks/24052.rdf","image/jpeg":"https://www.gutenberg.org/cache/epub/24052/pg24052.cover.medium.jpg","application/octet-stream":"https://www.gutenberg.org/cache/epub/24052/pg24052-h.zip"},"download_count":57},{"id":24185,"title":"比目魚","authors":[{"name":"Aiyuezhuren","birth_year":null,"death_year":null}],"translators":[],"subjects":["Chinese fiction"],"bookshelves":[],"languages":["zh"],"copyright":false,"media_type":"Text","formats":{"text/html":"https://www.gutenberg.org/ebooks/24185.html.images","application/epub+zip":"https://www.gutenberg.org/ebooks/24185.epub3.images","application/x-mobipocket-ebook":"https://www.gutenberg.org/ebooks/24185.kf8.images","text/plain; charset=us-ascii":"https://www.gutenberg.org/ebooks/24185.txt.utf-8","text/plain; charset=utf-8":"https://www.gutenberg.org/files/24185/24185-0.txt","application/rdf+xml":"https://www.gutenberg.org/ebooks/24185.rdf","image/jpeg":"https://www.gutenberg.org/cache/epub/24185/pg24185.cover.medium.jpg","application/octet-stream":"https://www.gutenberg.org/cache/epub/24185/pg24185-h.zip"},"download_count":57},{"id":25324,"title":"玉台新詠","authors":[],"translators":[],"subjects":["Chinese poetry -- 220-589","Chinese poetry -- Qin and Han dynasties, 221 B.C.-220 A.D."],"bookshelves":[],"languages":["zh"],"copyright":false,"media_type":"Text","formats":{"text/html":"https://www.gutenberg.org/ebooks/25324.html.images","application/epub+zip":"https://www.gutenberg.org/ebooks/25324.epub3.images","application/x-mobipocket-ebook":"https://www.gutenberg.org/ebooks/25324.kf8.images","text/plain; charset=us-ascii":"https://www.gutenberg.org/ebooks/25324.txt.utf-8","text/plain; charset=utf-8":"https://www.gutenberg.org/files/25324/25324-0.txt","application/rdf+xml":"https://www.gutenberg.org/ebooks/25324.rdf","image/jpeg":"https://www.gutenberg.org/cache/epub/25324/pg25324.cover.medium.jpg","application/octet-stream":"https://www.gutenberg.org/cache/epub/25324/pg25324-h.zip"},"download_count":57},{"id":26922,"title":"春柳鶯","authors":[{"name":"Nanbeiheguanshizhe","birth_year":null,"death_year":null}],"translators":[],"subjects":["Chinese fiction -- Qing dynasty, 1644-1912"],"bookshelves":[],"languages":["zh"],"copyright":false,"media_type":"Text","formats":{"text/html":"https://www.gutenberg.org/ebooks/26922.html.images","application/epub+zip":"https://www.gutenberg.org/ebooks/26922.epub3.images","application/x-mobipocket-ebook":"https://www.gutenberg.org/ebooks/26922.kf8.images","text/plain; charset=us-ascii":"https://www.gutenberg.org/ebooks/26922.txt.utf-8","text/plain; charset=utf-8":"https://www.gutenberg.org/files/26922/26922-0.txt","application/rdf+xml":"https://www.gutenberg.org/ebooks/26922.rdf","image/jpeg":"https://www.gutenberg.org/cache/epub/26922/pg26922.cover.medium.jpg","application/octet-stream":"https://www.gutenberg.org/cache/epub/26922/pg26922-h.zip"},"download_count":57},{"id":26931,"title":"風月夢","authors":[{"name":"Hanshangmengren, active 19th century","birth_year":null,"death_year":null}],"translators":[],"subjects":["Chinese fiction -- Qing dynasty, 1644-1912"],"bookshelves":[],"languages":["zh"],"copyright":false,"media_type":"Text","formats":{"text/html":"https://www.gutenberg.org/ebooks/26931.html.images","application/epub+zip":"https://www.gutenberg.org/ebooks/26931.epub3.images","application/x-mobipocket-ebook":"https://www.gutenberg.org/ebooks/26931.kf8.images","text/plain; charset=us-ascii":"https://www.gutenberg.org/ebooks/26931.txt.utf-8","text/plain; charset=utf-8":"https://www.gutenberg.org/files/26931/26931-0.txt","application/rdf+xml":"https://www.gutenberg.org/ebooks/26931.rdf","image/jpeg":"https://www.gutenberg.org/cache/epub/26931/pg26931.cover.medium.jpg","application/octet-stream":"https://www.gutenberg.org/cache/epub/26931/pg26931-h.zip"},"download_count":57},{"id":27166,"title":"吶喊","authors":[{"name":"Lu, Xun","birth_year":1881,"death_year":1936}],"translators":[],"subjects":["Chinese fiction -- 20th century"],"bookshelves":[],"languages":["zh"],"copyright":false,"media_type":"Text","formats":{"text/html":"https://www.gutenberg.org/ebooks/27166.html.images","application/epub+zip":"https://www.gutenberg.org/ebooks/27166.epub3.images","application/x-mobipocket-ebook":"https://www.gutenberg.org/ebooks/27166.kf8.images","text/plain; charset=us-ascii":"https://www.gutenberg.org/ebooks/27166.txt.utf-8","text/plain; charset=utf-8":"https://www.gutenberg.org/files/27166/27166-0.txt","application/rdf+xml":"https://www.gutenberg.org/ebooks/27166.rdf","image/jpeg":"https://www.gutenberg.org/cache/epub/27166/pg27166.cover.medium.jpg","application/octet-stream":"https://www.gutenberg.org/cache/epub/27166/pg27166-h.zip"},"download_count":57},{"id":23838,"title":"楊家將","authors":[{"name":"Xiong, Damu, active 16th century","birth_year":null,"death_year":null}],"translators":[],"subjects":["China -- History -- Song dynasty, 960-1279 -- Fiction"],"bookshelves":[],"languages":["zh"],"copyright":false,"media_type":"Text","formats":{"text/html":"https://www.gutenberg.org/ebooks/23838.html.images","application/epub+zip":"https://www.gutenberg.org/ebooks/23838.epub3.images","application/x-mobipocket-ebook":"https://www.gutenberg.org/ebooks/23838.kf8.images","text/plain; charset=us-ascii":"https://www.gutenberg.org/ebooks/23838.txt.utf-8","text/plain; charset=utf-8":"https://www.gutenberg.org/files/23838/23838-0.txt","application/rdf+xml":"https://www.gutenberg.org/ebooks/23838.rdf","image/jpeg":"https://www.gutenberg.org/cache/epub/23838/pg23838.cover.medium.jpg","application/octet-stream":"https://www.gutenberg.org/cache/epub/23838/pg23838-h.zip"},"download_count":56},{"id":24051,"title":"李娃傳","authors":[{"name":"Bai, Xingjian","birth_year":776,"death_year":826}],"translators":[],"subjects":["Chinese fiction -- Tang dynasty, 618-907","Li, Shishi -- Fiction","Women -- China -- Literary collections"],"bookshelves":[],"languages":["zh"],"copyright":false,"media_type":"Text","formats":{"text/html":"https://www.gutenberg.org/ebooks/24051.html.images","application/epub+zip":"https://www.gutenberg.org/ebooks/24051.epub3.images","application/x-mobipocket-ebook":"https://www.gutenberg.org/ebooks/24051.kf8.images","text/plain; charset=us-ascii":"https://www.gutenberg.org/ebooks/24051.txt.utf-8","text/plain; charset=utf-8":"https://www.gutenberg.org/files/24051/24051-0.txt","application/rdf+xml":"https://www.gutenberg.org/ebooks/24051.rdf","image/jpeg":"https://www.gutenberg.org/cache/epub/24051/pg24051.cover.medium.jpg","application/octet-stream":"https://www.gutenberg.org/cache/epub/24051/pg24051-h.zip"},"download_count":56},{"id":25192,"title":"浮生六記","authors":[{"name":"Shen, Fu","birth_year":1763,"death_year":null}],"translators":[],"subjects":["Authors, Chinese -- Biography","Shen, Fu, 1763-ca. 1808"],"bookshelves":[],"languages":["zh"],"copyright":false,"media_type":"Text","formats":{"text/html":"https://www.gutenberg.org/ebooks/25192.html.images","application/epub+zip":"https://www.gutenberg.org/ebooks/25192.epub3.images","application/x-mobipocket-ebook":"https://www.gutenberg.org/ebooks/25192.kf8.images","text/plain; charset=us-ascii":"https://www.gutenberg.org/ebooks/25192.txt.utf-8","text/plain; charset=utf-8":"https://www.gutenberg.org/files/25192/25192-0.txt","application/rdf+xml":"https://www.gutenberg.org/ebooks/25192.rdf","image/jpeg":"https://www.gutenberg.org/cache/epub/25192/pg25192.cover.medium.jpg","application/octet-stream":"https://www.gutenberg.org/cache/epub/25192/pg25192-h.zip"},"download_count":56},{"id":25696,"title":"抱朴子","authors":[{"name":"Ge, Hong","birth_year":284,"death_year":364}],"translators":[],"subjects":["Taoism"],"bookshelves":[],"languages":["zh"],"copyright":false,"media_type":"Text","formats":{"text/html":"https://www.gutenberg.org/ebooks/25696.html.images","application/epub+zip":"https://www.gutenberg.org/ebooks/25696.epub3.images","application/x-mobipocket-ebook":"https://www.gutenberg.org/ebooks/25696.kf8.images","text/plain; charset=us-ascii":"https://www.gutenberg.org/ebooks/25696.txt.utf-8","text/plain; charset=utf-8":"https://www.gutenberg.org/files/25696/25696-0.txt","application/rdf+xml":"https://www.gutenberg.org/ebooks/25696.rdf","image/jpeg":"https://www.gutenberg.org/cache/epub/25696/pg25696.cover.medium.jpg","application/octet-stream":"https://www.gutenberg.org/cache/epub/25696/pg25696-h.zip"},"download_count":56},{"id":27263,"title":"張載集","authors":[{"name":"Zhang, Zai","birth_year":1020,"death_year":1077}],"translators":[],"subjects":["Philosophy, Chinese"],"bookshelves":[],"languages":["zh"],"copyright":false,"media_type":"Text","formats":{"text/html":"https://www.gutenberg.org/ebooks/27263.html.images","application/epub+zip":"https://www.gutenberg.org/ebooks/27263.epub3.images","application/x-mobipocket-ebook":"https://www.gutenberg.org/ebooks/27263.kf8.images","text/plain; charset=us-ascii":"https://www.gutenberg.org/ebooks/27263.txt.utf-8","text/plain; charset=utf-8":"https://www.gutenberg.org/files/27263/27263-0.txt","application/rdf+xml":"https://www.gutenberg.org/ebooks/27263.rdf","image/jpeg":"https://www.gutenberg.org/cache/epub/27263/pg27263.cover.medium.jpg","application/octet-stream":"https://www.gutenberg.org/cache/epub/27263/pg27263-h.zip"},"download_count":56},{"id":23833,"title":"商君書","authors":[{"name":"Shang, Yang","birth_year":null,"death_year":-338}],"translators":[],"subjects":["China -- Politics and government -- To 221 B.C.","Political science -- Early works to 1800"],"bookshelves":[],"languages":["zh"],"copyright":false,"media_type":"Text","formats":{"text/html":"https://www.gutenberg.org/ebooks/23833.html.images","application/epub+zip":"https://www.gutenberg.org/ebooks/23833.epub3.images","application/x-mobipocket-ebook":"https://www.gutenberg.org/ebooks/23833.kf8.images","text/plain; charset=us-ascii":"https://www.gutenberg.org/ebooks/23833.txt.utf-8","text/plain; charset=utf-8":"https://www.gutenberg.org/files/23833/23833-0.txt","application/rdf+xml":"https://www.gutenberg.org/ebooks/23833.rdf","image/jpeg":"https://www.gutenberg.org/cache/epub/23833/pg23833.cover.medium.jpg","application/octet-stream":"https://www.gutenberg.org/cache/epub/23833/pg23833-h.zip"},"download_count":55},{"id":24183,"title":"宋史","authors":[{"name":"Tuotuo","birth_year":1313,"death_year":1355}],"translators":[],"subjects":["China -- History -- Song dynasty, 960-1279"],"bookshelves":[],"languages":["zh"],"copyright":false,"media_type":"Text","formats":{"text/html":"https://www.gutenberg.org/ebooks/24183.html.images","application/epub+zip":"https://www.gutenberg.org/ebooks/24183.epub3.images","application/x-mobipocket-ebook":"https://www.gutenberg.org/ebooks/24183.kf8.images","text/plain; charset=us-ascii":"https://www.gutenberg.org/ebooks/24183.txt.utf-8","text/plain; charset=utf-8":"https://www.gutenberg.org/files/24183/24183-0.txt","application/rdf+xml":"https://www.gutenberg.org/ebooks/24183.rdf","image/jpeg":"https://www.gutenberg.org/cache/epub/24183/pg24183.cover.medium.jpg","application/octet-stream":"https://www.gutenberg.org/cache/epub/24183/pg24183-h.zip"},"download_count":55},{"id":25259,"title":"公墓","authors":[{"name":"Mu, Shiying","birth_year":null,"death_year":null}],"translators":[],"subjects":["Short stories, Chinese"],"bookshelves":[],"languages":["zh"],"copyright":false,"media_type":"Text","formats":{"text/html":"https://www.gutenberg.org/ebooks/25259.html.images","application/epub+zip":"https://www.gutenberg.org/ebooks/25259.epub3.images","application/x-mobipocket-ebook":"https://www.gutenberg.org/ebooks/25259.kf8.images","text/plain; charset=us-ascii":"https://www.gutenberg.org/ebooks/25259.txt.utf-8","text/plain; charset=utf-8":"https://www.gutenberg.org/files/25259/25259-0.txt","application/rdf+xml":"https://www.gutenberg.org/ebooks/25259.rdf","image/jpeg":"https://www.gutenberg.org/cache/epub/25259/pg25259.cover.medium.jpg","application/octet-stream":"https://www.gutenberg.org/cache/epub/25259/pg25259-h.zip"},"download_count":55},{"id":25273,"title":"天工開物","authors":[{"name":"Song, Yingxing","birth_year":1587,"death_year":null}],"translators":[],"subjects":["Science -- China -- History","Technology -- China -- History"],"bookshelves":[],"languages":["zh"],"copyright":false,"media_type":"Text","formats":{"text/html":"https://www.gutenberg.org/ebooks/25273.html.images","application/epub+zip":"https://www.gutenberg.org/ebooks/25273.epub3.images","application/x-mobipocket-ebook":"https://www.gutenberg.org/ebooks/25273.kf8.images","text/plain; charset=us-ascii":"https://www.gutenberg.org/ebooks/25273.txt.utf-8","text/plain; charset=utf-8":"https://www.gutenberg.org/files/25273/25273-0.txt","application/rdf+xml":"https://www.gutenberg.org/ebooks/25273.rdf","image/jpeg":"https://www.gutenberg.org/cache/epub/25273/pg25273.cover.medium.jpg","application/octet-stream":"https://www.gutenberg.org/cache/epub/25273/pg25273-h.zip"},"download_count":55},{"id":26872,"title":"海上花列傳","authors":[{"name":"Han, Bangqing","birth_year":1856,"death_year":1894}],"translators":[],"subjects":["Chinese fiction -- Qing dynasty, 1644-1912"],"bookshelves":[],"languages":["zh"],"copyright":false,"media_type":"Text","formats":{"text/html":"https://www.gutenberg.org/ebooks/26872.html.images","application/epub+zip":"https://www.gutenberg.org/ebooks/26872.epub3.images","application/x-mobipocket-ebook":"https://www.gutenberg.org/ebooks/26872.kf8.images","text/plain; charset=us-ascii":"https://www.gutenberg.org/ebooks/26872.txt.utf-8","text/plain; charset=utf-8":"https://www.gutenberg.org/files/26872/26872-0.txt","application/rdf+xml":"https://www.gutenberg.org/ebooks/26872.rdf","image/jpeg":"https://www.gutenberg.org/cache/epub/26872/pg26872.cover.medium.jpg","application/octet-stream":"https://www.gutenberg.org/cache/epub/26872/pg26872-h.zip"},"download_count":55},{"id":27082,"title":"楊家將演義","authors":[{"name":"Xiong, Damu, active 16th century","birth_year":null,"death_year":null}],"translators":[],"subjects":["China -- History -- Song dynasty, 960-1279 -- Fiction"],"bookshelves":[],"languages":["zh"],"copyright":false,"media_type":"Text","formats":{"text/html":"https://www.gutenberg.org/ebooks/27082.html.images","application/epub+zip":"https://www.gutenberg.org/ebooks/27082.epub3.images","application/x-mobipocket-ebook":"https://www.gutenberg.org/ebooks/27082.kf8.images","text/plain; charset=us-ascii":"https://www.gutenberg.org/ebooks/27082.txt.utf-8","text/plain; charset=utf-8":"https://www.gutenberg.org/files/27082/27082-0.txt","application/rdf+xml":"https://www.gutenberg.org/ebooks/27082.rdf","image/jpeg":"https://www.gutenberg.org/cache/epub/27082/pg27082.cover.medium.jpg","application/octet-stream":"https://www.gutenberg.org/cache/epub/27082/pg27082-h.zip"},"download_count":55},{"id":23906,"title":"西廂記","authors":[{"name":"Wang, Shifu","birth_year":1260,"death_year":1316}],"translators":[],"subjects":["Chinese drama -- Yuan dynasty, 1260-1368"],"bookshelves":[],"languages":["zh"],"copyright":false,"media_type":"Text","formats":{"text/html":"https://www.gutenberg.org/ebooks/23906.html.images","application/epub+zip":"https://www.gutenberg.org/ebooks/23906.epub3.images","application/x-mobipocket-ebook":"https://www.gutenberg.org/ebooks/23906.kf8.images","text/plain; charset=us-ascii":"https://www.gutenberg.org/ebooks/23906.txt.utf-8","text/plain; charset=utf-8":"https://www.gutenberg.org/files/23906/23906-0.txt","application/rdf+xml":"https://www.gutenberg.org/ebooks/23906.rdf","image/jpeg":"https://www.gutenberg.org/cache/epub/23906/pg23906.cover.medium.jpg","application/octet-stream":"https://www.gutenberg.org/cache/epub/23906/pg23906-h.zip"},"download_count":54},{"id":25280,"title":"大唐新語","authors":[{"name":"Liu, Su, active 806-820","birth_year":null,"death_year":null}],"translators":[],"subjects":["China -- History -- Tang dynasty, 618-907 -- Anecdotes"],"bookshelves":[],"languages":["zh"],"copyright":false,"media_type":"Text","formats":{"text/html":"https://www.gutenberg.org/ebooks/25280.html.images","application/epub+zip":"https://www.gutenberg.org/ebooks/25280.epub3.images","application/x-mobipocket-ebook":"https://www.gutenberg.org/ebooks/25280.kf8.images","text/plain; charset=us-ascii":"https://www.gutenberg.org/ebooks/25280.txt.utf-8","text/plain; charset=utf-8":"https://www.gutenberg.org/files/25280/25280-0.txt","application/rdf+xml":"https://www.gutenberg.org/ebooks/25280.rdf","image/jpeg":"https://www.gutenberg.org/cache/epub/25280/pg25280.cover.medium.jpg","application/octet-stream":"https://www.gutenberg.org/cache/epub/25280/pg25280-h.zip"},"download_count":54},{"id":27092,"title":"括異志","authors":[{"name":"Zhang, Shizheng, active 11th century","birth_year":null,"death_year":null}],"translators":[],"subjects":["China -- History -- Song dynasty, 960-1279 -- Anecdotes","Legends -- China"],"bookshelves":[],"languages":["zh"],"copyright":false,"media_type":"Text","formats":{"text/html":"https://www.gutenberg.org/ebooks/27092.html.images","application/epub+zip":"https://www.gutenberg.org/ebooks/27092.epub3.images","application/x-mobipocket-ebook":"https://www.gutenberg.org/ebooks/27092.kf8.images","text/plain; charset=us-ascii":"https://www.gutenberg.org/ebooks/27092.txt.utf-8","text/plain; charset=utf-8":"https://www.gutenberg.org/files/27092/27092-0.txt","application/rdf+xml":"https://www.gutenberg.org/ebooks/27092.rdf","image/jpeg":"https://www.gutenberg.org/cache/epub/27092/pg27092.cover.medium.jpg","application/octet-stream":"https://www.gutenberg.org/cache/epub/27092/pg27092-h.zip"},"download_count":54}]}