{"count":444,"next":"http://129.241.150.113:8000/books/?languages=zh&page=3","previous":"http://129.241.150.113:8000/books/?languages=zh","results":[{"id":25558,"title":"呻吟語","authors":[{"name":"Lü, Kun","birth_year":1536,"death_year":1618}],"translators":[],"subjects":["Conduct of life"],"bookshelves":[],"languages":["zh"],"copyright":false,"media_type":"Text","formats":{"text/html":"https://www.gutenberg.org/ebooks/25558.html.images","application/epub+zip":"https://www.gutenberg.org/ebooks/25558.epub3.images","application/x-mobipocket-ebook":"https://www.gutenberg.org/ebooks/25558.kf8.images","text/plain; charset=us-ascii":"https://www.gutenberg.org/ebooks/25558.txt.utf-8","text/plain; charset=utf-8":"https://www.gutenberg.org/files/25558/25558-0.txt","application/rdf+xml":"https://www.gutenberg.org/ebooks/25558.rdf","image/jpeg":"https://www.gutenberg.org/cache/epub/25558/pg25558.cover.medium.jpg","application/octet-stream":"https://www.gutenberg.org/cache/epub/25558/pg25558-h.zip"},"download_count":217},{"id":38585,"title":"Study of Inner Cultivation","authors":[{"name":"Anonymous","birth_year":null,"death_year":null}],"translators":[{"name":"Linnell, Bruce R.","birth_year":null,"death_year":null}],"subjects":["Taoism"],"bookshelves":[],"languages":["en","zh"],"copyright":true,"media_type":"Text","formats":{"text/html":"https://www.gutenberg.org/ebooks/38585.html.images","application/epub+zip":"https://www.gutenberg.org/ebooks/38585.epub3.images","application/pdf":"https://www.gutenberg.org/files/38585/38585-pdf/38585-pdf.pdf","application/x-mobipocket-ebook":"https://www.gutenberg.org/ebooks/38585.kf8.images","text/plain; charset=us-ascii":"https://www.gutenberg.org/ebooks/38585.txt.utf-8","application/rdf+xml":"https://www.gutenberg.org/ebooks/38585.rdf","image/jpeg":"https://www.gutenberg.org/cache/epub/38585/pg38585.cover.medium.jpg","application/octet-stream":"https://www.gutenberg.org/cache/epub/38585/pg38585-h.zip"},"download_count":212},{"id":23908,"title":"夢中緣","authors":[{"name":"Li, Xiuxing, jin shi 1715","birth_year":null,"death_year":null}],"translators":[],"subjects":["Chinese fiction -- Ming dynasty, 1368-1644","Love stories, Chinese"],"bookshelves":[],"languages":["zh"],"copyright":false,"media_type":"Text","formats":{"text/html":"https://www.gutenberg.org/ebooks/23908.html.images","application/epub+zip":"https://www.gutenberg.org/ebooks/23908.epub3.images","application/x-mobipocket-ebook":"https://www.gutenberg.org/ebooks/23908.kf8.images","text/plain; charset=us-ascii":"https://www.gutenberg.org/ebooks/23908.txt.utf-8","text/plain; charset=utf-8":"https://www.gutenberg.org/files/23908/23908-0.txt","application/rdf+xml":"https://www.gutenberg.org/ebooks/23908.rdf","image/jpeg":"https://www.gutenberg.org/cache/epub/23908/pg23908.cover.medium.jpg","application/octet-stream":"https://www.gutenberg.org/cache/epub/23908/pg23908-h.zip"},"download_count":211},{"id":23863,"title":"水滸傳","authors":[{"name":"Shi, Nai'an","birth_year":null,"death_year":null}],"translators":[],"subjects":["China -- History -- Song dynasty, 960-1279 -- Fiction","China -- Social life and customs -- 960-1644 -- Fiction","Heroes -- Fiction","Robbers and outlaws -- Fiction"],"bookshelves":[],"languages":["zh"],"copyright":false,"media_type":"Text","formats":{"text/html":"https://www.gutenberg.org/ebooks/23863.html.images","application/epub+zip":"https://www.gutenberg.org/ebooks/23863.epub3.images","application/x-mobipocket-ebook":"https://www.gutenberg.org/ebooks/23863.kf8.images","text/plain; charset=us-ascii":"https://www.gutenberg.org/ebooks/23863.txt.utf-8","text/plain; charset=utf-8":"https://www.gutenberg.org/files/23863/23863-0.txt","application/rdf+xml":"https://www.gutenberg.org/ebooks/23863.rdf","image/jpeg":"https://www.gutenberg.org/cache/epub/23863/pg23863.cover.medium.jpg","application/octet-stream":"https://www.gutenberg.org/cache/epub/23863/pg23863-h.zip"},"download_count":207},{"id":25146,"title":"山水情","authors":[{"name":"Anonymous","birth_year":null,"death_year":null}],"translators":[],"subjects":["Chinese fiction"],"bookshelves":[],"languages":["zh"],"copyright":false,"media_type":"Text","formats":{"text/html":"https://www.gutenberg.org/ebooks/25146.html.images","application/epub+zip":"https://www.gutenberg.org/ebooks/25146.epub3.images","application/x-mobipocket-ebook":"https://www.gutenberg.org/ebooks/25146.kf8.images","text/plain; charset=us-ascii":"https://www.gutenberg.org/ebooks/25146.txt.utf-8","text/plain; charset=utf-8":"https://www.gutenberg.org/files/25146/25146-0.txt","application/rdf+xml":"https://www.gutenberg.org/ebooks/25146.rdf","image/jpeg":"https://www.gutenberg.org/cache/epub/25146/pg25146.cover.medium.jpg","application/octet-stream":"https://www.gutenberg.org/cache/epub/25146/pg25146-h.zip"},"download_count":206},{"id":29032,"title":"海國春秋","authors":[{"name":"Wang, Ji","birth_year":null,"death_year":null}],"translators":[],"subjects":["Chinese fiction -- Qing dynasty, 1644-1912"],"bookshelves":[],"languages":["zh"],"copyright":false,"media_type":"Text","formats":{"text/html":"https://www.gutenberg.org/ebooks/29032.html.images","application/epub+zip":"https://www.gutenberg.org/ebooks/29032.epub3.images","application/x-mobipocket-ebook":"https://www.gutenberg.org/ebooks/29032.kf8.images","text/plain; charset=us-ascii":"https://www.gutenberg.org/ebooks/29032.txt.utf-8","text/plain; charset=utf-8":"https://www.gutenberg.org/files/29032/29032-0.txt","application/rdf+xml":"https://www.gutenberg.org/ebooks/29032.rdf","image/jpeg":"https://www.gutenberg.org/cache/epub/29032/pg29032.cover.medium.jpg","application/octet-stream":"https://www.gutenberg.org/cache/epub/29032/pg29032-h.zip"},"download_count":202},{"id":24113,"title":"九命奇冤","authors":[{"name":"Wu, Jianren","birth_year":1866,"death_year":1910}],"translators":[],"subjects":["Chinese fiction -- Qing dynasty, 1644-1912","Short stories, Chinese"],"bookshelves":[],"languages":["zh"],"copyright":false,"media_type":"Text","formats":{"text/html":"https://www.gutenberg.org/ebooks/24113.html.images","application/epub+zip":"https://www.gutenberg.org/ebooks/24113.epub3.images","application/x-mobipocket-ebook":"https://www.gutenberg.org/ebooks/24113.kf8.images","text/plain; charset=us-ascii":"https://www.gutenberg.org/ebooks/24113.txt.utf-8","text/plain; charset=utf-8":"https://www.gutenberg.org/files/24113/24113-0.txt","application/rdf+xml":"https://www.gutenberg.org/ebooks/24113.rdf","image/jpeg":"https://www.gutenberg.org/cache/epub/24113/pg24113.cover.medium.jpg","application/octet-stream":"https://www.gutenberg.org/cache/epub/24113/pg24113-h.zip"},"download_count":201},{"id":23835,"title":"隋唐演義","authors":[{"name":"Chu, Renhu, active 1675-1695","birth_year":null,"death_year":null}],"translators":[],"subjects":["China -- History -- Sui dynasty, 581-618 -- Fiction","China -- History -- Tang dynasty, 618-907 -- Fiction"],"bookshelves":[],"languages":["zh"],"copyright":false,"media_type":"Text","formats":{"text/html":"https://www.gutenberg.org/ebooks/23835.html.images","application/epub+zip":"https://www.gutenberg.org/ebooks/23835.epub3.images","application/x-mobipocket-ebook":"https://www.gutenberg.org/ebooks/23835.kf8.images","text/plain; charset=us-ascii":"https://www.gutenberg.org/ebooks/23835.txt.utf-8","text/plain; charset=utf-8":"https://www.gutenberg.org/files/23835/23835-0.txt","application/rdf+xml":"https://www.gutenberg.org/ebooks/23835.rdf","image/jpeg":"https://www.gutenberg.org/cache/epub/23835/pg23835.cover.medium.jpg","application/octet-stream":"https://www.gutenberg.org/cache/epub/23835/pg23835-h.zip"},"download_count":199},{"id":25377,"title":"鏡花緣","authors":[{"name":"Li, Ruzhen","birth_year":null,"death_year":null}],"translators":[],"subjects":["Chinese fiction -- Qing dynasty, 1644-1912","Fantasy fiction, Chinese"],"bookshelves":[],"languages":["zh"],"copyright":false,"media_type":"Text","formats":{"text/html":"https://www.gutenberg.org/ebooks/25377.html.images","application/epub+zip":"https://www.gutenberg.org/ebooks/25377.epub3.images","application/x-mobipocket-ebook":"https://www.gutenberg.org/ebooks/25377.kf8.images","text/plain; charset=us-ascii":"https://www.gutenberg.org/ebooks/25377.txt.utf-8","text/plain; charset=utf-8":"https://www.gutenberg.org/files/25377/25377-0.txt","application/rdf+xml":"https://www.gutenberg.org/ebooks/25377.rdf","image/jpeg":"https://www.gutenberg.org/cache/epub/25377/pg25377.cover.medium.jpg","application/octet-stream":"https://www.gutenberg.org/cache/epub/25377/pg25377-h.zip"},"download_count":198},{"id":27059,"title":"Hu Die Mei: Yuan Yang Meng","authors":[{"name":"Nanyuedaoren","birth_year":null,"death_year":null}],"translators":[],"subjects":[],"bookshelves":[],"languages":["zh"],"copyright":false,"media_type":"Text","formats":{"text/html":"https://www.gutenberg.org/ebooks/27059.html.images","application/epub+zip":"https://www.gutenberg.org/ebooks/27059.epub3.images","application/x-mobipocket-ebook":"https://www.gutenberg.org/ebooks/27059.kf8.images","text/plain; charset=us-ascii":"https://www.gutenberg.org/ebooks/27059.txt.utf-8","text/plain; charset=utf-8":"https://www.gutenberg.org/files/27059/27059-0.txt","application/rdf+xml":"https://www.gutenberg.org/ebooks/27059.rdf","image/jpeg":"https://www.gutenberg.org/cache/epub/27059/pg27059.cover.medium.jpg","application/octet-stream":"https://www.gutenberg.org/cache/epub/27059/pg27059-h.zip"},"download_count":196},{"id":27330,"title":"綠牡丹","authors":[{"name":"Anonymous","birth_year":null,"death_year":null}],"translators":[],"subjects":[],"bookshelves":[],"languages":["zh"],"copyright":false,"media_type":"Text","formats":{"text/html":"https://www.gutenberg.org/ebooks/27330.html.images","application/epub+zip":"https://www.gutenberg.org/ebooks/27330.epub3.images","application/x-mobipocket-ebook":"https://www.gutenberg.org/ebooks/27330.kf8.images","text/plain; charset=us-ascii":"https://www.gutenberg.org/ebooks/27330.txt.utf-8","text/plain; charset=utf-8":"https://www.gutenberg.org/files/27330/27330-0.txt","application/rdf+xml":"https://www.gutenberg.org/ebooks/27330.rdf","image/jpeg":"https://www.gutenberg.org/cache/epub/27330/pg27330.cover.medium.jpg","application/octet-stream":"https://www.gutenberg.org/cache/epub/27330/pg27330-h.zip"},"download_count":195},{"id":27582,"title":"喻世明言","authors":[{"name":"Feng, Menglong","birth_year":1574,"death_year":1646}],"translators":[],"subjects":["Short stories, Chinese"],"bookshelves":[],"languages":["zh"],"copyright":false,"media_type":"Text","formats":{"text/html":"https://www.gutenberg.org/ebooks/27582.html.images","application/epub+zip":"https://www.gutenberg.org/ebooks/27582.epub3.images","application/x-mobipocket-ebook":"https://www.gutenberg.org/ebooks/27582.kf8.images","text/plain; charset=us-ascii":"https://www.gutenberg.org/ebooks/27582.txt.utf-8","text/plain; charset=utf-8":"https://www.gutenberg.org/files/27582/27582-0.txt","application/rdf+xml":"https://www.gutenberg.org/ebooks/27582.rdf","image/jpeg":"https://www.gutenberg.org/cache/epub/27582/pg27582.cover.medium.jpg","application/octet-stream":"https://www.gutenberg.org/cache/epub/27582/pg27582-h.zip"},"download_count":195},{"id":25229,"title":"飛龍全傳","authors":[{"name":"Wu, Xuan, active 18th century","birth_year":null,"death_year":null}],"translators":[],"subjects":["Song Taizu, Emperor of China, 927-976 -- Fiction"],"bookshelves":[],"languages":["zh"],"copyright":false,"media_type":"Text","formats":{"text/html":"https://www.gutenberg.org/ebooks/25229.html.images","application/epub+zip":"https://www.gutenberg.org/ebooks/25229.epub3.images","application/x-mobipocket-ebook":"https://www.gutenberg.org/ebooks/25229.kf8.images","text/plain; charset=us-ascii":"https://www.gutenberg.org/ebooks/25229.txt.utf-8","text/plain; charset=utf-8":"https://www.gutenberg.org/files/25229/25229-0.txt","application/rdf+xml":"https://www.gutenberg.org/ebooks/25229.rdf","image/jpeg":"https://www.gutenberg.org/cache/epub/25229/pg25229.cover.medium.jpg","application/octet-stream":"https://www.gutenberg.org/cache/epub/25229/pg25229-h.zip"},"download_count":186},{"id":25606,"title":"三國志","authors":[{"name":"Chen, Shou","birth_year":233,"death_year":297}],"translators":[],"subjects":["China -- History -- Three kingdoms, 220-265"],"bookshelves":[],"languages":["zh"],"copyright":false,"media_type":"Text","formats":{"text/html":"https://www.gutenberg.org/ebooks/25606.html.images","application/epub+zip":"https://www.gutenberg.org/ebooks/25606.epub3.images","application/x-mobipocket-ebook":"https://www.gutenberg.org/ebooks/25606.kf8.images","text/plain; charset=us-ascii":"https://www.gutenberg.org/ebooks/25606.txt.utf-8","text/plain; charset=utf-8":"https://www.gutenberg.org/files/25606/25606-0.txt","application/rdf+xml":"https://www.gutenberg.org/ebooks/25606.rdf","image/jpeg":"https://www.gutenberg.org/cache/epub/25606/pg25606.cover.medium.jpg","application/octet-stream":"https://www.gutenberg.org/cache/epub/25606/pg25606-h.zip"},"download_count":183},{"id":23938,"title":"木蘭奇女傳","authors":[{"name":"Anonymous","birth_year":null,"death_year":null}],"translators":[],"subjects":["Hua, Mulan (Legendary character) -- Fiction"],"bookshelves":[],"languages":["zh"],"copyright":false,"media_type":"Text","formats":{"text/html":"https://www.gutenberg.org/ebooks/23938.html.images","application/epub+zip":"https://www.gutenberg.org/ebooks/23938.epub3.images","application/x-mobipocket-ebook":"https://www.gutenberg.org/ebooks/23938.kf8.images","text/plain; charset=us-ascii":"https://www.gutenberg.org/ebooks/23938.txt.utf-8","text/plain; charset=utf-8":"https://www.gutenberg.org/files/23938/23938-0.txt","application/rdf+xml":"https://www.gutenberg.org/ebooks/23938.rdf","image/jpeg":"https://www.gutenberg.org/cache/epub/23938/pg23938.cover.medium.jpg","application/octet-stream":"https://www.gutenberg.org/cache/epub/23938/pg23938-h.zip"},"download_count":182},{"id":27185,"title":"宛如約","authors":[{"name":"Xihuazhuren","birth_year":null,"death_year":null}],"translators":[],"subjects":[],"bookshelves":[],"languages":["zh"],"copyright":false,"media_type":"Text","formats":{"text/html":"https://www.gutenberg.org/ebooks/27185.html.images","application/epub+zip":"https://www.gutenberg.org/ebooks/27185.epub3.images","application/x-mobipocket-ebook":"https://www.gutenberg.org/ebooks/27185.kf8.images","text/plain; charset=us-ascii":"https://www.gutenberg.org/ebooks/27185.txt.utf-8","text/plain; charset=utf-8":"https://www.gutenberg.org/files/27185/27185-0.txt","application/rdf+xml":"https://www.gutenberg.org/ebooks/27185.rdf","image/jpeg":"https://www.gutenberg.org/cache/epub/27185/pg27185.cover.medium.jpg","application/octet-stream":"https://www.gutenberg.org/cache/epub/27185/pg27185-h.zip"},"download_count":181},{"id":23825,"title":"施公案","authors":[{"name":"Anonymous","birth_year":null,"death_year":null}],"translators":[],"subjects":["Chinese fiction -- Qing dynasty, 1644-1912"],"bookshelves":[],"languages":["zh"],"copyright":false,"media_type":"Text","formats":{"text/html":"https://www.gutenberg.org/ebooks/23825.html.images","application/epub+zip":"https://www.gutenberg.org/ebooks/23825.epub3.images","application/x-mobipocket-ebook":"https://www.gutenberg.org/ebooks/23825.kf8.images","text/plain; charset=us-ascii":"https://www.gutenberg.org/ebooks/23825.txt.utf-8","text/plain; charset=utf-8":"https://www.gutenberg.org/files/23825/23825-0.txt","application/rdf+xml":"https://www.gutenberg.org/ebooks/23825.rdf","image/jpeg":"https://www.gutenberg.org/cache/epub/23825/pg23825.cover.medium.jpg","application/octet-stream":"https://www.gutenberg.org/cache/epub/23825/pg23825-h.zip"},"download_count":179},{"id":25219,"title":"花月痕","authors":[{"name":"Wei, Zi'an","birth_year":1819,"death_year":1874}],"translators":[],"subjects":["Chinese fiction -- Qing dynasty, 1644-1912"],"bookshelves":[],"languages":["zh"],"copyright":false,"media_type":"Text","formats":{"text/html":"https://www.gutenberg.org/ebooks/25219.html.images","application/epub+zip":"https://www.gutenberg.org/ebooks/25219.epub3.images","application/x-mobipocket-ebook":"https://www.gutenberg.org/ebooks/25219.kf8.images","text/plain; charset=us-ascii":"https://www.gutenberg.org/ebooks/25219.txt.utf-8","text/plain; charset=utf-8":"https://www.gutenberg.org/files/25219/25219-0.txt","application/rdf+xml":"https://www.gutenberg.org/ebooks/25219.rdf","image/jpeg":"https://www.gutenberg.org/cache/epub/25219/pg25219.cover.medium.jpg","application/octet-stream":"https://www.gutenberg.org/cache/epub/25219/pg25219-h.zip"},"download_count":177},{"id":54494,"title":"海公案","authors":[{"name":"Anonymous","birth_year":null,"death_year":null}],"translators":[],"subjects":["Hai, Rui, 1514-1587 -- Fiction"],"bookshelves":[],"languages":["zh"],"copyright":false,"media_type":"Text","formats":{"text/html":"https://www.gutenberg.org/ebooks/54494.html.images","application/epub+zip":"https://www.gutenberg.org/ebooks/54494.epub3.images","application/x-mobipocket-ebook":"https://www.gutenberg.org/ebooks/54494.kf8.images","text/plain; charset=us-ascii":"https://www.gutenberg.org/ebooks/54494.txt.utf-8","text/plain; charset=utf-8":"https://www.gutenberg.org/files/54494/54494-0.txt","application/rdf+xml":"https://www.gutenberg.org/ebooks/54494.rdf","image/jpeg":"https://www.gutenberg.org/cache/epub/54494/pg54494.cover.medium.jpg","application/octet-stream":"https://www.gutenberg.org/cache/epub/54494/pg54494-h.zip"},"download_count":171},{"id":24021,"title":"杜騙新書","authors":[{"name":"Zhang, Yingyu, active 16th century-17th century","birth_year":null,"death_year":null}],"translators":[],"subjects":["Fraud -- China -- Fiction"],"bookshelves":[],"languages":["zh"],"copyright":false,"media_type":"Text","formats":{"text/html":"https://www.gutenberg.org/ebooks/24021.html.images","application/epub+zip":"https://www.gutenberg.org/ebooks/24021.epub3.images","application/x-mobipocket-ebook":"https://www.gutenberg.org/ebooks/24021.kf8.images","text/plain; charset=us-ascii":"https://www.gutenberg.org/ebooks/24021.txt.utf-8","text/plain; charset=utf-8":"https://www.gutenberg.org/files/24021/24021-0.txt","application/rdf+xml":"https://www.gutenberg.org/ebooks/24021.rdf","image/jpeg":"https://www.gutenberg.org/cache/epub/24021/pg24021.cover.medium.jpg","application/octet-stream":"https://www.gutenberg.org/cache/epub/24021/pg24021-h.zip"},"download_count":170},{"id":24224,"title":"平山冷燕","authors":[{"name":"Tianhuazangzhuren","birth_year":null,"death_year":null}],"translators":[],"subjects":["Chinese fiction -- Qing dynasty, 1644-1912"],"bookshelves":[],"languages":["zh"],"copyright":false,"media_type":"Text","formats":{"text/html":"https://www.gutenberg.org/ebooks/24224.html.images","application/epub+zip":"https://www.gutenberg.org/ebooks/24224.epub3.images","application/x-mobipocket-ebook":"https://www.gutenberg.org/ebooks/24224.kf8.images","text/plain; charset=us-ascii":"https://www.gutenberg.org/ebooks/24224.txt.utf-8","text/plain; charset=utf-8":"https://www.gutenberg.org/files/24224/24224-0.txt","application/rdf+xml":"https://www.gutenberg.org/ebooks/24224.rdf","image/jpeg":"https://www.gutenberg.org/cache/epub/24224/pg24224.cover.medium.jpg","application/octet-stream":"https://www.gutenberg.org/cache/epub/24224/pg24224-h.zip"},"download_count":170},{"id":27060,"title":"Qing Lou Meng: Qi Hong Xiao Shi","authors":[{"name":"Zor, Tao","birth_year":null,"death_year":null}],"translators":[],"subjects":[],"bookshelves":[],"languages":["zh"],"copyright":false,"media_type":"Text","formats":{"text/html":"https://www.gutenberg.org/ebooks/27060.html.images","application/epub+zip":"https://www.gutenberg.org/ebooks/27060.epub3.images","application/x-mobipocket-ebook":"https://www.gutenberg.org/ebooks/27060.kf8.images","text/plain; charset=us-ascii":"https://www.gutenberg.org/ebooks/27060.txt.utf-8","text/plain; charset=utf-8":"https://www.gutenberg.org/files/27060/27060-0.txt","application/rdf+xml":"https://www.gutenberg.org/ebooks/27060.rdf","image/jpeg":"https://www.gutenberg.org/cache/epub/27060/pg27060.cover.medium.jpg","application/octet-stream":"https://www.gutenberg.org/cache/epub/27060/pg27060-h.zip"},"download_count":165},{"id":25543,"title":"蜃樓志","authors":[{"name":"Yulinglaoren, active 18th century","birth_year":null,"death_year":null}],"translators":[],"subjects":["Chinese fiction -- Qing dynasty, 1644-1912","Erotic stories, Chinese"],"bookshelves":[],"languages":["zh"],"copyright":false,"media_type":"Text","formats":{"text/html":"https://www.gutenberg.org/ebooks/25543.html.images","application/epub+zip":"https://www.gutenberg.org/ebooks/25543.epub3.images","application/x-mobipocket-ebook":"https://www.gutenberg.org/ebooks/25543.kf8.images","text/plain; charset=us-ascii":"https://www.gutenberg.org/ebooks/25543.txt.utf-8","text/plain; charset=utf-8":"https://www.gutenberg.org/files/25543/25543-0.txt","application/rdf+xml":"https://www.gutenberg.org/ebooks/25543.rdf","image/jpeg":"https://www.gutenberg.org/cache/epub/25543/pg25543.cover.medium.jpg","application/octet-stream":"https://www.gutenberg.org/cache/epub/25543/pg25543-h.zip"},"download_count":164},{"id":26871,"title":"粉妝樓全傳","authors":[{"name":"Luo, Guanzhong","birth_year":null,"death_year":null}],"translators":[],"subjects":["China -- History -- Tang dynasty, 618-907 -- Fiction"],"bookshelves":[],"languages":["zh"],"copyright":false,"media_type":"Text","formats":{"text/html":"https://www.gutenberg.org/ebooks/26871.html.images","application/epub+zip":"https://www.gutenberg.org/ebooks/26871.epub3.images","application/x-mobipocket-ebook":"https://www.gutenberg.org/ebooks/26871.kf8.images","text/plain; charset=us-ascii":"https://www.gutenberg.org/ebooks/26871.txt.utf-8","text/plain; charset=utf-8":"https://www.gutenberg.org/files/26871/26871-0.txt","application/rdf+xml":"https://www.gutenberg.org/ebooks/26871.rdf","image/jpeg":"https://www.gutenberg.org/cache/epub/26871/pg26871.cover.medium.jpg","application/octet-stream":"https://www.gutenberg.org/cache/epub/26871/pg26871-h.zip"},"download_count":164},{"id":24029,"title":"冷眼观","authors":[{"name":"Wang, Junqing","birth_year":null,"death_year":null}],"translators":[],"subjects":["Chinese fiction -- Qing dynasty, 1644-1912"],"bookshelves":[],"languages":["zh"],"copyright":false,"media_type":"Text","formats":{"text/html":"https://www.gutenberg.org/ebooks/24029.html.images","application/epub+zip":"https://www.gutenberg.org/ebooks/24029.epub3.images","application/x-mobipocket-ebook":"https://www.gutenberg.org/ebooks/24029.kf8.images","text/plain; charset=us-ascii":"https://www.gutenberg.org/ebooks/24029.txt.utf-8","text/plain; charset=utf-8":"https://www.gutenberg.org/files/24029/24029-0.txt","application/rdf+xml":"https://www.gutenberg.org/ebooks/24029.rdf","image/jpeg":"https://www.gutenberg.org/cache/epub/24029/pg24029.cover.medium.jpg","application/octet-stream":"https://www.gutenberg.org/cache/epub/24029/pg24029-h.zip"},"download_count":160},{"id":25399,"title":"石點頭","authors":[{"name":"Tianranchisou","birth_year":null,"death_year":null}],"translators":[],"subjects":["Chinese fiction -- Ming dynasty, 1368-1644"],"bookshelves":[],"languages":["zh"],"copyright":false,"media_type":"Text","formats":{"text/html":"https://www.gutenberg.org/ebooks/25399.html.images","application/epub+zip":"https://www.gutenberg.org/ebooks/25399.epub3.images","application/x-mobipocket-ebook":"https://www.gutenberg.org/ebooks/25399.kf8.images","text/plain; charset=us-ascii":"https://www.gutenberg.org/ebooks/25399.txt.utf-8","text/plain; charset=utf-8":"https://www.gutenberg.org/files/25399/25399-0.txt","application/rdf+xml":"https://www.gutenberg.org/ebooks/25399.rdf","image/jpeg":"https://www.gutenberg.org/cache/epub/25399/pg25399.cover.medium.jpg","application/octet-stream":"https://www.gutenberg.org/cache/epub/25399/pg25399-h.zip"},"download_count":160},{"id":27145,"title":"殘唐五代史演義傳","authors":[{"name":"Luo, Guanzhong","birth_year":null,"death_year":null}],"translators":[],"subjects":["China -- History -- Five dynasties and the Ten kingdoms, 907-979 -- Fiction","China -- History -- Tang dynasty, 618-907 -- Fiction"],"bookshelves":[],"languages":["zh"],"copyright":false,"media_type":"Text","formats":{"text/html":"https://www.gutenberg.org/ebooks/27145.html.images","application/epub+zip":"https://www.gutenberg.org/ebooks/27145.epub3.images","application/x-mobipocket-ebook":"https://www.gutenberg.org/ebooks/27145.kf8.images","text/plain; charset=us-ascii":"https://www.gutenberg.org/ebooks/27145.txt.utf-8","text/plain; charset=utf-8":"https://www.gutenberg.org/files/27145/27145-0.txt","application/rdf+xml":"https://www.gutenberg.org/ebooks/27145.rdf","image/jpeg":"https://www.gutenberg.org/cache/epub/27145/pg27145.cover.medium.jpg","application/octet-stream":"https://www.gutenberg.org/cache/epub/27145/pg27145-h.zip"},"download_count":159},{"id":27414,"title":"好逑傳","authors":[{"name":"Mingjiaozhongren","birth_year":null,"death_year":null}],"translators":[],"subjects":["Chinese fiction"],"bookshelves":[],"languages":["zh"],"copyright":false,"media_type":"Text","formats":{"text/html":"https://www.gutenberg.org/ebooks/27414.html.images","application/epub+zip":"https://www.gutenberg.org/ebooks/27414.epub3.images","application/x-mobipocket-ebook":"https://www.gutenberg.org/ebooks/27414.kf8.images","text/plain; charset=us-ascii":"https://www.gutenberg.org/ebooks/27414.txt.utf-8","text/plain; charset=utf-8":"https://www.gutenberg.org/files/27414/27414-0.txt","application/rdf+xml":"https://www.gutenberg.org/ebooks/27414.rdf","image/jpeg":"https://www.gutenberg.org/cache/epub/27414/pg27414.cover.medium.jpg","application/octet-stream":"https://www.gutenberg.org/cache/epub/27414/pg27414-h.zip"},"download_count":159},{"id":23864,"title":"孫子兵法","authors":[{"name":"Sunzi, active 6th century B.C.","birth_year":null,"death_year":null}],"translators":[],"subjects":["Military art and science -- Early works to 1800","War -- Early works to 1800"],"bookshelves":[],"languages":["zh"],"copyright":false,"media_type":"Text","formats":{"text/html":"https://www.gutenberg.org/ebooks/23864.html.images","application/epub+zip":"https://www.gutenberg.org/ebooks/23864.epub3.images","application/x-mobipocket-ebook":"https://www.gutenberg.org/ebooks/23864.kf8.images","text/plain; charset=us-ascii":"https://www.gutenberg.org/ebooks/23864.txt.utf-8","text/plain; charset=utf-8":"https://www.gutenberg.org/files/23864/23864-0.txt","application/rdf+xml":"https://www.gutenberg.org/ebooks/23864.rdf","image/jpeg":"https://www.gutenberg.org/cache/epub/23864/pg23864.cover.medium.jpg","application/octet-stream":"https://www.gutenberg.org/cache/epub/23864/pg23864-h.zip"},"download_count":157},{"id":25559,"title":"中國小說史略","authors":[{"name":"Lu, Xun","birth_year":1881,"death_year":1936}],"translators":[],"subjects":["Chinese fiction -- History and criticism"],"bookshelves":[],"languages":["zh"],"copyright":false,"media_type":"Text","formats":{"text/html":"https://www.gutenberg.org/ebooks/25559.html.images","application/epub+zip":"https://www.gutenberg.org/ebooks/25559.epub3.images","application/x-mobipocket-ebook":"https://www.gutenberg.org/ebooks/25559.kf8.images","text/plain; charset=us-ascii":"https://www.gutenberg.org/ebooks/25559.txt.utf-8","text/plain; charset=utf-8":"https://www.gutenberg.org/files/25559/25559-0.txt","application/rdf+xml":"https://www.gutenberg.org/ebooks/25559.rdf","image/jpeg":"https://www.gutenberg.org/cache/epub/25559/pg25559.cover.medium.jpg","application/octet-stream":"https://www.gutenberg.org/cache/epub/25559/pg25559-h.zip"},"download_count":155},{"id":25376,"title":"三俠五義","authors":[{"name":"Shi, Yukun, active 19th century","birth_year":null,"death_year":null}],"translators":[],"subjects":["Bao, Zheng, 999-1062 -- Fiction"],"bookshelves":[],"languages":["zh"],"copyright":false,"media_type":"Text","formats":{"text/html":"https://www.gutenberg.org/ebooks/25376.html.images","application/epub+zip":"https://www.gutenberg.org/ebooks/25376.epub3.images","application/x-mobipocket-ebook":"https://www.gutenberg.org/ebooks/25376.kf8.images","text/plain; charset=us-ascii":"https://www.gutenberg.org/ebooks/25376.txt.utf-8","text/plain; charset=utf-8":"https://www.gutenberg.org/files/25376/25376-0.txt","application/rdf+xml":"https://www.gutenberg.org/ebooks/25376.rdf","image/jpeg":"https://www.gutenberg.org/cache/epub/25376/pg25376.cover.medium.jpg","application/octet-stream":"https://www.gutenberg.org/cache/epub/25376/pg25376-h.zip"},"download_count":154},{"id":25501,"title":"易經","authors":[{"name":"Anonymous","birth_year":null,"death_year":null}],"translators":[],"subjects":["Chinese classics","Divination -- China"],"bookshelves":[],"languages":["zh"],"copyright":false,"media_type":"Text","formats":{"text/html":"https://www.gutenberg.org/ebooks/25501.html.images","application/epub+zip":"https://www.gutenberg.org/ebooks/25501.epub3.images","application/x-mobipocket-ebook":"https://www.gutenberg.org/ebooks/25501.kf8.images","text/plain; charset=us-ascii":"https://www.gutenberg.org/ebooks/25501.txt.utf-8","text/plain; charset=utf-8":"https://www.gutenberg.org/files/25501/25501-0.txt","application/rdf+xml":"https://www.gutenberg.org/ebooks/25501.rdf","image/jpeg":"https://www.gutenberg.org/cache/epub/25501/pg25501.cover.medium.jpg","application/octet-stream":"https://www.gutenberg.org/cache/epub/25501/pg25501-h.zip"},"download_count":153}]}