{"count":444,"next":"http://129.241.150.113:8000/books/?languages=zh&page=11","previous":"http://129.241.150.113:8000/books/?languages=zh&page=9","results":[{"id":27858,"title":"黄帝宅經","authors":[{"name":"Unknown","birth_year":null,"death_year":null}],"translators":[],"subjects":["Feng shui"],"bookshelves":[],"languages":["zh"],"copyright":false,"media_type":"Text","formats":{"text/html":"https://www.gutenberg.org/ebooks/27858.html.images","application/epub+zip":"https://www.gutenberg.org/ebooks/27858.epub3.images","application/x-mobipocket-ebook":"https://www.gutenberg.org/ebooks/27858.kf8.images","text/plain; charset=us-ascii":"https://www.gutenberg.org/ebooks/27858.txt.utf-8","text/plain; charset=utf-8":"https://www.gutenberg.org/files/27858/27858-0.txt","application/rdf+xml":"https://www.gutenberg.org/ebooks/27858.rdf","image/jpeg":"https://www.gutenberg.org/cache/epub/27858/pg27858.cover.medium.jpg","application/octet-stream":"https://www.gutenberg.org/cache/epub/27858/pg27858-h.zip"},"download_count":44},{"id":57238,"title":"白兔記","authors":[{"name":"Ming, I","birth_year":null,"death_year":null}],"translators":[],"subjects":["Chinese drama"],"bookshelves":[],"languages":["zh"],"copyright":false,"media_type":"Text","formats":{"text/html":"https://www.gutenberg.org/ebooks/57238.html.images","application/epub+zip":"https://www.gutenberg.org/ebooks/57238.epub3.images","application/x-mobipocket-ebook":"https://www.gutenberg.org/ebooks/57238.kf8.images","text/plain; charset=us-ascii":"https://www.gutenberg.org/ebooks/57238.txt.utf-8","text/plain; charset=utf-8":"https://www.gutenberg.org/files/57238/57238-0.txt","application/rdf+xml":"https://www.gutenberg.org/ebooks/57238.rdf","image/jpeg":"https://www.gutenberg.org/cache/epub/57238/pg57238.cover.medium.jpg","application/octet-stream":"https://www.gutenberg.org/cache/epub/57238/pg57238-h.zip"},"download_count":44},{"id":12408,"title":"周髀算經","authors":[{"name":"Unknown","birth_year":null,"death_year":null}],"translators":[],"subjects":["Mathematics, Chinese -- Early works to 1800"],"bookshelves":[],"languages":["zh"],"copyright":false,"media_type":"Text","formats":{"text/html":"https://www.gutenberg.org/ebooks/12408.html.images","text/html; charset=utf-8":"https://www.gutenberg.org/files/12408/12408-h/12408-h.htm","application/epub+zip":"https://www.gutenberg.org/ebooks/12408.epub3.images","application/x-mobipocket-ebook":"https://www.gutenberg.org/ebooks/12408.kf8.images","text/plain; charset=us-ascii":"https://www.gutenberg.org/ebooks/12408.txt.utf-8","text/plain; charset=utf-8":"https://www.gutenberg.org/files/12408/12408-0.txt","application/rdf+xml":"https://www.gutenberg.org/ebooks/12408.rdf","image/jpeg":"https://www.gutenberg.org/cache/epub/12408/pg12408.cover.medium.jpg","application/octet-stream":"https://www.gutenberg.org/cache/epub/12408/pg12408-h.zip"},"download_count":43},{"id":23840,"title":"近思錄","authors":[{"name":"Zhu, Xi","birth_year":1130,"death_year":1200}],"translators":[],"subjects":["Philosophy, Chinese -- Early works to 1800"],"bookshelves":[],"languages":["zh"],"copyright":false,"media_type":"Text","formats":{"text/html":"https://www.gutenberg.org/ebooks/23840.html.images","application/epub+zip":"https://www.gutenberg.org/ebooks/23840.epub3.images","application/x-mobipocket-ebook":"https://www.gutenberg.org/ebooks/23840.kf8.images","text/plain; charset=us-ascii":"https://www.gutenberg.org/ebooks/23840.txt.utf-8","text/plain; charset=utf-8":"https://www.gutenberg.org/files/23840/23840-0.txt","application/rdf+xml":"https://www.gutenberg.org/ebooks/23840.rdf","image/jpeg":"https://www.gutenberg.org/cache/epub/23840/pg23840.cover.medium.jpg","application/octet-stream":"https://www.gutenberg.org/cache/epub/23840/pg23840-h.zip"},"download_count":43},{"id":24295,"title":"遊仙窟","authors":[{"name":"Zhang, Zhuo","birth_year":null,"death_year":null}],"translators":[],"subjects":["Chinese fiction -- Tang dynasty, 618-907"],"bookshelves":[],"languages":["zh"],"copyright":false,"media_type":"Text","formats":{"text/html":"https://www.gutenberg.org/ebooks/24295.html.images","application/epub+zip":"https://www.gutenberg.org/ebooks/24295.epub3.images","application/x-mobipocket-ebook":"https://www.gutenberg.org/ebooks/24295.kf8.images","text/plain; charset=us-ascii":"https://www.gutenberg.org/ebooks/24295.txt.utf-8","text/plain; charset=utf-8":"https://www.gutenberg.org/files/24295/24295-0.txt","application/rdf+xml":"https://www.gutenberg.org/ebooks/24295.rdf","image/jpeg":"https://www.gutenberg.org/cache/epub/24295/pg24295.cover.medium.jpg","application/octet-stream":"https://www.gutenberg.org/cache/epub/24295/pg24295-h.zip"},"download_count":43},{"id":25228,"title":"樂章集","authors":[{"name":"Liu, Yong, jin shi 1034","birth_year":null,"death_year":null}],"translators":[],"subjects":["Ci (Chinese poetry)"],"bookshelves":[],"languages":["zh"],"copyright":false,"media_type":"Text","formats":{"text/html":"https://www.gutenberg.org/ebooks/25228.html.images","application/epub+zip":"https://www.gutenberg.org/ebooks/25228.epub3.images","application/x-mobipocket-ebook":"https://www.gutenberg.org/ebooks/25228.kf8.images","text/plain; charset=us-ascii":"https://www.gutenberg.org/ebooks/25228.txt.utf-8","text/plain; charset=utf-8":"https://www.gutenberg.org/files/25228/25228-0.txt","application/rdf+xml":"https://www.gutenberg.org/ebooks/25228.rdf","image/jpeg":"https://www.gutenberg.org/cache/epub/25228/pg25228.cover.medium.jpg","application/octet-stream":"https://www.gutenberg.org/cache/epub/25228/pg25228-h.zip"},"download_count":43},{"id":25327,"title":"兒女英雄傳","authors":[{"name":"Wenkang, active 1842-1851","birth_year":null,"death_year":null}],"translators":[],"subjects":["Chinese fiction -- Qing dynasty, 1644-1912"],"bookshelves":[],"languages":["zh"],"copyright":false,"media_type":"Text","formats":{"text/html":"https://www.gutenberg.org/ebooks/25327.html.images","application/epub+zip":"https://www.gutenberg.org/ebooks/25327.epub3.images","application/x-mobipocket-ebook":"https://www.gutenberg.org/ebooks/25327.kf8.images","text/plain; charset=us-ascii":"https://www.gutenberg.org/ebooks/25327.txt.utf-8","text/plain; charset=utf-8":"https://www.gutenberg.org/files/25327/25327-0.txt","application/rdf+xml":"https://www.gutenberg.org/ebooks/25327.rdf","image/jpeg":"https://www.gutenberg.org/cache/epub/25327/pg25327.cover.medium.jpg","application/octet-stream":"https://www.gutenberg.org/cache/epub/25327/pg25327-h.zip"},"download_count":43},{"id":26932,"title":"治世餘聞","authors":[{"name":"Chen, Hongmo","birth_year":1474,"death_year":1555}],"translators":[],"subjects":["China -- History -- Ming dynasty, 1368-1644 -- Anecdotes"],"bookshelves":[],"languages":["zh"],"copyright":false,"media_type":"Text","formats":{"text/html":"https://www.gutenberg.org/ebooks/26932.html.images","application/epub+zip":"https://www.gutenberg.org/ebooks/26932.epub3.images","application/x-mobipocket-ebook":"https://www.gutenberg.org/ebooks/26932.kf8.images","text/plain; charset=us-ascii":"https://www.gutenberg.org/ebooks/26932.txt.utf-8","text/plain; charset=utf-8":"https://www.gutenberg.org/files/26932/26932-0.txt","application/rdf+xml":"https://www.gutenberg.org/ebooks/26932.rdf","image/jpeg":"https://www.gutenberg.org/cache/epub/26932/pg26932.cover.medium.jpg","application/octet-stream":"https://www.gutenberg.org/cache/epub/26932/pg26932-h.zip"},"download_count":43},{"id":26979,"title":"海島算經","authors":[{"name":"Liu, Hui, active 3rd century-4th century","birth_year":null,"death_year":null}],"translators":[],"subjects":["Arithmetic -- Early works to 1900"],"bookshelves":[],"languages":["zh"],"copyright":false,"media_type":"Text","formats":{"text/html":"https://www.gutenberg.org/ebooks/26979.html.images","application/epub+zip":"https://www.gutenberg.org/ebooks/26979.epub3.images","application/x-mobipocket-ebook":"https://www.gutenberg.org/ebooks/26979.kf8.images","text/plain; charset=us-ascii":"https://www.gutenberg.org/ebooks/26979.txt.utf-8","text/plain; charset=utf-8":"https://www.gutenberg.org/files/26979/26979-0.txt","application/rdf+xml":"https://www.gutenberg.org/ebooks/26979.rdf","image/jpeg":"https://www.gutenberg.org/cache/epub/26979/pg26979.cover.medium.jpg","application/octet-stream":"https://www.gutenberg.org/cache/epub/26979/pg26979-h.zip"},"download_count":43},{"id":52199,"title":"漢宮秋","authors":[{"name":"Ma, Zhiyuan","birth_year":null,"death_year":null}],"translators":[],"subjects":["Chinese drama -- Yuan dynasty, 1260-1368"],"bookshelves":[],"languages":["zh"],"copyright":false,"media_type":"Text","formats":{"text/html":"https://www.gutenberg.org/ebooks/52199.html.images","application/epub+zip":"https://www.gutenberg.org/ebooks/52199.epub3.images","application/x-mobipocket-ebook":"https://www.gutenberg.org/ebooks/52199.kf8.images","text/plain; charset=us-ascii":"https://www.gutenberg.org/ebooks/52199.txt.utf-8","text/plain; charset=utf-8":"https://www.gutenberg.org/files/52199/52199-0.txt","application/rdf+xml":"https://www.gutenberg.org/ebooks/52199.rdf","image/jpeg":"https://www.gutenberg.org/cache/epub/52199/pg52199.cover.medium.jpg","application/octet-stream":"https://www.gutenberg.org/cache/epub/52199/pg52199-h.zip"},"download_count":43},{"id":54784,"title":"大唐三藏取經詩話","authors":[{"name":"Various","birth_year":null,"death_year":null}],"translators":[],"subjects":["Xuanzang, approximately 596-664 -- Fiction"],"bookshelves":[],"languages":["zh"],"copyright":false,"media_type":"Text","formats":{"text/html":"https://www.gutenberg.org/ebooks/54784.html.images","application/epub+zip":"https://www.gutenberg.org/ebooks/54784.epub3.images","application/x-mobipocket-ebook":"https://www.gutenberg.org/ebooks/54784.kf8.images","text/plain; charset=us-ascii":"https://www.gutenberg.org/ebooks/54784.txt.utf-8","text/plain; charset=utf-8":"https://www.gutenberg.org/files/54784/54784-0.txt","application/rdf+xml":"https://www.gutenberg.org/ebooks/54784.rdf","image/jpeg":"https://www.gutenberg.org/cache/epub/54784/pg54784.cover.medium.jpg","application/octet-stream":"https://www.gutenberg.org/cache/epub/54784/pg54784-h.zip"},"download_count":43},{"id":23823,"title":"弟子規","authors":[{"name":"Li, Yuxiu, active 17th century-18th century","birth_year":null,"death_year":null}],"translators":[],"subjects":["Chinese poetry -- Qing dynasty, 1644-1912","Conduct of life","Confucianism"],"bookshelves":[],"languages":["zh"],"copyright":false,"media_type":"Text","formats":{"text/html":"https://www.gutenberg.org/ebooks/23823.html.images","application/epub+zip":"https://www.gutenberg.org/ebooks/23823.epub3.images","application/x-mobipocket-ebook":"https://www.gutenberg.org/ebooks/23823.kf8.images","text/plain; charset=us-ascii":"https://www.gutenberg.org/ebooks/23823.txt.utf-8","text/plain; charset=utf-8":"https://www.gutenberg.org/files/23823/23823-0.txt","application/rdf+xml":"https://www.gutenberg.org/ebooks/23823.rdf","image/jpeg":"https://www.gutenberg.org/cache/epub/23823/pg23823.cover.medium.jpg","application/octet-stream":"https://www.gutenberg.org/cache/epub/23823/pg23823-h.zip"},"download_count":42},{"id":24227,"title":"情變","authors":[{"name":"Wu, Jianren","birth_year":1866,"death_year":1910}],"translators":[],"subjects":["Chinese fiction -- Qing dynasty, 1644-1912"],"bookshelves":[],"languages":["zh"],"copyright":false,"media_type":"Text","formats":{"text/html":"https://www.gutenberg.org/ebooks/24227.html.images","application/epub+zip":"https://www.gutenberg.org/ebooks/24227.epub3.images","application/x-mobipocket-ebook":"https://www.gutenberg.org/ebooks/24227.kf8.images","text/plain; charset=us-ascii":"https://www.gutenberg.org/ebooks/24227.txt.utf-8","text/plain; charset=utf-8":"https://www.gutenberg.org/files/24227/24227-0.txt","application/rdf+xml":"https://www.gutenberg.org/ebooks/24227.rdf","image/jpeg":"https://www.gutenberg.org/cache/epub/24227/pg24227.cover.medium.jpg","application/octet-stream":"https://www.gutenberg.org/cache/epub/24227/pg24227-h.zip"},"download_count":42},{"id":25253,"title":"杜陽雜編","authors":[{"name":"Su, E, jin shi 886","birth_year":null,"death_year":null}],"translators":[],"subjects":["China -- History -- Tang dynasty, 618-907 -- Anecdotes"],"bookshelves":[],"languages":["zh"],"copyright":false,"media_type":"Text","formats":{"text/html":"https://www.gutenberg.org/ebooks/25253.html.images","application/epub+zip":"https://www.gutenberg.org/ebooks/25253.epub3.images","application/x-mobipocket-ebook":"https://www.gutenberg.org/ebooks/25253.kf8.images","text/plain; charset=us-ascii":"https://www.gutenberg.org/ebooks/25253.txt.utf-8","text/plain; charset=utf-8":"https://www.gutenberg.org/files/25253/25253-0.txt","application/rdf+xml":"https://www.gutenberg.org/ebooks/25253.rdf","image/jpeg":"https://www.gutenberg.org/cache/epub/25253/pg25253.cover.medium.jpg","application/octet-stream":"https://www.gutenberg.org/cache/epub/25253/pg25253-h.zip"},"download_count":42},{"id":52267,"title":"鶯鶯傳","authors":[{"name":"Yuan, Zhen","birth_year":779,"death_year":831}],"translators":[],"subjects":["Chinese fiction -- Tang dynasty, 618-907"],"bookshelves":[],"languages":["zh"],"copyright":false,"media_type":"Text","formats":{"text/html":"https://www.gutenberg.org/ebooks/52267.html.images","application/epub+zip":"https://www.gutenberg.org/ebooks/52267.epub3.images","application/x-mobipocket-ebook":"https://www.gutenberg.org/ebooks/52267.kf8.images","text/plain; charset=us-ascii":"https://www.gutenberg.org/ebooks/52267.txt.utf-8","text/plain; charset=utf-8":"https://www.gutenberg.org/files/52267/52267-0.txt","application/rdf+xml":"https://www.gutenberg.org/ebooks/52267.rdf","image/jpeg":"https://www.gutenberg.org/cache/epub/52267/pg52267.cover.medium.jpg","application/octet-stream":"https://www.gutenberg.org/cache/epub/52267/pg52267-h.zip"},"download_count":42},{"id":23843,"title":"明月台","authors":[{"name":"Weng, Gui","birth_year":null,"death_year":null}],"translators":[],"subjects":["Chinese fiction -- Qing dynasty, 1644-1912"],"bookshelves":[],"languages":["zh"],"copyright":false,"media_type":"Text","formats":{"text/html":"https://www.gutenberg.org/ebooks/23843.html.images","application/epub+zip":"https://www.gutenberg.org/ebooks/23843.epub3.images","application/x-mobipocket-ebook":"https://www.gutenberg.org/ebooks/23843.kf8.images","text/plain; charset=us-ascii":"https://www.gutenberg.org/ebooks/23843.txt.utf-8","text/plain; charset=utf-8":"https://www.gutenberg.org/files/23843/23843-0.txt","application/rdf+xml":"https://www.gutenberg.org/ebooks/23843.rdf","image/jpeg":"https://www.gutenberg.org/cache/epub/23843/pg23843.cover.medium.jpg","application/octet-stream":"https://www.gutenberg.org/cache/epub/23843/pg23843-h.zip"},"download_count":41},{"id":25242,"title":"野草","authors":[{"name":"Lu, Xun","birth_year":1881,"death_year":1936}],"translators":[],"subjects":["Chinese literature","Prose poems"],"bookshelves":[],"languages":["zh"],"copyright":false,"media_type":"Text","formats":{"text/html":"https://www.gutenberg.org/ebooks/25242.html.images","application/epub+zip":"https://www.gutenberg.org/ebooks/25242.epub3.images","application/x-mobipocket-ebook":"https://www.gutenberg.org/ebooks/25242.kf8.images","text/plain; charset=us-ascii":"https://www.gutenberg.org/ebooks/25242.txt.utf-8","text/plain; charset=utf-8":"https://www.gutenberg.org/files/25242/25242-0.txt","application/rdf+xml":"https://www.gutenberg.org/ebooks/25242.rdf","image/jpeg":"https://www.gutenberg.org/cache/epub/25242/pg25242.cover.medium.jpg","application/octet-stream":"https://www.gutenberg.org/cache/epub/25242/pg25242-h.zip"},"download_count":41},{"id":25374,"title":"孔叢子","authors":[{"name":"Kong, Fu","birth_year":null,"death_year":-208}],"translators":[],"subjects":["Confucius","Philosophy, Chinese -- To 221 B.C."],"bookshelves":[],"languages":["zh"],"copyright":false,"media_type":"Text","formats":{"text/html":"https://www.gutenberg.org/ebooks/25374.html.images","application/epub+zip":"https://www.gutenberg.org/ebooks/25374.epub3.images","application/x-mobipocket-ebook":"https://www.gutenberg.org/ebooks/25374.kf8.images","text/plain; charset=us-ascii":"https://www.gutenberg.org/ebooks/25374.txt.utf-8","text/plain; charset=utf-8":"https://www.gutenberg.org/files/25374/25374-0.txt","application/rdf+xml":"https://www.gutenberg.org/ebooks/25374.rdf","image/jpeg":"https://www.gutenberg.org/cache/epub/25374/pg25374.cover.medium.jpg","application/octet-stream":"https://www.gutenberg.org/cache/epub/25374/pg25374-h.zip"},"download_count":41},{"id":26920,"title":"鹽鐵論","authors":[{"name":"Huan, Kuan, active 1st century B.C.","birth_year":null,"death_year":null}],"translators":[],"subjects":["Government monopolies -- China","Iron industry and trade -- China","Salt industry and trade -- China"],"bookshelves":[],"languages":["zh"],"copyright":false,"media_type":"Text","formats":{"text/html":"https://www.gutenberg.org/ebooks/26920.html.images","application/epub+zip":"https://www.gutenberg.org/ebooks/26920.epub3.images","application/x-mobipocket-ebook":"https://www.gutenberg.org/ebooks/26920.kf8.images","text/plain; charset=us-ascii":"https://www.gutenberg.org/ebooks/26920.txt.utf-8","text/plain; charset=utf-8":"https://www.gutenberg.org/files/26920/26920-0.txt","application/rdf+xml":"https://www.gutenberg.org/ebooks/26920.rdf","image/jpeg":"https://www.gutenberg.org/cache/epub/26920/pg26920.cover.medium.jpg","application/octet-stream":"https://www.gutenberg.org/cache/epub/26920/pg26920-h.zip"},"download_count":41},{"id":27171,"title":"鬼谷四友志","authors":[{"name":"Yang, Jingchang, active 18th century-19th century","birth_year":null,"death_year":null}],"translators":[],"subjects":["China -- History -- Warring States, 403-221 B.C. -- Fiction","Pang, Juan, active 4th century B.C. -- Fiction","Sun, Bin, active 4th century B.C. -- Fiction"],"bookshelves":[],"languages":["zh"],"copyright":false,"media_type":"Text","formats":{"text/html":"https://www.gutenberg.org/ebooks/27171.html.images","application/epub+zip":"https://www.gutenberg.org/ebooks/27171.epub3.images","application/x-mobipocket-ebook":"https://www.gutenberg.org/ebooks/27171.kf8.images","text/plain; charset=us-ascii":"https://www.gutenberg.org/ebooks/27171.txt.utf-8","text/plain; charset=utf-8":"https://www.gutenberg.org/files/27171/27171-0.txt","application/rdf+xml":"https://www.gutenberg.org/ebooks/27171.rdf","image/jpeg":"https://www.gutenberg.org/cache/epub/27171/pg27171.cover.medium.jpg","application/octet-stream":"https://www.gutenberg.org/cache/epub/27171/pg27171-h.zip"},"download_count":41},{"id":27184,"title":"癡人福","authors":[{"name":"Mountain, Plum Rocky","birth_year":null,"death_year":null}],"translators":[],"subjects":[],"bookshelves":[],"languages":["zh"],"copyright":false,"media_type":"Text","formats":{"text/html":"https://www.gutenberg.org/ebooks/27184.html.images","application/epub+zip":"https://www.gutenberg.org/ebooks/27184.epub3.images","application/x-mobipocket-ebook":"https://www.gutenberg.org/ebooks/27184.kf8.images","text/plain; charset=us-ascii":"https://www.gutenberg.org/ebooks/27184.txt.utf-8","text/plain; charset=utf-8":"https://www.gutenberg.org/files/27184/27184-0.txt","application/rdf+xml":"https://www.gutenberg.org/ebooks/27184.rdf","image/jpeg":"https://www.gutenberg.org/cache/epub/27184/pg27184.cover.medium.jpg","application/octet-stream":"https://www.gutenberg.org/cache/epub/27184/pg27184-h.zip"},"download_count":41},{"id":7260,"title":"搜神記 volume 1-3","authors":[{"name":"Gan, Bao, active 317-322","birth_year":null,"death_year":null}],"translators":[],"subjects":["Legends -- China"],"bookshelves":[],"languages":["zh"],"copyright":false,"media_type":"Text","formats":{"text/html":"https://www.gutenberg.org/ebooks/7260.html.images","application/epub+zip":"https://www.gutenberg.org/ebooks/7260.epub3.images","application/x-mobipocket-ebook":"https://www.gutenberg.org/ebooks/7260.kf8.images","text/plain; charset=us-ascii":"https://www.gutenberg.org/ebooks/7260.txt.utf-8","text/plain; charset=utf-8":"https://www.gutenberg.org/files/7260/7260-0.txt","application/rdf+xml":"https://www.gutenberg.org/ebooks/7260.rdf","image/jpeg":"https://www.gutenberg.org/cache/epub/7260/pg7260.cover.medium.jpg","application/octet-stream":"https://www.gutenberg.org/cache/epub/7260/pg7260-h.zip"},"download_count":40},{"id":7272,"title":"搜神記 volume 15-17","authors":[{"name":"Gan, Bao, active 317-322","birth_year":null,"death_year":null}],"translators":[],"subjects":["Legends -- China"],"bookshelves":[],"languages":["zh"],"copyright":false,"media_type":"Text","formats":{"text/html":"https://www.gutenberg.org/ebooks/7272.html.images","application/epub+zip":"https://www.gutenberg.org/ebooks/7272.epub3.images","application/x-mobipocket-ebook":"https://www.gutenberg.org/ebooks/7272.kf8.images","text/plain; charset=us-ascii":"https://www.gutenberg.org/ebooks/7272.txt.utf-8","text/plain; charset=utf-8":"https://www.gutenberg.org/files/7272/7272-0.txt","application/rdf+xml":"https://www.gutenberg.org/ebooks/7272.rdf","image/jpeg":"https://www.gutenberg.org/cache/epub/7272/pg7272.cover.medium.jpg","application/octet-stream":"https://www.gutenberg.org/cache/epub/7272/pg7272-h.zip"},"download_count":40},{"id":23945,"title":"新序","authors":[{"name":"Liu, Xiang","birth_year":null,"death_year":null}],"translators":[],"subjects":["China -- History -- Anecdotes"],"bookshelves":[],"languages":["zh"],"copyright":false,"media_type":"Text","formats":{"text/html":"https://www.gutenberg.org/ebooks/23945.html.images","application/epub+zip":"https://www.gutenberg.org/ebooks/23945.epub3.images","application/x-mobipocket-ebook":"https://www.gutenberg.org/ebooks/23945.kf8.images","text/plain; charset=us-ascii":"https://www.gutenberg.org/ebooks/23945.txt.utf-8","text/plain; charset=utf-8":"https://www.gutenberg.org/files/23945/23945-0.txt","application/rdf+xml":"https://www.gutenberg.org/ebooks/23945.rdf","image/jpeg":"https://www.gutenberg.org/cache/epub/23945/pg23945.cover.medium.jpg","application/octet-stream":"https://www.gutenberg.org/cache/epub/23945/pg23945-h.zip"},"download_count":40},{"id":23981,"title":"瀛涯勝覽","authors":[{"name":"Ma, Huan, active 1414-1451","birth_year":null,"death_year":null}],"translators":[],"subjects":["Southeast Asia -- Description and travel -- Early works to 1800","Zheng, He, 1371-1435"],"bookshelves":[],"languages":["zh"],"copyright":false,"media_type":"Text","formats":{"text/html":"https://www.gutenberg.org/ebooks/23981.html.images","application/epub+zip":"https://www.gutenberg.org/ebooks/23981.epub3.images","application/x-mobipocket-ebook":"https://www.gutenberg.org/ebooks/23981.kf8.images","text/plain; charset=us-ascii":"https://www.gutenberg.org/ebooks/23981.txt.utf-8","text/plain; charset=utf-8":"https://www.gutenberg.org/files/23981/23981-0.txt","application/rdf+xml":"https://www.gutenberg.org/ebooks/23981.rdf","image/jpeg":"https://www.gutenberg.org/cache/epub/23981/pg23981.cover.medium.jpg","application/octet-stream":"https://www.gutenberg.org/cache/epub/23981/pg23981-h.zip"},"download_count":40},{"id":24239,"title":"醒世恆言","authors":[{"name":"Feng, Menglong","birth_year":1574,"death_year":1646}],"translators":[],"subjects":["Chinese fiction -- Ming dynasty, 1368-1644"],"bookshelves":[],"languages":["zh"],"copyright":false,"media_type":"Text","formats":{"text/html":"https://www.gutenberg.org/ebooks/24239.html.images","application/epub+zip":"https://www.gutenberg.org/ebooks/24239.epub3.images","application/x-mobipocket-ebook":"https://www.gutenberg.org/ebooks/24239.kf8.images","text/plain; charset=us-ascii":"https://www.gutenberg.org/ebooks/24239.txt.utf-8","text/plain; charset=utf-8":"https://www.gutenberg.org/files/24239/24239-0.txt","application/rdf+xml":"https://www.gutenberg.org/ebooks/24239.rdf","image/jpeg":"https://www.gutenberg.org/cache/epub/24239/pg24239.cover.medium.jpg","application/octet-stream":"https://www.gutenberg.org/cache/epub/24239/pg24239-h.zip"},"download_count":40},{"id":25298,"title":"郁離子","authors":[{"name":"Liu, Ji","birth_year":1311,"death_year":1375}],"translators":[],"subjects":["China -- Anecdotes","Philosophy -- Early works to 1800"],"bookshelves":[],"languages":["zh"],"copyright":false,"media_type":"Text","formats":{"text/html":"https://www.gutenberg.org/ebooks/25298.html.images","application/epub+zip":"https://www.gutenberg.org/ebooks/25298.epub3.images","application/x-mobipocket-ebook":"https://www.gutenberg.org/ebooks/25298.kf8.images","text/plain; charset=us-ascii":"https://www.gutenberg.org/ebooks/25298.txt.utf-8","text/plain; charset=utf-8":"https://www.gutenberg.org/files/25298/25298-0.txt","application/rdf+xml":"https://www.gutenberg.org/ebooks/25298.rdf","image/jpeg":"https://www.gutenberg.org/cache/epub/25298/pg25298.cover.medium.jpg","application/octet-stream":"https://www.gutenberg.org/cache/epub/25298/pg25298-h.zip"},"download_count":40},{"id":26888,"title":"本草備要","authors":[{"name":"Wang, Ang","birth_year":1615,"death_year":null}],"translators":[],"subjects":["Materia medica -- China"],"bookshelves":[],"languages":["zh"],"copyright":false,"media_type":"Text","formats":{"text/html":"https://www.gutenberg.org/ebooks/26888.html.images","application/epub+zip":"https://www.gutenberg.org/ebooks/26888.epub3.images","application/x-mobipocket-ebook":"https://www.gutenberg.org/ebooks/26888.kf8.images","text/plain; charset=us-ascii":"https://www.gutenberg.org/ebooks/26888.txt.utf-8","text/plain; charset=utf-8":"https://www.gutenberg.org/files/26888/26888-0.txt","application/rdf+xml":"https://www.gutenberg.org/ebooks/26888.rdf","image/jpeg":"https://www.gutenberg.org/cache/epub/26888/pg26888.cover.medium.jpg","application/octet-stream":"https://www.gutenberg.org/cache/epub/26888/pg26888-h.zip"},"download_count":40},{"id":27148,"title":"蕉葉帕","authors":[{"name":"Shan, Ben","birth_year":null,"death_year":null}],"translators":[],"subjects":["Chinese fiction -- Ming dynasty, 1368-1644"],"bookshelves":[],"languages":["zh"],"copyright":false,"media_type":"Text","formats":{"text/html":"https://www.gutenberg.org/ebooks/27148.html.images","application/epub+zip":"https://www.gutenberg.org/ebooks/27148.epub3.images","application/x-mobipocket-ebook":"https://www.gutenberg.org/ebooks/27148.kf8.images","text/plain; charset=us-ascii":"https://www.gutenberg.org/ebooks/27148.txt.utf-8","text/plain; charset=utf-8":"https://www.gutenberg.org/files/27148/27148-0.txt","application/rdf+xml":"https://www.gutenberg.org/ebooks/27148.rdf","image/jpeg":"https://www.gutenberg.org/cache/epub/27148/pg27148.cover.medium.jpg","application/octet-stream":"https://www.gutenberg.org/cache/epub/27148/pg27148-h.zip"},"download_count":40},{"id":27204,"title":"滿江紅","authors":[{"name":"Yue, Fei","birth_year":1103,"death_year":1142}],"translators":[],"subjects":["Chinese poetry"],"bookshelves":[],"languages":["zh"],"copyright":false,"media_type":"Text","formats":{"text/html":"https://www.gutenberg.org/ebooks/27204.html.images","application/epub+zip":"https://www.gutenberg.org/ebooks/27204.epub3.images","application/x-mobipocket-ebook":"https://www.gutenberg.org/ebooks/27204.kf8.images","text/plain; charset=us-ascii":"https://www.gutenberg.org/ebooks/27204.txt.utf-8","text/plain; charset=utf-8":"https://www.gutenberg.org/files/27204/27204-0.txt","application/rdf+xml":"https://www.gutenberg.org/ebooks/27204.rdf","image/jpeg":"https://www.gutenberg.org/cache/epub/27204/pg27204.cover.medium.jpg","application/octet-stream":"https://www.gutenberg.org/cache/epub/27204/pg27204-h.zip"},"download_count":40},{"id":25367,"title":"漱玉詞","authors":[{"name":"Li, Qingzhao","birth_year":1081,"death_year":null}],"translators":[],"subjects":["Chinese poetry -- Song dynasty, 960-1279","Ci (Chinese poetry) -- Women authors"],"bookshelves":[],"languages":["zh"],"copyright":false,"media_type":"Text","formats":{"text/html":"https://www.gutenberg.org/ebooks/25367.html.images","application/epub+zip":"https://www.gutenberg.org/ebooks/25367.epub3.images","application/x-mobipocket-ebook":"https://www.gutenberg.org/ebooks/25367.kf8.images","text/plain; charset=us-ascii":"https://www.gutenberg.org/ebooks/25367.txt.utf-8","text/plain; charset=utf-8":"https://www.gutenberg.org/files/25367/25367-0.txt","application/rdf+xml":"https://www.gutenberg.org/ebooks/25367.rdf","image/jpeg":"https://www.gutenberg.org/cache/epub/25367/pg25367.cover.medium.jpg","application/octet-stream":"https://www.gutenberg.org/cache/epub/25367/pg25367-h.zip"},"download_count":39},{"id":25401,"title":"陶庵夢憶","authors":[{"name":"Zhang, Dai","birth_year":1597,"death_year":1679}],"translators":[],"subjects":["Authors, Chinese -- Biography","Zhang, Dai, 1597-1676 -- Travel"],"bookshelves":[],"languages":["zh"],"copyright":false,"media_type":"Text","formats":{"text/html":"https://www.gutenberg.org/ebooks/25401.html.images","application/epub+zip":"https://www.gutenberg.org/ebooks/25401.epub3.images","application/x-mobipocket-ebook":"https://www.gutenberg.org/ebooks/25401.kf8.images","text/plain; charset=us-ascii":"https://www.gutenberg.org/ebooks/25401.txt.utf-8","text/plain; charset=utf-8":"https://www.gutenberg.org/files/25401/25401-0.txt","application/rdf+xml":"https://www.gutenberg.org/ebooks/25401.rdf","image/jpeg":"https://www.gutenberg.org/cache/epub/25401/pg25401.cover.medium.jpg","application/octet-stream":"https://www.gutenberg.org/cache/epub/25401/pg25401-h.zip"},"download_count":39}]}