{"count":444,"next":"http://129.241.150.113:8000/books/?languages=zh&page=9","previous":"http://129.241.150.113:8000/books/?languages=zh&page=7","results":[{"id":27172,"title":"庚巳編","authors":[{"name":"Lu, Can","birth_year":1494,"death_year":1551}],"translators":[],"subjects":["China -- History -- Ming dynasty, 1368-1644 -- Anecdotes"],"bookshelves":[],"languages":["zh"],"copyright":false,"media_type":"Text","formats":{"text/html":"https://www.gutenberg.org/ebooks/27172.html.images","application/epub+zip":"https://www.gutenberg.org/ebooks/27172.epub3.images","application/x-mobipocket-ebook":"https://www.gutenberg.org/ebooks/27172.kf8.images","text/plain; charset=us-ascii":"https://www.gutenberg.org/ebooks/27172.txt.utf-8","text/plain; charset=utf-8":"https://www.gutenberg.org/files/27172/27172-0.txt","application/rdf+xml":"https://www.gutenberg.org/ebooks/27172.rdf","image/jpeg":"https://www.gutenberg.org/cache/epub/27172/pg27172.cover.medium.jpg","application/octet-stream":"https://www.gutenberg.org/cache/epub/27172/pg27172-h.zip"},"download_count":54},{"id":24059,"title":"淮南子","authors":[{"name":"Liu, An","birth_year":-179,"death_year":-122}],"translators":[],"subjects":["Philosophy, Chinese -- 221 B.C.-960 A.D.","Taoism -- China"],"bookshelves":[],"languages":["zh"],"copyright":false,"media_type":"Text","formats":{"text/html":"https://www.gutenberg.org/ebooks/24059.html.images","application/epub+zip":"https://www.gutenberg.org/ebooks/24059.epub3.images","application/x-mobipocket-ebook":"https://www.gutenberg.org/ebooks/24059.kf8.images","text/plain; charset=us-ascii":"https://www.gutenberg.org/ebooks/24059.txt.utf-8","text/plain; charset=utf-8":"https://www.gutenberg.org/files/24059/24059-0.txt","application/rdf+xml":"https://www.gutenberg.org/ebooks/24059.rdf","image/jpeg":"https://www.gutenberg.org/cache/epub/24059/pg24059.cover.medium.jpg","application/octet-stream":"https://www.gutenberg.org/cache/epub/24059/pg24059-h.zip"},"download_count":53},{"id":24154,"title":"癡人說夢記","authors":[{"name":"Lü, Sheng","birth_year":null,"death_year":null}],"translators":[],"subjects":["Chinese fiction"],"bookshelves":[],"languages":["zh"],"copyright":false,"media_type":"Text","formats":{"text/html":"https://www.gutenberg.org/ebooks/24154.html.images","application/epub+zip":"https://www.gutenberg.org/ebooks/24154.epub3.images","application/x-mobipocket-ebook":"https://www.gutenberg.org/ebooks/24154.kf8.images","text/plain; charset=us-ascii":"https://www.gutenberg.org/ebooks/24154.txt.utf-8","text/plain; charset=utf-8":"https://www.gutenberg.org/files/24154/24154-0.txt","application/rdf+xml":"https://www.gutenberg.org/ebooks/24154.rdf","image/jpeg":"https://www.gutenberg.org/cache/epub/24154/pg24154.cover.medium.jpg","application/octet-stream":"https://www.gutenberg.org/cache/epub/24154/pg24154-h.zip"},"download_count":53},{"id":24228,"title":"列女傳","authors":[{"name":"Liu, Xiang","birth_year":null,"death_year":null}],"translators":[],"subjects":["China -- Social life and customs","Women -- China -- Biography","Women -- China -- Conduct of life"],"bookshelves":[],"languages":["zh"],"copyright":false,"media_type":"Text","formats":{"text/html":"https://www.gutenberg.org/ebooks/24228.html.images","application/epub+zip":"https://www.gutenberg.org/ebooks/24228.epub3.images","application/x-mobipocket-ebook":"https://www.gutenberg.org/ebooks/24228.kf8.images","text/plain; charset=us-ascii":"https://www.gutenberg.org/ebooks/24228.txt.utf-8","text/plain; charset=utf-8":"https://www.gutenberg.org/files/24228/24228-0.txt","application/rdf+xml":"https://www.gutenberg.org/ebooks/24228.rdf","image/jpeg":"https://www.gutenberg.org/cache/epub/24228/pg24228.cover.medium.jpg","application/octet-stream":"https://www.gutenberg.org/cache/epub/24228/pg24228-h.zip"},"download_count":53},{"id":25397,"title":"論衡","authors":[{"name":"Wang, Chong","birth_year":27,"death_year":null}],"translators":[],"subjects":["Philosophy, Chinese"],"bookshelves":[],"languages":["zh"],"copyright":false,"media_type":"Text","formats":{"text/html":"https://www.gutenberg.org/ebooks/25397.html.images","application/epub+zip":"https://www.gutenberg.org/ebooks/25397.epub3.images","application/x-mobipocket-ebook":"https://www.gutenberg.org/ebooks/25397.kf8.images","text/plain; charset=us-ascii":"https://www.gutenberg.org/ebooks/25397.txt.utf-8","text/plain; charset=utf-8":"https://www.gutenberg.org/files/25397/25397-0.txt","application/rdf+xml":"https://www.gutenberg.org/ebooks/25397.rdf","image/jpeg":"https://www.gutenberg.org/cache/epub/25397/pg25397.cover.medium.jpg","application/octet-stream":"https://www.gutenberg.org/cache/epub/25397/pg25397-h.zip"},"download_count":53},{"id":25636,"title":"玉雙魚","authors":[{"name":"Tianhuazangzhuren","birth_year":null,"death_year":null}],"translators":[],"subjects":["China -- Social conditions -- 1644-1912 -- Fiction","China -- Social conditions -- 960-1644 -- Fiction","Chinese fiction -- Qing dynasty, 1644-1912"],"bookshelves":[],"languages":["zh"],"copyright":false,"media_type":"Text","formats":{"text/html":"https://www.gutenberg.org/ebooks/25636.html.images","application/epub+zip":"https://www.gutenberg.org/ebooks/25636.epub3.images","application/x-mobipocket-ebook":"https://www.gutenberg.org/ebooks/25636.kf8.images","text/plain; charset=us-ascii":"https://www.gutenberg.org/ebooks/25636.txt.utf-8","text/plain; charset=utf-8":"https://www.gutenberg.org/files/25636/25636-0.txt","application/rdf+xml":"https://www.gutenberg.org/ebooks/25636.rdf","image/jpeg":"https://www.gutenberg.org/cache/epub/25636/pg25636.cover.medium.jpg","application/octet-stream":"https://www.gutenberg.org/cache/epub/25636/pg25636-h.zip"},"download_count":53},{"id":27108,"title":"醒夢駢言","authors":[{"name":"Juqizi, active 17th century","birth_year":null,"death_year":null}],"translators":[],"subjects":[],"bookshelves":[],"languages":["zh"],"copyright":false,"media_type":"Text","formats":{"text/html":"https://www.gutenberg.org/ebooks/27108.html.images","application/epub+zip":"https://www.gutenberg.org/ebooks/27108.epub3.images","application/x-mobipocket-ebook":"https://www.gutenberg.org/ebooks/27108.kf8.images","text/plain; charset=us-ascii":"https://www.gutenberg.org/ebooks/27108.txt.utf-8","text/plain; charset=utf-8":"https://www.gutenberg.org/files/27108/27108-0.txt","application/rdf+xml":"https://www.gutenberg.org/ebooks/27108.rdf","image/jpeg":"https://www.gutenberg.org/cache/epub/27108/pg27108.cover.medium.jpg","application/octet-stream":"https://www.gutenberg.org/cache/epub/27108/pg27108-h.zip"},"download_count":53},{"id":52278,"title":"幽明錄","authors":[{"name":"Liu, Yiqing","birth_year":403,"death_year":444}],"translators":[],"subjects":["China -- History -- Anecdotes","Curiosities and wonders -- China"],"bookshelves":[],"languages":["zh"],"copyright":false,"media_type":"Text","formats":{"text/html":"https://www.gutenberg.org/ebooks/52278.html.images","application/epub+zip":"https://www.gutenberg.org/ebooks/52278.epub3.images","application/x-mobipocket-ebook":"https://www.gutenberg.org/ebooks/52278.kf8.images","text/plain; charset=us-ascii":"https://www.gutenberg.org/ebooks/52278.txt.utf-8","text/plain; charset=utf-8":"https://www.gutenberg.org/files/52278/52278-0.txt","application/rdf+xml":"https://www.gutenberg.org/ebooks/52278.rdf","image/jpeg":"https://www.gutenberg.org/cache/epub/52278/pg52278.cover.medium.jpg","application/octet-stream":"https://www.gutenberg.org/cache/epub/52278/pg52278-h.zip"},"download_count":53},{"id":54567,"title":"二十年目睹之怪現狀","authors":[{"name":"Wu, Jianren","birth_year":1866,"death_year":1910}],"translators":[],"subjects":["Chinese fiction -- Qing dynasty, 1644-1912","Short stories, Chinese"],"bookshelves":[],"languages":["zh"],"copyright":false,"media_type":"Text","formats":{"text/html":"https://www.gutenberg.org/ebooks/54567.html.images","application/epub+zip":"https://www.gutenberg.org/ebooks/54567.epub3.images","application/x-mobipocket-ebook":"https://www.gutenberg.org/ebooks/54567.kf8.images","text/plain; charset=us-ascii":"https://www.gutenberg.org/ebooks/54567.txt.utf-8","text/plain; charset=utf-8":"https://www.gutenberg.org/files/54567/54567-0.txt","application/rdf+xml":"https://www.gutenberg.org/ebooks/54567.rdf","image/jpeg":"https://www.gutenberg.org/cache/epub/54567/pg54567.cover.medium.jpg","application/octet-stream":"https://www.gutenberg.org/cache/epub/54567/pg54567-h.zip"},"download_count":53},{"id":24112,"title":"人間詞話","authors":[{"name":"Wang, Guowei","birth_year":1877,"death_year":1927}],"translators":[],"subjects":["Ci (Chinese poetry) -- History and criticism"],"bookshelves":[],"languages":["zh"],"copyright":false,"media_type":"Text","formats":{"text/html":"https://www.gutenberg.org/ebooks/24112.html.images","application/epub+zip":"https://www.gutenberg.org/ebooks/24112.epub3.images","application/x-mobipocket-ebook":"https://www.gutenberg.org/ebooks/24112.kf8.images","text/plain; charset=us-ascii":"https://www.gutenberg.org/ebooks/24112.txt.utf-8","text/plain; charset=utf-8":"https://www.gutenberg.org/files/24112/24112-0.txt","application/rdf+xml":"https://www.gutenberg.org/ebooks/24112.rdf","image/jpeg":"https://www.gutenberg.org/cache/epub/24112/pg24112.cover.medium.jpg","application/octet-stream":"https://www.gutenberg.org/cache/epub/24112/pg24112-h.zip"},"download_count":52},{"id":25246,"title":"琵琶記","authors":[{"name":"Gao, Ming","birth_year":null,"death_year":1359}],"translators":[],"subjects":["Chinese drama"],"bookshelves":[],"languages":["zh"],"copyright":false,"media_type":"Text","formats":{"text/html":"https://www.gutenberg.org/ebooks/25246.html.images","application/epub+zip":"https://www.gutenberg.org/ebooks/25246.epub3.images","application/x-mobipocket-ebook":"https://www.gutenberg.org/ebooks/25246.kf8.images","text/plain; charset=us-ascii":"https://www.gutenberg.org/ebooks/25246.txt.utf-8","text/plain; charset=utf-8":"https://www.gutenberg.org/files/25246/25246-0.txt","application/rdf+xml":"https://www.gutenberg.org/ebooks/25246.rdf","image/jpeg":"https://www.gutenberg.org/cache/epub/25246/pg25246.cover.medium.jpg","application/octet-stream":"https://www.gutenberg.org/cache/epub/25246/pg25246-h.zip"},"download_count":52},{"id":26921,"title":"引鳳蕭","authors":[{"name":"Banyunyou","birth_year":null,"death_year":null}],"translators":[],"subjects":["Chinese fiction"],"bookshelves":[],"languages":["zh"],"copyright":false,"media_type":"Text","formats":{"text/html":"https://www.gutenberg.org/ebooks/26921.html.images","application/epub+zip":"https://www.gutenberg.org/ebooks/26921.epub3.images","application/x-mobipocket-ebook":"https://www.gutenberg.org/ebooks/26921.kf8.images","text/plain; charset=us-ascii":"https://www.gutenberg.org/ebooks/26921.txt.utf-8","text/plain; charset=utf-8":"https://www.gutenberg.org/files/26921/26921-0.txt","application/rdf+xml":"https://www.gutenberg.org/ebooks/26921.rdf","image/jpeg":"https://www.gutenberg.org/cache/epub/26921/pg26921.cover.medium.jpg","application/octet-stream":"https://www.gutenberg.org/cache/epub/26921/pg26921-h.zip"},"download_count":52},{"id":27207,"title":"封氏聞見記","authors":[{"name":"Feng, Yan, jin shi 756","birth_year":null,"death_year":null}],"translators":[],"subjects":["China -- History -- Tang dynasty, 618-907 -- Sources"],"bookshelves":[],"languages":["zh"],"copyright":false,"media_type":"Text","formats":{"text/html":"https://www.gutenberg.org/ebooks/27207.html.images","application/epub+zip":"https://www.gutenberg.org/ebooks/27207.epub3.images","application/x-mobipocket-ebook":"https://www.gutenberg.org/ebooks/27207.kf8.images","text/plain; charset=us-ascii":"https://www.gutenberg.org/ebooks/27207.txt.utf-8","text/plain; charset=utf-8":"https://www.gutenberg.org/files/27207/27207-0.txt","application/rdf+xml":"https://www.gutenberg.org/ebooks/27207.rdf","image/jpeg":"https://www.gutenberg.org/cache/epub/27207/pg27207.cover.medium.jpg","application/octet-stream":"https://www.gutenberg.org/cache/epub/27207/pg27207-h.zip"},"download_count":52},{"id":51620,"title":"爾雅","authors":[{"name":"Unknown","birth_year":null,"death_year":null}],"translators":[],"subjects":["Chinese language -- To 600","Encyclopedias and dictionaries, Chinese"],"bookshelves":[],"languages":["zh"],"copyright":false,"media_type":"Text","formats":{"text/html":"https://www.gutenberg.org/ebooks/51620.html.images","application/epub+zip":"https://www.gutenberg.org/ebooks/51620.epub3.images","application/x-mobipocket-ebook":"https://www.gutenberg.org/ebooks/51620.kf8.images","text/plain; charset=us-ascii":"https://www.gutenberg.org/ebooks/51620.txt.utf-8","text/plain; charset=utf-8":"https://www.gutenberg.org/files/51620/51620-0.txt","application/rdf+xml":"https://www.gutenberg.org/ebooks/51620.rdf","image/jpeg":"https://www.gutenberg.org/cache/epub/51620/pg51620.cover.medium.jpg","application/octet-stream":"https://www.gutenberg.org/cache/epub/51620/pg51620-h.zip"},"download_count":52},{"id":7349,"title":"孫子兵法道家新註解","authors":[{"name":"Tang, Jingwu","birth_year":null,"death_year":null}],"translators":[],"subjects":["Military art and science -- Early works to 1800","Sunzi, 6th century B. C. Sunzi bing fa"],"bookshelves":[],"languages":["zh"],"copyright":false,"media_type":"Text","formats":{"text/html":"https://www.gutenberg.org/ebooks/7349.html.images","application/epub+zip":"https://www.gutenberg.org/ebooks/7349.epub3.images","application/x-mobipocket-ebook":"https://www.gutenberg.org/ebooks/7349.kf8.images","text/plain; charset=us-ascii":"https://www.gutenberg.org/ebooks/7349.txt.utf-8","text/plain; charset=utf-8":"https://www.gutenberg.org/files/7349/7349-0.txt","application/rdf+xml":"https://www.gutenberg.org/ebooks/7349.rdf","image/jpeg":"https://www.gutenberg.org/cache/epub/7349/pg7349.cover.medium.jpg","application/octet-stream":"https://www.gutenberg.org/cache/epub/7349/pg7349-h.zip"},"download_count":51},{"id":23878,"title":"人間樂","authors":[{"name":"Tianhuazangzhuren","birth_year":null,"death_year":null}],"translators":[],"subjects":["Chinese fiction -- Qing dynasty, 1644-1912"],"bookshelves":[],"languages":["zh"],"copyright":false,"media_type":"Text","formats":{"text/html":"https://www.gutenberg.org/ebooks/23878.html.images","application/epub+zip":"https://www.gutenberg.org/ebooks/23878.epub3.images","application/x-mobipocket-ebook":"https://www.gutenberg.org/ebooks/23878.kf8.images","text/plain; charset=us-ascii":"https://www.gutenberg.org/ebooks/23878.txt.utf-8","text/plain; charset=utf-8":"https://www.gutenberg.org/files/23878/23878-0.txt","application/rdf+xml":"https://www.gutenberg.org/ebooks/23878.rdf","image/jpeg":"https://www.gutenberg.org/cache/epub/23878/pg23878.cover.medium.jpg","application/octet-stream":"https://www.gutenberg.org/cache/epub/23878/pg23878-h.zip"},"download_count":51},{"id":24058,"title":"穆天子传","authors":[{"name":"Guo, Pu","birth_year":276,"death_year":324}],"translators":[],"subjects":["Legends -- China","Mythology, Chinese","Zhou Muwang, Emperor of China, active 11th century B.C.-10th century B.C."],"bookshelves":[],"languages":["zh"],"copyright":false,"media_type":"Text","formats":{"text/html":"https://www.gutenberg.org/ebooks/24058.html.images","application/epub+zip":"https://www.gutenberg.org/ebooks/24058.epub3.images","application/x-mobipocket-ebook":"https://www.gutenberg.org/ebooks/24058.kf8.images","text/plain; charset=us-ascii":"https://www.gutenberg.org/ebooks/24058.txt.utf-8","text/plain; charset=utf-8":"https://www.gutenberg.org/files/24058/24058-0.txt","application/rdf+xml":"https://www.gutenberg.org/ebooks/24058.rdf","image/jpeg":"https://www.gutenberg.org/cache/epub/24058/pg24058.cover.medium.jpg","application/octet-stream":"https://www.gutenberg.org/cache/epub/24058/pg24058-h.zip"},"download_count":51},{"id":24142,"title":"轟天雷","authors":[{"name":"Tenggu, Guxiang","birth_year":1880,"death_year":1919}],"translators":[],"subjects":["Chinese fiction -- Qing dynasty, 1644-1912"],"bookshelves":[],"languages":["zh"],"copyright":false,"media_type":"Text","formats":{"text/html":"https://www.gutenberg.org/ebooks/24142.html.images","application/epub+zip":"https://www.gutenberg.org/ebooks/24142.epub3.images","application/x-mobipocket-ebook":"https://www.gutenberg.org/ebooks/24142.kf8.images","text/plain; charset=us-ascii":"https://www.gutenberg.org/ebooks/24142.txt.utf-8","text/plain; charset=utf-8":"https://www.gutenberg.org/files/24142/24142-0.txt","application/rdf+xml":"https://www.gutenberg.org/ebooks/24142.rdf","image/jpeg":"https://www.gutenberg.org/cache/epub/24142/pg24142.cover.medium.jpg","application/octet-stream":"https://www.gutenberg.org/cache/epub/24142/pg24142-h.zip"},"download_count":51},{"id":25147,"title":"黃繡球","authors":[],"translators":[],"subjects":[],"bookshelves":[],"languages":["zh"],"copyright":false,"media_type":"Text","formats":{"text/html":"https://www.gutenberg.org/ebooks/25147.html.images","application/epub+zip":"https://www.gutenberg.org/ebooks/25147.epub3.images","application/x-mobipocket-ebook":"https://www.gutenberg.org/ebooks/25147.kf8.images","text/plain; charset=us-ascii":"https://www.gutenberg.org/ebooks/25147.txt.utf-8","text/plain; charset=utf-8":"https://www.gutenberg.org/files/25147/25147-0.txt","application/rdf+xml":"https://www.gutenberg.org/ebooks/25147.rdf","image/jpeg":"https://www.gutenberg.org/cache/epub/25147/pg25147.cover.medium.jpg","application/octet-stream":"https://www.gutenberg.org/cache/epub/25147/pg25147-h.zip"},"download_count":51},{"id":25214,"title":"劍俠傳","authors":[{"name":"Wang, Shizhen","birth_year":1634,"death_year":1711}],"translators":[],"subjects":["Swordsmen -- China"],"bookshelves":[],"languages":["zh"],"copyright":false,"media_type":"Text","formats":{"text/html":"https://www.gutenberg.org/ebooks/25214.html.images","application/epub+zip":"https://www.gutenberg.org/ebooks/25214.epub3.images","application/x-mobipocket-ebook":"https://www.gutenberg.org/ebooks/25214.kf8.images","text/plain; charset=us-ascii":"https://www.gutenberg.org/ebooks/25214.txt.utf-8","text/plain; charset=utf-8":"https://www.gutenberg.org/files/25214/25214-0.txt","application/rdf+xml":"https://www.gutenberg.org/ebooks/25214.rdf","image/jpeg":"https://www.gutenberg.org/cache/epub/25214/pg25214.cover.medium.jpg","application/octet-stream":"https://www.gutenberg.org/cache/epub/25214/pg25214-h.zip"},"download_count":51},{"id":25271,"title":"朝花夕拾","authors":[{"name":"Lu, Xun","birth_year":1881,"death_year":1936}],"translators":[],"subjects":["Essays"],"bookshelves":[],"languages":["zh"],"copyright":false,"media_type":"Text","formats":{"text/html":"https://www.gutenberg.org/ebooks/25271.html.images","application/epub+zip":"https://www.gutenberg.org/ebooks/25271.epub3.images","application/x-mobipocket-ebook":"https://www.gutenberg.org/ebooks/25271.kf8.images","text/plain; charset=us-ascii":"https://www.gutenberg.org/ebooks/25271.txt.utf-8","text/plain; charset=utf-8":"https://www.gutenberg.org/files/25271/25271-0.txt","application/rdf+xml":"https://www.gutenberg.org/ebooks/25271.rdf","image/jpeg":"https://www.gutenberg.org/cache/epub/25271/pg25271.cover.medium.jpg","application/octet-stream":"https://www.gutenberg.org/cache/epub/25271/pg25271-h.zip"},"download_count":51},{"id":26748,"title":"幻中游","authors":[{"name":"Yanxiazhuren, active 18th century","birth_year":null,"death_year":null}],"translators":[],"subjects":["Su, Shi, 1037-1101 -- Fiction"],"bookshelves":[],"languages":["zh"],"copyright":false,"media_type":"Text","formats":{"text/html":"https://www.gutenberg.org/ebooks/26748.html.images","application/epub+zip":"https://www.gutenberg.org/ebooks/26748.epub3.images","application/x-mobipocket-ebook":"https://www.gutenberg.org/ebooks/26748.kf8.images","text/plain; charset=us-ascii":"https://www.gutenberg.org/ebooks/26748.txt.utf-8","text/plain; charset=utf-8":"https://www.gutenberg.org/files/26748/26748-0.txt","application/rdf+xml":"https://www.gutenberg.org/ebooks/26748.rdf","image/jpeg":"https://www.gutenberg.org/cache/epub/26748/pg26748.cover.medium.jpg","application/octet-stream":"https://www.gutenberg.org/cache/epub/26748/pg26748-h.zip"},"download_count":51},{"id":27016,"title":"Eight dwelling places of Buddhist immortals","authors":[{"name":"Five colors stone","birth_year":null,"death_year":null}],"translators":[],"subjects":[],"bookshelves":[],"languages":["zh"],"copyright":false,"media_type":"Text","formats":{"text/html":"https://www.gutenberg.org/ebooks/27016.html.images","application/epub+zip":"https://www.gutenberg.org/ebooks/27016.epub3.images","application/x-mobipocket-ebook":"https://www.gutenberg.org/ebooks/27016.kf8.images","text/plain; charset=us-ascii":"https://www.gutenberg.org/ebooks/27016.txt.utf-8","text/plain; charset=utf-8":"https://www.gutenberg.org/files/27016/27016-0.txt","application/rdf+xml":"https://www.gutenberg.org/ebooks/27016.rdf","image/jpeg":"https://www.gutenberg.org/cache/epub/27016/pg27016.cover.medium.jpg","application/octet-stream":"https://www.gutenberg.org/cache/epub/27016/pg27016-h.zip"},"download_count":51},{"id":38580,"title":"True Heart/Mind","authors":[{"name":"Sengcan","birth_year":null,"death_year":606}],"translators":[{"name":"Linnell, Bruce R.","birth_year":null,"death_year":null}],"subjects":["Zen Buddhism"],"bookshelves":[],"languages":["en","zh"],"copyright":true,"media_type":"Text","formats":{"text/html":"https://www.gutenberg.org/ebooks/38580.html.images","application/epub+zip":"https://www.gutenberg.org/ebooks/38580.epub3.images","application/pdf":"https://www.gutenberg.org/files/38580/38580-pdf/38580-pdf.pdf","application/x-mobipocket-ebook":"https://www.gutenberg.org/ebooks/38580.kf8.images","text/plain; charset=us-ascii":"https://www.gutenberg.org/ebooks/38580.txt.utf-8","application/rdf+xml":"https://www.gutenberg.org/ebooks/38580.rdf","image/jpeg":"https://www.gutenberg.org/cache/epub/38580/pg38580.cover.medium.jpg","application/octet-stream":"https://www.gutenberg.org/cache/epub/38580/pg38580-h.zip"},"download_count":51},{"id":24110,"title":"歐遊雜記","authors":[{"name":"Zhu, Ziqing","birth_year":1898,"death_year":1948}],"translators":[],"subjects":["Europe -- Description and travel","Zhu, Ziqing, 1898-1948 -- Travel -- Europe"],"bookshelves":[],"languages":["zh"],"copyright":false,"media_type":"Text","formats":{"text/html":"https://www.gutenberg.org/ebooks/24110.html.images","application/epub+zip":"https://www.gutenberg.org/ebooks/24110.epub3.images","application/x-mobipocket-ebook":"https://www.gutenberg.org/ebooks/24110.kf8.images","text/plain; charset=us-ascii":"https://www.gutenberg.org/ebooks/24110.txt.utf-8","text/plain; charset=utf-8":"https://www.gutenberg.org/files/24110/24110-0.txt","application/rdf+xml":"https://www.gutenberg.org/ebooks/24110.rdf","image/jpeg":"https://www.gutenberg.org/cache/epub/24110/pg24110.cover.medium.jpg","application/octet-stream":"https://www.gutenberg.org/cache/epub/24110/pg24110-h.zip"},"download_count":50},{"id":24111,"title":"竹書紀年","authors":[{"name":"Unknown","birth_year":null,"death_year":null}],"translators":[],"subjects":["China -- History -- To 221 B.C. -- Chronology"],"bookshelves":[],"languages":["zh"],"copyright":false,"media_type":"Text","formats":{"text/html":"https://www.gutenberg.org/ebooks/24111.html.images","application/epub+zip":"https://www.gutenberg.org/ebooks/24111.epub3.images","application/x-mobipocket-ebook":"https://www.gutenberg.org/ebooks/24111.kf8.images","text/plain; charset=us-ascii":"https://www.gutenberg.org/ebooks/24111.txt.utf-8","text/plain; charset=utf-8":"https://www.gutenberg.org/files/24111/24111-0.txt","application/rdf+xml":"https://www.gutenberg.org/ebooks/24111.rdf","image/jpeg":"https://www.gutenberg.org/cache/epub/24111/pg24111.cover.medium.jpg","application/octet-stream":"https://www.gutenberg.org/cache/epub/24111/pg24111-h.zip"},"download_count":50},{"id":25557,"title":"臺灣通史: 唐山過海的故事","authors":[{"name":"Lian, Heng","birth_year":1878,"death_year":1936}],"translators":[],"subjects":["Taiwan -- History"],"bookshelves":[],"languages":["zh"],"copyright":false,"media_type":"Text","formats":{"text/html":"https://www.gutenberg.org/ebooks/25557.html.images","application/epub+zip":"https://www.gutenberg.org/ebooks/25557.epub3.images","application/x-mobipocket-ebook":"https://www.gutenberg.org/ebooks/25557.kf8.images","text/plain; charset=us-ascii":"https://www.gutenberg.org/ebooks/25557.txt.utf-8","text/plain; charset=utf-8":"https://www.gutenberg.org/files/25557/25557-0.txt","application/rdf+xml":"https://www.gutenberg.org/ebooks/25557.rdf","image/jpeg":"https://www.gutenberg.org/cache/epub/25557/pg25557.cover.medium.jpg","application/octet-stream":"https://www.gutenberg.org/cache/epub/25557/pg25557-h.zip"},"download_count":50},{"id":27329,"title":"唐鍾馗平鬼傳","authors":[{"name":"Dongshanyunzhongdaoren","birth_year":null,"death_year":null}],"translators":[],"subjects":[],"bookshelves":[],"languages":["zh"],"copyright":false,"media_type":"Text","formats":{"text/html":"https://www.gutenberg.org/ebooks/27329.html.images","application/epub+zip":"https://www.gutenberg.org/ebooks/27329.epub3.images","application/x-mobipocket-ebook":"https://www.gutenberg.org/ebooks/27329.kf8.images","text/plain; charset=us-ascii":"https://www.gutenberg.org/ebooks/27329.txt.utf-8","text/plain; charset=utf-8":"https://www.gutenberg.org/files/27329/27329-0.txt","application/rdf+xml":"https://www.gutenberg.org/ebooks/27329.rdf","image/jpeg":"https://www.gutenberg.org/cache/epub/27329/pg27329.cover.medium.jpg","application/octet-stream":"https://www.gutenberg.org/cache/epub/27329/pg27329-h.zip"},"download_count":50},{"id":27753,"title":"一枕奇","authors":[{"name":"Huayangsanren","birth_year":null,"death_year":null}],"translators":[],"subjects":["Chinese fiction"],"bookshelves":[],"languages":["zh"],"copyright":false,"media_type":"Text","formats":{"text/html":"https://www.gutenberg.org/ebooks/27753.html.images","application/epub+zip":"https://www.gutenberg.org/ebooks/27753.epub3.images","application/x-mobipocket-ebook":"https://www.gutenberg.org/ebooks/27753.kf8.images","text/plain; charset=us-ascii":"https://www.gutenberg.org/ebooks/27753.txt.utf-8","text/plain; charset=utf-8":"https://www.gutenberg.org/files/27753/27753-0.txt","application/rdf+xml":"https://www.gutenberg.org/ebooks/27753.rdf","image/jpeg":"https://www.gutenberg.org/cache/epub/27753/pg27753.cover.medium.jpg","application/octet-stream":"https://www.gutenberg.org/cache/epub/27753/pg27753-h.zip"},"download_count":50},{"id":23949,"title":"茶經","authors":[{"name":"Lu, Yu","birth_year":733,"death_year":804}],"translators":[],"subjects":["Tea -- China -- Early works to 1800","Tea -- China -- History"],"bookshelves":[],"languages":["zh"],"copyright":false,"media_type":"Text","formats":{"text/html":"https://www.gutenberg.org/ebooks/23949.html.images","application/epub+zip":"https://www.gutenberg.org/ebooks/23949.epub3.images","application/x-mobipocket-ebook":"https://www.gutenberg.org/ebooks/23949.kf8.images","text/plain; charset=us-ascii":"https://www.gutenberg.org/ebooks/23949.txt.utf-8","text/plain; charset=utf-8":"https://www.gutenberg.org/files/23949/23949-0.txt","application/rdf+xml":"https://www.gutenberg.org/ebooks/23949.rdf","image/jpeg":"https://www.gutenberg.org/cache/epub/23949/pg23949.cover.medium.jpg","application/octet-stream":"https://www.gutenberg.org/cache/epub/23949/pg23949-h.zip"},"download_count":49},{"id":25250,"title":"合錦回文傳","authors":[{"name":"Li, Yu","birth_year":1611,"death_year":null}],"translators":[],"subjects":["Chinese fiction -- Ming dynasty, 1368-1644"],"bookshelves":[],"languages":["zh"],"copyright":false,"media_type":"Text","formats":{"text/html":"https://www.gutenberg.org/ebooks/25250.html.images","application/epub+zip":"https://www.gutenberg.org/ebooks/25250.epub3.images","application/x-mobipocket-ebook":"https://www.gutenberg.org/ebooks/25250.kf8.images","text/plain; charset=us-ascii":"https://www.gutenberg.org/ebooks/25250.txt.utf-8","text/plain; charset=utf-8":"https://www.gutenberg.org/files/25250/25250-0.txt","application/rdf+xml":"https://www.gutenberg.org/ebooks/25250.rdf","image/jpeg":"https://www.gutenberg.org/cache/epub/25250/pg25250.cover.medium.jpg","application/octet-stream":"https://www.gutenberg.org/cache/epub/25250/pg25250-h.zip"},"download_count":49},{"id":25284,"title":"五鳳吟","authors":[{"name":"Yunyangchichidaoren, active 17th century-18th century","birth_year":null,"death_year":null}],"translators":[],"subjects":["Chinese fiction -- Qing dynasty, 1644-1912"],"bookshelves":[],"languages":["zh"],"copyright":false,"media_type":"Text","formats":{"text/html":"https://www.gutenberg.org/ebooks/25284.html.images","text/html; charset=utf-8":"https://www.gutenberg.org/files/25284/25284-h/25284-h.htm","application/epub+zip":"https://www.gutenberg.org/ebooks/25284.epub3.images","application/x-mobipocket-ebook":"https://www.gutenberg.org/ebooks/25284.kf8.images","text/plain; charset=us-ascii":"https://www.gutenberg.org/ebooks/25284.txt.utf-8","text/plain; charset=utf-8":"https://www.gutenberg.org/files/25284/25284-0.txt","application/rdf+xml":"https://www.gutenberg.org/ebooks/25284.rdf","image/jpeg":"https://www.gutenberg.org/cache/epub/25284/pg25284.cover.medium.jpg","application/octet-stream":"https://www.gutenberg.org/cache/epub/25284/pg25284-h.zip"},"download_count":49}]}