{"count":444,"next":"http://129.241.150.113:8000/books/?languages=zh&page=4","previous":"http://129.241.150.113:8000/books/?languages=zh&page=2","results":[{"id":24136,"title":"左傳","authors":[{"name":"Zuoqiu, Ming","birth_year":null,"death_year":null}],"translators":[],"subjects":["Confucius. Chun qiu"],"bookshelves":[],"languages":["zh"],"copyright":false,"media_type":"Text","formats":{"text/html":"https://www.gutenberg.org/ebooks/24136.html.images","application/epub+zip":"https://www.gutenberg.org/ebooks/24136.epub3.images","application/x-mobipocket-ebook":"https://www.gutenberg.org/ebooks/24136.kf8.images","text/plain; charset=us-ascii":"https://www.gutenberg.org/ebooks/24136.txt.utf-8","text/plain; charset=utf-8":"https://www.gutenberg.org/files/24136/24136-0.txt","application/rdf+xml":"https://www.gutenberg.org/ebooks/24136.rdf","image/jpeg":"https://www.gutenberg.org/cache/epub/24136/pg24136.cover.medium.jpg","application/octet-stream":"https://www.gutenberg.org/cache/epub/24136/pg24136-h.zip"},"download_count":148},{"id":23907,"title":"無聲戲","authors":[{"name":"Li, Yu","birth_year":1611,"death_year":null}],"translators":[],"subjects":["Chinese fiction -- Qing dynasty, 1644-1912"],"bookshelves":[],"languages":["zh"],"copyright":false,"media_type":"Text","formats":{"text/html":"https://www.gutenberg.org/ebooks/23907.html.images","application/epub+zip":"https://www.gutenberg.org/ebooks/23907.epub3.images","application/x-mobipocket-ebook":"https://www.gutenberg.org/ebooks/23907.kf8.images","text/plain; charset=us-ascii":"https://www.gutenberg.org/ebooks/23907.txt.utf-8","text/plain; charset=utf-8":"https://www.gutenberg.org/files/23907/23907-0.txt","application/rdf+xml":"https://www.gutenberg.org/ebooks/23907.rdf","image/jpeg":"https://www.gutenberg.org/cache/epub/23907/pg23907.cover.medium.jpg","application/octet-stream":"https://www.gutenberg.org/cache/epub/23907/pg23907-h.zip"},"download_count":145},{"id":25134,"title":"九尾狐","authors":[{"name":"Pinghuazhuren","birth_year":null,"death_year":null}],"translators":[],"subjects":["Chinese fiction"],"bookshelves":[],"languages":["zh"],"copyright":false,"media_type":"Text","formats":{"text/html":"https://www.gutenberg.org/ebooks/25134.html.images","application/epub+zip":"https://www.gutenberg.org/ebooks/25134.epub3.images","application/x-mobipocket-ebook":"https://www.gutenberg.org/ebooks/25134.kf8.images","text/plain; charset=us-ascii":"https://www.gutenberg.org/ebooks/25134.txt.utf-8","text/plain; charset=utf-8":"https://www.gutenberg.org/files/25134/25134-0.txt","application/rdf+xml":"https://www.gutenberg.org/ebooks/25134.rdf","image/jpeg":"https://www.gutenberg.org/cache/epub/25134/pg25134.cover.medium.jpg","application/octet-stream":"https://www.gutenberg.org/cache/epub/25134/pg25134-h.zip"},"download_count":144},{"id":24047,"title":"世說新語","authors":[{"name":"Liu, Yiqing","birth_year":403,"death_year":444}],"translators":[],"subjects":["China -- History -- Jin dynasty, 265-419 -- Anecdotes","China -- History -- Three kingdoms, 220-265 -- Anecdotes"],"bookshelves":[],"languages":["zh"],"copyright":false,"media_type":"Text","formats":{"text/html":"https://www.gutenberg.org/ebooks/24047.html.images","application/epub+zip":"https://www.gutenberg.org/ebooks/24047.epub3.images","application/x-mobipocket-ebook":"https://www.gutenberg.org/ebooks/24047.kf8.images","text/plain; charset=us-ascii":"https://www.gutenberg.org/ebooks/24047.txt.utf-8","text/plain; charset=utf-8":"https://www.gutenberg.org/files/24047/24047-0.txt","application/rdf+xml":"https://www.gutenberg.org/ebooks/24047.rdf","image/jpeg":"https://www.gutenberg.org/cache/epub/24047/pg24047.cover.medium.jpg","application/octet-stream":"https://www.gutenberg.org/cache/epub/24047/pg24047-h.zip"},"download_count":136},{"id":24060,"title":"李太白集","authors":[{"name":"Li, Bai","birth_year":701,"death_year":762}],"translators":[],"subjects":["Chinese poetry -- Tang dynasty, 618-907"],"bookshelves":[],"languages":["zh"],"copyright":false,"media_type":"Text","formats":{"text/html":"https://www.gutenberg.org/ebooks/24060.html.images","application/epub+zip":"https://www.gutenberg.org/ebooks/24060.epub3.images","application/x-mobipocket-ebook":"https://www.gutenberg.org/ebooks/24060.kf8.images","text/plain; charset=us-ascii":"https://www.gutenberg.org/ebooks/24060.txt.utf-8","text/plain; charset=utf-8":"https://www.gutenberg.org/files/24060/24060-0.txt","application/rdf+xml":"https://www.gutenberg.org/ebooks/24060.rdf","image/jpeg":"https://www.gutenberg.org/cache/epub/24060/pg24060.cover.medium.jpg","application/octet-stream":"https://www.gutenberg.org/cache/epub/24060/pg24060-h.zip"},"download_count":136},{"id":25187,"title":"花月痕","authors":[{"name":"Wei, Zi'an","birth_year":1819,"death_year":1874}],"translators":[],"subjects":["Chinese fiction -- Qing dynasty, 1644-1912"],"bookshelves":[],"languages":["zh"],"copyright":false,"media_type":"Text","formats":{"text/html":"https://www.gutenberg.org/ebooks/25187.html.images","application/epub+zip":"https://www.gutenberg.org/ebooks/25187.epub3.images","application/x-mobipocket-ebook":"https://www.gutenberg.org/ebooks/25187.kf8.images","text/plain; charset=us-ascii":"https://www.gutenberg.org/ebooks/25187.txt.utf-8","text/plain; charset=utf-8":"https://www.gutenberg.org/files/25187/25187-0.txt","application/rdf+xml":"https://www.gutenberg.org/ebooks/25187.rdf","image/jpeg":"https://www.gutenberg.org/cache/epub/25187/pg25187.cover.medium.jpg","application/octet-stream":"https://www.gutenberg.org/cache/epub/25187/pg25187-h.zip"},"download_count":133},{"id":7337,"title":"道德經","authors":[{"name":"Laozi","birth_year":null,"death_year":null}],"translators":[],"subjects":["Philosophy, Chinese","Taoism -- Sacred books"],"bookshelves":[],"languages":["zh"],"copyright":false,"media_type":"Text","formats":{"text/html":"https://www.gutenberg.org/ebooks/7337.html.images","application/epub+zip":"https://www.gutenberg.org/ebooks/7337.epub3.images","application/x-mobipocket-ebook":"https://www.gutenberg.org/ebooks/7337.kf8.images","text/plain; charset=us-ascii":"https://www.gutenberg.org/ebooks/7337.txt.utf-8","text/plain; charset=utf-8":"https://www.gutenberg.org/files/7337/7337-0.txt","application/rdf+xml":"https://www.gutenberg.org/ebooks/7337.rdf","image/jpeg":"https://www.gutenberg.org/cache/epub/7337/pg7337.cover.medium.jpg","application/octet-stream":"https://www.gutenberg.org/cache/epub/7337/pg7337-h.zip"},"download_count":131},{"id":23841,"title":"漢書","authors":[{"name":"Ban, Gu","birth_year":32,"death_year":92}],"translators":[],"subjects":["China -- History -- Han dynasty, 202 B.C.-220 A.D."],"bookshelves":[],"languages":["zh"],"copyright":false,"media_type":"Text","formats":{"text/html":"https://www.gutenberg.org/ebooks/23841.html.images","application/epub+zip":"https://www.gutenberg.org/ebooks/23841.epub3.images","application/x-mobipocket-ebook":"https://www.gutenberg.org/ebooks/23841.kf8.images","text/plain; charset=us-ascii":"https://www.gutenberg.org/ebooks/23841.txt.utf-8","text/plain; charset=utf-8":"https://www.gutenberg.org/files/23841/23841-0.txt","application/rdf+xml":"https://www.gutenberg.org/ebooks/23841.rdf","image/jpeg":"https://www.gutenberg.org/cache/epub/23841/pg23841.cover.medium.jpg","application/octet-stream":"https://www.gutenberg.org/cache/epub/23841/pg23841-h.zip"},"download_count":131},{"id":52323,"title":"唐诗三百首","authors":[],"translators":[],"subjects":["Chinese poetry -- Tang dynasty, 618-907"],"bookshelves":[],"languages":["zh"],"copyright":false,"media_type":"Text","formats":{"text/html":"https://www.gutenberg.org/ebooks/52323.html.images","application/epub+zip":"https://www.gutenberg.org/ebooks/52323.epub3.images","application/x-mobipocket-ebook":"https://www.gutenberg.org/ebooks/52323.kf8.images","text/plain; charset=us-ascii":"https://www.gutenberg.org/ebooks/52323.txt.utf-8","text/plain; charset=utf-8":"https://www.gutenberg.org/files/52323/52323-0.txt","application/rdf+xml":"https://www.gutenberg.org/ebooks/52323.rdf","image/jpeg":"https://www.gutenberg.org/cache/epub/52323/pg52323.cover.medium.jpg","application/octet-stream":"https://www.gutenberg.org/cache/epub/52323/pg52323-h.zip"},"download_count":130},{"id":25225,"title":"古文觀止","authors":[{"name":"Wu, Chengquan, active 1695-1711","birth_year":null,"death_year":null},{"name":"Wu, Dazhi, active 1678-1695","birth_year":null,"death_year":null}],"translators":[],"subjects":["Chinese prose literature"],"bookshelves":[],"languages":["zh"],"copyright":false,"media_type":"Text","formats":{"text/html":"https://www.gutenberg.org/ebooks/25225.html.images","application/epub+zip":"https://www.gutenberg.org/ebooks/25225.epub3.images","application/x-mobipocket-ebook":"https://www.gutenberg.org/ebooks/25225.kf8.images","text/plain; charset=us-ascii":"https://www.gutenberg.org/ebooks/25225.txt.utf-8","text/plain; charset=utf-8":"https://www.gutenberg.org/files/25225/25225-0.txt","application/rdf+xml":"https://www.gutenberg.org/ebooks/25225.rdf","image/jpeg":"https://www.gutenberg.org/cache/epub/25225/pg25225.cover.medium.jpg","application/octet-stream":"https://www.gutenberg.org/cache/epub/25225/pg25225-h.zip"},"download_count":128},{"id":25423,"title":"狂人日記","authors":[{"name":"Lu, Xun","birth_year":1881,"death_year":1936}],"translators":[],"subjects":["Chinese fiction -- 20th century","Diaries -- Fiction"],"bookshelves":[],"languages":["zh"],"copyright":false,"media_type":"Text","formats":{"text/html":"https://www.gutenberg.org/ebooks/25423.html.images","application/epub+zip":"https://www.gutenberg.org/ebooks/25423.epub3.images","application/x-mobipocket-ebook":"https://www.gutenberg.org/ebooks/25423.kf8.images","text/plain; charset=us-ascii":"https://www.gutenberg.org/ebooks/25423.txt.utf-8","text/plain; charset=utf-8":"https://www.gutenberg.org/files/25423/25423-0.txt","application/rdf+xml":"https://www.gutenberg.org/ebooks/25423.rdf","image/jpeg":"https://www.gutenberg.org/cache/epub/25423/pg25423.cover.medium.jpg","application/octet-stream":"https://www.gutenberg.org/cache/epub/25423/pg25423-h.zip"},"download_count":128},{"id":29079,"title":"五色石","authors":[{"name":"Wuseshizhuren, ju ren 1738","birth_year":null,"death_year":null}],"translators":[],"subjects":["Chinese fiction -- Qing dynasty, 1644-1912"],"bookshelves":[],"languages":["zh"],"copyright":false,"media_type":"Text","formats":{"text/html":"https://www.gutenberg.org/ebooks/29079.html.images","application/epub+zip":"https://www.gutenberg.org/ebooks/29079.epub3.images","application/x-mobipocket-ebook":"https://www.gutenberg.org/ebooks/29079.kf8.images","text/plain; charset=us-ascii":"https://www.gutenberg.org/ebooks/29079.txt.utf-8","text/plain; charset=utf-8":"https://www.gutenberg.org/files/29079/29079-0.txt","application/rdf+xml":"https://www.gutenberg.org/ebooks/29079.rdf","image/jpeg":"https://www.gutenberg.org/cache/epub/29079/pg29079.cover.medium.jpg","application/octet-stream":"https://www.gutenberg.org/cache/epub/29079/pg29079-h.zip"},"download_count":127},{"id":27402,"title":"風流悟","authors":[{"name":"Zuohuasanren","birth_year":null,"death_year":null}],"translators":[],"subjects":["Chinese fiction"],"bookshelves":[],"languages":["zh"],"copyright":false,"media_type":"Text","formats":{"text/html":"https://www.gutenberg.org/ebooks/27402.html.images","application/epub+zip":"https://www.gutenberg.org/ebooks/27402.epub3.images","application/x-mobipocket-ebook":"https://www.gutenberg.org/ebooks/27402.kf8.images","text/plain; charset=us-ascii":"https://www.gutenberg.org/ebooks/27402.txt.utf-8","text/plain; charset=utf-8":"https://www.gutenberg.org/files/27402/27402-0.txt","application/rdf+xml":"https://www.gutenberg.org/ebooks/27402.rdf","image/jpeg":"https://www.gutenberg.org/cache/epub/27402/pg27402.cover.medium.jpg","application/octet-stream":"https://www.gutenberg.org/cache/epub/27402/pg27402-h.zip"},"download_count":122},{"id":24032,"title":"儒林外史","authors":[{"name":"Wu, Jingzi","birth_year":1701,"death_year":1754}],"translators":[],"subjects":["China -- Social life and customs -- 1644-1912 -- Fiction","Chinese fiction -- Qing dynasty, 1644-1912","Scholars -- China -- Fiction"],"bookshelves":[],"languages":["zh"],"copyright":false,"media_type":"Text","formats":{"text/html":"https://www.gutenberg.org/ebooks/24032.html.images","application/epub+zip":"https://www.gutenberg.org/ebooks/24032.epub3.images","application/x-mobipocket-ebook":"https://www.gutenberg.org/ebooks/24032.kf8.images","text/plain; charset=us-ascii":"https://www.gutenberg.org/ebooks/24032.txt.utf-8","text/plain; charset=utf-8":"https://www.gutenberg.org/files/24032/24032-0.txt","application/rdf+xml":"https://www.gutenberg.org/ebooks/24032.rdf","image/jpeg":"https://www.gutenberg.org/cache/epub/24032/pg24032.cover.medium.jpg","application/octet-stream":"https://www.gutenberg.org/cache/epub/24032/pg24032-h.zip"},"download_count":118},{"id":27636,"title":"沉沦","authors":[{"name":"Yu, Dafu","birth_year":1896,"death_year":1945}],"translators":[],"subjects":["Chinese fiction","Chinese prose literature"],"bookshelves":[],"languages":["zh"],"copyright":false,"media_type":"Text","formats":{"text/html":"https://www.gutenberg.org/ebooks/27636.html.images","application/epub+zip":"https://www.gutenberg.org/ebooks/27636.epub3.images","application/x-mobipocket-ebook":"https://www.gutenberg.org/ebooks/27636.kf8.images","text/plain; charset=us-ascii":"https://www.gutenberg.org/ebooks/27636.txt.utf-8","text/plain; charset=utf-8":"https://www.gutenberg.org/files/27636/27636-0.txt","application/rdf+xml":"https://www.gutenberg.org/ebooks/27636.rdf","image/jpeg":"https://www.gutenberg.org/cache/epub/27636/pg27636.cover.medium.jpg","application/octet-stream":"https://www.gutenberg.org/cache/epub/27636/pg27636-h.zip"},"download_count":118},{"id":4580,"title":"粉妝樓","authors":[{"name":"Luo, Guanzhong","birth_year":null,"death_year":null}],"translators":[],"subjects":["China -- History -- Tang dynasty, 618-907 -- Fiction"],"bookshelves":[],"languages":["zh"],"copyright":false,"media_type":"Text","formats":{"text/html":"https://www.gutenberg.org/ebooks/4580.html.images","text/html; charset=utf-8":"https://www.gutenberg.org/files/4580/4580-h/4580-h.htm","application/epub+zip":"https://www.gutenberg.org/ebooks/4580.epub3.images","application/x-mobipocket-ebook":"https://www.gutenberg.org/ebooks/4580.kf8.images","text/plain; charset=us-ascii":"https://www.gutenberg.org/ebooks/4580.txt.utf-8","text/plain; charset=utf-8":"https://www.gutenberg.org/files/4580/4580-0.txt","application/rdf+xml":"https://www.gutenberg.org/ebooks/4580.rdf","image/jpeg":"https://www.gutenberg.org/cache/epub/4580/pg4580.cover.medium.jpg","application/octet-stream":"https://www.gutenberg.org/cache/epub/4580/pg4580-h.zip"},"download_count":114},{"id":25279,"title":"錦香亭","authors":[{"name":"Su'anzhuren, active 18th century","birth_year":null,"death_year":null}],"translators":[],"subjects":["Chinese fiction -- Qing dynasty, 1644-1912"],"bookshelves":[],"languages":["zh"],"copyright":false,"media_type":"Text","formats":{"text/html":"https://www.gutenberg.org/ebooks/25279.html.images","application/epub+zip":"https://www.gutenberg.org/ebooks/25279.epub3.images","application/x-mobipocket-ebook":"https://www.gutenberg.org/ebooks/25279.kf8.images","text/plain; charset=us-ascii":"https://www.gutenberg.org/ebooks/25279.txt.utf-8","text/plain; charset=utf-8":"https://www.gutenberg.org/files/25279/25279-0.txt","application/rdf+xml":"https://www.gutenberg.org/ebooks/25279.rdf","image/jpeg":"https://www.gutenberg.org/cache/epub/25279/pg25279.cover.medium.jpg","application/octet-stream":"https://www.gutenberg.org/cache/epub/25279/pg25279-h.zip"},"download_count":111},{"id":27026,"title":"豔異編","authors":[{"name":"Wang, Shizhen","birth_year":1526,"death_year":1590}],"translators":[],"subjects":["Chinese fiction -- 960-1644","Chinese fiction -- Ming dynasty, 1368-1644","Chinese fiction -- Tang dynasty, 618-907","Short stories, Chinese"],"bookshelves":[],"languages":["zh"],"copyright":false,"media_type":"Text","formats":{"text/html":"https://www.gutenberg.org/ebooks/27026.html.images","application/epub+zip":"https://www.gutenberg.org/ebooks/27026.epub3.images","application/x-mobipocket-ebook":"https://www.gutenberg.org/ebooks/27026.kf8.images","text/plain; charset=us-ascii":"https://www.gutenberg.org/ebooks/27026.txt.utf-8","text/plain; charset=utf-8":"https://www.gutenberg.org/files/27026/27026-0.txt","application/rdf+xml":"https://www.gutenberg.org/ebooks/27026.rdf","image/jpeg":"https://www.gutenberg.org/cache/epub/27026/pg27026.cover.medium.jpg","application/octet-stream":"https://www.gutenberg.org/cache/epub/27026/pg27026-h.zip"},"download_count":111},{"id":12479,"title":"三字經","authors":[{"name":"Anonymous","birth_year":null,"death_year":null}],"translators":[],"subjects":["Chinese language -- Readers"],"bookshelves":[],"languages":["zh"],"copyright":false,"media_type":"Text","formats":{"text/html":"https://www.gutenberg.org/ebooks/12479.html.images","application/epub+zip":"https://www.gutenberg.org/ebooks/12479.epub3.images","application/x-mobipocket-ebook":"https://www.gutenberg.org/ebooks/12479.kf8.images","text/plain; charset=us-ascii":"https://www.gutenberg.org/ebooks/12479.txt.utf-8","application/rdf+xml":"https://www.gutenberg.org/ebooks/12479.rdf","image/jpeg":"https://www.gutenberg.org/cache/epub/12479/pg12479.cover.medium.jpg","application/octet-stream":"https://www.gutenberg.org/files/12479/12479-0.zip"},"download_count":110},{"id":23850,"title":"老殘遊記","authors":[{"name":"Liu, E","birth_year":1857,"death_year":1909}],"translators":[],"subjects":["Chinese fiction -- Qing dynasty, 1644-1912","Tai Mountains (China) -- Fiction"],"bookshelves":[],"languages":["zh"],"copyright":false,"media_type":"Text","formats":{"text/html":"https://www.gutenberg.org/ebooks/23850.html.images","application/epub+zip":"https://www.gutenberg.org/ebooks/23850.epub3.images","application/x-mobipocket-ebook":"https://www.gutenberg.org/ebooks/23850.kf8.images","text/plain; charset=us-ascii":"https://www.gutenberg.org/ebooks/23850.txt.utf-8","text/plain; charset=utf-8":"https://www.gutenberg.org/files/23850/23850-0.txt","application/rdf+xml":"https://www.gutenberg.org/ebooks/23850.rdf","image/jpeg":"https://www.gutenberg.org/cache/epub/23850/pg23850.cover.medium.jpg","application/octet-stream":"https://www.gutenberg.org/cache/epub/23850/pg23850-h.zip"},"download_count":110},{"id":26161,"title":"醒世姻緣","authors":[{"name":"Pu, Songling","birth_year":1640,"death_year":1715}],"translators":[],"subjects":["Chinese fiction -- Qing dynasty, 1644-1912"],"bookshelves":[],"languages":["zh"],"copyright":false,"media_type":"Text","formats":{"text/html":"https://www.gutenberg.org/ebooks/26161.html.images","application/epub+zip":"https://www.gutenberg.org/ebooks/26161.epub3.images","application/x-mobipocket-ebook":"https://www.gutenberg.org/ebooks/26161.kf8.images","text/plain; charset=us-ascii":"https://www.gutenberg.org/ebooks/26161.txt.utf-8","text/plain; charset=utf-8":"https://www.gutenberg.org/files/26161/26161-0.txt","application/rdf+xml":"https://www.gutenberg.org/ebooks/26161.rdf","image/jpeg":"https://www.gutenberg.org/cache/epub/26161/pg26161.cover.medium.jpg","application/octet-stream":"https://www.gutenberg.org/cache/epub/26161/pg26161-h.zip"},"download_count":109},{"id":7209,"title":"鬼谷子","authors":[{"name":"Guiguzi, active 4th century B.C.","birth_year":null,"death_year":null}],"translators":[],"subjects":["Military art and science -- China -- Early works to 1800","Philosophy, Chinese"],"bookshelves":[],"languages":["zh"],"copyright":false,"media_type":"Text","formats":{"text/html":"https://www.gutenberg.org/ebooks/7209.html.images","application/epub+zip":"https://www.gutenberg.org/ebooks/7209.epub3.images","application/x-mobipocket-ebook":"https://www.gutenberg.org/ebooks/7209.kf8.images","text/plain; charset=us-ascii":"https://www.gutenberg.org/ebooks/7209.txt.utf-8","text/plain; charset=utf-8":"https://www.gutenberg.org/files/7209/7209-0.txt","application/rdf+xml":"https://www.gutenberg.org/ebooks/7209.rdf","image/jpeg":"https://www.gutenberg.org/cache/epub/7209/pg7209.cover.medium.jpg","application/octet-stream":"https://www.gutenberg.org/cache/epub/7209/pg7209-h.zip"},"download_count":108},{"id":25349,"title":"東周列國志","authors":[{"name":"Feng, Menglong","birth_year":1574,"death_year":1646}],"translators":[],"subjects":["China -- History -- Zhou dynasty, 1122-221 B.C. -- Fiction"],"bookshelves":[],"languages":["zh"],"copyright":false,"media_type":"Text","formats":{"text/html":"https://www.gutenberg.org/ebooks/25349.html.images","application/epub+zip":"https://www.gutenberg.org/ebooks/25349.epub3.images","application/x-mobipocket-ebook":"https://www.gutenberg.org/ebooks/25349.kf8.images","text/plain; charset=us-ascii":"https://www.gutenberg.org/ebooks/25349.txt.utf-8","text/plain; charset=utf-8":"https://www.gutenberg.org/files/25349/25349-0.txt","application/rdf+xml":"https://www.gutenberg.org/ebooks/25349.rdf","image/jpeg":"https://www.gutenberg.org/cache/epub/25349/pg25349.cover.medium.jpg","application/octet-stream":"https://www.gutenberg.org/cache/epub/25349/pg25349-h.zip"},"download_count":108},{"id":25521,"title":"玉梨魂","authors":[{"name":"Xu, Zhenya","birth_year":1889,"death_year":1937}],"translators":[],"subjects":["Chinese fiction -- 20th century"],"bookshelves":[],"languages":["zh"],"copyright":false,"media_type":"Text","formats":{"text/html":"https://www.gutenberg.org/ebooks/25521.html.images","application/epub+zip":"https://www.gutenberg.org/ebooks/25521.epub3.images","application/x-mobipocket-ebook":"https://www.gutenberg.org/ebooks/25521.kf8.images","text/plain; charset=us-ascii":"https://www.gutenberg.org/ebooks/25521.txt.utf-8","text/plain; charset=utf-8":"https://www.gutenberg.org/files/25521/25521-0.txt","application/rdf+xml":"https://www.gutenberg.org/ebooks/25521.rdf","image/jpeg":"https://www.gutenberg.org/cache/epub/25521/pg25521.cover.medium.jpg","application/octet-stream":"https://www.gutenberg.org/cache/epub/25521/pg25521-h.zip"},"download_count":108},{"id":23818,"title":"鏡花緣","authors":[{"name":"Li, Ruzhen","birth_year":null,"death_year":null}],"translators":[],"subjects":["Chinese fiction -- Qing dynasty, 1644-1912","Fantasy fiction, Chinese"],"bookshelves":[],"languages":["zh"],"copyright":false,"media_type":"Text","formats":{"text/html":"https://www.gutenberg.org/ebooks/23818.html.images","application/epub+zip":"https://www.gutenberg.org/ebooks/23818.epub3.images","application/x-mobipocket-ebook":"https://www.gutenberg.org/ebooks/23818.kf8.images","text/plain; charset=us-ascii":"https://www.gutenberg.org/ebooks/23818.txt.utf-8","text/plain; charset=utf-8":"https://www.gutenberg.org/files/23818/23818-0.txt","application/rdf+xml":"https://www.gutenberg.org/ebooks/23818.rdf","image/jpeg":"https://www.gutenberg.org/cache/epub/23818/pg23818.cover.medium.jpg","application/octet-stream":"https://www.gutenberg.org/cache/epub/23818/pg23818-h.zip"},"download_count":107},{"id":25350,"title":"蕩寇志","authors":[{"name":"Yu, Wanchun","birth_year":1794,"death_year":1849}],"translators":[],"subjects":["China -- History -- Three kingdoms, 220-265 -- Fiction"],"bookshelves":[],"languages":["zh"],"copyright":false,"media_type":"Text","formats":{"text/html":"https://www.gutenberg.org/ebooks/25350.html.images","application/epub+zip":"https://www.gutenberg.org/ebooks/25350.epub3.images","application/x-mobipocket-ebook":"https://www.gutenberg.org/ebooks/25350.kf8.images","text/plain; charset=us-ascii":"https://www.gutenberg.org/ebooks/25350.txt.utf-8","text/plain; charset=utf-8":"https://www.gutenberg.org/files/25350/25350-0.txt","application/rdf+xml":"https://www.gutenberg.org/ebooks/25350.rdf","image/jpeg":"https://www.gutenberg.org/cache/epub/25350/pg25350.cover.medium.jpg","application/octet-stream":"https://www.gutenberg.org/cache/epub/25350/pg25350-h.zip"},"download_count":107},{"id":23817,"title":"閱微草堂筆記","authors":[{"name":"Ji, Yun","birth_year":1724,"death_year":1805}],"translators":[],"subjects":["Ghost stories, Chinese"],"bookshelves":[],"languages":["zh"],"copyright":false,"media_type":"Text","formats":{"text/html":"https://www.gutenberg.org/ebooks/23817.html.images","application/epub+zip":"https://www.gutenberg.org/ebooks/23817.epub3.images","application/x-mobipocket-ebook":"https://www.gutenberg.org/ebooks/23817.kf8.images","text/plain; charset=us-ascii":"https://www.gutenberg.org/ebooks/23817.txt.utf-8","text/plain; charset=utf-8":"https://www.gutenberg.org/files/23817/23817-0.txt","application/rdf+xml":"https://www.gutenberg.org/ebooks/23817.rdf","image/jpeg":"https://www.gutenberg.org/cache/epub/23817/pg23817.cover.medium.jpg","application/octet-stream":"https://www.gutenberg.org/cache/epub/23817/pg23817-h.zip"},"download_count":106},{"id":25392,"title":"西湖二集","authors":[{"name":"Zhou, Qingyuan, active 16th century-17th century","birth_year":null,"death_year":null}],"translators":[],"subjects":["West Lake (China) -- History -- Fiction"],"bookshelves":[],"languages":["zh"],"copyright":false,"media_type":"Text","formats":{"text/html":"https://www.gutenberg.org/ebooks/25392.html.images","application/epub+zip":"https://www.gutenberg.org/ebooks/25392.epub3.images","application/x-mobipocket-ebook":"https://www.gutenberg.org/ebooks/25392.kf8.images","text/plain; charset=us-ascii":"https://www.gutenberg.org/ebooks/25392.txt.utf-8","text/plain; charset=utf-8":"https://www.gutenberg.org/files/25392/25392-0.txt","application/rdf+xml":"https://www.gutenberg.org/ebooks/25392.rdf","image/jpeg":"https://www.gutenberg.org/cache/epub/25392/pg25392.cover.medium.jpg","application/octet-stream":"https://www.gutenberg.org/cache/epub/25392/pg25392-h.zip"},"download_count":106},{"id":25471,"title":"闲情偶寄","authors":[{"name":"Li, Yu","birth_year":1611,"death_year":null}],"translators":[],"subjects":[],"bookshelves":[],"languages":["zh"],"copyright":false,"media_type":"Text","formats":{"text/html":"https://www.gutenberg.org/ebooks/25471.html.images","application/epub+zip":"https://www.gutenberg.org/ebooks/25471.epub3.images","application/x-mobipocket-ebook":"https://www.gutenberg.org/ebooks/25471.kf8.images","text/plain; charset=us-ascii":"https://www.gutenberg.org/ebooks/25471.txt.utf-8","text/plain; charset=utf-8":"https://www.gutenberg.org/files/25471/25471-0.txt","application/rdf+xml":"https://www.gutenberg.org/ebooks/25471.rdf","image/jpeg":"https://www.gutenberg.org/cache/epub/25471/pg25471.cover.medium.jpg","application/octet-stream":"https://www.gutenberg.org/cache/epub/25471/pg25471-h.zip"},"download_count":106},{"id":25217,"title":"水滸後傳","authors":[{"name":"Chen, Chen","birth_year":null,"death_year":null}],"translators":[],"subjects":["Chinese fiction -- Qing dynasty, 1644-1912"],"bookshelves":[],"languages":["zh"],"copyright":false,"media_type":"Text","formats":{"text/html":"https://www.gutenberg.org/ebooks/25217.html.images","application/epub+zip":"https://www.gutenberg.org/ebooks/25217.epub3.images","application/x-mobipocket-ebook":"https://www.gutenberg.org/ebooks/25217.kf8.images","text/plain; charset=us-ascii":"https://www.gutenberg.org/ebooks/25217.txt.utf-8","text/plain; charset=utf-8":"https://www.gutenberg.org/files/25217/25217-0.txt","application/rdf+xml":"https://www.gutenberg.org/ebooks/25217.rdf","image/jpeg":"https://www.gutenberg.org/cache/epub/25217/pg25217.cover.medium.jpg","application/octet-stream":"https://www.gutenberg.org/cache/epub/25217/pg25217-h.zip"},"download_count":105},{"id":25402,"title":"九命奇冤","authors":[{"name":"Wu, Jianren","birth_year":1866,"death_year":1910}],"translators":[],"subjects":["Chinese fiction -- Qing dynasty, 1644-1912"],"bookshelves":[],"languages":["zh"],"copyright":false,"media_type":"Text","formats":{"text/html":"https://www.gutenberg.org/ebooks/25402.html.images","application/epub+zip":"https://www.gutenberg.org/ebooks/25402.epub3.images","application/x-mobipocket-ebook":"https://www.gutenberg.org/ebooks/25402.kf8.images","text/plain; charset=us-ascii":"https://www.gutenberg.org/ebooks/25402.txt.utf-8","text/plain; charset=utf-8":"https://www.gutenberg.org/files/25402/25402-0.txt","application/rdf+xml":"https://www.gutenberg.org/ebooks/25402.rdf","image/jpeg":"https://www.gutenberg.org/cache/epub/25402/pg25402.cover.medium.jpg","application/octet-stream":"https://www.gutenberg.org/cache/epub/25402/pg25402-h.zip"},"download_count":102},{"id":27088,"title":"南部新書","authors":[{"name":"Qian, Yi, jin shi 999","birth_year":null,"death_year":null}],"translators":[],"subjects":["China -- History -- Five dynasties and the Ten kingdoms, 907-979 -- Anecdotes","China -- History -- Tang dynasty, 618-907 -- Anecdotes"],"bookshelves":[],"languages":["zh"],"copyright":false,"media_type":"Text","formats":{"text/html":"https://www.gutenberg.org/ebooks/27088.html.images","application/epub+zip":"https://www.gutenberg.org/ebooks/27088.epub3.images","application/x-mobipocket-ebook":"https://www.gutenberg.org/ebooks/27088.kf8.images","text/plain; charset=us-ascii":"https://www.gutenberg.org/ebooks/27088.txt.utf-8","text/plain; charset=utf-8":"https://www.gutenberg.org/files/27088/27088-0.txt","application/rdf+xml":"https://www.gutenberg.org/ebooks/27088.rdf","image/jpeg":"https://www.gutenberg.org/cache/epub/27088/pg27088.cover.medium.jpg","application/octet-stream":"https://www.gutenberg.org/cache/epub/27088/pg27088-h.zip"},"download_count":102}]}