{"count":444,"next":"http://129.241.150.113:8000/books/?languages=zh&page=12","previous":"http://129.241.150.113:8000/books/?languages=zh&page=10","results":[{"id":26746,"title":"分甘余話","authors":[{"name":"Wang, Shizhen","birth_year":1634,"death_year":1711}],"translators":[],"subjects":["China -- History -- Qing dynasty, 1644-1912 -- Anecdotes"],"bookshelves":[],"languages":["zh"],"copyright":false,"media_type":"Text","formats":{"text/html":"https://www.gutenberg.org/ebooks/26746.html.images","application/epub+zip":"https://www.gutenberg.org/ebooks/26746.epub3.images","application/x-mobipocket-ebook":"https://www.gutenberg.org/ebooks/26746.kf8.images","text/plain; charset=us-ascii":"https://www.gutenberg.org/ebooks/26746.txt.utf-8","text/plain; charset=utf-8":"https://www.gutenberg.org/files/26746/26746-0.txt","application/rdf+xml":"https://www.gutenberg.org/ebooks/26746.rdf","image/jpeg":"https://www.gutenberg.org/cache/epub/26746/pg26746.cover.medium.jpg","application/octet-stream":"https://www.gutenberg.org/cache/epub/26746/pg26746-h.zip"},"download_count":39},{"id":26873,"title":"龍川詞","authors":[{"name":"Chen, Liang","birth_year":1143,"death_year":1194}],"translators":[],"subjects":["Ci (Chinese poetry)"],"bookshelves":[],"languages":["zh"],"copyright":false,"media_type":"Text","formats":{"text/html":"https://www.gutenberg.org/ebooks/26873.html.images","application/epub+zip":"https://www.gutenberg.org/ebooks/26873.epub3.images","application/x-mobipocket-ebook":"https://www.gutenberg.org/ebooks/26873.kf8.images","text/plain; charset=us-ascii":"https://www.gutenberg.org/ebooks/26873.txt.utf-8","text/plain; charset=utf-8":"https://www.gutenberg.org/files/26873/26873-0.txt","application/rdf+xml":"https://www.gutenberg.org/ebooks/26873.rdf","image/jpeg":"https://www.gutenberg.org/cache/epub/26873/pg26873.cover.medium.jpg","application/octet-stream":"https://www.gutenberg.org/cache/epub/26873/pg26873-h.zip"},"download_count":39},{"id":27105,"title":"玉支机","authors":[{"name":"Tianhuazangzhuren","birth_year":null,"death_year":null}],"translators":[],"subjects":[],"bookshelves":[],"languages":["zh"],"copyright":false,"media_type":"Text","formats":{"text/html":"https://www.gutenberg.org/ebooks/27105.html.images","application/epub+zip":"https://www.gutenberg.org/ebooks/27105.epub3.images","application/x-mobipocket-ebook":"https://www.gutenberg.org/ebooks/27105.kf8.images","text/plain; charset=us-ascii":"https://www.gutenberg.org/ebooks/27105.txt.utf-8","text/plain; charset=utf-8":"https://www.gutenberg.org/files/27105/27105-0.txt","application/rdf+xml":"https://www.gutenberg.org/ebooks/27105.rdf","image/jpeg":"https://www.gutenberg.org/cache/epub/27105/pg27105.cover.medium.jpg","application/octet-stream":"https://www.gutenberg.org/cache/epub/27105/pg27105-h.zip"},"download_count":39},{"id":27122,"title":"老學庵筆記","authors":[{"name":"Lu, You","birth_year":1125,"death_year":1210}],"translators":[],"subjects":["China -- History -- Song dynasty, 960-1279 -- Anecdotes"],"bookshelves":[],"languages":["zh"],"copyright":false,"media_type":"Text","formats":{"text/html":"https://www.gutenberg.org/ebooks/27122.html.images","application/epub+zip":"https://www.gutenberg.org/ebooks/27122.epub3.images","application/x-mobipocket-ebook":"https://www.gutenberg.org/ebooks/27122.kf8.images","text/plain; charset=us-ascii":"https://www.gutenberg.org/ebooks/27122.txt.utf-8","text/plain; charset=utf-8":"https://www.gutenberg.org/files/27122/27122-0.txt","application/rdf+xml":"https://www.gutenberg.org/ebooks/27122.rdf","image/jpeg":"https://www.gutenberg.org/cache/epub/27122/pg27122.cover.medium.jpg","application/octet-stream":"https://www.gutenberg.org/cache/epub/27122/pg27122-h.zip"},"download_count":39},{"id":27596,"title":"隋唐嘉話","authors":[{"name":"Liu, Su, active 742-755","birth_year":null,"death_year":null}],"translators":[],"subjects":["China -- History -- Sui dynasty, 581-618 -- Anecdotes","China -- History -- Tang dynasty, 618-907 -- Anecdotes"],"bookshelves":[],"languages":["zh"],"copyright":false,"media_type":"Text","formats":{"text/html":"https://www.gutenberg.org/ebooks/27596.html.images","application/epub+zip":"https://www.gutenberg.org/ebooks/27596.epub3.images","application/x-mobipocket-ebook":"https://www.gutenberg.org/ebooks/27596.kf8.images","text/plain; charset=us-ascii":"https://www.gutenberg.org/ebooks/27596.txt.utf-8","text/plain; charset=utf-8":"https://www.gutenberg.org/files/27596/27596-0.txt","application/rdf+xml":"https://www.gutenberg.org/ebooks/27596.rdf","image/jpeg":"https://www.gutenberg.org/cache/epub/27596/pg27596.cover.medium.jpg","application/octet-stream":"https://www.gutenberg.org/cache/epub/27596/pg27596-h.zip"},"download_count":39},{"id":43009,"title":"古詩十九首","authors":[{"name":"Xiao, Tong","birth_year":501,"death_year":531}],"translators":[],"subjects":["Chinese poetry -- Qin and Han dynasties, 221 B.C.-220 A.D."],"bookshelves":[],"languages":["zh"],"copyright":false,"media_type":"Text","formats":{"text/html":"https://www.gutenberg.org/ebooks/43009.html.images","application/epub+zip":"https://www.gutenberg.org/ebooks/43009.epub3.images","application/x-mobipocket-ebook":"https://www.gutenberg.org/ebooks/43009.kf8.images","text/plain; charset=us-ascii":"https://www.gutenberg.org/ebooks/43009.txt.utf-8","text/plain; charset=utf-8":"https://www.gutenberg.org/files/43009/43009-0.txt","application/rdf+xml":"https://www.gutenberg.org/ebooks/43009.rdf","image/jpeg":"https://www.gutenberg.org/cache/epub/43009/pg43009.cover.medium.jpg","application/octet-stream":"https://www.gutenberg.org/cache/epub/43009/pg43009-h.zip"},"download_count":39},{"id":7218,"title":"三略","authors":[{"name":"Huang, Shigong, active 3rd century B.C.","birth_year":null,"death_year":null}],"translators":[],"subjects":["Military art and science -- China -- Early works to 1800"],"bookshelves":[],"languages":["zh"],"copyright":false,"media_type":"Text","formats":{"text/html":"https://www.gutenberg.org/ebooks/7218.html.images","application/epub+zip":"https://www.gutenberg.org/ebooks/7218.epub3.images","application/x-mobipocket-ebook":"https://www.gutenberg.org/ebooks/7218.kf8.images","text/plain; charset=us-ascii":"https://www.gutenberg.org/ebooks/7218.txt.utf-8","text/plain; charset=utf-8":"https://www.gutenberg.org/files/7218/7218-0.txt","application/rdf+xml":"https://www.gutenberg.org/ebooks/7218.rdf","image/jpeg":"https://www.gutenberg.org/cache/epub/7218/pg7218.cover.medium.jpg","application/octet-stream":"https://www.gutenberg.org/cache/epub/7218/pg7218-h.zip"},"download_count":38},{"id":7454,"title":"顔氏家訓 — Volume 01 and 02","authors":[{"name":"Yan, Zhitui","birth_year":531,"death_year":591}],"translators":[],"subjects":["Chinese classics -- Bibliography","Conduct of life","Ethics -- China","Philosophers -- China"],"bookshelves":[],"languages":["zh"],"copyright":false,"media_type":"Text","formats":{"text/html":"https://www.gutenberg.org/ebooks/7454.html.images","application/epub+zip":"https://www.gutenberg.org/ebooks/7454.epub3.images","application/x-mobipocket-ebook":"https://www.gutenberg.org/ebooks/7454.kf8.images","text/plain; charset=us-ascii":"https://www.gutenberg.org/ebooks/7454.txt.utf-8","text/plain; charset=utf-8":"https://www.gutenberg.org/files/7454/7454-0.txt","application/rdf+xml":"https://www.gutenberg.org/ebooks/7454.rdf","image/jpeg":"https://www.gutenberg.org/cache/epub/7454/pg7454.cover.medium.jpg","application/octet-stream":"https://www.gutenberg.org/cache/epub/7454/pg7454-h.zip"},"download_count":38},{"id":27302,"title":"鄰女語","authors":[{"name":"Youhuanyusheng","birth_year":null,"death_year":null}],"translators":[],"subjects":["Beijing (China) -- History -- Siege, 1900 -- Fiction","China -- History -- Boxer Rebellion, 1899-1901 -- Fiction"],"bookshelves":[],"languages":["zh"],"copyright":false,"media_type":"Text","formats":{"text/html":"https://www.gutenberg.org/ebooks/27302.html.images","application/epub+zip":"https://www.gutenberg.org/ebooks/27302.epub3.images","application/x-mobipocket-ebook":"https://www.gutenberg.org/ebooks/27302.kf8.images","text/plain; charset=us-ascii":"https://www.gutenberg.org/ebooks/27302.txt.utf-8","text/plain; charset=utf-8":"https://www.gutenberg.org/files/27302/27302-0.txt","application/rdf+xml":"https://www.gutenberg.org/ebooks/27302.rdf","image/jpeg":"https://www.gutenberg.org/cache/epub/27302/pg27302.cover.medium.jpg","application/octet-stream":"https://www.gutenberg.org/cache/epub/27302/pg27302-h.zip"},"download_count":38},{"id":7468,"title":"搜神後記. Selections. 1985","authors":[{"name":"Tao, Qian","birth_year":365,"death_year":427}],"translators":[],"subjects":["Ghost stories, Chinese"],"bookshelves":[],"languages":["zh"],"copyright":false,"media_type":"Text","formats":{"text/html":"https://www.gutenberg.org/ebooks/7468.html.images","application/epub+zip":"https://www.gutenberg.org/ebooks/7468.epub3.images","application/x-mobipocket-ebook":"https://www.gutenberg.org/ebooks/7468.kf8.images","text/plain; charset=us-ascii":"https://www.gutenberg.org/ebooks/7468.txt.utf-8","text/plain; charset=utf-8":"https://www.gutenberg.org/files/7468/7468-0.txt","application/rdf+xml":"https://www.gutenberg.org/ebooks/7468.rdf","image/jpeg":"https://www.gutenberg.org/cache/epub/7468/pg7468.cover.medium.jpg","application/octet-stream":"https://www.gutenberg.org/cache/epub/7468/pg7468-h.zip"},"download_count":37},{"id":23854,"title":"文子","authors":[{"name":"Xing, Jian","birth_year":null,"death_year":null}],"translators":[],"subjects":["Taoism"],"bookshelves":[],"languages":["zh"],"copyright":false,"media_type":"Text","formats":{"text/html":"https://www.gutenberg.org/ebooks/23854.html.images","application/epub+zip":"https://www.gutenberg.org/ebooks/23854.epub3.images","application/x-mobipocket-ebook":"https://www.gutenberg.org/ebooks/23854.kf8.images","text/plain; charset=us-ascii":"https://www.gutenberg.org/ebooks/23854.txt.utf-8","text/plain; charset=utf-8":"https://www.gutenberg.org/files/23854/23854-0.txt","application/rdf+xml":"https://www.gutenberg.org/ebooks/23854.rdf","image/jpeg":"https://www.gutenberg.org/cache/epub/23854/pg23854.cover.medium.jpg","application/octet-stream":"https://www.gutenberg.org/cache/epub/23854/pg23854-h.zip"},"download_count":37},{"id":24038,"title":"孫子算經","authors":[{"name":"Sunzi, approximately 5th century","birth_year":null,"death_year":null}],"translators":[{"name":"Li, Chunfeng","birth_year":602,"death_year":670}],"subjects":["Arithmetic -- Early works to 1900","Mathematics, Chinese -- Early works to 1800"],"bookshelves":[],"languages":["zh"],"copyright":false,"media_type":"Text","formats":{"text/html":"https://www.gutenberg.org/ebooks/24038.html.images","application/epub+zip":"https://www.gutenberg.org/ebooks/24038.epub3.images","application/x-mobipocket-ebook":"https://www.gutenberg.org/ebooks/24038.kf8.images","text/plain; charset=us-ascii":"https://www.gutenberg.org/ebooks/24038.txt.utf-8","text/plain; charset=utf-8":"https://www.gutenberg.org/files/24038/24038-0.txt","application/rdf+xml":"https://www.gutenberg.org/ebooks/24038.rdf","image/jpeg":"https://www.gutenberg.org/cache/epub/24038/pg24038.cover.medium.jpg","application/octet-stream":"https://www.gutenberg.org/cache/epub/24038/pg24038-h.zip"},"download_count":37},{"id":25131,"title":"吳越春秋","authors":[{"name":"Zhao, Ye, active 40","birth_year":null,"death_year":null}],"translators":[],"subjects":["China -- History -- Warring States, 403-221 B.C."],"bookshelves":[],"languages":["zh"],"copyright":false,"media_type":"Text","formats":{"text/html":"https://www.gutenberg.org/ebooks/25131.html.images","application/epub+zip":"https://www.gutenberg.org/ebooks/25131.epub3.images","application/x-mobipocket-ebook":"https://www.gutenberg.org/ebooks/25131.kf8.images","text/plain; charset=us-ascii":"https://www.gutenberg.org/ebooks/25131.txt.utf-8","text/plain; charset=utf-8":"https://www.gutenberg.org/files/25131/25131-0.txt","application/rdf+xml":"https://www.gutenberg.org/ebooks/25131.rdf","image/jpeg":"https://www.gutenberg.org/cache/epub/25131/pg25131.cover.medium.jpg","application/octet-stream":"https://www.gutenberg.org/cache/epub/25131/pg25131-h.zip"},"download_count":37},{"id":25137,"title":"玉蟾記","authors":[{"name":"Tongyuanzi","birth_year":null,"death_year":null}],"translators":[],"subjects":["Chinese fiction -- Qing dynasty, 1644-1912"],"bookshelves":[],"languages":["zh"],"copyright":false,"media_type":"Text","formats":{"text/html":"https://www.gutenberg.org/ebooks/25137.html.images","application/epub+zip":"https://www.gutenberg.org/ebooks/25137.epub3.images","application/x-mobipocket-ebook":"https://www.gutenberg.org/ebooks/25137.kf8.images","text/plain; charset=us-ascii":"https://www.gutenberg.org/ebooks/25137.txt.utf-8","text/plain; charset=utf-8":"https://www.gutenberg.org/files/25137/25137-0.txt","application/rdf+xml":"https://www.gutenberg.org/ebooks/25137.rdf","image/jpeg":"https://www.gutenberg.org/cache/epub/25137/pg25137.cover.medium.jpg","application/octet-stream":"https://www.gutenberg.org/cache/epub/25137/pg25137-h.zip"},"download_count":37},{"id":25321,"title":"蘇洵集","authors":[{"name":"Su, Xun","birth_year":1009,"death_year":1066}],"translators":[],"subjects":["Chinese essays"],"bookshelves":[],"languages":["zh"],"copyright":false,"media_type":"Text","formats":{"text/html":"https://www.gutenberg.org/ebooks/25321.html.images","application/epub+zip":"https://www.gutenberg.org/ebooks/25321.epub3.images","application/x-mobipocket-ebook":"https://www.gutenberg.org/ebooks/25321.kf8.images","text/plain; charset=us-ascii":"https://www.gutenberg.org/ebooks/25321.txt.utf-8","text/plain; charset=utf-8":"https://www.gutenberg.org/files/25321/25321-0.txt","application/rdf+xml":"https://www.gutenberg.org/ebooks/25321.rdf","image/jpeg":"https://www.gutenberg.org/cache/epub/25321/pg25321.cover.medium.jpg","application/octet-stream":"https://www.gutenberg.org/cache/epub/25321/pg25321-h.zip"},"download_count":37},{"id":27734,"title":"合浦珠","authors":[{"name":"Yuanhuyanshuisanren, active 17th century-18th century","birth_year":null,"death_year":null}],"translators":[],"subjects":["Chinese fiction -- Qing dynasty, 1644-1912"],"bookshelves":[],"languages":["zh"],"copyright":false,"media_type":"Text","formats":{"text/html":"https://www.gutenberg.org/ebooks/27734.html.images","application/epub+zip":"https://www.gutenberg.org/ebooks/27734.epub3.images","application/x-mobipocket-ebook":"https://www.gutenberg.org/ebooks/27734.kf8.images","text/plain; charset=us-ascii":"https://www.gutenberg.org/ebooks/27734.txt.utf-8","text/plain; charset=utf-8":"https://www.gutenberg.org/files/27734/27734-0.txt","application/rdf+xml":"https://www.gutenberg.org/ebooks/27734.rdf","image/jpeg":"https://www.gutenberg.org/cache/epub/27734/pg27734.cover.medium.jpg","application/octet-stream":"https://www.gutenberg.org/cache/epub/27734/pg27734-h.zip"},"download_count":37},{"id":27768,"title":"瞎騙奇聞","authors":[{"name":"Wu, Jianren","birth_year":1866,"death_year":1910}],"translators":[],"subjects":["Chinese fiction -- Qing dynasty, 1644-1912"],"bookshelves":[],"languages":["zh"],"copyright":false,"media_type":"Text","formats":{"text/html":"https://www.gutenberg.org/ebooks/27768.html.images","application/epub+zip":"https://www.gutenberg.org/ebooks/27768.epub3.images","application/x-mobipocket-ebook":"https://www.gutenberg.org/ebooks/27768.kf8.images","text/plain; charset=us-ascii":"https://www.gutenberg.org/ebooks/27768.txt.utf-8","text/plain; charset=utf-8":"https://www.gutenberg.org/files/27768/27768-0.txt","application/rdf+xml":"https://www.gutenberg.org/ebooks/27768.rdf","image/jpeg":"https://www.gutenberg.org/cache/epub/27768/pg27768.cover.medium.jpg","application/octet-stream":"https://www.gutenberg.org/cache/epub/27768/pg27768-h.zip"},"download_count":37},{"id":30544,"title":"五孝傳","authors":[{"name":"Tao, Qian","birth_year":365,"death_year":427}],"translators":[],"subjects":["Chinese literature"],"bookshelves":[],"languages":["zh"],"copyright":false,"media_type":"Text","formats":{"text/html":"https://www.gutenberg.org/ebooks/30544.html.images","text/html; charset=utf-8":"https://www.gutenberg.org/files/30544/30544-h/30544-h.htm","application/epub+zip":"https://www.gutenberg.org/ebooks/30544.epub3.images","application/x-mobipocket-ebook":"https://www.gutenberg.org/ebooks/30544.kf8.images","text/plain; charset=us-ascii":"https://www.gutenberg.org/ebooks/30544.txt.utf-8","text/plain; charset=utf-8":"https://www.gutenberg.org/files/30544/30544-0.txt","application/rdf+xml":"https://www.gutenberg.org/ebooks/30544.rdf","image/jpeg":"https://www.gutenberg.org/cache/epub/30544/pg30544.cover.medium.jpg","application/octet-stream":"https://www.gutenberg.org/cache/epub/30544/pg30544-h.zip"},"download_count":37},{"id":23814,"title":"賈誼新書","authors":[{"name":"Jia, Yi","birth_year":-200,"death_year":-168}],"translators":[],"subjects":["Philosophers -- China","Philosophy, Chinese"],"bookshelves":[],"languages":["zh"],"copyright":false,"media_type":"Text","formats":{"text/html":"https://www.gutenberg.org/ebooks/23814.html.images","application/epub+zip":"https://www.gutenberg.org/ebooks/23814.epub3.images","application/x-mobipocket-ebook":"https://www.gutenberg.org/ebooks/23814.kf8.images","text/plain; charset=us-ascii":"https://www.gutenberg.org/ebooks/23814.txt.utf-8","text/plain; charset=utf-8":"https://www.gutenberg.org/files/23814/23814-0.txt","application/rdf+xml":"https://www.gutenberg.org/ebooks/23814.rdf","image/jpeg":"https://www.gutenberg.org/cache/epub/23814/pg23814.cover.medium.jpg","application/octet-stream":"https://www.gutenberg.org/cache/epub/23814/pg23814-h.zip"},"download_count":36},{"id":23855,"title":"明夷待訪錄","authors":[{"name":"Huang, Zongxi","birth_year":1610,"death_year":1695}],"translators":[],"subjects":["Political science -- China -- Early works to 1800"],"bookshelves":[],"languages":["zh"],"copyright":false,"media_type":"Text","formats":{"text/html":"https://www.gutenberg.org/ebooks/23855.html.images","application/epub+zip":"https://www.gutenberg.org/ebooks/23855.epub3.images","application/x-mobipocket-ebook":"https://www.gutenberg.org/ebooks/23855.kf8.images","text/plain; charset=us-ascii":"https://www.gutenberg.org/ebooks/23855.txt.utf-8","text/plain; charset=utf-8":"https://www.gutenberg.org/files/23855/23855-0.txt","application/rdf+xml":"https://www.gutenberg.org/ebooks/23855.rdf","image/jpeg":"https://www.gutenberg.org/cache/epub/23855/pg23855.cover.medium.jpg","application/octet-stream":"https://www.gutenberg.org/cache/epub/23855/pg23855-h.zip"},"download_count":36},{"id":23909,"title":"韓詩外傳","authors":[{"name":"Han, Ying, active 150 B.C.","birth_year":null,"death_year":null}],"translators":[],"subjects":["Shi jing"],"bookshelves":[],"languages":["zh"],"copyright":false,"media_type":"Text","formats":{"text/html":"https://www.gutenberg.org/ebooks/23909.html.images","application/epub+zip":"https://www.gutenberg.org/ebooks/23909.epub3.images","application/x-mobipocket-ebook":"https://www.gutenberg.org/ebooks/23909.kf8.images","text/plain; charset=us-ascii":"https://www.gutenberg.org/ebooks/23909.txt.utf-8","text/plain; charset=utf-8":"https://www.gutenberg.org/files/23909/23909-0.txt","application/rdf+xml":"https://www.gutenberg.org/ebooks/23909.rdf","image/jpeg":"https://www.gutenberg.org/cache/epub/23909/pg23909.cover.medium.jpg","application/octet-stream":"https://www.gutenberg.org/cache/epub/23909/pg23909-h.zip"},"download_count":36},{"id":23983,"title":"斷鴻零雁記","authors":[{"name":"Su, Manshu","birth_year":1884,"death_year":1918}],"translators":[],"subjects":["Triangles (Interpersonal relations) -- Fiction"],"bookshelves":[],"languages":["zh"],"copyright":false,"media_type":"Text","formats":{"text/html":"https://www.gutenberg.org/ebooks/23983.html.images","application/epub+zip":"https://www.gutenberg.org/ebooks/23983.epub3.images","application/x-mobipocket-ebook":"https://www.gutenberg.org/ebooks/23983.kf8.images","text/plain; charset=us-ascii":"https://www.gutenberg.org/ebooks/23983.txt.utf-8","text/plain; charset=utf-8":"https://www.gutenberg.org/files/23983/23983-0.txt","application/rdf+xml":"https://www.gutenberg.org/ebooks/23983.rdf","image/jpeg":"https://www.gutenberg.org/cache/epub/23983/pg23983.cover.medium.jpg","application/octet-stream":"https://www.gutenberg.org/cache/epub/23983/pg23983-h.zip"},"download_count":36},{"id":25121,"title":"花外集","authors":[{"name":"Wang, Yisun","birth_year":null,"death_year":null}],"translators":[],"subjects":["Chinese poetry -- Song dynasty, 960-1279","Ci (Chinese poetry)"],"bookshelves":[],"languages":["zh"],"copyright":false,"media_type":"Text","formats":{"text/html":"https://www.gutenberg.org/ebooks/25121.html.images","application/epub+zip":"https://www.gutenberg.org/ebooks/25121.epub3.images","application/x-mobipocket-ebook":"https://www.gutenberg.org/ebooks/25121.kf8.images","text/plain; charset=us-ascii":"https://www.gutenberg.org/ebooks/25121.txt.utf-8","text/plain; charset=utf-8":"https://www.gutenberg.org/files/25121/25121-0.txt","application/rdf+xml":"https://www.gutenberg.org/ebooks/25121.rdf","image/jpeg":"https://www.gutenberg.org/cache/epub/25121/pg25121.cover.medium.jpg","application/octet-stream":"https://www.gutenberg.org/cache/epub/25121/pg25121-h.zip"},"download_count":36},{"id":25167,"title":"司馬法","authors":[{"name":"Sima, Rangju, active 4th century B.C.","birth_year":null,"death_year":null}],"translators":[],"subjects":["Military art and science -- Early works to 1800"],"bookshelves":[],"languages":["zh"],"copyright":false,"media_type":"Text","formats":{"text/html":"https://www.gutenberg.org/ebooks/25167.html.images","application/epub+zip":"https://www.gutenberg.org/ebooks/25167.epub3.images","application/x-mobipocket-ebook":"https://www.gutenberg.org/ebooks/25167.kf8.images","text/plain; charset=us-ascii":"https://www.gutenberg.org/ebooks/25167.txt.utf-8","text/plain; charset=utf-8":"https://www.gutenberg.org/files/25167/25167-0.txt","application/rdf+xml":"https://www.gutenberg.org/ebooks/25167.rdf","image/jpeg":"https://www.gutenberg.org/cache/epub/25167/pg25167.cover.medium.jpg","application/octet-stream":"https://www.gutenberg.org/cache/epub/25167/pg25167-h.zip"},"download_count":36},{"id":25248,"title":"平妖傳","authors":[{"name":"Luo, Guanzhong","birth_year":null,"death_year":null}],"translators":[],"subjects":["Chinese fiction -- Ming dynasty, 1368-1644"],"bookshelves":[],"languages":["zh"],"copyright":false,"media_type":"Text","formats":{"text/html":"https://www.gutenberg.org/ebooks/25248.html.images","application/epub+zip":"https://www.gutenberg.org/ebooks/25248.epub3.images","application/x-mobipocket-ebook":"https://www.gutenberg.org/ebooks/25248.kf8.images","text/plain; charset=us-ascii":"https://www.gutenberg.org/ebooks/25248.txt.utf-8","text/plain; charset=utf-8":"https://www.gutenberg.org/files/25248/25248-0.txt","application/rdf+xml":"https://www.gutenberg.org/ebooks/25248.rdf","image/jpeg":"https://www.gutenberg.org/cache/epub/25248/pg25248.cover.medium.jpg","application/octet-stream":"https://www.gutenberg.org/cache/epub/25248/pg25248-h.zip"},"download_count":36},{"id":25249,"title":"近思錄","authors":[{"name":"Zhu, Xi","birth_year":1130,"death_year":1200},{"name":"Lü, Zuqian","birth_year":1137,"death_year":1181}],"translators":[],"subjects":["Philosophy, Chinese -- Early works to 1800"],"bookshelves":[],"languages":["zh"],"copyright":false,"media_type":"Text","formats":{"text/html":"https://www.gutenberg.org/ebooks/25249.html.images","application/epub+zip":"https://www.gutenberg.org/ebooks/25249.epub3.images","application/x-mobipocket-ebook":"https://www.gutenberg.org/ebooks/25249.kf8.images","text/plain; charset=us-ascii":"https://www.gutenberg.org/ebooks/25249.txt.utf-8","text/plain; charset=utf-8":"https://www.gutenberg.org/files/25249/25249-0.txt","application/rdf+xml":"https://www.gutenberg.org/ebooks/25249.rdf","image/jpeg":"https://www.gutenberg.org/cache/epub/25249/pg25249.cover.medium.jpg","application/octet-stream":"https://www.gutenberg.org/cache/epub/25249/pg25249-h.zip"},"download_count":36},{"id":25381,"title":"幽夢影","authors":[{"name":"Zhang, Chao","birth_year":1650,"death_year":null}],"translators":[],"subjects":["Aphorisms and apothegms"],"bookshelves":[],"languages":["zh"],"copyright":false,"media_type":"Text","formats":{"text/html":"https://www.gutenberg.org/ebooks/25381.html.images","application/epub+zip":"https://www.gutenberg.org/ebooks/25381.epub3.images","application/x-mobipocket-ebook":"https://www.gutenberg.org/ebooks/25381.kf8.images","text/plain; charset=us-ascii":"https://www.gutenberg.org/ebooks/25381.txt.utf-8","text/plain; charset=utf-8":"https://www.gutenberg.org/files/25381/25381-0.txt","application/rdf+xml":"https://www.gutenberg.org/ebooks/25381.rdf","image/jpeg":"https://www.gutenberg.org/cache/epub/25381/pg25381.cover.medium.jpg","application/octet-stream":"https://www.gutenberg.org/cache/epub/25381/pg25381-h.zip"},"download_count":36},{"id":25421,"title":"圍爐夜話","authors":[{"name":"Wang, Yongbin","birth_year":null,"death_year":null}],"translators":[],"subjects":["Aphorisms and apothegms","Conduct of life -- Early works to 1900","Quotations, Chinese"],"bookshelves":[],"languages":["zh"],"copyright":false,"media_type":"Text","formats":{"text/html":"https://www.gutenberg.org/ebooks/25421.html.images","application/epub+zip":"https://www.gutenberg.org/ebooks/25421.epub3.images","application/x-mobipocket-ebook":"https://www.gutenberg.org/ebooks/25421.kf8.images","text/plain; charset=us-ascii":"https://www.gutenberg.org/ebooks/25421.txt.utf-8","text/plain; charset=utf-8":"https://www.gutenberg.org/files/25421/25421-0.txt","application/rdf+xml":"https://www.gutenberg.org/ebooks/25421.rdf","image/jpeg":"https://www.gutenberg.org/cache/epub/25421/pg25421.cover.medium.jpg","application/octet-stream":"https://www.gutenberg.org/cache/epub/25421/pg25421-h.zip"},"download_count":36},{"id":27123,"title":"水調歌頭","authors":[{"name":"Su, Shi","birth_year":1037,"death_year":1101}],"translators":[],"subjects":["Ci (Chinese poetry)"],"bookshelves":[],"languages":["zh"],"copyright":false,"media_type":"Text","formats":{"text/html":"https://www.gutenberg.org/ebooks/27123.html.images","application/epub+zip":"https://www.gutenberg.org/ebooks/27123.epub3.images","application/x-mobipocket-ebook":"https://www.gutenberg.org/ebooks/27123.kf8.images","text/plain; charset=us-ascii":"https://www.gutenberg.org/ebooks/27123.txt.utf-8","text/plain; charset=utf-8":"https://www.gutenberg.org/files/27123/27123-0.txt","application/rdf+xml":"https://www.gutenberg.org/ebooks/27123.rdf","image/jpeg":"https://www.gutenberg.org/cache/epub/27123/pg27123.cover.medium.jpg","application/octet-stream":"https://www.gutenberg.org/cache/epub/27123/pg27123-h.zip"},"download_count":36},{"id":27398,"title":"雞肋編","authors":[{"name":"Zhuang, Chuo","birth_year":1078,"death_year":null}],"translators":[],"subjects":["China -- History -- Song dynasty, 960-1279 -- Anecdotes"],"bookshelves":[],"languages":["zh"],"copyright":false,"media_type":"Text","formats":{"text/html":"https://www.gutenberg.org/ebooks/27398.html.images","application/epub+zip":"https://www.gutenberg.org/ebooks/27398.epub3.images","application/x-mobipocket-ebook":"https://www.gutenberg.org/ebooks/27398.kf8.images","text/plain; charset=us-ascii":"https://www.gutenberg.org/ebooks/27398.txt.utf-8","text/plain; charset=utf-8":"https://www.gutenberg.org/files/27398/27398-0.txt","application/rdf+xml":"https://www.gutenberg.org/ebooks/27398.rdf","image/jpeg":"https://www.gutenberg.org/cache/epub/27398/pg27398.cover.medium.jpg","application/octet-stream":"https://www.gutenberg.org/cache/epub/27398/pg27398-h.zip"},"download_count":36},{"id":7340,"title":"六韜","authors":[{"name":"Lü, Shang","birth_year":null,"death_year":null}],"translators":[],"subjects":["Military art and science -- China -- Early works to 1800"],"bookshelves":[],"languages":["zh"],"copyright":false,"media_type":"Text","formats":{"text/html":"https://www.gutenberg.org/ebooks/7340.html.images","application/epub+zip":"https://www.gutenberg.org/ebooks/7340.epub3.images","application/x-mobipocket-ebook":"https://www.gutenberg.org/ebooks/7340.kf8.images","text/plain; charset=us-ascii":"https://www.gutenberg.org/ebooks/7340.txt.utf-8","text/plain; charset=utf-8":"https://www.gutenberg.org/files/7340/7340-0.txt","application/rdf+xml":"https://www.gutenberg.org/ebooks/7340.rdf","image/jpeg":"https://www.gutenberg.org/cache/epub/7340/pg7340.cover.medium.jpg","application/octet-stream":"https://www.gutenberg.org/cache/epub/7340/pg7340-h.zip"},"download_count":35},{"id":23948,"title":"高士傳","authors":[{"name":"Huangfu, Mi","birth_year":215,"death_year":282}],"translators":[],"subjects":["China -- Biography","National characteristics, Chinese"],"bookshelves":[],"languages":["zh"],"copyright":false,"media_type":"Text","formats":{"text/html":"https://www.gutenberg.org/ebooks/23948.html.images","application/epub+zip":"https://www.gutenberg.org/ebooks/23948.epub3.images","application/x-mobipocket-ebook":"https://www.gutenberg.org/ebooks/23948.kf8.images","text/plain; charset=us-ascii":"https://www.gutenberg.org/ebooks/23948.txt.utf-8","text/plain; charset=utf-8":"https://www.gutenberg.org/files/23948/23948-0.txt","application/rdf+xml":"https://www.gutenberg.org/ebooks/23948.rdf","image/jpeg":"https://www.gutenberg.org/cache/epub/23948/pg23948.cover.medium.jpg","application/octet-stream":"https://www.gutenberg.org/cache/epub/23948/pg23948-h.zip"},"download_count":35}]}