{"count":444,"next":"http://129.241.150.113:8000/books/?languages=zh&page=6","previous":"http://129.241.150.113:8000/books/?languages=zh&page=4","results":[{"id":67976,"title":"故事新讀本: 第一冊","authors":[],"translators":[],"subjects":["Short stories, Chinese"],"bookshelves":[],"languages":["zh"],"copyright":false,"media_type":"Text","formats":{"text/html":"https://www.gutenberg.org/ebooks/67976.html.images","application/epub+zip":"https://www.gutenberg.org/ebooks/67976.epub3.images","application/x-mobipocket-ebook":"https://www.gutenberg.org/ebooks/67976.kf8.images","text/plain; charset=us-ascii":"https://www.gutenberg.org/ebooks/67976.txt.utf-8","application/rdf+xml":"https://www.gutenberg.org/ebooks/67976.rdf","image/jpeg":"https://www.gutenberg.org/cache/epub/67976/pg67976.cover.medium.jpg","application/octet-stream":"https://www.gutenberg.org/files/67976/67976-0.zip"},"download_count":80},{"id":25323,"title":"狐狸緣全傳","authors":[{"name":"Zuiyueshanren, active 1804-1876","birth_year":null,"death_year":null}],"translators":[],"subjects":[],"bookshelves":[],"languages":["zh"],"copyright":false,"media_type":"Text","formats":{"text/html":"https://www.gutenberg.org/ebooks/25323.html.images","application/epub+zip":"https://www.gutenberg.org/ebooks/25323.epub3.images","application/x-mobipocket-ebook":"https://www.gutenberg.org/ebooks/25323.kf8.images","text/plain; charset=us-ascii":"https://www.gutenberg.org/ebooks/25323.txt.utf-8","text/plain; charset=utf-8":"https://www.gutenberg.org/files/25323/25323-0.txt","application/rdf+xml":"https://www.gutenberg.org/ebooks/25323.rdf","image/jpeg":"https://www.gutenberg.org/cache/epub/25323/pg25323.cover.medium.jpg","application/octet-stream":"https://www.gutenberg.org/cache/epub/25323/pg25323-h.zip"},"download_count":79},{"id":25332,"title":"阿Ｑ正傳","authors":[{"name":"Lu, Xun","birth_year":1881,"death_year":1936}],"translators":[],"subjects":["Chinese fiction -- 20th century"],"bookshelves":[],"languages":["zh"],"copyright":false,"media_type":"Text","formats":{"text/html":"https://www.gutenberg.org/ebooks/25332.html.images","application/epub+zip":"https://www.gutenberg.org/ebooks/25332.epub3.images","application/x-mobipocket-ebook":"https://www.gutenberg.org/ebooks/25332.kf8.images","text/plain; charset=us-ascii":"https://www.gutenberg.org/ebooks/25332.txt.utf-8","text/plain; charset=utf-8":"https://www.gutenberg.org/files/25332/25332-0.txt","application/rdf+xml":"https://www.gutenberg.org/ebooks/25332.rdf","image/jpeg":"https://www.gutenberg.org/cache/epub/25332/pg25332.cover.medium.jpg","application/octet-stream":"https://www.gutenberg.org/cache/epub/25332/pg25332-h.zip"},"download_count":79},{"id":27332,"title":"後西游記","authors":[{"name":"Biao, Xuahua","birth_year":null,"death_year":null}],"translators":[],"subjects":[],"bookshelves":[],"languages":["zh"],"copyright":false,"media_type":"Text","formats":{"text/html":"https://www.gutenberg.org/ebooks/27332.html.images","application/epub+zip":"https://www.gutenberg.org/ebooks/27332.epub3.images","application/x-mobipocket-ebook":"https://www.gutenberg.org/ebooks/27332.kf8.images","text/plain; charset=us-ascii":"https://www.gutenberg.org/ebooks/27332.txt.utf-8","text/plain; charset=utf-8":"https://www.gutenberg.org/files/27332/27332-0.txt","application/rdf+xml":"https://www.gutenberg.org/ebooks/27332.rdf","image/jpeg":"https://www.gutenberg.org/cache/epub/27332/pg27332.cover.medium.jpg","application/octet-stream":"https://www.gutenberg.org/cache/epub/27332/pg27332-h.zip"},"download_count":79},{"id":24041,"title":"洛神賦","authors":[{"name":"Cao, Zhi","birth_year":192,"death_year":232}],"translators":[],"subjects":["Chinese poetry -- 220-589"],"bookshelves":[],"languages":["zh"],"copyright":false,"media_type":"Text","formats":{"text/html":"https://www.gutenberg.org/ebooks/24041.html.images","application/epub+zip":"https://www.gutenberg.org/ebooks/24041.epub3.images","application/x-mobipocket-ebook":"https://www.gutenberg.org/ebooks/24041.kf8.images","text/plain; charset=us-ascii":"https://www.gutenberg.org/ebooks/24041.txt.utf-8","text/plain; charset=utf-8":"https://www.gutenberg.org/files/24041/24041-0.txt","application/rdf+xml":"https://www.gutenberg.org/ebooks/24041.rdf","image/jpeg":"https://www.gutenberg.org/cache/epub/24041/pg24041.cover.medium.jpg","application/octet-stream":"https://www.gutenberg.org/cache/epub/24041/pg24041-h.zip"},"download_count":78},{"id":25226,"title":"負曝閒談","authors":[{"name":"Quyuan","birth_year":null,"death_year":null}],"translators":[],"subjects":["Chinese fiction -- Qing dynasty, 1644-1912"],"bookshelves":[],"languages":["zh"],"copyright":false,"media_type":"Text","formats":{"text/html":"https://www.gutenberg.org/ebooks/25226.html.images","application/epub+zip":"https://www.gutenberg.org/ebooks/25226.epub3.images","application/x-mobipocket-ebook":"https://www.gutenberg.org/ebooks/25226.kf8.images","text/plain; charset=us-ascii":"https://www.gutenberg.org/ebooks/25226.txt.utf-8","text/plain; charset=utf-8":"https://www.gutenberg.org/files/25226/25226-0.txt","application/rdf+xml":"https://www.gutenberg.org/ebooks/25226.rdf","image/jpeg":"https://www.gutenberg.org/cache/epub/25226/pg25226.cover.medium.jpg","application/octet-stream":"https://www.gutenberg.org/cache/epub/25226/pg25226-h.zip"},"download_count":78},{"id":25260,"title":"豐收","authors":[{"name":"Ye, Zi","birth_year":1910,"death_year":1939}],"translators":[],"subjects":["Short stories, Chinese"],"bookshelves":[],"languages":["zh"],"copyright":false,"media_type":"Text","formats":{"text/html":"https://www.gutenberg.org/ebooks/25260.html.images","application/epub+zip":"https://www.gutenberg.org/ebooks/25260.epub3.images","application/x-mobipocket-ebook":"https://www.gutenberg.org/ebooks/25260.kf8.images","text/plain; charset=us-ascii":"https://www.gutenberg.org/ebooks/25260.txt.utf-8","text/plain; charset=utf-8":"https://www.gutenberg.org/files/25260/25260-0.txt","application/rdf+xml":"https://www.gutenberg.org/ebooks/25260.rdf","image/jpeg":"https://www.gutenberg.org/cache/epub/25260/pg25260.cover.medium.jpg","application/octet-stream":"https://www.gutenberg.org/cache/epub/25260/pg25260-h.zip"},"download_count":78},{"id":25346,"title":"南腔北調集","authors":[{"name":"Lu, Xun","birth_year":1881,"death_year":1936}],"translators":[],"subjects":["Chinese essays"],"bookshelves":[],"languages":["zh"],"copyright":false,"media_type":"Text","formats":{"text/html":"https://www.gutenberg.org/ebooks/25346.html.images","application/epub+zip":"https://www.gutenberg.org/ebooks/25346.epub3.images","application/x-mobipocket-ebook":"https://www.gutenberg.org/ebooks/25346.kf8.images","text/plain; charset=us-ascii":"https://www.gutenberg.org/ebooks/25346.txt.utf-8","text/plain; charset=utf-8":"https://www.gutenberg.org/files/25346/25346-0.txt","application/rdf+xml":"https://www.gutenberg.org/ebooks/25346.rdf","image/jpeg":"https://www.gutenberg.org/cache/epub/25346/pg25346.cover.medium.jpg","application/octet-stream":"https://www.gutenberg.org/cache/epub/25346/pg25346-h.zip"},"download_count":78},{"id":25391,"title":"甌北詩話","authors":[{"name":"Zhao, Yi","birth_year":1727,"death_year":1814}],"translators":[],"subjects":["Chinese poetry -- History and criticism"],"bookshelves":[],"languages":["zh"],"copyright":false,"media_type":"Text","formats":{"text/html":"https://www.gutenberg.org/ebooks/25391.html.images","application/epub+zip":"https://www.gutenberg.org/ebooks/25391.epub3.images","application/x-mobipocket-ebook":"https://www.gutenberg.org/ebooks/25391.kf8.images","text/plain; charset=us-ascii":"https://www.gutenberg.org/ebooks/25391.txt.utf-8","text/plain; charset=utf-8":"https://www.gutenberg.org/files/25391/25391-0.txt","application/rdf+xml":"https://www.gutenberg.org/ebooks/25391.rdf","image/jpeg":"https://www.gutenberg.org/cache/epub/25391/pg25391.cover.medium.jpg","application/octet-stream":"https://www.gutenberg.org/cache/epub/25391/pg25391-h.zip"},"download_count":78},{"id":52280,"title":"明鏡公案","authors":[{"name":"Unknown","birth_year":null,"death_year":null}],"translators":[],"subjects":["Chinese fiction"],"bookshelves":[],"languages":["zh"],"copyright":false,"media_type":"Text","formats":{"text/html":"https://www.gutenberg.org/ebooks/52280.html.images","application/epub+zip":"https://www.gutenberg.org/ebooks/52280.epub3.images","application/x-mobipocket-ebook":"https://www.gutenberg.org/ebooks/52280.kf8.images","text/plain; charset=us-ascii":"https://www.gutenberg.org/ebooks/52280.txt.utf-8","text/plain; charset=utf-8":"https://www.gutenberg.org/files/52280/52280-0.txt","application/rdf+xml":"https://www.gutenberg.org/ebooks/52280.rdf","image/jpeg":"https://www.gutenberg.org/cache/epub/52280/pg52280.cover.medium.jpg","application/octet-stream":"https://www.gutenberg.org/cache/epub/52280/pg52280-h.zip"},"download_count":78},{"id":26904,"title":"天豹圖","authors":[{"name":"Unknown","birth_year":null,"death_year":null}],"translators":[],"subjects":["China -- History -- Song dynasty, 960-1279 -- Fiction"],"bookshelves":[],"languages":["zh"],"copyright":false,"media_type":"Text","formats":{"text/html":"https://www.gutenberg.org/ebooks/26904.html.images","application/epub+zip":"https://www.gutenberg.org/ebooks/26904.epub3.images","application/x-mobipocket-ebook":"https://www.gutenberg.org/ebooks/26904.kf8.images","text/plain; charset=us-ascii":"https://www.gutenberg.org/ebooks/26904.txt.utf-8","text/plain; charset=utf-8":"https://www.gutenberg.org/files/26904/26904-0.txt","application/rdf+xml":"https://www.gutenberg.org/ebooks/26904.rdf","image/jpeg":"https://www.gutenberg.org/cache/epub/26904/pg26904.cover.medium.jpg","application/octet-stream":"https://www.gutenberg.org/cache/epub/26904/pg26904-h.zip"},"download_count":77},{"id":25130,"title":"夜雨秋燈錄","authors":[{"name":"Xuan, Ding","birth_year":1832,"death_year":null}],"translators":[],"subjects":["Short stories, Chinese"],"bookshelves":[],"languages":["zh"],"copyright":false,"media_type":"Text","formats":{"text/html":"https://www.gutenberg.org/ebooks/25130.html.images","application/epub+zip":"https://www.gutenberg.org/ebooks/25130.epub3.images","application/x-mobipocket-ebook":"https://www.gutenberg.org/ebooks/25130.kf8.images","text/plain; charset=us-ascii":"https://www.gutenberg.org/ebooks/25130.txt.utf-8","text/plain; charset=utf-8":"https://www.gutenberg.org/files/25130/25130-0.txt","application/rdf+xml":"https://www.gutenberg.org/ebooks/25130.rdf","image/jpeg":"https://www.gutenberg.org/cache/epub/25130/pg25130.cover.medium.jpg","application/octet-stream":"https://www.gutenberg.org/cache/epub/25130/pg25130-h.zip"},"download_count":76},{"id":24050,"title":"菜根譚","authors":[{"name":"Hong, Zicheng, active 1596","birth_year":null,"death_year":null}],"translators":[],"subjects":["Conduct of life"],"bookshelves":[],"languages":["zh"],"copyright":false,"media_type":"Text","formats":{"text/html":"https://www.gutenberg.org/ebooks/24050.html.images","application/epub+zip":"https://www.gutenberg.org/ebooks/24050.epub3.images","application/x-mobipocket-ebook":"https://www.gutenberg.org/ebooks/24050.kf8.images","text/plain; charset=us-ascii":"https://www.gutenberg.org/ebooks/24050.txt.utf-8","text/plain; charset=utf-8":"https://www.gutenberg.org/files/24050/24050-0.txt","application/rdf+xml":"https://www.gutenberg.org/ebooks/24050.rdf","image/jpeg":"https://www.gutenberg.org/cache/epub/24050/pg24050.cover.medium.jpg","application/octet-stream":"https://www.gutenberg.org/cache/epub/24050/pg24050-h.zip"},"download_count":75},{"id":25262,"title":"日知錄","authors":[{"name":"Gu, Yanwu","birth_year":1613,"death_year":1682}],"translators":[],"subjects":["China -- History"],"bookshelves":[],"languages":["zh"],"copyright":false,"media_type":"Text","formats":{"text/html":"https://www.gutenberg.org/ebooks/25262.html.images","application/epub+zip":"https://www.gutenberg.org/ebooks/25262.epub3.images","application/x-mobipocket-ebook":"https://www.gutenberg.org/ebooks/25262.kf8.images","text/plain; charset=us-ascii":"https://www.gutenberg.org/ebooks/25262.txt.utf-8","text/plain; charset=utf-8":"https://www.gutenberg.org/files/25262/25262-0.txt","application/rdf+xml":"https://www.gutenberg.org/ebooks/25262.rdf","image/jpeg":"https://www.gutenberg.org/cache/epub/25262/pg25262.cover.medium.jpg","application/octet-stream":"https://www.gutenberg.org/cache/epub/25262/pg25262-h.zip"},"download_count":75},{"id":27399,"title":"麟兒報","authors":[{"name":"Anonymous","birth_year":null,"death_year":null}],"translators":[],"subjects":["Chinese fiction"],"bookshelves":[],"languages":["zh"],"copyright":false,"media_type":"Text","formats":{"text/html":"https://www.gutenberg.org/ebooks/27399.html.images","application/epub+zip":"https://www.gutenberg.org/ebooks/27399.epub3.images","application/x-mobipocket-ebook":"https://www.gutenberg.org/ebooks/27399.kf8.images","text/plain; charset=us-ascii":"https://www.gutenberg.org/ebooks/27399.txt.utf-8","text/plain; charset=utf-8":"https://www.gutenberg.org/files/27399/27399-0.txt","application/rdf+xml":"https://www.gutenberg.org/ebooks/27399.rdf","image/jpeg":"https://www.gutenberg.org/cache/epub/27399/pg27399.cover.medium.jpg","application/octet-stream":"https://www.gutenberg.org/cache/epub/27399/pg27399-h.zip"},"download_count":74},{"id":26997,"title":"朝野僉載","authors":[{"name":"Zhang, Zhuo","birth_year":null,"death_year":null}],"translators":[],"subjects":["China -- History -- Tang dynasty, 618-907"],"bookshelves":[],"languages":["zh"],"copyright":false,"media_type":"Text","formats":{"text/html":"https://www.gutenberg.org/ebooks/26997.html.images","application/epub+zip":"https://www.gutenberg.org/ebooks/26997.epub3.images","application/x-mobipocket-ebook":"https://www.gutenberg.org/ebooks/26997.kf8.images","text/plain; charset=us-ascii":"https://www.gutenberg.org/ebooks/26997.txt.utf-8","text/plain; charset=utf-8":"https://www.gutenberg.org/files/26997/26997-0.txt","application/rdf+xml":"https://www.gutenberg.org/ebooks/26997.rdf","image/jpeg":"https://www.gutenberg.org/cache/epub/26997/pg26997.cover.medium.jpg","application/octet-stream":"https://www.gutenberg.org/cache/epub/26997/pg26997-h.zip"},"download_count":73},{"id":27292,"title":"夢溪筆談","authors":[{"name":"Shen, Kuo","birth_year":1031,"death_year":1095}],"translators":[],"subjects":["China -- History -- Song dynasty, 960-1279 -- Anecdotes"],"bookshelves":[],"languages":["zh"],"copyright":false,"media_type":"Text","formats":{"text/html":"https://www.gutenberg.org/ebooks/27292.html.images","application/epub+zip":"https://www.gutenberg.org/ebooks/27292.epub3.images","application/x-mobipocket-ebook":"https://www.gutenberg.org/ebooks/27292.kf8.images","text/plain; charset=us-ascii":"https://www.gutenberg.org/ebooks/27292.txt.utf-8","text/plain; charset=utf-8":"https://www.gutenberg.org/files/27292/27292-0.txt","application/rdf+xml":"https://www.gutenberg.org/ebooks/27292.rdf","image/jpeg":"https://www.gutenberg.org/cache/epub/27292/pg27292.cover.medium.jpg","application/octet-stream":"https://www.gutenberg.org/cache/epub/27292/pg27292-h.zip"},"download_count":73},{"id":25287,"title":"續世說","authors":[{"name":"Kong, Pingzhong","birth_year":1044,"death_year":1111}],"translators":[],"subjects":["China -- History -- Anecdotes"],"bookshelves":[],"languages":["zh"],"copyright":false,"media_type":"Text","formats":{"text/html":"https://www.gutenberg.org/ebooks/25287.html.images","application/epub+zip":"https://www.gutenberg.org/ebooks/25287.epub3.images","application/x-mobipocket-ebook":"https://www.gutenberg.org/ebooks/25287.kf8.images","text/plain; charset=us-ascii":"https://www.gutenberg.org/ebooks/25287.txt.utf-8","text/plain; charset=utf-8":"https://www.gutenberg.org/files/25287/25287-0.txt","application/rdf+xml":"https://www.gutenberg.org/ebooks/25287.rdf","image/jpeg":"https://www.gutenberg.org/cache/epub/25287/pg25287.cover.medium.jpg","application/octet-stream":"https://www.gutenberg.org/cache/epub/25287/pg25287-h.zip"},"download_count":72},{"id":27218,"title":"臺灣外紀","authors":[{"name":"Jiang, Risheng, active 1692","birth_year":null,"death_year":null}],"translators":[],"subjects":["Taiwan -- History -- To 1895","Zheng, Chenggong, 1624-1662"],"bookshelves":[],"languages":["zh"],"copyright":false,"media_type":"Text","formats":{"text/html":"https://www.gutenberg.org/ebooks/27218.html.images","application/epub+zip":"https://www.gutenberg.org/ebooks/27218.epub3.images","application/x-mobipocket-ebook":"https://www.gutenberg.org/ebooks/27218.kf8.images","text/plain; charset=us-ascii":"https://www.gutenberg.org/ebooks/27218.txt.utf-8","text/plain; charset=utf-8":"https://www.gutenberg.org/files/27218/27218-0.txt","application/rdf+xml":"https://www.gutenberg.org/ebooks/27218.rdf","image/jpeg":"https://www.gutenberg.org/cache/epub/27218/pg27218.cover.medium.jpg","application/octet-stream":"https://www.gutenberg.org/cache/epub/27218/pg27218-h.zip"},"download_count":72},{"id":27328,"title":"駐春園小史","authors":[{"name":"Wuhangyeke","birth_year":null,"death_year":null}],"translators":[],"subjects":[],"bookshelves":[],"languages":["zh"],"copyright":false,"media_type":"Text","formats":{"text/html":"https://www.gutenberg.org/ebooks/27328.html.images","application/epub+zip":"https://www.gutenberg.org/ebooks/27328.epub3.images","application/x-mobipocket-ebook":"https://www.gutenberg.org/ebooks/27328.kf8.images","text/plain; charset=us-ascii":"https://www.gutenberg.org/ebooks/27328.txt.utf-8","text/plain; charset=utf-8":"https://www.gutenberg.org/files/27328/27328-0.txt","application/rdf+xml":"https://www.gutenberg.org/ebooks/27328.rdf","image/jpeg":"https://www.gutenberg.org/cache/epub/27328/pg27328.cover.medium.jpg","application/octet-stream":"https://www.gutenberg.org/cache/epub/27328/pg27328-h.zip"},"download_count":71},{"id":57248,"title":"初刻拍案驚奇","authors":[{"name":"Ling, Mengchu","birth_year":1580,"death_year":1644}],"translators":[],"subjects":["Chinese fiction -- Ming dynasty, 1368-1644"],"bookshelves":[],"languages":["zh"],"copyright":false,"media_type":"Text","formats":{"text/html":"https://www.gutenberg.org/ebooks/57248.html.images","application/epub+zip":"https://www.gutenberg.org/ebooks/57248.epub3.images","application/x-mobipocket-ebook":"https://www.gutenberg.org/ebooks/57248.kf8.images","text/plain; charset=us-ascii":"https://www.gutenberg.org/ebooks/57248.txt.utf-8","text/plain; charset=utf-8":"https://www.gutenberg.org/files/57248/57248-0.txt","application/rdf+xml":"https://www.gutenberg.org/ebooks/57248.rdf","image/jpeg":"https://www.gutenberg.org/cache/epub/57248/pg57248.cover.medium.jpg","application/octet-stream":"https://www.gutenberg.org/cache/epub/57248/pg57248-h.zip"},"download_count":71},{"id":23822,"title":"文心雕龍","authors":[{"name":"Liu, Xie","birth_year":null,"death_year":null}],"translators":[],"subjects":["Chinese literature -- History and criticism"],"bookshelves":[],"languages":["zh"],"copyright":false,"media_type":"Text","formats":{"text/html":"https://www.gutenberg.org/ebooks/23822.html.images","application/epub+zip":"https://www.gutenberg.org/ebooks/23822.epub3.images","application/x-mobipocket-ebook":"https://www.gutenberg.org/ebooks/23822.kf8.images","text/plain; charset=us-ascii":"https://www.gutenberg.org/ebooks/23822.txt.utf-8","text/plain; charset=utf-8":"https://www.gutenberg.org/files/23822/23822-0.txt","application/rdf+xml":"https://www.gutenberg.org/ebooks/23822.rdf","image/jpeg":"https://www.gutenberg.org/cache/epub/23822/pg23822.cover.medium.jpg","application/octet-stream":"https://www.gutenberg.org/cache/epub/23822/pg23822-h.zip"},"download_count":70},{"id":23842,"title":"楊家將","authors":[{"name":"Xiong, Damu, active 16th century","birth_year":null,"death_year":null}],"translators":[],"subjects":["China -- History -- Song dynasty, 960-1279 -- Fiction"],"bookshelves":[],"languages":["zh"],"copyright":false,"media_type":"Text","formats":{"text/html":"https://www.gutenberg.org/ebooks/23842.html.images","application/epub+zip":"https://www.gutenberg.org/ebooks/23842.epub3.images","application/x-mobipocket-ebook":"https://www.gutenberg.org/ebooks/23842.kf8.images","text/plain; charset=us-ascii":"https://www.gutenberg.org/ebooks/23842.txt.utf-8","text/plain; charset=utf-8":"https://www.gutenberg.org/files/23842/23842-0.txt","application/rdf+xml":"https://www.gutenberg.org/ebooks/23842.rdf","image/jpeg":"https://www.gutenberg.org/cache/epub/23842/pg23842.cover.medium.jpg","application/octet-stream":"https://www.gutenberg.org/cache/epub/23842/pg23842-h.zip"},"download_count":70},{"id":23877,"title":"玉嬌梨","authors":[{"name":"Tianhuazangzhuren","birth_year":null,"death_year":null}],"translators":[],"subjects":["Chinese fiction"],"bookshelves":[],"languages":["zh"],"copyright":false,"media_type":"Text","formats":{"text/html":"https://www.gutenberg.org/ebooks/23877.html.images","application/epub+zip":"https://www.gutenberg.org/ebooks/23877.epub3.images","application/x-mobipocket-ebook":"https://www.gutenberg.org/ebooks/23877.kf8.images","text/plain; charset=us-ascii":"https://www.gutenberg.org/ebooks/23877.txt.utf-8","text/plain; charset=utf-8":"https://www.gutenberg.org/files/23877/23877-0.txt","application/rdf+xml":"https://www.gutenberg.org/ebooks/23877.rdf","image/jpeg":"https://www.gutenberg.org/cache/epub/23877/pg23877.cover.medium.jpg","application/octet-stream":"https://www.gutenberg.org/cache/epub/23877/pg23877-h.zip"},"download_count":70},{"id":25314,"title":"荀子集解","authors":[{"name":"Wang, Xianqian","birth_year":1842,"death_year":1918}],"translators":[],"subjects":["Xunzi, 340 B.C.-245 B.C. Xunzi"],"bookshelves":[],"languages":["zh"],"copyright":false,"media_type":"Text","formats":{"text/html":"https://www.gutenberg.org/ebooks/25314.html.images","application/epub+zip":"https://www.gutenberg.org/ebooks/25314.epub3.images","application/x-mobipocket-ebook":"https://www.gutenberg.org/ebooks/25314.kf8.images","text/plain; charset=us-ascii":"https://www.gutenberg.org/ebooks/25314.txt.utf-8","text/plain; charset=utf-8":"https://www.gutenberg.org/files/25314/25314-0.txt","application/rdf+xml":"https://www.gutenberg.org/ebooks/25314.rdf","image/jpeg":"https://www.gutenberg.org/cache/epub/25314/pg25314.cover.medium.jpg","application/octet-stream":"https://www.gutenberg.org/cache/epub/25314/pg25314-h.zip"},"download_count":70},{"id":25561,"title":"癡人說夢記","authors":[{"name":"Lü, Sheng","birth_year":null,"death_year":null}],"translators":[],"subjects":["Chinese fiction"],"bookshelves":[],"languages":["zh"],"copyright":false,"media_type":"Text","formats":{"text/html":"https://www.gutenberg.org/ebooks/25561.html.images","application/epub+zip":"https://www.gutenberg.org/ebooks/25561.epub3.images","application/x-mobipocket-ebook":"https://www.gutenberg.org/ebooks/25561.kf8.images","text/plain; charset=us-ascii":"https://www.gutenberg.org/ebooks/25561.txt.utf-8","text/plain; charset=utf-8":"https://www.gutenberg.org/files/25561/25561-0.txt","application/rdf+xml":"https://www.gutenberg.org/ebooks/25561.rdf","image/jpeg":"https://www.gutenberg.org/cache/epub/25561/pg25561.cover.medium.jpg","application/octet-stream":"https://www.gutenberg.org/cache/epub/25561/pg25561-h.zip"},"download_count":70},{"id":23585,"title":"佛說四十二章經","authors":[{"name":"Buddha","birth_year":null,"death_year":null}],"translators":[],"subjects":["Buddhism -- Sacred books"],"bookshelves":["Buddhism"],"languages":["zh"],"copyright":false,"media_type":"Text","formats":{"text/html":"https://www.gutenberg.org/ebooks/23585.html.images","application/epub+zip":"https://www.gutenberg.org/ebooks/23585.epub3.images","application/x-mobipocket-ebook":"https://www.gutenberg.org/ebooks/23585.kf8.images","text/plain; charset=us-ascii":"https://www.gutenberg.org/ebooks/23585.txt.utf-8","text/plain; charset=utf-8":"https://www.gutenberg.org/files/23585/23585-0.txt","application/rdf+xml":"https://www.gutenberg.org/ebooks/23585.rdf","image/jpeg":"https://www.gutenberg.org/cache/epub/23585/pg23585.cover.medium.jpg","application/octet-stream":"https://www.gutenberg.org/cache/epub/23585/pg23585-h.zip"},"download_count":69},{"id":24079,"title":"商界現形記","authors":[{"name":"Tianzhuisheng","birth_year":null,"death_year":null}],"translators":[],"subjects":["Chinese fiction -- Qing dynasty, 1644-1912"],"bookshelves":[],"languages":["zh"],"copyright":false,"media_type":"Text","formats":{"text/html":"https://www.gutenberg.org/ebooks/24079.html.images","application/epub+zip":"https://www.gutenberg.org/ebooks/24079.epub3.images","application/x-mobipocket-ebook":"https://www.gutenberg.org/ebooks/24079.kf8.images","text/plain; charset=us-ascii":"https://www.gutenberg.org/ebooks/24079.txt.utf-8","text/plain; charset=utf-8":"https://www.gutenberg.org/files/24079/24079-0.txt","application/rdf+xml":"https://www.gutenberg.org/ebooks/24079.rdf","image/jpeg":"https://www.gutenberg.org/cache/epub/24079/pg24079.cover.medium.jpg","application/octet-stream":"https://www.gutenberg.org/cache/epub/24079/pg24079-h.zip"},"download_count":69},{"id":25385,"title":"春秋繁露","authors":[{"name":"Dong, Zhongshu, active 2nd century B.C.","birth_year":null,"death_year":null}],"translators":[],"subjects":["Confucius. Chun qiu"],"bookshelves":[],"languages":["zh"],"copyright":false,"media_type":"Text","formats":{"text/html":"https://www.gutenberg.org/ebooks/25385.html.images","application/epub+zip":"https://www.gutenberg.org/ebooks/25385.epub3.images","application/x-mobipocket-ebook":"https://www.gutenberg.org/ebooks/25385.kf8.images","text/plain; charset=us-ascii":"https://www.gutenberg.org/ebooks/25385.txt.utf-8","text/plain; charset=utf-8":"https://www.gutenberg.org/files/25385/25385-0.txt","application/rdf+xml":"https://www.gutenberg.org/ebooks/25385.rdf","image/jpeg":"https://www.gutenberg.org/cache/epub/25385/pg25385.cover.medium.jpg","application/octet-stream":"https://www.gutenberg.org/cache/epub/25385/pg25385-h.zip"},"download_count":69},{"id":23849,"title":"牡丹亭","authors":[{"name":"Tang, Xianzu","birth_year":1550,"death_year":1616}],"translators":[],"subjects":["Chinese drama -- Ming dynasty, 1368-1644","Dreams -- Drama"],"bookshelves":[],"languages":["zh"],"copyright":false,"media_type":"Text","formats":{"text/html":"https://www.gutenberg.org/ebooks/23849.html.images","application/epub+zip":"https://www.gutenberg.org/ebooks/23849.epub3.images","application/x-mobipocket-ebook":"https://www.gutenberg.org/ebooks/23849.kf8.images","text/plain; charset=us-ascii":"https://www.gutenberg.org/ebooks/23849.txt.utf-8","text/plain; charset=utf-8":"https://www.gutenberg.org/files/23849/23849-0.txt","application/rdf+xml":"https://www.gutenberg.org/ebooks/23849.rdf","image/jpeg":"https://www.gutenberg.org/cache/epub/23849/pg23849.cover.medium.jpg","application/octet-stream":"https://www.gutenberg.org/cache/epub/23849/pg23849-h.zip"},"download_count":68},{"id":23873,"title":"詩經","authors":[{"name":"Anonymous","birth_year":null,"death_year":null}],"translators":[],"subjects":["Chinese poetry"],"bookshelves":[],"languages":["zh"],"copyright":false,"media_type":"Text","formats":{"text/html":"https://www.gutenberg.org/ebooks/23873.html.images","application/epub+zip":"https://www.gutenberg.org/ebooks/23873.epub3.images","application/x-mobipocket-ebook":"https://www.gutenberg.org/ebooks/23873.kf8.images","text/plain; charset=us-ascii":"https://www.gutenberg.org/ebooks/23873.txt.utf-8","text/plain; charset=utf-8":"https://www.gutenberg.org/files/23873/23873-0.txt","application/rdf+xml":"https://www.gutenberg.org/ebooks/23873.rdf","image/jpeg":"https://www.gutenberg.org/cache/epub/23873/pg23873.cover.medium.jpg","application/octet-stream":"https://www.gutenberg.org/cache/epub/23873/pg23873-h.zip"},"download_count":68},{"id":23911,"title":"國語","authors":[{"name":"Zuoqiu, Ming","birth_year":null,"death_year":null}],"translators":[],"subjects":["China -- History -- Spring and Autumn period, 722-481 B.C."],"bookshelves":[],"languages":["zh"],"copyright":false,"media_type":"Text","formats":{"text/html":"https://www.gutenberg.org/ebooks/23911.html.images","application/epub+zip":"https://www.gutenberg.org/ebooks/23911.epub3.images","application/x-mobipocket-ebook":"https://www.gutenberg.org/ebooks/23911.kf8.images","text/plain; charset=us-ascii":"https://www.gutenberg.org/ebooks/23911.txt.utf-8","text/plain; charset=utf-8":"https://www.gutenberg.org/files/23911/23911-0.txt","application/rdf+xml":"https://www.gutenberg.org/ebooks/23911.rdf","image/jpeg":"https://www.gutenberg.org/cache/epub/23911/pg23911.cover.medium.jpg","application/octet-stream":"https://www.gutenberg.org/cache/epub/23911/pg23911-h.zip"},"download_count":68}]}