{"count":444,"next":"http://129.241.150.113:8000/books/?languages=zh&page=5","previous":"http://129.241.150.113:8000/books/?languages=zh&page=3","results":[{"id":25142,"title":"王陽明全集","authors":[{"name":"Wang, Yangming","birth_year":1472,"death_year":1529}],"translators":[],"subjects":["Neo-Confucianism","Philosophy, Chinese"],"bookshelves":[],"languages":["zh"],"copyright":false,"media_type":"Text","formats":{"text/html":"https://www.gutenberg.org/ebooks/25142.html.images","application/epub+zip":"https://www.gutenberg.org/ebooks/25142.epub3.images","application/x-mobipocket-ebook":"https://www.gutenberg.org/ebooks/25142.kf8.images","text/plain; charset=us-ascii":"https://www.gutenberg.org/ebooks/25142.txt.utf-8","text/plain; charset=utf-8":"https://www.gutenberg.org/files/25142/25142-0.txt","application/rdf+xml":"https://www.gutenberg.org/ebooks/25142.rdf","image/jpeg":"https://www.gutenberg.org/cache/epub/25142/pg25142.cover.medium.jpg","application/octet-stream":"https://www.gutenberg.org/cache/epub/25142/pg25142-h.zip"},"download_count":101},{"id":2090,"title":"Peach Blossom Shangri-la: Tao Hua Yuan Ji","authors":[{"name":"Tao, Qian","birth_year":365,"death_year":427}],"translators":[],"subjects":["Chinese fiction -- To 618","Chinese literature -- Translations into English"],"bookshelves":[],"languages":["en","zh"],"copyright":false,"media_type":"Text","formats":{"text/html":"https://www.gutenberg.org/ebooks/2090.html.images","application/epub+zip":"https://www.gutenberg.org/ebooks/2090.epub3.images","application/x-mobipocket-ebook":"https://www.gutenberg.org/ebooks/2090.kf8.images","text/plain; charset=us-ascii":"https://www.gutenberg.org/ebooks/2090.txt.utf-8","text/plain; charset=utf-8":"https://www.gutenberg.org/files/2090/2090-0.txt","application/rdf+xml":"https://www.gutenberg.org/ebooks/2090.rdf","image/jpeg":"https://www.gutenberg.org/cache/epub/2090/pg2090.cover.medium.jpg","application/octet-stream":"https://www.gutenberg.org/cache/epub/2090/pg2090-h.zip"},"download_count":99},{"id":23839,"title":"論語","authors":[{"name":"Confucius","birth_year":-551,"death_year":-479}],"translators":[],"subjects":["Ethics -- China","Philosophy, Chinese"],"bookshelves":[],"languages":["zh"],"copyright":false,"media_type":"Text","formats":{"text/html":"https://www.gutenberg.org/ebooks/23839.html.images","application/epub+zip":"https://www.gutenberg.org/ebooks/23839.epub3.images","application/x-mobipocket-ebook":"https://www.gutenberg.org/ebooks/23839.kf8.images","text/plain; charset=us-ascii":"https://www.gutenberg.org/ebooks/23839.txt.utf-8","text/plain; charset=utf-8":"https://www.gutenberg.org/files/23839/23839-0.txt","application/rdf+xml":"https://www.gutenberg.org/ebooks/23839.rdf","image/jpeg":"https://www.gutenberg.org/cache/epub/23839/pg23839.cover.medium.jpg","application/octet-stream":"https://www.gutenberg.org/cache/epub/23839/pg23839-h.zip"},"download_count":99},{"id":23867,"title":"斬鬼傳","authors":[{"name":"Liu, Zhang","birth_year":null,"death_year":null}],"translators":[],"subjects":["Chinese fiction -- Qing dynasty, 1644-1912"],"bookshelves":[],"languages":["zh"],"copyright":false,"media_type":"Text","formats":{"text/html":"https://www.gutenberg.org/ebooks/23867.html.images","application/epub+zip":"https://www.gutenberg.org/ebooks/23867.epub3.images","application/x-mobipocket-ebook":"https://www.gutenberg.org/ebooks/23867.kf8.images","text/plain; charset=us-ascii":"https://www.gutenberg.org/ebooks/23867.txt.utf-8","text/plain; charset=utf-8":"https://www.gutenberg.org/files/23867/23867-0.txt","application/rdf+xml":"https://www.gutenberg.org/ebooks/23867.rdf","image/jpeg":"https://www.gutenberg.org/cache/epub/23867/pg23867.cover.medium.jpg","application/octet-stream":"https://www.gutenberg.org/cache/epub/23867/pg23867-h.zip"},"download_count":97},{"id":54756,"title":"官場現形記","authors":[{"name":"Li, Boyuan","birth_year":1867,"death_year":1906}],"translators":[],"subjects":["China -- Social life and customs -- 1644-1912 -- Fiction"],"bookshelves":[],"languages":["zh"],"copyright":false,"media_type":"Text","formats":{"text/html":"https://www.gutenberg.org/ebooks/54756.html.images","application/epub+zip":"https://www.gutenberg.org/ebooks/54756.epub3.images","application/x-mobipocket-ebook":"https://www.gutenberg.org/ebooks/54756.kf8.images","text/plain; charset=us-ascii":"https://www.gutenberg.org/ebooks/54756.txt.utf-8","text/plain; charset=utf-8":"https://www.gutenberg.org/files/54756/54756-0.txt","application/rdf+xml":"https://www.gutenberg.org/ebooks/54756.rdf","image/jpeg":"https://www.gutenberg.org/cache/epub/54756/pg54756.cover.medium.jpg","application/octet-stream":"https://www.gutenberg.org/cache/epub/54756/pg54756-h.zip"},"download_count":97},{"id":25352,"title":"長恨歌","authors":[{"name":"Bai, Juyi","birth_year":772,"death_year":846}],"translators":[],"subjects":["Chinese poetry","Tang Xuanzong, Emperor of China, 685-762 -- Poetry","Yang, gui fei, 719-756 -- Poetry"],"bookshelves":[],"languages":["zh"],"copyright":false,"media_type":"Text","formats":{"text/html":"https://www.gutenberg.org/ebooks/25352.html.images","application/epub+zip":"https://www.gutenberg.org/ebooks/25352.epub3.images","application/x-mobipocket-ebook":"https://www.gutenberg.org/ebooks/25352.kf8.images","text/plain; charset=us-ascii":"https://www.gutenberg.org/ebooks/25352.txt.utf-8","text/plain; charset=utf-8":"https://www.gutenberg.org/files/25352/25352-0.txt","application/rdf+xml":"https://www.gutenberg.org/ebooks/25352.rdf","image/jpeg":"https://www.gutenberg.org/cache/epub/25352/pg25352.cover.medium.jpg","application/octet-stream":"https://www.gutenberg.org/cache/epub/25352/pg25352-h.zip"},"download_count":96},{"id":56202,"title":"拾遺記","authors":[{"name":"Qi, Zhiping","birth_year":null,"death_year":null},{"name":"Wang, Jia, active 4th century","birth_year":null,"death_year":null},{"name":"Xiao, Qi","birth_year":null,"death_year":null}],"translators":[],"subjects":["China -- History -- Anecdotes","Folklore -- China"],"bookshelves":[],"languages":["zh"],"copyright":false,"media_type":"Text","formats":{"text/html":"https://www.gutenberg.org/ebooks/56202.html.images","application/epub+zip":"https://www.gutenberg.org/ebooks/56202.epub3.images","application/x-mobipocket-ebook":"https://www.gutenberg.org/ebooks/56202.kf8.images","text/plain; charset=us-ascii":"https://www.gutenberg.org/ebooks/56202.txt.utf-8","text/plain; charset=utf-8":"https://www.gutenberg.org/files/56202/56202-0.txt","application/rdf+xml":"https://www.gutenberg.org/ebooks/56202.rdf","image/jpeg":"https://www.gutenberg.org/cache/epub/56202/pg56202.cover.medium.jpg","application/octet-stream":"https://www.gutenberg.org/cache/epub/56202/pg56202-h.zip"},"download_count":96},{"id":24048,"title":"禮記","authors":[{"name":"Anonymous","birth_year":null,"death_year":null}],"translators":[],"subjects":["China -- Social life and customs","Ethics -- China","Etiquette -- China"],"bookshelves":[],"languages":["zh"],"copyright":false,"media_type":"Text","formats":{"text/html":"https://www.gutenberg.org/ebooks/24048.html.images","application/epub+zip":"https://www.gutenberg.org/ebooks/24048.epub3.images","application/x-mobipocket-ebook":"https://www.gutenberg.org/ebooks/24048.kf8.images","text/plain; charset=us-ascii":"https://www.gutenberg.org/ebooks/24048.txt.utf-8","text/plain; charset=utf-8":"https://www.gutenberg.org/files/24048/24048-0.txt","application/rdf+xml":"https://www.gutenberg.org/ebooks/24048.rdf","image/jpeg":"https://www.gutenberg.org/cache/epub/24048/pg24048.cover.medium.jpg","application/octet-stream":"https://www.gutenberg.org/cache/epub/24048/pg24048-h.zip"},"download_count":92},{"id":43010,"title":"竹葉亭雜記","authors":[{"name":"Yao, Yuanzhi","birth_year":1773,"death_year":1852}],"translators":[],"subjects":["China -- History -- Qing dynasty, 1644-1912 -- Anecdotes"],"bookshelves":[],"languages":["zh"],"copyright":false,"media_type":"Text","formats":{"text/html":"https://www.gutenberg.org/ebooks/43010.html.images","application/epub+zip":"https://www.gutenberg.org/ebooks/43010.epub3.images","application/x-mobipocket-ebook":"https://www.gutenberg.org/ebooks/43010.kf8.images","text/plain; charset=us-ascii":"https://www.gutenberg.org/ebooks/43010.txt.utf-8","text/plain; charset=utf-8":"https://www.gutenberg.org/files/43010/43010-0.txt","application/rdf+xml":"https://www.gutenberg.org/ebooks/43010.rdf","image/jpeg":"https://www.gutenberg.org/cache/epub/43010/pg43010.cover.medium.jpg","application/octet-stream":"https://www.gutenberg.org/cache/epub/43010/pg43010-h.zip"},"download_count":92},{"id":7317,"title":"夢溪筆談, Volume 01-26","authors":[{"name":"Shen, Kuo","birth_year":1031,"death_year":1095}],"translators":[],"subjects":["China -- History -- Song dynasty, 960-1279 -- Anecdotes"],"bookshelves":[],"languages":["zh"],"copyright":false,"media_type":"Text","formats":{"text/html":"https://www.gutenberg.org/ebooks/7317.html.images","application/epub+zip":"https://www.gutenberg.org/ebooks/7317.epub3.images","application/x-mobipocket-ebook":"https://www.gutenberg.org/ebooks/7317.kf8.images","text/plain; charset=us-ascii":"https://www.gutenberg.org/ebooks/7317.txt.utf-8","text/plain; charset=utf-8":"https://www.gutenberg.org/files/7317/7317-0.txt","application/rdf+xml":"https://www.gutenberg.org/ebooks/7317.rdf","image/jpeg":"https://www.gutenberg.org/cache/epub/7317/pg7317.cover.medium.jpg","application/octet-stream":"https://www.gutenberg.org/cache/epub/7317/pg7317-h.zip"},"download_count":91},{"id":24042,"title":"徬徨","authors":[{"name":"Lu, Xun","birth_year":1881,"death_year":1936}],"translators":[],"subjects":["Short stories, Chinese"],"bookshelves":["Best Books Ever Listings"],"languages":["zh"],"copyright":false,"media_type":"Text","formats":{"text/html":"https://www.gutenberg.org/ebooks/24042.html.images","application/epub+zip":"https://www.gutenberg.org/ebooks/24042.epub3.images","application/x-mobipocket-ebook":"https://www.gutenberg.org/ebooks/24042.kf8.images","text/plain; charset=us-ascii":"https://www.gutenberg.org/ebooks/24042.txt.utf-8","text/plain; charset=utf-8":"https://www.gutenberg.org/files/24042/24042-0.txt","application/rdf+xml":"https://www.gutenberg.org/ebooks/24042.rdf","image/jpeg":"https://www.gutenberg.org/cache/epub/24042/pg24042.cover.medium.jpg","application/octet-stream":"https://www.gutenberg.org/cache/epub/24042/pg24042-h.zip"},"download_count":91},{"id":26877,"title":"珍珠舶","authors":[{"name":"Yuanhuyanshuisanren, active 17th century-18th century","birth_year":null,"death_year":null}],"translators":[],"subjects":["Chinese fiction -- Qing dynasty, 1644-1912"],"bookshelves":[],"languages":["zh"],"copyright":false,"media_type":"Text","formats":{"text/html":"https://www.gutenberg.org/ebooks/26877.html.images","application/epub+zip":"https://www.gutenberg.org/ebooks/26877.epub3.images","application/x-mobipocket-ebook":"https://www.gutenberg.org/ebooks/26877.kf8.images","text/plain; charset=us-ascii":"https://www.gutenberg.org/ebooks/26877.txt.utf-8","text/plain; charset=utf-8":"https://www.gutenberg.org/files/26877/26877-0.txt","application/rdf+xml":"https://www.gutenberg.org/ebooks/26877.rdf","image/jpeg":"https://www.gutenberg.org/cache/epub/26877/pg26877.cover.medium.jpg","application/octet-stream":"https://www.gutenberg.org/cache/epub/26877/pg26877-h.zip"},"download_count":91},{"id":62791,"title":"滬語開路 = Conversational Exercises in the Shanghai Dialect","authors":[{"name":"Crofoot, Jay William","birth_year":1874,"death_year":1960},{"name":"Rawlinson, Frank Joseph","birth_year":1871,"death_year":1937}],"translators":[],"subjects":["Chinese language -- Dialects -- China -- Shanghai"],"bookshelves":[],"languages":["zh"],"copyright":false,"media_type":"Text","formats":{"text/html":"https://www.gutenberg.org/ebooks/62791.html.images","text/html; charset=utf-8":"https://www.gutenberg.org/files/62791/62791-h/62791-h.htm","application/epub+zip":"https://www.gutenberg.org/ebooks/62791.epub3.images","application/x-mobipocket-ebook":"https://www.gutenberg.org/ebooks/62791.kf8.images","text/plain; charset=us-ascii":"https://www.gutenberg.org/ebooks/62791.txt.utf-8","text/plain; charset=utf-8":"https://www.gutenberg.org/files/62791/62791-0.txt","application/rdf+xml":"https://www.gutenberg.org/ebooks/62791.rdf","image/jpeg":"https://www.gutenberg.org/cache/epub/62791/pg62791.cover.medium.jpg","application/octet-stream":"https://www.gutenberg.org/cache/epub/62791/pg62791-h.zip"},"download_count":91},{"id":25223,"title":"俗話傾談","authors":[{"name":"Shao, Binru","birth_year":null,"death_year":null}],"translators":[],"subjects":["Chinese fiction -- Qing dynasty, 1644-1912"],"bookshelves":[],"languages":["zh"],"copyright":false,"media_type":"Text","formats":{"text/html":"https://www.gutenberg.org/ebooks/25223.html.images","application/epub+zip":"https://www.gutenberg.org/ebooks/25223.epub3.images","application/x-mobipocket-ebook":"https://www.gutenberg.org/ebooks/25223.kf8.images","text/plain; charset=us-ascii":"https://www.gutenberg.org/ebooks/25223.txt.utf-8","text/plain; charset=utf-8":"https://www.gutenberg.org/files/25223/25223-0.txt","application/rdf+xml":"https://www.gutenberg.org/ebooks/25223.rdf","image/jpeg":"https://www.gutenberg.org/cache/epub/25223/pg25223.cover.medium.jpg","application/octet-stream":"https://www.gutenberg.org/cache/epub/25223/pg25223-h.zip"},"download_count":90},{"id":24049,"title":"韩非子","authors":[{"name":"Han, Fei","birth_year":null,"death_year":-233}],"translators":[],"subjects":["Legalism (Chinese philosophy)","Philosophy, Chinese"],"bookshelves":[],"languages":["zh"],"copyright":false,"media_type":"Text","formats":{"text/html":"https://www.gutenberg.org/ebooks/24049.html.images","application/epub+zip":"https://www.gutenberg.org/ebooks/24049.epub3.images","application/x-mobipocket-ebook":"https://www.gutenberg.org/ebooks/24049.kf8.images","text/plain; charset=us-ascii":"https://www.gutenberg.org/ebooks/24049.txt.utf-8","text/plain; charset=utf-8":"https://www.gutenberg.org/files/24049/24049-0.txt","application/rdf+xml":"https://www.gutenberg.org/ebooks/24049.rdf","image/jpeg":"https://www.gutenberg.org/cache/epub/24049/pg24049.cover.medium.jpg","application/octet-stream":"https://www.gutenberg.org/cache/epub/24049/pg24049-h.zip"},"download_count":89},{"id":57227,"title":"平妖傳","authors":[{"name":"Luo, Guanzhong","birth_year":null,"death_year":null},{"name":"Feng, Menglong","birth_year":1574,"death_year":1646}],"translators":[],"subjects":["Chinese fiction -- Ming dynasty, 1368-1644"],"bookshelves":[],"languages":["zh"],"copyright":false,"media_type":"Text","formats":{"text/html":"https://www.gutenberg.org/ebooks/57227.html.images","application/epub+zip":"https://www.gutenberg.org/ebooks/57227.epub3.images","application/x-mobipocket-ebook":"https://www.gutenberg.org/ebooks/57227.kf8.images","text/plain; charset=us-ascii":"https://www.gutenberg.org/ebooks/57227.txt.utf-8","text/plain; charset=utf-8":"https://www.gutenberg.org/files/57227/57227-0.txt","application/rdf+xml":"https://www.gutenberg.org/ebooks/57227.rdf","image/jpeg":"https://www.gutenberg.org/cache/epub/57227/pg57227.cover.medium.jpg","application/octet-stream":"https://www.gutenberg.org/cache/epub/57227/pg57227-h.zip"},"download_count":88},{"id":27459,"title":"耳食錄","authors":[{"name":"Yue, Jun","birth_year":1766,"death_year":1814}],"translators":[],"subjects":["Chinese fiction -- Qing dynasty, 1644-1912"],"bookshelves":[],"languages":["zh"],"copyright":false,"media_type":"Text","formats":{"text/html":"https://www.gutenberg.org/ebooks/27459.html.images","application/epub+zip":"https://www.gutenberg.org/ebooks/27459.epub3.images","application/x-mobipocket-ebook":"https://www.gutenberg.org/ebooks/27459.kf8.images","text/plain; charset=us-ascii":"https://www.gutenberg.org/ebooks/27459.txt.utf-8","text/plain; charset=utf-8":"https://www.gutenberg.org/files/27459/27459-0.txt","application/rdf+xml":"https://www.gutenberg.org/ebooks/27459.rdf","image/jpeg":"https://www.gutenberg.org/cache/epub/27459/pg27459.cover.medium.jpg","application/octet-stream":"https://www.gutenberg.org/cache/epub/27459/pg27459-h.zip"},"download_count":87},{"id":24169,"title":"李太白集","authors":[{"name":"Li, Bai","birth_year":701,"death_year":762}],"translators":[],"subjects":["Chinese poetry -- Tang dynasty, 618-907"],"bookshelves":[],"languages":["zh"],"copyright":false,"media_type":"Text","formats":{"text/html":"https://www.gutenberg.org/ebooks/24169.html.images","application/epub+zip":"https://www.gutenberg.org/ebooks/24169.epub3.images","application/x-mobipocket-ebook":"https://www.gutenberg.org/ebooks/24169.kf8.images","text/plain; charset=us-ascii":"https://www.gutenberg.org/ebooks/24169.txt.utf-8","text/plain; charset=utf-8":"https://www.gutenberg.org/files/24169/24169-0.txt","application/rdf+xml":"https://www.gutenberg.org/ebooks/24169.rdf","image/jpeg":"https://www.gutenberg.org/cache/epub/24169/pg24169.cover.medium.jpg","application/octet-stream":"https://www.gutenberg.org/cache/epub/24169/pg24169-h.zip"},"download_count":86},{"id":25602,"title":"蘭花夢奇傳","authors":[{"name":"Yinmeishanren","birth_year":null,"death_year":null}],"translators":[],"subjects":["Chinese fiction -- Qing dynasty, 1644-1912"],"bookshelves":[],"languages":["zh"],"copyright":false,"media_type":"Text","formats":{"text/html":"https://www.gutenberg.org/ebooks/25602.html.images","application/epub+zip":"https://www.gutenberg.org/ebooks/25602.epub3.images","application/x-mobipocket-ebook":"https://www.gutenberg.org/ebooks/25602.kf8.images","text/plain; charset=us-ascii":"https://www.gutenberg.org/ebooks/25602.txt.utf-8","text/plain; charset=utf-8":"https://www.gutenberg.org/files/25602/25602-0.txt","application/rdf+xml":"https://www.gutenberg.org/ebooks/25602.rdf","image/jpeg":"https://www.gutenberg.org/cache/epub/25602/pg25602.cover.medium.jpg","application/octet-stream":"https://www.gutenberg.org/cache/epub/25602/pg25602-h.zip"},"download_count":85},{"id":27331,"title":"飛跎全傳","authors":[{"name":"Bixian, Zou","birth_year":null,"death_year":null}],"translators":[],"subjects":["Chinese fiction -- Qing dynasty, 1644-1912"],"bookshelves":[],"languages":["zh"],"copyright":false,"media_type":"Text","formats":{"text/html":"https://www.gutenberg.org/ebooks/27331.html.images","application/epub+zip":"https://www.gutenberg.org/ebooks/27331.epub3.images","application/x-mobipocket-ebook":"https://www.gutenberg.org/ebooks/27331.kf8.images","text/plain; charset=us-ascii":"https://www.gutenberg.org/ebooks/27331.txt.utf-8","text/plain; charset=utf-8":"https://www.gutenberg.org/files/27331/27331-0.txt","application/rdf+xml":"https://www.gutenberg.org/ebooks/27331.rdf","image/jpeg":"https://www.gutenberg.org/cache/epub/27331/pg27331.cover.medium.jpg","application/octet-stream":"https://www.gutenberg.org/cache/epub/27331/pg27331-h.zip"},"download_count":85},{"id":25422,"title":"玉樓春","authors":[{"name":"Baiyundaoren","birth_year":null,"death_year":null}],"translators":[],"subjects":[],"bookshelves":[],"languages":["zh"],"copyright":false,"media_type":"Text","formats":{"text/html":"https://www.gutenberg.org/ebooks/25422.html.images","application/epub+zip":"https://www.gutenberg.org/ebooks/25422.epub3.images","application/x-mobipocket-ebook":"https://www.gutenberg.org/ebooks/25422.kf8.images","text/plain; charset=us-ascii":"https://www.gutenberg.org/ebooks/25422.txt.utf-8","text/plain; charset=utf-8":"https://www.gutenberg.org/files/25422/25422-0.txt","application/rdf+xml":"https://www.gutenberg.org/ebooks/25422.rdf","image/jpeg":"https://www.gutenberg.org/cache/epub/25422/pg25422.cover.medium.jpg","application/octet-stream":"https://www.gutenberg.org/cache/epub/25422/pg25422-h.zip"},"download_count":84},{"id":24327,"title":"何典","authors":[{"name":"Zhang, Nanzhuang","birth_year":null,"death_year":null}],"translators":[],"subjects":["Chinese fiction -- Qing dynasty, 1644-1912"],"bookshelves":[],"languages":["zh"],"copyright":false,"media_type":"Text","formats":{"text/html":"https://www.gutenberg.org/ebooks/24327.html.images","application/epub+zip":"https://www.gutenberg.org/ebooks/24327.epub3.images","application/x-mobipocket-ebook":"https://www.gutenberg.org/ebooks/24327.kf8.images","text/plain; charset=us-ascii":"https://www.gutenberg.org/ebooks/24327.txt.utf-8","text/plain; charset=utf-8":"https://www.gutenberg.org/files/24327/24327-0.txt","application/rdf+xml":"https://www.gutenberg.org/ebooks/24327.rdf","image/jpeg":"https://www.gutenberg.org/cache/epub/24327/pg24327.cover.medium.jpg","application/octet-stream":"https://www.gutenberg.org/cache/epub/24327/pg24327-h.zip"},"download_count":83},{"id":25124,"title":"老殘遊記","authors":[{"name":"Liu, E","birth_year":1857,"death_year":1909}],"translators":[],"subjects":["Chinese fiction -- Qing dynasty, 1644-1912","Tai Mountains (China) -- Fiction"],"bookshelves":[],"languages":["zh"],"copyright":false,"media_type":"Text","formats":{"text/html":"https://www.gutenberg.org/ebooks/25124.html.images","text/html; charset=utf-8":"https://www.gutenberg.org/files/25124/25124-h/25124-h.htm","application/epub+zip":"https://www.gutenberg.org/ebooks/25124.epub3.images","application/x-mobipocket-ebook":"https://www.gutenberg.org/ebooks/25124.kf8.images","text/plain; charset=us-ascii":"https://www.gutenberg.org/ebooks/25124.txt.utf-8","text/plain; charset=utf-8":"https://www.gutenberg.org/files/25124/25124-0.txt","application/rdf+xml":"https://www.gutenberg.org/ebooks/25124.rdf","image/jpeg":"https://www.gutenberg.org/cache/epub/25124/pg25124.cover.medium.jpg","application/octet-stream":"https://www.gutenberg.org/cache/epub/25124/pg25124-h.zip"},"download_count":83},{"id":27216,"title":"斬鬼傳","authors":[{"name":"Liu, Zhang","birth_year":null,"death_year":null}],"translators":[],"subjects":["Chinese fiction -- Qing dynasty, 1644-1912"],"bookshelves":[],"languages":["zh"],"copyright":false,"media_type":"Text","formats":{"text/html":"https://www.gutenberg.org/ebooks/27216.html.images","application/epub+zip":"https://www.gutenberg.org/ebooks/27216.epub3.images","application/x-mobipocket-ebook":"https://www.gutenberg.org/ebooks/27216.kf8.images","text/plain; charset=us-ascii":"https://www.gutenberg.org/ebooks/27216.txt.utf-8","text/plain; charset=utf-8":"https://www.gutenberg.org/files/27216/27216-0.txt","application/rdf+xml":"https://www.gutenberg.org/ebooks/27216.rdf","image/jpeg":"https://www.gutenberg.org/cache/epub/27216/pg27216.cover.medium.jpg","application/octet-stream":"https://www.gutenberg.org/cache/epub/27216/pg27216-h.zip"},"download_count":83},{"id":23827,"title":"胡涂世界","authors":[{"name":"Wu, Jianren","birth_year":1866,"death_year":1910}],"translators":[],"subjects":["Chinese literature -- Qing dynasty, 1644-1912"],"bookshelves":[],"languages":["zh"],"copyright":false,"media_type":"Text","formats":{"text/html":"https://www.gutenberg.org/ebooks/23827.html.images","application/epub+zip":"https://www.gutenberg.org/ebooks/23827.epub3.images","application/x-mobipocket-ebook":"https://www.gutenberg.org/ebooks/23827.kf8.images","text/plain; charset=us-ascii":"https://www.gutenberg.org/ebooks/23827.txt.utf-8","text/plain; charset=utf-8":"https://www.gutenberg.org/files/23827/23827-0.txt","application/rdf+xml":"https://www.gutenberg.org/ebooks/23827.rdf","image/jpeg":"https://www.gutenberg.org/cache/epub/23827/pg23827.cover.medium.jpg","application/octet-stream":"https://www.gutenberg.org/cache/epub/23827/pg23827-h.zip"},"download_count":82},{"id":24233,"title":"東度記","authors":[{"name":"Qingxidaoren, active 17th century","birth_year":null,"death_year":null}],"translators":[],"subjects":["Chinese fiction -- Qing dynasty, 1644-1912"],"bookshelves":[],"languages":["zh"],"copyright":false,"media_type":"Text","formats":{"text/html":"https://www.gutenberg.org/ebooks/24233.html.images","application/epub+zip":"https://www.gutenberg.org/ebooks/24233.epub3.images","application/x-mobipocket-ebook":"https://www.gutenberg.org/ebooks/24233.kf8.images","text/plain; charset=us-ascii":"https://www.gutenberg.org/ebooks/24233.txt.utf-8","text/plain; charset=utf-8":"https://www.gutenberg.org/files/24233/24233-0.txt","application/rdf+xml":"https://www.gutenberg.org/ebooks/24233.rdf","image/jpeg":"https://www.gutenberg.org/cache/epub/24233/pg24233.cover.medium.jpg","application/octet-stream":"https://www.gutenberg.org/cache/epub/24233/pg24233-h.zip"},"download_count":82},{"id":24422,"title":"定情人","authors":[{"name":"Tianhuazangzhuren","birth_year":null,"death_year":null}],"translators":[],"subjects":["Chinese fiction -- Qing dynasty, 1644-1912"],"bookshelves":[],"languages":["zh"],"copyright":false,"media_type":"Text","formats":{"application/rdf+xml":"https://www.gutenberg.org/ebooks/24422.rdf","text/html":"https://www.gutenberg.org/ebooks/24422.html.images","application/epub+zip":"https://www.gutenberg.org/ebooks/24422.epub3.images","application/x-mobipocket-ebook":"https://www.gutenberg.org/ebooks/24422.kf8.images","text/plain; charset=us-ascii":"https://www.gutenberg.org/ebooks/24422.txt.utf-8","text/plain; charset=utf-8":"https://www.gutenberg.org/files/24422/24422-0.txt","image/jpeg":"https://www.gutenberg.org/cache/epub/24422/pg24422.cover.medium.jpg","application/octet-stream":"https://www.gutenberg.org/cache/epub/24422/pg24422-h.zip"},"download_count":82},{"id":54777,"title":"天妃顯聖錄","authors":[{"name":"Huang, Qi You","birth_year":null,"death_year":null},{"name":"Lin, Yao Yu","birth_year":null,"death_year":null}],"translators":[],"subjects":[],"bookshelves":[],"languages":["zh"],"copyright":false,"media_type":"Text","formats":{"text/html":"https://www.gutenberg.org/ebooks/54777.html.images","application/epub+zip":"https://www.gutenberg.org/ebooks/54777.epub3.images","application/x-mobipocket-ebook":"https://www.gutenberg.org/ebooks/54777.kf8.images","text/plain; charset=us-ascii":"https://www.gutenberg.org/ebooks/54777.txt.utf-8","text/plain; charset=utf-8":"https://www.gutenberg.org/files/54777/54777-0.txt","application/rdf+xml":"https://www.gutenberg.org/ebooks/54777.rdf","image/jpeg":"https://www.gutenberg.org/cache/epub/54777/pg54777.cover.medium.jpg","application/octet-stream":"https://www.gutenberg.org/cache/epub/54777/pg54777-h.zip"},"download_count":82},{"id":24225,"title":"戲中戲","authors":[{"name":"Aiyuezhuren","birth_year":null,"death_year":null}],"translators":[],"subjects":[],"bookshelves":[],"languages":["zh"],"copyright":false,"media_type":"Text","formats":{"text/html":"https://www.gutenberg.org/ebooks/24225.html.images","application/epub+zip":"https://www.gutenberg.org/ebooks/24225.epub3.images","application/x-mobipocket-ebook":"https://www.gutenberg.org/ebooks/24225.kf8.images","text/plain; charset=us-ascii":"https://www.gutenberg.org/ebooks/24225.txt.utf-8","text/plain; charset=utf-8":"https://www.gutenberg.org/files/24225/24225-0.txt","application/rdf+xml":"https://www.gutenberg.org/ebooks/24225.rdf","image/jpeg":"https://www.gutenberg.org/cache/epub/24225/pg24225.cover.medium.jpg","application/octet-stream":"https://www.gutenberg.org/cache/epub/24225/pg24225-h.zip"},"download_count":81},{"id":27403,"title":"清代野记","authors":[{"name":"Zuoguanlaoren","birth_year":1849,"death_year":1917}],"translators":[],"subjects":["China -- History -- Qing dynasty, 1644-1912 -- Anecdotes"],"bookshelves":[],"languages":["zh"],"copyright":false,"media_type":"Text","formats":{"text/html":"https://www.gutenberg.org/ebooks/27403.html.images","application/epub+zip":"https://www.gutenberg.org/ebooks/27403.epub3.images","application/x-mobipocket-ebook":"https://www.gutenberg.org/ebooks/27403.kf8.images","text/plain; charset=us-ascii":"https://www.gutenberg.org/ebooks/27403.txt.utf-8","text/plain; charset=utf-8":"https://www.gutenberg.org/files/27403/27403-0.txt","application/rdf+xml":"https://www.gutenberg.org/ebooks/27403.rdf","image/jpeg":"https://www.gutenberg.org/cache/epub/27403/pg27403.cover.medium.jpg","application/octet-stream":"https://www.gutenberg.org/cache/epub/27403/pg27403-h.zip"},"download_count":81},{"id":24138,"title":"官場現形記","authors":[{"name":"Li, Boyuan","birth_year":1867,"death_year":1906}],"translators":[],"subjects":["China -- Social life and customs -- 1644-1912 -- Fiction"],"bookshelves":[],"languages":["zh"],"copyright":false,"media_type":"Text","formats":{"text/html":"https://www.gutenberg.org/ebooks/24138.html.images","application/epub+zip":"https://www.gutenberg.org/ebooks/24138.epub3.images","application/x-mobipocket-ebook":"https://www.gutenberg.org/ebooks/24138.kf8.images","text/plain; charset=us-ascii":"https://www.gutenberg.org/ebooks/24138.txt.utf-8","text/plain; charset=utf-8":"https://www.gutenberg.org/files/24138/24138-0.txt","application/rdf+xml":"https://www.gutenberg.org/ebooks/24138.rdf","image/jpeg":"https://www.gutenberg.org/cache/epub/24138/pg24138.cover.medium.jpg","application/octet-stream":"https://www.gutenberg.org/cache/epub/24138/pg24138-h.zip"},"download_count":80},{"id":54433,"title":"西海紀遊草","authors":[{"name":"Lin, Zhen","birth_year":1824,"death_year":null}],"translators":[],"subjects":["United States -- Description and travel","Voyages and travels"],"bookshelves":[],"languages":["en","zh"],"copyright":false,"media_type":"Text","formats":{"text/html":"https://www.gutenberg.org/ebooks/54433.html.images","text/html; charset=utf-8":"https://www.gutenberg.org/files/54433/54433-h/54433-h.htm","application/epub+zip":"https://www.gutenberg.org/ebooks/54433.epub3.images","application/x-mobipocket-ebook":"https://www.gutenberg.org/ebooks/54433.kf8.images","text/plain; charset=us-ascii":"https://www.gutenberg.org/ebooks/54433.txt.utf-8","text/plain; charset=utf-8":"https://www.gutenberg.org/files/54433/54433-0.txt","application/rdf+xml":"https://www.gutenberg.org/ebooks/54433.rdf","image/jpeg":"https://www.gutenberg.org/cache/epub/54433/pg54433.cover.medium.jpg","application/octet-stream":"https://www.gutenberg.org/cache/epub/54433/pg54433-h.zip"},"download_count":80}]}