{"count":444,"next":"http://129.241.150.113:8000/books/?languages=zh&page=14","previous":"http://129.241.150.113:8000/books/?languages=zh&page=12","results":[{"id":25431,"title":"歸田錄","authors":[{"name":"Ouyang, Xiu","birth_year":1007,"death_year":1072}],"translators":[],"subjects":["China -- History -- Song dynasty, 960-1279 -- Anecdotes"],"bookshelves":[],"languages":["zh"],"copyright":false,"media_type":"Text","formats":{"text/html":"https://www.gutenberg.org/ebooks/25431.html.images","application/epub+zip":"https://www.gutenberg.org/ebooks/25431.epub3.images","application/x-mobipocket-ebook":"https://www.gutenberg.org/ebooks/25431.kf8.images","text/plain; charset=us-ascii":"https://www.gutenberg.org/ebooks/25431.txt.utf-8","text/plain; charset=utf-8":"https://www.gutenberg.org/files/25431/25431-0.txt","application/rdf+xml":"https://www.gutenberg.org/ebooks/25431.rdf","image/jpeg":"https://www.gutenberg.org/cache/epub/25431/pg25431.cover.medium.jpg","application/octet-stream":"https://www.gutenberg.org/cache/epub/25431/pg25431-h.zip"},"download_count":31},{"id":25460,"title":"詩品","authors":[{"name":"Zhong, Rong, active 502-519","birth_year":null,"death_year":null}],"translators":[],"subjects":["Chinese poetry -- History and criticism"],"bookshelves":[],"languages":["zh"],"copyright":false,"media_type":"Text","formats":{"text/html":"https://www.gutenberg.org/ebooks/25460.html.images","application/epub+zip":"https://www.gutenberg.org/ebooks/25460.epub3.images","application/x-mobipocket-ebook":"https://www.gutenberg.org/ebooks/25460.kf8.images","text/plain; charset=us-ascii":"https://www.gutenberg.org/ebooks/25460.txt.utf-8","text/plain; charset=utf-8":"https://www.gutenberg.org/files/25460/25460-0.txt","application/rdf+xml":"https://www.gutenberg.org/ebooks/25460.rdf","image/jpeg":"https://www.gutenberg.org/cache/epub/25460/pg25460.cover.medium.jpg","application/octet-stream":"https://www.gutenberg.org/cache/epub/25460/pg25460-h.zip"},"download_count":31},{"id":7266,"title":"搜神後記","authors":[{"name":"Tao, Qian","birth_year":365,"death_year":427}],"translators":[],"subjects":["Ghost stories, Chinese"],"bookshelves":[],"languages":["zh"],"copyright":false,"media_type":"Text","formats":{"text/html":"https://www.gutenberg.org/ebooks/7266.html.images","application/epub+zip":"https://www.gutenberg.org/ebooks/7266.epub3.images","application/x-mobipocket-ebook":"https://www.gutenberg.org/ebooks/7266.kf8.images","text/plain; charset=us-ascii":"https://www.gutenberg.org/ebooks/7266.txt.utf-8","text/plain; charset=utf-8":"https://www.gutenberg.org/files/7266/7266-0.txt","application/rdf+xml":"https://www.gutenberg.org/ebooks/7266.rdf","image/jpeg":"https://www.gutenberg.org/cache/epub/7266/pg7266.cover.medium.jpg","application/octet-stream":"https://www.gutenberg.org/cache/epub/7266/pg7266-h.zip"},"download_count":30},{"id":7273,"title":"搜神記 volume 18-20","authors":[{"name":"Gan, Bao, active 317-322","birth_year":null,"death_year":null}],"translators":[],"subjects":["Legends -- China"],"bookshelves":[],"languages":["zh"],"copyright":false,"media_type":"Text","formats":{"text/html":"https://www.gutenberg.org/ebooks/7273.html.images","application/epub+zip":"https://www.gutenberg.org/ebooks/7273.epub3.images","application/x-mobipocket-ebook":"https://www.gutenberg.org/ebooks/7273.kf8.images","text/plain; charset=us-ascii":"https://www.gutenberg.org/ebooks/7273.txt.utf-8","text/plain; charset=utf-8":"https://www.gutenberg.org/files/7273/7273-0.txt","application/rdf+xml":"https://www.gutenberg.org/ebooks/7273.rdf","image/jpeg":"https://www.gutenberg.org/cache/epub/7273/pg7273.cover.medium.jpg","application/octet-stream":"https://www.gutenberg.org/cache/epub/7273/pg7273-h.zip"},"download_count":30},{"id":7330,"title":"說苑, Volume 13-16","authors":[{"name":"Liu, Xiang","birth_year":null,"death_year":null}],"translators":[],"subjects":["China -- History -- Anecdotes"],"bookshelves":[],"languages":["zh"],"copyright":false,"media_type":"Text","formats":{"text/html":"https://www.gutenberg.org/ebooks/7330.html.images","application/epub+zip":"https://www.gutenberg.org/ebooks/7330.epub3.images","application/x-mobipocket-ebook":"https://www.gutenberg.org/ebooks/7330.kf8.images","text/plain; charset=us-ascii":"https://www.gutenberg.org/ebooks/7330.txt.utf-8","text/plain; charset=utf-8":"https://www.gutenberg.org/files/7330/7330-0.txt","application/rdf+xml":"https://www.gutenberg.org/ebooks/7330.rdf","image/jpeg":"https://www.gutenberg.org/cache/epub/7330/pg7330.cover.medium.jpg","application/octet-stream":"https://www.gutenberg.org/cache/epub/7330/pg7330-h.zip"},"download_count":30},{"id":7375,"title":"大學 章句","authors":[{"name":"Zhu, Xi","birth_year":1130,"death_year":1200}],"translators":[],"subjects":["Da xue"],"bookshelves":[],"languages":["zh"],"copyright":false,"media_type":"Text","formats":{"text/html":"https://www.gutenberg.org/ebooks/7375.html.images","application/epub+zip":"https://www.gutenberg.org/ebooks/7375.epub3.images","application/x-mobipocket-ebook":"https://www.gutenberg.org/ebooks/7375.kf8.images","text/plain; charset=us-ascii":"https://www.gutenberg.org/ebooks/7375.txt.utf-8","text/plain; charset=utf-8":"https://www.gutenberg.org/files/7375/7375-0.txt","application/rdf+xml":"https://www.gutenberg.org/ebooks/7375.rdf","image/jpeg":"https://www.gutenberg.org/cache/epub/7375/pg7375.cover.medium.jpg","application/octet-stream":"https://www.gutenberg.org/cache/epub/7375/pg7375-h.zip"},"download_count":30},{"id":23865,"title":"恨海","authors":[{"name":"Wu, Jianren","birth_year":1866,"death_year":1910}],"translators":[],"subjects":["Arranged marriage -- Fiction","China -- History -- Boxer Rebellion, 1899-1901 -- Fiction","Chinese fiction -- Qing dynasty, 1644-1912"],"bookshelves":[],"languages":["zh"],"copyright":false,"media_type":"Text","formats":{"text/html":"https://www.gutenberg.org/ebooks/23865.html.images","application/epub+zip":"https://www.gutenberg.org/ebooks/23865.epub3.images","application/x-mobipocket-ebook":"https://www.gutenberg.org/ebooks/23865.kf8.images","text/plain; charset=us-ascii":"https://www.gutenberg.org/ebooks/23865.txt.utf-8","text/plain; charset=utf-8":"https://www.gutenberg.org/files/23865/23865-0.txt","application/rdf+xml":"https://www.gutenberg.org/ebooks/23865.rdf","image/jpeg":"https://www.gutenberg.org/cache/epub/23865/pg23865.cover.medium.jpg","application/octet-stream":"https://www.gutenberg.org/cache/epub/23865/pg23865-h.zip"},"download_count":30},{"id":27017,"title":"尹文子","authors":[{"name":"Yin, Wen","birth_year":-350,"death_year":-284}],"translators":[],"subjects":["Chinese classics","Philosophy, Chinese"],"bookshelves":[],"languages":["zh"],"copyright":false,"media_type":"Text","formats":{"text/html":"https://www.gutenberg.org/ebooks/27017.html.images","application/epub+zip":"https://www.gutenberg.org/ebooks/27017.epub3.images","application/x-mobipocket-ebook":"https://www.gutenberg.org/ebooks/27017.kf8.images","text/plain; charset=us-ascii":"https://www.gutenberg.org/ebooks/27017.txt.utf-8","text/plain; charset=utf-8":"https://www.gutenberg.org/files/27017/27017-0.txt","application/rdf+xml":"https://www.gutenberg.org/ebooks/27017.rdf","image/jpeg":"https://www.gutenberg.org/cache/epub/27017/pg27017.cover.medium.jpg","application/octet-stream":"https://www.gutenberg.org/cache/epub/27017/pg27017-h.zip"},"download_count":30},{"id":7270,"title":"搜神記 volume 4-10","authors":[{"name":"Gan, Bao, active 317-322","birth_year":null,"death_year":null}],"translators":[],"subjects":["Legends -- China"],"bookshelves":[],"languages":["zh"],"copyright":false,"media_type":"Text","formats":{"text/html":"https://www.gutenberg.org/ebooks/7270.html.images","application/epub+zip":"https://www.gutenberg.org/ebooks/7270.epub3.images","application/x-mobipocket-ebook":"https://www.gutenberg.org/ebooks/7270.kf8.images","text/plain; charset=us-ascii":"https://www.gutenberg.org/ebooks/7270.txt.utf-8","text/plain; charset=utf-8":"https://www.gutenberg.org/files/7270/7270-0.txt","application/rdf+xml":"https://www.gutenberg.org/ebooks/7270.rdf","image/jpeg":"https://www.gutenberg.org/cache/epub/7270/pg7270.cover.medium.jpg","application/octet-stream":"https://www.gutenberg.org/cache/epub/7270/pg7270-h.zip"},"download_count":29},{"id":7289,"title":"韓詩外傳, Vol. 9-10","authors":[{"name":"Han, Ying, active 150 B.C.","birth_year":null,"death_year":null}],"translators":[],"subjects":["Shi jing"],"bookshelves":[],"languages":["zh"],"copyright":false,"media_type":"Text","formats":{"text/html":"https://www.gutenberg.org/ebooks/7289.html.images","application/epub+zip":"https://www.gutenberg.org/ebooks/7289.epub3.images","application/x-mobipocket-ebook":"https://www.gutenberg.org/ebooks/7289.kf8.images","text/plain; charset=us-ascii":"https://www.gutenberg.org/ebooks/7289.txt.utf-8","text/plain; charset=utf-8":"https://www.gutenberg.org/files/7289/7289-0.txt","application/rdf+xml":"https://www.gutenberg.org/ebooks/7289.rdf","image/jpeg":"https://www.gutenberg.org/cache/epub/7289/pg7289.cover.medium.jpg","application/octet-stream":"https://www.gutenberg.org/cache/epub/7289/pg7289-h.zip"},"download_count":29},{"id":7313,"title":"夢溪筆談, Volume 07-10","authors":[{"name":"Shen, Kuo","birth_year":1031,"death_year":1095}],"translators":[],"subjects":["China -- History -- Song dynasty, 960-1279 -- Anecdotes"],"bookshelves":[],"languages":["zh"],"copyright":false,"media_type":"Text","formats":{"text/html":"https://www.gutenberg.org/ebooks/7313.html.images","application/epub+zip":"https://www.gutenberg.org/ebooks/7313.epub3.images","application/x-mobipocket-ebook":"https://www.gutenberg.org/ebooks/7313.kf8.images","text/plain; charset=us-ascii":"https://www.gutenberg.org/ebooks/7313.txt.utf-8","text/plain; charset=utf-8":"https://www.gutenberg.org/files/7313/7313-0.txt","application/rdf+xml":"https://www.gutenberg.org/ebooks/7313.rdf","image/jpeg":"https://www.gutenberg.org/cache/epub/7313/pg7313.cover.medium.jpg","application/octet-stream":"https://www.gutenberg.org/cache/epub/7313/pg7313-h.zip"},"download_count":29},{"id":7328,"title":"說苑, Volume 5-8","authors":[{"name":"Liu, Xiang","birth_year":null,"death_year":null}],"translators":[],"subjects":["China -- History -- Anecdotes"],"bookshelves":[],"languages":["zh"],"copyright":false,"media_type":"Text","formats":{"text/html":"https://www.gutenberg.org/ebooks/7328.html.images","application/epub+zip":"https://www.gutenberg.org/ebooks/7328.epub3.images","application/x-mobipocket-ebook":"https://www.gutenberg.org/ebooks/7328.kf8.images","text/plain; charset=us-ascii":"https://www.gutenberg.org/ebooks/7328.txt.utf-8","text/plain; charset=utf-8":"https://www.gutenberg.org/files/7328/7328-0.txt","application/rdf+xml":"https://www.gutenberg.org/ebooks/7328.rdf","image/jpeg":"https://www.gutenberg.org/cache/epub/7328/pg7328.cover.medium.jpg","application/octet-stream":"https://www.gutenberg.org/cache/epub/7328/pg7328-h.zip"},"download_count":29},{"id":7383,"title":"商子","authors":[{"name":"Shang, Yang","birth_year":null,"death_year":-338}],"translators":[],"subjects":["China -- Politics and government -- To 221 B.C.","Political science -- Early works to 1800","Shang, Yang, -338 B.C."],"bookshelves":[],"languages":["zh"],"copyright":false,"media_type":"Text","formats":{"text/html":"https://www.gutenberg.org/ebooks/7383.html.images","application/epub+zip":"https://www.gutenberg.org/ebooks/7383.epub3.images","application/x-mobipocket-ebook":"https://www.gutenberg.org/ebooks/7383.kf8.images","text/plain; charset=us-ascii":"https://www.gutenberg.org/ebooks/7383.txt.utf-8","text/plain; charset=utf-8":"https://www.gutenberg.org/files/7383/7383-0.txt","application/rdf+xml":"https://www.gutenberg.org/ebooks/7383.rdf","image/jpeg":"https://www.gutenberg.org/cache/epub/7383/pg7383.cover.medium.jpg","application/octet-stream":"https://www.gutenberg.org/cache/epub/7383/pg7383-h.zip"},"download_count":29},{"id":7406,"title":"茶經","authors":[{"name":"Lu, Yu","birth_year":733,"death_year":804}],"translators":[],"subjects":["Tea -- China -- Early works to 1800","Tea -- China -- History"],"bookshelves":[],"languages":["zh"],"copyright":false,"media_type":"Text","formats":{"text/html":"https://www.gutenberg.org/ebooks/7406.html.images","application/epub+zip":"https://www.gutenberg.org/ebooks/7406.epub3.images","application/x-mobipocket-ebook":"https://www.gutenberg.org/ebooks/7406.kf8.images","text/plain; charset=us-ascii":"https://www.gutenberg.org/ebooks/7406.txt.utf-8","text/plain; charset=utf-8":"https://www.gutenberg.org/files/7406/7406-0.txt","application/rdf+xml":"https://www.gutenberg.org/ebooks/7406.rdf","image/jpeg":"https://www.gutenberg.org/cache/epub/7406/pg7406.cover.medium.jpg","application/octet-stream":"https://www.gutenberg.org/cache/epub/7406/pg7406-h.zip"},"download_count":29},{"id":7408,"title":"申鑒","authors":[{"name":"Xun, Yue","birth_year":148,"death_year":209}],"translators":[],"subjects":["Confucius","Ethics -- China","Philosophy, Chinese","Taoism"],"bookshelves":[],"languages":["zh"],"copyright":false,"media_type":"Text","formats":{"text/html":"https://www.gutenberg.org/ebooks/7408.html.images","application/epub+zip":"https://www.gutenberg.org/ebooks/7408.epub3.images","application/x-mobipocket-ebook":"https://www.gutenberg.org/ebooks/7408.kf8.images","text/plain; charset=us-ascii":"https://www.gutenberg.org/ebooks/7408.txt.utf-8","text/plain; charset=utf-8":"https://www.gutenberg.org/files/7408/7408-0.txt","application/rdf+xml":"https://www.gutenberg.org/ebooks/7408.rdf","image/jpeg":"https://www.gutenberg.org/cache/epub/7408/pg7408.cover.medium.jpg","application/octet-stream":"https://www.gutenberg.org/cache/epub/7408/pg7408-h.zip"},"download_count":29},{"id":23982,"title":"星槎勝覽","authors":[{"name":"Fei, Xin","birth_year":1388,"death_year":null}],"translators":[],"subjects":["Southeast Asia -- Description and travel -- Early works to 1800"],"bookshelves":[],"languages":["zh"],"copyright":false,"media_type":"Text","formats":{"text/html":"https://www.gutenberg.org/ebooks/23982.html.images","application/epub+zip":"https://www.gutenberg.org/ebooks/23982.epub3.images","application/x-mobipocket-ebook":"https://www.gutenberg.org/ebooks/23982.kf8.images","text/plain; charset=us-ascii":"https://www.gutenberg.org/ebooks/23982.txt.utf-8","text/plain; charset=utf-8":"https://www.gutenberg.org/files/23982/23982-0.txt","application/rdf+xml":"https://www.gutenberg.org/ebooks/23982.rdf","image/jpeg":"https://www.gutenberg.org/cache/epub/23982/pg23982.cover.medium.jpg","application/octet-stream":"https://www.gutenberg.org/cache/epub/23982/pg23982-h.zip"},"download_count":29},{"id":24184,"title":"千字文","authors":[{"name":"Zhou, Xingsi","birth_year":null,"death_year":521}],"translators":[],"subjects":["Chinese language -- Readers"],"bookshelves":[],"languages":["zh"],"copyright":false,"media_type":"Text","formats":{"text/html":"https://www.gutenberg.org/ebooks/24184.html.images","application/epub+zip":"https://www.gutenberg.org/ebooks/24184.epub3.images","application/x-mobipocket-ebook":"https://www.gutenberg.org/ebooks/24184.kf8.images","text/plain; charset=us-ascii":"https://www.gutenberg.org/ebooks/24184.txt.utf-8","text/plain; charset=utf-8":"https://www.gutenberg.org/files/24184/24184-0.txt","application/rdf+xml":"https://www.gutenberg.org/ebooks/24184.rdf","image/jpeg":"https://www.gutenberg.org/cache/epub/24184/pg24184.cover.medium.jpg","application/octet-stream":"https://www.gutenberg.org/cache/epub/24184/pg24184-h.zip"},"download_count":29},{"id":24232,"title":"孝經","authors":[{"name":"Unknown","birth_year":null,"death_year":null}],"translators":[],"subjects":["Ethics -- China"],"bookshelves":[],"languages":["zh"],"copyright":false,"media_type":"Text","formats":{"text/html":"https://www.gutenberg.org/ebooks/24232.html.images","application/epub+zip":"https://www.gutenberg.org/ebooks/24232.epub3.images","application/x-mobipocket-ebook":"https://www.gutenberg.org/ebooks/24232.kf8.images","text/plain; charset=us-ascii":"https://www.gutenberg.org/ebooks/24232.txt.utf-8","text/plain; charset=utf-8":"https://www.gutenberg.org/files/24232/24232-0.txt","application/rdf+xml":"https://www.gutenberg.org/ebooks/24232.rdf","image/jpeg":"https://www.gutenberg.org/cache/epub/24232/pg24232.cover.medium.jpg","application/octet-stream":"https://www.gutenberg.org/cache/epub/24232/pg24232-h.zip"},"download_count":29},{"id":25289,"title":"滄浪詩話","authors":[{"name":"Yan, Yu, active 12th century","birth_year":null,"death_year":null}],"translators":[],"subjects":["Chinese poetry -- History and criticism"],"bookshelves":[],"languages":["zh"],"copyright":false,"media_type":"Text","formats":{"text/html":"https://www.gutenberg.org/ebooks/25289.html.images","application/epub+zip":"https://www.gutenberg.org/ebooks/25289.epub3.images","application/x-mobipocket-ebook":"https://www.gutenberg.org/ebooks/25289.kf8.images","text/plain; charset=us-ascii":"https://www.gutenberg.org/ebooks/25289.txt.utf-8","text/plain; charset=utf-8":"https://www.gutenberg.org/files/25289/25289-0.txt","application/rdf+xml":"https://www.gutenberg.org/ebooks/25289.rdf","image/jpeg":"https://www.gutenberg.org/cache/epub/25289/pg25289.cover.medium.jpg","application/octet-stream":"https://www.gutenberg.org/cache/epub/25289/pg25289-h.zip"},"download_count":29},{"id":4576,"title":"粉妝樓41-50回","authors":[{"name":"Luo, Guanzhong","birth_year":null,"death_year":null}],"translators":[],"subjects":["China -- History -- Tang dynasty, 618-907 -- Fiction"],"bookshelves":[],"languages":["zh"],"copyright":false,"media_type":"Text","formats":{"text/html":"https://www.gutenberg.org/ebooks/4576.html.images","text/html; charset=utf-8":"https://www.gutenberg.org/files/4576/4576-h/4576-h.htm","application/epub+zip":"https://www.gutenberg.org/ebooks/4576.epub3.images","application/x-mobipocket-ebook":"https://www.gutenberg.org/ebooks/4576.kf8.images","text/plain; charset=us-ascii":"https://www.gutenberg.org/ebooks/4576.txt.utf-8","text/plain; charset=utf-8":"https://www.gutenberg.org/files/4576/4576-0.txt","application/rdf+xml":"https://www.gutenberg.org/ebooks/4576.rdf","image/jpeg":"https://www.gutenberg.org/cache/epub/4576/pg4576.cover.medium.jpg","application/octet-stream":"https://www.gutenberg.org/cache/epub/4576/pg4576-h.zip"},"download_count":28},{"id":24040,"title":"菜根譚前後集","authors":[{"name":"Hong, Zicheng, active 1596","birth_year":null,"death_year":null}],"translators":[],"subjects":["Conduct of life","Ethics -- China"],"bookshelves":[],"languages":["zh"],"copyright":false,"media_type":"Text","formats":{"text/html":"https://www.gutenberg.org/ebooks/24040.html.images","application/epub+zip":"https://www.gutenberg.org/ebooks/24040.epub3.images","application/x-mobipocket-ebook":"https://www.gutenberg.org/ebooks/24040.kf8.images","text/plain; charset=us-ascii":"https://www.gutenberg.org/ebooks/24040.txt.utf-8","text/plain; charset=utf-8":"https://www.gutenberg.org/files/24040/24040-0.txt","application/rdf+xml":"https://www.gutenberg.org/ebooks/24040.rdf","image/jpeg":"https://www.gutenberg.org/cache/epub/24040/pg24040.cover.medium.jpg","application/octet-stream":"https://www.gutenberg.org/cache/epub/24040/pg24040-h.zip"},"download_count":28},{"id":24114,"title":"東坡志林","authors":[{"name":"Su, Shi","birth_year":1037,"death_year":1101}],"translators":[],"subjects":["China -- History -- Song dynasty, 960-1279 -- Anecdotes"],"bookshelves":[],"languages":["zh"],"copyright":false,"media_type":"Text","formats":{"text/html":"https://www.gutenberg.org/ebooks/24114.html.images","application/epub+zip":"https://www.gutenberg.org/ebooks/24114.epub3.images","application/x-mobipocket-ebook":"https://www.gutenberg.org/ebooks/24114.kf8.images","text/plain; charset=us-ascii":"https://www.gutenberg.org/ebooks/24114.txt.utf-8","text/plain; charset=utf-8":"https://www.gutenberg.org/files/24114/24114-0.txt","application/rdf+xml":"https://www.gutenberg.org/ebooks/24114.rdf","image/jpeg":"https://www.gutenberg.org/cache/epub/24114/pg24114.cover.medium.jpg","application/octet-stream":"https://www.gutenberg.org/cache/epub/24114/pg24114-h.zip"},"download_count":28},{"id":25169,"title":"關尹子","authors":[{"name":"Yin, Xi, active 6th century B.C.","birth_year":null,"death_year":null}],"translators":[],"subjects":["Chinese classics","Logic, Ancient","Taoism"],"bookshelves":[],"languages":["zh"],"copyright":false,"media_type":"Text","formats":{"text/html":"https://www.gutenberg.org/ebooks/25169.html.images","application/epub+zip":"https://www.gutenberg.org/ebooks/25169.epub3.images","application/x-mobipocket-ebook":"https://www.gutenberg.org/ebooks/25169.kf8.images","text/plain; charset=us-ascii":"https://www.gutenberg.org/ebooks/25169.txt.utf-8","text/plain; charset=utf-8":"https://www.gutenberg.org/files/25169/25169-0.txt","application/rdf+xml":"https://www.gutenberg.org/ebooks/25169.rdf","image/jpeg":"https://www.gutenberg.org/cache/epub/25169/pg25169.cover.medium.jpg","application/octet-stream":"https://www.gutenberg.org/cache/epub/25169/pg25169-h.zip"},"download_count":28},{"id":27087,"title":"Wu De Ji","authors":[{"name":"Liu, Guang Wei","birth_year":null,"death_year":null}],"translators":[],"subjects":[],"bookshelves":[],"languages":["zh"],"copyright":false,"media_type":"Text","formats":{"text/html":"https://www.gutenberg.org/ebooks/27087.html.images","application/epub+zip":"https://www.gutenberg.org/ebooks/27087.epub3.images","application/x-mobipocket-ebook":"https://www.gutenberg.org/ebooks/27087.kf8.images","text/plain; charset=us-ascii":"https://www.gutenberg.org/ebooks/27087.txt.utf-8","text/plain; charset=utf-8":"https://www.gutenberg.org/files/27087/27087-0.txt","application/rdf+xml":"https://www.gutenberg.org/ebooks/27087.rdf","image/jpeg":"https://www.gutenberg.org/cache/epub/27087/pg27087.cover.medium.jpg","application/octet-stream":"https://www.gutenberg.org/cache/epub/27087/pg27087-h.zip"},"download_count":28},{"id":7217,"title":"人物志","authors":[{"name":"Liu, Shao, active 3rd century","birth_year":null,"death_year":null}],"translators":[],"subjects":["Ability","Anthropology -- Early to 1870","Characters and characteristics","Leadership","Psychology -- Early works to 1850"],"bookshelves":[],"languages":["zh"],"copyright":false,"media_type":"Text","formats":{"text/html":"https://www.gutenberg.org/ebooks/7217.html.images","application/epub+zip":"https://www.gutenberg.org/ebooks/7217.epub3.images","application/x-mobipocket-ebook":"https://www.gutenberg.org/ebooks/7217.kf8.images","text/plain; charset=us-ascii":"https://www.gutenberg.org/ebooks/7217.txt.utf-8","text/plain; charset=utf-8":"https://www.gutenberg.org/files/7217/7217-0.txt","application/rdf+xml":"https://www.gutenberg.org/ebooks/7217.rdf","image/jpeg":"https://www.gutenberg.org/cache/epub/7217/pg7217.cover.medium.jpg","application/octet-stream":"https://www.gutenberg.org/cache/epub/7217/pg7217-h.zip"},"download_count":27},{"id":25414,"title":"列仙傳","authors":[{"name":"Liu, Xiang","birth_year":null,"death_year":null}],"translators":[{"name":"Zhang, Jinling","birth_year":null,"death_year":null}],"subjects":["Fairies -- China"],"bookshelves":[],"languages":["zh"],"copyright":false,"media_type":"Text","formats":{"text/html":"https://www.gutenberg.org/ebooks/25414.html.images","application/epub+zip":"https://www.gutenberg.org/ebooks/25414.epub3.images","application/x-mobipocket-ebook":"https://www.gutenberg.org/ebooks/25414.kf8.images","text/plain; charset=us-ascii":"https://www.gutenberg.org/ebooks/25414.txt.utf-8","text/plain; charset=utf-8":"https://www.gutenberg.org/files/25414/25414-0.txt","application/rdf+xml":"https://www.gutenberg.org/ebooks/25414.rdf","image/jpeg":"https://www.gutenberg.org/cache/epub/25414/pg25414.cover.medium.jpg","application/octet-stream":"https://www.gutenberg.org/cache/epub/25414/pg25414-h.zip"},"download_count":27},{"id":4572,"title":"粉妝樓1-10回","authors":[{"name":"Luo, Guanzhong","birth_year":null,"death_year":null}],"translators":[],"subjects":["China -- History -- Tang dynasty, 618-907 -- Fiction"],"bookshelves":[],"languages":["zh"],"copyright":false,"media_type":"Text","formats":{"text/html":"https://www.gutenberg.org/ebooks/4572.html.images","text/html; charset=utf-8":"https://www.gutenberg.org/files/4572/4572-h/4572-h.htm","application/epub+zip":"https://www.gutenberg.org/ebooks/4572.epub3.images","application/x-mobipocket-ebook":"https://www.gutenberg.org/ebooks/4572.kf8.images","text/plain; charset=us-ascii":"https://www.gutenberg.org/ebooks/4572.txt.utf-8","text/plain; charset=utf-8":"https://www.gutenberg.org/files/4572/4572-0.txt","application/rdf+xml":"https://www.gutenberg.org/ebooks/4572.rdf","image/jpeg":"https://www.gutenberg.org/cache/epub/4572/pg4572.cover.medium.jpg","application/octet-stream":"https://www.gutenberg.org/cache/epub/4572/pg4572-h.zip"},"download_count":26},{"id":7285,"title":"韓詩外傳, Vol. 1-2","authors":[{"name":"Han, Ying, active 150 B.C.","birth_year":null,"death_year":null}],"translators":[],"subjects":["Shi jing"],"bookshelves":[],"languages":["zh"],"copyright":false,"media_type":"Text","formats":{"text/html":"https://www.gutenberg.org/ebooks/7285.html.images","application/epub+zip":"https://www.gutenberg.org/ebooks/7285.epub3.images","application/x-mobipocket-ebook":"https://www.gutenberg.org/ebooks/7285.kf8.images","text/plain; charset=us-ascii":"https://www.gutenberg.org/ebooks/7285.txt.utf-8","text/plain; charset=utf-8":"https://www.gutenberg.org/files/7285/7285-0.txt","application/rdf+xml":"https://www.gutenberg.org/ebooks/7285.rdf","image/jpeg":"https://www.gutenberg.org/cache/epub/7285/pg7285.cover.medium.jpg","application/octet-stream":"https://www.gutenberg.org/cache/epub/7285/pg7285-h.zip"},"download_count":26},{"id":7327,"title":"說苑, Volume 1-4","authors":[{"name":"Liu, Xiang","birth_year":null,"death_year":null}],"translators":[],"subjects":["China -- History -- Anecdotes"],"bookshelves":[],"languages":["zh"],"copyright":false,"media_type":"Text","formats":{"text/html":"https://www.gutenberg.org/ebooks/7327.html.images","application/epub+zip":"https://www.gutenberg.org/ebooks/7327.epub3.images","application/x-mobipocket-ebook":"https://www.gutenberg.org/ebooks/7327.kf8.images","text/plain; charset=us-ascii":"https://www.gutenberg.org/ebooks/7327.txt.utf-8","text/plain; charset=utf-8":"https://www.gutenberg.org/files/7327/7327-0.txt","application/rdf+xml":"https://www.gutenberg.org/ebooks/7327.rdf","image/jpeg":"https://www.gutenberg.org/cache/epub/7327/pg7327.cover.medium.jpg","application/octet-stream":"https://www.gutenberg.org/cache/epub/7327/pg7327-h.zip"},"download_count":26},{"id":7456,"title":"顔氏家訓 — Volume 05 and 06","authors":[{"name":"Yan, Zhitui","birth_year":531,"death_year":591}],"translators":[],"subjects":["Chinese classics -- Bibliography","Conduct of life","Ethics -- China","Philosophers -- China"],"bookshelves":[],"languages":["zh"],"copyright":false,"media_type":"Text","formats":{"text/html":"https://www.gutenberg.org/ebooks/7456.html.images","application/epub+zip":"https://www.gutenberg.org/ebooks/7456.epub3.images","application/x-mobipocket-ebook":"https://www.gutenberg.org/ebooks/7456.kf8.images","text/plain; charset=us-ascii":"https://www.gutenberg.org/ebooks/7456.txt.utf-8","text/plain; charset=utf-8":"https://www.gutenberg.org/files/7456/7456-0.txt","application/rdf+xml":"https://www.gutenberg.org/ebooks/7456.rdf","image/jpeg":"https://www.gutenberg.org/cache/epub/7456/pg7456.cover.medium.jpg","application/octet-stream":"https://www.gutenberg.org/cache/epub/7456/pg7456-h.zip"},"download_count":26},{"id":24004,"title":"竇娥寃","authors":[{"name":"Guan, Hanqing","birth_year":null,"death_year":null}],"translators":[],"subjects":["Chinese drama (Tragedy)"],"bookshelves":[],"languages":["zh"],"copyright":false,"media_type":"Text","formats":{"text/html":"https://www.gutenberg.org/ebooks/24004.html.images","application/epub+zip":"https://www.gutenberg.org/ebooks/24004.epub3.images","application/x-mobipocket-ebook":"https://www.gutenberg.org/ebooks/24004.kf8.images","text/plain; charset=us-ascii":"https://www.gutenberg.org/ebooks/24004.txt.utf-8","text/plain; charset=utf-8":"https://www.gutenberg.org/files/24004/24004-0.txt","application/rdf+xml":"https://www.gutenberg.org/ebooks/24004.rdf","image/jpeg":"https://www.gutenberg.org/cache/epub/24004/pg24004.cover.medium.jpg","application/octet-stream":"https://www.gutenberg.org/cache/epub/24004/pg24004-h.zip"},"download_count":26},{"id":24223,"title":"小爾雅","authors":[{"name":"Kong, Fu","birth_year":null,"death_year":-208}],"translators":[],"subjects":["Chinese language -- Semantics"],"bookshelves":[],"languages":["zh"],"copyright":false,"media_type":"Text","formats":{"text/html":"https://www.gutenberg.org/ebooks/24223.html.images","application/epub+zip":"https://www.gutenberg.org/ebooks/24223.epub3.images","application/x-mobipocket-ebook":"https://www.gutenberg.org/ebooks/24223.kf8.images","text/plain; charset=us-ascii":"https://www.gutenberg.org/ebooks/24223.txt.utf-8","text/plain; charset=utf-8":"https://www.gutenberg.org/files/24223/24223-0.txt","application/rdf+xml":"https://www.gutenberg.org/ebooks/24223.rdf","image/jpeg":"https://www.gutenberg.org/cache/epub/24223/pg24223.cover.medium.jpg","application/octet-stream":"https://www.gutenberg.org/cache/epub/24223/pg24223-h.zip"},"download_count":26}]}