{"count":444,"next":"http://129.241.150.113:8000/books/?languages=zh&page=13","previous":"http://129.241.150.113:8000/books/?languages=zh&page=11","results":[{"id":24068,"title":"燕丹子","authors":[{"name":"Anonymous","birth_year":null,"death_year":null}],"translators":[],"subjects":["China -- History -- Han dynasty, 202 B.C.-220 A.D. -- Anecdotes"],"bookshelves":[],"languages":["zh"],"copyright":false,"media_type":"Text","formats":{"text/html":"https://www.gutenberg.org/ebooks/24068.html.images","application/epub+zip":"https://www.gutenberg.org/ebooks/24068.epub3.images","application/x-mobipocket-ebook":"https://www.gutenberg.org/ebooks/24068.kf8.images","text/plain; charset=us-ascii":"https://www.gutenberg.org/ebooks/24068.txt.utf-8","text/plain; charset=utf-8":"https://www.gutenberg.org/files/24068/24068-0.txt","application/rdf+xml":"https://www.gutenberg.org/ebooks/24068.rdf","image/jpeg":"https://www.gutenberg.org/cache/epub/24068/pg24068.cover.medium.jpg","application/octet-stream":"https://www.gutenberg.org/cache/epub/24068/pg24068-h.zip"},"download_count":35},{"id":24193,"title":"燕子箋","authors":[{"name":"Ruan, Dacheng","birth_year":1587,"death_year":1646}],"translators":[],"subjects":["Chinese drama"],"bookshelves":[],"languages":["zh"],"copyright":false,"media_type":"Text","formats":{"text/html":"https://www.gutenberg.org/ebooks/24193.html.images","application/epub+zip":"https://www.gutenberg.org/ebooks/24193.epub3.images","application/x-mobipocket-ebook":"https://www.gutenberg.org/ebooks/24193.kf8.images","text/plain; charset=us-ascii":"https://www.gutenberg.org/ebooks/24193.txt.utf-8","text/plain; charset=utf-8":"https://www.gutenberg.org/files/24193/24193-0.txt","application/rdf+xml":"https://www.gutenberg.org/ebooks/24193.rdf","image/jpeg":"https://www.gutenberg.org/cache/epub/24193/pg24193.cover.medium.jpg","application/octet-stream":"https://www.gutenberg.org/cache/epub/24193/pg24193-h.zip"},"download_count":35},{"id":25123,"title":"脾胃論","authors":[{"name":"Li, Gao","birth_year":1180,"death_year":1251}],"translators":[],"subjects":["Gastroenterology -- Early works to 1800","Medicine, Chinese -- Early works to 1800","Spleen -- Diseases -- Early works to 1800","Stomach -- Diseases -- Early works to 1800"],"bookshelves":[],"languages":["zh"],"copyright":false,"media_type":"Text","formats":{"text/html":"https://www.gutenberg.org/ebooks/25123.html.images","application/epub+zip":"https://www.gutenberg.org/ebooks/25123.epub3.images","application/x-mobipocket-ebook":"https://www.gutenberg.org/ebooks/25123.kf8.images","text/plain; charset=us-ascii":"https://www.gutenberg.org/ebooks/25123.txt.utf-8","text/plain; charset=utf-8":"https://www.gutenberg.org/files/25123/25123-0.txt","application/rdf+xml":"https://www.gutenberg.org/ebooks/25123.rdf","image/jpeg":"https://www.gutenberg.org/cache/epub/25123/pg25123.cover.medium.jpg","application/octet-stream":"https://www.gutenberg.org/cache/epub/25123/pg25123-h.zip"},"download_count":35},{"id":25243,"title":"海遊記","authors":[{"name":"Wugenzi, active 1573","birth_year":null,"death_year":null}],"translators":[],"subjects":["China -- Social life and customs","Folk drama, Chinese","Folklore -- China"],"bookshelves":[],"languages":["zh"],"copyright":false,"media_type":"Text","formats":{"text/html":"https://www.gutenberg.org/ebooks/25243.html.images","application/epub+zip":"https://www.gutenberg.org/ebooks/25243.epub3.images","application/x-mobipocket-ebook":"https://www.gutenberg.org/ebooks/25243.kf8.images","text/plain; charset=us-ascii":"https://www.gutenberg.org/ebooks/25243.txt.utf-8","text/plain; charset=utf-8":"https://www.gutenberg.org/files/25243/25243-0.txt","application/rdf+xml":"https://www.gutenberg.org/ebooks/25243.rdf","image/jpeg":"https://www.gutenberg.org/cache/epub/25243/pg25243.cover.medium.jpg","application/octet-stream":"https://www.gutenberg.org/cache/epub/25243/pg25243-h.zip"},"download_count":35},{"id":25263,"title":"周禮","authors":[{"name":"Zhou, Gong","birth_year":null,"death_year":-1105}],"translators":[],"subjects":[],"bookshelves":[],"languages":["zh"],"copyright":false,"media_type":"Text","formats":{"text/html":"https://www.gutenberg.org/ebooks/25263.html.images","application/epub+zip":"https://www.gutenberg.org/ebooks/25263.epub3.images","application/x-mobipocket-ebook":"https://www.gutenberg.org/ebooks/25263.kf8.images","text/plain; charset=us-ascii":"https://www.gutenberg.org/ebooks/25263.txt.utf-8","text/plain; charset=utf-8":"https://www.gutenberg.org/files/25263/25263-0.txt","application/rdf+xml":"https://www.gutenberg.org/ebooks/25263.rdf","image/jpeg":"https://www.gutenberg.org/cache/epub/25263/pg25263.cover.medium.jpg","application/octet-stream":"https://www.gutenberg.org/cache/epub/25263/pg25263-h.zip"},"download_count":35},{"id":25297,"title":"狂人日記","authors":[{"name":"Lu, Xun","birth_year":1881,"death_year":1936}],"translators":[],"subjects":["Chinese fiction -- 20th century","Diaries -- Fiction"],"bookshelves":[],"languages":["zh"],"copyright":false,"media_type":"Text","formats":{"text/html":"https://www.gutenberg.org/ebooks/25297.html.images","application/epub+zip":"https://www.gutenberg.org/ebooks/25297.epub3.images","application/x-mobipocket-ebook":"https://www.gutenberg.org/ebooks/25297.kf8.images","text/plain; charset=us-ascii":"https://www.gutenberg.org/ebooks/25297.txt.utf-8","text/plain; charset=utf-8":"https://www.gutenberg.org/files/25297/25297-0.txt","application/rdf+xml":"https://www.gutenberg.org/ebooks/25297.rdf","image/jpeg":"https://www.gutenberg.org/cache/epub/25297/pg25297.cover.medium.jpg","application/octet-stream":"https://www.gutenberg.org/cache/epub/25297/pg25297-h.zip"},"download_count":35},{"id":27291,"title":"文中子中說","authors":[{"name":"Wang, Tong","birth_year":null,"death_year":null}],"translators":[],"subjects":["Conduct of life","Philosophy, Chinese"],"bookshelves":[],"languages":["zh"],"copyright":false,"media_type":"Text","formats":{"text/html":"https://www.gutenberg.org/ebooks/27291.html.images","application/epub+zip":"https://www.gutenberg.org/ebooks/27291.epub3.images","application/x-mobipocket-ebook":"https://www.gutenberg.org/ebooks/27291.kf8.images","text/plain; charset=us-ascii":"https://www.gutenberg.org/ebooks/27291.txt.utf-8","text/plain; charset=utf-8":"https://www.gutenberg.org/files/27291/27291-0.txt","application/rdf+xml":"https://www.gutenberg.org/ebooks/27291.rdf","image/jpeg":"https://www.gutenberg.org/cache/epub/27291/pg27291.cover.medium.jpg","application/octet-stream":"https://www.gutenberg.org/cache/epub/27291/pg27291-h.zip"},"download_count":35},{"id":30465,"title":"御製廣寒殿記","authors":[],"translators":[],"subjects":["Chinese literature -- Ming dynasty, 1368-1644"],"bookshelves":[],"languages":["zh"],"copyright":false,"media_type":"Text","formats":{"text/html":"https://www.gutenberg.org/ebooks/30465.html.images","application/epub+zip":"https://www.gutenberg.org/ebooks/30465.epub3.images","application/x-mobipocket-ebook":"https://www.gutenberg.org/ebooks/30465.kf8.images","text/plain; charset=us-ascii":"https://www.gutenberg.org/ebooks/30465.txt.utf-8","text/plain; charset=utf-8":"https://www.gutenberg.org/files/30465/30465-0.txt","application/rdf+xml":"https://www.gutenberg.org/ebooks/30465.rdf","image/jpeg":"https://www.gutenberg.org/cache/epub/30465/pg30465.cover.medium.jpg","application/octet-stream":"https://www.gutenberg.org/cache/epub/30465/pg30465-h.zip"},"download_count":35},{"id":7312,"title":"夢溪筆談, Volume 01-06","authors":[{"name":"Shen, Kuo","birth_year":1031,"death_year":1095}],"translators":[],"subjects":["China -- History -- Song dynasty, 960-1279 -- Anecdotes"],"bookshelves":[],"languages":["zh"],"copyright":false,"media_type":"Text","formats":{"text/html":"https://www.gutenberg.org/ebooks/7312.html.images","application/epub+zip":"https://www.gutenberg.org/ebooks/7312.epub3.images","application/x-mobipocket-ebook":"https://www.gutenberg.org/ebooks/7312.kf8.images","text/plain; charset=us-ascii":"https://www.gutenberg.org/ebooks/7312.txt.utf-8","text/plain; charset=utf-8":"https://www.gutenberg.org/files/7312/7312-0.txt","application/rdf+xml":"https://www.gutenberg.org/ebooks/7312.rdf","image/jpeg":"https://www.gutenberg.org/cache/epub/7312/pg7312.cover.medium.jpg","application/octet-stream":"https://www.gutenberg.org/cache/epub/7312/pg7312-h.zip"},"download_count":34},{"id":23914,"title":"山水小牘","authors":[{"name":"Huangfu, Mei, active 873-910","birth_year":null,"death_year":null}],"translators":[],"subjects":[],"bookshelves":[],"languages":["zh"],"copyright":false,"media_type":"Text","formats":{"text/html":"https://www.gutenberg.org/ebooks/23914.html.images","application/epub+zip":"https://www.gutenberg.org/ebooks/23914.epub3.images","application/x-mobipocket-ebook":"https://www.gutenberg.org/ebooks/23914.kf8.images","text/plain; charset=us-ascii":"https://www.gutenberg.org/ebooks/23914.txt.utf-8","text/plain; charset=utf-8":"https://www.gutenberg.org/files/23914/23914-0.txt","application/rdf+xml":"https://www.gutenberg.org/ebooks/23914.rdf","image/jpeg":"https://www.gutenberg.org/cache/epub/23914/pg23914.cover.medium.jpg","application/octet-stream":"https://www.gutenberg.org/cache/epub/23914/pg23914-h.zip"},"download_count":34},{"id":24037,"title":"顔氏家訓","authors":[{"name":"Yan, Zhitui","birth_year":531,"death_year":591}],"translators":[],"subjects":["Conduct of life","Ethics -- China"],"bookshelves":[],"languages":["zh"],"copyright":false,"media_type":"Text","formats":{"text/html":"https://www.gutenberg.org/ebooks/24037.html.images","application/epub+zip":"https://www.gutenberg.org/ebooks/24037.epub3.images","application/x-mobipocket-ebook":"https://www.gutenberg.org/ebooks/24037.kf8.images","text/plain; charset=us-ascii":"https://www.gutenberg.org/ebooks/24037.txt.utf-8","text/plain; charset=utf-8":"https://www.gutenberg.org/files/24037/24037-0.txt","application/rdf+xml":"https://www.gutenberg.org/ebooks/24037.rdf","image/jpeg":"https://www.gutenberg.org/cache/epub/24037/pg24037.cover.medium.jpg","application/octet-stream":"https://www.gutenberg.org/cache/epub/24037/pg24037-h.zip"},"download_count":34},{"id":24229,"title":"舊唐書","authors":[{"name":"Liu, Xu","birth_year":887,"death_year":946}],"translators":[],"subjects":["China -- History -- Tang dynasty, 618-907"],"bookshelves":[],"languages":["zh"],"copyright":false,"media_type":"Text","formats":{"text/html":"https://www.gutenberg.org/ebooks/24229.html.images","application/epub+zip":"https://www.gutenberg.org/ebooks/24229.epub3.images","application/x-mobipocket-ebook":"https://www.gutenberg.org/ebooks/24229.kf8.images","text/plain; charset=us-ascii":"https://www.gutenberg.org/ebooks/24229.txt.utf-8","text/plain; charset=utf-8":"https://www.gutenberg.org/files/24229/24229-0.txt","application/rdf+xml":"https://www.gutenberg.org/ebooks/24229.rdf","image/jpeg":"https://www.gutenberg.org/cache/epub/24229/pg24229.cover.medium.jpg","application/octet-stream":"https://www.gutenberg.org/cache/epub/24229/pg24229-h.zip"},"download_count":34},{"id":25218,"title":"六一詞","authors":[{"name":"Ouyang, Xiu","birth_year":1007,"death_year":1072}],"translators":[],"subjects":["Ci (Chinese poetry)"],"bookshelves":[],"languages":["zh"],"copyright":false,"media_type":"Text","formats":{"text/html":"https://www.gutenberg.org/ebooks/25218.html.images","application/epub+zip":"https://www.gutenberg.org/ebooks/25218.epub3.images","application/x-mobipocket-ebook":"https://www.gutenberg.org/ebooks/25218.kf8.images","text/plain; charset=us-ascii":"https://www.gutenberg.org/ebooks/25218.txt.utf-8","text/plain; charset=utf-8":"https://www.gutenberg.org/files/25218/25218-0.txt","application/rdf+xml":"https://www.gutenberg.org/ebooks/25218.rdf","image/jpeg":"https://www.gutenberg.org/cache/epub/25218/pg25218.cover.medium.jpg","application/octet-stream":"https://www.gutenberg.org/cache/epub/25218/pg25218-h.zip"},"download_count":34},{"id":27415,"title":"殺子報","authors":[{"name":"Lingyanqiaozi","birth_year":null,"death_year":null}],"translators":[],"subjects":["Chinese fiction"],"bookshelves":[],"languages":["zh"],"copyright":false,"media_type":"Text","formats":{"text/html":"https://www.gutenberg.org/ebooks/27415.html.images","application/epub+zip":"https://www.gutenberg.org/ebooks/27415.epub3.images","application/x-mobipocket-ebook":"https://www.gutenberg.org/ebooks/27415.kf8.images","text/plain; charset=us-ascii":"https://www.gutenberg.org/ebooks/27415.txt.utf-8","text/plain; charset=utf-8":"https://www.gutenberg.org/files/27415/27415-0.txt","application/rdf+xml":"https://www.gutenberg.org/ebooks/27415.rdf","image/jpeg":"https://www.gutenberg.org/cache/epub/27415/pg27415.cover.medium.jpg","application/octet-stream":"https://www.gutenberg.org/cache/epub/27415/pg27415-h.zip"},"download_count":34},{"id":7420,"title":"幽夢影","authors":[{"name":"Zhang, Chao","birth_year":1650,"death_year":null}],"translators":[],"subjects":["Aphorisms and apothegms"],"bookshelves":[],"languages":["zh"],"copyright":false,"media_type":"Text","formats":{"text/html":"https://www.gutenberg.org/ebooks/7420.html.images","application/epub+zip":"https://www.gutenberg.org/ebooks/7420.epub3.images","application/x-mobipocket-ebook":"https://www.gutenberg.org/ebooks/7420.kf8.images","text/plain; charset=us-ascii":"https://www.gutenberg.org/ebooks/7420.txt.utf-8","text/plain; charset=utf-8":"https://www.gutenberg.org/files/7420/7420-0.txt","application/rdf+xml":"https://www.gutenberg.org/ebooks/7420.rdf","image/jpeg":"https://www.gutenberg.org/cache/epub/7420/pg7420.cover.medium.jpg","application/octet-stream":"https://www.gutenberg.org/cache/epub/7420/pg7420-h.zip"},"download_count":33},{"id":24144,"title":"瀛涯勝覽","authors":[{"name":"Ma, Huan, active 1414-1451","birth_year":null,"death_year":null}],"translators":[],"subjects":["Southeast Asia -- Description and travel -- Early works to 1800","Zheng, He, 1371-1435"],"bookshelves":[],"languages":["zh"],"copyright":false,"media_type":"Text","formats":{"text/html":"https://www.gutenberg.org/ebooks/24144.html.images","application/epub+zip":"https://www.gutenberg.org/ebooks/24144.epub3.images","application/x-mobipocket-ebook":"https://www.gutenberg.org/ebooks/24144.kf8.images","text/plain; charset=us-ascii":"https://www.gutenberg.org/ebooks/24144.txt.utf-8","text/plain; charset=utf-8":"https://www.gutenberg.org/files/24144/24144-0.txt","application/rdf+xml":"https://www.gutenberg.org/ebooks/24144.rdf","image/jpeg":"https://www.gutenberg.org/cache/epub/24144/pg24144.cover.medium.jpg","application/octet-stream":"https://www.gutenberg.org/cache/epub/24144/pg24144-h.zip"},"download_count":33},{"id":25125,"title":"明皇雜錄","authors":[{"name":"Zheng, Chuhui, jin shi 834","birth_year":null,"death_year":null}],"translators":[],"subjects":["China -- History -- Tang dynasty, 618-907 -- Anecdotes","Tang Xuanzong, Emperor of China, 685-762 -- Anecdotes"],"bookshelves":[],"languages":["zh"],"copyright":false,"media_type":"Text","formats":{"text/html":"https://www.gutenberg.org/ebooks/25125.html.images","text/html; charset=utf-8":"https://www.gutenberg.org/files/25125/25125-h/25125-h.htm","application/epub+zip":"https://www.gutenberg.org/ebooks/25125.epub3.images","application/x-mobipocket-ebook":"https://www.gutenberg.org/ebooks/25125.kf8.images","text/plain; charset=us-ascii":"https://www.gutenberg.org/ebooks/25125.txt.utf-8","text/plain; charset=utf-8":"https://www.gutenberg.org/files/25125/25125-0.txt","application/rdf+xml":"https://www.gutenberg.org/ebooks/25125.rdf","image/jpeg":"https://www.gutenberg.org/cache/epub/25125/pg25125.cover.medium.jpg","application/octet-stream":"https://www.gutenberg.org/cache/epub/25125/pg25125-h.zip"},"download_count":33},{"id":25194,"title":"飲水詞集","authors":[{"name":"Nalan, Xingde","birth_year":1655,"death_year":1685}],"translators":[],"subjects":["Chinese poetry -- Qing dynasty, 1644-1912","Ci (Chinese poetry)"],"bookshelves":[],"languages":["zh"],"copyright":false,"media_type":"Text","formats":{"text/html":"https://www.gutenberg.org/ebooks/25194.html.images","application/epub+zip":"https://www.gutenberg.org/ebooks/25194.epub3.images","application/x-mobipocket-ebook":"https://www.gutenberg.org/ebooks/25194.kf8.images","text/plain; charset=us-ascii":"https://www.gutenberg.org/ebooks/25194.txt.utf-8","text/plain; charset=utf-8":"https://www.gutenberg.org/files/25194/25194-0.txt","application/rdf+xml":"https://www.gutenberg.org/ebooks/25194.rdf","image/jpeg":"https://www.gutenberg.org/cache/epub/25194/pg25194.cover.medium.jpg","application/octet-stream":"https://www.gutenberg.org/cache/epub/25194/pg25194-h.zip"},"download_count":33},{"id":26876,"title":"文子","authors":[{"name":"Unknown","birth_year":null,"death_year":null}],"translators":[],"subjects":["Taoism"],"bookshelves":[],"languages":["zh"],"copyright":false,"media_type":"Text","formats":{"text/html":"https://www.gutenberg.org/ebooks/26876.html.images","application/epub+zip":"https://www.gutenberg.org/ebooks/26876.epub3.images","application/x-mobipocket-ebook":"https://www.gutenberg.org/ebooks/26876.kf8.images","text/plain; charset=us-ascii":"https://www.gutenberg.org/ebooks/26876.txt.utf-8","text/plain; charset=utf-8":"https://www.gutenberg.org/files/26876/26876-0.txt","application/rdf+xml":"https://www.gutenberg.org/ebooks/26876.rdf","image/jpeg":"https://www.gutenberg.org/cache/epub/26876/pg26876.cover.medium.jpg","application/octet-stream":"https://www.gutenberg.org/cache/epub/26876/pg26876-h.zip"},"download_count":33},{"id":27217,"title":"牛郎織女傳","authors":[{"name":"Zhu, Mingshi","birth_year":1260,"death_year":1340}],"translators":[],"subjects":["Chinese fiction"],"bookshelves":[],"languages":["zh"],"copyright":false,"media_type":"Text","formats":{"text/html":"https://www.gutenberg.org/ebooks/27217.html.images","application/epub+zip":"https://www.gutenberg.org/ebooks/27217.epub3.images","application/x-mobipocket-ebook":"https://www.gutenberg.org/ebooks/27217.kf8.images","text/plain; charset=us-ascii":"https://www.gutenberg.org/ebooks/27217.txt.utf-8","text/plain; charset=utf-8":"https://www.gutenberg.org/files/27217/27217-0.txt","application/rdf+xml":"https://www.gutenberg.org/ebooks/27217.rdf","image/jpeg":"https://www.gutenberg.org/cache/epub/27217/pg27217.cover.medium.jpg","application/octet-stream":"https://www.gutenberg.org/cache/epub/27217/pg27217-h.zip"},"download_count":33},{"id":7331,"title":"說苑, Volume 17-20","authors":[{"name":"Liu, Xiang","birth_year":null,"death_year":null}],"translators":[],"subjects":["China -- History -- Anecdotes"],"bookshelves":[],"languages":["zh"],"copyright":false,"media_type":"Text","formats":{"text/html":"https://www.gutenberg.org/ebooks/7331.html.images","application/epub+zip":"https://www.gutenberg.org/ebooks/7331.epub3.images","application/x-mobipocket-ebook":"https://www.gutenberg.org/ebooks/7331.kf8.images","text/plain; charset=us-ascii":"https://www.gutenberg.org/ebooks/7331.txt.utf-8","text/plain; charset=utf-8":"https://www.gutenberg.org/files/7331/7331-0.txt","application/rdf+xml":"https://www.gutenberg.org/ebooks/7331.rdf","image/jpeg":"https://www.gutenberg.org/cache/epub/7331/pg7331.cover.medium.jpg","application/octet-stream":"https://www.gutenberg.org/cache/epub/7331/pg7331-h.zip"},"download_count":32},{"id":7418,"title":"幽夢影 — Part 1","authors":[{"name":"Zhang, Chao","birth_year":1650,"death_year":null}],"translators":[],"subjects":["Aphorisms and apothegms"],"bookshelves":[],"languages":["zh"],"copyright":false,"media_type":"Text","formats":{"text/html":"https://www.gutenberg.org/ebooks/7418.html.images","application/epub+zip":"https://www.gutenberg.org/ebooks/7418.epub3.images","application/x-mobipocket-ebook":"https://www.gutenberg.org/ebooks/7418.kf8.images","text/plain; charset=us-ascii":"https://www.gutenberg.org/ebooks/7418.txt.utf-8","text/plain; charset=utf-8":"https://www.gutenberg.org/files/7418/7418-0.txt","application/rdf+xml":"https://www.gutenberg.org/ebooks/7418.rdf","image/jpeg":"https://www.gutenberg.org/cache/epub/7418/pg7418.cover.medium.jpg","application/octet-stream":"https://www.gutenberg.org/cache/epub/7418/pg7418-h.zip"},"download_count":32},{"id":24075,"title":"千字文","authors":[{"name":"Zhou, Xingsi","birth_year":null,"death_year":521}],"translators":[],"subjects":["Chinese language -- Readers"],"bookshelves":[],"languages":["zh"],"copyright":false,"media_type":"Text","formats":{"text/html":"https://www.gutenberg.org/ebooks/24075.html.images","application/epub+zip":"https://www.gutenberg.org/ebooks/24075.epub3.images","application/x-mobipocket-ebook":"https://www.gutenberg.org/ebooks/24075.kf8.images","text/plain; charset=us-ascii":"https://www.gutenberg.org/ebooks/24075.txt.utf-8","text/plain; charset=utf-8":"https://www.gutenberg.org/files/24075/24075-0.txt","application/rdf+xml":"https://www.gutenberg.org/ebooks/24075.rdf","image/jpeg":"https://www.gutenberg.org/cache/epub/24075/pg24075.cover.medium.jpg","application/octet-stream":"https://www.gutenberg.org/cache/epub/24075/pg24075-h.zip"},"download_count":32},{"id":25161,"title":"魏鄭公諫錄","authors":[{"name":"Wang, Fangqing","birth_year":null,"death_year":702}],"translators":[],"subjects":["China -- Biography","China -- History -- Ming dynasty, 1368-1644 -- Biography","Wei, Zheng, 580-643"],"bookshelves":[],"languages":["zh"],"copyright":false,"media_type":"Text","formats":{"text/html":"https://www.gutenberg.org/ebooks/25161.html.images","application/epub+zip":"https://www.gutenberg.org/ebooks/25161.epub3.images","application/x-mobipocket-ebook":"https://www.gutenberg.org/ebooks/25161.kf8.images","text/plain; charset=us-ascii":"https://www.gutenberg.org/ebooks/25161.txt.utf-8","text/plain; charset=utf-8":"https://www.gutenberg.org/files/25161/25161-0.txt","application/rdf+xml":"https://www.gutenberg.org/ebooks/25161.rdf","image/jpeg":"https://www.gutenberg.org/cache/epub/25161/pg25161.cover.medium.jpg","application/octet-stream":"https://www.gutenberg.org/cache/epub/25161/pg25161-h.zip"},"download_count":32},{"id":25366,"title":"慎子","authors":[{"name":"Shen, Dao","birth_year":null,"death_year":null}],"translators":[],"subjects":["Philosophy, Chinese","Taoism"],"bookshelves":[],"languages":["zh"],"copyright":false,"media_type":"Text","formats":{"text/html":"https://www.gutenberg.org/ebooks/25366.html.images","application/epub+zip":"https://www.gutenberg.org/ebooks/25366.epub3.images","application/x-mobipocket-ebook":"https://www.gutenberg.org/ebooks/25366.kf8.images","text/plain; charset=us-ascii":"https://www.gutenberg.org/ebooks/25366.txt.utf-8","text/plain; charset=utf-8":"https://www.gutenberg.org/files/25366/25366-0.txt","application/rdf+xml":"https://www.gutenberg.org/ebooks/25366.rdf","image/jpeg":"https://www.gutenberg.org/cache/epub/25366/pg25366.cover.medium.jpg","application/octet-stream":"https://www.gutenberg.org/cache/epub/25366/pg25366-h.zip"},"download_count":32},{"id":25498,"title":"佛說無量壽經","authors":[],"translators":[{"name":"Sanghavarman","birth_year":null,"death_year":520}],"subjects":["Pure Land Buddhism -- Sacred books"],"bookshelves":[],"languages":["zh"],"copyright":false,"media_type":"Text","formats":{"text/html":"https://www.gutenberg.org/ebooks/25498.html.images","text/html; charset=utf-8":"https://www.gutenberg.org/files/25498/25498-h/25498-h.htm","application/epub+zip":"https://www.gutenberg.org/ebooks/25498.epub3.images","application/x-mobipocket-ebook":"https://www.gutenberg.org/ebooks/25498.kf8.images","text/plain; charset=us-ascii":"https://www.gutenberg.org/ebooks/25498.txt.utf-8","text/plain; charset=utf-8":"https://www.gutenberg.org/files/25498/25498-0.txt","application/rdf+xml":"https://www.gutenberg.org/ebooks/25498.rdf","image/jpeg":"https://www.gutenberg.org/cache/epub/25498/pg25498.cover.medium.jpg","application/octet-stream":"https://www.gutenberg.org/cache/epub/25498/pg25498-h.zip"},"download_count":32},{"id":7316,"title":"夢溪筆談, Volume 22-26","authors":[{"name":"Shen, Kuo","birth_year":1031,"death_year":1095}],"translators":[],"subjects":["China -- History -- Song dynasty, 960-1279 -- Anecdotes"],"bookshelves":[],"languages":["zh"],"copyright":false,"media_type":"Text","formats":{"text/html":"https://www.gutenberg.org/ebooks/7316.html.images","application/epub+zip":"https://www.gutenberg.org/ebooks/7316.epub3.images","application/x-mobipocket-ebook":"https://www.gutenberg.org/ebooks/7316.kf8.images","text/plain; charset=us-ascii":"https://www.gutenberg.org/ebooks/7316.txt.utf-8","text/plain; charset=utf-8":"https://www.gutenberg.org/files/7316/7316-0.txt","application/rdf+xml":"https://www.gutenberg.org/ebooks/7316.rdf","image/jpeg":"https://www.gutenberg.org/cache/epub/7316/pg7316.cover.medium.jpg","application/octet-stream":"https://www.gutenberg.org/cache/epub/7316/pg7316-h.zip"},"download_count":31},{"id":23816,"title":"朱子治家格言","authors":[{"name":"Zhu, Yongchun","birth_year":1617,"death_year":1689}],"translators":[],"subjects":["Ethics -- China"],"bookshelves":[],"languages":["zh"],"copyright":false,"media_type":"Text","formats":{"text/html":"https://www.gutenberg.org/ebooks/23816.html.images","application/epub+zip":"https://www.gutenberg.org/ebooks/23816.epub3.images","application/x-mobipocket-ebook":"https://www.gutenberg.org/ebooks/23816.kf8.images","text/plain; charset=us-ascii":"https://www.gutenberg.org/ebooks/23816.txt.utf-8","text/plain; charset=utf-8":"https://www.gutenberg.org/files/23816/23816-0.txt","application/rdf+xml":"https://www.gutenberg.org/ebooks/23816.rdf","image/jpeg":"https://www.gutenberg.org/cache/epub/23816/pg23816.cover.medium.jpg","application/octet-stream":"https://www.gutenberg.org/cache/epub/23816/pg23816-h.zip"},"download_count":31},{"id":24143,"title":"星槎勝覽","authors":[{"name":"Fei, Xin","birth_year":1388,"death_year":null}],"translators":[],"subjects":["Southeast Asia -- Description and travel -- Early works to 1800"],"bookshelves":[],"languages":["zh"],"copyright":false,"media_type":"Text","formats":{"text/html":"https://www.gutenberg.org/ebooks/24143.html.images","application/epub+zip":"https://www.gutenberg.org/ebooks/24143.epub3.images","application/x-mobipocket-ebook":"https://www.gutenberg.org/ebooks/24143.kf8.images","text/plain; charset=us-ascii":"https://www.gutenberg.org/ebooks/24143.txt.utf-8","text/plain; charset=utf-8":"https://www.gutenberg.org/files/24143/24143-0.txt","application/rdf+xml":"https://www.gutenberg.org/ebooks/24143.rdf","image/jpeg":"https://www.gutenberg.org/cache/epub/24143/pg24143.cover.medium.jpg","application/octet-stream":"https://www.gutenberg.org/cache/epub/24143/pg24143-h.zip"},"download_count":31},{"id":25160,"title":"三字經","authors":[{"name":"Wang, Yinglin","birth_year":1223,"death_year":1296}],"translators":[],"subjects":["Chinese language -- Readers"],"bookshelves":[],"languages":["zh"],"copyright":false,"media_type":"Text","formats":{"text/html":"https://www.gutenberg.org/ebooks/25160.html.images","application/epub+zip":"https://www.gutenberg.org/ebooks/25160.epub3.images","application/x-mobipocket-ebook":"https://www.gutenberg.org/ebooks/25160.kf8.images","text/plain; charset=us-ascii":"https://www.gutenberg.org/ebooks/25160.txt.utf-8","text/plain; charset=utf-8":"https://www.gutenberg.org/files/25160/25160-0.txt","application/rdf+xml":"https://www.gutenberg.org/ebooks/25160.rdf","image/jpeg":"https://www.gutenberg.org/cache/epub/25160/pg25160.cover.medium.jpg","application/octet-stream":"https://www.gutenberg.org/cache/epub/25160/pg25160-h.zip"},"download_count":31},{"id":25329,"title":"春秋配","authors":[{"name":"Unknown","birth_year":null,"death_year":null}],"translators":[],"subjects":["Chinese fiction -- Qing dynasty, 1644-1912"],"bookshelves":[],"languages":["zh"],"copyright":false,"media_type":"Text","formats":{"text/html":"https://www.gutenberg.org/ebooks/25329.html.images","application/epub+zip":"https://www.gutenberg.org/ebooks/25329.epub3.images","application/x-mobipocket-ebook":"https://www.gutenberg.org/ebooks/25329.kf8.images","text/plain; charset=us-ascii":"https://www.gutenberg.org/ebooks/25329.txt.utf-8","text/plain; charset=utf-8":"https://www.gutenberg.org/files/25329/25329-0.txt","application/rdf+xml":"https://www.gutenberg.org/ebooks/25329.rdf","image/jpeg":"https://www.gutenberg.org/cache/epub/25329/pg25329.cover.medium.jpg","application/octet-stream":"https://www.gutenberg.org/cache/epub/25329/pg25329-h.zip"},"download_count":31},{"id":25365,"title":"顔氏家訓","authors":[{"name":"Yan, Zhitui","birth_year":531,"death_year":591}],"translators":[],"subjects":["Conduct of life","Ethics -- China"],"bookshelves":[],"languages":["zh"],"copyright":false,"media_type":"Text","formats":{"text/html":"https://www.gutenberg.org/ebooks/25365.html.images","application/epub+zip":"https://www.gutenberg.org/ebooks/25365.epub3.images","application/x-mobipocket-ebook":"https://www.gutenberg.org/ebooks/25365.kf8.images","text/plain; charset=us-ascii":"https://www.gutenberg.org/ebooks/25365.txt.utf-8","text/plain; charset=utf-8":"https://www.gutenberg.org/files/25365/25365-0.txt","application/rdf+xml":"https://www.gutenberg.org/ebooks/25365.rdf","image/jpeg":"https://www.gutenberg.org/cache/epub/25365/pg25365.cover.medium.jpg","application/octet-stream":"https://www.gutenberg.org/cache/epub/25365/pg25365-h.zip"},"download_count":31}]}