{"count":444,"next":"http://129.241.150.113:8000/books/?languages=zh&page=7","previous":"http://129.241.150.113:8000/books/?languages=zh&page=5","results":[{"id":28714,"title":"唐才子傳","authors":[{"name":"Xin, Wenfang, active 13th century-14th century","birth_year":null,"death_year":null}],"translators":[],"subjects":["Poets, Chinese -- Tang dynasty, 618-907 -- Biography"],"bookshelves":[],"languages":["zh"],"copyright":false,"media_type":"Text","formats":{"text/html":"https://www.gutenberg.org/ebooks/28714.html.images","application/epub+zip":"https://www.gutenberg.org/ebooks/28714.epub3.images","application/x-mobipocket-ebook":"https://www.gutenberg.org/ebooks/28714.kf8.images","text/plain; charset=us-ascii":"https://www.gutenberg.org/ebooks/28714.txt.utf-8","text/plain; charset=utf-8":"https://www.gutenberg.org/files/28714/28714-0.txt","application/rdf+xml":"https://www.gutenberg.org/ebooks/28714.rdf","image/jpeg":"https://www.gutenberg.org/cache/epub/28714/pg28714.cover.medium.jpg","application/octet-stream":"https://www.gutenberg.org/cache/epub/28714/pg28714-h.zip"},"download_count":68},{"id":24027,"title":"醉醒石","authors":[{"name":"Donglugukuangsheng, active 17th century","birth_year":null,"death_year":null}],"translators":[],"subjects":["Chinese fiction -- Ming dynasty, 1368-1644"],"bookshelves":[],"languages":["zh"],"copyright":false,"media_type":"Text","formats":{"text/html":"https://www.gutenberg.org/ebooks/24027.html.images","application/epub+zip":"https://www.gutenberg.org/ebooks/24027.epub3.images","application/x-mobipocket-ebook":"https://www.gutenberg.org/ebooks/24027.kf8.images","text/plain; charset=us-ascii":"https://www.gutenberg.org/ebooks/24027.txt.utf-8","text/plain; charset=utf-8":"https://www.gutenberg.org/files/24027/24027-0.txt","application/rdf+xml":"https://www.gutenberg.org/ebooks/24027.rdf","image/jpeg":"https://www.gutenberg.org/cache/epub/24027/pg24027.cover.medium.jpg","application/octet-stream":"https://www.gutenberg.org/cache/epub/24027/pg24027-h.zip"},"download_count":67},{"id":25237,"title":"快士傳","authors":[{"name":"Wuseshizhuren, ju ren 1738","birth_year":null,"death_year":null}],"translators":[],"subjects":["Chinese fiction -- Qing dynasty, 1644-1912"],"bookshelves":[],"languages":["zh"],"copyright":false,"media_type":"Text","formats":{"text/html":"https://www.gutenberg.org/ebooks/25237.html.images","application/epub+zip":"https://www.gutenberg.org/ebooks/25237.epub3.images","application/x-mobipocket-ebook":"https://www.gutenberg.org/ebooks/25237.kf8.images","text/plain; charset=us-ascii":"https://www.gutenberg.org/ebooks/25237.txt.utf-8","text/plain; charset=utf-8":"https://www.gutenberg.org/files/25237/25237-0.txt","application/rdf+xml":"https://www.gutenberg.org/ebooks/25237.rdf","image/jpeg":"https://www.gutenberg.org/cache/epub/25237/pg25237.cover.medium.jpg","application/octet-stream":"https://www.gutenberg.org/cache/epub/25237/pg25237-h.zip"},"download_count":67},{"id":25348,"title":"雙鳳奇緣","authors":[{"name":"Xueqiaozhuren","birth_year":null,"death_year":null}],"translators":[],"subjects":["Wang, Zhaojun, 53 B.C.-18 A.D. -- Fiction"],"bookshelves":[],"languages":["zh"],"copyright":false,"media_type":"Text","formats":{"text/html":"https://www.gutenberg.org/ebooks/25348.html.images","application/epub+zip":"https://www.gutenberg.org/ebooks/25348.epub3.images","application/x-mobipocket-ebook":"https://www.gutenberg.org/ebooks/25348.kf8.images","text/plain; charset=us-ascii":"https://www.gutenberg.org/ebooks/25348.txt.utf-8","text/plain; charset=utf-8":"https://www.gutenberg.org/files/25348/25348-0.txt","application/rdf+xml":"https://www.gutenberg.org/ebooks/25348.rdf","image/jpeg":"https://www.gutenberg.org/cache/epub/25348/pg25348.cover.medium.jpg","application/octet-stream":"https://www.gutenberg.org/cache/epub/25348/pg25348-h.zip"},"download_count":66},{"id":25380,"title":"閒情偶寄","authors":[{"name":"Li, Yu","birth_year":1611,"death_year":null}],"translators":[],"subjects":[],"bookshelves":[],"languages":["zh"],"copyright":false,"media_type":"Text","formats":{"text/html":"https://www.gutenberg.org/ebooks/25380.html.images","application/epub+zip":"https://www.gutenberg.org/ebooks/25380.epub3.images","application/x-mobipocket-ebook":"https://www.gutenberg.org/ebooks/25380.kf8.images","text/plain; charset=us-ascii":"https://www.gutenberg.org/ebooks/25380.txt.utf-8","text/plain; charset=utf-8":"https://www.gutenberg.org/files/25380/25380-0.txt","application/rdf+xml":"https://www.gutenberg.org/ebooks/25380.rdf","image/jpeg":"https://www.gutenberg.org/cache/epub/25380/pg25380.cover.medium.jpg","application/octet-stream":"https://www.gutenberg.org/cache/epub/25380/pg25380-h.zip"},"download_count":66},{"id":30460,"title":"出師表","authors":[{"name":"Zhuge, Liang","birth_year":181,"death_year":234}],"translators":[],"subjects":["China -- History -- Three kingdoms, 220-265 -- Sources"],"bookshelves":[],"languages":["zh"],"copyright":false,"media_type":"Text","formats":{"text/html":"https://www.gutenberg.org/ebooks/30460.html.images","application/epub+zip":"https://www.gutenberg.org/ebooks/30460.epub3.images","application/x-mobipocket-ebook":"https://www.gutenberg.org/ebooks/30460.kf8.images","text/plain; charset=us-ascii":"https://www.gutenberg.org/ebooks/30460.txt.utf-8","text/plain; charset=utf-8":"https://www.gutenberg.org/files/30460/30460-0.txt","application/rdf+xml":"https://www.gutenberg.org/ebooks/30460.rdf","image/jpeg":"https://www.gutenberg.org/cache/epub/30460/pg30460.cover.medium.jpg","application/octet-stream":"https://www.gutenberg.org/cache/epub/30460/pg30460-h.zip"},"download_count":66},{"id":52276,"title":"竇娥冤","authors":[{"name":"Guan, Hanqing","birth_year":null,"death_year":null}],"translators":[],"subjects":["Chinese drama (Tragedy)"],"bookshelves":[],"languages":["zh"],"copyright":false,"media_type":"Text","formats":{"text/html":"https://www.gutenberg.org/ebooks/52276.html.images","application/epub+zip":"https://www.gutenberg.org/ebooks/52276.epub3.images","application/x-mobipocket-ebook":"https://www.gutenberg.org/ebooks/52276.kf8.images","text/plain; charset=us-ascii":"https://www.gutenberg.org/ebooks/52276.txt.utf-8","text/plain; charset=utf-8":"https://www.gutenberg.org/files/52276/52276-0.txt","application/rdf+xml":"https://www.gutenberg.org/ebooks/52276.rdf","image/jpeg":"https://www.gutenberg.org/cache/epub/52276/pg52276.cover.medium.jpg","application/octet-stream":"https://www.gutenberg.org/cache/epub/52276/pg52276-h.zip"},"download_count":66},{"id":23824,"title":"說唐","authors":[{"name":"Luo, Guanzhong","birth_year":null,"death_year":null}],"translators":[],"subjects":["China -- History -- Tang dynasty, 618-907 -- Fiction"],"bookshelves":[],"languages":["zh"],"copyright":false,"media_type":"Text","formats":{"text/html":"https://www.gutenberg.org/ebooks/23824.html.images","application/epub+zip":"https://www.gutenberg.org/ebooks/23824.epub3.images","application/x-mobipocket-ebook":"https://www.gutenberg.org/ebooks/23824.kf8.images","text/plain; charset=us-ascii":"https://www.gutenberg.org/ebooks/23824.txt.utf-8","text/plain; charset=utf-8":"https://www.gutenberg.org/files/23824/23824-0.txt","application/rdf+xml":"https://www.gutenberg.org/ebooks/23824.rdf","image/jpeg":"https://www.gutenberg.org/cache/epub/23824/pg23824.cover.medium.jpg","application/octet-stream":"https://www.gutenberg.org/cache/epub/23824/pg23824-h.zip"},"download_count":65},{"id":23947,"title":"蜀碧","authors":[{"name":"Peng, Zunsi, jin shi 1737","birth_year":null,"death_year":null}],"translators":[],"subjects":["Sichuan Sheng (China) -- History"],"bookshelves":[],"languages":["zh"],"copyright":false,"media_type":"Text","formats":{"text/html":"https://www.gutenberg.org/ebooks/23947.html.images","application/epub+zip":"https://www.gutenberg.org/ebooks/23947.epub3.images","application/x-mobipocket-ebook":"https://www.gutenberg.org/ebooks/23947.kf8.images","text/plain; charset=us-ascii":"https://www.gutenberg.org/ebooks/23947.txt.utf-8","text/plain; charset=utf-8":"https://www.gutenberg.org/files/23947/23947-0.txt","application/rdf+xml":"https://www.gutenberg.org/ebooks/23947.rdf","image/jpeg":"https://www.gutenberg.org/cache/epub/23947/pg23947.cover.medium.jpg","application/octet-stream":"https://www.gutenberg.org/cache/epub/23947/pg23947-h.zip"},"download_count":65},{"id":24170,"title":"常言道","authors":[],"translators":[],"subjects":["Chinese literature"],"bookshelves":[],"languages":["zh"],"copyright":false,"media_type":"Text","formats":{"text/html":"https://www.gutenberg.org/ebooks/24170.html.images","application/epub+zip":"https://www.gutenberg.org/ebooks/24170.epub3.images","application/x-mobipocket-ebook":"https://www.gutenberg.org/ebooks/24170.kf8.images","text/plain; charset=us-ascii":"https://www.gutenberg.org/ebooks/24170.txt.utf-8","text/plain; charset=utf-8":"https://www.gutenberg.org/files/24170/24170-0.txt","application/rdf+xml":"https://www.gutenberg.org/ebooks/24170.rdf","image/jpeg":"https://www.gutenberg.org/cache/epub/24170/pg24170.cover.medium.jpg","application/octet-stream":"https://www.gutenberg.org/cache/epub/24170/pg24170-h.zip"},"download_count":65},{"id":25245,"title":"子不語","authors":[{"name":"Yuan, Mei","birth_year":1716,"death_year":1798}],"translators":[],"subjects":["Fantasy fiction, Chinese","Ghost stories, Chinese"],"bookshelves":[],"languages":["zh"],"copyright":false,"media_type":"Text","formats":{"text/html":"https://www.gutenberg.org/ebooks/25245.html.images","application/epub+zip":"https://www.gutenberg.org/ebooks/25245.epub3.images","application/x-mobipocket-ebook":"https://www.gutenberg.org/ebooks/25245.kf8.images","text/plain; charset=us-ascii":"https://www.gutenberg.org/ebooks/25245.txt.utf-8","text/plain; charset=utf-8":"https://www.gutenberg.org/files/25245/25245-0.txt","application/rdf+xml":"https://www.gutenberg.org/ebooks/25245.rdf","image/jpeg":"https://www.gutenberg.org/cache/epub/25245/pg25245.cover.medium.jpg","application/octet-stream":"https://www.gutenberg.org/cache/epub/25245/pg25245-h.zip"},"download_count":65},{"id":25315,"title":"續子不語","authors":[{"name":"Yuan, Mei","birth_year":1716,"death_year":1798}],"translators":[],"subjects":["Fantasy fiction, Chinese","Short stories"],"bookshelves":[],"languages":["zh"],"copyright":false,"media_type":"Text","formats":{"text/html":"https://www.gutenberg.org/ebooks/25315.html.images","application/epub+zip":"https://www.gutenberg.org/ebooks/25315.epub3.images","application/x-mobipocket-ebook":"https://www.gutenberg.org/ebooks/25315.kf8.images","text/plain; charset=us-ascii":"https://www.gutenberg.org/ebooks/25315.txt.utf-8","text/plain; charset=utf-8":"https://www.gutenberg.org/files/25315/25315-0.txt","application/rdf+xml":"https://www.gutenberg.org/ebooks/25315.rdf","image/jpeg":"https://www.gutenberg.org/cache/epub/25315/pg25315.cover.medium.jpg","application/octet-stream":"https://www.gutenberg.org/cache/epub/25315/pg25315-h.zip"},"download_count":65},{"id":27581,"title":"吳船錄","authors":[{"name":"Fan, Chengda","birth_year":1126,"death_year":1193}],"translators":[],"subjects":["Fan, Chengda, 1126-1193 -- Travel -- China -- Chang Jiang","Yangtze River (China) -- Description and travel"],"bookshelves":[],"languages":["zh"],"copyright":false,"media_type":"Text","formats":{"text/html":"https://www.gutenberg.org/ebooks/27581.html.images","application/epub+zip":"https://www.gutenberg.org/ebooks/27581.epub3.images","application/x-mobipocket-ebook":"https://www.gutenberg.org/ebooks/27581.kf8.images","text/plain; charset=us-ascii":"https://www.gutenberg.org/ebooks/27581.txt.utf-8","text/plain; charset=utf-8":"https://www.gutenberg.org/files/27581/27581-0.txt","application/rdf+xml":"https://www.gutenberg.org/ebooks/27581.rdf","image/jpeg":"https://www.gutenberg.org/cache/epub/27581/pg27581.cover.medium.jpg","application/octet-stream":"https://www.gutenberg.org/cache/epub/27581/pg27581-h.zip"},"download_count":65},{"id":52270,"title":"長生殿","authors":[{"name":"Hong, Sheng","birth_year":1645,"death_year":1704}],"translators":[],"subjects":["Chinese drama"],"bookshelves":[],"languages":["zh"],"copyright":false,"media_type":"Text","formats":{"text/html":"https://www.gutenberg.org/ebooks/52270.html.images","application/epub+zip":"https://www.gutenberg.org/ebooks/52270.epub3.images","application/x-mobipocket-ebook":"https://www.gutenberg.org/ebooks/52270.kf8.images","text/plain; charset=us-ascii":"https://www.gutenberg.org/ebooks/52270.txt.utf-8","text/plain; charset=utf-8":"https://www.gutenberg.org/files/52270/52270-0.txt","application/rdf+xml":"https://www.gutenberg.org/ebooks/52270.rdf","image/jpeg":"https://www.gutenberg.org/cache/epub/52270/pg52270.cover.medium.jpg","application/octet-stream":"https://www.gutenberg.org/cache/epub/52270/pg52270-h.zip"},"download_count":65},{"id":7290,"title":"韓詩外傳, Complete","authors":[{"name":"Han, Ying, active 150 B.C.","birth_year":null,"death_year":null}],"translators":[],"subjects":["Shi jing"],"bookshelves":[],"languages":["zh"],"copyright":false,"media_type":"Text","formats":{"text/html":"https://www.gutenberg.org/ebooks/7290.html.images","application/epub+zip":"https://www.gutenberg.org/ebooks/7290.epub3.images","application/x-mobipocket-ebook":"https://www.gutenberg.org/ebooks/7290.kf8.images","text/plain; charset=us-ascii":"https://www.gutenberg.org/ebooks/7290.txt.utf-8","text/plain; charset=utf-8":"https://www.gutenberg.org/files/7290/7290-0.txt","application/rdf+xml":"https://www.gutenberg.org/ebooks/7290.rdf","image/jpeg":"https://www.gutenberg.org/cache/epub/7290/pg7290.cover.medium.jpg","application/octet-stream":"https://www.gutenberg.org/cache/epub/7290/pg7290-h.zip"},"download_count":64},{"id":25369,"title":"金石緣","authors":[],"translators":[],"subjects":["Chinese fiction -- Qing dynasty, 1644-1912"],"bookshelves":[],"languages":["zh"],"copyright":false,"media_type":"Text","formats":{"text/html":"https://www.gutenberg.org/ebooks/25369.html.images","application/epub+zip":"https://www.gutenberg.org/ebooks/25369.epub3.images","application/x-mobipocket-ebook":"https://www.gutenberg.org/ebooks/25369.kf8.images","text/plain; charset=us-ascii":"https://www.gutenberg.org/ebooks/25369.txt.utf-8","text/plain; charset=utf-8":"https://www.gutenberg.org/files/25369/25369-0.txt","application/rdf+xml":"https://www.gutenberg.org/ebooks/25369.rdf","image/jpeg":"https://www.gutenberg.org/cache/epub/25369/pg25369.cover.medium.jpg","application/octet-stream":"https://www.gutenberg.org/cache/epub/25369/pg25369-h.zip"},"download_count":64},{"id":24039,"title":"老子","authors":[{"name":"Laozi","birth_year":null,"death_year":null}],"translators":[],"subjects":["Philosophy, Chinese","Taoism"],"bookshelves":[],"languages":["zh"],"copyright":false,"media_type":"Text","formats":{"text/html":"https://www.gutenberg.org/ebooks/24039.html.images","application/epub+zip":"https://www.gutenberg.org/ebooks/24039.epub3.images","application/x-mobipocket-ebook":"https://www.gutenberg.org/ebooks/24039.kf8.images","text/plain; charset=us-ascii":"https://www.gutenberg.org/ebooks/24039.txt.utf-8","text/plain; charset=utf-8":"https://www.gutenberg.org/files/24039/24039-0.txt","application/rdf+xml":"https://www.gutenberg.org/ebooks/24039.rdf","image/jpeg":"https://www.gutenberg.org/cache/epub/24039/pg24039.cover.medium.jpg","application/octet-stream":"https://www.gutenberg.org/cache/epub/24039/pg24039-h.zip"},"download_count":63},{"id":25195,"title":"風月鑒","authors":[{"name":"Wu, Yitang, active 19 century","birth_year":null,"death_year":null}],"translators":[],"subjects":["Chinese fiction -- Qing dynasty, 1644-1912"],"bookshelves":[],"languages":["zh"],"copyright":false,"media_type":"Text","formats":{"text/html":"https://www.gutenberg.org/ebooks/25195.html.images","application/epub+zip":"https://www.gutenberg.org/ebooks/25195.epub3.images","application/x-mobipocket-ebook":"https://www.gutenberg.org/ebooks/25195.kf8.images","text/plain; charset=us-ascii":"https://www.gutenberg.org/ebooks/25195.txt.utf-8","text/plain; charset=utf-8":"https://www.gutenberg.org/files/25195/25195-0.txt","application/rdf+xml":"https://www.gutenberg.org/ebooks/25195.rdf","image/jpeg":"https://www.gutenberg.org/cache/epub/25195/pg25195.cover.medium.jpg","application/octet-stream":"https://www.gutenberg.org/cache/epub/25195/pg25195-h.zip"},"download_count":63},{"id":26737,"title":"幽閨記","authors":[{"name":"Shi, Hui","birth_year":null,"death_year":null}],"translators":[],"subjects":["Chinese drama"],"bookshelves":[],"languages":["zh"],"copyright":false,"media_type":"Text","formats":{"text/html":"https://www.gutenberg.org/ebooks/26737.html.images","application/epub+zip":"https://www.gutenberg.org/ebooks/26737.epub3.images","application/x-mobipocket-ebook":"https://www.gutenberg.org/ebooks/26737.kf8.images","text/plain; charset=us-ascii":"https://www.gutenberg.org/ebooks/26737.txt.utf-8","text/plain; charset=utf-8":"https://www.gutenberg.org/files/26737/26737-0.txt","application/rdf+xml":"https://www.gutenberg.org/ebooks/26737.rdf","image/jpeg":"https://www.gutenberg.org/cache/epub/26737/pg26737.cover.medium.jpg","application/octet-stream":"https://www.gutenberg.org/cache/epub/26737/pg26737-h.zip"},"download_count":63},{"id":54820,"title":"Brief Account of the English Character","authors":[{"name":"Marjoribanks, Charles","birth_year":1794,"death_year":1833}],"translators":[{"name":"Morrison, Robert","birth_year":1782,"death_year":1834}],"subjects":["British -- China","China -- Commerce -- Great Britain","Great Britain -- Commerce -- China"],"bookshelves":[],"languages":["en","zh"],"copyright":false,"media_type":"Text","formats":{"text/html":"https://www.gutenberg.org/ebooks/54820.html.images","text/html; charset=utf-8":"https://www.gutenberg.org/files/54820/54820-h/54820-h.htm","application/epub+zip":"https://www.gutenberg.org/ebooks/54820.epub3.images","application/x-mobipocket-ebook":"https://www.gutenberg.org/ebooks/54820.kf8.images","text/plain; charset=us-ascii":"https://www.gutenberg.org/ebooks/54820.txt.utf-8","text/plain; charset=utf-8":"https://www.gutenberg.org/files/54820/54820-0.txt","application/rdf+xml":"https://www.gutenberg.org/ebooks/54820.rdf","image/jpeg":"https://www.gutenberg.org/cache/epub/54820/pg54820.cover.medium.jpg","application/octet-stream":"https://www.gutenberg.org/cache/epub/54820/pg54820-h.zip"},"download_count":63},{"id":24098,"title":"金剛般若波羅蜜經","authors":[],"translators":[{"name":"Kumarajiva","birth_year":null,"death_year":null}],"subjects":["Buddhism -- Sacred books"],"bookshelves":[],"languages":["zh"],"copyright":false,"media_type":"Text","formats":{"text/html":"https://www.gutenberg.org/ebooks/24098.html.images","application/epub+zip":"https://www.gutenberg.org/ebooks/24098.epub3.images","application/x-mobipocket-ebook":"https://www.gutenberg.org/ebooks/24098.kf8.images","text/plain; charset=us-ascii":"https://www.gutenberg.org/ebooks/24098.txt.utf-8","text/plain; charset=utf-8":"https://www.gutenberg.org/files/24098/24098-0.txt","application/rdf+xml":"https://www.gutenberg.org/ebooks/24098.rdf","image/jpeg":"https://www.gutenberg.org/cache/epub/24098/pg24098.cover.medium.jpg","application/octet-stream":"https://www.gutenberg.org/cache/epub/24098/pg24098-h.zip"},"download_count":62},{"id":24099,"title":"二十年目睹之怪現狀","authors":[{"name":"Wu, Jianren","birth_year":1866,"death_year":1910}],"translators":[],"subjects":["Chinese fiction -- Qing dynasty, 1644-1912","Short stories, Chinese"],"bookshelves":[],"languages":["zh"],"copyright":false,"media_type":"Text","formats":{"text/html":"https://www.gutenberg.org/ebooks/24099.html.images","application/epub+zip":"https://www.gutenberg.org/ebooks/24099.epub3.images","application/x-mobipocket-ebook":"https://www.gutenberg.org/ebooks/24099.kf8.images","text/plain; charset=us-ascii":"https://www.gutenberg.org/ebooks/24099.txt.utf-8","text/plain; charset=utf-8":"https://www.gutenberg.org/files/24099/24099-0.txt","application/rdf+xml":"https://www.gutenberg.org/ebooks/24099.rdf","image/jpeg":"https://www.gutenberg.org/cache/epub/24099/pg24099.cover.medium.jpg","application/octet-stream":"https://www.gutenberg.org/cache/epub/24099/pg24099-h.zip"},"download_count":62},{"id":24240,"title":"墨子","authors":[{"name":"Mo, Di","birth_year":null,"death_year":null}],"translators":[],"subjects":["Philosophy, Chinese"],"bookshelves":[],"languages":["zh"],"copyright":false,"media_type":"Text","formats":{"text/html":"https://www.gutenberg.org/ebooks/24240.html.images","application/epub+zip":"https://www.gutenberg.org/ebooks/24240.epub3.images","application/x-mobipocket-ebook":"https://www.gutenberg.org/ebooks/24240.kf8.images","text/plain; charset=us-ascii":"https://www.gutenberg.org/ebooks/24240.txt.utf-8","text/plain; charset=utf-8":"https://www.gutenberg.org/files/24240/24240-0.txt","application/rdf+xml":"https://www.gutenberg.org/ebooks/24240.rdf","image/jpeg":"https://www.gutenberg.org/cache/epub/24240/pg24240.cover.medium.jpg","application/octet-stream":"https://www.gutenberg.org/cache/epub/24240/pg24240-h.zip"},"download_count":62},{"id":24294,"title":"警悟鐘","authors":[{"name":"Yunyangchichidaoren, active 17th century-18th century","birth_year":null,"death_year":null}],"translators":[],"subjects":["Chinese fiction -- Qing dynasty, 1644-1912"],"bookshelves":[],"languages":["zh"],"copyright":false,"media_type":"Text","formats":{"text/html":"https://www.gutenberg.org/ebooks/24294.html.images","application/epub+zip":"https://www.gutenberg.org/ebooks/24294.epub3.images","application/x-mobipocket-ebook":"https://www.gutenberg.org/ebooks/24294.kf8.images","text/plain; charset=us-ascii":"https://www.gutenberg.org/ebooks/24294.txt.utf-8","text/plain; charset=utf-8":"https://www.gutenberg.org/files/24294/24294-0.txt","application/rdf+xml":"https://www.gutenberg.org/ebooks/24294.rdf","image/jpeg":"https://www.gutenberg.org/cache/epub/24294/pg24294.cover.medium.jpg","application/octet-stream":"https://www.gutenberg.org/cache/epub/24294/pg24294-h.zip"},"download_count":62},{"id":25162,"title":"池北偶談","authors":[{"name":"Wang, Shizhen","birth_year":1634,"death_year":1711}],"translators":[],"subjects":["China -- History -- Qing dynasty, 1644-1912 -- Anecdotes"],"bookshelves":[],"languages":["zh"],"copyright":false,"media_type":"Text","formats":{"text/html":"https://www.gutenberg.org/ebooks/25162.html.images","application/epub+zip":"https://www.gutenberg.org/ebooks/25162.epub3.images","application/x-mobipocket-ebook":"https://www.gutenberg.org/ebooks/25162.kf8.images","text/plain; charset=us-ascii":"https://www.gutenberg.org/ebooks/25162.txt.utf-8","text/plain; charset=utf-8":"https://www.gutenberg.org/files/25162/25162-0.txt","application/rdf+xml":"https://www.gutenberg.org/ebooks/25162.rdf","image/jpeg":"https://www.gutenberg.org/cache/epub/25162/pg25162.cover.medium.jpg","application/octet-stream":"https://www.gutenberg.org/cache/epub/25162/pg25162-h.zip"},"download_count":61},{"id":27119,"title":"比目魚","authors":[{"name":"Aiyuezhuren","birth_year":null,"death_year":null}],"translators":[],"subjects":["Chinese fiction"],"bookshelves":[],"languages":["zh"],"copyright":false,"media_type":"Text","formats":{"text/html":"https://www.gutenberg.org/ebooks/27119.html.images","application/epub+zip":"https://www.gutenberg.org/ebooks/27119.epub3.images","application/x-mobipocket-ebook":"https://www.gutenberg.org/ebooks/27119.kf8.images","text/plain; charset=us-ascii":"https://www.gutenberg.org/ebooks/27119.txt.utf-8","text/plain; charset=utf-8":"https://www.gutenberg.org/files/27119/27119-0.txt","application/rdf+xml":"https://www.gutenberg.org/ebooks/27119.rdf","image/jpeg":"https://www.gutenberg.org/cache/epub/27119/pg27119.cover.medium.jpg","application/octet-stream":"https://www.gutenberg.org/cache/epub/27119/pg27119-h.zip"},"download_count":61},{"id":7271,"title":"搜神記 volume 11-14","authors":[{"name":"Gan, Bao, active 317-322","birth_year":null,"death_year":null}],"translators":[],"subjects":["Legends -- China"],"bookshelves":[],"languages":["zh"],"copyright":false,"media_type":"Text","formats":{"text/html":"https://www.gutenberg.org/ebooks/7271.html.images","application/epub+zip":"https://www.gutenberg.org/ebooks/7271.epub3.images","application/x-mobipocket-ebook":"https://www.gutenberg.org/ebooks/7271.kf8.images","text/plain; charset=us-ascii":"https://www.gutenberg.org/ebooks/7271.txt.utf-8","text/plain; charset=utf-8":"https://www.gutenberg.org/files/7271/7271-0.txt","application/rdf+xml":"https://www.gutenberg.org/ebooks/7271.rdf","image/jpeg":"https://www.gutenberg.org/cache/epub/7271/pg7271.cover.medium.jpg","application/octet-stream":"https://www.gutenberg.org/cache/epub/7271/pg7271-h.zip"},"download_count":60},{"id":24178,"title":"孟子","authors":[{"name":"Mencius","birth_year":-385,"death_year":-289}],"translators":[],"subjects":["Conduct of life -- Early works to 1800","Philosophy, Chinese -- Early works to 1800","Philosophy, Confucian -- Early works to 1800"],"bookshelves":[],"languages":["zh"],"copyright":false,"media_type":"Text","formats":{"text/html":"https://www.gutenberg.org/ebooks/24178.html.images","application/epub+zip":"https://www.gutenberg.org/ebooks/24178.epub3.images","application/x-mobipocket-ebook":"https://www.gutenberg.org/ebooks/24178.kf8.images","text/plain; charset=us-ascii":"https://www.gutenberg.org/ebooks/24178.txt.utf-8","text/plain; charset=utf-8":"https://www.gutenberg.org/files/24178/24178-0.txt","application/rdf+xml":"https://www.gutenberg.org/ebooks/24178.rdf","image/jpeg":"https://www.gutenberg.org/cache/epub/24178/pg24178.cover.medium.jpg","application/octet-stream":"https://www.gutenberg.org/cache/epub/24178/pg24178-h.zip"},"download_count":60},{"id":24234,"title":"桃花扇","authors":[{"name":"Kong, Shangren","birth_year":1648,"death_year":1718}],"translators":[],"subjects":["Chinese drama"],"bookshelves":[],"languages":["zh"],"copyright":false,"media_type":"Text","formats":{"text/html":"https://www.gutenberg.org/ebooks/24234.html.images","application/epub+zip":"https://www.gutenberg.org/ebooks/24234.epub3.images","application/x-mobipocket-ebook":"https://www.gutenberg.org/ebooks/24234.kf8.images","text/plain; charset=us-ascii":"https://www.gutenberg.org/ebooks/24234.txt.utf-8","text/plain; charset=utf-8":"https://www.gutenberg.org/files/24234/24234-0.txt","application/rdf+xml":"https://www.gutenberg.org/ebooks/24234.rdf","image/jpeg":"https://www.gutenberg.org/cache/epub/24234/pg24234.cover.medium.jpg","application/octet-stream":"https://www.gutenberg.org/cache/epub/24234/pg24234-h.zip"},"download_count":60},{"id":24272,"title":"傷寒論","authors":[{"name":"Zhang, Zhongjing, active 168-196","birth_year":null,"death_year":null}],"translators":[],"subjects":["Medicine, Ancient","Medicine, Chinese -- Early works to 1800","Medicine, Chinese -- Formulae, receipts, prescriptions","Medicine, Chinese -- Terminology"],"bookshelves":[],"languages":["zh"],"copyright":false,"media_type":"Text","formats":{"text/html":"https://www.gutenberg.org/ebooks/24272.html.images","application/epub+zip":"https://www.gutenberg.org/ebooks/24272.epub3.images","application/x-mobipocket-ebook":"https://www.gutenberg.org/ebooks/24272.kf8.images","text/plain; charset=us-ascii":"https://www.gutenberg.org/ebooks/24272.txt.utf-8","text/plain; charset=utf-8":"https://www.gutenberg.org/files/24272/24272-0.txt","application/rdf+xml":"https://www.gutenberg.org/ebooks/24272.rdf","image/jpeg":"https://www.gutenberg.org/cache/epub/24272/pg24272.cover.medium.jpg","application/octet-stream":"https://www.gutenberg.org/cache/epub/24272/pg24272-h.zip"},"download_count":60},{"id":25251,"title":"八段錦","authors":[{"name":"Xingshijushi","birth_year":null,"death_year":null}],"translators":[],"subjects":["Chinese fiction"],"bookshelves":[],"languages":["zh"],"copyright":false,"media_type":"Text","formats":{"text/html":"https://www.gutenberg.org/ebooks/25251.html.images","application/epub+zip":"https://www.gutenberg.org/ebooks/25251.epub3.images","application/x-mobipocket-ebook":"https://www.gutenberg.org/ebooks/25251.kf8.images","text/plain; charset=us-ascii":"https://www.gutenberg.org/ebooks/25251.txt.utf-8","text/plain; charset=utf-8":"https://www.gutenberg.org/files/25251/25251-0.txt","application/rdf+xml":"https://www.gutenberg.org/ebooks/25251.rdf","image/jpeg":"https://www.gutenberg.org/cache/epub/25251/pg25251.cover.medium.jpg","application/octet-stream":"https://www.gutenberg.org/cache/epub/25251/pg25251-h.zip"},"download_count":60},{"id":25393,"title":"施公案","authors":[{"name":"Anonymous","birth_year":null,"death_year":null}],"translators":[],"subjects":["Detective and mystery stories, Chinese","Shi, Shilun, -1722 -- Fiction"],"bookshelves":[],"languages":["zh"],"copyright":false,"media_type":"Text","formats":{"text/html":"https://www.gutenberg.org/ebooks/25393.html.images","application/epub+zip":"https://www.gutenberg.org/ebooks/25393.epub3.images","application/x-mobipocket-ebook":"https://www.gutenberg.org/ebooks/25393.kf8.images","text/plain; charset=us-ascii":"https://www.gutenberg.org/ebooks/25393.txt.utf-8","text/plain; charset=utf-8":"https://www.gutenberg.org/files/25393/25393-0.txt","application/rdf+xml":"https://www.gutenberg.org/ebooks/25393.rdf","image/jpeg":"https://www.gutenberg.org/cache/epub/25393/pg25393.cover.medium.jpg","application/octet-stream":"https://www.gutenberg.org/cache/epub/25393/pg25393-h.zip"},"download_count":60}]}