{"count":444,"next":"http://129.241.150.113:8000/books/?languages=zh&page=10","previous":"http://129.241.150.113:8000/books/?languages=zh&page=8","results":[{"id":52238,"title":"枕中記","authors":[{"name":"Shen, Jiji","birth_year":null,"death_year":null}],"translators":[],"subjects":["Chinese fiction -- Tang dynasty, 618-907"],"bookshelves":[],"languages":["zh"],"copyright":false,"media_type":"Text","formats":{"text/html":"https://www.gutenberg.org/ebooks/52238.html.images","application/epub+zip":"https://www.gutenberg.org/ebooks/52238.epub3.images","application/x-mobipocket-ebook":"https://www.gutenberg.org/ebooks/52238.kf8.images","text/plain; charset=us-ascii":"https://www.gutenberg.org/ebooks/52238.txt.utf-8","text/plain; charset=utf-8":"https://www.gutenberg.org/files/52238/52238-0.txt","application/rdf+xml":"https://www.gutenberg.org/ebooks/52238.rdf","image/jpeg":"https://www.gutenberg.org/cache/epub/52238/pg52238.cover.medium.jpg","application/octet-stream":"https://www.gutenberg.org/cache/epub/52238/pg52238-h.zip"},"download_count":49},{"id":54670,"title":"裨海紀遊","authors":[{"name":"Yu, Yonghe, active 1691-1697","birth_year":null,"death_year":null}],"translators":[],"subjects":["Taiwan -- Description and travel","Taiwan -- History -- 17th century","Taiwan -- Social life and customs","Yu, Yonghe, active 1691-1697 -- Travel"],"bookshelves":[],"languages":["zh"],"copyright":false,"media_type":"Text","formats":{"text/html":"https://www.gutenberg.org/ebooks/54670.html.images","application/epub+zip":"https://www.gutenberg.org/ebooks/54670.epub3.images","application/x-mobipocket-ebook":"https://www.gutenberg.org/ebooks/54670.kf8.images","text/plain; charset=us-ascii":"https://www.gutenberg.org/ebooks/54670.txt.utf-8","text/plain; charset=utf-8":"https://www.gutenberg.org/files/54670/54670-0.txt","application/rdf+xml":"https://www.gutenberg.org/ebooks/54670.rdf","image/jpeg":"https://www.gutenberg.org/cache/epub/54670/pg54670.cover.medium.jpg","application/octet-stream":"https://www.gutenberg.org/cache/epub/54670/pg54670-h.zip"},"download_count":49},{"id":7332,"title":"說苑","authors":[{"name":"Liu, Xiang","birth_year":null,"death_year":null}],"translators":[],"subjects":["China -- History -- Anecdotes"],"bookshelves":[],"languages":["zh"],"copyright":false,"media_type":"Text","formats":{"text/html":"https://www.gutenberg.org/ebooks/7332.html.images","application/epub+zip":"https://www.gutenberg.org/ebooks/7332.epub3.images","application/x-mobipocket-ebook":"https://www.gutenberg.org/ebooks/7332.kf8.images","text/plain; charset=us-ascii":"https://www.gutenberg.org/ebooks/7332.txt.utf-8","text/plain; charset=utf-8":"https://www.gutenberg.org/files/7332/7332-0.txt","application/rdf+xml":"https://www.gutenberg.org/ebooks/7332.rdf","image/jpeg":"https://www.gutenberg.org/cache/epub/7332/pg7332.cover.medium.jpg","application/octet-stream":"https://www.gutenberg.org/cache/epub/7332/pg7332-h.zip"},"download_count":48},{"id":7367,"title":"管子","authors":[{"name":"Guan, Zhong","birth_year":null,"death_year":-645}],"translators":[],"subjects":["Chinese classics","Philosophy, Chinese"],"bookshelves":[],"languages":["zh"],"copyright":false,"media_type":"Text","formats":{"text/html":"https://www.gutenberg.org/ebooks/7367.html.images","application/epub+zip":"https://www.gutenberg.org/ebooks/7367.epub3.images","application/x-mobipocket-ebook":"https://www.gutenberg.org/ebooks/7367.kf8.images","text/plain; charset=us-ascii":"https://www.gutenberg.org/ebooks/7367.txt.utf-8","text/plain; charset=utf-8":"https://www.gutenberg.org/files/7367/7367-0.txt","application/rdf+xml":"https://www.gutenberg.org/ebooks/7367.rdf","image/jpeg":"https://www.gutenberg.org/cache/epub/7367/pg7367.cover.medium.jpg","application/octet-stream":"https://www.gutenberg.org/cache/epub/7367/pg7367-h.zip"},"download_count":48},{"id":24106,"title":"安樂集","authors":[{"name":"Daochuo","birth_year":562,"death_year":645}],"translators":[],"subjects":["Pure Land Buddhism -- Doctrines -- Early works to 1800"],"bookshelves":[],"languages":["zh"],"copyright":false,"media_type":"Text","formats":{"text/html":"https://www.gutenberg.org/ebooks/24106.html.images","application/epub+zip":"https://www.gutenberg.org/ebooks/24106.epub3.images","application/x-mobipocket-ebook":"https://www.gutenberg.org/ebooks/24106.kf8.images","text/plain; charset=us-ascii":"https://www.gutenberg.org/ebooks/24106.txt.utf-8","text/plain; charset=utf-8":"https://www.gutenberg.org/files/24106/24106-0.txt","application/rdf+xml":"https://www.gutenberg.org/ebooks/24106.rdf","image/jpeg":"https://www.gutenberg.org/cache/epub/24106/pg24106.cover.medium.jpg","application/octet-stream":"https://www.gutenberg.org/cache/epub/24106/pg24106-h.zip"},"download_count":48},{"id":24139,"title":"官場現形記","authors":[{"name":"Li, Boyuan","birth_year":1867,"death_year":1906}],"translators":[],"subjects":["China -- Social life and customs -- 1644-1912 -- Fiction"],"bookshelves":[],"languages":["zh"],"copyright":false,"media_type":"Text","formats":{"text/html":"https://www.gutenberg.org/ebooks/24139.html.images","application/epub+zip":"https://www.gutenberg.org/ebooks/24139.epub3.images","application/x-mobipocket-ebook":"https://www.gutenberg.org/ebooks/24139.kf8.images","text/plain; charset=us-ascii":"https://www.gutenberg.org/ebooks/24139.txt.utf-8","text/plain; charset=utf-8":"https://www.gutenberg.org/files/24139/24139-0.txt","application/rdf+xml":"https://www.gutenberg.org/ebooks/24139.rdf","image/jpeg":"https://www.gutenberg.org/cache/epub/24139/pg24139.cover.medium.jpg","application/octet-stream":"https://www.gutenberg.org/cache/epub/24139/pg24139-h.zip"},"download_count":48},{"id":24273,"title":"西湖佳話","authors":[{"name":"Mo, Langzi, pseud.","birth_year":null,"death_year":null}],"translators":[],"subjects":["Hangzhou (China) -- History -- Fiction","West Lake (China) -- History -- Fiction"],"bookshelves":[],"languages":["zh"],"copyright":false,"media_type":"Text","formats":{"text/html":"https://www.gutenberg.org/ebooks/24273.html.images","application/epub+zip":"https://www.gutenberg.org/ebooks/24273.epub3.images","application/x-mobipocket-ebook":"https://www.gutenberg.org/ebooks/24273.kf8.images","text/plain; charset=us-ascii":"https://www.gutenberg.org/ebooks/24273.txt.utf-8","text/plain; charset=utf-8":"https://www.gutenberg.org/files/24273/24273-0.txt","application/rdf+xml":"https://www.gutenberg.org/ebooks/24273.rdf","image/jpeg":"https://www.gutenberg.org/cache/epub/24273/pg24273.cover.medium.jpg","application/octet-stream":"https://www.gutenberg.org/cache/epub/24273/pg24273-h.zip"},"download_count":48},{"id":27294,"title":"方言","authors":[{"name":"Yang, Xiong","birth_year":-53,"death_year":18}],"translators":[],"subjects":["Chinese language -- Dialects"],"bookshelves":[],"languages":["zh"],"copyright":false,"media_type":"Text","formats":{"text/html":"https://www.gutenberg.org/ebooks/27294.html.images","application/epub+zip":"https://www.gutenberg.org/ebooks/27294.epub3.images","application/x-mobipocket-ebook":"https://www.gutenberg.org/ebooks/27294.kf8.images","text/plain; charset=us-ascii":"https://www.gutenberg.org/ebooks/27294.txt.utf-8","text/plain; charset=utf-8":"https://www.gutenberg.org/files/27294/27294-0.txt","application/rdf+xml":"https://www.gutenberg.org/ebooks/27294.rdf","image/jpeg":"https://www.gutenberg.org/cache/epub/27294/pg27294.cover.medium.jpg","application/octet-stream":"https://www.gutenberg.org/cache/epub/27294/pg27294-h.zip"},"download_count":48},{"id":43014,"title":"晁氏儒言 一卷","authors":[{"name":"Chao, Yuezhi","birth_year":1059,"death_year":1129}],"translators":[],"subjects":["Chinese literature"],"bookshelves":[],"languages":["zh"],"copyright":false,"media_type":"Text","formats":{"text/html":"https://www.gutenberg.org/ebooks/43014.html.images","text/html; charset=utf-8":"https://www.gutenberg.org/files/43014/43014-h/43014-h.htm","application/epub+zip":"https://www.gutenberg.org/ebooks/43014.epub3.images","application/x-mobipocket-ebook":"https://www.gutenberg.org/ebooks/43014.kf8.images","text/plain; charset=us-ascii":"https://www.gutenberg.org/ebooks/43014.txt.utf-8","text/plain; charset=utf-8":"https://www.gutenberg.org/files/43014/43014-0.txt","application/rdf+xml":"https://www.gutenberg.org/ebooks/43014.rdf","image/jpeg":"https://www.gutenberg.org/cache/epub/43014/pg43014.cover.medium.jpg","application/octet-stream":"https://www.gutenberg.org/cache/epub/43014/pg43014-h.zip"},"download_count":48},{"id":56291,"title":"老殘遊記續集","authors":[{"name":"Liu, E","birth_year":1857,"death_year":1909}],"translators":[],"subjects":["Chinese fiction -- Qing dynasty, 1644-1912"],"bookshelves":[],"languages":["zh"],"copyright":false,"media_type":"Text","formats":{"text/html":"https://www.gutenberg.org/ebooks/56291.html.images","application/epub+zip":"https://www.gutenberg.org/ebooks/56291.epub3.images","application/x-mobipocket-ebook":"https://www.gutenberg.org/ebooks/56291.kf8.images","text/plain; charset=us-ascii":"https://www.gutenberg.org/ebooks/56291.txt.utf-8","text/plain; charset=utf-8":"https://www.gutenberg.org/files/56291/56291-0.txt","application/rdf+xml":"https://www.gutenberg.org/ebooks/56291.rdf","image/jpeg":"https://www.gutenberg.org/cache/epub/56291/pg56291.cover.medium.jpg","application/octet-stream":"https://www.gutenberg.org/cache/epub/56291/pg56291-h.zip"},"download_count":48},{"id":23844,"title":"六祖壇經","authors":[{"name":"Huineng","birth_year":638,"death_year":713}],"translators":[],"subjects":["Zen Buddhism -- Doctrines -- Early works to 1800"],"bookshelves":[],"languages":["zh"],"copyright":false,"media_type":"Text","formats":{"text/html":"https://www.gutenberg.org/ebooks/23844.html.images","application/epub+zip":"https://www.gutenberg.org/ebooks/23844.epub3.images","application/x-mobipocket-ebook":"https://www.gutenberg.org/ebooks/23844.kf8.images","text/plain; charset=us-ascii":"https://www.gutenberg.org/ebooks/23844.txt.utf-8","text/plain; charset=utf-8":"https://www.gutenberg.org/files/23844/23844-0.txt","application/rdf+xml":"https://www.gutenberg.org/ebooks/23844.rdf","image/jpeg":"https://www.gutenberg.org/cache/epub/23844/pg23844.cover.medium.jpg","application/octet-stream":"https://www.gutenberg.org/cache/epub/23844/pg23844-h.zip"},"download_count":47},{"id":25168,"title":"鬼谷子","authors":[{"name":"Guiguzi, active 4th century B.C.","birth_year":null,"death_year":null}],"translators":[],"subjects":["Military art and science -- China -- Early works to 1800","Philosophy, Chinese"],"bookshelves":[],"languages":["zh"],"copyright":false,"media_type":"Text","formats":{"text/html":"https://www.gutenberg.org/ebooks/25168.html.images","application/epub+zip":"https://www.gutenberg.org/ebooks/25168.epub3.images","application/x-mobipocket-ebook":"https://www.gutenberg.org/ebooks/25168.kf8.images","text/plain; charset=us-ascii":"https://www.gutenberg.org/ebooks/25168.txt.utf-8","text/plain; charset=utf-8":"https://www.gutenberg.org/files/25168/25168-0.txt","application/rdf+xml":"https://www.gutenberg.org/ebooks/25168.rdf","image/jpeg":"https://www.gutenberg.org/cache/epub/25168/pg25168.cover.medium.jpg","application/octet-stream":"https://www.gutenberg.org/cache/epub/25168/pg25168-h.zip"},"download_count":47},{"id":25379,"title":"文明小史","authors":[{"name":"Li, Boyuan","birth_year":1867,"death_year":1906}],"translators":[],"subjects":["Chinese fiction -- Qing dynasty, 1644-1912"],"bookshelves":[],"languages":["zh"],"copyright":false,"media_type":"Text","formats":{"text/html":"https://www.gutenberg.org/ebooks/25379.html.images","application/epub+zip":"https://www.gutenberg.org/ebooks/25379.epub3.images","application/x-mobipocket-ebook":"https://www.gutenberg.org/ebooks/25379.kf8.images","text/plain; charset=us-ascii":"https://www.gutenberg.org/ebooks/25379.txt.utf-8","text/plain; charset=utf-8":"https://www.gutenberg.org/files/25379/25379-0.txt","application/rdf+xml":"https://www.gutenberg.org/ebooks/25379.rdf","image/jpeg":"https://www.gutenberg.org/cache/epub/25379/pg25379.cover.medium.jpg","application/octet-stream":"https://www.gutenberg.org/cache/epub/25379/pg25379-h.zip"},"download_count":47},{"id":52269,"title":"幼學瓊林","authors":[{"name":"Cheng, Yunsheng","birth_year":null,"death_year":null}],"translators":[],"subjects":["Chinese language -- Readers"],"bookshelves":[],"languages":["zh"],"copyright":false,"media_type":"Text","formats":{"text/html":"https://www.gutenberg.org/ebooks/52269.html.images","application/epub+zip":"https://www.gutenberg.org/ebooks/52269.epub3.images","application/x-mobipocket-ebook":"https://www.gutenberg.org/ebooks/52269.kf8.images","text/plain; charset=us-ascii":"https://www.gutenberg.org/ebooks/52269.txt.utf-8","text/plain; charset=utf-8":"https://www.gutenberg.org/files/52269/52269-0.txt","application/rdf+xml":"https://www.gutenberg.org/ebooks/52269.rdf","image/jpeg":"https://www.gutenberg.org/cache/epub/52269/pg52269.cover.medium.jpg","application/octet-stream":"https://www.gutenberg.org/cache/epub/52269/pg52269-h.zip"},"download_count":47},{"id":23915,"title":"虬髯客傳","authors":[{"name":"Du, Guangting","birth_year":850,"death_year":933}],"translators":[],"subjects":["Short stories, Chinese"],"bookshelves":[],"languages":["zh"],"copyright":false,"media_type":"Text","formats":{"text/html":"https://www.gutenberg.org/ebooks/23915.html.images","application/epub+zip":"https://www.gutenberg.org/ebooks/23915.epub3.images","application/x-mobipocket-ebook":"https://www.gutenberg.org/ebooks/23915.kf8.images","text/plain; charset=us-ascii":"https://www.gutenberg.org/ebooks/23915.txt.utf-8","text/plain; charset=utf-8":"https://www.gutenberg.org/files/23915/23915-0.txt","application/rdf+xml":"https://www.gutenberg.org/ebooks/23915.rdf","image/jpeg":"https://www.gutenberg.org/cache/epub/23915/pg23915.cover.medium.jpg","application/octet-stream":"https://www.gutenberg.org/cache/epub/23915/pg23915-h.zip"},"download_count":46},{"id":25360,"title":"孟子字義疏證","authors":[{"name":"Dai, Zhen","birth_year":1724,"death_year":1777}],"translators":[],"subjects":["Mencius. Mengzi"],"bookshelves":[],"languages":["zh"],"copyright":false,"media_type":"Text","formats":{"text/html":"https://www.gutenberg.org/ebooks/25360.html.images","application/epub+zip":"https://www.gutenberg.org/ebooks/25360.epub3.images","application/x-mobipocket-ebook":"https://www.gutenberg.org/ebooks/25360.kf8.images","text/plain; charset=us-ascii":"https://www.gutenberg.org/ebooks/25360.txt.utf-8","text/plain; charset=utf-8":"https://www.gutenberg.org/files/25360/25360-0.txt","application/rdf+xml":"https://www.gutenberg.org/ebooks/25360.rdf","image/jpeg":"https://www.gutenberg.org/cache/epub/25360/pg25360.cover.medium.jpg","application/octet-stream":"https://www.gutenberg.org/cache/epub/25360/pg25360-h.zip"},"download_count":46},{"id":25417,"title":"李賀詩選","authors":[{"name":"Li, He","birth_year":790,"death_year":816}],"translators":[],"subjects":["Chinese poetry -- Tang dynasty, 618-907"],"bookshelves":[],"languages":["zh"],"copyright":false,"media_type":"Text","formats":{"text/html":"https://www.gutenberg.org/ebooks/25417.html.images","application/epub+zip":"https://www.gutenberg.org/ebooks/25417.epub3.images","application/x-mobipocket-ebook":"https://www.gutenberg.org/ebooks/25417.kf8.images","text/plain; charset=us-ascii":"https://www.gutenberg.org/ebooks/25417.txt.utf-8","text/plain; charset=utf-8":"https://www.gutenberg.org/files/25417/25417-0.txt","application/rdf+xml":"https://www.gutenberg.org/ebooks/25417.rdf","image/jpeg":"https://www.gutenberg.org/cache/epub/25417/pg25417.cover.medium.jpg","application/octet-stream":"https://www.gutenberg.org/cache/epub/25417/pg25417-h.zip"},"download_count":46},{"id":26887,"title":"桯史","authors":[{"name":"Yue, Ke","birth_year":1183,"death_year":1234}],"translators":[],"subjects":["China -- History -- Song dynasty, 960-1279 -- Anecdotes"],"bookshelves":[],"languages":["zh"],"copyright":false,"media_type":"Text","formats":{"text/html":"https://www.gutenberg.org/ebooks/26887.html.images","application/epub+zip":"https://www.gutenberg.org/ebooks/26887.epub3.images","application/x-mobipocket-ebook":"https://www.gutenberg.org/ebooks/26887.kf8.images","text/plain; charset=us-ascii":"https://www.gutenberg.org/ebooks/26887.txt.utf-8","text/plain; charset=utf-8":"https://www.gutenberg.org/files/26887/26887-0.txt","application/rdf+xml":"https://www.gutenberg.org/ebooks/26887.rdf","image/jpeg":"https://www.gutenberg.org/cache/epub/26887/pg26887.cover.medium.jpg","application/octet-stream":"https://www.gutenberg.org/cache/epub/26887/pg26887-h.zip"},"download_count":46},{"id":52275,"title":"孔雀東南飛","authors":[{"name":"Unknown","birth_year":null,"death_year":null}],"translators":[],"subjects":["Chinese poetry -- Qin and Han dynasties, 221 B.C.-220 A.D.","Yue fu (Chinese poetry)"],"bookshelves":[],"languages":["zh"],"copyright":false,"media_type":"Text","formats":{"text/html":"https://www.gutenberg.org/ebooks/52275.html.images","application/epub+zip":"https://www.gutenberg.org/ebooks/52275.epub3.images","application/x-mobipocket-ebook":"https://www.gutenberg.org/ebooks/52275.kf8.images","text/plain; charset=us-ascii":"https://www.gutenberg.org/ebooks/52275.txt.utf-8","text/plain; charset=utf-8":"https://www.gutenberg.org/files/52275/52275-0.txt","application/rdf+xml":"https://www.gutenberg.org/ebooks/52275.rdf","image/jpeg":"https://www.gutenberg.org/cache/epub/52275/pg52275.cover.medium.jpg","application/octet-stream":"https://www.gutenberg.org/cache/epub/52275/pg52275-h.zip"},"download_count":46},{"id":7341,"title":"列子","authors":[{"name":"Liezi, active 4th century B.C.","birth_year":null,"death_year":null}],"translators":[],"subjects":["China -- Politics and government -- 221 B.C.-960 A.D.","China -- Politics and government -- 960-1644","China -- Politics and government -- To 221 B.C.","Chinese classics","Taoism"],"bookshelves":[],"languages":["zh"],"copyright":false,"media_type":"Text","formats":{"text/html":"https://www.gutenberg.org/ebooks/7341.html.images","application/epub+zip":"https://www.gutenberg.org/ebooks/7341.epub3.images","application/x-mobipocket-ebook":"https://www.gutenberg.org/ebooks/7341.kf8.images","text/plain; charset=us-ascii":"https://www.gutenberg.org/ebooks/7341.txt.utf-8","text/plain; charset=utf-8":"https://www.gutenberg.org/files/7341/7341-0.txt","application/rdf+xml":"https://www.gutenberg.org/ebooks/7341.rdf","image/jpeg":"https://www.gutenberg.org/cache/epub/7341/pg7341.cover.medium.jpg","application/octet-stream":"https://www.gutenberg.org/cache/epub/7341/pg7341-h.zip"},"download_count":45},{"id":24316,"title":"花間集","authors":[{"name":"Zhao, Chongzuo, active 934-965","birth_year":null,"death_year":null}],"translators":[],"subjects":["Chinese poetry -- Five dynasties and the Ten kingdoms, 907-979","Chinese poetry -- Tang dynasty, 618-907","Ci (Chinese poetry)"],"bookshelves":[],"languages":["zh"],"copyright":false,"media_type":"Text","formats":{"text/html":"https://www.gutenberg.org/ebooks/24316.html.images","application/epub+zip":"https://www.gutenberg.org/ebooks/24316.epub3.images","application/x-mobipocket-ebook":"https://www.gutenberg.org/ebooks/24316.kf8.images","text/plain; charset=us-ascii":"https://www.gutenberg.org/ebooks/24316.txt.utf-8","text/plain; charset=utf-8":"https://www.gutenberg.org/files/24316/24316-0.txt","application/rdf+xml":"https://www.gutenberg.org/ebooks/24316.rdf","image/jpeg":"https://www.gutenberg.org/cache/epub/24316/pg24316.cover.medium.jpg","application/octet-stream":"https://www.gutenberg.org/cache/epub/24316/pg24316-h.zip"},"download_count":45},{"id":24733,"title":"辛棄疾詞選","authors":[{"name":"Xin, Qiji","birth_year":1140,"death_year":1207}],"translators":[],"subjects":["Chinese poetry -- Song dynasty, 960-1279","Ci (Chinese poetry)"],"bookshelves":[],"languages":["zh"],"copyright":false,"media_type":"Text","formats":{"text/html":"https://www.gutenberg.org/ebooks/24733.html.images","application/epub+zip":"https://www.gutenberg.org/ebooks/24733.epub3.images","application/x-mobipocket-ebook":"https://www.gutenberg.org/ebooks/24733.kf8.images","text/plain; charset=us-ascii":"https://www.gutenberg.org/ebooks/24733.txt.utf-8","text/plain; charset=utf-8":"https://www.gutenberg.org/files/24733/24733-0.txt","application/rdf+xml":"https://www.gutenberg.org/ebooks/24733.rdf","image/jpeg":"https://www.gutenberg.org/cache/epub/24733/pg24733.cover.medium.jpg","application/octet-stream":"https://www.gutenberg.org/cache/epub/24733/pg24733-h.zip"},"download_count":45},{"id":25368,"title":"西京雜記","authors":[{"name":"Ge, Hong","birth_year":284,"death_year":364}],"translators":[],"subjects":["China -- History -- Han dynasty, 202 B.C.-220 A.D. -- Anecdotes"],"bookshelves":[],"languages":["zh"],"copyright":false,"media_type":"Text","formats":{"text/html":"https://www.gutenberg.org/ebooks/25368.html.images","application/epub+zip":"https://www.gutenberg.org/ebooks/25368.epub3.images","application/x-mobipocket-ebook":"https://www.gutenberg.org/ebooks/25368.kf8.images","text/plain; charset=us-ascii":"https://www.gutenberg.org/ebooks/25368.txt.utf-8","text/plain; charset=utf-8":"https://www.gutenberg.org/files/25368/25368-0.txt","application/rdf+xml":"https://www.gutenberg.org/ebooks/25368.rdf","image/jpeg":"https://www.gutenberg.org/cache/epub/25368/pg25368.cover.medium.jpg","application/octet-stream":"https://www.gutenberg.org/cache/epub/25368/pg25368-h.zip"},"download_count":45},{"id":26729,"title":"二刻拍案驚奇","authors":[{"name":"Ling, Mengchu","birth_year":1580,"death_year":1644}],"translators":[],"subjects":["Chinese fiction -- Ming dynasty, 1368-1644"],"bookshelves":[],"languages":["zh"],"copyright":false,"media_type":"Text","formats":{"text/html":"https://www.gutenberg.org/ebooks/26729.html.images","application/epub+zip":"https://www.gutenberg.org/ebooks/26729.epub3.images","application/x-mobipocket-ebook":"https://www.gutenberg.org/ebooks/26729.kf8.images","text/plain; charset=us-ascii":"https://www.gutenberg.org/ebooks/26729.txt.utf-8","text/plain; charset=utf-8":"https://www.gutenberg.org/files/26729/26729-0.txt","application/rdf+xml":"https://www.gutenberg.org/ebooks/26729.rdf","image/jpeg":"https://www.gutenberg.org/cache/epub/26729/pg26729.cover.medium.jpg","application/octet-stream":"https://www.gutenberg.org/cache/epub/26729/pg26729-h.zip"},"download_count":45},{"id":26738,"title":"畫圖緣","authors":[{"name":"Tianhuazangzhuren","birth_year":null,"death_year":null}],"translators":[],"subjects":[],"bookshelves":[],"languages":["zh"],"copyright":false,"media_type":"Text","formats":{"text/html":"https://www.gutenberg.org/ebooks/26738.html.images","application/epub+zip":"https://www.gutenberg.org/ebooks/26738.epub3.images","application/x-mobipocket-ebook":"https://www.gutenberg.org/ebooks/26738.kf8.images","text/plain; charset=us-ascii":"https://www.gutenberg.org/ebooks/26738.txt.utf-8","text/plain; charset=utf-8":"https://www.gutenberg.org/files/26738/26738-0.txt","application/rdf+xml":"https://www.gutenberg.org/ebooks/26738.rdf","image/jpeg":"https://www.gutenberg.org/cache/epub/26738/pg26738.cover.medium.jpg","application/octet-stream":"https://www.gutenberg.org/cache/epub/26738/pg26738-h.zip"},"download_count":45},{"id":26886,"title":"梁公九諫","authors":[{"name":"Unknown","birth_year":null,"death_year":null}],"translators":[],"subjects":[],"bookshelves":[],"languages":["zh"],"copyright":false,"media_type":"Text","formats":{"text/html":"https://www.gutenberg.org/ebooks/26886.html.images","application/epub+zip":"https://www.gutenberg.org/ebooks/26886.epub3.images","application/x-mobipocket-ebook":"https://www.gutenberg.org/ebooks/26886.kf8.images","text/plain; charset=us-ascii":"https://www.gutenberg.org/ebooks/26886.txt.utf-8","text/plain; charset=utf-8":"https://www.gutenberg.org/files/26886/26886-0.txt","application/rdf+xml":"https://www.gutenberg.org/ebooks/26886.rdf","image/jpeg":"https://www.gutenberg.org/cache/epub/26886/pg26886.cover.medium.jpg","application/octet-stream":"https://www.gutenberg.org/cache/epub/26886/pg26886-h.zip"},"download_count":45},{"id":52271,"title":"漢武帝別國洞冥記","authors":[{"name":"Guo, Xian, active 1st century","birth_year":null,"death_year":null}],"translators":[],"subjects":["Curiosities and wonders -- China -- Early works to 1900","Fantasy fiction, Chinese","Han Wudi, Emperor of China, 156 B.C.-87 B.C. -- Fiction"],"bookshelves":[],"languages":["zh"],"copyright":false,"media_type":"Text","formats":{"text/html":"https://www.gutenberg.org/ebooks/52271.html.images","application/epub+zip":"https://www.gutenberg.org/ebooks/52271.epub3.images","application/x-mobipocket-ebook":"https://www.gutenberg.org/ebooks/52271.kf8.images","text/plain; charset=us-ascii":"https://www.gutenberg.org/ebooks/52271.txt.utf-8","text/plain; charset=utf-8":"https://www.gutenberg.org/files/52271/52271-0.txt","application/rdf+xml":"https://www.gutenberg.org/ebooks/52271.rdf","image/jpeg":"https://www.gutenberg.org/cache/epub/52271/pg52271.cover.medium.jpg","application/octet-stream":"https://www.gutenberg.org/cache/epub/52271/pg52271-h.zip"},"download_count":45},{"id":12407,"title":"兵法 (Bīng Fǎ)","authors":[{"name":"Sunzi, active 6th century B.C.","birth_year":null,"death_year":null}],"translators":[],"subjects":["Military art and science -- Early works to 1800","War -- Early works to 1800"],"bookshelves":[],"languages":["zh"],"copyright":false,"media_type":"Text","formats":{"text/html":"https://www.gutenberg.org/ebooks/12407.html.images","application/epub+zip":"https://www.gutenberg.org/ebooks/12407.epub3.images","application/x-mobipocket-ebook":"https://www.gutenberg.org/ebooks/12407.kf8.images","text/plain; charset=us-ascii":"https://www.gutenberg.org/ebooks/12407.txt.utf-8","text/plain; charset=utf-8":"https://www.gutenberg.org/files/12407/12407-0.txt","application/rdf+xml":"https://www.gutenberg.org/ebooks/12407.rdf","image/jpeg":"https://www.gutenberg.org/cache/epub/12407/pg12407.cover.medium.jpg","application/octet-stream":"https://www.gutenberg.org/cache/epub/12407/pg12407-h.zip"},"download_count":44},{"id":24028,"title":"東坡樂府","authors":[{"name":"Su, Shi","birth_year":1037,"death_year":1101}],"translators":[],"subjects":["Chinese poetry -- Song dynasty, 960-1279"],"bookshelves":[],"languages":["zh"],"copyright":false,"media_type":"Text","formats":{"text/html":"https://www.gutenberg.org/ebooks/24028.html.images","application/epub+zip":"https://www.gutenberg.org/ebooks/24028.epub3.images","application/x-mobipocket-ebook":"https://www.gutenberg.org/ebooks/24028.kf8.images","text/plain; charset=us-ascii":"https://www.gutenberg.org/ebooks/24028.txt.utf-8","text/plain; charset=utf-8":"https://www.gutenberg.org/files/24028/24028-0.txt","application/rdf+xml":"https://www.gutenberg.org/ebooks/24028.rdf","image/jpeg":"https://www.gutenberg.org/cache/epub/24028/pg24028.cover.medium.jpg","application/octet-stream":"https://www.gutenberg.org/cache/epub/24028/pg24028-h.zip"},"download_count":44},{"id":24137,"title":"東京夢華錄","authors":[{"name":"Meng, Yuanlao, active 1126-1147","birth_year":null,"death_year":null}],"translators":[],"subjects":["China -- Economic conditions -- To 1644","China -- History -- Song dynasty, 960-1279 -- Sources","China -- Social conditions","Kaifeng Xian (China) -- Description and travel"],"bookshelves":[],"languages":["zh"],"copyright":false,"media_type":"Text","formats":{"text/html":"https://www.gutenberg.org/ebooks/24137.html.images","application/epub+zip":"https://www.gutenberg.org/ebooks/24137.epub3.images","application/x-mobipocket-ebook":"https://www.gutenberg.org/ebooks/24137.kf8.images","text/plain; charset=us-ascii":"https://www.gutenberg.org/ebooks/24137.txt.utf-8","text/plain; charset=utf-8":"https://www.gutenberg.org/files/24137/24137-0.txt","application/rdf+xml":"https://www.gutenberg.org/ebooks/24137.rdf","image/jpeg":"https://www.gutenberg.org/cache/epub/24137/pg24137.cover.medium.jpg","application/octet-stream":"https://www.gutenberg.org/cache/epub/24137/pg24137-h.zip"},"download_count":44},{"id":25236,"title":"筠州黃檗山斷際禪師傳法心要","authors":[{"name":"Huangbo","birth_year":null,"death_year":850}],"translators":[],"subjects":["Zen Buddhism"],"bookshelves":[],"languages":["zh"],"copyright":false,"media_type":"Text","formats":{"text/html":"https://www.gutenberg.org/ebooks/25236.html.images","application/epub+zip":"https://www.gutenberg.org/ebooks/25236.epub3.images","application/x-mobipocket-ebook":"https://www.gutenberg.org/ebooks/25236.kf8.images","text/plain; charset=us-ascii":"https://www.gutenberg.org/ebooks/25236.txt.utf-8","text/plain; charset=utf-8":"https://www.gutenberg.org/files/25236/25236-0.txt","application/rdf+xml":"https://www.gutenberg.org/ebooks/25236.rdf","image/jpeg":"https://www.gutenberg.org/cache/epub/25236/pg25236.cover.medium.jpg","application/octet-stream":"https://www.gutenberg.org/cache/epub/25236/pg25236-h.zip"},"download_count":44},{"id":25649,"title":"巧聯珠","authors":[{"name":"Yanxiayishi","birth_year":null,"death_year":null}],"translators":[],"subjects":["Chinese fiction -- Qing dynasty, 1644-1912"],"bookshelves":[],"languages":["zh"],"copyright":false,"media_type":"Text","formats":{"text/html":"https://www.gutenberg.org/ebooks/25649.html.images","application/epub+zip":"https://www.gutenberg.org/ebooks/25649.epub3.images","application/x-mobipocket-ebook":"https://www.gutenberg.org/ebooks/25649.kf8.images","text/plain; charset=us-ascii":"https://www.gutenberg.org/ebooks/25649.txt.utf-8","text/plain; charset=utf-8":"https://www.gutenberg.org/files/25649/25649-0.txt","application/rdf+xml":"https://www.gutenberg.org/ebooks/25649.rdf","image/jpeg":"https://www.gutenberg.org/cache/epub/25649/pg25649.cover.medium.jpg","application/octet-stream":"https://www.gutenberg.org/cache/epub/25649/pg25649-h.zip"},"download_count":44}]}